<?xml version="1.0"?>
<VTKFile type="UnstructuredGrid" version="0.1" byte_order="LittleEndian">
  <UnstructuredGrid>
    <Piece NumberOfCells="30" NumberOfPoints="62">
      <CellData Scalars="Sg">
        <DataArray type="Float32" Name="Sg" NumberOfComponents="1" format="ascii">
          0.0968557 0.0968419 0.096828 0.0968141 0.0968 0.0967859 0.0967718 0.0967577 0.0967437 0.0967297 0.096716 0.0967026
          0.0966896 0.0966772 0.0966655 0.0966539 0.0966387 0.0966012 0.0964583 0.0958525 0.0932985 0.0828886 0.0442952 0
          0 0 0 0 0 0
        </DataArray>
        <DataArray type="Float32" Name="Sl" NumberOfComponents="1" format="ascii">
          0.903144 0.903158 0.903172 0.903186 0.9032 0.903214 0.903228 0.903242 0.903256 0.90327 0.903284 0.903297
          0.90331 0.903323 0.903334 0.903346 0.903361 0.903399 0.903542 0.904147 0.906701 0.917111 0.955705 1
          1 1 1 1 1 1
        </DataArray>
        <DataArray type="Float32" Name="pg" NumberOfComponents="1" format="ascii">
          52433.7 52102.8 51771.9 51440.9 51110 50779 50448 50117 49786.1 49455.1 49124.2 48793.5
          48462.8 48132.3 47802 47471.8 47140.4 46802.8 46434.9 45934.4 44875.8 41566.8 30184.2 17168.2
          16841.3 16514.3 16187.4 15860.4 15533.5 15206.6
        </DataArray>
        <DataArray type="Float32" Name="pl" NumberOfComponents="1" format="ascii">
          110628 110301 109974 109647 109320 108993 108666 108339 108012 107685 107358 107031
          106704 106377 106050 105723 105396 105070 104743 104416 104089 103762 103435 103108
          102781 102454 102127 101800 101473 101146
        </DataArray>
        <DataArray type="Float32" Name="pc" NumberOfComponents="1" format="ascii">
          -58193.8 -58197.8 -58201.8 -58205.8 -58209.8 -58213.8 -58217.9 -58221.9 -58225.9 -58229.9 -58233.9 -58237.7
          -58241.4 -58245 -58248.3 -58251.7 -58256 -58266.8 -58307.7 -58481.2 -59212.9 -62194.9 -73250.6 -85939.7
          -85939.7 -85939.7 -85939.7 -85939.7 -85939.7 -85939.7
        </DataArray>
        <DataArray type="Float32" Name="rhoL" NumberOfComponents="1" format="ascii">
          999.855 999.855 999.855 999.855 999.855 999.854 999.854 999.854 999.854 999.854 999.854 999.854
          999.853 999.853 999.853 999.853 999.853 999.853 999.852 999.852 999.852 999.852 999.852 999.852
          999.852 999.851 999.851 999.851 999.851 999.851
        </DataArray>
        <DataArray type="Float32" Name="rhoG" NumberOfComponents="1" format="ascii">
          0.649585 0.645486 0.641386 0.637286 0.633186 0.629086 0.624985 0.620885 0.616785 0.612685 0.608586 0.604488
          0.600391 0.596297 0.592205 0.588113 0.584009 0.579826 0.575268 0.569068 0.555953 0.514959 0.373943 0.212692
          0.208641 0.204591 0.200541 0.19649 0.19244 0.18839
        </DataArray>
        <DataArray type="Float32" Name="mobL" NumberOfComponents="1" format="ascii">
          722.171 722.17 722.17 722.17 722.17 722.17 722.169 722.169 722.169 722.169 722.169 722.169
          722.168 722.168 722.168 722.168 722.168 722.167 722.167 722.167 722.167 722.167 722.166 722.166
          722.166 722.166 722.166 722.166 722.165 722.165
        </DataArray>
        <DataArray type="Float32" Name="mobG" NumberOfComponents="1" format="ascii">
          0 0 0 0 0 0 0 0 0 0 0 0
          0 0 0 0 0 0 0 0 0 0 0 0
          0 0 0 0 0 0
        </DataArray>
        <DataArray type="Float32" Name="porosity" NumberOfComponents="1" format="ascii">
          0.29847 0.29847 0.29847 0.298469 0.298469 0.298468 0.298468 0.298466 0.298465 0.298463 0.29846 0.298456
          0.29845 0.298443 0.298433 0.29842 0.298401 0.298377 0.298344 0.298299 0.298239 0.298155 0.298039 0.29787
          0.297347 0.296942 0.296232 0.29478 0.291068 0.269614
        </DataArray>
        <DataArray type="Float32" Name="temperature" NumberOfComponents="1" format="ascii">
          281.15 281.15 281.15 281.15 281.15 281.15 281.15 281.15 281.15 281.15 281.15 281.15
          281.15 281.15 281.15 281.15 281.15 281.15 281.15 281.15 281.15 281.15 281.15 281.15
          281.15 281.15 281.15 281.15 281.15 281.15
        </DataArray>
        <DataArray type="Float32" Name="phase presence" NumberOfComponents="1" format="ascii">
          3 3 3 3 3 3 3 3 3 3 3 3
          3 3 3 3 3 3 3 3 3 3 3 1
          1 1 1 1 1 1
        </DataArray>
        <DataArray type="Float32" Name="precipitateVolumeFraction_au" NumberOfComponents="1" format="ascii">
          4.43916e-10 4.43916e-10 4.4392e-10 4.43924e-10 4.43929e-10 4.43933e-10 4.43937e-10 4.43942e-10 4.43947e-10 4.43951e-10 4.43956e-10 4.43961e-10
          4.43965e-10 4.4397e-10 4.43974e-10 4.43978e-10 4.43982e-10 4.43986e-10 4.43989e-10 4.43993e-10 4.43996e-10 4.43999e-10 4.44007e-10 4.6361e-10
          0.000269934 0.000269922 0.000269907 0.000269886 4.43829e-10 4.43217e-10
        </DataArray>
        <DataArray type="Float32" Name="precipitateVolumeFraction_nanoAu" NumberOfComponents="1" format="ascii">
          1.08961e-10 1.08957e-10 1.08953e-10 1.08948e-10 1.08944e-10 1.08939e-10 1.08934e-10 1.08929e-10 1.08924e-10 1.08919e-10 1.08915e-10 1.0891e-10
          1.08905e-10 1.089e-10 1.08895e-10 1.08891e-10 1.08886e-10 1.08882e-10 1.08877e-10 1.08873e-10 1.08868e-10 1.08864e-10 1.08865e-10 1.33685e-10
          6.692e-08 7.83028e-08 9.3488e-08 1.14062e-07 1.08928e-10 1.08662e-10
        </DataArray>
        <DataArray type="Float32" Name="precipitateVolumeFraction_d" NumberOfComponents="1" format="ascii">
          0.000765059 0.00076513 0.00076523 0.000765371 0.000765569 0.000765847 0.000766238 0.000766783 0.000767541 0.000768591 0.000770039 0.000772028
          0.000774745 0.000778442 0.000783452 0.000790215 0.000799323 0.000811572 0.000828059 0.000850324 0.000880603 0.000922273 0.000980702 0.00106495
          0.00119153 0.00139395 0.00174903 0.00247518 0.00446623 0.0151931
        </DataArray>
        <DataArray type="Float32" Name="precipitateVolumeFraction_p" NumberOfComponents="1" format="ascii">
          0.000765059 0.00076513 0.00076523 0.000765371 0.000765569 0.000765847 0.000766238 0.000766783 0.000767541 0.000768591 0.000770039 0.000772028
          0.000774745 0.000778442 0.000783452 0.000790215 0.000799323 0.000811572 0.000828059 0.000850324 0.000880603 0.000922273 0.000980702 0.00106495
          0.00119153 0.00139395 0.00174903 0.00247518 0.00446623 0.0151931
        </DataArray>
        <DataArray type="Float32" Name="K" NumberOfComponents="1" format="ascii">
          9.80486e-11 9.80484e-11 9.80481e-11 9.80478e-11 9.80473e-11 9.80466e-11 9.80456e-11 9.80442e-11 9.80423e-11 9.80396e-11 9.8036e-11 9.80309e-11
          9.80241e-11 9.80147e-11 9.8002e-11 9.79849e-11 9.79619e-11 9.79309e-11 9.78893e-11 9.7833e-11 9.77566e-11 9.76515e-11 9.75042e-11 9.72922e-11
          9.66364e-11 9.61314e-11 9.52509e-11 9.34706e-11 8.90438e-11 6.66735e-11
        </DataArray>
        <DataArray type="Float32" Name="X^w_H2O" NumberOfComponents="1" format="ascii">
          0.99983 0.999831 0.999832 0.999832 0.999833 0.999833 0.999834 0.999834 0.999835 0.999835 0.999836 0.999836
          0.999836 0.999837 0.999837 0.999837 0.999838 0.999838 0.999838 0.999838 0.999839 0.99984 0.999843 0.999852
          0.999853 0.999851 0.999849 0.999846 0.999841 0.999846
        </DataArray>
        <DataArray type="Float32" Name="X^w_Air" NumberOfComponents="1" format="ascii">
          1.59204e-05 1.58179e-05 1.57153e-05 1.56127e-05 1.55101e-05 1.54075e-05 1.53049e-05 1.52024e-05 1.50998e-05 1.49972e-05 1.48946e-05 1.47921e-05
          1.46896e-05 1.45872e-05 1.44848e-05 1.43824e-05 1.42797e-05 1.4175e-05 1.4061e-05 1.39059e-05 1.35777e-05 1.2552e-05 9.02374e-06 9.17253e-07
          1.08599e-08 1.23926e-10 1.33253e-12 1.29978e-14 1.03589e-16 3.75468e-19
        </DataArray>
        <DataArray type="Float32" Name="X^w_AuComplex" NumberOfComponents="1" format="ascii">
          2.46863e-13 2.34403e-13 2.23016e-13 2.12543e-13 2.02682e-13 1.93481e-13 1.82701e-13 1.75402e-13 1.67451e-13 1.61839e-13 1.57075e-13 1.5043e-13
          1.4513e-13 1.43503e-13 1.3977e-13 1.36333e-13 1.33111e-13 1.29664e-13 1.28005e-13 1.25845e-13 1.24113e-13 1.21163e-13 1.24239e-13 1.51448e-13
          8.40522e-11 1.2302e-10 1.89695e-10 3.1122e-10 3.88902e-13 3.55199e-13
        </DataArray>
        <DataArray type="Float32" Name="X^w_nanoAu" NumberOfComponents="1" format="ascii">
          1.69551e-15 1.37258e-15 -3.05055e-16 1.3586e-15 -6.27815e-18 1.71597e-15 6.45224e-16 -5.85128e-16 -3.99654e-17 1.63025e-15 5.06809e-16 -6.95968e-17
          -5.14642e-16 1.49996e-15 1.93679e-16 1.61169e-15 -3.96802e-16 -2.01994e-16 5.6559e-16 8.33477e-16 1.52856e-15 -2.07809e-16 4.08165e-15 3.7331e-15
          2.91149e-13 3.4015e-13 4.04779e-13 4.8391e-13 4.57668e-16 4.1377e-16
        </DataArray>
        <DataArray type="Float32" Name="X^w_cyanide" NumberOfComponents="1" format="ascii">
          1.19257e-05 1.13682e-05 1.08248e-05 1.03023e-05 9.80631e-06 9.34138e-06 8.91083e-06 8.5166e-06 8.15932e-06 7.83841e-06 7.55231e-06 7.29868e-06
          7.07464e-06 6.87706e-06 6.70273e-06 6.54857e-06 6.41173e-06 6.28966e-06 6.18016e-06 6.08123e-06 5.99106e-06 5.90777e-06 5.829e-06 5.75095e-06
          5.66843e-06 7.24186e-06 9.54777e-06 1.3094e-05 1.88185e-05 1.72313e-05
        </DataArray>
        <DataArray type="Float32" Name="X^w_citrate" NumberOfComponents="1" format="ascii">
          0.000141798 0.000141798 0.000141797 0.000141797 0.000141796 0.000141796 0.000141795 0.000141795 0.000141794 0.000141793 0.000141792 0.000141791
          0.000141789 0.000141786 0.000141783 0.000141778 0.000141772 0.000141763 0.00014175 0.000141733 0.000141707 0.000141669 0.000141612 0.000141526
          0.000141384 0.00014114 0.000140675 0.000139659 0.000136876 0.000125281
        </DataArray>
        <DataArray type="Float32" Name="X^w_substrate" NumberOfComponents="1" format="ascii">
          3.26691e-10 3.82444e-10 4.54378e-10 5.47845e-10 6.70067e-10 8.30834e-10 1.04342e-09 1.32589e-09 1.70287e-09 2.20809e-09 2.8879e-09 3.80631e-09
          5.05216e-09 6.74971e-09 9.07411e-09 1.2275e-08 1.67125e-08 2.29144e-08 3.16681e-08 4.41723e-08 6.22971e-08 8.90407e-08 1.29313e-07 1.91083e-07
          2.90857e-07 4.63799e-07 7.92375e-07 1.50959e-06 3.47308e-06 1.16493e-05
        </DataArray>
        <DataArray type="Float32" Name="m^w_H2O" NumberOfComponents="1" format="ascii">
          55491.3 55491.3 55491.3 55491.4 55491.4 55491.4 55491.4 55491.5 55491.5 55491.5 55491.5 55491.5
          55491.5 55491.5 55491.5 55491.5 55491.6 55491.6 55491.6 55491.6 55491.6 55491.6 55491.8 55492.3
          55492.3 55492.2 55492.1 55491.9 55491.6 55491.9
        </DataArray>
        <DataArray type="Float32" Name="m^w_Air" NumberOfComponents="1" format="ascii">
          0.549659 0.546118 0.542577 0.539035 0.535493 0.531951 0.528409 0.524867 0.521325 0.517783 0.514242 0.510702
          0.507163 0.503626 0.500091 0.496557 0.493011 0.489397 0.48546 0.480104 0.468775 0.433363 0.311547 0.0316684
          0.000374942 4.27858e-06 4.60061e-08 4.48752e-10 3.57642e-12 1.29631e-14
        </DataArray>
        <DataArray type="Float32" Name="m^w_AuComplex" NumberOfComponents="1" format="ascii">
          1.25312e-09 1.18987e-09 1.13207e-09 1.0789e-09 1.02885e-09 9.82143e-10 9.2742e-10 8.9037e-10 8.50011e-10 8.21523e-10 7.97337e-10 7.63607e-10
          7.36704e-10 7.28447e-10 7.09494e-10 6.92048e-10 6.75692e-10 6.58198e-10 6.49772e-10 6.3881e-10 6.30017e-10 6.15042e-10 6.30655e-10 7.68773e-10
          4.26663e-07 6.24471e-07 9.62923e-07 1.5798e-06 1.97413e-09 1.80305e-09
        </DataArray>
        <DataArray type="Float32" Name="m^w_nanoAu" NumberOfComponents="1" format="ascii">
          8.6067e-12 6.96747e-12 -1.54851e-12 6.89649e-12 -3.1869e-14 8.71058e-12 3.27527e-12 -2.97021e-12 -2.02871e-13 8.27542e-12 2.57265e-12 -3.53285e-13
          -2.61241e-12 7.61406e-12 9.83145e-13 8.18122e-12 -2.01423e-12 -1.02535e-12 2.87103e-12 4.23087e-12 7.75921e-12 -1.05487e-12 2.07191e-11 1.89498e-11
          1.47792e-09 1.72665e-09 2.05473e-09 2.4564e-09 2.3232e-12 2.10036e-12
        </DataArray>
        <DataArray type="Float32" Name="m^w_cyanide" NumberOfComponents="1" format="ascii">
          0.458263 0.436839 0.41596 0.395881 0.376821 0.358955 0.342411 0.327262 0.313533 0.301202 0.290208 0.280461
          0.271853 0.26426 0.257561 0.251637 0.246379 0.241689 0.237481 0.233679 0.230214 0.227014 0.223987 0.220988
          0.217817 0.278278 0.366885 0.503154 0.723125 0.662135
        </DataArray>
        <DataArray type="Float32" Name="m^w_citrate" NumberOfComponents="1" format="ascii">
          0.749753 0.749751 0.749748 0.749746 0.749744 0.749741 0.749738 0.749735 0.749731 0.749726 0.74972 0.749713
          0.749703 0.749689 0.749671 0.749646 0.749612 0.749565 0.749499 0.749405 0.749269 0.749068 0.748768 0.748311
          0.747563 0.746271 0.743813 0.738441 0.723725 0.662416
        </DataArray>
        <DataArray type="Float32" Name="m^w_substrate" NumberOfComponents="1" format="ascii">
          1.81308e-06 2.1225e-06 2.52171e-06 3.04044e-06 3.71875e-06 4.61098e-06 5.79079e-06 7.35842e-06 9.4506e-06 1.22545e-05 1.60273e-05 2.11243e-05
          2.80385e-05 3.74596e-05 5.03596e-05 6.81236e-05 9.27508e-05 0.00012717 0.000175752 0.000245147 0.000345736 0.000494158 0.000717659 0.00106047
          0.0016142 0.00257399 0.00439752 0.00837792 0.0192749 0.0646513
        </DataArray>
        <DataArray type="Float32" Name="process rank" NumberOfComponents="1" format="ascii">
          0 0 0 0 0 0 0 0 0 0 0 0
          0 0 0 0 0 0 0 0 0 0 0 0
          0 0 0 0 0 0
        </DataArray>
      </CellData>
      <Points>
        <DataArray type="Float32" Name="Coordinates" NumberOfComponents="3" format="ascii">
          0 0 0 0.5 0 0 0 0.0333333 0 0.5 0.0333333 0
          0 0.0666667 0 0.5 0.0666667 0 0 0.1 0 0.5 0.1 0
          0 0.133333 0 0.5 0.133333 0 0 0.166667 0 0.5 0.166667 0
          0 0.2 0 0.5 0.2 0 0 0.233333 0 0.5 0.233333 0
          0 0.266667 0 0.5 0.266667 0 0 0.3 0 0.5 0.3 0
          0 0.333333 0 0.5 0.333333 0 0 0.366667 0 0.5 0.366667 0
          0 0.4 0 0.5 0.4 0 0 0.433333 0 0.5 0.433333 0
          0 0.466667 0 0.5 0.466667 0 0 0.5 0 0.5 0.5 0
          0 0.533333 0 0.5 0.533333 0 0 0.566667 0 0.5 0.566667 0
          0 0.6 0 0.5 0.6 0 0 0.633333 0 0.5 0.633333 0
          0 0.666667 0 0.5 0.666667 0 0 0.7 0 0.5 0.7 0
          0 0.733333 0 0.5 0.733333 0 0 0.766667 0 0.5 0.766667 0
          0 0.8 0 0.5 0.8 0 0 0.833333 0 0.5 0.833333 0
          0 0.866667 0 0.5 0.866667 0 0 0.9 0 0.5 0.9 0
          0 0.933333 0 0.5 0.933333 0 0 0.966667 0 0.5 0.966667 0
          0 1 0 0.5 1 0
        </DataArray>
      </Points>
      <Cells>
        <DataArray type="Int32" Name="connectivity" NumberOfComponents="1" format="ascii">
          0 1 3 2 2 3 5 4 4 5 7 6
          6 7 9 8 8 9 11 10 10 11 13 12
          12 13 15 14 14 15 17 16 16 17 19 18
          18 19 21 20 20 21 23 22 22 23 25 24
          24 25 27 26 26 27 29 28 28 29 31 30
          30 31 33 32 32 33 35 34 34 35 37 36
          36 37 39 38 38 39 41 40 40 41 43 42
          42 43 45 44 44 45 47 46 46 47 49 48
          48 49 51 50 50 51 53 52 52 53 55 54
          54 55 57 56 56 57 59 58 58 59 61 60
        </DataArray>
        <DataArray type="Int32" Name="offsets" NumberOfComponents="1" format="ascii">
          4 8 12 16 20 24 28 32 36 40 44 48
          52 56 60 64 68 72 76 80 84 88 92 96
          100 104 108 112 116 120
        </DataArray>
        <DataArray type="UInt8" Name="types" NumberOfComponents="1" format="ascii">
          9 9 9 9 9 9 9 9 9 9 9 9
          9 9 9 9 9 9 9 9 9 9 9 9
          9 9 9 9 9 9
        </DataArray>
      </Cells>
    </Piece>
  </UnstructuredGrid>
</VTKFile>
