<?xml version="1.0"?>
<VTKFile type="UnstructuredGrid" version="0.1" byte_order="LittleEndian">
  <UnstructuredGrid>
    <Piece NumberOfCells="30" NumberOfPoints="62">
      <CellData Scalars="Sg">
        <DataArray type="Float32" Name="Sg" NumberOfComponents="1" format="ascii">
          0 0 0 0 0 0 0 0 0 0 0 0
          0 0 0 0 0 0 0 0 0 0 0 0
          0 0 0 0 0 0
        </DataArray>
        <DataArray type="Float32" Name="Sl" NumberOfComponents="1" format="ascii">
          1 1 1 1 1 1 1 1 1 1 1 1
          1 1 1 1 1 1 1 1 1 1 1 1
          1 1 1 1 1 1
        </DataArray>
        <DataArray type="Float32" Name="pg" NumberOfComponents="1" format="ascii">
          24687.8 24360.9 24034 23707 23380.1 23053.1 22726.2 22399.3 22072.3 21745.4 21418.4 21091.5
          20764.6 20437.6 20110.7 19783.7 19456.8 19129.9 18802.9 18476 18149 17822.1 17495.1 17168.2
          16841.3 16514.3 16187.4 15860.4 15533.5 15214.9
        </DataArray>
        <DataArray type="Float32" Name="pl" NumberOfComponents="1" format="ascii">
          110628 110301 109974 109647 109320 108993 108666 108339 108012 107685 107358 107031
          106704 106377 106050 105723 105396 105070 104743 104416 104089 103762 103435 103108
          102781 102454 102127 101800 101473 101155
        </DataArray>
        <DataArray type="Float32" Name="pc" NumberOfComponents="1" format="ascii">
          -85939.7 -85939.7 -85939.7 -85939.7 -85939.7 -85939.7 -85939.7 -85939.7 -85939.7 -85939.7 -85939.7 -85939.7
          -85939.7 -85939.7 -85939.7 -85939.7 -85939.7 -85939.7 -85939.7 -85939.7 -85939.7 -85939.7 -85939.7 -85939.7
          -85939.7 -85939.7 -85939.7 -85939.7 -85939.7 -85939.7
        </DataArray>
        <DataArray type="Float32" Name="rhoL" NumberOfComponents="1" format="ascii">
          999.855 999.855 999.855 999.855 999.855 999.854 999.854 999.854 999.854 999.854 999.854 999.854
          999.853 999.853 999.853 999.853 999.853 999.853 999.852 999.852 999.852 999.852 999.852 999.852
          999.852 999.851 999.851 999.851 999.851 999.851
        </DataArray>
        <DataArray type="Float32" Name="rhoG" NumberOfComponents="1" format="ascii">
          0.30585 0.3018 0.29775 0.293699 0.289649 0.285598 0.281548 0.277498 0.273447 0.269397 0.265347 0.261296
          0.257246 0.253195 0.249145 0.245095 0.241044 0.236994 0.232944 0.228893 0.224843 0.220793 0.216742 0.212692
          0.208641 0.204591 0.200541 0.19649 0.19244 0.188493
        </DataArray>
        <DataArray type="Float32" Name="mobL" NumberOfComponents="1" format="ascii">
          722.171 722.17 722.17 722.17 722.17 722.17 722.169 722.169 722.169 722.169 722.169 722.169
          722.168 722.168 722.168 722.168 722.168 722.167 722.167 722.167 722.167 722.167 722.166 722.166
          722.166 722.166 722.166 722.166 722.165 722.165
        </DataArray>
        <DataArray type="Float32" Name="mobG" NumberOfComponents="1" format="ascii">
          0 0 0 0 0 0 0 0 0 0 0 0
          0 0 0 0 0 0 0 0 0 0 0 0
          0 0 0 0 0 0
        </DataArray>
        <DataArray type="Float32" Name="porosity" NumberOfComponents="1" format="ascii">
          0.298612 0.298612 0.298611 0.298611 0.298611 0.29861 0.29861 0.298609 0.298607 0.298605 0.298602 0.298599
          0.298593 0.298586 0.298577 0.298564 0.298547 0.298523 0.298491 0.298448 0.298388 0.298305 0.298186 0.29801
          0.297466 0.297002 0.296101 0.293861 0.284295 0.0324259
        </DataArray>
        <DataArray type="Float32" Name="temperature" NumberOfComponents="1" format="ascii">
          281.15 281.15 281.15 281.15 281.15 281.15 281.15 281.15 281.15 281.15 281.15 281.15
          281.15 281.15 281.15 281.15 281.15 281.15 281.15 281.15 281.15 281.15 281.15 281.15
          281.15 281.15 281.15 281.15 281.15 281.15
        </DataArray>
        <DataArray type="Float32" Name="phase presence" NumberOfComponents="1" format="ascii">
          1 1 1 1 1 1 1 1 1 1 1 1
          1 1 1 1 1 1 1 1 1 1 1 1
          1 1 1 1 1 1
        </DataArray>
        <DataArray type="Float32" Name="precipitateVolumeFraction_au" NumberOfComponents="1" format="ascii">
          5.52526e-10 5.52772e-10 5.52769e-10 5.52702e-10 5.5278e-10 5.52752e-10 5.52765e-10 5.52724e-10 5.52775e-10 5.52755e-10 5.52741e-10 5.52814e-10
          5.52768e-10 5.52797e-10 5.52706e-10 5.52756e-10 5.52721e-10 5.52781e-10 5.52769e-10 5.52722e-10 5.52746e-10 5.52773e-10 5.5293e-10 8.87051e-10
          0.00026994 0.000269924 0.000269899 0.000269853 5.52279e-10 5.5127e-10
        </DataArray>
        <DataArray type="Float32" Name="precipitateVolumeFraction_nanoAu" NumberOfComponents="1" format="ascii">
          1.24239e-13 1.24406e-13 1.24401e-13 1.24367e-13 1.24402e-13 1.24389e-13 1.24392e-13 1.24377e-13 1.24393e-13 1.24385e-13 1.24379e-13 1.24398e-13
          1.24384e-13 1.2439e-13 1.24365e-13 1.24376e-13 1.24365e-13 1.24377e-13 1.24371e-13 1.24355e-13 1.24355e-13 1.2437e-13 1.36312e-13 2.58154e-11
          6.04059e-08 7.67331e-08 1.02198e-07 1.45611e-07 4.74805e-13 4.67975e-13
        </DataArray>
        <DataArray type="Float32" Name="precipitateVolumeFraction_d" NumberOfComponents="1" format="ascii">
          0.000694115 0.000694182 0.000694276 0.000694409 0.000694597 0.00069486 0.000695228 0.000695742 0.000696457 0.000697448 0.000698815 0.000700695
          0.000703266 0.000706772 0.000711532 0.000717979 0.000726694 0.000738471 0.00075442 0.000776129 0.000805953 0.000847554 0.000906952 0.000994804
          0.00113185 0.0013642 0.0018147 0.00293448 0.00785257 0.133787
        </DataArray>
        <DataArray type="Float32" Name="precipitateVolumeFraction_p" NumberOfComponents="1" format="ascii">
          0.000694115 0.000694182 0.000694276 0.000694409 0.000694597 0.00069486 0.000695228 0.000695742 0.000696457 0.000697448 0.000698815 0.000700695
          0.000703266 0.000706772 0.000711532 0.000717979 0.000726694 0.000738471 0.00075442 0.000776129 0.000805953 0.000847554 0.000906952 0.000994804
          0.00113185 0.0013642 0.0018147 0.00293448 0.00785257 0.133787
        </DataArray>
        <DataArray type="Float32" Name="K" NumberOfComponents="1" format="ascii">
          9.82282e-11 9.8228e-11 9.82278e-11 9.82274e-11 9.8227e-11 9.82263e-11 9.82254e-11 9.82241e-11 9.82223e-11 9.82197e-11 9.82163e-11 9.82115e-11
          9.8205e-11 9.81961e-11 9.81841e-11 9.81677e-11 9.81457e-11 9.81158e-11 9.80755e-11 9.80206e-11 9.79451e-11 9.784e-11 9.76901e-11 9.74687e-11
          9.67857e-11 9.62055e-11 9.50887e-11 9.23587e-11 8.14087e-11 6.60909e-14
        </DataArray>
        <DataArray type="Float32" Name="X^w_H2O" NumberOfComponents="1" format="ascii">
          0.999853 0.999853 0.999853 0.999853 0.999853 0.999853 0.999853 0.999853 0.999853 0.999853 0.999853 0.999853
          0.999853 0.999853 0.999853 0.999853 0.999853 0.999853 0.999853 0.999853 0.999853 0.999853 0.999853 0.999853
          0.999853 0.999852 0.99985 0.999846 0.999839 0.999839
        </DataArray>
        <DataArray type="Float32" Name="X^w_Air" NumberOfComponents="1" format="ascii">
          0 0 0 0 0 0 0 0 0 0 0 0
          0 0 0 0 0 0 0 0 0 0 0 0
          0 0 0 0 0 0
        </DataArray>
        <DataArray type="Float32" Name="X^w_AuComplex" NumberOfComponents="1" format="ascii">
          1.41725e-16 1.41894e-16 1.41888e-16 1.41852e-16 1.41888e-16 1.41873e-16 1.41876e-16 1.41858e-16 1.41874e-16 1.41865e-16 1.41858e-16 1.41878e-16
          1.41861e-16 1.41867e-16 1.41838e-16 1.41848e-16 1.41834e-16 1.41846e-16 1.41835e-16 1.41814e-16 1.41809e-16 1.41816e-16 1.5524e-16 2.9437e-14
          6.89149e-11 1.07485e-10 1.84565e-10 3.64208e-10 1.83792e-15 1.79209e-15
        </DataArray>
        <DataArray type="Float32" Name="X^w_nanoAu" NumberOfComponents="1" format="ascii">
          5.41113e-19 5.4183e-19 5.41808e-19 5.41666e-19 5.41816e-19 5.41757e-19 5.41773e-19 5.41705e-19 5.41773e-19 5.41739e-19 5.41717e-19 5.41798e-19
          5.41737e-19 5.41761e-19 5.41653e-19 5.41698e-19 5.4165e-19 5.41701e-19 5.4167e-19 5.4164e-19 5.45336e-19 8.8786e-19 3.25856e-17 2.96166e-15
          2.63827e-13 3.35331e-13 4.46873e-13 6.26762e-13 2.0621e-18 1.98936e-18
        </DataArray>
        <DataArray type="Float32" Name="X^w_cyanide" NumberOfComponents="1" format="ascii">
          5.07352e-06 5.07348e-06 5.07345e-06 5.07341e-06 5.07337e-06 5.07334e-06 5.0733e-06 5.07326e-06 5.07323e-06 5.07319e-06 5.07315e-06 5.07311e-06
          5.07306e-06 5.07301e-06 5.07296e-06 5.07289e-06 5.07282e-06 5.07272e-06 5.0726e-06 5.07244e-06 5.07221e-06 5.0719e-06 5.07143e-06 5.07072e-06
          5.07005e-06 6.44013e-06 8.57615e-06 1.22415e-05 1.94634e-05 1.92515e-05
        </DataArray>
        <DataArray type="Float32" Name="X^w_citrate" NumberOfComponents="1" format="ascii">
          0.000141796 0.000141796 0.000141796 0.000141796 0.000141796 0.000141796 0.000141796 0.000141796 0.000141796 0.000141796 0.000141796 0.000141796
          0.000141796 0.000141796 0.000141795 0.000141795 0.000141795 0.000141794 0.000141794 0.000141793 0.000141791 0.000141789 0.000141786 0.000141781
          0.000141773 0.000141759 0.000141732 0.000141666 0.00014145 0.000139909
        </DataArray>
        <DataArray type="Float32" Name="X^w_substrate" NumberOfComponents="1" format="ascii">
          4.04257e-12 5.61647e-12 7.80289e-12 1.08402e-11 1.50598e-11 2.09221e-11 2.90679e-11 4.03886e-11 5.61266e-11 7.80149e-11 1.08476e-10 1.50905e-10
          2.10075e-10 2.92731e-10 4.08457e-10 5.70989e-10 8.00204e-10 1.12527e-09 1.5897e-09 2.25986e-09 3.23979e-09 4.69839e-09 6.92258e-09 1.0429e-08
          1.62231e-08 2.64777e-08 4.66516e-08 9.39386e-08 2.47907e-07 1.33417e-06
        </DataArray>
        <DataArray type="Float32" Name="m^w_H2O" NumberOfComponents="1" format="ascii">
          55492.6 55492.6 55492.5 55492.5 55492.5 55492.5 55492.5 55492.5 55492.5 55492.5 55492.5 55492.5
          55492.5 55492.4 55492.4 55492.4 55492.4 55492.4 55492.4 55492.4 55492.4 55492.4 55492.4 55492.4
          55492.3 55492.3 55492.1 55491.9 55491.5 55491.5
        </DataArray>
        <DataArray type="Float32" Name="m^w_Air" NumberOfComponents="1" format="ascii">
          0 0 0 0 0 0 0 0 0 0 0 0
          0 0 0 0 0 0 0 0 0 0 0 0
          0 0 0 0 0 0
        </DataArray>
        <DataArray type="Float32" Name="m^w_AuComplex" NumberOfComponents="1" format="ascii">
          7.19421e-13 7.20279e-13 7.20249e-13 7.20067e-13 7.20249e-13 7.20171e-13 7.20186e-13 7.20096e-13 7.20178e-13 7.2013e-13 7.20096e-13 7.20197e-13
          7.20112e-13 7.2014e-13 7.19991e-13 7.20045e-13 7.19974e-13 7.20031e-13 7.1998e-13 7.19872e-13 7.19846e-13 7.19883e-13 7.88023e-13 1.49427e-10
          3.49823e-07 5.45609e-07 9.36883e-07 1.84878e-06 9.3296e-12 9.09694e-12
        </DataArray>
        <DataArray type="Float32" Name="m^w_nanoAu" NumberOfComponents="1" format="ascii">
          2.74679e-15 2.75043e-15 2.75032e-15 2.74959e-15 2.75035e-15 2.75006e-15 2.75013e-15 2.74979e-15 2.75014e-15 2.74996e-15 2.74985e-15 2.75026e-15
          2.74995e-15 2.75007e-15 2.74952e-15 2.74975e-15 2.74951e-15 2.74976e-15 2.74961e-15 2.74945e-15 2.76821e-15 4.50692e-15 1.6541e-13 1.50338e-11
          1.33923e-09 1.7022e-09 2.2684e-09 3.18154e-09 1.04675e-14 1.00983e-14
        </DataArray>
        <DataArray type="Float32" Name="m^w_cyanide" NumberOfComponents="1" format="ascii">
          0.194957 0.194956 0.194954 0.194953 0.194951 0.19495 0.194949 0.194947 0.194946 0.194944 0.194943 0.194941
          0.194939 0.194937 0.194935 0.194933 0.19493 0.194926 0.194921 0.194915 0.194906 0.194894 0.194876 0.194849
          0.194823 0.24747 0.329549 0.470393 0.747905 0.739762
        </DataArray>
        <DataArray type="Float32" Name="m^w_citrate" NumberOfComponents="1" format="ascii">
          0.749742 0.749742 0.749742 0.749742 0.749742 0.749742 0.749741 0.749741 0.749741 0.749741 0.74974 0.74974
          0.749739 0.749739 0.749738 0.749736 0.749734 0.749732 0.749728 0.749723 0.749716 0.749705 0.749688 0.749661
          0.749618 0.749546 0.749401 0.749054 0.747908 0.739763
        </DataArray>
        <DataArray type="Float32" Name="m^w_substrate" NumberOfComponents="1" format="ascii">
          2.24355e-08 3.11704e-08 4.33046e-08 6.01612e-08 8.3579e-08 1.16114e-07 1.61321e-07 2.24149e-07 3.11492e-07 4.32968e-07 6.02021e-07 8.37493e-07
          1.16588e-06 1.6246e-06 2.26686e-06 3.16888e-06 4.44098e-06 6.24502e-06 8.82252e-06 1.25418e-05 1.79802e-05 2.60751e-05 3.84189e-05 5.78791e-05
          9.00346e-05 0.000146946 0.000258907 0.00052134 0.00137583 0.00740436
        </DataArray>
        <DataArray type="Float32" Name="process rank" NumberOfComponents="1" format="ascii">
          0 0 0 0 0 0 0 0 0 0 0 0
          0 0 0 0 0 0 0 0 0 0 0 0
          0 0 0 0 0 0
        </DataArray>
      </CellData>
      <Points>
        <DataArray type="Float32" Name="Coordinates" NumberOfComponents="3" format="ascii">
          0 0 0 0.5 0 0 0 0.0333333 0 0.5 0.0333333 0
          0 0.0666667 0 0.5 0.0666667 0 0 0.1 0 0.5 0.1 0
          0 0.133333 0 0.5 0.133333 0 0 0.166667 0 0.5 0.166667 0
          0 0.2 0 0.5 0.2 0 0 0.233333 0 0.5 0.233333 0
          0 0.266667 0 0.5 0.266667 0 0 0.3 0 0.5 0.3 0
          0 0.333333 0 0.5 0.333333 0 0 0.366667 0 0.5 0.366667 0
          0 0.4 0 0.5 0.4 0 0 0.433333 0 0.5 0.433333 0
          0 0.466667 0 0.5 0.466667 0 0 0.5 0 0.5 0.5 0
          0 0.533333 0 0.5 0.533333 0 0 0.566667 0 0.5 0.566667 0
          0 0.6 0 0.5 0.6 0 0 0.633333 0 0.5 0.633333 0
          0 0.666667 0 0.5 0.666667 0 0 0.7 0 0.5 0.7 0
          0 0.733333 0 0.5 0.733333 0 0 0.766667 0 0.5 0.766667 0
          0 0.8 0 0.5 0.8 0 0 0.833333 0 0.5 0.833333 0
          0 0.866667 0 0.5 0.866667 0 0 0.9 0 0.5 0.9 0
          0 0.933333 0 0.5 0.933333 0 0 0.966667 0 0.5 0.966667 0
          0 1 0 0.5 1 0
        </DataArray>
      </Points>
      <Cells>
        <DataArray type="Int32" Name="connectivity" NumberOfComponents="1" format="ascii">
          0 1 3 2 2 3 5 4 4 5 7 6
          6 7 9 8 8 9 11 10 10 11 13 12
          12 13 15 14 14 15 17 16 16 17 19 18
          18 19 21 20 20 21 23 22 22 23 25 24
          24 25 27 26 26 27 29 28 28 29 31 30
          30 31 33 32 32 33 35 34 34 35 37 36
          36 37 39 38 38 39 41 40 40 41 43 42
          42 43 45 44 44 45 47 46 46 47 49 48
          48 49 51 50 50 51 53 52 52 53 55 54
          54 55 57 56 56 57 59 58 58 59 61 60
        </DataArray>
        <DataArray type="Int32" Name="offsets" NumberOfComponents="1" format="ascii">
          4 8 12 16 20 24 28 32 36 40 44 48
          52 56 60 64 68 72 76 80 84 88 92 96
          100 104 108 112 116 120
        </DataArray>
        <DataArray type="UInt8" Name="types" NumberOfComponents="1" format="ascii">
          9 9 9 9 9 9 9 9 9 9 9 9
          9 9 9 9 9 9 9 9 9 9 9 9
          9 9 9 9 9 9
        </DataArray>
      </Cells>
    </Piece>
  </UnstructuredGrid>
</VTKFile>
