<?xml version="1.0"?>
<VTKFile type="UnstructuredGrid" version="0.1" byte_order="LittleEndian">
  <UnstructuredGrid>
    <Piece NumberOfCells="30" NumberOfPoints="62">
      <CellData Scalars="Sg">
        <DataArray type="Float32" Name="Sg" NumberOfComponents="1" format="ascii">
          0 0 0 0 0 0 0 0 0 0 0 0
          0 0 0 0 0 0 0 0 0 0 0 0
          0 0 0 0 0 0
        </DataArray>
        <DataArray type="Float32" Name="Sl" NumberOfComponents="1" format="ascii">
          1 1 1 1 1 1 1 1 1 1 1 1
          1 1 1 1 1 1 1 1 1 1 1 1
          1 1 1 1 1 1
        </DataArray>
        <DataArray type="Float32" Name="pg" NumberOfComponents="1" format="ascii">
          24687.8 24360.9 24034 23707 23380.1 23053.1 22726.2 22399.3 22072.3 21745.4 21418.4 21091.5
          20764.6 20437.6 20110.7 19783.7 19456.8 19129.8 18802.9 18476 18149 17822.1 17495.1 17168.2
          16841.3 16514.3 16187.4 15860.4 15533.5 16578.2
        </DataArray>
        <DataArray type="Float32" Name="pl" NumberOfComponents="1" format="ascii">
          110628 110301 109974 109647 109320 108993 108666 108339 108012 107685 107358 107031
          106704 106377 106050 105723 105396 105070 104743 104416 104089 103762 103435 103108
          102781 102454 102127 101800 101473 102518
        </DataArray>
        <DataArray type="Float32" Name="pc" NumberOfComponents="1" format="ascii">
          -85939.7 -85939.7 -85939.7 -85939.7 -85939.7 -85939.7 -85939.7 -85939.7 -85939.7 -85939.7 -85939.7 -85939.7
          -85939.7 -85939.7 -85939.7 -85939.7 -85939.7 -85939.7 -85939.7 -85939.7 -85939.7 -85939.7 -85939.7 -85939.7
          -85939.7 -85939.7 -85939.7 -85939.7 -85939.7 -85939.7
        </DataArray>
        <DataArray type="Float32" Name="rhoL" NumberOfComponents="1" format="ascii">
          999.855 999.855 999.855 999.855 999.855 999.854 999.854 999.854 999.854 999.854 999.854 999.854
          999.853 999.853 999.853 999.853 999.853 999.853 999.852 999.852 999.852 999.852 999.852 999.852
          999.852 999.851 999.851 999.851 999.851 999.851
        </DataArray>
        <DataArray type="Float32" Name="rhoG" NumberOfComponents="1" format="ascii">
          0.30585 0.3018 0.29775 0.293699 0.289649 0.285598 0.281548 0.277498 0.273447 0.269397 0.265347 0.261296
          0.257246 0.253195 0.249145 0.245095 0.241044 0.236994 0.232944 0.228893 0.224843 0.220793 0.216742 0.212692
          0.208641 0.204591 0.200541 0.19649 0.19244 0.205382
        </DataArray>
        <DataArray type="Float32" Name="mobL" NumberOfComponents="1" format="ascii">
          722.171 722.17 722.17 722.17 722.17 722.17 722.169 722.169 722.169 722.169 722.169 722.169
          722.168 722.168 722.168 722.168 722.168 722.167 722.167 722.167 722.167 722.167 722.166 722.166
          722.166 722.166 722.166 722.166 722.165 722.166
        </DataArray>
        <DataArray type="Float32" Name="mobG" NumberOfComponents="1" format="ascii">
          0 0 0 0 0 0 0 0 0 0 0 0
          0 0 0 0 0 0 0 0 0 0 0 0
          0 0 0 0 0 0
        </DataArray>
        <DataArray type="Float32" Name="porosity" NumberOfComponents="1" format="ascii">
          0.298722 0.298722 0.298722 0.298722 0.298721 0.298721 0.29872 0.298719 0.298718 0.298716 0.298714 0.29871
          0.298705 0.298699 0.29869 0.298678 0.298661 0.298639 0.29861 0.298569 0.298513 0.298434 0.298322 0.298154
          0.29762 0.297167 0.296269 0.293934 0.282827 0.00601941
        </DataArray>
        <DataArray type="Float32" Name="temperature" NumberOfComponents="1" format="ascii">
          281.15 281.15 281.15 281.15 281.15 281.15 281.15 281.15 281.15 281.15 281.15 281.15
          281.15 281.15 281.15 281.15 281.15 281.15 281.15 281.15 281.15 281.15 281.15 281.15
          281.15 281.15 281.15 281.15 281.15 281.15
        </DataArray>
        <DataArray type="Float32" Name="phase presence" NumberOfComponents="1" format="ascii">
          1 1 1 1 1 1 1 1 1 1 1 1
          1 1 1 1 1 1 1 1 1 1 1 1
          1 1 1 1 1 1
        </DataArray>
        <DataArray type="Float32" Name="precipitateVolumeFraction_au" NumberOfComponents="1" format="ascii">
          5.52527e-10 5.52772e-10 5.52769e-10 5.52703e-10 5.52781e-10 5.52752e-10 5.52766e-10 5.52725e-10 5.52776e-10 5.52756e-10 5.52742e-10 5.52814e-10
          5.52769e-10 5.52798e-10 5.52707e-10 5.52757e-10 5.52721e-10 5.52782e-10 5.52769e-10 5.52722e-10 5.52747e-10 5.52774e-10 5.53054e-10 1.1522e-09
          0.000269941 0.000269925 0.0002699 0.000269852 5.52279e-10 5.51263e-10
        </DataArray>
        <DataArray type="Float32" Name="precipitateVolumeFraction_nanoAu" NumberOfComponents="1" format="ascii">
          1.23582e-13 1.23636e-13 1.23635e-13 1.23621e-13 1.23638e-13 1.23631e-13 1.23634e-13 1.23625e-13 1.23636e-13 1.23631e-13 1.23628e-13 1.23644e-13
          1.23633e-13 1.23639e-13 1.23618e-13 1.23629e-13 1.2362e-13 1.23631e-13 1.23626e-13 1.23613e-13 1.23614e-13 1.2363e-13 1.35573e-13 2.58095e-11
          6.03612e-08 7.66849e-08 1.02153e-07 1.4559e-07 4.74401e-13 4.68103e-13
        </DataArray>
        <DataArray type="Float32" Name="precipitateVolumeFraction_d" NumberOfComponents="1" format="ascii">
          0.000638873 0.000638936 0.000639024 0.000639148 0.000639323 0.000639568 0.000639911 0.00064039 0.000641056 0.000641979 0.000643253 0.000645004
          0.0006474 0.000650668 0.000655107 0.000661123 0.000669263 0.000680276 0.000695212 0.00071558 0.000743633 0.000782891 0.000839189 0.000922963
          0.0010548 0.00128135 0.00173073 0.00289802 0.00858675 0.14699
        </DataArray>
        <DataArray type="Float32" Name="precipitateVolumeFraction_p" NumberOfComponents="1" format="ascii">
          0.000638873 0.000638936 0.000639024 0.000639148 0.000639323 0.000639568 0.000639911 0.00064039 0.000641056 0.000641979 0.000643253 0.000645004
          0.0006474 0.000650668 0.000655107 0.000661123 0.000669263 0.000680276 0.000695212 0.00071558 0.000743633 0.000782891 0.000839189 0.000922963
          0.0010548 0.00128135 0.00173073 0.00289802 0.00858675 0.14699
        </DataArray>
        <DataArray type="Float32" Name="K" NumberOfComponents="1" format="ascii">
          9.83682e-11 9.83681e-11 9.83679e-11 9.83676e-11 9.83671e-11 9.83665e-11 9.83656e-11 9.83644e-11 9.83627e-11 9.83604e-11 9.83571e-11 9.83527e-11
          9.83466e-11 9.83383e-11 9.83271e-11 9.83118e-11 9.82912e-11 9.82633e-11 9.82254e-11 9.81738e-11 9.81028e-11 9.80035e-11 9.78611e-11 9.76497e-11
          9.69788e-11 9.64121e-11 9.52961e-11 9.24466e-11 7.9826e-11 4.00626e-16
        </DataArray>
        <DataArray type="Float32" Name="X^w_H2O" NumberOfComponents="1" format="ascii">
          0.999853 0.999853 0.999853 0.999853 0.999853 0.999853 0.999853 0.999853 0.999853 0.999853 0.999853 0.999853
          0.999853 0.999853 0.999853 0.999853 0.999853 0.999853 0.999853 0.999853 0.999853 0.999853 0.999853 0.999853
          0.999853 0.999852 0.99985 0.999846 0.999839 0.999839
        </DataArray>
        <DataArray type="Float32" Name="X^w_Air" NumberOfComponents="1" format="ascii">
          0 0 0 0 0 0 0 0 0 0 0 0
          0 0 0 0 0 0 0 0 0 0 0 0
          0 0 0 0 0 0
        </DataArray>
        <DataArray type="Float32" Name="X^w_AuComplex" NumberOfComponents="1" format="ascii">
          1.40979e-16 1.41042e-16 1.41041e-16 1.41024e-16 1.41044e-16 1.41036e-16 1.41039e-16 1.41029e-16 1.41041e-16 1.41036e-16 1.41032e-16 1.4105e-16
          1.41037e-16 1.41044e-16 1.41019e-16 1.4103e-16 1.41018e-16 1.4103e-16 1.41023e-16 1.41004e-16 1.41001e-16 1.41011e-16 1.54432e-16 2.9417e-14
          6.88311e-11 1.07372e-10 1.84424e-10 3.64118e-10 1.83714e-15 1.79467e-15
        </DataArray>
        <DataArray type="Float32" Name="X^w_nanoAu" NumberOfComponents="1" format="ascii">
          5.38243e-19 5.38479e-19 5.38475e-19 5.38411e-19 5.38485e-19 5.38457e-19 5.38469e-19 5.3843e-19 5.38478e-19 5.38457e-19 5.38443e-19 5.38511e-19
          5.38465e-19 5.3849e-19 5.38399e-19 5.38442e-19 5.38402e-19 5.38451e-19 5.38426e-19 5.38404e-19 5.4209e-19 8.83573e-19 3.25096e-17 2.95728e-15
          2.63635e-13 3.3513e-13 4.46701e-13 6.26765e-13 2.06118e-18 1.99233e-18
        </DataArray>
        <DataArray type="Float32" Name="X^w_cyanide" NumberOfComponents="1" format="ascii">
          5.06948e-06 5.06947e-06 5.06947e-06 5.06947e-06 5.06947e-06 5.06946e-06 5.06946e-06 5.06945e-06 5.06945e-06 5.06944e-06 5.06943e-06 5.06942e-06
          5.06941e-06 5.06939e-06 5.06936e-06 5.06933e-06 5.06928e-06 5.06922e-06 5.06912e-06 5.069e-06 5.06881e-06 5.06855e-06 5.06815e-06 5.06754e-06
          5.06704e-06 6.43687e-06 8.57304e-06 1.22401e-05 1.94709e-05 1.92748e-05
        </DataArray>
        <DataArray type="Float32" Name="X^w_citrate" NumberOfComponents="1" format="ascii">
          0.000141796 0.000141796 0.000141796 0.000141796 0.000141796 0.000141796 0.000141796 0.000141796 0.000141796 0.000141796 0.000141796 0.000141796
          0.000141796 0.000141796 0.000141795 0.000141795 0.000141795 0.000141794 0.000141794 0.000141793 0.000141791 0.000141789 0.000141787 0.000141782
          0.000141775 0.000141763 0.000141741 0.000141686 0.000141504 0.000140079
        </DataArray>
        <DataArray type="Float32" Name="X^w_substrate" NumberOfComponents="1" format="ascii">
          6.2943e-12 8.5599e-12 1.16406e-11 1.58295e-11 2.15255e-11 2.92714e-11 3.98062e-11 5.41365e-11 7.36356e-11 1.00179e-10 1.36333e-10 1.85621e-10
          2.52893e-10 3.44862e-10 4.70879e-10 6.44073e-10 8.8308e-10 1.21473e-09 1.67831e-09 2.33269e-09 3.2686e-09 4.63105e-09 6.66275e-09 9.79512e-09
          1.48585e-08 2.36341e-08 4.05866e-08 7.98993e-08 2.09438e-07 1.21436e-06
        </DataArray>
        <DataArray type="Float32" Name="m^w_H2O" NumberOfComponents="1" format="ascii">
          55492.6 55492.6 55492.5 55492.5 55492.5 55492.5 55492.5 55492.5 55492.5 55492.5 55492.5 55492.5
          55492.5 55492.4 55492.4 55492.4 55492.4 55492.4 55492.4 55492.4 55492.4 55492.4 55492.4 55492.4
          55492.3 55492.3 55492.1 55491.9 55491.5 55491.6
        </DataArray>
        <DataArray type="Float32" Name="m^w_Air" NumberOfComponents="1" format="ascii">
          0 0 0 0 0 0 0 0 0 0 0 0
          0 0 0 0 0 0 0 0 0 0 0 0
          0 0 0 0 0 0
        </DataArray>
        <DataArray type="Float32" Name="m^w_AuComplex" NumberOfComponents="1" format="ascii">
          7.15637e-13 7.15954e-13 7.15949e-13 7.15862e-13 7.15962e-13 7.15924e-13 7.1594e-13 7.15886e-13 7.1595e-13 7.15922e-13 7.15902e-13 7.15992e-13
          7.15929e-13 7.15961e-13 7.15837e-13 7.15892e-13 7.15833e-13 7.15894e-13 7.15854e-13 7.15759e-13 7.15744e-13 7.15795e-13 7.83923e-13 1.49326e-10
          3.49398e-07 5.45035e-07 9.36165e-07 1.84832e-06 9.32561e-12 9.11005e-12
        </DataArray>
        <DataArray type="Float32" Name="m^w_nanoAu" NumberOfComponents="1" format="ascii">
          2.73222e-15 2.73341e-15 2.73339e-15 2.73307e-15 2.73345e-15 2.7333e-15 2.73336e-15 2.73316e-15 2.73341e-15 2.7333e-15 2.73323e-15 2.73357e-15
          2.73334e-15 2.73346e-15 2.733e-15 2.73322e-15 2.73302e-15 2.73327e-15 2.73314e-15 2.73303e-15 2.75174e-15 4.48516e-15 1.65024e-13 1.50116e-11
          1.33825e-09 1.70118e-09 2.26753e-09 3.18156e-09 1.04629e-14 1.01134e-14
        </DataArray>
        <DataArray type="Float32" Name="m^w_cyanide" NumberOfComponents="1" format="ascii">
          0.194802 0.194802 0.194802 0.194801 0.194801 0.194801 0.194801 0.194801 0.194801 0.1948 0.1948 0.194799
          0.194799 0.194798 0.194797 0.194796 0.194794 0.194791 0.194788 0.194783 0.194776 0.194765 0.19475 0.194727
          0.194707 0.247345 0.32943 0.470341 0.748194 0.74066
        </DataArray>
        <DataArray type="Float32" Name="m^w_citrate" NumberOfComponents="1" format="ascii">
          0.749742 0.749742 0.749742 0.749742 0.749742 0.749742 0.749741 0.749741 0.749741 0.749741 0.74974 0.74974
          0.749739 0.749738 0.749737 0.749736 0.749734 0.749731 0.749728 0.749723 0.749716 0.749705 0.74969 0.749666
          0.749628 0.749567 0.749446 0.749159 0.748197 0.740662
        </DataArray>
        <DataArray type="Float32" Name="m^w_substrate" NumberOfComponents="1" format="ascii">
          3.49322e-08 4.75059e-08 6.4603e-08 8.78507e-08 1.19463e-07 1.62451e-07 2.20917e-07 3.00447e-07 4.08663e-07 5.55974e-07 7.56623e-07 1.03016e-06
          1.40351e-06 1.91392e-06 2.61329e-06 3.57448e-06 4.90092e-06 6.7415e-06 9.31427e-06 1.2946e-05 1.81401e-05 2.57014e-05 3.69769e-05 5.43609e-05
          8.24615e-05 0.000131164 0.000225247 0.000443425 0.00116234 0.00673947
        </DataArray>
        <DataArray type="Float32" Name="process rank" NumberOfComponents="1" format="ascii">
          0 0 0 0 0 0 0 0 0 0 0 0
          0 0 0 0 0 0 0 0 0 0 0 0
          0 0 0 0 0 0
        </DataArray>
      </CellData>
      <Points>
        <DataArray type="Float32" Name="Coordinates" NumberOfComponents="3" format="ascii">
          0 0 0 0.5 0 0 0 0.0333333 0 0.5 0.0333333 0
          0 0.0666667 0 0.5 0.0666667 0 0 0.1 0 0.5 0.1 0
          0 0.133333 0 0.5 0.133333 0 0 0.166667 0 0.5 0.166667 0
          0 0.2 0 0.5 0.2 0 0 0.233333 0 0.5 0.233333 0
          0 0.266667 0 0.5 0.266667 0 0 0.3 0 0.5 0.3 0
          0 0.333333 0 0.5 0.333333 0 0 0.366667 0 0.5 0.366667 0
          0 0.4 0 0.5 0.4 0 0 0.433333 0 0.5 0.433333 0
          0 0.466667 0 0.5 0.466667 0 0 0.5 0 0.5 0.5 0
          0 0.533333 0 0.5 0.533333 0 0 0.566667 0 0.5 0.566667 0
          0 0.6 0 0.5 0.6 0 0 0.633333 0 0.5 0.633333 0
          0 0.666667 0 0.5 0.666667 0 0 0.7 0 0.5 0.7 0
          0 0.733333 0 0.5 0.733333 0 0 0.766667 0 0.5 0.766667 0
          0 0.8 0 0.5 0.8 0 0 0.833333 0 0.5 0.833333 0
          0 0.866667 0 0.5 0.866667 0 0 0.9 0 0.5 0.9 0
          0 0.933333 0 0.5 0.933333 0 0 0.966667 0 0.5 0.966667 0
          0 1 0 0.5 1 0
        </DataArray>
      </Points>
      <Cells>
        <DataArray type="Int32" Name="connectivity" NumberOfComponents="1" format="ascii">
          0 1 3 2 2 3 5 4 4 5 7 6
          6 7 9 8 8 9 11 10 10 11 13 12
          12 13 15 14 14 15 17 16 16 17 19 18
          18 19 21 20 20 21 23 22 22 23 25 24
          24 25 27 26 26 27 29 28 28 29 31 30
          30 31 33 32 32 33 35 34 34 35 37 36
          36 37 39 38 38 39 41 40 40 41 43 42
          42 43 45 44 44 45 47 46 46 47 49 48
          48 49 51 50 50 51 53 52 52 53 55 54
          54 55 57 56 56 57 59 58 58 59 61 60
        </DataArray>
        <DataArray type="Int32" Name="offsets" NumberOfComponents="1" format="ascii">
          4 8 12 16 20 24 28 32 36 40 44 48
          52 56 60 64 68 72 76 80 84 88 92 96
          100 104 108 112 116 120
        </DataArray>
        <DataArray type="UInt8" Name="types" NumberOfComponents="1" format="ascii">
          9 9 9 9 9 9 9 9 9 9 9 9
          9 9 9 9 9 9 9 9 9 9 9 9
          9 9 9 9 9 9
        </DataArray>
      </Cells>
    </Piece>
  </UnstructuredGrid>
</VTKFile>
