<?xml version="1.0"?>
<VTKFile type="UnstructuredGrid" version="0.1" byte_order="LittleEndian">
  <UnstructuredGrid>
    <Piece NumberOfCells="30" NumberOfPoints="62">
      <CellData Scalars="Sg">
        <DataArray type="Float32" Name="Sg" NumberOfComponents="1" format="ascii">
          0 0 0 0 0 0 0 0 0 0 0 0
          0 0 0 0 0 0 0 0 0 0 0 0
          0 0 0 0 0 0
        </DataArray>
        <DataArray type="Float32" Name="Sl" NumberOfComponents="1" format="ascii">
          1 1 1 1 1 1 1 1 1 1 1 1
          1 1 1 1 1 1 1 1 1 1 1 1
          1 1 1 1 1 1
        </DataArray>
        <DataArray type="Float32" Name="pg" NumberOfComponents="1" format="ascii">
          24687.8 24360.9 24034 23707 23380.1 23053.1 22726.2 22399.3 22072.3 21745.4 21418.4 21091.5
          20764.6 20437.6 20110.7 19783.7 19456.8 19129.8 18802.9 18476 18149 17822.1 17495.1 17168.2
          16841.3 16514.3 16187.4 15860.4 15533.5 20367
        </DataArray>
        <DataArray type="Float32" Name="pl" NumberOfComponents="1" format="ascii">
          110628 110301 109974 109647 109320 108993 108666 108339 108012 107685 107358 107031
          106704 106377 106050 105723 105396 105070 104743 104416 104089 103762 103435 103108
          102781 102454 102127 101800 101473 106307
        </DataArray>
        <DataArray type="Float32" Name="pc" NumberOfComponents="1" format="ascii">
          -85939.7 -85939.7 -85939.7 -85939.7 -85939.7 -85939.7 -85939.7 -85939.7 -85939.7 -85939.7 -85939.7 -85939.7
          -85939.7 -85939.7 -85939.7 -85939.7 -85939.7 -85939.7 -85939.7 -85939.7 -85939.7 -85939.7 -85939.7 -85939.7
          -85939.7 -85939.7 -85939.7 -85939.7 -85939.7 -85939.7
        </DataArray>
        <DataArray type="Float32" Name="rhoL" NumberOfComponents="1" format="ascii">
          999.855 999.855 999.855 999.855 999.855 999.854 999.854 999.854 999.854 999.854 999.854 999.854
          999.853 999.853 999.853 999.853 999.853 999.853 999.852 999.852 999.852 999.852 999.852 999.852
          999.852 999.851 999.851 999.851 999.851 999.853
        </DataArray>
        <DataArray type="Float32" Name="rhoG" NumberOfComponents="1" format="ascii">
          0.30585 0.3018 0.29775 0.293699 0.289649 0.285598 0.281548 0.277498 0.273447 0.269397 0.265347 0.261296
          0.257246 0.253195 0.249145 0.245095 0.241044 0.236994 0.232944 0.228893 0.224843 0.220793 0.216742 0.212692
          0.208641 0.204591 0.200541 0.19649 0.19244 0.252321
        </DataArray>
        <DataArray type="Float32" Name="mobL" NumberOfComponents="1" format="ascii">
          722.171 722.17 722.17 722.17 722.17 722.17 722.169 722.169 722.169 722.169 722.169 722.169
          722.168 722.168 722.168 722.168 722.168 722.167 722.167 722.167 722.167 722.167 722.166 722.166
          722.166 722.166 722.166 722.166 722.165 722.168
        </DataArray>
        <DataArray type="Float32" Name="mobG" NumberOfComponents="1" format="ascii">
          0 0 0 0 0 0 0 0 0 0 0 0
          0 0 0 0 0 0 0 0 0 0 0 0
          0 0 0 0 0 0
        </DataArray>
        <DataArray type="Float32" Name="porosity" NumberOfComponents="1" format="ascii">
          0.298782 0.298782 0.298782 0.298782 0.298781 0.298781 0.29878 0.298779 0.298778 0.298776 0.298774 0.298771
          0.298766 0.29876 0.298751 0.29874 0.298724 0.298703 0.298674 0.298635 0.29858 0.298505 0.298395 0.298233
          0.297705 0.29726 0.296367 0.293997 0.282149 0.00387566
        </DataArray>
        <DataArray type="Float32" Name="temperature" NumberOfComponents="1" format="ascii">
          281.15 281.15 281.15 281.15 281.15 281.15 281.15 281.15 281.15 281.15 281.15 281.15
          281.15 281.15 281.15 281.15 281.15 281.15 281.15 281.15 281.15 281.15 281.15 281.15
          281.15 281.15 281.15 281.15 281.15 281.15
        </DataArray>
        <DataArray type="Float32" Name="phase presence" NumberOfComponents="1" format="ascii">
          1 1 1 1 1 1 1 1 1 1 1 1
          1 1 1 1 1 1 1 1 1 1 1 1
          1 1 1 1 1 1
        </DataArray>
        <DataArray type="Float32" Name="precipitateVolumeFraction_au" NumberOfComponents="1" format="ascii">
          5.52527e-10 5.52772e-10 5.52769e-10 5.52703e-10 5.52781e-10 5.52752e-10 5.52766e-10 5.52725e-10 5.52776e-10 5.52756e-10 5.52742e-10 5.52814e-10
          5.52769e-10 5.52798e-10 5.52707e-10 5.52757e-10 5.52721e-10 5.52782e-10 5.52769e-10 5.52722e-10 5.52747e-10 5.52774e-10 5.53126e-10 1.30671e-09
          0.000269941 0.000269925 0.0002699 0.000269851 5.52279e-10 5.51259e-10
        </DataArray>
        <DataArray type="Float32" Name="precipitateVolumeFraction_nanoAu" NumberOfComponents="1" format="ascii">
          1.2357e-13 1.23625e-13 1.23624e-13 1.23609e-13 1.23627e-13 1.2362e-13 1.23623e-13 1.23614e-13 1.23626e-13 1.23621e-13 1.23618e-13 1.23634e-13
          1.23623e-13 1.23629e-13 1.23608e-13 1.23618e-13 1.23609e-13 1.23621e-13 1.23616e-13 1.23602e-13 1.23603e-13 1.23619e-13 1.35588e-13 2.58376e-11
          6.03565e-08 7.66798e-08 1.02148e-07 1.45589e-07 4.74443e-13 4.68155e-13
        </DataArray>
        <DataArray type="Float32" Name="precipitateVolumeFraction_d" NumberOfComponents="1" format="ascii">
          0.00060882 0.000608881 0.000608966 0.000609086 0.000609254 0.00060949 0.00060982 0.000610281 0.000610922 0.00061181 0.000613035 0.000614719
          0.000617023 0.000620164 0.000624434 0.00063022 0.000638052 0.000648655 0.000663044 0.000682684 0.000709766 0.000747726 0.000802282 0.000883708
          0.0010124 0.00123503 0.00168156 0.0028663 0.00892533 0.148062
        </DataArray>
        <DataArray type="Float32" Name="precipitateVolumeFraction_p" NumberOfComponents="1" format="ascii">
          0.00060882 0.000608881 0.000608966 0.000609086 0.000609254 0.00060949 0.00060982 0.000610281 0.000610922 0.00061181 0.000613035 0.000614719
          0.000617023 0.000620164 0.000624434 0.00063022 0.000638052 0.000648655 0.000663044 0.000682684 0.000709766 0.000747726 0.000802282 0.000883708
          0.0010124 0.00123503 0.00168156 0.0028663 0.00892533 0.148062
        </DataArray>
        <DataArray type="Float32" Name="K" NumberOfComponents="1" format="ascii">
          9.84445e-11 9.84444e-11 9.84441e-11 9.84438e-11 9.84434e-11 9.84428e-11 9.8442e-11 9.84408e-11 9.84392e-11 9.84369e-11 9.84338e-11 9.84295e-11
          9.84237e-11 9.84157e-11 9.84049e-11 9.83902e-11 9.83703e-11 9.83434e-11 9.83069e-11 9.82572e-11 9.81885e-11 9.80924e-11 9.79544e-11 9.77487e-11
          9.70851e-11 9.65277e-11 9.54177e-11 9.25231e-11 7.91045e-11 1.06473e-16
        </DataArray>
        <DataArray type="Float32" Name="X^w_H2O" NumberOfComponents="1" format="ascii">
          0.999853 0.999853 0.999853 0.999853 0.999853 0.999853 0.999853 0.999853 0.999853 0.999853 0.999853 0.999853
          0.999853 0.999853 0.999853 0.999853 0.999853 0.999853 0.999853 0.999853 0.999853 0.999853 0.999853 0.999853
          0.999853 0.999852 0.99985 0.999846 0.999839 0.999839
        </DataArray>
        <DataArray type="Float32" Name="X^w_Air" NumberOfComponents="1" format="ascii">
          0 0 0 0 0 0 0 0 0 0 0 0
          0 0 0 0 0 0 0 0 0 0 0 0
          0 0 0 0 0 0
        </DataArray>
        <DataArray type="Float32" Name="X^w_AuComplex" NumberOfComponents="1" format="ascii">
          1.40958e-16 1.41021e-16 1.4102e-16 1.41003e-16 1.41023e-16 1.41016e-16 1.41019e-16 1.41009e-16 1.41021e-16 1.41016e-16 1.41012e-16 1.4103e-16
          1.41018e-16 1.41024e-16 1.41e-16 1.41011e-16 1.40999e-16 1.41011e-16 1.41003e-16 1.40984e-16 1.40981e-16 1.40991e-16 1.54441e-16 2.94476e-14
          6.88221e-11 1.07359e-10 1.8441e-10 3.64117e-10 1.83744e-15 1.79502e-15
        </DataArray>
        <DataArray type="Float32" Name="X^w_nanoAu" NumberOfComponents="1" format="ascii">
          5.38193e-19 5.3843e-19 5.38426e-19 5.38363e-19 5.38437e-19 5.3841e-19 5.38422e-19 5.38383e-19 5.38431e-19 5.38411e-19 5.38397e-19 5.38465e-19
          5.38419e-19 5.38444e-19 5.38354e-19 5.38397e-19 5.38356e-19 5.38405e-19 5.3838e-19 5.38357e-19 5.42042e-19 8.83443e-19 3.25042e-17 2.95698e-15
          2.63614e-13 3.35108e-13 4.46685e-13 6.26778e-13 2.06153e-18 1.99272e-18
        </DataArray>
        <DataArray type="Float32" Name="X^w_cyanide" NumberOfComponents="1" format="ascii">
          5.06911e-06 5.06911e-06 5.06911e-06 5.06911e-06 5.06911e-06 5.06911e-06 5.06911e-06 5.06911e-06 5.0691e-06 5.0691e-06 5.06909e-06 5.06908e-06
          5.06907e-06 5.06905e-06 5.06903e-06 5.06899e-06 5.06894e-06 5.06887e-06 5.06878e-06 5.06865e-06 5.06846e-06 5.06819e-06 5.06779e-06 5.06719e-06
          5.06671e-06 6.43651e-06 8.57272e-06 1.22401e-05 1.94725e-05 1.92766e-05
        </DataArray>
        <DataArray type="Float32" Name="X^w_citrate" NumberOfComponents="1" format="ascii">
          0.000141796 0.000141796 0.000141796 0.000141796 0.000141796 0.000141796 0.000141796 0.000141796 0.000141796 0.000141796 0.000141796 0.000141796
          0.000141796 0.000141795 0.000141795 0.000141795 0.000141795 0.000141794 0.000141793 0.000141792 0.000141791 0.000141789 0.000141786 0.000141782
          0.000141775 0.000141764 0.000141742 0.00014169 0.000141516 0.000140092
        </DataArray>
        <DataArray type="Float32" Name="X^w_substrate" NumberOfComponents="1" format="ascii">
          8.64765e-12 1.16154e-11 1.5601e-11 2.09537e-11 2.81425e-11 3.77978e-11 5.07675e-11 6.81927e-11 9.16107e-11 1.23096e-10 1.65452e-10 2.22483e-10
          2.99362e-10 4.03168e-10 5.43644e-10 7.34319e-10 9.94187e-10 1.35029e-09 1.84185e-09 2.52703e-09 3.49467e-09 4.88551e-09 6.93326e-09 1.00504e-08
          1.50262e-08 2.35464e-08 3.98292e-08 7.73191e-08 2.01322e-07 1.20557e-06
        </DataArray>
        <DataArray type="Float32" Name="m^w_H2O" NumberOfComponents="1" format="ascii">
          55492.6 55492.6 55492.5 55492.5 55492.5 55492.5 55492.5 55492.5 55492.5 55492.5 55492.5 55492.5
          55492.5 55492.4 55492.4 55492.4 55492.4 55492.4 55492.4 55492.4 55492.4 55492.4 55492.4 55492.4
          55492.3 55492.3 55492.1 55491.9 55491.5 55491.7
        </DataArray>
        <DataArray type="Float32" Name="m^w_Air" NumberOfComponents="1" format="ascii">
          0 0 0 0 0 0 0 0 0 0 0 0
          0 0 0 0 0 0 0 0 0 0 0 0
          0 0 0 0 0 0
        </DataArray>
        <DataArray type="Float32" Name="m^w_AuComplex" NumberOfComponents="1" format="ascii">
          7.1553e-13 7.15848e-13 7.15844e-13 7.15758e-13 7.15858e-13 7.15821e-13 7.15838e-13 7.15785e-13 7.1585e-13 7.15822e-13 7.15802e-13 7.15893e-13
          7.1583e-13 7.15863e-13 7.15739e-13 7.15794e-13 7.15735e-13 7.15795e-13 7.15754e-13 7.15659e-13 7.15643e-13 7.15693e-13 7.83965e-13 1.49481e-10
          3.49352e-07 5.44973e-07 9.36093e-07 1.84831e-06 9.32714e-12 9.1118e-12
        </DataArray>
        <DataArray type="Float32" Name="m^w_nanoAu" NumberOfComponents="1" format="ascii">
          2.73197e-15 2.73317e-15 2.73315e-15 2.73282e-15 2.7332e-15 2.73306e-15 2.73312e-15 2.73293e-15 2.73317e-15 2.73307e-15 2.733e-15 2.73334e-15
          2.73311e-15 2.73323e-15 2.73277e-15 2.73299e-15 2.73278e-15 2.73303e-15 2.73291e-15 2.73279e-15 2.75149e-15 4.4845e-15 1.64996e-13 1.50101e-11
          1.33815e-09 1.70106e-09 2.26744e-09 3.18163e-09 1.04646e-14 1.01154e-14
        </DataArray>
        <DataArray type="Float32" Name="m^w_cyanide" NumberOfComponents="1" format="ascii">
          0.194788 0.194788 0.194788 0.194788 0.194788 0.194788 0.194788 0.194787 0.194787 0.194787 0.194787 0.194786
          0.194786 0.194785 0.194784 0.194783 0.194781 0.194778 0.194774 0.194769 0.194762 0.194752 0.194736 0.194713
          0.194695 0.247331 0.329417 0.470341 0.748255 0.740728
        </DataArray>
        <DataArray type="Float32" Name="m^w_citrate" NumberOfComponents="1" format="ascii">
          0.749742 0.749742 0.749742 0.749742 0.749742 0.749741 0.749741 0.749741 0.749741 0.74974 0.74974 0.749739
          0.749739 0.749738 0.749737 0.749735 0.749733 0.74973 0.749726 0.749721 0.749714 0.749703 0.749688 0.749664
          0.749627 0.749568 0.749452 0.749178 0.748258 0.740729
        </DataArray>
        <DataArray type="Float32" Name="m^w_substrate" NumberOfComponents="1" format="ascii">
          4.79929e-08 6.44633e-08 8.65829e-08 1.16289e-07 1.56185e-07 2.09771e-07 2.8175e-07 3.78457e-07 5.08422e-07 6.83157e-07 9.18228e-07 1.23474e-06
          1.6614e-06 2.2375e-06 3.01712e-06 4.07533e-06 5.51754e-06 7.49386e-06 1.02219e-05 1.40245e-05 1.93947e-05 2.71136e-05 3.84782e-05 5.57779e-05
          8.33926e-05 0.000130678 0.000221044 0.000429105 0.0011173 0.00669069
        </DataArray>
        <DataArray type="Float32" Name="process rank" NumberOfComponents="1" format="ascii">
          0 0 0 0 0 0 0 0 0 0 0 0
          0 0 0 0 0 0 0 0 0 0 0 0
          0 0 0 0 0 0
        </DataArray>
      </CellData>
      <Points>
        <DataArray type="Float32" Name="Coordinates" NumberOfComponents="3" format="ascii">
          0 0 0 0.5 0 0 0 0.0333333 0 0.5 0.0333333 0
          0 0.0666667 0 0.5 0.0666667 0 0 0.1 0 0.5 0.1 0
          0 0.133333 0 0.5 0.133333 0 0 0.166667 0 0.5 0.166667 0
          0 0.2 0 0.5 0.2 0 0 0.233333 0 0.5 0.233333 0
          0 0.266667 0 0.5 0.266667 0 0 0.3 0 0.5 0.3 0
          0 0.333333 0 0.5 0.333333 0 0 0.366667 0 0.5 0.366667 0
          0 0.4 0 0.5 0.4 0 0 0.433333 0 0.5 0.433333 0
          0 0.466667 0 0.5 0.466667 0 0 0.5 0 0.5 0.5 0
          0 0.533333 0 0.5 0.533333 0 0 0.566667 0 0.5 0.566667 0
          0 0.6 0 0.5 0.6 0 0 0.633333 0 0.5 0.633333 0
          0 0.666667 0 0.5 0.666667 0 0 0.7 0 0.5 0.7 0
          0 0.733333 0 0.5 0.733333 0 0 0.766667 0 0.5 0.766667 0
          0 0.8 0 0.5 0.8 0 0 0.833333 0 0.5 0.833333 0
          0 0.866667 0 0.5 0.866667 0 0 0.9 0 0.5 0.9 0
          0 0.933333 0 0.5 0.933333 0 0 0.966667 0 0.5 0.966667 0
          0 1 0 0.5 1 0
        </DataArray>
      </Points>
      <Cells>
        <DataArray type="Int32" Name="connectivity" NumberOfComponents="1" format="ascii">
          0 1 3 2 2 3 5 4 4 5 7 6
          6 7 9 8 8 9 11 10 10 11 13 12
          12 13 15 14 14 15 17 16 16 17 19 18
          18 19 21 20 20 21 23 22 22 23 25 24
          24 25 27 26 26 27 29 28 28 29 31 30
          30 31 33 32 32 33 35 34 34 35 37 36
          36 37 39 38 38 39 41 40 40 41 43 42
          42 43 45 44 44 45 47 46 46 47 49 48
          48 49 51 50 50 51 53 52 52 53 55 54
          54 55 57 56 56 57 59 58 58 59 61 60
        </DataArray>
        <DataArray type="Int32" Name="offsets" NumberOfComponents="1" format="ascii">
          4 8 12 16 20 24 28 32 36 40 44 48
          52 56 60 64 68 72 76 80 84 88 92 96
          100 104 108 112 116 120
        </DataArray>
        <DataArray type="UInt8" Name="types" NumberOfComponents="1" format="ascii">
          9 9 9 9 9 9 9 9 9 9 9 9
          9 9 9 9 9 9 9 9 9 9 9 9
          9 9 9 9 9 9
        </DataArray>
      </Cells>
    </Piece>
  </UnstructuredGrid>
</VTKFile>
