<?xml version="1.0"?>
<VTKFile type="UnstructuredGrid" version="0.1" byte_order="LittleEndian">
  <UnstructuredGrid>
    <Piece NumberOfCells="30" NumberOfPoints="62">
      <CellData Scalars="Sg">
        <DataArray type="Float32" Name="Sg" NumberOfComponents="1" format="ascii">
          0 0 0 0 0 0 0 0 0 0 0 0
          0 0 0 0 0 0 0 0 0 0 0 0
          0 0 0 0 0 0
        </DataArray>
        <DataArray type="Float32" Name="Sl" NumberOfComponents="1" format="ascii">
          1 1 1 1 1 1 1 1 1 1 1 1
          1 1 1 1 1 1 1 1 1 1 1 1
          1 1 1 1 1 1
        </DataArray>
        <DataArray type="Float32" Name="pg" NumberOfComponents="1" format="ascii">
          24687.8 24360.9 24034 23707 23380.1 23053.1 22726.2 22399.3 22072.3 21745.4 21418.4 21091.5
          20764.6 20437.6 20110.7 19783.7 19456.8 19129.9 18802.9 18476 18149 17822.1 17495.1 17168.2
          16841.3 16514.3 16187.4 15860.4 15533.5 15211.5
        </DataArray>
        <DataArray type="Float32" Name="pl" NumberOfComponents="1" format="ascii">
          110628 110301 109974 109647 109320 108993 108666 108339 108012 107685 107358 107031
          106704 106377 106050 105723 105396 105070 104743 104416 104089 103762 103435 103108
          102781 102454 102127 101800 101473 101151
        </DataArray>
        <DataArray type="Float32" Name="pc" NumberOfComponents="1" format="ascii">
          -85939.7 -85939.7 -85939.7 -85939.7 -85939.7 -85939.7 -85939.7 -85939.7 -85939.7 -85939.7 -85939.7 -85939.7
          -85939.7 -85939.7 -85939.7 -85939.7 -85939.7 -85939.7 -85939.7 -85939.7 -85939.7 -85939.7 -85939.7 -85939.7
          -85939.7 -85939.7 -85939.7 -85939.7 -85939.7 -85939.7
        </DataArray>
        <DataArray type="Float32" Name="rhoL" NumberOfComponents="1" format="ascii">
          999.855 999.855 999.855 999.855 999.855 999.854 999.854 999.854 999.854 999.854 999.854 999.854
          999.853 999.853 999.853 999.853 999.853 999.853 999.852 999.852 999.852 999.852 999.852 999.852
          999.852 999.851 999.851 999.851 999.851 999.851
        </DataArray>
        <DataArray type="Float32" Name="rhoG" NumberOfComponents="1" format="ascii">
          0.30585 0.3018 0.29775 0.293699 0.289649 0.285598 0.281548 0.277498 0.273447 0.269397 0.265347 0.261296
          0.257246 0.253195 0.249145 0.245095 0.241044 0.236994 0.232944 0.228893 0.224843 0.220793 0.216742 0.212692
          0.208641 0.204591 0.200541 0.19649 0.19244 0.188451
        </DataArray>
        <DataArray type="Float32" Name="mobL" NumberOfComponents="1" format="ascii">
          722.171 722.17 722.17 722.17 722.17 722.17 722.169 722.169 722.169 722.169 722.169 722.169
          722.168 722.168 722.168 722.168 722.168 722.167 722.167 722.167 722.167 722.167 722.166 722.166
          722.166 722.166 722.166 722.166 722.165 722.165
        </DataArray>
        <DataArray type="Float32" Name="mobG" NumberOfComponents="1" format="ascii">
          0 0 0 0 0 0 0 0 0 0 0 0
          0 0 0 0 0 0 0 0 0 0 0 0
          0 0 0 0 0 0
        </DataArray>
        <DataArray type="Float32" Name="porosity" NumberOfComponents="1" format="ascii">
          0.298602 0.298602 0.298602 0.298602 0.298601 0.298601 0.2986 0.298599 0.298597 0.298595 0.298593 0.298589
          0.298584 0.298577 0.298567 0.298554 0.298537 0.298513 0.298481 0.298437 0.298377 0.298294 0.298174 0.297998
          0.297453 0.296988 0.296088 0.29386 0.284453 0.0384396
        </DataArray>
        <DataArray type="Float32" Name="temperature" NumberOfComponents="1" format="ascii">
          281.15 281.15 281.15 281.15 281.15 281.15 281.15 281.15 281.15 281.15 281.15 281.15
          281.15 281.15 281.15 281.15 281.15 281.15 281.15 281.15 281.15 281.15 281.15 281.15
          281.15 281.15 281.15 281.15 281.15 281.15
        </DataArray>
        <DataArray type="Float32" Name="phase presence" NumberOfComponents="1" format="ascii">
          1 1 1 1 1 1 1 1 1 1 1 1
          1 1 1 1 1 1 1 1 1 1 1 1
          1 1 1 1 1 1
        </DataArray>
        <DataArray type="Float32" Name="precipitateVolumeFraction_au" NumberOfComponents="1" format="ascii">
          5.52526e-10 5.52771e-10 5.52768e-10 5.52701e-10 5.52779e-10 5.52751e-10 5.52764e-10 5.52724e-10 5.52774e-10 5.52754e-10 5.5274e-10 5.52813e-10
          5.52767e-10 5.52796e-10 5.52705e-10 5.52756e-10 5.5272e-10 5.5278e-10 5.52768e-10 5.52721e-10 5.52745e-10 5.52772e-10 5.52919e-10 8.64912e-10
          0.00026994 0.000269924 0.000269899 0.000269853 5.52278e-10 5.5127e-10
        </DataArray>
        <DataArray type="Float32" Name="precipitateVolumeFraction_nanoAu" NumberOfComponents="1" format="ascii">
          1.24994e-13 1.25314e-13 1.25305e-13 1.25248e-13 1.25308e-13 1.25286e-13 1.25292e-13 1.25268e-13 1.25292e-13 1.25281e-13 1.25274e-13 1.25298e-13
          1.2528e-13 1.25287e-13 1.25258e-13 1.2527e-13 1.25258e-13 1.25271e-13 1.25264e-13 1.25248e-13 1.25248e-13 1.25262e-13 1.37211e-13 2.58248e-11
          6.04153e-08 7.67432e-08 1.02208e-07 1.45615e-07 4.75617e-13 4.68624e-13
        </DataArray>
        <DataArray type="Float32" Name="precipitateVolumeFraction_d" NumberOfComponents="1" format="ascii">
          0.000698942 0.00069901 0.000699105 0.000699239 0.000699427 0.000699692 0.000700062 0.000700579 0.000701298 0.000702295 0.000703671 0.000705562
          0.000708149 0.000711675 0.000716464 0.000722948 0.000731713 0.000743556 0.000759592 0.000781415 0.000811389 0.000853184 0.000912834 0.00100101
          0.00113843 0.00137111 0.0018212 0.00293492 0.00777332 0.13078
        </DataArray>
        <DataArray type="Float32" Name="precipitateVolumeFraction_p" NumberOfComponents="1" format="ascii">
          0.000698942 0.00069901 0.000699105 0.000699239 0.000699427 0.000699692 0.000700062 0.000700579 0.000701298 0.000702295 0.000703671 0.000705562
          0.000708149 0.000711675 0.000716464 0.000722948 0.000731713 0.000743556 0.000759592 0.000781415 0.000811389 0.000853184 0.000912834 0.00100101
          0.00113843 0.00137111 0.0018212 0.00293492 0.00777332 0.13078
        </DataArray>
        <DataArray type="Float32" Name="K" NumberOfComponents="1" format="ascii">
          9.8216e-11 9.82158e-11 9.82155e-11 9.82152e-11 9.82147e-11 9.82141e-11 9.82131e-11 9.82118e-11 9.821e-11 9.82075e-11 9.8204e-11 9.81992e-11
          9.81926e-11 9.81837e-11 9.81716e-11 9.81552e-11 9.8133e-11 9.8103e-11 9.80624e-11 9.80072e-11 9.79314e-11 9.78258e-11 9.76753e-11 9.74531e-11
          9.67693e-11 9.61883e-11 9.50727e-11 9.23577e-11 8.15811e-11 1.11485e-13
        </DataArray>
        <DataArray type="Float32" Name="X^w_H2O" NumberOfComponents="1" format="ascii">
          0.999853 0.999853 0.999853 0.999853 0.999853 0.999853 0.999853 0.999853 0.999853 0.999853 0.999853 0.999853
          0.999853 0.999853 0.999853 0.999853 0.999853 0.999853 0.999853 0.999853 0.999853 0.999853 0.999853 0.999853
          0.999853 0.999852 0.99985 0.999846 0.999839 0.99984
        </DataArray>
        <DataArray type="Float32" Name="X^w_Air" NumberOfComponents="1" format="ascii">
          0 0 0 0 0 0 0 0 0 0 0 0
          0 0 0 0 0 0 0 0 0 0 0 0
          0 0 0 0 0 0
        </DataArray>
        <DataArray type="Float32" Name="X^w_AuComplex" NumberOfComponents="1" format="ascii">
          1.42476e-16 1.42793e-16 1.42783e-16 1.42724e-16 1.42784e-16 1.4276e-16 1.42765e-16 1.4274e-16 1.42763e-16 1.4275e-16 1.42742e-16 1.42767e-16
          1.42746e-16 1.42752e-16 1.42719e-16 1.42731e-16 1.42715e-16 1.42728e-16 1.42717e-16 1.42694e-16 1.42689e-16 1.42695e-16 1.56127e-16 2.94505e-14
          6.89328e-11 1.07509e-10 1.84595e-10 3.64226e-10 1.84078e-15 1.79392e-15
        </DataArray>
        <DataArray type="Float32" Name="X^w_nanoAu" NumberOfComponents="1" format="ascii">
          5.4441e-19 5.45789e-19 5.45748e-19 5.45502e-19 5.45762e-19 5.45666e-19 5.45691e-19 5.45591e-19 5.45691e-19 5.45644e-19 5.45616e-19 5.45719e-19
          5.45641e-19 5.45669e-19 5.45541e-19 5.45595e-19 5.45541e-19 5.45597e-19 5.45564e-19 5.45529e-19 5.49227e-19 8.91978e-19 3.26054e-17 2.96262e-15
          2.63867e-13 3.35373e-13 4.46909e-13 6.26759e-13 2.06545e-18 1.9915e-18
        </DataArray>
        <DataArray type="Float32" Name="X^w_cyanide" NumberOfComponents="1" format="ascii">
          5.07441e-06 5.07437e-06 5.07432e-06 5.07428e-06 5.07424e-06 5.07419e-06 5.07415e-06 5.07411e-06 5.07406e-06 5.07402e-06 5.07397e-06 5.07392e-06
          5.07387e-06 5.07381e-06 5.07375e-06 5.07368e-06 5.0736e-06 5.07349e-06 5.07336e-06 5.07319e-06 5.07296e-06 5.07263e-06 5.07215e-06 5.07141e-06
          5.0707e-06 6.44082e-06 8.57682e-06 1.22418e-05 1.94619e-05 1.92455e-05
        </DataArray>
        <DataArray type="Float32" Name="X^w_citrate" NumberOfComponents="1" format="ascii">
          0.000141796 0.000141796 0.000141796 0.000141796 0.000141796 0.000141796 0.000141796 0.000141796 0.000141796 0.000141796 0.000141796 0.000141796
          0.000141796 0.000141796 0.000141795 0.000141795 0.000141795 0.000141794 0.000141794 0.000141793 0.000141791 0.000141789 0.000141786 0.000141781
          0.000141772 0.000141758 0.00014173 0.000141662 0.000141439 0.000139866
        </DataArray>
        <DataArray type="Float32" Name="X^w_substrate" NumberOfComponents="1" format="ascii">
          3.97841e-12 5.53656e-12 7.70471e-12 1.07217e-11 1.49201e-11 2.07628e-11 2.88949e-11 4.02158e-11 5.59805e-11 7.79429e-11 1.08559e-10 1.51276e-10
          2.10949e-10 2.94449e-10 4.11557e-10 5.76311e-10 8.09061e-10 1.13971e-09 1.61294e-09 2.297e-09 3.29901e-09 4.79314e-09 7.07557e-09 1.06803e-08
          1.6647e-08 2.72245e-08 4.80615e-08 9.69306e-08 2.5577e-07 1.36483e-06
        </DataArray>
        <DataArray type="Float32" Name="m^w_H2O" NumberOfComponents="1" format="ascii">
          55492.6 55492.6 55492.5 55492.5 55492.5 55492.5 55492.5 55492.5 55492.5 55492.5 55492.5 55492.5
          55492.5 55492.4 55492.4 55492.4 55492.4 55492.4 55492.4 55492.4 55492.4 55492.4 55492.4 55492.4
          55492.3 55492.3 55492.1 55491.9 55491.5 55491.5
        </DataArray>
        <DataArray type="Float32" Name="m^w_Air" NumberOfComponents="1" format="ascii">
          0 0 0 0 0 0 0 0 0 0 0 0
          0 0 0 0 0 0 0 0 0 0 0 0
          0 0 0 0 0 0
        </DataArray>
        <DataArray type="Float32" Name="m^w_AuComplex" NumberOfComponents="1" format="ascii">
          7.23236e-13 7.24843e-13 7.24792e-13 7.24491e-13 7.24796e-13 7.24675e-13 7.24701e-13 7.24572e-13 7.2469e-13 7.24626e-13 7.24583e-13 7.24709e-13
          7.24604e-13 7.24635e-13 7.24464e-13 7.24526e-13 7.24447e-13 7.2451e-13 7.24454e-13 7.24339e-13 7.24311e-13 7.24345e-13 7.92525e-13 1.49495e-10
          3.49914e-07 5.45731e-07 9.37035e-07 1.84887e-06 9.34407e-12 9.10622e-12
        </DataArray>
        <DataArray type="Float32" Name="m^w_nanoAu" NumberOfComponents="1" format="ascii">
          2.76352e-15 2.77052e-15 2.77031e-15 2.76907e-15 2.77038e-15 2.7699e-15 2.77002e-15 2.76951e-15 2.77002e-15 2.76978e-15 2.76964e-15 2.77016e-15
          2.76977e-15 2.76991e-15 2.76926e-15 2.76953e-15 2.76926e-15 2.76954e-15 2.76937e-15 2.76919e-15 2.78797e-15 4.52783e-15 1.6551e-13 1.50387e-11
          1.33943e-09 1.70241e-09 2.26858e-09 3.18153e-09 1.04845e-14 1.01092e-14
        </DataArray>
        <DataArray type="Float32" Name="m^w_cyanide" NumberOfComponents="1" format="ascii">
          0.194991 0.19499 0.194988 0.194986 0.194985 0.194983 0.194981 0.194979 0.194978 0.194976 0.194974 0.194972
          0.19497 0.194968 0.194966 0.194963 0.19496 0.194956 0.194951 0.194944 0.194935 0.194922 0.194904 0.194875
          0.194848 0.247497 0.329575 0.470405 0.747846 0.739532
        </DataArray>
        <DataArray type="Float32" Name="m^w_citrate" NumberOfComponents="1" format="ascii">
          0.749742 0.749742 0.749742 0.749742 0.749742 0.749742 0.749741 0.749741 0.749741 0.749741 0.74974 0.74974
          0.749739 0.749739 0.749738 0.749736 0.749734 0.749732 0.749728 0.749723 0.749715 0.749704 0.749687 0.74966
          0.749615 0.74954 0.74939 0.749031 0.747849 0.739533
        </DataArray>
        <DataArray type="Float32" Name="m^w_substrate" NumberOfComponents="1" format="ascii">
          2.20795e-08 3.07269e-08 4.27597e-08 5.95036e-08 8.28038e-08 1.1523e-07 1.60361e-07 2.2319e-07 3.10681e-07 4.32569e-07 6.02482e-07 8.39551e-07
          1.17073e-06 1.63413e-06 2.28406e-06 3.19841e-06 4.49013e-06 6.32516e-06 8.9515e-06 1.27479e-05 1.83088e-05 2.66009e-05 3.9268e-05 5.92733e-05
          9.23872e-05 0.00015109 0.000266732 0.000537945 0.00141947 0.00757454
        </DataArray>
        <DataArray type="Float32" Name="process rank" NumberOfComponents="1" format="ascii">
          0 0 0 0 0 0 0 0 0 0 0 0
          0 0 0 0 0 0 0 0 0 0 0 0
          0 0 0 0 0 0
        </DataArray>
      </CellData>
      <Points>
        <DataArray type="Float32" Name="Coordinates" NumberOfComponents="3" format="ascii">
          0 0 0 0.5 0 0 0 0.0333333 0 0.5 0.0333333 0
          0 0.0666667 0 0.5 0.0666667 0 0 0.1 0 0.5 0.1 0
          0 0.133333 0 0.5 0.133333 0 0 0.166667 0 0.5 0.166667 0
          0 0.2 0 0.5 0.2 0 0 0.233333 0 0.5 0.233333 0
          0 0.266667 0 0.5 0.266667 0 0 0.3 0 0.5 0.3 0
          0 0.333333 0 0.5 0.333333 0 0 0.366667 0 0.5 0.366667 0
          0 0.4 0 0.5 0.4 0 0 0.433333 0 0.5 0.433333 0
          0 0.466667 0 0.5 0.466667 0 0 0.5 0 0.5 0.5 0
          0 0.533333 0 0.5 0.533333 0 0 0.566667 0 0.5 0.566667 0
          0 0.6 0 0.5 0.6 0 0 0.633333 0 0.5 0.633333 0
          0 0.666667 0 0.5 0.666667 0 0 0.7 0 0.5 0.7 0
          0 0.733333 0 0.5 0.733333 0 0 0.766667 0 0.5 0.766667 0
          0 0.8 0 0.5 0.8 0 0 0.833333 0 0.5 0.833333 0
          0 0.866667 0 0.5 0.866667 0 0 0.9 0 0.5 0.9 0
          0 0.933333 0 0.5 0.933333 0 0 0.966667 0 0.5 0.966667 0
          0 1 0 0.5 1 0
        </DataArray>
      </Points>
      <Cells>
        <DataArray type="Int32" Name="connectivity" NumberOfComponents="1" format="ascii">
          0 1 3 2 2 3 5 4 4 5 7 6
          6 7 9 8 8 9 11 10 10 11 13 12
          12 13 15 14 14 15 17 16 16 17 19 18
          18 19 21 20 20 21 23 22 22 23 25 24
          24 25 27 26 26 27 29 28 28 29 31 30
          30 31 33 32 32 33 35 34 34 35 37 36
          36 37 39 38 38 39 41 40 40 41 43 42
          42 43 45 44 44 45 47 46 46 47 49 48
          48 49 51 50 50 51 53 52 52 53 55 54
          54 55 57 56 56 57 59 58 58 59 61 60
        </DataArray>
        <DataArray type="Int32" Name="offsets" NumberOfComponents="1" format="ascii">
          4 8 12 16 20 24 28 32 36 40 44 48
          52 56 60 64 68 72 76 80 84 88 92 96
          100 104 108 112 116 120
        </DataArray>
        <DataArray type="UInt8" Name="types" NumberOfComponents="1" format="ascii">
          9 9 9 9 9 9 9 9 9 9 9 9
          9 9 9 9 9 9 9 9 9 9 9 9
          9 9 9 9 9 9
        </DataArray>
      </Cells>
    </Piece>
  </UnstructuredGrid>
</VTKFile>
