<?xml version="1.0"?>
<VTKFile type="UnstructuredGrid" version="0.1" byte_order="LittleEndian">
  <UnstructuredGrid>
    <Piece NumberOfCells="30" NumberOfPoints="62">
      <CellData Scalars="Sg">
        <DataArray type="Float32" Name="Sg" NumberOfComponents="1" format="ascii">
          0 0 0 0 0 0 0 0 0 0 0 0
          0 0 0 0 0 0 0 0 0 0 0 0
          0 0 0 0 0 0
        </DataArray>
        <DataArray type="Float32" Name="Sl" NumberOfComponents="1" format="ascii">
          1 1 1 1 1 1 1 1 1 1 1 1
          1 1 1 1 1 1 1 1 1 1 1 1
          1 1 1 1 1 1
        </DataArray>
        <DataArray type="Float32" Name="pg" NumberOfComponents="1" format="ascii">
          24687.8 24360.9 24034 23707 23380.1 23053.1 22726.2 22399.3 22072.3 21745.4 21418.4 21091.5
          20764.6 20437.6 20110.7 19783.7 19456.8 19129.8 18802.9 18476 18149 17822.1 17495.1 17168.2
          16841.3 16514.3 16187.4 15860.4 15533.5 15724.5
        </DataArray>
        <DataArray type="Float32" Name="pl" NumberOfComponents="1" format="ascii">
          110628 110301 109974 109647 109320 108993 108666 108339 108012 107685 107358 107031
          106704 106377 106050 105723 105396 105070 104743 104416 104089 103762 103435 103108
          102781 102454 102127 101800 101473 101664
        </DataArray>
        <DataArray type="Float32" Name="pc" NumberOfComponents="1" format="ascii">
          -85939.7 -85939.7 -85939.7 -85939.7 -85939.7 -85939.7 -85939.7 -85939.7 -85939.7 -85939.7 -85939.7 -85939.7
          -85939.7 -85939.7 -85939.7 -85939.7 -85939.7 -85939.7 -85939.7 -85939.7 -85939.7 -85939.7 -85939.7 -85939.7
          -85939.7 -85939.7 -85939.7 -85939.7 -85939.7 -85939.7
        </DataArray>
        <DataArray type="Float32" Name="rhoL" NumberOfComponents="1" format="ascii">
          999.855 999.855 999.855 999.855 999.855 999.854 999.854 999.854 999.854 999.854 999.854 999.854
          999.853 999.853 999.853 999.853 999.853 999.853 999.852 999.852 999.852 999.852 999.852 999.852
          999.852 999.851 999.851 999.851 999.851 999.851
        </DataArray>
        <DataArray type="Float32" Name="rhoG" NumberOfComponents="1" format="ascii">
          0.30585 0.3018 0.29775 0.293699 0.289649 0.285598 0.281548 0.277498 0.273447 0.269397 0.265347 0.261296
          0.257246 0.253195 0.249145 0.245095 0.241044 0.236994 0.232944 0.228893 0.224843 0.220793 0.216742 0.212692
          0.208641 0.204591 0.200541 0.19649 0.19244 0.194806
        </DataArray>
        <DataArray type="Float32" Name="mobL" NumberOfComponents="1" format="ascii">
          722.171 722.17 722.17 722.17 722.17 722.17 722.169 722.169 722.169 722.169 722.169 722.169
          722.168 722.168 722.168 722.168 722.168 722.167 722.167 722.167 722.167 722.167 722.166 722.166
          722.166 722.166 722.166 722.166 722.165 722.165
        </DataArray>
        <DataArray type="Float32" Name="mobG" NumberOfComponents="1" format="ascii">
          0 0 0 0 0 0 0 0 0 0 0 0
          0 0 0 0 0 0 0 0 0 0 0 0
          0 0 0 0 0 0
        </DataArray>
        <DataArray type="Float32" Name="porosity" NumberOfComponents="1" format="ascii">
          0.298696 0.298695 0.298695 0.298695 0.298695 0.298694 0.298693 0.298692 0.298691 0.298689 0.298687 0.298683
          0.298678 0.298672 0.298663 0.29865 0.298634 0.298611 0.298581 0.29854 0.298483 0.298403 0.298289 0.298119
          0.297583 0.297126 0.296226 0.29391 0.283146 0.00831519
        </DataArray>
        <DataArray type="Float32" Name="temperature" NumberOfComponents="1" format="ascii">
          281.15 281.15 281.15 281.15 281.15 281.15 281.15 281.15 281.15 281.15 281.15 281.15
          281.15 281.15 281.15 281.15 281.15 281.15 281.15 281.15 281.15 281.15 281.15 281.15
          281.15 281.15 281.15 281.15 281.15 281.15
        </DataArray>
        <DataArray type="Float32" Name="phase presence" NumberOfComponents="1" format="ascii">
          1 1 1 1 1 1 1 1 1 1 1 1
          1 1 1 1 1 1 1 1 1 1 1 1
          1 1 1 1 1 1
        </DataArray>
        <DataArray type="Float32" Name="precipitateVolumeFraction_au" NumberOfComponents="1" format="ascii">
          5.52527e-10 5.52772e-10 5.52769e-10 5.52703e-10 5.52781e-10 5.52752e-10 5.52766e-10 5.52725e-10 5.52776e-10 5.52756e-10 5.52742e-10 5.52814e-10
          5.52769e-10 5.52798e-10 5.52707e-10 5.52757e-10 5.52721e-10 5.52782e-10 5.52769e-10 5.52722e-10 5.52747e-10 5.52774e-10 5.53024e-10 1.08596e-09
          0.00026994 0.000269924 0.0002699 0.000269852 5.52279e-10 5.51264e-10
        </DataArray>
        <DataArray type="Float32" Name="precipitateVolumeFraction_nanoAu" NumberOfComponents="1" format="ascii">
          1.23593e-13 1.23648e-13 1.23647e-13 1.23632e-13 1.23649e-13 1.23643e-13 1.23645e-13 1.23636e-13 1.23647e-13 1.23642e-13 1.23639e-13 1.23655e-13
          1.23644e-13 1.2365e-13 1.23629e-13 1.23639e-13 1.2363e-13 1.23642e-13 1.23637e-13 1.23623e-13 1.23624e-13 1.2364e-13 1.35575e-13 2.58009e-11
          6.03656e-08 7.66896e-08 1.02157e-07 1.45592e-07 4.74375e-13 4.68046e-13
        </DataArray>
        <DataArray type="Float32" Name="precipitateVolumeFraction_d" NumberOfComponents="1" format="ascii">
          0.000652231 0.000652295 0.000652384 0.000652511 0.000652688 0.000652937 0.000653286 0.000653774 0.000654451 0.000655391 0.000656687 0.000658468
          0.000660906 0.000664231 0.000668747 0.000674867 0.000683145 0.000694342 0.000709524 0.000730218 0.000758703 0.000798536 0.000855602 0.000940403
          0.00107359 0.00130176 0.00175204 0.00291018 0.00842685 0.145842
        </DataArray>
        <DataArray type="Float32" Name="precipitateVolumeFraction_p" NumberOfComponents="1" format="ascii">
          0.000652231 0.000652295 0.000652384 0.000652511 0.000652688 0.000652937 0.000653286 0.000653774 0.000654451 0.000655391 0.000656687 0.000658468
          0.000660906 0.000664231 0.000668747 0.000674867 0.000683145 0.000694342 0.000709524 0.000730218 0.000758703 0.000798536 0.000855602 0.000940403
          0.00107359 0.00130176 0.00175204 0.00291018 0.00842685 0.145842
        </DataArray>
        <DataArray type="Float32" Name="K" NumberOfComponents="1" format="ascii">
          9.83344e-11 9.83342e-11 9.8334e-11 9.83337e-11 9.83332e-11 9.83326e-11 9.83317e-11 9.83305e-11 9.83287e-11 9.83264e-11 9.83231e-11 9.83185e-11
          9.83124e-11 9.83039e-11 9.82925e-11 9.8277e-11 9.8256e-11 9.82276e-11 9.81892e-11 9.81367e-11 9.80646e-11 9.79639e-11 9.78197e-11 9.76057e-11
          9.69317e-11 9.63611e-11 9.52434e-11 9.24173e-11 8.01685e-11 1.06097e-15
        </DataArray>
        <DataArray type="Float32" Name="X^w_H2O" NumberOfComponents="1" format="ascii">
          0.999853 0.999853 0.999853 0.999853 0.999853 0.999853 0.999853 0.999853 0.999853 0.999853 0.999853 0.999853
          0.999853 0.999853 0.999853 0.999853 0.999853 0.999853 0.999853 0.999853 0.999853 0.999853 0.999853 0.999853
          0.999853 0.999852 0.99985 0.999846 0.999839 0.999839
        </DataArray>
        <DataArray type="Float32" Name="X^w_Air" NumberOfComponents="1" format="ascii">
          0 0 0 0 0 0 0 0 0 0 0 0
          0 0 0 0 0 0 0 0 0 0 0 0
          0 0 0 0 0 0
        </DataArray>
        <DataArray type="Float32" Name="X^w_AuComplex" NumberOfComponents="1" format="ascii">
          1.41001e-16 1.41063e-16 1.41062e-16 1.41045e-16 1.41064e-16 1.41057e-16 1.4106e-16 1.41049e-16 1.41062e-16 1.41056e-16 1.41052e-16 1.41069e-16
          1.41057e-16 1.41063e-16 1.41038e-16 1.41049e-16 1.41038e-16 1.4105e-16 1.41042e-16 1.41023e-16 1.4102e-16 1.4103e-16 1.54442e-16 2.94085e-14
          6.88392e-11 1.07383e-10 1.84437e-10 3.64124e-10 1.83695e-15 1.7943e-15
        </DataArray>
        <DataArray type="Float32" Name="X^w_nanoAu" NumberOfComponents="1" format="ascii">
          5.38294e-19 5.3853e-19 5.38525e-19 5.38461e-19 5.38535e-19 5.38506e-19 5.38518e-19 5.38478e-19 5.38526e-19 5.38504e-19 5.3849e-19 5.38558e-19
          5.38512e-19 5.38536e-19 5.38445e-19 5.38488e-19 5.38447e-19 5.38496e-19 5.38472e-19 5.38449e-19 5.42136e-19 8.8371e-19 3.2516e-17 2.95766e-15
          2.63654e-13 3.3515e-13 4.46717e-13 6.26761e-13 2.06096e-18 1.99189e-18
        </DataArray>
        <DataArray type="Float32" Name="X^w_cyanide" NumberOfComponents="1" format="ascii">
          5.06985e-06 5.06984e-06 5.06984e-06 5.06983e-06 5.06982e-06 5.06982e-06 5.06981e-06 5.0698e-06 5.0698e-06 5.06979e-06 5.06978e-06 5.06976e-06
          5.06975e-06 5.06972e-06 5.0697e-06 5.06966e-06 5.06961e-06 5.06954e-06 5.06945e-06 5.06932e-06 5.06914e-06 5.06887e-06 5.06847e-06 5.06785e-06
          5.06733e-06 6.43719e-06 8.57333e-06 1.22402e-05 1.94699e-05 1.9273e-05
        </DataArray>
        <DataArray type="Float32" Name="X^w_citrate" NumberOfComponents="1" format="ascii">
          0.000141796 0.000141796 0.000141796 0.000141796 0.000141796 0.000141796 0.000141796 0.000141796 0.000141796 0.000141796 0.000141796 0.000141796
          0.000141796 0.000141796 0.000141795 0.000141795 0.000141795 0.000141794 0.000141794 0.000141793 0.000141792 0.00014179 0.000141787 0.000141782
          0.000141775 0.000141763 0.00014174 0.000141684 0.000141497 0.000140066
        </DataArray>
        <DataArray type="Float32" Name="X^w_substrate" NumberOfComponents="1" format="ascii">
          5.51785e-12 7.54462e-12 1.03155e-11 1.41035e-11 1.92824e-11 2.63633e-11 3.60457e-11 4.9288e-11 6.74043e-11 9.21992e-11 1.26155e-10 1.72697e-10
          2.36567e-10 3.2436e-10 4.45309e-10 6.12445e-10 8.44355e-10 1.16792e-09 1.62269e-09 2.26818e-09 3.19651e-09 4.55548e-09 6.59333e-09 9.75277e-09
          1.48881e-08 2.38357e-08 4.12015e-08 8.15938e-08 2.14415e-07 1.22392e-06
        </DataArray>
        <DataArray type="Float32" Name="m^w_H2O" NumberOfComponents="1" format="ascii">
          55492.6 55492.6 55492.5 55492.5 55492.5 55492.5 55492.5 55492.5 55492.5 55492.5 55492.5 55492.5
          55492.5 55492.4 55492.4 55492.4 55492.4 55492.4 55492.4 55492.4 55492.4 55492.4 55492.4 55492.4
          55492.3 55492.3 55492.1 55491.9 55491.5 55491.6
        </DataArray>
        <DataArray type="Float32" Name="m^w_Air" NumberOfComponents="1" format="ascii">
          0 0 0 0 0 0 0 0 0 0 0 0
          0 0 0 0 0 0 0 0 0 0 0 0
          0 0 0 0 0 0
        </DataArray>
        <DataArray type="Float32" Name="m^w_AuComplex" NumberOfComponents="1" format="ascii">
          7.15747e-13 7.16063e-13 7.16057e-13 7.15969e-13 7.16068e-13 7.16029e-13 7.16044e-13 7.1599e-13 7.16053e-13 7.16023e-13 7.16003e-13 7.16092e-13
          7.16028e-13 7.1606e-13 7.15935e-13 7.1599e-13 7.1593e-13 7.15991e-13 7.1595e-13 7.15855e-13 7.15839e-13 7.15889e-13 7.83972e-13 1.49282e-10
          3.49439e-07 5.45091e-07 9.36233e-07 1.84835e-06 9.32464e-12 9.10813e-12
        </DataArray>
        <DataArray type="Float32" Name="m^w_nanoAu" NumberOfComponents="1" format="ascii">
          2.73248e-15 2.73367e-15 2.73365e-15 2.73332e-15 2.7337e-15 2.73355e-15 2.73361e-15 2.73341e-15 2.73365e-15 2.73354e-15 2.73347e-15 2.73381e-15
          2.73358e-15 2.7337e-15 2.73324e-15 2.73345e-15 2.73325e-15 2.7335e-15 2.73337e-15 2.73326e-15 2.75197e-15 4.48586e-15 1.65056e-13 1.50135e-11
          1.33835e-09 1.70128e-09 2.26761e-09 3.18154e-09 1.04617e-14 1.01111e-14
        </DataArray>
        <DataArray type="Float32" Name="m^w_cyanide" NumberOfComponents="1" format="ascii">
          0.194816 0.194816 0.194816 0.194815 0.194815 0.194815 0.194814 0.194814 0.194814 0.194813 0.194813 0.194812
          0.194812 0.194811 0.19481 0.194808 0.194806 0.194804 0.1948 0.194795 0.194788 0.194778 0.194762 0.194738
          0.194719 0.247357 0.329441 0.470344 0.748157 0.740588
        </DataArray>
        <DataArray type="Float32" Name="m^w_citrate" NumberOfComponents="1" format="ascii">
          0.749742 0.749742 0.749742 0.749742 0.749742 0.749742 0.749741 0.749741 0.749741 0.749741 0.74974 0.74974
          0.749739 0.749738 0.749737 0.749736 0.749734 0.749732 0.749728 0.749723 0.749716 0.749706 0.74969 0.749667
          0.749628 0.749566 0.749442 0.749146 0.748159 0.74059
        </DataArray>
        <DataArray type="Float32" Name="m^w_substrate" NumberOfComponents="1" format="ascii">
          3.06231e-08 4.18713e-08 5.7249e-08 7.82721e-08 1.07014e-07 1.46311e-07 2.00047e-07 2.73539e-07 3.74081e-07 5.11688e-07 7.00137e-07 9.58437e-07
          1.3129e-06 1.80014e-06 2.47138e-06 3.39895e-06 4.686e-06 6.48171e-06 9.00559e-06 1.25879e-05 1.774e-05 2.5282e-05 3.65916e-05 5.41259e-05
          8.2626e-05 0.000132283 0.00022866 0.000452829 0.00118996 0.0067925
        </DataArray>
        <DataArray type="Float32" Name="process rank" NumberOfComponents="1" format="ascii">
          0 0 0 0 0 0 0 0 0 0 0 0
          0 0 0 0 0 0 0 0 0 0 0 0
          0 0 0 0 0 0
        </DataArray>
      </CellData>
      <Points>
        <DataArray type="Float32" Name="Coordinates" NumberOfComponents="3" format="ascii">
          0 0 0 0.5 0 0 0 0.0333333 0 0.5 0.0333333 0
          0 0.0666667 0 0.5 0.0666667 0 0 0.1 0 0.5 0.1 0
          0 0.133333 0 0.5 0.133333 0 0 0.166667 0 0.5 0.166667 0
          0 0.2 0 0.5 0.2 0 0 0.233333 0 0.5 0.233333 0
          0 0.266667 0 0.5 0.266667 0 0 0.3 0 0.5 0.3 0
          0 0.333333 0 0.5 0.333333 0 0 0.366667 0 0.5 0.366667 0
          0 0.4 0 0.5 0.4 0 0 0.433333 0 0.5 0.433333 0
          0 0.466667 0 0.5 0.466667 0 0 0.5 0 0.5 0.5 0
          0 0.533333 0 0.5 0.533333 0 0 0.566667 0 0.5 0.566667 0
          0 0.6 0 0.5 0.6 0 0 0.633333 0 0.5 0.633333 0
          0 0.666667 0 0.5 0.666667 0 0 0.7 0 0.5 0.7 0
          0 0.733333 0 0.5 0.733333 0 0 0.766667 0 0.5 0.766667 0
          0 0.8 0 0.5 0.8 0 0 0.833333 0 0.5 0.833333 0
          0 0.866667 0 0.5 0.866667 0 0 0.9 0 0.5 0.9 0
          0 0.933333 0 0.5 0.933333 0 0 0.966667 0 0.5 0.966667 0
          0 1 0 0.5 1 0
        </DataArray>
      </Points>
      <Cells>
        <DataArray type="Int32" Name="connectivity" NumberOfComponents="1" format="ascii">
          0 1 3 2 2 3 5 4 4 5 7 6
          6 7 9 8 8 9 11 10 10 11 13 12
          12 13 15 14 14 15 17 16 16 17 19 18
          18 19 21 20 20 21 23 22 22 23 25 24
          24 25 27 26 26 27 29 28 28 29 31 30
          30 31 33 32 32 33 35 34 34 35 37 36
          36 37 39 38 38 39 41 40 40 41 43 42
          42 43 45 44 44 45 47 46 46 47 49 48
          48 49 51 50 50 51 53 52 52 53 55 54
          54 55 57 56 56 57 59 58 58 59 61 60
        </DataArray>
        <DataArray type="Int32" Name="offsets" NumberOfComponents="1" format="ascii">
          4 8 12 16 20 24 28 32 36 40 44 48
          52 56 60 64 68 72 76 80 84 88 92 96
          100 104 108 112 116 120
        </DataArray>
        <DataArray type="UInt8" Name="types" NumberOfComponents="1" format="ascii">
          9 9 9 9 9 9 9 9 9 9 9 9
          9 9 9 9 9 9 9 9 9 9 9 9
          9 9 9 9 9 9
        </DataArray>
      </Cells>
    </Piece>
  </UnstructuredGrid>
</VTKFile>
