<?xml version="1.0"?>
<VTKFile type="UnstructuredGrid" version="0.1" byte_order="LittleEndian">
  <UnstructuredGrid>
    <Piece NumberOfCells="30" NumberOfPoints="62">
      <CellData Scalars="Sg">
        <DataArray type="Float32" Name="Sg" NumberOfComponents="1" format="ascii">
          0 0 0 0 0 0 0 0 0 0 0 0
          0 0 0 0 0 0 0 0 0 0 0 0
          0 0 0 0 0 0
        </DataArray>
        <DataArray type="Float32" Name="Sl" NumberOfComponents="1" format="ascii">
          1 1 1 1 1 1 1 1 1 1 1 1
          1 1 1 1 1 1 1 1 1 1 1 1
          1 1 1 1 1 1
        </DataArray>
        <DataArray type="Float32" Name="pg" NumberOfComponents="1" format="ascii">
          24687.8 24360.9 24034 23707 23380.1 23053.1 22726.2 22399.3 22072.3 21745.4 21418.4 21091.5
          20764.6 20437.6 20110.7 19783.7 19456.8 19129.8 18802.9 18476 18149 17822.1 17495.1 17168.2
          16841.3 16514.3 16187.4 15860.4 15533.5 18019.1
        </DataArray>
        <DataArray type="Float32" Name="pl" NumberOfComponents="1" format="ascii">
          110628 110301 109974 109647 109320 108993 108666 108339 108012 107685 107358 107031
          106704 106377 106050 105723 105396 105070 104743 104416 104089 103762 103435 103108
          102781 102454 102127 101800 101473 103959
        </DataArray>
        <DataArray type="Float32" Name="pc" NumberOfComponents="1" format="ascii">
          -85939.7 -85939.7 -85939.7 -85939.7 -85939.7 -85939.7 -85939.7 -85939.7 -85939.7 -85939.7 -85939.7 -85939.7
          -85939.7 -85939.7 -85939.7 -85939.7 -85939.7 -85939.7 -85939.7 -85939.7 -85939.7 -85939.7 -85939.7 -85939.7
          -85939.7 -85939.7 -85939.7 -85939.7 -85939.7 -85939.7
        </DataArray>
        <DataArray type="Float32" Name="rhoL" NumberOfComponents="1" format="ascii">
          999.855 999.855 999.855 999.855 999.855 999.854 999.854 999.854 999.854 999.854 999.854 999.854
          999.853 999.853 999.853 999.853 999.853 999.853 999.852 999.852 999.852 999.852 999.852 999.852
          999.852 999.851 999.851 999.851 999.851 999.852
        </DataArray>
        <DataArray type="Float32" Name="rhoG" NumberOfComponents="1" format="ascii">
          0.30585 0.3018 0.29775 0.293699 0.289649 0.285598 0.281548 0.277498 0.273447 0.269397 0.265347 0.261296
          0.257246 0.253195 0.249145 0.245095 0.241044 0.236994 0.232944 0.228893 0.224843 0.220793 0.216742 0.212692
          0.208641 0.204591 0.200541 0.19649 0.19244 0.223234
        </DataArray>
        <DataArray type="Float32" Name="mobL" NumberOfComponents="1" format="ascii">
          722.171 722.17 722.17 722.17 722.17 722.17 722.169 722.169 722.169 722.169 722.169 722.169
          722.168 722.168 722.168 722.168 722.168 722.167 722.167 722.167 722.167 722.167 722.166 722.166
          722.166 722.166 722.166 722.166 722.165 722.167
        </DataArray>
        <DataArray type="Float32" Name="mobG" NumberOfComponents="1" format="ascii">
          0 0 0 0 0 0 0 0 0 0 0 0
          0 0 0 0 0 0 0 0 0 0 0 0
          0 0 0 0 0 0
        </DataArray>
        <DataArray type="Float32" Name="porosity" NumberOfComponents="1" format="ascii">
          0.298748 0.298748 0.298748 0.298748 0.298748 0.298747 0.298746 0.298745 0.298744 0.298742 0.29874 0.298736
          0.298732 0.298725 0.298716 0.298705 0.298689 0.298667 0.298638 0.298597 0.298542 0.298465 0.298354 0.298188
          0.297657 0.297207 0.296311 0.29396 0.282526 0.00474198
        </DataArray>
        <DataArray type="Float32" Name="temperature" NumberOfComponents="1" format="ascii">
          281.15 281.15 281.15 281.15 281.15 281.15 281.15 281.15 281.15 281.15 281.15 281.15
          281.15 281.15 281.15 281.15 281.15 281.15 281.15 281.15 281.15 281.15 281.15 281.15
          281.15 281.15 281.15 281.15 281.15 281.15
        </DataArray>
        <DataArray type="Float32" Name="phase presence" NumberOfComponents="1" format="ascii">
          1 1 1 1 1 1 1 1 1 1 1 1
          1 1 1 1 1 1 1 1 1 1 1 1
          1 1 1 1 1 1
        </DataArray>
        <DataArray type="Float32" Name="precipitateVolumeFraction_au" NumberOfComponents="1" format="ascii">
          5.52527e-10 5.52772e-10 5.52769e-10 5.52703e-10 5.52781e-10 5.52752e-10 5.52766e-10 5.52725e-10 5.52776e-10 5.52756e-10 5.52742e-10 5.52814e-10
          5.52769e-10 5.52798e-10 5.52707e-10 5.52757e-10 5.52721e-10 5.52782e-10 5.52769e-10 5.52722e-10 5.52747e-10 5.52774e-10 5.53085e-10 1.21843e-09
          0.000269941 0.000269925 0.0002699 0.000269852 5.52279e-10 5.51261e-10
        </DataArray>
        <DataArray type="Float32" Name="precipitateVolumeFraction_nanoAu" NumberOfComponents="1" format="ascii">
          1.23575e-13 1.2363e-13 1.23629e-13 1.23614e-13 1.23631e-13 1.23625e-13 1.23628e-13 1.23619e-13 1.2363e-13 1.23625e-13 1.23622e-13 1.23638e-13
          1.23627e-13 1.23633e-13 1.23612e-13 1.23623e-13 1.23614e-13 1.23626e-13 1.2362e-13 1.23607e-13 1.23608e-13 1.23624e-13 1.35577e-13 2.58206e-11
          6.03586e-08 7.66821e-08 1.0215e-07 1.4559e-07 4.74422e-13 4.68134e-13
        </DataArray>
        <DataArray type="Float32" Name="precipitateVolumeFraction_d" NumberOfComponents="1" format="ascii">
          0.000625805 0.000625867 0.000625954 0.000626076 0.000626248 0.000626489 0.000626826 0.000627297 0.000627953 0.00062886 0.000630112 0.000631834
          0.000634189 0.000637402 0.000641767 0.000647682 0.000655687 0.000666521 0.000681218 0.000701269 0.0007289 0.000767593 0.000823135 0.000905894
          0.00103638 0.00126127 0.00170953 0.00288488 0.00873713 0.147629
        </DataArray>
        <DataArray type="Float32" Name="precipitateVolumeFraction_p" NumberOfComponents="1" format="ascii">
          0.000625805 0.000625867 0.000625954 0.000626076 0.000626248 0.000626489 0.000626826 0.000627297 0.000627953 0.00062886 0.000630112 0.000631834
          0.000634189 0.000637402 0.000641767 0.000647682 0.000655687 0.000666521 0.000681218 0.000701269 0.0007289 0.000767593 0.000823135 0.000905894
          0.00103638 0.00126127 0.00170953 0.00288488 0.00873713 0.147629
        </DataArray>
        <DataArray type="Float32" Name="K" NumberOfComponents="1" format="ascii">
          9.84014e-11 9.84012e-11 9.8401e-11 9.84007e-11 9.84003e-11 9.83997e-11 9.83988e-11 9.83976e-11 9.8396e-11 9.83937e-11 9.83905e-11 9.83861e-11
          9.83801e-11 9.8372e-11 9.83609e-11 9.83459e-11 9.83256e-11 9.82981e-11 9.82609e-11 9.82101e-11 9.81401e-11 9.80422e-11 9.79017e-11 9.76928e-11
          9.7025e-11 9.64622e-11 9.53485e-11 9.24783e-11 7.95049e-11 1.95362e-16
        </DataArray>
        <DataArray type="Float32" Name="X^w_H2O" NumberOfComponents="1" format="ascii">
          0.999853 0.999853 0.999853 0.999853 0.999853 0.999853 0.999853 0.999853 0.999853 0.999853 0.999853 0.999853
          0.999853 0.999853 0.999853 0.999853 0.999853 0.999853 0.999853 0.999853 0.999853 0.999853 0.999853 0.999853
          0.999853 0.999852 0.99985 0.999846 0.999839 0.999839
        </DataArray>
        <DataArray type="Float32" Name="X^w_Air" NumberOfComponents="1" format="ascii">
          0 0 0 0 0 0 0 0 0 0 0 0
          0 0 0 0 0 0 0 0 0 0 0 0
          0 0 0 0 0 0
        </DataArray>
        <DataArray type="Float32" Name="X^w_AuComplex" NumberOfComponents="1" format="ascii">
          1.40967e-16 1.4103e-16 1.41029e-16 1.41012e-16 1.41032e-16 1.41024e-16 1.41028e-16 1.41017e-16 1.4103e-16 1.41024e-16 1.4102e-16 1.41038e-16
          1.41026e-16 1.41032e-16 1.41008e-16 1.41019e-16 1.41007e-16 1.41019e-16 1.41011e-16 1.40993e-16 1.4099e-16 1.41e-16 1.54432e-16 2.94289e-14
          6.88261e-11 1.07365e-10 1.84416e-10 3.64116e-10 1.83728e-15 1.79488e-15
        </DataArray>
        <DataArray type="Float32" Name="X^w_nanoAu" NumberOfComponents="1" format="ascii">
          5.38214e-19 5.3845e-19 5.38446e-19 5.38383e-19 5.38457e-19 5.3843e-19 5.38442e-19 5.38403e-19 5.38451e-19 5.3843e-19 5.38416e-19 5.38484e-19
          5.38439e-19 5.38463e-19 5.38373e-19 5.38416e-19 5.38375e-19 5.38425e-19 5.384e-19 5.38377e-19 5.42063e-19 8.83496e-19 3.25062e-17 2.95709e-15
          2.63624e-13 3.35118e-13 4.46692e-13 6.2677e-13 2.06135e-18 1.99256e-18
        </DataArray>
        <DataArray type="Float32" Name="X^w_cyanide" NumberOfComponents="1" format="ascii">
          5.06926e-06 5.06926e-06 5.06926e-06 5.06926e-06 5.06926e-06 5.06926e-06 5.06926e-06 5.06925e-06 5.06925e-06 5.06924e-06 5.06924e-06 5.06923e-06
          5.06921e-06 5.0692e-06 5.06917e-06 5.06914e-06 5.06909e-06 5.06902e-06 5.06893e-06 5.0688e-06 5.06862e-06 5.06835e-06 5.06795e-06 5.06734e-06
          5.06686e-06 6.43667e-06 8.57286e-06 1.22401e-05 1.94717e-05 1.92759e-05
        </DataArray>
        <DataArray type="Float32" Name="X^w_citrate" NumberOfComponents="1" format="ascii">
          0.000141796 0.000141796 0.000141796 0.000141796 0.000141796 0.000141796 0.000141796 0.000141796 0.000141796 0.000141796 0.000141796 0.000141796
          0.000141796 0.000141796 0.000141795 0.000141795 0.000141795 0.000141794 0.000141794 0.000141793 0.000141791 0.000141789 0.000141786 0.000141782
          0.000141775 0.000141764 0.000141741 0.000141688 0.00014151 0.000140087
        </DataArray>
        <DataArray type="Float32" Name="X^w_substrate" NumberOfComponents="1" format="ascii">
          7.20652e-12 9.74811e-12 1.31856e-11 1.78346e-11 2.41226e-11 3.26278e-11 4.41333e-11 5.97006e-11 8.07695e-11 1.09296e-10 1.47945e-10 2.00351e-10
          2.71495e-10 3.68239e-10 5.00085e-10 6.80317e-10 9.27699e-10 1.26911e-09 1.74376e-09 2.41011e-09 3.35795e-09 4.73018e-09 6.7652e-09 9.88544e-09
          1.49018e-08 2.35505e-08 4.01805e-08 7.86272e-08 2.05537e-07 1.20911e-06
        </DataArray>
        <DataArray type="Float32" Name="m^w_H2O" NumberOfComponents="1" format="ascii">
          55492.6 55492.6 55492.5 55492.5 55492.5 55492.5 55492.5 55492.5 55492.5 55492.5 55492.5 55492.5
          55492.5 55492.4 55492.4 55492.4 55492.4 55492.4 55492.4 55492.4 55492.4 55492.4 55492.4 55492.4
          55492.3 55492.3 55492.1 55491.9 55491.5 55491.6
        </DataArray>
        <DataArray type="Float32" Name="m^w_Air" NumberOfComponents="1" format="ascii">
          0 0 0 0 0 0 0 0 0 0 0 0
          0 0 0 0 0 0 0 0 0 0 0 0
          0 0 0 0 0 0
        </DataArray>
        <DataArray type="Float32" Name="m^w_AuComplex" NumberOfComponents="1" format="ascii">
          7.15575e-13 7.15892e-13 7.15888e-13 7.15801e-13 7.15901e-13 7.15864e-13 7.15881e-13 7.15827e-13 7.15892e-13 7.15864e-13 7.15844e-13 7.15935e-13
          7.15872e-13 7.15904e-13 7.1578e-13 7.15836e-13 7.15777e-13 7.15838e-13 7.15797e-13 7.15703e-13 7.15687e-13 7.15738e-13 7.83923e-13 1.49386e-10
          3.49372e-07 5.45001e-07 9.36124e-07 1.84831e-06 9.32635e-12 9.1111e-12
        </DataArray>
        <DataArray type="Float32" Name="m^w_nanoAu" NumberOfComponents="1" format="ascii">
          2.73207e-15 2.73327e-15 2.73325e-15 2.73293e-15 2.7333e-15 2.73316e-15 2.73322e-15 2.73303e-15 2.73327e-15 2.73316e-15 2.73309e-15 2.73344e-15
          2.73321e-15 2.73333e-15 2.73287e-15 2.73309e-15 2.73288e-15 2.73313e-15 2.73301e-15 2.73289e-15 2.7516e-15 4.48477e-15 1.65007e-13 1.50107e-11
          1.3382e-09 1.70111e-09 2.26748e-09 3.18158e-09 1.04637e-14 1.01146e-14
        </DataArray>
        <DataArray type="Float32" Name="m^w_cyanide" NumberOfComponents="1" format="ascii">
          0.194794 0.194793 0.194793 0.194793 0.194793 0.194793 0.194793 0.194793 0.194793 0.194793 0.194792 0.194792
          0.194791 0.194791 0.19479 0.194788 0.194786 0.194784 0.19478 0.194775 0.194768 0.194758 0.194743 0.194719
          0.1947 0.247337 0.329423 0.47034 0.748223 0.7407
        </DataArray>
        <DataArray type="Float32" Name="m^w_citrate" NumberOfComponents="1" format="ascii">
          0.749742 0.749742 0.749742 0.749742 0.749742 0.749741 0.749741 0.749741 0.749741 0.74974 0.74974 0.74974
          0.749739 0.749738 0.749737 0.749735 0.749734 0.749731 0.749727 0.749722 0.749715 0.749704 0.749689 0.749665
          0.749628 0.749568 0.749449 0.749168 0.748226 0.740702
        </DataArray>
        <DataArray type="Float32" Name="m^w_substrate" NumberOfComponents="1" format="ascii">
          3.99949e-08 5.41002e-08 7.31774e-08 9.8979e-08 1.33876e-07 1.81078e-07 2.44932e-07 3.31327e-07 4.48255e-07 6.06574e-07 8.21065e-07 1.11191e-06
          1.50675e-06 2.04365e-06 2.77538e-06 3.77563e-06 5.14855e-06 7.04332e-06 9.67752e-06 1.33757e-05 1.8636e-05 2.62516e-05 3.75455e-05 5.48622e-05
          8.2702e-05 0.000130701 0.000222994 0.000436365 0.00114069 0.00671032
        </DataArray>
        <DataArray type="Float32" Name="process rank" NumberOfComponents="1" format="ascii">
          0 0 0 0 0 0 0 0 0 0 0 0
          0 0 0 0 0 0 0 0 0 0 0 0
          0 0 0 0 0 0
        </DataArray>
      </CellData>
      <Points>
        <DataArray type="Float32" Name="Coordinates" NumberOfComponents="3" format="ascii">
          0 0 0 0.5 0 0 0 0.0333333 0 0.5 0.0333333 0
          0 0.0666667 0 0.5 0.0666667 0 0 0.1 0 0.5 0.1 0
          0 0.133333 0 0.5 0.133333 0 0 0.166667 0 0.5 0.166667 0
          0 0.2 0 0.5 0.2 0 0 0.233333 0 0.5 0.233333 0
          0 0.266667 0 0.5 0.266667 0 0 0.3 0 0.5 0.3 0
          0 0.333333 0 0.5 0.333333 0 0 0.366667 0 0.5 0.366667 0
          0 0.4 0 0.5 0.4 0 0 0.433333 0 0.5 0.433333 0
          0 0.466667 0 0.5 0.466667 0 0 0.5 0 0.5 0.5 0
          0 0.533333 0 0.5 0.533333 0 0 0.566667 0 0.5 0.566667 0
          0 0.6 0 0.5 0.6 0 0 0.633333 0 0.5 0.633333 0
          0 0.666667 0 0.5 0.666667 0 0 0.7 0 0.5 0.7 0
          0 0.733333 0 0.5 0.733333 0 0 0.766667 0 0.5 0.766667 0
          0 0.8 0 0.5 0.8 0 0 0.833333 0 0.5 0.833333 0
          0 0.866667 0 0.5 0.866667 0 0 0.9 0 0.5 0.9 0
          0 0.933333 0 0.5 0.933333 0 0 0.966667 0 0.5 0.966667 0
          0 1 0 0.5 1 0
        </DataArray>
      </Points>
      <Cells>
        <DataArray type="Int32" Name="connectivity" NumberOfComponents="1" format="ascii">
          0 1 3 2 2 3 5 4 4 5 7 6
          6 7 9 8 8 9 11 10 10 11 13 12
          12 13 15 14 14 15 17 16 16 17 19 18
          18 19 21 20 20 21 23 22 22 23 25 24
          24 25 27 26 26 27 29 28 28 29 31 30
          30 31 33 32 32 33 35 34 34 35 37 36
          36 37 39 38 38 39 41 40 40 41 43 42
          42 43 45 44 44 45 47 46 46 47 49 48
          48 49 51 50 50 51 53 52 52 53 55 54
          54 55 57 56 56 57 59 58 58 59 61 60
        </DataArray>
        <DataArray type="Int32" Name="offsets" NumberOfComponents="1" format="ascii">
          4 8 12 16 20 24 28 32 36 40 44 48
          52 56 60 64 68 72 76 80 84 88 92 96
          100 104 108 112 116 120
        </DataArray>
        <DataArray type="UInt8" Name="types" NumberOfComponents="1" format="ascii">
          9 9 9 9 9 9 9 9 9 9 9 9
          9 9 9 9 9 9 9 9 9 9 9 9
          9 9 9 9 9 9
        </DataArray>
      </Cells>
    </Piece>
  </UnstructuredGrid>
</VTKFile>
