<?xml version="1.0"?>
<VTKFile type="UnstructuredGrid" version="0.1" byte_order="LittleEndian">
  <UnstructuredGrid>
    <Piece NumberOfCells="30" NumberOfPoints="62">
      <CellData Scalars="Sg">
        <DataArray type="Float32" Name="Sg" NumberOfComponents="1" format="ascii">
          0 0 0 0 0 0 0 0 0 0 0 0
          0 0 0 0 0 0 0 0 0 0 0 0
          0 0 0 0 0 0
        </DataArray>
        <DataArray type="Float32" Name="Sl" NumberOfComponents="1" format="ascii">
          1 1 1 1 1 1 1 1 1 1 1 1
          1 1 1 1 1 1 1 1 1 1 1 1
          1 1 1 1 1 1
        </DataArray>
        <DataArray type="Float32" Name="pg" NumberOfComponents="1" format="ascii">
          24687.8 24360.9 24034 23707 23380.1 23053.1 22726.2 22399.3 22072.3 21745.4 21418.4 21091.5
          20764.6 20437.6 20110.7 19783.7 19456.8 19129.8 18802.9 18476 18149 17822.1 17495.1 17168.2
          16841.3 16514.3 16187.4 15860.4 15533.5 15244.6
        </DataArray>
        <DataArray type="Float32" Name="pl" NumberOfComponents="1" format="ascii">
          110628 110301 109974 109647 109320 108993 108666 108339 108012 107685 107358 107031
          106704 106377 106050 105723 105396 105070 104743 104416 104089 103762 103435 103108
          102781 102454 102127 101800 101473 101184
        </DataArray>
        <DataArray type="Float32" Name="pc" NumberOfComponents="1" format="ascii">
          -85939.7 -85939.7 -85939.7 -85939.7 -85939.7 -85939.7 -85939.7 -85939.7 -85939.7 -85939.7 -85939.7 -85939.7
          -85939.7 -85939.7 -85939.7 -85939.7 -85939.7 -85939.7 -85939.7 -85939.7 -85939.7 -85939.7 -85939.7 -85939.7
          -85939.7 -85939.7 -85939.7 -85939.7 -85939.7 -85939.7
        </DataArray>
        <DataArray type="Float32" Name="rhoL" NumberOfComponents="1" format="ascii">
          999.855 999.855 999.855 999.855 999.855 999.854 999.854 999.854 999.854 999.854 999.854 999.854
          999.853 999.853 999.853 999.853 999.853 999.853 999.852 999.852 999.852 999.852 999.852 999.852
          999.852 999.851 999.851 999.851 999.851 999.851
        </DataArray>
        <DataArray type="Float32" Name="rhoG" NumberOfComponents="1" format="ascii">
          0.30585 0.3018 0.29775 0.293699 0.289649 0.285598 0.281548 0.277498 0.273447 0.269397 0.265347 0.261296
          0.257246 0.253195 0.249145 0.245095 0.241044 0.236994 0.232944 0.228893 0.224843 0.220793 0.216742 0.212692
          0.208641 0.204591 0.200541 0.19649 0.19244 0.188861
        </DataArray>
        <DataArray type="Float32" Name="mobL" NumberOfComponents="1" format="ascii">
          722.171 722.17 722.17 722.17 722.17 722.17 722.169 722.169 722.169 722.169 722.169 722.169
          722.168 722.168 722.168 722.168 722.168 722.167 722.167 722.167 722.167 722.167 722.166 722.166
          722.166 722.166 722.166 722.166 722.165 722.165
        </DataArray>
        <DataArray type="Float32" Name="mobG" NumberOfComponents="1" format="ascii">
          0 0 0 0 0 0 0 0 0 0 0 0
          0 0 0 0 0 0 0 0 0 0 0 0
          0 0 0 0 0 0
        </DataArray>
        <DataArray type="Float32" Name="porosity" NumberOfComponents="1" format="ascii">
          0.29864 0.29864 0.29864 0.29864 0.298639 0.298639 0.298638 0.298637 0.298636 0.298634 0.298631 0.298627
          0.298622 0.298615 0.298606 0.298593 0.298576 0.298553 0.298522 0.298479 0.29842 0.298338 0.298221 0.298047
          0.297506 0.297043 0.296141 0.293871 0.283867 0.0197039
        </DataArray>
        <DataArray type="Float32" Name="temperature" NumberOfComponents="1" format="ascii">
          281.15 281.15 281.15 281.15 281.15 281.15 281.15 281.15 281.15 281.15 281.15 281.15
          281.15 281.15 281.15 281.15 281.15 281.15 281.15 281.15 281.15 281.15 281.15 281.15
          281.15 281.15 281.15 281.15 281.15 281.15
        </DataArray>
        <DataArray type="Float32" Name="phase presence" NumberOfComponents="1" format="ascii">
          1 1 1 1 1 1 1 1 1 1 1 1
          1 1 1 1 1 1 1 1 1 1 1 1
          1 1 1 1 1 1
        </DataArray>
        <DataArray type="Float32" Name="precipitateVolumeFraction_au" NumberOfComponents="1" format="ascii">
          5.52527e-10 5.52772e-10 5.52769e-10 5.52703e-10 5.52781e-10 5.52752e-10 5.52766e-10 5.52725e-10 5.52776e-10 5.52756e-10 5.52742e-10 5.52814e-10
          5.52768e-10 5.52798e-10 5.52707e-10 5.52757e-10 5.52721e-10 5.52782e-10 5.52769e-10 5.52722e-10 5.52747e-10 5.52774e-10 5.52962e-10 9.53408e-10
          0.00026994 0.000269924 0.000269899 0.000269853 5.5228e-10 5.51268e-10
        </DataArray>
        <DataArray type="Float32" Name="precipitateVolumeFraction_nanoAu" NumberOfComponents="1" format="ascii">
          1.23688e-13 1.2375e-13 1.23749e-13 1.23732e-13 1.2375e-13 1.23743e-13 1.23745e-13 1.23735e-13 1.23746e-13 1.23741e-13 1.23737e-13 1.23752e-13
          1.23741e-13 1.23747e-13 1.23725e-13 1.23735e-13 1.23725e-13 1.23737e-13 1.23731e-13 1.23717e-13 1.23718e-13 1.23733e-13 1.35665e-13 2.57999e-11
          6.03852e-08 7.67109e-08 1.02177e-07 1.45601e-07 4.74324e-13 4.67785e-13
        </DataArray>
        <DataArray type="Float32" Name="precipitateVolumeFraction_d" NumberOfComponents="1" format="ascii">
          0.000679844 0.00067991 0.000680003 0.000680134 0.000680318 0.000680576 0.000680937 0.000681442 0.000682144 0.000683118 0.000684461 0.000686306
          0.000688832 0.000692276 0.000696953 0.000703289 0.000711855 0.000723435 0.000739124 0.00076049 0.000789864 0.000830874 0.000889499 0.000976355
          0.00111217 0.00134333 0.00179437 0.00292951 0.00806627 0.140148
        </DataArray>
        <DataArray type="Float32" Name="precipitateVolumeFraction_p" NumberOfComponents="1" format="ascii">
          0.000679844 0.00067991 0.000680003 0.000680134 0.000680318 0.000680576 0.000680937 0.000681442 0.000682144 0.000683118 0.000684461 0.000686306
          0.000688832 0.000692276 0.000696953 0.000703289 0.000711855 0.000723435 0.000739124 0.00076049 0.000789864 0.000830874 0.000889499 0.000976355
          0.00111217 0.00134333 0.00179437 0.00292951 0.00806627 0.140148
        </DataArray>
        <DataArray type="Float32" Name="K" NumberOfComponents="1" format="ascii">
          9.82644e-11 9.82642e-11 9.8264e-11 9.82636e-11 9.82632e-11 9.82625e-11 9.82616e-11 9.82603e-11 9.82585e-11 9.82561e-11 9.82527e-11 9.8248e-11
          9.82416e-11 9.82328e-11 9.8221e-11 9.82049e-11 9.81832e-11 9.81539e-11 9.81142e-11 9.80601e-11 9.79858e-11 9.78822e-11 9.77341e-11 9.75152e-11
          9.6835e-11 9.62575e-11 9.51389e-11 9.23707e-11 8.09454e-11 1.44469e-14
        </DataArray>
        <DataArray type="Float32" Name="X^w_H2O" NumberOfComponents="1" format="ascii">
          0.999853 0.999853 0.999853 0.999853 0.999853 0.999853 0.999853 0.999853 0.999853 0.999853 0.999853 0.999853
          0.999853 0.999853 0.999853 0.999853 0.999853 0.999853 0.999853 0.999853 0.999853 0.999853 0.999853 0.999853
          0.999853 0.999852 0.99985 0.999846 0.999839 0.999839
        </DataArray>
        <DataArray type="Float32" Name="X^w_Air" NumberOfComponents="1" format="ascii">
          0 0 0 0 0 0 0 0 0 0 0 0
          0 0 0 0 0 0 0 0 0 0 0 0
          0 0 0 0 0 0
        </DataArray>
        <DataArray type="Float32" Name="X^w_AuComplex" NumberOfComponents="1" format="ascii">
          1.41141e-16 1.41211e-16 1.41208e-16 1.41189e-16 1.41209e-16 1.412e-16 1.41202e-16 1.4119e-16 1.41202e-16 1.41196e-16 1.41191e-16 1.41208e-16
          1.41194e-16 1.412e-16 1.41174e-16 1.41185e-16 1.41172e-16 1.41183e-16 1.41175e-16 1.41155e-16 1.41151e-16 1.4116e-16 1.5457e-16 2.94131e-14
          6.88761e-11 1.07432e-10 1.845e-10 3.64164e-10 1.83645e-15 1.79247e-15
        </DataArray>
        <DataArray type="Float32" Name="X^w_nanoAu" NumberOfComponents="1" format="ascii">
          5.38706e-19 5.38976e-19 5.38968e-19 5.38897e-19 5.38975e-19 5.38942e-19 5.38952e-19 5.38909e-19 5.38956e-19 5.38933e-19 5.38916e-19 5.38983e-19
          5.38934e-19 5.38957e-19 5.38864e-19 5.38905e-19 5.38863e-19 5.3891e-19 5.38884e-19 5.38859e-19 5.4255e-19 8.8458e-19 3.25482e-17 2.95957e-15
          2.63739e-13 3.35239e-13 4.46794e-13 6.26761e-13 2.06037e-18 1.98978e-18
        </DataArray>
        <DataArray type="Float32" Name="X^w_cyanide" NumberOfComponents="1" format="ascii">
          5.07161e-06 5.07159e-06 5.07157e-06 5.07155e-06 5.07153e-06 5.07151e-06 5.07148e-06 5.07146e-06 5.07144e-06 5.07142e-06 5.07139e-06 5.07137e-06
          5.07134e-06 5.0713e-06 5.07126e-06 5.07121e-06 5.07115e-06 5.07107e-06 5.07096e-06 5.07082e-06 5.07062e-06 5.07033e-06 5.0699e-06 5.06924e-06
          5.06865e-06 6.43862e-06 8.5747e-06 1.22408e-05 1.94666e-05 1.92633e-05
        </DataArray>
        <DataArray type="Float32" Name="X^w_citrate" NumberOfComponents="1" format="ascii">
          0.000141796 0.000141796 0.000141796 0.000141796 0.000141796 0.000141796 0.000141796 0.000141796 0.000141796 0.000141796 0.000141796 0.000141796
          0.000141796 0.000141796 0.000141795 0.000141795 0.000141795 0.000141794 0.000141794 0.000141793 0.000141792 0.00014179 0.000141787 0.000141782
          0.000141774 0.000141762 0.000141736 0.000141675 0.000141473 0.000139995
        </DataArray>
        <DataArray type="Float32" Name="X^w_substrate" NumberOfComponents="1" format="ascii">
          4.37518e-12 6.04704e-12 8.35746e-12 1.15504e-11 1.59629e-11 2.20615e-11 3.04912e-11 4.21455e-11 5.82626e-11 8.05609e-11 1.1143e-10 1.54202e-10
          2.13537e-10 2.95988e-10 4.10818e-10 5.71238e-10 7.96274e-10 1.11371e-09 1.56481e-09 2.21222e-09 3.15374e-09 4.54751e-09 6.66119e-09 9.97516e-09
          1.54216e-08 2.50122e-08 4.37982e-08 8.77363e-08 2.31404e-07 1.27363e-06
        </DataArray>
        <DataArray type="Float32" Name="m^w_H2O" NumberOfComponents="1" format="ascii">
          55492.6 55492.6 55492.5 55492.5 55492.5 55492.5 55492.5 55492.5 55492.5 55492.5 55492.5 55492.5
          55492.5 55492.4 55492.4 55492.4 55492.4 55492.4 55492.4 55492.4 55492.4 55492.4 55492.4 55492.4
          55492.3 55492.3 55492.1 55491.9 55491.5 55491.5
        </DataArray>
        <DataArray type="Float32" Name="m^w_Air" NumberOfComponents="1" format="ascii">
          0 0 0 0 0 0 0 0 0 0 0 0
          0 0 0 0 0 0 0 0 0 0 0 0
          0 0 0 0 0 0
        </DataArray>
        <DataArray type="Float32" Name="m^w_AuComplex" NumberOfComponents="1" format="ascii">
          7.16457e-13 7.1681e-13 7.16799e-13 7.167e-13 7.16802e-13 7.16756e-13 7.16768e-13 7.16707e-13 7.16768e-13 7.16734e-13 7.16708e-13 7.16796e-13
          7.16727e-13 7.16755e-13 7.16625e-13 7.16677e-13 7.16613e-13 7.1667e-13 7.16626e-13 7.16526e-13 7.16505e-13 7.16549e-13 7.84621e-13 1.49306e-10
          3.49626e-07 5.45344e-07 9.3655e-07 1.84855e-06 9.32211e-12 9.09886e-12
        </DataArray>
        <DataArray type="Float32" Name="m^w_nanoAu" NumberOfComponents="1" format="ascii">
          2.73457e-15 2.73594e-15 2.7359e-15 2.73554e-15 2.73593e-15 2.73577e-15 2.73582e-15 2.7356e-15 2.73584e-15 2.73572e-15 2.73563e-15 2.73597e-15
          2.73572e-15 2.73584e-15 2.73536e-15 2.73557e-15 2.73536e-15 2.7356e-15 2.73546e-15 2.73534e-15 2.75407e-15 4.49027e-15 1.6522e-13 1.50232e-11
          1.33878e-09 1.70173e-09 2.268e-09 3.18154e-09 1.04588e-14 1.01004e-14
        </DataArray>
        <DataArray type="Float32" Name="m^w_cyanide" NumberOfComponents="1" format="ascii">
          0.194884 0.194883 0.194882 0.194881 0.19488 0.19488 0.194879 0.194878 0.194877 0.194876 0.194875 0.194874
          0.194873 0.194872 0.19487 0.194868 0.194866 0.194862 0.194858 0.194853 0.194845 0.194834 0.194817 0.194792
          0.194769 0.247412 0.329494 0.470367 0.748029 0.740215
        </DataArray>
        <DataArray type="Float32" Name="m^w_citrate" NumberOfComponents="1" format="ascii">
          0.749742 0.749742 0.749742 0.749742 0.749742 0.749742 0.749741 0.749741 0.749741 0.749741 0.74974 0.74974
          0.749739 0.749739 0.749738 0.749736 0.749735 0.749732 0.749729 0.749724 0.749716 0.749706 0.74969 0.749665
          0.749624 0.749557 0.749422 0.7491 0.748032 0.740217
        </DataArray>
        <DataArray type="Float32" Name="m^w_substrate" NumberOfComponents="1" format="ascii">
          2.42814e-08 3.356e-08 4.63824e-08 6.41023e-08 8.85912e-08 1.22437e-07 1.6922e-07 2.339e-07 3.23346e-07 4.47098e-07 6.18416e-07 8.55791e-07
          1.18509e-06 1.64267e-06 2.27996e-06 3.17026e-06 4.41916e-06 6.18086e-06 8.68437e-06 1.22774e-05 1.75026e-05 2.52378e-05 3.69682e-05 5.53602e-05
          8.5587e-05 0.000138812 0.000243071 0.000486918 0.00128425 0.0070684
        </DataArray>
        <DataArray type="Float32" Name="process rank" NumberOfComponents="1" format="ascii">
          0 0 0 0 0 0 0 0 0 0 0 0
          0 0 0 0 0 0 0 0 0 0 0 0
          0 0 0 0 0 0
        </DataArray>
      </CellData>
      <Points>
        <DataArray type="Float32" Name="Coordinates" NumberOfComponents="3" format="ascii">
          0 0 0 0.5 0 0 0 0.0333333 0 0.5 0.0333333 0
          0 0.0666667 0 0.5 0.0666667 0 0 0.1 0 0.5 0.1 0
          0 0.133333 0 0.5 0.133333 0 0 0.166667 0 0.5 0.166667 0
          0 0.2 0 0.5 0.2 0 0 0.233333 0 0.5 0.233333 0
          0 0.266667 0 0.5 0.266667 0 0 0.3 0 0.5 0.3 0
          0 0.333333 0 0.5 0.333333 0 0 0.366667 0 0.5 0.366667 0
          0 0.4 0 0.5 0.4 0 0 0.433333 0 0.5 0.433333 0
          0 0.466667 0 0.5 0.466667 0 0 0.5 0 0.5 0.5 0
          0 0.533333 0 0.5 0.533333 0 0 0.566667 0 0.5 0.566667 0
          0 0.6 0 0.5 0.6 0 0 0.633333 0 0.5 0.633333 0
          0 0.666667 0 0.5 0.666667 0 0 0.7 0 0.5 0.7 0
          0 0.733333 0 0.5 0.733333 0 0 0.766667 0 0.5 0.766667 0
          0 0.8 0 0.5 0.8 0 0 0.833333 0 0.5 0.833333 0
          0 0.866667 0 0.5 0.866667 0 0 0.9 0 0.5 0.9 0
          0 0.933333 0 0.5 0.933333 0 0 0.966667 0 0.5 0.966667 0
          0 1 0 0.5 1 0
        </DataArray>
      </Points>
      <Cells>
        <DataArray type="Int32" Name="connectivity" NumberOfComponents="1" format="ascii">
          0 1 3 2 2 3 5 4 4 5 7 6
          6 7 9 8 8 9 11 10 10 11 13 12
          12 13 15 14 14 15 17 16 16 17 19 18
          18 19 21 20 20 21 23 22 22 23 25 24
          24 25 27 26 26 27 29 28 28 29 31 30
          30 31 33 32 32 33 35 34 34 35 37 36
          36 37 39 38 38 39 41 40 40 41 43 42
          42 43 45 44 44 45 47 46 46 47 49 48
          48 49 51 50 50 51 53 52 52 53 55 54
          54 55 57 56 56 57 59 58 58 59 61 60
        </DataArray>
        <DataArray type="Int32" Name="offsets" NumberOfComponents="1" format="ascii">
          4 8 12 16 20 24 28 32 36 40 44 48
          52 56 60 64 68 72 76 80 84 88 92 96
          100 104 108 112 116 120
        </DataArray>
        <DataArray type="UInt8" Name="types" NumberOfComponents="1" format="ascii">
          9 9 9 9 9 9 9 9 9 9 9 9
          9 9 9 9 9 9 9 9 9 9 9 9
          9 9 9 9 9 9
        </DataArray>
      </Cells>
    </Piece>
  </UnstructuredGrid>
</VTKFile>
