<?xml version="1.0"?>
<VTKFile type="UnstructuredGrid" version="0.1" byte_order="LittleEndian">
  <UnstructuredGrid>
    <Piece NumberOfCells="30" NumberOfPoints="62">
      <CellData Scalars="Sg">
        <DataArray type="Float32" Name="Sg" NumberOfComponents="1" format="ascii">
          0 0 0 0 0 0 0 0 0 0 0 0
          0 0 0 0 0 0 0 0 0 0 0 0
          0 0 0 0 0 0
        </DataArray>
        <DataArray type="Float32" Name="Sl" NumberOfComponents="1" format="ascii">
          1 1 1 1 1 1 1 1 1 1 1 1
          1 1 1 1 1 1 1 1 1 1 1 1
          1 1 1 1 1 1
        </DataArray>
        <DataArray type="Float32" Name="pg" NumberOfComponents="1" format="ascii">
          24687.8 24360.9 24034 23707 23380.1 23053.1 22726.2 22399.3 22072.3 21745.4 21418.4 21091.5
          20764.6 20437.6 20110.7 19783.7 19456.8 19129.8 18802.9 18476 18149 17822.1 17495.1 17168.2
          16841.3 16514.3 16187.4 15860.4 15533.5 15208
        </DataArray>
        <DataArray type="Float32" Name="pl" NumberOfComponents="1" format="ascii">
          110628 110301 109974 109647 109320 108993 108666 108339 108012 107685 107358 107031
          106704 106377 106050 105723 105396 105070 104743 104416 104089 103762 103435 103108
          102781 102454 102127 101800 101473 101148
        </DataArray>
        <DataArray type="Float32" Name="pc" NumberOfComponents="1" format="ascii">
          -85939.7 -85939.7 -85939.7 -85939.7 -85939.7 -85939.7 -85939.7 -85939.7 -85939.7 -85939.7 -85939.7 -85939.7
          -85939.7 -85939.7 -85939.7 -85939.7 -85939.7 -85939.7 -85939.7 -85939.7 -85939.7 -85939.7 -85939.7 -85939.7
          -85939.7 -85939.7 -85939.7 -85939.7 -85939.7 -85939.7
        </DataArray>
        <DataArray type="Float32" Name="rhoL" NumberOfComponents="1" format="ascii">
          999.855 999.855 999.855 999.855 999.855 999.854 999.854 999.854 999.854 999.854 999.854 999.854
          999.853 999.853 999.853 999.853 999.853 999.853 999.852 999.852 999.852 999.852 999.852 999.852
          999.852 999.851 999.851 999.851 999.851 999.851
        </DataArray>
        <DataArray type="Float32" Name="rhoG" NumberOfComponents="1" format="ascii">
          0.30585 0.3018 0.29775 0.293699 0.289649 0.285598 0.281548 0.277498 0.273447 0.269397 0.265347 0.261296
          0.257246 0.253195 0.249145 0.245095 0.241044 0.236994 0.232944 0.228893 0.224843 0.220793 0.216742 0.212692
          0.208641 0.204591 0.200541 0.19649 0.19244 0.188407
        </DataArray>
        <DataArray type="Float32" Name="mobL" NumberOfComponents="1" format="ascii">
          722.171 722.17 722.17 722.17 722.17 722.17 722.169 722.169 722.169 722.169 722.169 722.169
          722.168 722.168 722.168 722.168 722.168 722.167 722.167 722.167 722.167 722.167 722.166 722.166
          722.166 722.166 722.166 722.166 722.165 722.165
        </DataArray>
        <DataArray type="Float32" Name="mobG" NumberOfComponents="1" format="ascii">
          0 0 0 0 0 0 0 0 0 0 0 0
          0 0 0 0 0 0 0 0 0 0 0 0
          0 0 0 0 0 0
        </DataArray>
        <DataArray type="Float32" Name="porosity" NumberOfComponents="1" format="ascii">
          0.298673 0.298672 0.298672 0.298672 0.298671 0.298671 0.29867 0.298669 0.298667 0.298665 0.298662 0.298658
          0.298652 0.298644 0.298634 0.298621 0.298602 0.298578 0.298545 0.2985 0.29844 0.298355 0.298235 0.298058
          0.297511 0.297042 0.296131 0.293854 0.284041 0.0577667
        </DataArray>
        <DataArray type="Float32" Name="temperature" NumberOfComponents="1" format="ascii">
          281.15 281.15 281.15 281.15 281.15 281.15 281.15 281.15 281.15 281.15 281.15 281.15
          281.15 281.15 281.15 281.15 281.15 281.15 281.15 281.15 281.15 281.15 281.15 281.15
          281.15 281.15 281.15 281.15 281.15 281.15
        </DataArray>
        <DataArray type="Float32" Name="phase presence" NumberOfComponents="1" format="ascii">
          1 1 1 1 1 1 1 1 1 1 1 1
          1 1 1 1 1 1 1 1 1 1 1 1
          1 1 1 1 1 1
        </DataArray>
        <DataArray type="Float32" Name="precipitateVolumeFraction_au" NumberOfComponents="1" format="ascii">
          5.53808e-10 5.5245e-10 5.52739e-10 5.52741e-10 5.52722e-10 5.52738e-10 5.52771e-10 5.5276e-10 5.52823e-10 5.52498e-10 5.52705e-10 5.52729e-10
          5.52774e-10 5.52773e-10 5.52773e-10 5.5275e-10 5.52741e-10 5.52768e-10 5.52763e-10 5.52765e-10 5.5275e-10 5.5277e-10 5.52824e-10 9.08412e-10
          0.00026994 0.000269924 0.000269899 0.000269853 5.52263e-10 5.51405e-10
        </DataArray>
        <DataArray type="Float32" Name="precipitateVolumeFraction_nanoAu" NumberOfComponents="1" format="ascii">
          1.24459e-13 1.23908e-13 1.24013e-13 1.24013e-13 1.24006e-13 1.24011e-13 1.24019e-13 1.24015e-13 1.24031e-13 1.23947e-13 1.23998e-13 1.24003e-13
          1.24013e-13 1.24011e-13 1.2401e-13 1.24002e-13 1.23998e-13 1.24001e-13 1.23996e-13 1.23991e-13 1.23981e-13 1.23983e-13 1.35236e-13 2.57614e-11
          6.03943e-08 7.67177e-08 1.02175e-07 1.4557e-07 4.74212e-13 4.66789e-13
        </DataArray>
        <DataArray type="Float32" Name="precipitateVolumeFraction_d" NumberOfComponents="1" format="ascii">
          0.000663662 0.000663747 0.000663866 0.00066403 0.000664258 0.000664574 0.00066501 0.000665609 0.000666432 0.000667558 0.00066909 0.00067117
          0.000673981 0.000677769 0.000682858 0.000689679 0.000698814 0.000711055 0.000727509 0.000749761 0.000780166 0.000822394 0.000882496 0.000971209
          0.00110948 0.00134401 0.0017997 0.00293812 0.00797953 0.121117
        </DataArray>
        <DataArray type="Float32" Name="precipitateVolumeFraction_p" NumberOfComponents="1" format="ascii">
          0.000663662 0.000663747 0.000663866 0.00066403 0.000664258 0.000664574 0.00066501 0.000665609 0.000666432 0.000667558 0.00066909 0.00067117
          0.000673981 0.000677769 0.000682858 0.000689679 0.000698814 0.000711055 0.000727509 0.000749761 0.000780166 0.000822394 0.000882496 0.000971209
          0.00110948 0.00134401 0.0017997 0.00293812 0.00797953 0.121117
        </DataArray>
        <DataArray type="Float32" Name="K" NumberOfComponents="1" format="ascii">
          9.83054e-11 9.83052e-11 9.83049e-11 9.83044e-11 9.83039e-11 9.83031e-11 9.8302e-11 9.83004e-11 9.82984e-11 9.82955e-11 9.82916e-11 9.82863e-11
          9.82792e-11 9.82696e-11 9.82567e-11 9.82394e-11 9.82163e-11 9.81853e-11 9.81436e-11 9.80873e-11 9.80103e-11 9.79036e-11 9.77518e-11 9.75281e-11
          9.68417e-11 9.62558e-11 9.51257e-11 9.235e-11 8.11332e-11 3.94048e-13
        </DataArray>
        <DataArray type="Float32" Name="X^w_H2O" NumberOfComponents="1" format="ascii">
          0.999853 0.999853 0.999853 0.999853 0.999853 0.999853 0.999853 0.999853 0.999853 0.999853 0.999853 0.999853
          0.999853 0.999853 0.999853 0.999853 0.999853 0.999853 0.999853 0.999853 0.999853 0.999853 0.999853 0.999853
          0.999853 0.999852 0.99985 0.999846 0.999839 0.99984
        </DataArray>
        <DataArray type="Float32" Name="X^w_Air" NumberOfComponents="1" format="ascii">
          0 0 0 0 0 0 0 0 0 0 0 0
          0 0 0 0 0 0 0 0 0 0 0 0
          0 0 0 0 0 0
        </DataArray>
        <DataArray type="Float32" Name="X^w_AuComplex" NumberOfComponents="1" format="ascii">
          1.41989e-16 1.41404e-16 1.41515e-16 1.41515e-16 1.41507e-16 1.41511e-16 1.4152e-16 1.41515e-16 1.41531e-16 1.41437e-16 1.41494e-16 1.41499e-16
          1.41509e-16 1.41506e-16 1.41502e-16 1.41492e-16 1.41486e-16 1.41487e-16 1.41477e-16 1.41467e-16 1.41448e-16 1.41441e-16 1.54189e-16 2.93805e-14
          6.88941e-11 1.07449e-10 1.84492e-10 3.64013e-10 1.83487e-15 1.784e-15
        </DataArray>
        <DataArray type="Float32" Name="X^w_nanoAu" NumberOfComponents="1" format="ascii">
          3.4129e-19 3.3979e-19 3.40075e-19 3.40075e-19 3.40057e-19 3.40069e-19 3.40093e-19 3.40081e-19 3.40122e-19 3.39894e-19 3.40035e-19 3.40048e-19
          3.40075e-19 3.40069e-19 3.40064e-19 3.40043e-19 3.4003e-19 3.40037e-19 3.40021e-19 3.40007e-19 3.40355e-19 3.9622e-19 8.57925e-18 1.2027e-15
          1.6589e-13 2.1079e-13 2.80822e-13 3.96019e-13 1.29632e-18 1.25171e-18
        </DataArray>
        <DataArray type="Float32" Name="X^w_cyanide" NumberOfComponents="1" format="ascii">
          5.07356e-06 5.07353e-06 5.07351e-06 5.07348e-06 5.07346e-06 5.07343e-06 5.07341e-06 5.07338e-06 5.07335e-06 5.07332e-06 5.07329e-06 5.07326e-06
          5.07321e-06 5.07317e-06 5.07311e-06 5.07304e-06 5.07295e-06 5.07284e-06 5.07269e-06 5.07248e-06 5.0722e-06 5.0718e-06 5.07121e-06 5.0703e-06
          5.06934e-06 6.43911e-06 8.57449e-06 1.22381e-05 1.94542e-05 1.92101e-05
        </DataArray>
        <DataArray type="Float32" Name="X^w_citrate" NumberOfComponents="1" format="ascii">
          0.000141796 0.000141796 0.000141796 0.000141796 0.000141796 0.000141796 0.000141796 0.000141796 0.000141796 0.000141796 0.000141796 0.000141796
          0.000141796 0.000141795 0.000141795 0.000141795 0.000141794 0.000141794 0.000141793 0.000141791 0.000141789 0.000141787 0.000141782 0.000141776
          0.000141766 0.000141748 0.000141715 0.000141636 0.000141383 0.000139609
        </DataArray>
        <DataArray type="Float32" Name="X^w_substrate" NumberOfComponents="1" format="ascii">
          9.5834e-12 1.29955e-11 1.76216e-11 2.38938e-11 3.23978e-11 4.3929e-11 5.9567e-11 8.07791e-11 1.09562e-10 1.48637e-10 2.0172e-10 2.73905e-10
          3.72193e-10 5.06268e-10 6.89606e-10 9.41132e-10 1.28772e-09 1.76806e-09 2.43892e-09 3.38542e-09 4.73901e-09 6.71004e-09 9.65104e-09 1.4189e-08
          2.15295e-08 3.42508e-08 5.87627e-08 1.15067e-07 2.95004e-07 1.54621e-06
        </DataArray>
        <DataArray type="Float32" Name="m^w_H2O" NumberOfComponents="1" format="ascii">
          55492.6 55492.6 55492.5 55492.5 55492.5 55492.5 55492.5 55492.5 55492.5 55492.5 55492.5 55492.5
          55492.5 55492.4 55492.4 55492.4 55492.4 55492.4 55492.4 55492.4 55492.4 55492.4 55492.4 55492.4
          55492.3 55492.3 55492.1 55491.9 55491.5 55491.6
        </DataArray>
        <DataArray type="Float32" Name="m^w_Air" NumberOfComponents="1" format="ascii">
          0 0 0 0 0 0 0 0 0 0 0 0
          0 0 0 0 0 0 0 0 0 0 0 0
          0 0 0 0 0 0
        </DataArray>
        <DataArray type="Float32" Name="m^w_AuComplex" NumberOfComponents="1" format="ascii">
          7.20763e-13 7.1779e-13 7.18356e-13 7.18353e-13 7.18313e-13 7.18335e-13 7.1838e-13 7.18353e-13 7.18438e-13 7.17958e-13 7.18247e-13 7.18271e-13
          7.18323e-13 7.18307e-13 7.1829e-13 7.1824e-13 7.18204e-13 7.18209e-13 7.18162e-13 7.1811e-13 7.18015e-13 7.17975e-13 7.8269e-13 1.4914e-10
          3.49718e-07 5.45428e-07 9.36512e-07 1.84779e-06 9.31407e-12 9.05588e-12
        </DataArray>
        <DataArray type="Float32" Name="m^w_nanoAu" NumberOfComponents="1" format="ascii">
          1.73245e-15 1.72483e-15 1.72628e-15 1.72628e-15 1.72619e-15 1.72625e-15 1.72637e-15 1.72631e-15 1.72652e-15 1.72536e-15 1.72607e-15 1.72614e-15
          1.72628e-15 1.72625e-15 1.72622e-15 1.72611e-15 1.72605e-15 1.72609e-15 1.726e-15 1.72593e-15 1.7277e-15 2.01128e-15 4.35497e-14 6.1051e-12
          8.42082e-10 1.07e-09 1.4255e-09 2.01025e-09 6.5803e-15 6.35386e-15
        </DataArray>
        <DataArray type="Float32" Name="m^w_cyanide" NumberOfComponents="1" format="ascii">
          0.194959 0.194958 0.194957 0.194956 0.194955 0.194954 0.194953 0.194952 0.19495 0.194949 0.194948 0.194947
          0.194945 0.194943 0.194941 0.194938 0.194935 0.194931 0.194925 0.194917 0.194906 0.19489 0.194868 0.194833
          0.194796 0.247431 0.329486 0.470266 0.747552 0.738172
        </DataArray>
        <DataArray type="Float32" Name="m^w_citrate" NumberOfComponents="1" format="ascii">
          0.749742 0.749742 0.749742 0.749742 0.749742 0.749741 0.749741 0.749741 0.749741 0.74974 0.74974 0.749739
          0.749738 0.749737 0.749736 0.749734 0.749731 0.749727 0.749722 0.749715 0.749704 0.74969 0.749667 0.749633
          0.749578 0.749488 0.74931 0.748895 0.747555 0.738173
        </DataArray>
        <DataArray type="Float32" Name="m^w_substrate" NumberOfComponents="1" format="ascii">
          5.31861e-08 7.21227e-08 9.77968e-08 1.32606e-07 1.79802e-07 2.43798e-07 3.30586e-07 4.48309e-07 6.08049e-07 8.24906e-07 1.11951e-06 1.52012e-06
          2.0656e-06 2.80969e-06 3.82718e-06 5.2231e-06 7.14657e-06 9.81238e-06 1.35355e-05 1.87884e-05 2.63006e-05 3.72394e-05 5.35613e-05 7.87459e-05
          0.000119485 0.000190085 0.000326121 0.000638597 0.00163721 0.00858114
        </DataArray>
        <DataArray type="Float32" Name="process rank" NumberOfComponents="1" format="ascii">
          0 0 0 0 0 0 0 0 0 0 0 0
          0 0 0 0 0 0 0 0 0 0 0 0
          0 0 0 0 0 0
        </DataArray>
      </CellData>
      <Points>
        <DataArray type="Float32" Name="Coordinates" NumberOfComponents="3" format="ascii">
          0 0 0 0.5 0 0 0 0.0333333 0 0.5 0.0333333 0
          0 0.0666667 0 0.5 0.0666667 0 0 0.1 0 0.5 0.1 0
          0 0.133333 0 0.5 0.133333 0 0 0.166667 0 0.5 0.166667 0
          0 0.2 0 0.5 0.2 0 0 0.233333 0 0.5 0.233333 0
          0 0.266667 0 0.5 0.266667 0 0 0.3 0 0.5 0.3 0
          0 0.333333 0 0.5 0.333333 0 0 0.366667 0 0.5 0.366667 0
          0 0.4 0 0.5 0.4 0 0 0.433333 0 0.5 0.433333 0
          0 0.466667 0 0.5 0.466667 0 0 0.5 0 0.5 0.5 0
          0 0.533333 0 0.5 0.533333 0 0 0.566667 0 0.5 0.566667 0
          0 0.6 0 0.5 0.6 0 0 0.633333 0 0.5 0.633333 0
          0 0.666667 0 0.5 0.666667 0 0 0.7 0 0.5 0.7 0
          0 0.733333 0 0.5 0.733333 0 0 0.766667 0 0.5 0.766667 0
          0 0.8 0 0.5 0.8 0 0 0.833333 0 0.5 0.833333 0
          0 0.866667 0 0.5 0.866667 0 0 0.9 0 0.5 0.9 0
          0 0.933333 0 0.5 0.933333 0 0 0.966667 0 0.5 0.966667 0
          0 1 0 0.5 1 0
        </DataArray>
      </Points>
      <Cells>
        <DataArray type="Int32" Name="connectivity" NumberOfComponents="1" format="ascii">
          0 1 3 2 2 3 5 4 4 5 7 6
          6 7 9 8 8 9 11 10 10 11 13 12
          12 13 15 14 14 15 17 16 16 17 19 18
          18 19 21 20 20 21 23 22 22 23 25 24
          24 25 27 26 26 27 29 28 28 29 31 30
          30 31 33 32 32 33 35 34 34 35 37 36
          36 37 39 38 38 39 41 40 40 41 43 42
          42 43 45 44 44 45 47 46 46 47 49 48
          48 49 51 50 50 51 53 52 52 53 55 54
          54 55 57 56 56 57 59 58 58 59 61 60
        </DataArray>
        <DataArray type="Int32" Name="offsets" NumberOfComponents="1" format="ascii">
          4 8 12 16 20 24 28 32 36 40 44 48
          52 56 60 64 68 72 76 80 84 88 92 96
          100 104 108 112 116 120
        </DataArray>
        <DataArray type="UInt8" Name="types" NumberOfComponents="1" format="ascii">
          9 9 9 9 9 9 9 9 9 9 9 9
          9 9 9 9 9 9 9 9 9 9 9 9
          9 9 9 9 9 9
        </DataArray>
      </Cells>
    </Piece>
  </UnstructuredGrid>
</VTKFile>
