<?xml version="1.0"?>
<VTKFile type="UnstructuredGrid" version="0.1" byte_order="LittleEndian">
  <UnstructuredGrid>
    <Piece NumberOfCells="30" NumberOfPoints="62">
      <CellData Scalars="Sg">
        <DataArray type="Float32" Name="Sg" NumberOfComponents="1" format="ascii">
          0 0 0 0 0 0 0 0 0 0 0 0
          0 0 0 0 0 0 0 0 0 0 0 0
          0 0 0 0 0 0
        </DataArray>
        <DataArray type="Float32" Name="Sl" NumberOfComponents="1" format="ascii">
          1 1 1 1 1 1 1 1 1 1 1 1
          1 1 1 1 1 1 1 1 1 1 1 1
          1 1 1 1 1 1
        </DataArray>
        <DataArray type="Float32" Name="pg" NumberOfComponents="1" format="ascii">
          24687.8 24360.9 24034 23707 23380.1 23053.1 22726.2 22399.3 22072.3 21745.4 21418.4 21091.5
          20764.6 20437.6 20110.7 19783.7 19456.8 19129.8 18802.9 18476 18149 17822.1 17495.1 17168.2
          16841.3 16514.3 16187.4 15860.4 15533.5 15208.8
        </DataArray>
        <DataArray type="Float32" Name="pl" NumberOfComponents="1" format="ascii">
          110628 110301 109974 109647 109320 108993 108666 108339 108012 107685 107358 107031
          106704 106377 106050 105723 105396 105070 104743 104416 104089 103762 103435 103108
          102781 102454 102127 101800 101473 101148
        </DataArray>
        <DataArray type="Float32" Name="pc" NumberOfComponents="1" format="ascii">
          -85939.7 -85939.7 -85939.7 -85939.7 -85939.7 -85939.7 -85939.7 -85939.7 -85939.7 -85939.7 -85939.7 -85939.7
          -85939.7 -85939.7 -85939.7 -85939.7 -85939.7 -85939.7 -85939.7 -85939.7 -85939.7 -85939.7 -85939.7 -85939.7
          -85939.7 -85939.7 -85939.7 -85939.7 -85939.7 -85939.7
        </DataArray>
        <DataArray type="Float32" Name="rhoL" NumberOfComponents="1" format="ascii">
          999.855 999.855 999.855 999.855 999.855 999.854 999.854 999.854 999.854 999.854 999.854 999.854
          999.853 999.853 999.853 999.853 999.853 999.853 999.852 999.852 999.852 999.852 999.852 999.852
          999.852 999.851 999.851 999.851 999.851 999.851
        </DataArray>
        <DataArray type="Float32" Name="rhoG" NumberOfComponents="1" format="ascii">
          0.30585 0.3018 0.29775 0.293699 0.289649 0.285598 0.281548 0.277498 0.273447 0.269397 0.265347 0.261296
          0.257246 0.253195 0.249145 0.245095 0.241044 0.236994 0.232944 0.228893 0.224843 0.220793 0.216742 0.212692
          0.208641 0.204591 0.200541 0.19649 0.19244 0.188417
        </DataArray>
        <DataArray type="Float32" Name="mobL" NumberOfComponents="1" format="ascii">
          722.171 722.17 722.17 722.17 722.17 722.17 722.169 722.169 722.169 722.169 722.169 722.169
          722.168 722.168 722.168 722.168 722.168 722.167 722.167 722.167 722.167 722.167 722.166 722.166
          722.166 722.166 722.166 722.166 722.165 722.165
        </DataArray>
        <DataArray type="Float32" Name="mobG" NumberOfComponents="1" format="ascii">
          0 0 0 0 0 0 0 0 0 0 0 0
          0 0 0 0 0 0 0 0 0 0 0 0
          0 0 0 0 0 0
        </DataArray>
        <DataArray type="Float32" Name="porosity" NumberOfComponents="1" format="ascii">
          0.298721 0.29872 0.29872 0.29872 0.298719 0.298719 0.298718 0.298717 0.298715 0.298713 0.29871 0.298706
          0.298701 0.298693 0.298683 0.29867 0.298652 0.298629 0.298597 0.298553 0.298494 0.298412 0.298295 0.298121
          0.29758 0.297116 0.296208 0.2939 0.283535 0.0499683
        </DataArray>
        <DataArray type="Float32" Name="temperature" NumberOfComponents="1" format="ascii">
          281.15 281.15 281.15 281.15 281.15 281.15 281.15 281.15 281.15 281.15 281.15 281.15
          281.15 281.15 281.15 281.15 281.15 281.15 281.15 281.15 281.15 281.15 281.15 281.15
          281.15 281.15 281.15 281.15 281.15 281.15
        </DataArray>
        <DataArray type="Float32" Name="phase presence" NumberOfComponents="1" format="ascii">
          1 1 1 1 1 1 1 1 1 1 1 1
          1 1 1 1 1 1 1 1 1 1 1 1
          1 1 1 1 1 1
        </DataArray>
        <DataArray type="Float32" Name="precipitateVolumeFraction_au" NumberOfComponents="1" format="ascii">
          5.53809e-10 5.5245e-10 5.52739e-10 5.52742e-10 5.52722e-10 5.52739e-10 5.52772e-10 5.5276e-10 5.52823e-10 5.52498e-10 5.52706e-10 5.52729e-10
          5.52775e-10 5.52773e-10 5.52773e-10 5.5275e-10 5.52741e-10 5.52768e-10 5.52764e-10 5.52765e-10 5.5275e-10 5.5277e-10 5.52863e-10 9.96693e-10
          0.00026994 0.000269924 0.000269899 0.000269853 5.52263e-10 5.51403e-10
        </DataArray>
        <DataArray type="Float32" Name="precipitateVolumeFraction_nanoAu" NumberOfComponents="1" format="ascii">
          1.23952e-13 1.2364e-13 1.23706e-13 1.23706e-13 1.23701e-13 1.23704e-13 1.23711e-13 1.23708e-13 1.23722e-13 1.23649e-13 1.23695e-13 1.23699e-13
          1.23709e-13 1.23707e-13 1.23706e-13 1.237e-13 1.23696e-13 1.23699e-13 1.23695e-13 1.2369e-13 1.2368e-13 1.23683e-13 1.34935e-13 2.57567e-11
          6.03777e-08 7.66998e-08 1.02159e-07 1.45564e-07 4.74054e-13 4.6685e-13
        </DataArray>
        <DataArray type="Float32" Name="precipitateVolumeFraction_d" NumberOfComponents="1" format="ascii">
          0.000639679 0.000639762 0.000639877 0.000640036 0.000640257 0.000640563 0.000640986 0.000641568 0.000642366 0.000643456 0.000644942 0.000646958
          0.000649684 0.000653356 0.000658291 0.000664907 0.000673771 0.000685654 0.000701637 0.000723267 0.000752854 0.000793999 0.000852664 0.000939469
          0.00107524 0.00130679 0.00176081 0.00291488 0.00823271 0.125016
        </DataArray>
        <DataArray type="Float32" Name="precipitateVolumeFraction_p" NumberOfComponents="1" format="ascii">
          0.000639679 0.000639762 0.000639877 0.000640036 0.000640257 0.000640563 0.000640986 0.000641568 0.000642366 0.000643456 0.000644942 0.000646958
          0.000649684 0.000653356 0.000658291 0.000664907 0.000673771 0.000685654 0.000701637 0.000723267 0.000752854 0.000793999 0.000852664 0.000939469
          0.00107524 0.00130679 0.00176081 0.00291488 0.00823271 0.125016
        </DataArray>
        <DataArray type="Float32" Name="K" NumberOfComponents="1" format="ascii">
          9.83662e-11 9.8366e-11 9.83657e-11 9.83653e-11 9.83647e-11 9.8364e-11 9.83629e-11 9.83614e-11 9.83594e-11 9.83566e-11 9.83529e-11 9.83477e-11
          9.83408e-11 9.83315e-11 9.8319e-11 9.83022e-11 9.82798e-11 9.82496e-11 9.82091e-11 9.81543e-11 9.80794e-11 9.79754e-11 9.78271e-11 9.76081e-11
          9.69275e-11 9.63486e-11 9.52217e-11 9.2406e-11 8.05861e-11 2.50865e-13
        </DataArray>
        <DataArray type="Float32" Name="X^w_H2O" NumberOfComponents="1" format="ascii">
          0.999853 0.999853 0.999853 0.999853 0.999853 0.999853 0.999853 0.999853 0.999853 0.999853 0.999853 0.999853
          0.999853 0.999853 0.999853 0.999853 0.999853 0.999853 0.999853 0.999853 0.999853 0.999853 0.999853 0.999853
          0.999853 0.999852 0.99985 0.999846 0.999839 0.99984
        </DataArray>
        <DataArray type="Float32" Name="X^w_Air" NumberOfComponents="1" format="ascii">
          0 0 0 0 0 0 0 0 0 0 0 0
          0 0 0 0 0 0 0 0 0 0 0 0
          0 0 0 0 0 0
        </DataArray>
        <DataArray type="Float32" Name="X^w_AuComplex" NumberOfComponents="1" format="ascii">
          1.41459e-16 1.41104e-16 1.41179e-16 1.41179e-16 1.41173e-16 1.41177e-16 1.41185e-16 1.41181e-16 1.41196e-16 1.41112e-16 1.41164e-16 1.41169e-16
          1.41179e-16 1.41177e-16 1.41174e-16 1.41165e-16 1.41159e-16 1.41161e-16 1.41152e-16 1.41143e-16 1.41125e-16 1.41118e-16 1.53864e-16 2.93707e-14
          6.88636e-11 1.07408e-10 1.84441e-10 3.63988e-10 1.83458e-15 1.78508e-15
        </DataArray>
        <DataArray type="Float32" Name="X^w_nanoAu" NumberOfComponents="1" format="ascii">
          3.39902e-19 3.39053e-19 3.39232e-19 3.39232e-19 3.39219e-19 3.39229e-19 3.39248e-19 3.3924e-19 3.39276e-19 3.39076e-19 3.39202e-19 3.39214e-19
          3.3924e-19 3.39236e-19 3.39231e-19 3.39212e-19 3.39201e-19 3.39208e-19 3.39193e-19 3.39181e-19 3.3953e-19 3.95336e-19 8.57181e-18 1.20207e-15
          1.65845e-13 2.10743e-13 2.80783e-13 3.96026e-13 1.2961e-18 1.25248e-18
        </DataArray>
        <DataArray type="Float32" Name="X^w_cyanide" NumberOfComponents="1" format="ascii">
          5.07207e-06 5.07206e-06 5.07205e-06 5.07204e-06 5.07203e-06 5.07202e-06 5.07201e-06 5.07199e-06 5.07198e-06 5.07196e-06 5.07194e-06 5.07192e-06
          5.07189e-06 5.07186e-06 5.07181e-06 5.07176e-06 5.07168e-06 5.07158e-06 5.07144e-06 5.07125e-06 5.07098e-06 5.07059e-06 5.07002e-06 5.06916e-06
          5.06827e-06 6.43795e-06 8.5734e-06 1.22378e-05 1.94574e-05 1.92195e-05
        </DataArray>
        <DataArray type="Float32" Name="X^w_citrate" NumberOfComponents="1" format="ascii">
          0.000141796 0.000141796 0.000141796 0.000141796 0.000141796 0.000141796 0.000141796 0.000141796 0.000141796 0.000141796 0.000141796 0.000141796
          0.000141795 0.000141795 0.000141795 0.000141795 0.000141794 0.000141793 0.000141792 0.000141791 0.000141789 0.000141786 0.000141782 0.000141776
          0.000141766 0.00014175 0.000141718 0.000141645 0.000141406 0.000139677
        </DataArray>
        <DataArray type="Float32" Name="X^w_substrate" NumberOfComponents="1" format="ascii">
          1.1766e-11 1.58114e-11 2.12466e-11 2.85492e-11 3.83609e-11 5.15451e-11 6.92631e-11 9.30794e-11 1.25104e-10 1.68185e-10 2.26182e-10 3.04332e-10
          4.09777e-10 5.52307e-10 7.45432e-10 1.00796e-09 1.3664e-09 1.8586e-09 2.53966e-09 3.49163e-09 4.84029e-09 6.78565e-09 9.66088e-09 1.40553e-08
          2.10971e-08 3.31905e-08 5.63066e-08 1.09131e-07 2.78539e-07 1.49804e-06
        </DataArray>
        <DataArray type="Float32" Name="m^w_H2O" NumberOfComponents="1" format="ascii">
          55492.6 55492.6 55492.5 55492.5 55492.5 55492.5 55492.5 55492.5 55492.5 55492.5 55492.5 55492.5
          55492.5 55492.4 55492.4 55492.4 55492.4 55492.4 55492.4 55492.4 55492.4 55492.4 55492.4 55492.4
          55492.3 55492.3 55492.1 55491.9 55491.5 55491.6
        </DataArray>
        <DataArray type="Float32" Name="m^w_Air" NumberOfComponents="1" format="ascii">
          0 0 0 0 0 0 0 0 0 0 0 0
          0 0 0 0 0 0 0 0 0 0 0 0
          0 0 0 0 0 0
        </DataArray>
        <DataArray type="Float32" Name="m^w_AuComplex" NumberOfComponents="1" format="ascii">
          7.18073e-13 7.16271e-13 7.16649e-13 7.16649e-13 7.1662e-13 7.16638e-13 7.16678e-13 7.16659e-13 7.16737e-13 7.16309e-13 7.16574e-13 7.16598e-13
          7.16649e-13 7.16638e-13 7.16625e-13 7.16579e-13 7.16548e-13 7.16556e-13 7.16513e-13 7.16464e-13 7.16374e-13 7.16341e-13 7.8104e-13 1.4909e-10
          3.49563e-07 5.45218e-07 9.36254e-07 1.84766e-06 9.31263e-12 9.06133e-12
        </DataArray>
        <DataArray type="Float32" Name="m^w_nanoAu" NumberOfComponents="1" format="ascii">
          1.7254e-15 1.7211e-15 1.722e-15 1.722e-15 1.72194e-15 1.72199e-15 1.72208e-15 1.72204e-15 1.72222e-15 1.72121e-15 1.72185e-15 1.72191e-15
          1.72204e-15 1.72202e-15 1.722e-15 1.7219e-15 1.72184e-15 1.72188e-15 1.7218e-15 1.72174e-15 1.72351e-15 2.00679e-15 4.35119e-14 6.10188e-12
          8.41854e-10 1.06977e-09 1.4253e-09 2.01029e-09 6.57923e-15 6.3578e-15
        </DataArray>
        <DataArray type="Float32" Name="m^w_cyanide" NumberOfComponents="1" format="ascii">
          0.194901 0.194901 0.194901 0.1949 0.1949 0.194899 0.194899 0.194898 0.194898 0.194897 0.194896 0.194895
          0.194894 0.194893 0.194891 0.194889 0.194886 0.194882 0.194877 0.194869 0.194859 0.194844 0.194822 0.194789
          0.194755 0.247386 0.329444 0.470252 0.747676 0.738533
        </DataArray>
        <DataArray type="Float32" Name="m^w_citrate" NumberOfComponents="1" format="ascii">
          0.749742 0.749742 0.749742 0.749742 0.749742 0.749741 0.749741 0.749741 0.74974 0.74974 0.749739 0.749739
          0.749738 0.749737 0.749735 0.749733 0.74973 0.749726 0.749721 0.749714 0.749704 0.749689 0.749667 0.749634
          0.749581 0.749496 0.749328 0.74894 0.747679 0.738534
        </DataArray>
        <DataArray type="Float32" Name="m^w_substrate" NumberOfComponents="1" format="ascii">
          6.52992e-08 8.77504e-08 1.17915e-07 1.58443e-07 2.12896e-07 2.86066e-07 3.84397e-07 5.16573e-07 6.94302e-07 9.33396e-07 1.25527e-06 1.68898e-06
          2.27418e-06 3.0652e-06 4.137e-06 5.59401e-06 7.58325e-06 1.03149e-05 1.40946e-05 1.93778e-05 2.68626e-05 3.7659e-05 5.36159e-05 7.80041e-05
          0.000117085 0.000184201 0.00031249 0.000605654 0.00154583 0.0083138
        </DataArray>
        <DataArray type="Float32" Name="process rank" NumberOfComponents="1" format="ascii">
          0 0 0 0 0 0 0 0 0 0 0 0
          0 0 0 0 0 0 0 0 0 0 0 0
          0 0 0 0 0 0
        </DataArray>
      </CellData>
      <Points>
        <DataArray type="Float32" Name="Coordinates" NumberOfComponents="3" format="ascii">
          0 0 0 0.5 0 0 0 0.0333333 0 0.5 0.0333333 0
          0 0.0666667 0 0.5 0.0666667 0 0 0.1 0 0.5 0.1 0
          0 0.133333 0 0.5 0.133333 0 0 0.166667 0 0.5 0.166667 0
          0 0.2 0 0.5 0.2 0 0 0.233333 0 0.5 0.233333 0
          0 0.266667 0 0.5 0.266667 0 0 0.3 0 0.5 0.3 0
          0 0.333333 0 0.5 0.333333 0 0 0.366667 0 0.5 0.366667 0
          0 0.4 0 0.5 0.4 0 0 0.433333 0 0.5 0.433333 0
          0 0.466667 0 0.5 0.466667 0 0 0.5 0 0.5 0.5 0
          0 0.533333 0 0.5 0.533333 0 0 0.566667 0 0.5 0.566667 0
          0 0.6 0 0.5 0.6 0 0 0.633333 0 0.5 0.633333 0
          0 0.666667 0 0.5 0.666667 0 0 0.7 0 0.5 0.7 0
          0 0.733333 0 0.5 0.733333 0 0 0.766667 0 0.5 0.766667 0
          0 0.8 0 0.5 0.8 0 0 0.833333 0 0.5 0.833333 0
          0 0.866667 0 0.5 0.866667 0 0 0.9 0 0.5 0.9 0
          0 0.933333 0 0.5 0.933333 0 0 0.966667 0 0.5 0.966667 0
          0 1 0 0.5 1 0
        </DataArray>
      </Points>
      <Cells>
        <DataArray type="Int32" Name="connectivity" NumberOfComponents="1" format="ascii">
          0 1 3 2 2 3 5 4 4 5 7 6
          6 7 9 8 8 9 11 10 10 11 13 12
          12 13 15 14 14 15 17 16 16 17 19 18
          18 19 21 20 20 21 23 22 22 23 25 24
          24 25 27 26 26 27 29 28 28 29 31 30
          30 31 33 32 32 33 35 34 34 35 37 36
          36 37 39 38 38 39 41 40 40 41 43 42
          42 43 45 44 44 45 47 46 46 47 49 48
          48 49 51 50 50 51 53 52 52 53 55 54
          54 55 57 56 56 57 59 58 58 59 61 60
        </DataArray>
        <DataArray type="Int32" Name="offsets" NumberOfComponents="1" format="ascii">
          4 8 12 16 20 24 28 32 36 40 44 48
          52 56 60 64 68 72 76 80 84 88 92 96
          100 104 108 112 116 120
        </DataArray>
        <DataArray type="UInt8" Name="types" NumberOfComponents="1" format="ascii">
          9 9 9 9 9 9 9 9 9 9 9 9
          9 9 9 9 9 9 9 9 9 9 9 9
          9 9 9 9 9 9
        </DataArray>
      </Cells>
    </Piece>
  </UnstructuredGrid>
</VTKFile>
