<?xml version="1.0"?>
<VTKFile type="UnstructuredGrid" version="0.1" byte_order="LittleEndian">
  <UnstructuredGrid>
    <Piece NumberOfCells="30" NumberOfPoints="62">
      <CellData Scalars="Sg">
        <DataArray type="Float32" Name="Sg" NumberOfComponents="1" format="ascii">
          0 0 0 0 0 0 0 0 0 0 0 0
          0 0 0 0 0 0 0 0 0 0 0 0
          0 0 0 0 0 0
        </DataArray>
        <DataArray type="Float32" Name="Sl" NumberOfComponents="1" format="ascii">
          1 1 1 1 1 1 1 1 1 1 1 1
          1 1 1 1 1 1 1 1 1 1 1 1
          1 1 1 1 1 1
        </DataArray>
        <DataArray type="Float32" Name="pg" NumberOfComponents="1" format="ascii">
          24687.8 24360.9 24034 23707 23380.1 23053.1 22726.2 22399.3 22072.3 21745.4 21418.4 21091.5
          20764.6 20437.6 20110.7 19783.7 19456.8 19129.9 18802.9 18476 18149 17822.1 17495.1 17168.2
          16841.3 16514.3 16187.4 15860.4 15533.5 15206.8
        </DataArray>
        <DataArray type="Float32" Name="pl" NumberOfComponents="1" format="ascii">
          110628 110301 109974 109647 109320 108993 108666 108339 108012 107685 107358 107031
          106704 106377 106050 105723 105396 105070 104743 104416 104089 103762 103435 103108
          102781 102454 102127 101800 101473 101146
        </DataArray>
        <DataArray type="Float32" Name="pc" NumberOfComponents="1" format="ascii">
          -85939.7 -85939.7 -85939.7 -85939.7 -85939.7 -85939.7 -85939.7 -85939.7 -85939.7 -85939.7 -85939.7 -85939.7
          -85939.7 -85939.7 -85939.7 -85939.7 -85939.7 -85939.7 -85939.7 -85939.7 -85939.7 -85939.7 -85939.7 -85939.7
          -85939.7 -85939.7 -85939.7 -85939.7 -85939.7 -85939.7
        </DataArray>
        <DataArray type="Float32" Name="rhoL" NumberOfComponents="1" format="ascii">
          999.855 999.855 999.855 999.855 999.855 999.854 999.854 999.854 999.854 999.854 999.854 999.854
          999.853 999.853 999.853 999.853 999.853 999.853 999.852 999.852 999.852 999.852 999.852 999.852
          999.852 999.851 999.851 999.851 999.851 999.851
        </DataArray>
        <DataArray type="Float32" Name="rhoG" NumberOfComponents="1" format="ascii">
          0.30585 0.3018 0.29775 0.293699 0.289649 0.285598 0.281548 0.277498 0.273447 0.269397 0.265347 0.261296
          0.257246 0.253195 0.249145 0.245095 0.241044 0.236994 0.232944 0.228893 0.224843 0.220793 0.216742 0.212692
          0.208641 0.204591 0.200541 0.19649 0.19244 0.188392
        </DataArray>
        <DataArray type="Float32" Name="mobL" NumberOfComponents="1" format="ascii">
          722.171 722.17 722.17 722.17 722.17 722.17 722.169 722.169 722.169 722.169 722.169 722.169
          722.168 722.168 722.168 722.168 722.168 722.167 722.167 722.167 722.167 722.167 722.166 722.166
          722.166 722.166 722.166 722.166 722.165 722.165
        </DataArray>
        <DataArray type="Float32" Name="mobG" NumberOfComponents="1" format="ascii">
          0 0 0 0 0 0 0 0 0 0 0 0
          0 0 0 0 0 0 0 0 0 0 0 0
          0 0 0 0 0 0
        </DataArray>
        <DataArray type="Float32" Name="porosity" NumberOfComponents="1" format="ascii">
          0.298584 0.298584 0.298584 0.298583 0.298583 0.298582 0.298581 0.29858 0.298578 0.298576 0.298573 0.298568
          0.298562 0.298554 0.298544 0.298529 0.29851 0.298484 0.298449 0.298403 0.298339 0.298251 0.298126 0.297942
          0.297388 0.296912 0.296006 0.293827 0.2853 0.103491
        </DataArray>
        <DataArray type="Float32" Name="temperature" NumberOfComponents="1" format="ascii">
          281.15 281.15 281.15 281.15 281.15 281.15 281.15 281.15 281.15 281.15 281.15 281.15
          281.15 281.15 281.15 281.15 281.15 281.15 281.15 281.15 281.15 281.15 281.15 281.15
          281.15 281.15 281.15 281.15 281.15 281.15
        </DataArray>
        <DataArray type="Float32" Name="phase presence" NumberOfComponents="1" format="ascii">
          1 1 1 1 1 1 1 1 1 1 1 1
          1 1 1 1 1 1 1 1 1 1 1 1
          1 1 1 1 1 1
        </DataArray>
        <DataArray type="Float32" Name="precipitateVolumeFraction_au" NumberOfComponents="1" format="ascii">
          5.53613e-10 5.52356e-10 5.52628e-10 5.5263e-10 5.52611e-10 5.52627e-10 5.52659e-10 5.52648e-10 5.5271e-10 5.5239e-10 5.52594e-10 5.52618e-10
          5.52663e-10 5.52661e-10 5.52661e-10 5.52638e-10 5.5263e-10 5.52657e-10 5.52652e-10 5.52654e-10 5.52639e-10 5.52658e-10 5.52645e-10 7.53418e-10
          0.00026994 0.000269924 0.000269899 0.000269854 5.52154e-10 5.51303e-10
        </DataArray>
        <DataArray type="Float32" Name="precipitateVolumeFraction_nanoAu" NumberOfComponents="1" format="ascii">
          3.20317e-13 2.17956e-13 2.3488e-13 2.35045e-13 2.3445e-13 2.35116e-13 2.3602e-13 2.35674e-13 2.36726e-13 2.32319e-13 2.34898e-13 2.35221e-13
          2.35625e-13 2.35559e-13 2.35529e-13 2.35384e-13 2.35345e-13 2.35425e-13 2.35392e-13 2.35372e-13 2.35321e-13 2.35337e-13 2.46548e-13 2.59719e-11
          6.04832e-08 7.68147e-08 1.02265e-07 1.45583e-07 5.83861e-13 5.73378e-13
        </DataArray>
        <DataArray type="Float32" Name="precipitateVolumeFraction_d" NumberOfComponents="1" format="ascii">
          0.000707963 0.000708053 0.000708178 0.000708351 0.000708592 0.000708926 0.000709387 0.000710021 0.000710891 0.00071208 0.0007137 0.000715898
          0.000718869 0.00072287 0.000728242 0.000735438 0.000745067 0.000757958 0.000775261 0.000798622 0.000830473 0.000874583 0.000937121 0.00102894
          0.00117094 0.00140896 0.00186221 0.00295134 0.00734992 0.0982546
        </DataArray>
        <DataArray type="Float32" Name="precipitateVolumeFraction_p" NumberOfComponents="1" format="ascii">
          0.000707963 0.000708053 0.000708178 0.000708351 0.000708592 0.000708926 0.000709387 0.000710021 0.000710891 0.00071208 0.0007137 0.000715898
          0.000718869 0.00072287 0.000728242 0.000735438 0.000745067 0.000757958 0.000775261 0.000798622 0.000830473 0.000874583 0.000937121 0.00102894
          0.00117094 0.00140896 0.00186221 0.00295134 0.00734992 0.0982546
        </DataArray>
        <DataArray type="Float32" Name="K" NumberOfComponents="1" format="ascii">
          9.81931e-11 9.81929e-11 9.81926e-11 9.81921e-11 9.81915e-11 9.81907e-11 9.81895e-11 9.81879e-11 9.81857e-11 9.81827e-11 9.81786e-11 9.8173e-11
          9.81655e-11 9.81553e-11 9.81417e-11 9.81235e-11 9.80992e-11 9.80665e-11 9.80227e-11 9.79637e-11 9.78832e-11 9.77718e-11 9.7614e-11 9.73828e-11
          9.66879e-11 9.60941e-11 9.49716e-11 9.23181e-11 8.2507e-11 2.50281e-12
        </DataArray>
        <DataArray type="Float32" Name="X^w_H2O" NumberOfComponents="1" format="ascii">
          0.999853 0.999853 0.999853 0.999853 0.999853 0.999853 0.999853 0.999853 0.999853 0.999853 0.999853 0.999853
          0.999853 0.999853 0.999853 0.999853 0.999853 0.999853 0.999853 0.999853 0.999853 0.999853 0.999853 0.999853
          0.999853 0.999852 0.99985 0.999846 0.999839 0.99984
        </DataArray>
        <DataArray type="Float32" Name="X^w_Air" NumberOfComponents="1" format="ascii">
          2.27801e-29 4.05259e-31 7.08865e-33 1.21839e-34 2.06012e-36 3.42643e-38 0 0 0 0 0 0
          0 0 0 0 0 0 0 0 0 0 0 0
          0 0 0 0 0 0
        </DataArray>
        <DataArray type="Float32" Name="X^w_AuComplex" NumberOfComponents="1" format="ascii">
          3.31011e-16 2.32289e-16 2.48609e-16 2.48765e-16 2.48186e-16 2.48824e-16 2.49692e-16 2.49354e-16 2.50366e-16 2.46101e-16 2.4859e-16 2.48898e-16
          2.49284e-16 2.49215e-16 2.4918e-16 2.49032e-16 2.48987e-16 2.49055e-16 2.49012e-16 2.48977e-16 2.48908e-16 2.48898e-16 2.61606e-16 2.9625e-14
          6.90577e-11 1.0767e-10 1.84761e-10 3.64098e-10 2.23736e-15 2.16445e-15
        </DataArray>
        <DataArray type="Float32" Name="X^w_nanoAu" NumberOfComponents="1" format="ascii">
          8.76628e-19 5.98082e-19 6.44191e-19 6.44631e-19 6.43021e-19 6.44851e-19 6.47308e-19 6.46385e-19 6.49168e-19 6.3721e-19 6.44242e-19 6.4513e-19
          6.46229e-19 6.46047e-19 6.45962e-19 6.45563e-19 6.45456e-19 6.4567e-19 6.45574e-19 6.45513e-19 6.45749e-19 7.01969e-19 8.92066e-18 1.20653e-15
          1.66125e-13 2.11036e-13 2.81018e-13 3.95903e-13 1.59457e-18 1.53195e-18
        </DataArray>
        <DataArray type="Float32" Name="X^w_cyanide" NumberOfComponents="1" format="ascii">
          5.08184e-06 5.08176e-06 5.08167e-06 5.08159e-06 5.0815e-06 5.08141e-06 5.08133e-06 5.08124e-06 5.08115e-06 5.08106e-06 5.08096e-06 5.08086e-06
          5.08076e-06 5.08065e-06 5.08052e-06 5.08038e-06 5.08022e-06 5.08003e-06 5.0798e-06 5.07949e-06 5.07909e-06 5.07853e-06 5.07773e-06 5.07652e-06
          5.07508e-06 6.44524e-06 8.58021e-06 1.224e-05 1.94358e-05 1.914e-05
        </DataArray>
        <DataArray type="Float32" Name="X^w_citrate" NumberOfComponents="1" format="ascii">
          0.000141796 0.000141796 0.000141796 0.000141796 0.000141796 0.000141796 0.000141796 0.000141796 0.000141796 0.000141796 0.000141796 0.000141796
          0.000141796 0.000141795 0.000141795 0.000141795 0.000141794 0.000141793 0.000141792 0.000141791 0.000141788 0.000141785 0.000141779 0.000141771
          0.000141758 0.000141735 0.00014169 0.000141584 0.000141249 0.000139099
        </DataArray>
        <DataArray type="Float32" Name="X^w_substrate" NumberOfComponents="1" format="ascii">
          8.36019e-12 1.15004e-11 1.58198e-11 2.17612e-11 2.99343e-11 4.11783e-11 5.66498e-11 7.79435e-11 1.07261e-10 1.47646e-10 2.03318e-10 2.8014e-10
          3.86293e-10 5.33247e-10 7.37195e-10 1.02119e-09 1.41841e-09 1.97729e-09 2.76975e-09 3.90508e-09 5.55395e-09 7.99266e-09 1.1689e-08 1.74825e-08
          2.69996e-08 4.3734e-08 7.63707e-08 1.51751e-07 3.89276e-07 1.90546e-06
        </DataArray>
        <DataArray type="Float32" Name="m^w_H2O" NumberOfComponents="1" format="ascii">
          55492.6 55492.5 55492.5 55492.5 55492.5 55492.5 55492.5 55492.5 55492.5 55492.5 55492.5 55492.5
          55492.5 55492.4 55492.4 55492.4 55492.4 55492.4 55492.4 55492.4 55492.4 55492.4 55492.4 55492.4
          55492.3 55492.3 55492.1 55491.9 55491.5 55491.6
        </DataArray>
        <DataArray type="Float32" Name="m^w_Air" NumberOfComponents="1" format="ascii">
          7.86493e-25 1.39917e-26 2.44738e-28 4.20653e-30 7.11262e-32 1.18299e-33 1.9336e-35 3.10647e-37 0 0 0 0
          0 0 0 0 0 0 0 0 0 0 0 0
          0 0 0 0 0 0
        </DataArray>
        <DataArray type="Float32" Name="m^w_AuComplex" NumberOfComponents="1" format="ascii">
          1.68027e-12 1.17914e-12 1.26199e-12 1.26277e-12 1.25983e-12 1.26307e-12 1.26748e-12 1.26577e-12 1.2709e-12 1.24925e-12 1.26189e-12 1.26345e-12
          1.26541e-12 1.26506e-12 1.26488e-12 1.26413e-12 1.2639e-12 1.26425e-12 1.26403e-12 1.26385e-12 1.2635e-12 1.26345e-12 1.32795e-12 1.50381e-10
          3.50548e-07 5.46549e-07 9.37878e-07 1.84822e-06 1.13572e-11 1.09871e-11
        </DataArray>
        <DataArray type="Float32" Name="m^w_nanoAu" NumberOfComponents="1" format="ascii">
          4.44992e-15 3.03597e-15 3.27003e-15 3.27226e-15 3.26409e-15 3.27338e-15 3.28585e-15 3.28116e-15 3.29529e-15 3.23459e-15 3.27028e-15 3.27479e-15
          3.28037e-15 3.27945e-15 3.27901e-15 3.27699e-15 3.27644e-15 3.27753e-15 3.27704e-15 3.27673e-15 3.27793e-15 3.56331e-15 4.52827e-14 6.12456e-12
          8.43276e-10 1.07125e-09 1.42649e-09 2.00967e-09 8.0943e-15 7.7764e-15
        </DataArray>
        <DataArray type="Float32" Name="m^w_cyanide" NumberOfComponents="1" format="ascii">
          0.195277 0.195274 0.19527 0.195267 0.195264 0.19526 0.195257 0.195254 0.19525 0.195246 0.195243 0.195239
          0.195235 0.195231 0.195226 0.19522 0.195214 0.195207 0.195198 0.195186 0.195171 0.195149 0.195118 0.195072
          0.195016 0.247666 0.329705 0.470338 0.746845 0.735477
        </DataArray>
        <DataArray type="Float32" Name="m^w_citrate" NumberOfComponents="1" format="ascii">
          0.749742 0.749742 0.749742 0.749742 0.749742 0.749741 0.749741 0.749741 0.749741 0.74974 0.74974 0.749739
          0.749738 0.749737 0.749735 0.749733 0.74973 0.749726 0.74972 0.749711 0.749698 0.74968 0.749652 0.749609
          0.749537 0.749417 0.749178 0.74862 0.746848 0.735479
        </DataArray>
        <DataArray type="Float32" Name="m^w_substrate" NumberOfComponents="1" format="ascii">
          4.63975e-08 6.38252e-08 8.77969e-08 1.20771e-07 1.6613e-07 2.28532e-07 3.14396e-07 4.32572e-07 5.95277e-07 8.19408e-07 1.12838e-06 1.55473e-06
          2.14385e-06 2.95942e-06 4.09129e-06 5.66741e-06 7.8719e-06 1.09735e-05 1.53716e-05 2.16724e-05 3.08233e-05 4.43577e-05 6.48715e-05 9.70243e-05
          0.000149842 0.000242715 0.000423842 0.000842189 0.0021604 0.0105749
        </DataArray>
        <DataArray type="Float32" Name="process rank" NumberOfComponents="1" format="ascii">
          0 0 0 0 0 0 0 0 0 0 0 0
          0 0 0 0 0 0 0 0 0 0 0 0
          0 0 0 0 0 0
        </DataArray>
      </CellData>
      <Points>
        <DataArray type="Float32" Name="Coordinates" NumberOfComponents="3" format="ascii">
          0 0 0 0.5 0 0 0 0.0333333 0 0.5 0.0333333 0
          0 0.0666667 0 0.5 0.0666667 0 0 0.1 0 0.5 0.1 0
          0 0.133333 0 0.5 0.133333 0 0 0.166667 0 0.5 0.166667 0
          0 0.2 0 0.5 0.2 0 0 0.233333 0 0.5 0.233333 0
          0 0.266667 0 0.5 0.266667 0 0 0.3 0 0.5 0.3 0
          0 0.333333 0 0.5 0.333333 0 0 0.366667 0 0.5 0.366667 0
          0 0.4 0 0.5 0.4 0 0 0.433333 0 0.5 0.433333 0
          0 0.466667 0 0.5 0.466667 0 0 0.5 0 0.5 0.5 0
          0 0.533333 0 0.5 0.533333 0 0 0.566667 0 0.5 0.566667 0
          0 0.6 0 0.5 0.6 0 0 0.633333 0 0.5 0.633333 0
          0 0.666667 0 0.5 0.666667 0 0 0.7 0 0.5 0.7 0
          0 0.733333 0 0.5 0.733333 0 0 0.766667 0 0.5 0.766667 0
          0 0.8 0 0.5 0.8 0 0 0.833333 0 0.5 0.833333 0
          0 0.866667 0 0.5 0.866667 0 0 0.9 0 0.5 0.9 0
          0 0.933333 0 0.5 0.933333 0 0 0.966667 0 0.5 0.966667 0
          0 1 0 0.5 1 0
        </DataArray>
      </Points>
      <Cells>
        <DataArray type="Int32" Name="connectivity" NumberOfComponents="1" format="ascii">
          0 1 3 2 2 3 5 4 4 5 7 6
          6 7 9 8 8 9 11 10 10 11 13 12
          12 13 15 14 14 15 17 16 16 17 19 18
          18 19 21 20 20 21 23 22 22 23 25 24
          24 25 27 26 26 27 29 28 28 29 31 30
          30 31 33 32 32 33 35 34 34 35 37 36
          36 37 39 38 38 39 41 40 40 41 43 42
          42 43 45 44 44 45 47 46 46 47 49 48
          48 49 51 50 50 51 53 52 52 53 55 54
          54 55 57 56 56 57 59 58 58 59 61 60
        </DataArray>
        <DataArray type="Int32" Name="offsets" NumberOfComponents="1" format="ascii">
          4 8 12 16 20 24 28 32 36 40 44 48
          52 56 60 64 68 72 76 80 84 88 92 96
          100 104 108 112 116 120
        </DataArray>
        <DataArray type="UInt8" Name="types" NumberOfComponents="1" format="ascii">
          9 9 9 9 9 9 9 9 9 9 9 9
          9 9 9 9 9 9 9 9 9 9 9 9
          9 9 9 9 9 9
        </DataArray>
      </Cells>
    </Piece>
  </UnstructuredGrid>
</VTKFile>
