<?xml version="1.0"?>
<VTKFile type="UnstructuredGrid" version="0.1" byte_order="LittleEndian">
  <UnstructuredGrid>
    <Piece NumberOfCells="30" NumberOfPoints="62">
      <CellData Scalars="Sg">
        <DataArray type="Float32" Name="Sg" NumberOfComponents="1" format="ascii">
          0 0 0 0 0 0 0 0 0 0 0 0
          0 0 0 0 0 0 0 0 0 0 0 0
          0 0 0 0 0 0
        </DataArray>
        <DataArray type="Float32" Name="Sl" NumberOfComponents="1" format="ascii">
          1 1 1 1 1 1 1 1 1 1 1 1
          1 1 1 1 1 1 1 1 1 1 1 1
          1 1 1 1 1 1
        </DataArray>
        <DataArray type="Float32" Name="pg" NumberOfComponents="1" format="ascii">
          24687.8 24360.9 24034 23707 23380.1 23053.1 22726.2 22399.3 22072.3 21745.4 21418.4 21091.5
          20764.6 20437.6 20110.7 19783.7 19456.8 19129.8 18802.9 18476 18149 17822.1 17495.1 17168.2
          16841.3 16514.3 16187.4 15860.4 15533.5 15209.6
        </DataArray>
        <DataArray type="Float32" Name="pl" NumberOfComponents="1" format="ascii">
          110628 110301 109974 109647 109320 108993 108666 108339 108012 107685 107358 107031
          106704 106377 106050 105723 105396 105070 104743 104416 104089 103762 103435 103108
          102781 102454 102127 101800 101473 101149
        </DataArray>
        <DataArray type="Float32" Name="pc" NumberOfComponents="1" format="ascii">
          -85939.7 -85939.7 -85939.7 -85939.7 -85939.7 -85939.7 -85939.7 -85939.7 -85939.7 -85939.7 -85939.7 -85939.7
          -85939.7 -85939.7 -85939.7 -85939.7 -85939.7 -85939.7 -85939.7 -85939.7 -85939.7 -85939.7 -85939.7 -85939.7
          -85939.7 -85939.7 -85939.7 -85939.7 -85939.7 -85939.7
        </DataArray>
        <DataArray type="Float32" Name="rhoL" NumberOfComponents="1" format="ascii">
          999.855 999.855 999.855 999.855 999.855 999.854 999.854 999.854 999.854 999.854 999.854 999.854
          999.853 999.853 999.853 999.853 999.853 999.853 999.852 999.852 999.852 999.852 999.852 999.852
          999.852 999.851 999.851 999.851 999.851 999.851
        </DataArray>
        <DataArray type="Float32" Name="rhoG" NumberOfComponents="1" format="ascii">
          0.30585 0.3018 0.29775 0.293699 0.289649 0.285598 0.281548 0.277498 0.273447 0.269397 0.265347 0.261296
          0.257246 0.253195 0.249145 0.245095 0.241044 0.236994 0.232944 0.228893 0.224843 0.220793 0.216742 0.212692
          0.208641 0.204591 0.200541 0.19649 0.19244 0.188428
        </DataArray>
        <DataArray type="Float32" Name="mobL" NumberOfComponents="1" format="ascii">
          722.171 722.17 722.17 722.17 722.17 722.17 722.169 722.169 722.169 722.169 722.169 722.169
          722.168 722.168 722.168 722.168 722.168 722.167 722.167 722.167 722.167 722.167 722.166 722.166
          722.166 722.166 722.166 722.166 722.165 722.165
        </DataArray>
        <DataArray type="Float32" Name="mobG" NumberOfComponents="1" format="ascii">
          0 0 0 0 0 0 0 0 0 0 0 0
          0 0 0 0 0 0 0 0 0 0 0 0
          0 0 0 0 0 0
        </DataArray>
        <DataArray type="Float32" Name="porosity" NumberOfComponents="1" format="ascii">
          0.298875 0.298874 0.298874 0.298874 0.298874 0.298873 0.298872 0.298871 0.29887 0.298868 0.298865 0.298861
          0.298856 0.29885 0.298841 0.298829 0.298813 0.298791 0.298762 0.298723 0.298669 0.298594 0.298486 0.298325
          0.297801 0.29736 0.296473 0.2941 0.282171 0.0447967
        </DataArray>
        <DataArray type="Float32" Name="temperature" NumberOfComponents="1" format="ascii">
          281.15 281.15 281.15 281.15 281.15 281.15 281.15 281.15 281.15 281.15 281.15 281.15
          281.15 281.15 281.15 281.15 281.15 281.15 281.15 281.15 281.15 281.15 281.15 281.15
          281.15 281.15 281.15 281.15 281.15 281.15
        </DataArray>
        <DataArray type="Float32" Name="phase presence" NumberOfComponents="1" format="ascii">
          1 1 1 1 1 1 1 1 1 1 1 1
          1 1 1 1 1 1 1 1 1 1 1 1
          1 1 1 1 1 1
        </DataArray>
        <DataArray type="Float32" Name="precipitateVolumeFraction_au" NumberOfComponents="1" format="ascii">
          5.53809e-10 5.5245e-10 5.52739e-10 5.52742e-10 5.52722e-10 5.52739e-10 5.52772e-10 5.5276e-10 5.52823e-10 5.52498e-10 5.52706e-10 5.5273e-10
          5.52775e-10 5.52773e-10 5.52773e-10 5.5275e-10 5.52741e-10 5.52769e-10 5.52764e-10 5.52765e-10 5.5275e-10 5.5277e-10 5.53e-10 1.30539e-09
          0.000269941 0.000269925 0.0002699 0.000269851 5.52263e-10 5.51395e-10
        </DataArray>
        <DataArray type="Float32" Name="precipitateVolumeFraction_nanoAu" NumberOfComponents="1" format="ascii">
          1.23905e-13 1.23601e-13 1.23666e-13 1.23666e-13 1.23662e-13 1.23665e-13 1.23673e-13 1.2367e-13 1.23684e-13 1.23611e-13 1.23657e-13 1.23662e-13
          1.23671e-13 1.2367e-13 1.23669e-13 1.23662e-13 1.23658e-13 1.23662e-13 1.23657e-13 1.23652e-13 1.23642e-13 1.23644e-13 1.34941e-13 2.58071e-11
          6.0364e-08 7.66847e-08 1.02145e-07 1.45562e-07 4.74168e-13 4.6703e-13
        </DataArray>
        <DataArray type="Float32" Name="precipitateVolumeFraction_d" NumberOfComponents="1" format="ascii">
          0.000562714 0.00056279 0.000562896 0.000563041 0.000563243 0.000563522 0.000563906 0.000564434 0.000565158 0.000566145 0.00056749 0.000569312
          0.000571775 0.000575094 0.000579553 0.000585534 0.000593552 0.000604315 0.000618811 0.000638472 0.000665442 0.000703093 0.000757058 0.000837491
          0.000964631 0.00118496 0.00162868 0.00281476 0.00891471 0.127602
        </DataArray>
        <DataArray type="Float32" Name="precipitateVolumeFraction_p" NumberOfComponents="1" format="ascii">
          0.000562714 0.00056279 0.000562896 0.000563041 0.000563243 0.000563522 0.000563906 0.000564434 0.000565158 0.000566145 0.00056749 0.000569312
          0.000571775 0.000575094 0.000579553 0.000585534 0.000593552 0.000604315 0.000618811 0.000638472 0.000665442 0.000703093 0.000757058 0.000837491
          0.000964631 0.00118496 0.00162868 0.00281476 0.00891471 0.127602
        </DataArray>
        <DataArray type="Float32" Name="K" NumberOfComponents="1" format="ascii">
          9.85616e-11 9.85614e-11 9.85611e-11 9.85608e-11 9.85603e-11 9.85596e-11 9.85586e-11 9.85572e-11 9.85554e-11 9.85529e-11 9.85495e-11 9.85448e-11
          9.85386e-11 9.85302e-11 9.85188e-11 9.85036e-11 9.84833e-11 9.8456e-11 9.84192e-11 9.83693e-11 9.83009e-11 9.82054e-11 9.80688e-11 9.78654e-11
          9.72051e-11 9.66528e-11 9.55486e-11 9.26475e-11 7.91271e-11 1.78805e-13
        </DataArray>
        <DataArray type="Float32" Name="X^w_H2O" NumberOfComponents="1" format="ascii">
          0.999853 0.999853 0.999853 0.999853 0.999853 0.999853 0.999853 0.999853 0.999853 0.999853 0.999853 0.999853
          0.999853 0.999853 0.999853 0.999853 0.999853 0.999853 0.999853 0.999853 0.999853 0.999853 0.999853 0.999853
          0.999853 0.999852 0.99985 0.999846 0.999839 0.99984
        </DataArray>
        <DataArray type="Float32" Name="X^w_Air" NumberOfComponents="1" format="ascii">
          0 0 0 0 0 0 0 0 0 0 0 0
          0 0 0 0 0 0 0 0 0 0 0 0
          0 0 0 0 0 0
        </DataArray>
        <DataArray type="Float32" Name="X^w_AuComplex" NumberOfComponents="1" format="ascii">
          1.41387e-16 1.41041e-16 1.41114e-16 1.41115e-16 1.4111e-16 1.41114e-16 1.41122e-16 1.41119e-16 1.41135e-16 1.41051e-16 1.41103e-16 1.41109e-16
          1.41119e-16 1.41117e-16 1.41114e-16 1.41105e-16 1.41098e-16 1.411e-16 1.4109e-16 1.4108e-16 1.41062e-16 1.41054e-16 1.53849e-16 2.94241e-14
          6.8838e-11 1.07372e-10 1.844e-10 3.63984e-10 1.83543e-15 1.78627e-15
        </DataArray>
        <DataArray type="Float32" Name="X^w_nanoAu" NumberOfComponents="1" format="ascii">
          3.39773e-19 3.38947e-19 3.39123e-19 3.39124e-19 3.39112e-19 3.39122e-19 3.39141e-19 3.39134e-19 3.3917e-19 3.38973e-19 3.39098e-19 3.39111e-19
          3.39136e-19 3.39132e-19 3.39128e-19 3.39108e-19 3.39096e-19 3.39103e-19 3.39087e-19 3.39073e-19 3.39421e-19 3.95189e-19 8.56785e-18 1.20172e-15
          1.65805e-13 2.10701e-13 2.80751e-13 3.96048e-13 1.29672e-18 1.25335e-18
        </DataArray>
        <DataArray type="Float32" Name="X^w_cyanide" NumberOfComponents="1" format="ascii">
          5.07111e-06 5.07111e-06 5.07111e-06 5.07111e-06 5.07111e-06 5.07111e-06 5.0711e-06 5.0711e-06 5.07109e-06 5.07108e-06 5.07107e-06 5.07105e-06
          5.07102e-06 5.07099e-06 5.07094e-06 5.07087e-06 5.07079e-06 5.07068e-06 5.07052e-06 5.07031e-06 5.07003e-06 5.06962e-06 5.06905e-06 5.06819e-06
          5.06735e-06 6.43693e-06 8.57248e-06 1.22378e-05 1.94619e-05 1.92254e-05
        </DataArray>
        <DataArray type="Float32" Name="X^w_citrate" NumberOfComponents="1" format="ascii">
          0.000141796 0.000141796 0.000141796 0.000141796 0.000141796 0.000141796 0.000141796 0.000141796 0.000141796 0.000141796 0.000141796 0.000141795
          0.000141795 0.000141795 0.000141795 0.000141794 0.000141793 0.000141793 0.000141791 0.00014179 0.000141788 0.000141785 0.000141781 0.000141774
          0.000141765 0.000141749 0.000141721 0.000141655 0.000141439 0.00013972
        </DataArray>
        <DataArray type="Float32" Name="X^w_substrate" NumberOfComponents="1" format="ascii">
          2.65387e-11 3.45784e-11 4.50516e-11 5.86949e-11 7.64684e-11 9.96243e-11 1.29797e-10 1.6912e-10 2.20388e-10 2.8726e-10 3.74543e-10 4.88578e-10
          6.37757e-10 8.33256e-10 1.09007e-09 1.42852e-09 1.87646e-09 2.47268e-09 3.27228e-09 4.35539e-09 5.84219e-09 7.91991e-09 1.08947e-08 1.52989e-08
          2.21379e-08 3.35315e-08 5.47221e-08 1.02235e-07 2.55558e-07 1.46771e-06
        </DataArray>
        <DataArray type="Float32" Name="m^w_H2O" NumberOfComponents="1" format="ascii">
          55492.6 55492.6 55492.5 55492.5 55492.5 55492.5 55492.5 55492.5 55492.5 55492.5 55492.5 55492.5
          55492.5 55492.4 55492.4 55492.4 55492.4 55492.4 55492.4 55492.4 55492.4 55492.4 55492.4 55492.4
          55492.3 55492.3 55492.1 55491.9 55491.5 55491.6
        </DataArray>
        <DataArray type="Float32" Name="m^w_Air" NumberOfComponents="1" format="ascii">
          0 0 0 0 0 0 0 0 0 0 0 0
          0 0 0 0 0 0 0 0 0 0 0 0
          0 0 0 0 0 0
        </DataArray>
        <DataArray type="Float32" Name="m^w_AuComplex" NumberOfComponents="1" format="ascii">
          7.17707e-13 7.15947e-13 7.16322e-13 7.16325e-13 7.16299e-13 7.1632e-13 7.16361e-13 7.16345e-13 7.16424e-13 7.16001e-13 7.16266e-13 7.16291e-13
          7.16343e-13 7.16332e-13 7.16319e-13 7.16272e-13 7.16239e-13 7.16245e-13 7.16199e-13 7.16147e-13 7.16053e-13 7.16016e-13 7.80963e-13 1.49362e-10
          3.49433e-07 5.45039e-07 9.36043e-07 1.84764e-06 9.31691e-12 9.0674e-12
        </DataArray>
        <DataArray type="Float32" Name="m^w_nanoAu" NumberOfComponents="1" format="ascii">
          1.72475e-15 1.72055e-15 1.72145e-15 1.72145e-15 1.72139e-15 1.72144e-15 1.72154e-15 1.7215e-15 1.72169e-15 1.72068e-15 1.72132e-15 1.72138e-15
          1.72151e-15 1.72149e-15 1.72147e-15 1.72137e-15 1.72131e-15 1.72134e-15 1.72126e-15 1.72119e-15 1.72296e-15 2.00605e-15 4.34918e-14 6.1001e-12
          8.41654e-10 1.06955e-09 1.42514e-09 2.0104e-09 6.58235e-15 6.36222e-15
        </DataArray>
        <DataArray type="Float32" Name="m^w_cyanide" NumberOfComponents="1" format="ascii">
          0.194864 0.194864 0.194864 0.194864 0.194864 0.194864 0.194864 0.194864 0.194864 0.194863 0.194863 0.194862
          0.194861 0.194859 0.194858 0.194855 0.194852 0.194847 0.194841 0.194833 0.194822 0.194807 0.194785 0.194752
          0.194719 0.247347 0.329408 0.470252 0.747848 0.73876
        </DataArray>
        <DataArray type="Float32" Name="m^w_citrate" NumberOfComponents="1" format="ascii">
          0.749742 0.749742 0.749742 0.749742 0.749741 0.749741 0.749741 0.74974 0.74974 0.749739 0.749738 0.749737
          0.749736 0.749735 0.749733 0.74973 0.749726 0.749722 0.749716 0.749707 0.749696 0.74968 0.749658 0.749625
          0.749574 0.749493 0.74934 0.748991 0.747851 0.738761
        </DataArray>
        <DataArray type="Float32" Name="m^w_substrate" NumberOfComponents="1" format="ascii">
          1.47285e-07 1.91904e-07 2.50028e-07 3.25746e-07 4.24385e-07 5.52896e-07 7.20347e-07 9.38587e-07 1.22311e-06 1.59424e-06 2.07864e-06 2.71151e-06
          3.53943e-06 4.62441e-06 6.04969e-06 7.92802e-06 1.0414e-05 1.37229e-05 1.81605e-05 2.41715e-05 3.2423e-05 4.39539e-05 6.04631e-05 8.49059e-05
          0.000122861 0.000186093 0.000303697 0.000567381 0.00141829 0.00814551
        </DataArray>
        <DataArray type="Float32" Name="process rank" NumberOfComponents="1" format="ascii">
          0 0 0 0 0 0 0 0 0 0 0 0
          0 0 0 0 0 0 0 0 0 0 0 0
          0 0 0 0 0 0
        </DataArray>
      </CellData>
      <Points>
        <DataArray type="Float32" Name="Coordinates" NumberOfComponents="3" format="ascii">
          0 0 0 0.5 0 0 0 0.0333333 0 0.5 0.0333333 0
          0 0.0666667 0 0.5 0.0666667 0 0 0.1 0 0.5 0.1 0
          0 0.133333 0 0.5 0.133333 0 0 0.166667 0 0.5 0.166667 0
          0 0.2 0 0.5 0.2 0 0 0.233333 0 0.5 0.233333 0
          0 0.266667 0 0.5 0.266667 0 0 0.3 0 0.5 0.3 0
          0 0.333333 0 0.5 0.333333 0 0 0.366667 0 0.5 0.366667 0
          0 0.4 0 0.5 0.4 0 0 0.433333 0 0.5 0.433333 0
          0 0.466667 0 0.5 0.466667 0 0 0.5 0 0.5 0.5 0
          0 0.533333 0 0.5 0.533333 0 0 0.566667 0 0.5 0.566667 0
          0 0.6 0 0.5 0.6 0 0 0.633333 0 0.5 0.633333 0
          0 0.666667 0 0.5 0.666667 0 0 0.7 0 0.5 0.7 0
          0 0.733333 0 0.5 0.733333 0 0 0.766667 0 0.5 0.766667 0
          0 0.8 0 0.5 0.8 0 0 0.833333 0 0.5 0.833333 0
          0 0.866667 0 0.5 0.866667 0 0 0.9 0 0.5 0.9 0
          0 0.933333 0 0.5 0.933333 0 0 0.966667 0 0.5 0.966667 0
          0 1 0 0.5 1 0
        </DataArray>
      </Points>
      <Cells>
        <DataArray type="Int32" Name="connectivity" NumberOfComponents="1" format="ascii">
          0 1 3 2 2 3 5 4 4 5 7 6
          6 7 9 8 8 9 11 10 10 11 13 12
          12 13 15 14 14 15 17 16 16 17 19 18
          18 19 21 20 20 21 23 22 22 23 25 24
          24 25 27 26 26 27 29 28 28 29 31 30
          30 31 33 32 32 33 35 34 34 35 37 36
          36 37 39 38 38 39 41 40 40 41 43 42
          42 43 45 44 44 45 47 46 46 47 49 48
          48 49 51 50 50 51 53 52 52 53 55 54
          54 55 57 56 56 57 59 58 58 59 61 60
        </DataArray>
        <DataArray type="Int32" Name="offsets" NumberOfComponents="1" format="ascii">
          4 8 12 16 20 24 28 32 36 40 44 48
          52 56 60 64 68 72 76 80 84 88 92 96
          100 104 108 112 116 120
        </DataArray>
        <DataArray type="UInt8" Name="types" NumberOfComponents="1" format="ascii">
          9 9 9 9 9 9 9 9 9 9 9 9
          9 9 9 9 9 9 9 9 9 9 9 9
          9 9 9 9 9 9
        </DataArray>
      </Cells>
    </Piece>
  </UnstructuredGrid>
</VTKFile>
