<?xml version="1.0"?>
<VTKFile type="UnstructuredGrid" version="0.1" byte_order="LittleEndian">
  <UnstructuredGrid>
    <Piece NumberOfCells="30" NumberOfPoints="62">
      <CellData Scalars="Sg">
        <DataArray type="Float32" Name="Sg" NumberOfComponents="1" format="ascii">
          0 0 0 0 0 0 0 0 0 0 0 0
          0 0 0 0 0 0 0 0 0 0 0 0
          0 0 0 0 0 0
        </DataArray>
        <DataArray type="Float32" Name="Sl" NumberOfComponents="1" format="ascii">
          1 1 1 1 1 1 1 1 1 1 1 1
          1 1 1 1 1 1 1 1 1 1 1 1
          1 1 1 1 1 1
        </DataArray>
        <DataArray type="Float32" Name="pg" NumberOfComponents="1" format="ascii">
          24687.8 24360.9 24034 23707 23380.1 23053.1 22726.2 22399.3 22072.3 21745.4 21418.4 21091.5
          20764.6 20437.6 20110.7 19783.7 19456.8 19129.9 18802.9 18476 18149 17822.1 17495.1 17168.2
          16841.3 16514.3 16187.4 15860.4 15533.5 15206.7
        </DataArray>
        <DataArray type="Float32" Name="pl" NumberOfComponents="1" format="ascii">
          110628 110301 109974 109647 109320 108993 108666 108339 108012 107685 107358 107031
          106704 106377 106050 105723 105396 105070 104743 104416 104089 103762 103435 103108
          102781 102454 102127 101800 101473 101146
        </DataArray>
        <DataArray type="Float32" Name="pc" NumberOfComponents="1" format="ascii">
          -85939.7 -85939.7 -85939.7 -85939.7 -85939.7 -85939.7 -85939.7 -85939.7 -85939.7 -85939.7 -85939.7 -85939.7
          -85939.7 -85939.7 -85939.7 -85939.7 -85939.7 -85939.7 -85939.7 -85939.7 -85939.7 -85939.7 -85939.7 -85939.7
          -85939.7 -85939.7 -85939.7 -85939.7 -85939.7 -85939.7
        </DataArray>
        <DataArray type="Float32" Name="rhoL" NumberOfComponents="1" format="ascii">
          999.855 999.855 999.855 999.855 999.855 999.854 999.854 999.854 999.854 999.854 999.854 999.854
          999.853 999.853 999.853 999.853 999.853 999.853 999.852 999.852 999.852 999.852 999.852 999.852
          999.852 999.851 999.851 999.851 999.851 999.851
        </DataArray>
        <DataArray type="Float32" Name="rhoG" NumberOfComponents="1" format="ascii">
          0.30585 0.3018 0.29775 0.293699 0.289649 0.285598 0.281548 0.277498 0.273447 0.269397 0.265347 0.261296
          0.257246 0.253195 0.249145 0.245095 0.241044 0.236994 0.232944 0.228893 0.224843 0.220793 0.216742 0.212692
          0.208641 0.204591 0.200541 0.19649 0.19244 0.188391
        </DataArray>
        <DataArray type="Float32" Name="mobL" NumberOfComponents="1" format="ascii">
          722.171 722.17 722.17 722.17 722.17 722.17 722.169 722.169 722.169 722.169 722.169 722.169
          722.168 722.168 722.168 722.168 722.168 722.167 722.167 722.167 722.167 722.167 722.166 722.166
          722.166 722.166 722.166 722.166 722.165 722.165
        </DataArray>
        <DataArray type="Float32" Name="mobG" NumberOfComponents="1" format="ascii">
          0 0 0 0 0 0 0 0 0 0 0 0
          0 0 0 0 0 0 0 0 0 0 0 0
          0 0 0 0 0 0
        </DataArray>
        <DataArray type="Float32" Name="porosity" NumberOfComponents="1" format="ascii">
          0.298571 0.298571 0.29857 0.29857 0.29857 0.298569 0.298568 0.298567 0.298565 0.298563 0.298559 0.298555
          0.298549 0.298541 0.29853 0.298516 0.298496 0.29847 0.298435 0.298388 0.298324 0.298236 0.29811 0.297926
          0.297371 0.296895 0.295992 0.293838 0.285566 0.116437
        </DataArray>
        <DataArray type="Float32" Name="temperature" NumberOfComponents="1" format="ascii">
          281.15 281.15 281.15 281.15 281.15 281.15 281.15 281.15 281.15 281.15 281.15 281.15
          281.15 281.15 281.15 281.15 281.15 281.15 281.15 281.15 281.15 281.15 281.15 281.15
          281.15 281.15 281.15 281.15 281.15 281.15
        </DataArray>
        <DataArray type="Float32" Name="phase presence" NumberOfComponents="1" format="ascii">
          1 1 1 1 1 1 1 1 1 1 1 1
          1 1 1 1 1 1 1 1 1 1 1 1
          1 1 1 1 1 1
        </DataArray>
        <DataArray type="Float32" Name="precipitateVolumeFraction_au" NumberOfComponents="1" format="ascii">
          5.53345e-10 5.52228e-10 5.52477e-10 5.52479e-10 5.52461e-10 5.52476e-10 5.52506e-10 5.52496e-10 5.52556e-10 5.52242e-10 5.52443e-10 5.52466e-10
          5.5251e-10 5.52509e-10 5.52509e-10 5.52486e-10 5.52478e-10 5.52505e-10 5.525e-10 5.52502e-10 5.52487e-10 5.52506e-10 5.52483e-10 7.31049e-10
          0.00026994 0.000269924 0.000269899 0.000269854 5.52003e-10 5.51155e-10
        </DataArray>
        <DataArray type="Float32" Name="precipitateVolumeFraction_nanoAu" NumberOfComponents="1" format="ascii">
          5.87967e-13 3.46289e-13 3.86229e-13 3.86623e-13 3.85223e-13 3.86794e-13 3.88925e-13 3.88113e-13 3.90588e-13 3.80266e-13 3.86305e-13 3.87065e-13
          3.88011e-13 3.87859e-13 3.87793e-13 3.87461e-13 3.87377e-13 3.87564e-13 3.87495e-13 3.87457e-13 3.87355e-13 3.87397e-13 3.98476e-13 2.61666e-11
          6.05112e-08 7.68473e-08 1.02295e-07 1.45571e-07 7.34605e-13 7.22047e-13
        </DataArray>
        <DataArray type="Float32" Name="precipitateVolumeFraction_d" NumberOfComponents="1" format="ascii">
          0.000714544 0.000714635 0.000714761 0.000714936 0.000715179 0.000715515 0.000715979 0.000716618 0.000717495 0.000718694 0.000720327 0.000722542
          0.000725536 0.000729567 0.000734979 0.000742229 0.000751928 0.000764909 0.00078233 0.000805842 0.000837887 0.00088224 0.000945079 0.00103724
          0.00117958 0.00141761 0.00186915 0.00294604 0.00721684 0.0917814
        </DataArray>
        <DataArray type="Float32" Name="precipitateVolumeFraction_p" NumberOfComponents="1" format="ascii">
          0.000714544 0.000714635 0.000714761 0.000714936 0.000715179 0.000715515 0.000715979 0.000716618 0.000717495 0.000718694 0.000720327 0.000722542
          0.000725536 0.000729567 0.000734979 0.000742229 0.000751928 0.000764909 0.00078233 0.000805842 0.000837887 0.00088224 0.000945079 0.00103724
          0.00117958 0.00141761 0.00186915 0.00294604 0.00721684 0.0917814
        </DataArray>
        <DataArray type="Float32" Name="K" NumberOfComponents="1" format="ascii">
          9.81764e-11 9.81762e-11 9.81759e-11 9.81754e-11 9.81748e-11 9.8174e-11 9.81728e-11 9.81712e-11 9.8169e-11 9.81659e-11 9.81618e-11 9.81562e-11
          9.81486e-11 9.81384e-11 9.81247e-11 9.81063e-11 9.80818e-11 9.80489e-11 9.80049e-11 9.79454e-11 9.78644e-11 9.77525e-11 9.7594e-11 9.73619e-11
          9.66663e-11 9.60725e-11 9.49545e-11 9.23309e-11 8.27998e-11 3.66971e-12
        </DataArray>
        <DataArray type="Float32" Name="X^w_H2O" NumberOfComponents="1" format="ascii">
          0.999853 0.999853 0.999853 0.999853 0.999853 0.999853 0.999853 0.999853 0.999853 0.999853 0.999853 0.999853
          0.999853 0.999853 0.999853 0.999853 0.999853 0.999853 0.999853 0.999853 0.999853 0.999853 0.999853 0.999853
          0.999853 0.999852 0.99985 0.999846 0.999839 0.99984
        </DataArray>
        <DataArray type="Float32" Name="X^w_Air" NumberOfComponents="1" format="ascii">
          2.50538e-21 4.4802e-23 7.87872e-25 1.36082e-26 2.31201e-28 3.86485e-30 6.34831e-32 1.02482e-33 1.62642e-35 2.53584e-37 0 0
          0 0 0 0 0 0 0 0 0 0 0 0
          0 0 0 0 0 0
        </DataArray>
        <DataArray type="Float32" Name="X^w_AuComplex" NumberOfComponents="1" format="ascii">
          5.89208e-16 3.56121e-16 3.94637e-16 3.95011e-16 3.93654e-16 3.95164e-16 3.97214e-16 3.96424e-16 3.98805e-16 3.88835e-16 3.94658e-16 3.95385e-16
          3.9629e-16 3.96134e-16 3.96061e-16 3.95729e-16 3.95634e-16 3.958e-16 3.95715e-16 3.95653e-16 3.9552e-16 3.95515e-16 4.08075e-16 2.98241e-14
          6.91037e-11 1.07735e-10 1.84841e-10 3.64081e-10 2.79214e-15 2.70037e-15
        </DataArray>
        <DataArray type="Float32" Name="X^w_nanoAu" NumberOfComponents="1" format="ascii">
          1.60819e-18 9.50538e-19 1.05935e-18 1.0604e-18 1.05661e-18 1.06094e-18 1.06673e-18 1.06456e-18 1.07111e-18 1.0431e-18 1.05956e-18 1.06165e-18
          1.06423e-18 1.06381e-18 1.06362e-18 1.06271e-18 1.06248e-18 1.06298e-18 1.06279e-18 1.06267e-18 1.06276e-18 1.11912e-18 9.34731e-18 1.20797e-15
          1.66198e-13 2.11118e-13 2.81081e-13 3.95816e-13 2.00568e-18 1.92656e-18
        </DataArray>
        <DataArray type="Float32" Name="X^w_cyanide" NumberOfComponents="1" format="ascii">
          5.08362e-06 5.08355e-06 5.08348e-06 5.0834e-06 5.08333e-06 5.08325e-06 5.08317e-06 5.08309e-06 5.083e-06 5.08292e-06 5.08282e-06 5.08273e-06
          5.08262e-06 5.08251e-06 5.08239e-06 5.08224e-06 5.08208e-06 5.08188e-06 5.08163e-06 5.0813e-06 5.08087e-06 5.08027e-06 5.0794e-06 5.07809e-06
          5.07648e-06 6.44676e-06 8.58166e-06 1.22404e-05 1.94292e-05 1.91138e-05
        </DataArray>
        <DataArray type="Float32" Name="X^w_citrate" NumberOfComponents="1" format="ascii">
          0.000141796 0.000141796 0.000141796 0.000141796 0.000141796 0.000141796 0.000141796 0.000141796 0.000141796 0.000141796 0.000141796 0.000141796
          0.000141795 0.000141795 0.000141795 0.000141795 0.000141794 0.000141793 0.000141792 0.00014179 0.000141788 0.000141784 0.000141778 0.000141769
          0.000141755 0.00014173 0.00014168 0.000141565 0.000141201 0.000138909
        </DataArray>
        <DataArray type="Float32" Name="X^w_substrate" NumberOfComponents="1" format="ascii">
          8.68931e-12 1.19717e-11 1.64938e-11 2.2724e-11 3.13081e-11 4.31366e-11 5.94387e-11 8.1912e-11 1.12904e-10 1.55667e-10 2.14714e-10 2.9633e-10
          4.09296e-10 5.65947e-10 7.83724e-10 1.0875e-09 1.51313e-09 2.11302e-09 2.96518e-09 4.18824e-09 5.96782e-09 8.60474e-09 1.2609e-08 1.8897e-08
          2.9245e-08 4.74699e-08 8.30531e-08 1.65222e-07 4.23086e-07 2.03964e-06
        </DataArray>
        <DataArray type="Float32" Name="m^w_H2O" NumberOfComponents="1" format="ascii">
          55492.6 55492.5 55492.5 55492.5 55492.5 55492.5 55492.5 55492.5 55492.5 55492.5 55492.5 55492.5
          55492.5 55492.4 55492.4 55492.4 55492.4 55492.4 55492.4 55492.4 55492.4 55492.4 55492.4 55492.4
          55492.3 55492.3 55492.1 55491.9 55491.5 55491.6
        </DataArray>
        <DataArray type="Float32" Name="m^w_Air" NumberOfComponents="1" format="ascii">
          8.64992e-17 1.5468e-18 2.72016e-20 4.69829e-22 7.98231e-24 1.33435e-25 2.19178e-27 3.53823e-29 5.61528e-31 8.75507e-33 1.33969e-34 2.01295e-36
          2.97055e-38 0 0 0 0 0 0 0 0 0 0 0
          0 0 0 0 0 0
        </DataArray>
        <DataArray type="Float32" Name="m^w_AuComplex" NumberOfComponents="1" format="ascii">
          2.99092e-12 1.80773e-12 2.00325e-12 2.00515e-12 1.99826e-12 2.00592e-12 2.01633e-12 2.01232e-12 2.0244e-12 1.97379e-12 2.00335e-12 2.00704e-12
          2.01164e-12 2.01085e-12 2.01047e-12 2.00879e-12 2.00831e-12 2.00915e-12 2.00871e-12 2.0084e-12 2.00773e-12 2.0077e-12 2.07146e-12 1.51392e-10
          3.50782e-07 5.4688e-07 9.38284e-07 1.84813e-06 1.41734e-11 1.37075e-11
        </DataArray>
        <DataArray type="Float32" Name="m^w_nanoAu" NumberOfComponents="1" format="ascii">
          8.16347e-15 4.8251e-15 5.37746e-15 5.38277e-15 5.36356e-15 5.38549e-15 5.41488e-15 5.40388e-15 5.43713e-15 5.29496e-15 5.37853e-15 5.38914e-15
          5.40219e-15 5.40007e-15 5.39911e-15 5.3945e-15 5.39333e-15 5.39588e-15 5.39488e-15 5.39429e-15 5.39474e-15 5.68084e-15 4.74485e-14 6.13187e-12
          8.43647e-10 1.07167e-09 1.42681e-09 2.00923e-09 1.01811e-14 9.77952e-15
        </DataArray>
        <DataArray type="Float32" Name="m^w_cyanide" NumberOfComponents="1" format="ascii">
          0.195345 0.195343 0.19534 0.195337 0.195334 0.195331 0.195328 0.195325 0.195321 0.195318 0.195314 0.195311
          0.195307 0.195302 0.195297 0.195292 0.195285 0.195278 0.195268 0.195256 0.195239 0.195216 0.195183 0.195132
          0.19507 0.247725 0.329761 0.470351 0.74659 0.734471
        </DataArray>
        <DataArray type="Float32" Name="m^w_citrate" NumberOfComponents="1" format="ascii">
          0.749742 0.749742 0.749742 0.749742 0.749742 0.749741 0.749741 0.749741 0.749741 0.74974 0.74974 0.749739
          0.749738 0.749737 0.749735 0.749732 0.749729 0.749725 0.749718 0.749709 0.749695 0.749675 0.749645 0.749598
          0.74952 0.749389 0.749128 0.748519 0.746595 0.734473
        </DataArray>
        <DataArray type="Float32" Name="m^w_substrate" NumberOfComponents="1" format="ascii">
          4.82241e-08 6.64409e-08 9.15378e-08 1.26114e-07 1.73754e-07 2.394e-07 3.29874e-07 4.54596e-07 6.26597e-07 8.63923e-07 1.19162e-06 1.64457e-06
          2.27151e-06 3.14089e-06 4.34951e-06 6.0354e-06 8.39755e-06 1.17269e-05 1.64562e-05 2.32439e-05 3.31202e-05 4.77546e-05 6.99776e-05 0.000104875
          0.000162304 0.000263449 0.000460928 0.000916947 0.00234804 0.0113196
        </DataArray>
        <DataArray type="Float32" Name="process rank" NumberOfComponents="1" format="ascii">
          0 0 0 0 0 0 0 0 0 0 0 0
          0 0 0 0 0 0 0 0 0 0 0 0
          0 0 0 0 0 0
        </DataArray>
      </CellData>
      <Points>
        <DataArray type="Float32" Name="Coordinates" NumberOfComponents="3" format="ascii">
          0 0 0 0.5 0 0 0 0.0333333 0 0.5 0.0333333 0
          0 0.0666667 0 0.5 0.0666667 0 0 0.1 0 0.5 0.1 0
          0 0.133333 0 0.5 0.133333 0 0 0.166667 0 0.5 0.166667 0
          0 0.2 0 0.5 0.2 0 0 0.233333 0 0.5 0.233333 0
          0 0.266667 0 0.5 0.266667 0 0 0.3 0 0.5 0.3 0
          0 0.333333 0 0.5 0.333333 0 0 0.366667 0 0.5 0.366667 0
          0 0.4 0 0.5 0.4 0 0 0.433333 0 0.5 0.433333 0
          0 0.466667 0 0.5 0.466667 0 0 0.5 0 0.5 0.5 0
          0 0.533333 0 0.5 0.533333 0 0 0.566667 0 0.5 0.566667 0
          0 0.6 0 0.5 0.6 0 0 0.633333 0 0.5 0.633333 0
          0 0.666667 0 0.5 0.666667 0 0 0.7 0 0.5 0.7 0
          0 0.733333 0 0.5 0.733333 0 0 0.766667 0 0.5 0.766667 0
          0 0.8 0 0.5 0.8 0 0 0.833333 0 0.5 0.833333 0
          0 0.866667 0 0.5 0.866667 0 0 0.9 0 0.5 0.9 0
          0 0.933333 0 0.5 0.933333 0 0 0.966667 0 0.5 0.966667 0
          0 1 0 0.5 1 0
        </DataArray>
      </Points>
      <Cells>
        <DataArray type="Int32" Name="connectivity" NumberOfComponents="1" format="ascii">
          0 1 3 2 2 3 5 4 4 5 7 6
          6 7 9 8 8 9 11 10 10 11 13 12
          12 13 15 14 14 15 17 16 16 17 19 18
          18 19 21 20 20 21 23 22 22 23 25 24
          24 25 27 26 26 27 29 28 28 29 31 30
          30 31 33 32 32 33 35 34 34 35 37 36
          36 37 39 38 38 39 41 40 40 41 43 42
          42 43 45 44 44 45 47 46 46 47 49 48
          48 49 51 50 50 51 53 52 52 53 55 54
          54 55 57 56 56 57 59 58 58 59 61 60
        </DataArray>
        <DataArray type="Int32" Name="offsets" NumberOfComponents="1" format="ascii">
          4 8 12 16 20 24 28 32 36 40 44 48
          52 56 60 64 68 72 76 80 84 88 92 96
          100 104 108 112 116 120
        </DataArray>
        <DataArray type="UInt8" Name="types" NumberOfComponents="1" format="ascii">
          9 9 9 9 9 9 9 9 9 9 9 9
          9 9 9 9 9 9 9 9 9 9 9 9
          9 9 9 9 9 9
        </DataArray>
      </Cells>
    </Piece>
  </UnstructuredGrid>
</VTKFile>
