<?xml version="1.0"?>
<VTKFile type="UnstructuredGrid" version="0.1" byte_order="LittleEndian">
  <UnstructuredGrid>
    <Piece NumberOfCells="30" NumberOfPoints="62">
      <CellData Scalars="Sg">
        <DataArray type="Float32" Name="Sg" NumberOfComponents="1" format="ascii">
          0 0 0 0 0 0 0 0 0 0 0 0
          0 0 0 0 0 0 0 0 0 0 0 0
          0 0 0 0 0 0
        </DataArray>
        <DataArray type="Float32" Name="Sl" NumberOfComponents="1" format="ascii">
          1 1 1 1 1 1 1 1 1 1 1 1
          1 1 1 1 1 1 1 1 1 1 1 1
          1 1 1 1 1 1
        </DataArray>
        <DataArray type="Float32" Name="pg" NumberOfComponents="1" format="ascii">
          24687.8 24360.9 24034 23707 23380.1 23053.1 22726.2 22399.3 22072.3 21745.4 21418.4 21091.5
          20764.6 20437.6 20110.7 19783.7 19456.8 19129.8 18802.9 18476 18149 17822.1 17495.1 17168.2
          16841.3 16514.3 16187.4 15860.4 15533.5 15208.9
        </DataArray>
        <DataArray type="Float32" Name="pl" NumberOfComponents="1" format="ascii">
          110628 110301 109974 109647 109320 108993 108666 108339 108012 107685 107358 107031
          106704 106377 106050 105723 105396 105070 104743 104416 104089 103762 103435 103108
          102781 102454 102127 101800 101473 101149
        </DataArray>
        <DataArray type="Float32" Name="pc" NumberOfComponents="1" format="ascii">
          -85939.7 -85939.7 -85939.7 -85939.7 -85939.7 -85939.7 -85939.7 -85939.7 -85939.7 -85939.7 -85939.7 -85939.7
          -85939.7 -85939.7 -85939.7 -85939.7 -85939.7 -85939.7 -85939.7 -85939.7 -85939.7 -85939.7 -85939.7 -85939.7
          -85939.7 -85939.7 -85939.7 -85939.7 -85939.7 -85939.7
        </DataArray>
        <DataArray type="Float32" Name="rhoL" NumberOfComponents="1" format="ascii">
          999.855 999.855 999.855 999.855 999.855 999.854 999.854 999.854 999.854 999.854 999.854 999.854
          999.853 999.853 999.853 999.853 999.853 999.853 999.852 999.852 999.852 999.852 999.852 999.852
          999.852 999.851 999.851 999.851 999.851 999.851
        </DataArray>
        <DataArray type="Float32" Name="rhoG" NumberOfComponents="1" format="ascii">
          0.30585 0.3018 0.29775 0.293699 0.289649 0.285598 0.281548 0.277498 0.273447 0.269397 0.265347 0.261296
          0.257246 0.253195 0.249145 0.245095 0.241044 0.236994 0.232944 0.228893 0.224843 0.220793 0.216742 0.212692
          0.208641 0.204591 0.200541 0.19649 0.19244 0.188419
        </DataArray>
        <DataArray type="Float32" Name="mobL" NumberOfComponents="1" format="ascii">
          722.171 722.17 722.17 722.17 722.17 722.17 722.169 722.169 722.169 722.169 722.169 722.169
          722.168 722.168 722.168 722.168 722.168 722.167 722.167 722.167 722.167 722.167 722.166 722.166
          722.166 722.166 722.166 722.166 722.165 722.165
        </DataArray>
        <DataArray type="Float32" Name="mobG" NumberOfComponents="1" format="ascii">
          0 0 0 0 0 0 0 0 0 0 0 0
          0 0 0 0 0 0 0 0 0 0 0 0
          0 0 0 0 0 0
        </DataArray>
        <DataArray type="Float32" Name="porosity" NumberOfComponents="1" format="ascii">
          0.298732 0.298732 0.298732 0.298732 0.298731 0.298731 0.29873 0.298729 0.298727 0.298725 0.298722 0.298718
          0.298712 0.298705 0.298695 0.298682 0.298665 0.298641 0.298609 0.298566 0.298508 0.298426 0.298309 0.298137
          0.297596 0.297135 0.296228 0.293913 0.28342 0.0488799
        </DataArray>
        <DataArray type="Float32" Name="temperature" NumberOfComponents="1" format="ascii">
          281.15 281.15 281.15 281.15 281.15 281.15 281.15 281.15 281.15 281.15 281.15 281.15
          281.15 281.15 281.15 281.15 281.15 281.15 281.15 281.15 281.15 281.15 281.15 281.15
          281.15 281.15 281.15 281.15 281.15 281.15
        </DataArray>
        <DataArray type="Float32" Name="phase presence" NumberOfComponents="1" format="ascii">
          1 1 1 1 1 1 1 1 1 1 1 1
          1 1 1 1 1 1 1 1 1 1 1 1
          1 1 1 1 1 1
        </DataArray>
        <DataArray type="Float32" Name="precipitateVolumeFraction_au" NumberOfComponents="1" format="ascii">
          5.53809e-10 5.5245e-10 5.52739e-10 5.52742e-10 5.52722e-10 5.52739e-10 5.52772e-10 5.5276e-10 5.52823e-10 5.52498e-10 5.52706e-10 5.5273e-10
          5.52775e-10 5.52773e-10 5.52773e-10 5.5275e-10 5.52741e-10 5.52768e-10 5.52764e-10 5.52765e-10 5.5275e-10 5.5277e-10 5.52873e-10 1.01875e-09
          0.00026994 0.000269924 0.0002699 0.000269853 5.52263e-10 5.51402e-10
        </DataArray>
        <DataArray type="Float32" Name="precipitateVolumeFraction_nanoAu" NumberOfComponents="1" format="ascii">
          1.23936e-13 1.23629e-13 1.23694e-13 1.23694e-13 1.23689e-13 1.23693e-13 1.237e-13 1.23697e-13 1.23711e-13 1.23638e-13 1.23684e-13 1.23688e-13
          1.23698e-13 1.23696e-13 1.23695e-13 1.23689e-13 1.23685e-13 1.23688e-13 1.23684e-13 1.2368e-13 1.2367e-13 1.23672e-13 1.34926e-13 2.57581e-11
          6.03752e-08 7.66971e-08 1.02156e-07 1.45563e-07 4.74065e-13 4.66886e-13
        </DataArray>
        <DataArray type="Float32" Name="precipitateVolumeFraction_d" NumberOfComponents="1" format="ascii">
          0.000633828 0.00063391 0.000634024 0.000634183 0.000634402 0.000634706 0.000635126 0.000635703 0.000636495 0.000637577 0.000639052 0.000641052
          0.000643757 0.000647402 0.000652299 0.000658866 0.000667663 0.00067946 0.000695328 0.000716807 0.000746193 0.000787072 0.000845383 0.000931712
          0.00106686 0.00129763 0.00175108 0.00290839 0.0082902 0.12556
        </DataArray>
        <DataArray type="Float32" Name="precipitateVolumeFraction_p" NumberOfComponents="1" format="ascii">
          0.000633828 0.00063391 0.000634024 0.000634183 0.000634402 0.000634706 0.000635126 0.000635703 0.000636495 0.000637577 0.000639052 0.000641052
          0.000643757 0.000647402 0.000652299 0.000658866 0.000667663 0.00067946 0.000695328 0.000716807 0.000746193 0.000787072 0.000845383 0.000931712
          0.00106686 0.00129763 0.00175108 0.00290839 0.0082902 0.12556
        </DataArray>
        <DataArray type="Float32" Name="K" NumberOfComponents="1" format="ascii">
          9.8381e-11 9.83808e-11 9.83805e-11 9.83801e-11 9.83796e-11 9.83788e-11 9.83778e-11 9.83763e-11 9.83743e-11 9.83715e-11 9.83678e-11 9.83627e-11
          9.83559e-11 9.83466e-11 9.83342e-11 9.83175e-11 9.82952e-11 9.82653e-11 9.82251e-11 9.81707e-11 9.80963e-11 9.79929e-11 9.78455e-11 9.76277e-11
          9.69485e-11 9.63715e-11 9.52458e-11 9.24216e-11 8.04622e-11 2.3429e-13
        </DataArray>
        <DataArray type="Float32" Name="X^w_H2O" NumberOfComponents="1" format="ascii">
          0.999853 0.999853 0.999853 0.999853 0.999853 0.999853 0.999853 0.999853 0.999853 0.999853 0.999853 0.999853
          0.999853 0.999853 0.999853 0.999853 0.999853 0.999853 0.999853 0.999853 0.999853 0.999853 0.999853 0.999853
          0.999853 0.999852 0.99985 0.999846 0.999839 0.99984
        </DataArray>
        <DataArray type="Float32" Name="X^w_Air" NumberOfComponents="1" format="ascii">
          0 0 0 0 0 0 0 0 0 0 0 0
          0 0 0 0 0 0 0 0 0 0 0 0
          0 0 0 0 0 0
        </DataArray>
        <DataArray type="Float32" Name="X^w_AuComplex" NumberOfComponents="1" format="ascii">
          1.41439e-16 1.41088e-16 1.41162e-16 1.41162e-16 1.41157e-16 1.4116e-16 1.41168e-16 1.41165e-16 1.4118e-16 1.41096e-16 1.41148e-16 1.41153e-16
          1.41163e-16 1.41161e-16 1.41159e-16 1.4115e-16 1.41144e-16 1.41145e-16 1.41137e-16 1.41128e-16 1.4111e-16 1.41103e-16 1.53851e-16 2.93716e-14
          6.88591e-11 1.07402e-10 1.84434e-10 3.63985e-10 1.83467e-15 1.78533e-15
        </DataArray>
        <DataArray type="Float32" Name="X^w_nanoAu" NumberOfComponents="1" format="ascii">
          3.39859e-19 3.39023e-19 3.392e-19 3.39201e-19 3.39188e-19 3.39197e-19 3.39217e-19 3.39209e-19 3.39245e-19 3.39046e-19 3.39171e-19 3.39184e-19
          3.39209e-19 3.39205e-19 3.39201e-19 3.39182e-19 3.39171e-19 3.39179e-19 3.39164e-19 3.39151e-19 3.395e-19 3.95299e-19 8.57086e-18 1.20198e-15
          1.65838e-13 2.10736e-13 2.80777e-13 3.96027e-13 1.29617e-18 1.25266e-18
        </DataArray>
        <DataArray type="Float32" Name="X^w_cyanide" NumberOfComponents="1" format="ascii">
          5.07186e-06 5.07185e-06 5.07184e-06 5.07183e-06 5.07183e-06 5.07182e-06 5.07181e-06 5.0718e-06 5.07179e-06 5.07177e-06 5.07176e-06 5.07173e-06
          5.07171e-06 5.07167e-06 5.07163e-06 5.07157e-06 5.0715e-06 5.0714e-06 5.07126e-06 5.07107e-06 5.0708e-06 5.07041e-06 5.06985e-06 5.06899e-06
          5.06811e-06 6.43778e-06 8.57324e-06 1.22377e-05 1.9458e-05 1.92208e-05
        </DataArray>
        <DataArray type="Float32" Name="X^w_citrate" NumberOfComponents="1" format="ascii">
          0.000141796 0.000141796 0.000141796 0.000141796 0.000141796 0.000141796 0.000141796 0.000141796 0.000141796 0.000141796 0.000141796 0.000141796
          0.000141795 0.000141795 0.000141795 0.000141795 0.000141794 0.000141793 0.000141792 0.000141791 0.000141789 0.000141786 0.000141782 0.000141776
          0.000141766 0.00014175 0.000141719 0.000141646 0.00014141 0.000139686
        </DataArray>
        <DataArray type="Float32" Name="X^w_substrate" NumberOfComponents="1" format="ascii">
          1.24427e-11 1.66828e-11 2.23667e-11 2.9986e-11 4.02e-11 5.38935e-11 7.22543e-11 9.68785e-11 1.29914e-10 1.74254e-10 2.3381e-10 3.13878e-10
          4.21665e-10 5.67027e-10 7.6354e-10 1.03007e-09 1.39312e-09 1.89051e-09 2.57715e-09 3.5347e-09 4.88809e-09 6.83567e-09 9.70737e-09 1.4086e-08
          2.10861e-08 3.30807e-08 5.59616e-08 1.08178e-07 2.75747e-07 1.49155e-06
        </DataArray>
        <DataArray type="Float32" Name="m^w_H2O" NumberOfComponents="1" format="ascii">
          55492.6 55492.6 55492.5 55492.5 55492.5 55492.5 55492.5 55492.5 55492.5 55492.5 55492.5 55492.5
          55492.5 55492.4 55492.4 55492.4 55492.4 55492.4 55492.4 55492.4 55492.4 55492.4 55492.4 55492.4
          55492.3 55492.3 55492.1 55491.9 55491.5 55491.6
        </DataArray>
        <DataArray type="Float32" Name="m^w_Air" NumberOfComponents="1" format="ascii">
          0 0 0 0 0 0 0 0 0 0 0 0
          0 0 0 0 0 0 0 0 0 0 0 0
          0 0 0 0 0 0
        </DataArray>
        <DataArray type="Float32" Name="m^w_AuComplex" NumberOfComponents="1" format="ascii">
          7.17967e-13 7.16188e-13 7.16563e-13 7.16564e-13 7.16536e-13 7.16554e-13 7.16594e-13 7.16576e-13 7.16654e-13 7.16228e-13 7.16493e-13 7.16518e-13
          7.16569e-13 7.16558e-13 7.16546e-13 7.165e-13 7.16469e-13 7.16478e-13 7.16435e-13 7.16387e-13 7.16297e-13 7.16264e-13 7.80971e-13 1.49095e-10
          3.4954e-07 5.45187e-07 9.36216e-07 1.84764e-06 9.3131e-12 9.0626e-12
        </DataArray>
        <DataArray type="Float32" Name="m^w_nanoAu" NumberOfComponents="1" format="ascii">
          1.72519e-15 1.72094e-15 1.72184e-15 1.72184e-15 1.72178e-15 1.72183e-15 1.72192e-15 1.72188e-15 1.72206e-15 1.72106e-15 1.72169e-15 1.72176e-15
          1.72188e-15 1.72186e-15 1.72184e-15 1.72175e-15 1.72169e-15 1.72173e-15 1.72165e-15 1.72159e-15 1.72336e-15 2.0066e-15 4.35071e-14 6.10144e-12
          8.4182e-10 1.06973e-09 1.42527e-09 2.0103e-09 6.57957e-15 6.35872e-15
        </DataArray>
        <DataArray type="Float32" Name="m^w_cyanide" NumberOfComponents="1" format="ascii">
          0.194893 0.194893 0.194893 0.194892 0.194892 0.194892 0.194891 0.194891 0.19489 0.19489 0.194889 0.194888
          0.194887 0.194886 0.194884 0.194882 0.194879 0.194875 0.19487 0.194862 0.194852 0.194837 0.194815 0.194782
          0.194749 0.24738 0.329438 0.47025 0.747697 0.738581
        </DataArray>
        <DataArray type="Float32" Name="m^w_citrate" NumberOfComponents="1" format="ascii">
          0.749742 0.749742 0.749742 0.749742 0.749742 0.749741 0.749741 0.749741 0.74974 0.74974 0.749739 0.749739
          0.749738 0.749737 0.749735 0.749733 0.74973 0.749726 0.749721 0.749714 0.749703 0.749689 0.749667 0.749634
          0.749581 0.749496 0.749331 0.748947 0.747699 0.738583
        </DataArray>
        <DataArray type="Float32" Name="m^w_substrate" NumberOfComponents="1" format="ascii">
          6.90546e-08 9.25864e-08 1.24131e-07 1.66417e-07 2.23103e-07 2.99099e-07 4.00998e-07 5.37658e-07 7.20997e-07 9.67078e-07 1.2976e-06 1.74196e-06
          2.34016e-06 3.14689e-06 4.2375e-06 5.71667e-06 7.73153e-06 1.04919e-05 1.43027e-05 1.96169e-05 2.71279e-05 3.79366e-05 5.3874e-05 7.81746e-05
          0.000117024 0.000183591 0.000310576 0.000600365 0.00153034 0.00827781
        </DataArray>
        <DataArray type="Float32" Name="process rank" NumberOfComponents="1" format="ascii">
          0 0 0 0 0 0 0 0 0 0 0 0
          0 0 0 0 0 0 0 0 0 0 0 0
          0 0 0 0 0 0
        </DataArray>
      </CellData>
      <Points>
        <DataArray type="Float32" Name="Coordinates" NumberOfComponents="3" format="ascii">
          0 0 0 0.5 0 0 0 0.0333333 0 0.5 0.0333333 0
          0 0.0666667 0 0.5 0.0666667 0 0 0.1 0 0.5 0.1 0
          0 0.133333 0 0.5 0.133333 0 0 0.166667 0 0.5 0.166667 0
          0 0.2 0 0.5 0.2 0 0 0.233333 0 0.5 0.233333 0
          0 0.266667 0 0.5 0.266667 0 0 0.3 0 0.5 0.3 0
          0 0.333333 0 0.5 0.333333 0 0 0.366667 0 0.5 0.366667 0
          0 0.4 0 0.5 0.4 0 0 0.433333 0 0.5 0.433333 0
          0 0.466667 0 0.5 0.466667 0 0 0.5 0 0.5 0.5 0
          0 0.533333 0 0.5 0.533333 0 0 0.566667 0 0.5 0.566667 0
          0 0.6 0 0.5 0.6 0 0 0.633333 0 0.5 0.633333 0
          0 0.666667 0 0.5 0.666667 0 0 0.7 0 0.5 0.7 0
          0 0.733333 0 0.5 0.733333 0 0 0.766667 0 0.5 0.766667 0
          0 0.8 0 0.5 0.8 0 0 0.833333 0 0.5 0.833333 0
          0 0.866667 0 0.5 0.866667 0 0 0.9 0 0.5 0.9 0
          0 0.933333 0 0.5 0.933333 0 0 0.966667 0 0.5 0.966667 0
          0 1 0 0.5 1 0
        </DataArray>
      </Points>
      <Cells>
        <DataArray type="Int32" Name="connectivity" NumberOfComponents="1" format="ascii">
          0 1 3 2 2 3 5 4 4 5 7 6
          6 7 9 8 8 9 11 10 10 11 13 12
          12 13 15 14 14 15 17 16 16 17 19 18
          18 19 21 20 20 21 23 22 22 23 25 24
          24 25 27 26 26 27 29 28 28 29 31 30
          30 31 33 32 32 33 35 34 34 35 37 36
          36 37 39 38 38 39 41 40 40 41 43 42
          42 43 45 44 44 45 47 46 46 47 49 48
          48 49 51 50 50 51 53 52 52 53 55 54
          54 55 57 56 56 57 59 58 58 59 61 60
        </DataArray>
        <DataArray type="Int32" Name="offsets" NumberOfComponents="1" format="ascii">
          4 8 12 16 20 24 28 32 36 40 44 48
          52 56 60 64 68 72 76 80 84 88 92 96
          100 104 108 112 116 120
        </DataArray>
        <DataArray type="UInt8" Name="types" NumberOfComponents="1" format="ascii">
          9 9 9 9 9 9 9 9 9 9 9 9
          9 9 9 9 9 9 9 9 9 9 9 9
          9 9 9 9 9 9
        </DataArray>
      </Cells>
    </Piece>
  </UnstructuredGrid>
</VTKFile>
