<?xml version="1.0"?>
<VTKFile type="UnstructuredGrid" version="0.1" byte_order="LittleEndian">
  <UnstructuredGrid>
    <Piece NumberOfCells="30" NumberOfPoints="62">
      <CellData Scalars="Sg">
        <DataArray type="Float32" Name="Sg" NumberOfComponents="1" format="ascii">
          0.0907902 0.0907501 0.0907089 0.0906633 0.0905983 0.0904457 0.0898967 0.08756 0.0773017 0.0356723 0 0
          0 0 0 0 0 0 0 0 0 0 0 0
          0 0 0 0 0 0
        </DataArray>
        <DataArray type="Float32" Name="Sl" NumberOfComponents="1" format="ascii">
          0.90921 0.90925 0.909291 0.909337 0.909402 0.909554 0.910103 0.91244 0.922698 0.964328 1 1
          1 1 1 1 1 1 1 1 1 1 1 1
          1 1 1 1 1 1
        </DataArray>
        <DataArray type="Float32" Name="pg" NumberOfComponents="1" format="ascii">
          50696.1 50357.7 50018.9 49678.9 49333.4 48962.7 48478.5 47482.2 44216.6 31964.3 21418.4 21091.5
          20764.6 20437.6 20110.7 19783.7 19456.8 19129.8 18802.9 18476 18149 17822.1 17495.1 17168.2
          16841.3 16514.3 16187.4 15860.4 15533.5 15206.6
        </DataArray>
        <DataArray type="Float32" Name="pl" NumberOfComponents="1" format="ascii">
          110628 110301 109974 109647 109320 108993 108666 108339 108012 107685 107358 107031
          106704 106377 106050 105723 105396 105070 104743 104416 104089 103762 103435 103108
          102781 102454 102127 101800 101473 101146
        </DataArray>
        <DataArray type="Float32" Name="pc" NumberOfComponents="1" format="ascii">
          -59931.4 -59942.9 -59954.7 -59967.8 -59986.4 -60030.1 -60187.4 -60856.8 -63795.4 -75720.8 -85939.7 -85939.7
          -85939.7 -85939.7 -85939.7 -85939.7 -85939.7 -85939.7 -85939.7 -85939.7 -85939.7 -85939.7 -85939.7 -85939.7
          -85939.7 -85939.7 -85939.7 -85939.7 -85939.7 -85939.7
        </DataArray>
        <DataArray type="Float32" Name="rhoL" NumberOfComponents="1" format="ascii">
          999.855 999.855 999.855 999.855 999.855 999.854 999.854 999.854 999.854 999.854 999.854 999.854
          999.853 999.853 999.853 999.853 999.853 999.853 999.852 999.852 999.852 999.852 999.852 999.852
          999.852 999.851 999.851 999.851 999.851 999.851
        </DataArray>
        <DataArray type="Float32" Name="rhoG" NumberOfComponents="1" format="ascii">
          0.628059 0.623866 0.61967 0.615457 0.611177 0.606585 0.600586 0.588243 0.547786 0.395996 0.265347 0.261296
          0.257246 0.253195 0.249145 0.245095 0.241044 0.236994 0.232944 0.228893 0.224843 0.220793 0.216742 0.212692
          0.208641 0.204591 0.200541 0.19649 0.19244 0.18839
        </DataArray>
        <DataArray type="Float32" Name="mobL" NumberOfComponents="1" format="ascii">
          722.171 722.17 722.17 722.17 722.17 722.17 722.169 722.169 722.169 722.169 722.169 722.169
          722.168 722.168 722.168 722.168 722.168 722.167 722.167 722.167 722.167 722.167 722.166 722.166
          722.166 722.166 722.166 722.166 722.165 722.165
        </DataArray>
        <DataArray type="Float32" Name="mobG" NumberOfComponents="1" format="ascii">
          0 0 0 0 0 0 0 0 0 0 0 0
          0 0 0 0 0 0 0 0 0 0 0 0
          0 0 0 0 0 0
        </DataArray>
        <DataArray type="Float32" Name="porosity" NumberOfComponents="1" format="ascii">
          0.298517 0.298517 0.298517 0.298517 0.298516 0.298516 0.298515 0.298514 0.298512 0.29851 0.298507 0.298503
          0.298498 0.29849 0.29848 0.298467 0.298449 0.298424 0.298391 0.298345 0.298284 0.298198 0.298077 0.297899
          0.297356 0.296905 0.296066 0.294146 0.287548 0.191303
        </DataArray>
        <DataArray type="Float32" Name="temperature" NumberOfComponents="1" format="ascii">
          281.15 281.15 281.15 281.15 281.15 281.15 281.15 281.15 281.15 281.15 281.15 281.15
          281.15 281.15 281.15 281.15 281.15 281.15 281.15 281.15 281.15 281.15 281.15 281.15
          281.15 281.15 281.15 281.15 281.15 281.15
        </DataArray>
        <DataArray type="Float32" Name="phase presence" NumberOfComponents="1" format="ascii">
          3 3 3 3 3 3 3 3 3 3 1 1
          1 1 1 1 1 1 1 1 1 1 1 1
          1 1 1 1 1 1
        </DataArray>
        <DataArray type="Float32" Name="precipitateVolumeFraction_au" NumberOfComponents="1" format="ascii">
          5.44511e-10 5.44507e-10 5.44508e-10 5.44509e-10 5.44509e-10 5.4451e-10 5.4451e-10 5.44511e-10 5.44512e-10 5.44513e-10 5.44509e-10 5.44517e-10
          5.44514e-10 5.44524e-10 5.44523e-10 5.44509e-10 5.445e-10 5.44526e-10 5.44486e-10 5.44522e-10 5.44554e-10 5.44556e-10 5.44557e-10 6.34142e-10
          0.000269939 0.000269923 0.000269898 0.000269856 5.4424e-10 5.41293e-10
        </DataArray>
        <DataArray type="Float32" Name="precipitateVolumeFraction_nanoAu" NumberOfComponents="1" format="ascii">
          8.36786e-12 8.36676e-12 8.36597e-12 8.36479e-12 8.3644e-12 8.36316e-12 8.36252e-12 8.36178e-12 8.36162e-12 8.37283e-12 8.34252e-12 8.36917e-12
          8.3601e-12 8.36885e-12 8.36369e-12 8.35481e-12 8.35152e-12 8.35994e-12 8.34995e-12 8.35696e-12 8.36083e-12 8.3595e-12 8.37504e-12 3.51177e-11
          6.12922e-08 7.7644e-08 1.02763e-07 1.44464e-07 8.66784e-12 8.57357e-12
        </DataArray>
        <DataArray type="Float32" Name="precipitateVolumeFraction_d" NumberOfComponents="1" format="ascii">
          0.000741377 0.000741448 0.000741549 0.00074169 0.000741888 0.000742167 0.000742557 0.000743102 0.000743859 0.000744907 0.000746353 0.000748338
          0.000751053 0.000754748 0.000759761 0.000766539 0.000775684 0.000788015 0.000804668 0.000827256 0.000858152 0.000900999 0.000961704 0.00105053
          0.00118692 0.00141259 0.00183213 0.00279221 0.00622578 0.0543486
        </DataArray>
        <DataArray type="Float32" Name="precipitateVolumeFraction_p" NumberOfComponents="1" format="ascii">
          0.000741377 0.000741448 0.000741549 0.00074169 0.000741888 0.000742167 0.000742557 0.000743102 0.000743859 0.000744907 0.000746353 0.000748338
          0.000751053 0.000754748 0.000759761 0.000766539 0.000775684 0.000788015 0.000804668 0.000827256 0.000858152 0.000900999 0.000961704 0.00105053
          0.00118692 0.00141259 0.00183213 0.00279221 0.00622578 0.0543486
        </DataArray>
        <DataArray type="Float32" Name="K" NumberOfComponents="1" format="ascii">
          9.81085e-11 9.81083e-11 9.81081e-11 9.81077e-11 9.81072e-11 9.81065e-11 9.81055e-11 9.81041e-11 9.81022e-11 9.80996e-11 9.80959e-11 9.80909e-11
          9.8084e-11 9.80746e-11 9.8062e-11 9.80448e-11 9.80217e-11 9.79905e-11 9.79484e-11 9.78913e-11 9.78133e-11 9.77051e-11 9.75521e-11 9.73285e-11
          9.6648e-11 9.6085e-11 9.50457e-11 9.2702e-11 8.5007e-11 1.94278e-11
        </DataArray>
        <DataArray type="Float32" Name="X^w_H2O" NumberOfComponents="1" format="ascii">
          0.999838 0.999838 0.999838 0.999838 0.999838 0.999838 0.999838 0.999839 0.99984 0.999844 0.999852 0.999853
          0.999853 0.999853 0.999853 0.999853 0.999853 0.999853 0.999853 0.999853 0.999853 0.999853 0.999853 0.999853
          0.999853 0.999852 0.99985 0.999846 0.999839 0.999841
        </DataArray>
        <DataArray type="Float32" Name="X^w_Air" NumberOfComponents="1" format="ascii">
          1.53819e-05 1.5277e-05 1.5172e-05 1.50666e-05 1.49595e-05 1.48446e-05 1.46945e-05 1.43856e-05 1.33734e-05 9.57551e-06 7.38482e-07 1.13057e-08
          1.70516e-10 2.51848e-12 3.65967e-14 5.20531e-16 7.2621e-18 9.94926e-20 1.33388e-21 1.74847e-23 2.23858e-25 2.79076e-27 3.35867e-29 3.8473e-31
          4.05844e-33 4.06567e-35 3.47431e-37 0 0 0
        </DataArray>
        <DataArray type="Float32" Name="X^w_AuComplex" NumberOfComponents="1" format="ascii">
          8.59484e-15 6.82199e-15 9.05485e-15 8.30514e-15 8.44637e-15 7.77768e-15 7.93791e-15 8.51278e-15 8.76403e-15 8.25593e-14 8.06799e-15 8.09316e-15
          8.08397e-15 8.09205e-15 8.08675e-15 8.0779e-15 8.07444e-15 8.08224e-15 8.07221e-15 8.07841e-15 8.08133e-15 8.07881e-15 8.09385e-15 3.84952e-14
          6.98324e-11 1.08842e-10 1.86044e-10 3.62236e-10 3.1925e-14 3.07645e-14
        </DataArray>
        <DataArray type="Float32" Name="X^w_nanoAu" NumberOfComponents="1" format="ascii">
          9.89135e-17 -4.60232e-16 5.58923e-16 -1.90789e-16 -4.95586e-17 4.95456e-16 -5.58016e-16 1.68529e-17 2.68091e-16 6.19263e-14 1.21202e-16 1.21571e-16
          1.21448e-16 1.21567e-16 1.2149e-16 1.21364e-16 1.21321e-16 1.21433e-16 1.21296e-16 1.21441e-16 1.22837e-16 1.61033e-16 1.24675e-15 3.20829e-14
          8.9742e-13 1.13876e-12 1.507e-12 2.01581e-12 1.24663e-16 1.16166e-16
        </DataArray>
        <DataArray type="Float32" Name="X^w_cyanide" NumberOfComponents="1" format="ascii">
          5.09148e-06 5.09028e-06 5.08921e-06 5.08827e-06 5.08745e-06 5.08672e-06 5.0861e-06 5.08555e-06 5.08509e-06 5.0847e-06 5.08439e-06 5.08406e-06
          5.08378e-06 5.08355e-06 5.08335e-06 5.08317e-06 5.08299e-06 5.08279e-06 5.08253e-06 5.08219e-06 5.08168e-06 5.0809e-06 5.07967e-06 5.07767e-06
          5.07478e-06 6.45461e-06 8.60205e-06 1.22649e-05 1.93662e-05 1.88708e-05
        </DataArray>
        <DataArray type="Float32" Name="X^w_citrate" NumberOfComponents="1" format="ascii">
          0.000141794 0.000141794 0.000141794 0.000141794 0.000141794 0.000141794 0.000141794 0.000141794 0.000141794 0.000141794 0.000141796 0.000141795
          0.000141795 0.000141795 0.000141794 0.000141794 0.000141793 0.000141792 0.00014179 0.000141787 0.000141783 0.000141776 0.000141767 0.000141751
          0.000141726 0.000141681 0.000141592 0.000141387 0.000140752 0.000137147
        </DataArray>
        <DataArray type="Float32" Name="X^w_substrate" NumberOfComponents="1" format="ascii">
          9.40949e-12 1.32689e-11 1.87227e-11 2.64097e-11 3.7269e-11 5.2597e-11 7.42168e-11 1.04679e-10 1.47537e-10 2.07902e-10 2.91084e-10 4.08076e-10
          5.72735e-10 8.0474e-10 1.13244e-09 1.59682e-09 2.25775e-09 3.20389e-09 4.5687e-09 6.55753e-09 9.49497e-09 1.39121e-08 2.07168e-08 3.15512e-08
          4.96139e-08 8.17874e-08 1.45099e-07 2.91274e-07 7.39899e-07 3.28203e-06
        </DataArray>
        <DataArray type="Float32" Name="m^w_H2O" NumberOfComponents="1" format="ascii">
          55491.7 55491.7 55491.7 55491.7 55491.7 55491.7 55491.7 55491.7 55491.7 55491.9 55492.4 55492.5
          55492.5 55492.4 55492.4 55492.4 55492.4 55492.4 55492.4 55492.4 55492.4 55492.4 55492.4 55492.4
          55492.3 55492.3 55492.1 55491.9 55491.5 55491.6
        </DataArray>
        <DataArray type="Float32" Name="m^w_Air" NumberOfComponents="1" format="ascii">
          0.531065 0.527443 0.523818 0.520179 0.516481 0.512514 0.507332 0.496669 0.461721 0.330598 0.0254963 0.000390332
          5.88712e-06 8.69513e-08 1.26351e-09 1.79715e-11 2.50726e-13 3.43501e-15 4.60526e-17 6.03665e-19 7.72875e-21 9.63519e-23 1.15959e-24 1.32829e-26
          1.40119e-28 1.40368e-30 1.19951e-32 7.33486e-35 1.77529e-37 0
        </DataArray>
        <DataArray type="Float32" Name="m^w_AuComplex" NumberOfComponents="1" format="ascii">
          4.3629e-11 3.46297e-11 4.5964e-11 4.21584e-11 4.28753e-11 3.94809e-11 4.02942e-11 4.32124e-11 4.44877e-11 4.19086e-10 4.09545e-11 4.10823e-11
          4.10356e-11 4.10766e-11 4.10497e-11 4.10048e-11 4.09872e-11 4.10268e-11 4.09759e-11 4.10074e-11 4.10221e-11 4.10094e-11 4.10857e-11 1.95408e-10
          3.5448e-07 5.52498e-07 9.44388e-07 1.83877e-06 1.62056e-10 1.56166e-10
        </DataArray>
        <DataArray type="Float32" Name="m^w_nanoAu" NumberOfComponents="1" format="ascii">
          5.02103e-13 -2.33622e-12 2.83719e-12 -9.68481e-13 -2.51568e-13 2.51502e-12 -2.83259e-12 8.55482e-14 1.36088e-12 3.14349e-10 6.15241e-13 6.17114e-13
          6.16489e-13 6.17097e-13 6.16705e-13 6.16063e-13 6.15845e-13 6.16414e-13 6.15721e-13 6.16457e-13 6.23539e-13 8.17428e-13 6.3287e-12 1.62858e-10
          4.55545e-09 5.78051e-09 7.64975e-09 1.02326e-08 6.32807e-13 5.89677e-13
        </DataArray>
        <DataArray type="Float32" Name="m^w_cyanide" NumberOfComponents="1" format="ascii">
          0.195647 0.195601 0.19556 0.195524 0.195492 0.195464 0.19544 0.195419 0.195402 0.195387 0.195374 0.195362
          0.195351 0.195342 0.195334 0.195327 0.19532 0.195313 0.195303 0.19529 0.19527 0.19524 0.195193 0.195116
          0.195005 0.248027 0.330545 0.471292 0.744169 0.725133
        </DataArray>
        <DataArray type="Float32" Name="m^w_citrate" NumberOfComponents="1" format="ascii">
          0.749731 0.749731 0.749731 0.74973 0.74973 0.74973 0.74973 0.74973 0.74973 0.749733 0.749739 0.749738
          0.749737 0.749735 0.749732 0.749729 0.749724 0.749716 0.749706 0.749691 0.749669 0.749636 0.749584 0.749503
          0.749368 0.749131 0.748663 0.747574 0.744219 0.725157
        </DataArray>
        <DataArray type="Float32" Name="m^w_substrate" NumberOfComponents="1" format="ascii">
          5.2221e-08 7.36399e-08 1.03908e-07 1.46569e-07 2.06836e-07 2.91903e-07 4.11889e-07 5.80949e-07 8.18801e-07 1.15382e-06 1.61546e-06 2.26474e-06
          3.17857e-06 4.46615e-06 6.28482e-06 8.86203e-06 1.25301e-05 1.77809e-05 2.53554e-05 3.6393e-05 5.26952e-05 7.72094e-05 0.000114974 0.000175103
          0.000275347 0.000453903 0.000805272 0.00161651 0.00410629 0.0182146
        </DataArray>
        <DataArray type="Float32" Name="process rank" NumberOfComponents="1" format="ascii">
          0 0 0 0 0 0 0 0 0 0 0 0
          0 0 0 0 0 0 0 0 0 0 0 0
          0 0 0 0 0 0
        </DataArray>
      </CellData>
      <Points>
        <DataArray type="Float32" Name="Coordinates" NumberOfComponents="3" format="ascii">
          0 0 0 0.5 0 0 0 0.0333333 0 0.5 0.0333333 0
          0 0.0666667 0 0.5 0.0666667 0 0 0.1 0 0.5 0.1 0
          0 0.133333 0 0.5 0.133333 0 0 0.166667 0 0.5 0.166667 0
          0 0.2 0 0.5 0.2 0 0 0.233333 0 0.5 0.233333 0
          0 0.266667 0 0.5 0.266667 0 0 0.3 0 0.5 0.3 0
          0 0.333333 0 0.5 0.333333 0 0 0.366667 0 0.5 0.366667 0
          0 0.4 0 0.5 0.4 0 0 0.433333 0 0.5 0.433333 0
          0 0.466667 0 0.5 0.466667 0 0 0.5 0 0.5 0.5 0
          0 0.533333 0 0.5 0.533333 0 0 0.566667 0 0.5 0.566667 0
          0 0.6 0 0.5 0.6 0 0 0.633333 0 0.5 0.633333 0
          0 0.666667 0 0.5 0.666667 0 0 0.7 0 0.5 0.7 0
          0 0.733333 0 0.5 0.733333 0 0 0.766667 0 0.5 0.766667 0
          0 0.8 0 0.5 0.8 0 0 0.833333 0 0.5 0.833333 0
          0 0.866667 0 0.5 0.866667 0 0 0.9 0 0.5 0.9 0
          0 0.933333 0 0.5 0.933333 0 0 0.966667 0 0.5 0.966667 0
          0 1 0 0.5 1 0
        </DataArray>
      </Points>
      <Cells>
        <DataArray type="Int32" Name="connectivity" NumberOfComponents="1" format="ascii">
          0 1 3 2 2 3 5 4 4 5 7 6
          6 7 9 8 8 9 11 10 10 11 13 12
          12 13 15 14 14 15 17 16 16 17 19 18
          18 19 21 20 20 21 23 22 22 23 25 24
          24 25 27 26 26 27 29 28 28 29 31 30
          30 31 33 32 32 33 35 34 34 35 37 36
          36 37 39 38 38 39 41 40 40 41 43 42
          42 43 45 44 44 45 47 46 46 47 49 48
          48 49 51 50 50 51 53 52 52 53 55 54
          54 55 57 56 56 57 59 58 58 59 61 60
        </DataArray>
        <DataArray type="Int32" Name="offsets" NumberOfComponents="1" format="ascii">
          4 8 12 16 20 24 28 32 36 40 44 48
          52 56 60 64 68 72 76 80 84 88 92 96
          100 104 108 112 116 120
        </DataArray>
        <DataArray type="UInt8" Name="types" NumberOfComponents="1" format="ascii">
          9 9 9 9 9 9 9 9 9 9 9 9
          9 9 9 9 9 9 9 9 9 9 9 9
          9 9 9 9 9 9
        </DataArray>
      </Cells>
    </Piece>
  </UnstructuredGrid>
</VTKFile>
