<?xml version="1.0"?>
<VTKFile type="UnstructuredGrid" version="0.1" byte_order="LittleEndian">
  <UnstructuredGrid>
    <Piece NumberOfCells="30" NumberOfPoints="62">
      <CellData Scalars="Sg">
        <DataArray type="Float32" Name="Sg" NumberOfComponents="1" format="ascii">
          0 0 0 0 0 0 0 0 0 0 0 0
          0 0 0 0 0 0 0 0 0 0 0 0
          0 0 0 0 0 0
        </DataArray>
        <DataArray type="Float32" Name="Sl" NumberOfComponents="1" format="ascii">
          1 1 1 1 1 1 1 1 1 1 1 1
          1 1 1 1 1 1 1 1 1 1 1 1
          1 1 1 1 1 1
        </DataArray>
        <DataArray type="Float32" Name="pg" NumberOfComponents="1" format="ascii">
          24687.8 24360.9 24034 23707 23380.1 23053.1 22726.2 22399.3 22072.3 21745.4 21418.4 21091.5
          20764.6 20437.6 20110.7 19783.7 19456.8 19129.8 18802.9 18476 18149 17822.1 17495.1 17168.2
          16841.3 16514.3 16187.4 15860.4 15533.5 15209.7
        </DataArray>
        <DataArray type="Float32" Name="pl" NumberOfComponents="1" format="ascii">
          110628 110301 109974 109647 109320 108993 108666 108339 108012 107685 107358 107031
          106704 106377 106050 105723 105396 105070 104743 104416 104089 103762 103435 103108
          102781 102454 102127 101800 101473 101149
        </DataArray>
        <DataArray type="Float32" Name="pc" NumberOfComponents="1" format="ascii">
          -85939.7 -85939.7 -85939.7 -85939.7 -85939.7 -85939.7 -85939.7 -85939.7 -85939.7 -85939.7 -85939.7 -85939.7
          -85939.7 -85939.7 -85939.7 -85939.7 -85939.7 -85939.7 -85939.7 -85939.7 -85939.7 -85939.7 -85939.7 -85939.7
          -85939.7 -85939.7 -85939.7 -85939.7 -85939.7 -85939.7
        </DataArray>
        <DataArray type="Float32" Name="rhoL" NumberOfComponents="1" format="ascii">
          999.855 999.855 999.855 999.855 999.855 999.854 999.854 999.854 999.854 999.854 999.854 999.854
          999.853 999.853 999.853 999.853 999.853 999.853 999.852 999.852 999.852 999.852 999.852 999.852
          999.852 999.851 999.851 999.851 999.851 999.851
        </DataArray>
        <DataArray type="Float32" Name="rhoG" NumberOfComponents="1" format="ascii">
          0.30585 0.3018 0.29775 0.293699 0.289649 0.285598 0.281548 0.277498 0.273447 0.269397 0.265347 0.261296
          0.257246 0.253195 0.249145 0.245095 0.241044 0.236994 0.232944 0.228893 0.224843 0.220793 0.216742 0.212692
          0.208641 0.204591 0.200541 0.19649 0.19244 0.188428
        </DataArray>
        <DataArray type="Float32" Name="mobL" NumberOfComponents="1" format="ascii">
          722.171 722.17 722.17 722.17 722.17 722.17 722.169 722.169 722.169 722.169 722.169 722.169
          722.168 722.168 722.168 722.168 722.168 722.167 722.167 722.167 722.167 722.167 722.166 722.166
          722.166 722.166 722.166 722.166 722.165 722.165
        </DataArray>
        <DataArray type="Float32" Name="mobG" NumberOfComponents="1" format="ascii">
          0 0 0 0 0 0 0 0 0 0 0 0
          0 0 0 0 0 0 0 0 0 0 0 0
          0 0 0 0 0 0
        </DataArray>
        <DataArray type="Float32" Name="porosity" NumberOfComponents="1" format="ascii">
          0.29877 0.29877 0.29877 0.29877 0.29877 0.29877 0.29877 0.29877 0.29877 0.29877 0.29877 0.29877
          0.29877 0.29877 0.29877 0.29877 0.29877 0.298769 0.298768 0.298766 0.298762 0.298754 0.298738 0.29871
          0.298389 0.298294 0.298102 0.297617 0.29532 0.0444981
        </DataArray>
        <DataArray type="Float32" Name="temperature" NumberOfComponents="1" format="ascii">
          281.15 281.15 281.15 281.15 281.15 281.15 281.15 281.15 281.15 281.15 281.15 281.15
          281.15 281.15 281.15 281.15 281.15 281.15 281.15 281.15 281.15 281.15 281.15 281.15
          281.15 281.15 281.15 281.15 281.15 281.15
        </DataArray>
        <DataArray type="Float32" Name="phase presence" NumberOfComponents="1" format="ascii">
          1 1 1 1 1 1 1 1 1 1 1 1
          1 1 1 1 1 1 1 1 1 1 1 1
          1 1 1 1 1 1
        </DataArray>
        <DataArray type="Float32" Name="precipitateVolumeFraction_au" NumberOfComponents="1" format="ascii">
          5.52649e-10 5.52537e-10 5.52747e-10 5.5275e-10 5.52729e-10 5.52776e-10 5.52715e-10 5.52743e-10 5.52742e-10 5.52751e-10 5.52729e-10 5.52807e-10
          5.52734e-10 5.52746e-10 5.52789e-10 5.52743e-10 5.52727e-10 5.52735e-10 5.5276e-10 5.52744e-10 5.52752e-10 5.52713e-10 5.52922e-10 1.08578e-09
          0.000269941 0.000269924 0.0002699 0.000269852 5.52581e-10 5.51094e-10
        </DataArray>
        <DataArray type="Float32" Name="precipitateVolumeFraction_nanoAu" NumberOfComponents="1" format="ascii">
          1.2347e-13 1.23445e-13 1.23492e-13 1.23493e-13 1.23488e-13 1.23499e-13 1.23485e-13 1.23491e-13 1.23491e-13 1.23493e-13 1.23488e-13 1.23505e-13
          1.23489e-13 1.23492e-13 1.23501e-13 1.23491e-13 1.23487e-13 1.23489e-13 1.23495e-13 1.23491e-13 1.23493e-13 1.23492e-13 1.34759e-13 2.57321e-11
          6.03285e-08 7.66572e-08 1.02148e-07 1.45674e-07 4.75629e-13 4.73051e-13
        </DataArray>
        <DataArray type="Float32" Name="precipitateVolumeFraction_d" NumberOfComponents="1" format="ascii">
          0.000615037 0.000615037 0.000615037 0.000615038 0.000615038 0.000615038 0.000615039 0.000615039 0.000615039 0.00061504 0.000615041 0.000615043
          0.000615047 0.000615056 0.000615079 0.000615131 0.000615246 0.000615494 0.000616017 0.00061708 0.000619183 0.000623226 0.00063081 0.000644782
          0.000670346 0.000718133 0.000813899 0.00105648 0.00234013 0.127751
        </DataArray>
        <DataArray type="Float32" Name="precipitateVolumeFraction_p" NumberOfComponents="1" format="ascii">
          0.000615037 0.000615037 0.000615037 0.000615038 0.000615038 0.000615038 0.000615039 0.000615039 0.000615039 0.00061504 0.000615041 0.000615043
          0.000615047 0.000615056 0.000615079 0.000615131 0.000615246 0.000615494 0.000616017 0.00061708 0.000619183 0.000623226 0.00063081 0.000644782
          0.000670346 0.000718133 0.000813899 0.00105648 0.00234013 0.127751
        </DataArray>
        <DataArray type="Float32" Name="K" NumberOfComponents="1" format="ascii">
          9.84287e-11 9.84287e-11 9.84287e-11 9.84287e-11 9.84287e-11 9.84287e-11 9.84287e-11 9.84287e-11 9.84287e-11 9.84287e-11 9.84287e-11 9.84287e-11
          9.84287e-11 9.84287e-11 9.84286e-11 9.84285e-11 9.84282e-11 9.84276e-11 9.84262e-11 9.84235e-11 9.84182e-11 9.84079e-11 9.83887e-11 9.83533e-11
          9.79467e-11 9.78259e-11 9.75843e-11 9.69745e-11 9.41295e-11 1.75143e-13
        </DataArray>
        <DataArray type="Float32" Name="X^w_H2O" NumberOfComponents="1" format="ascii">
          0.999853 0.999853 0.999853 0.999853 0.999853 0.999853 0.999853 0.999853 0.999853 0.999853 0.999853 0.999853
          0.999853 0.999853 0.999853 0.999853 0.999853 0.999853 0.999853 0.999853 0.999853 0.999853 0.999853 0.999853
          0.999853 0.999852 0.99985 0.999846 0.999839 0.999839
        </DataArray>
        <DataArray type="Float32" Name="X^w_Air" NumberOfComponents="1" format="ascii">
          0 0 0 0 0 0 0 0 0 0 0 0
          0 0 0 0 0 0 0 0 0 0 0 0
          0 0 0 0 0 0
        </DataArray>
        <DataArray type="Float32" Name="X^w_AuComplex" NumberOfComponents="1" format="ascii">
          1.40721e-16 1.40692e-16 1.40746e-16 1.40746e-16 1.40741e-16 1.40753e-16 1.40738e-16 1.40745e-16 1.40744e-16 1.40747e-16 1.40741e-16 1.40761e-16
          1.40742e-16 1.40745e-16 1.40756e-16 1.40744e-16 1.4074e-16 1.40742e-16 1.40749e-16 1.40745e-16 1.40747e-16 1.40745e-16 1.53509e-16 2.93172e-14
          6.87631e-11 1.073e-10 1.84409e-10 3.64521e-10 1.84543e-15 1.83251e-15
        </DataArray>
        <DataArray type="Float32" Name="X^w_nanoAu" NumberOfComponents="1" format="ascii">
          3.38587e-19 3.38519e-19 3.38647e-19 3.38649e-19 3.38636e-19 3.38664e-19 3.38627e-19 3.38644e-19 3.38644e-19 3.38649e-19 3.38636e-19 3.38683e-19
          3.38639e-19 3.38646e-19 3.38672e-19 3.38643e-19 3.38634e-19 3.38638e-19 3.38654e-19 3.38646e-19 3.39032e-19 3.94777e-19 8.56393e-18 1.20116e-15
          1.65745e-13 2.10697e-13 2.80916e-13 3.96753e-13 1.30409e-18 1.2866e-18
        </DataArray>
        <DataArray type="Float32" Name="X^w_cyanide" NumberOfComponents="1" format="ascii">
          5.06384e-06 5.06384e-06 5.06384e-06 5.06384e-06 5.06384e-06 5.06384e-06 5.06384e-06 5.06384e-06 5.06384e-06 5.06384e-06 5.06384e-06 5.06384e-06
          5.06384e-06 5.06384e-06 5.06384e-06 5.06384e-06 5.06384e-06 5.06384e-06 5.06385e-06 5.06385e-06 5.06385e-06 5.06385e-06 5.06385e-06 5.06385e-06
          5.06434e-06 6.43458e-06 8.57269e-06 1.22471e-05 1.95098e-05 1.94842e-05
        </DataArray>
        <DataArray type="Float32" Name="X^w_citrate" NumberOfComponents="1" format="ascii">
          0.000141796 0.000141796 0.000141796 0.000141796 0.000141796 0.000141796 0.000141796 0.000141796 0.000141796 0.000141796 0.000141796 0.000141796
          0.000141796 0.000141796 0.000141796 0.000141796 0.000141796 0.000141796 0.000141796 0.000141796 0.000141796 0.000141796 0.000141796 0.000141796
          0.000141796 0.000141797 0.000141798 0.000141798 0.000141787 0.000141601
        </DataArray>
        <DataArray type="Float32" Name="X^w_substrate" NumberOfComponents="1" format="ascii">
          2.78271e-27 1.23947e-26 5.52044e-26 2.45853e-25 1.09483e-24 4.87505e-24 2.1706e-23 9.66377e-23 4.30209e-22 1.91504e-21 8.52401e-21 3.79381e-20
          1.68839e-19 7.51347e-19 3.34332e-18 1.48763e-17 6.61919e-17 2.9454e-16 1.31094e-15 5.83816e-15 2.60324e-14 1.16376e-13 5.22846e-13 2.37103e-12
          1.09369e-11 5.2011e-11 2.61239e-10 1.45212e-09 1.00428e-08 1.41523e-07
        </DataArray>
        <DataArray type="Float32" Name="m^w_H2O" NumberOfComponents="1" format="ascii">
          55492.6 55492.6 55492.5 55492.5 55492.5 55492.5 55492.5 55492.5 55492.5 55492.5 55492.5 55492.5
          55492.5 55492.4 55492.4 55492.4 55492.4 55492.4 55492.4 55492.4 55492.4 55492.4 55492.4 55492.4
          55492.3 55492.3 55492.1 55491.9 55491.5 55491.5
        </DataArray>
        <DataArray type="Float32" Name="m^w_Air" NumberOfComponents="1" format="ascii">
          0 0 0 0 0 0 0 0 0 0 0 0
          0 0 0 0 0 0 0 0 0 0 0 0
          0 0 0 0 0 0
        </DataArray>
        <DataArray type="Float32" Name="m^w_AuComplex" NumberOfComponents="1" format="ascii">
          7.14325e-13 7.14179e-13 7.14451e-13 7.14454e-13 7.14427e-13 7.14487e-13 7.14408e-13 7.14444e-13 7.14443e-13 7.14454e-13 7.14426e-13 7.14526e-13
          7.14432e-13 7.14447e-13 7.14503e-13 7.14443e-13 7.14422e-13 7.14432e-13 7.14464e-13 7.14443e-13 7.14454e-13 7.14445e-13 7.79238e-13 1.48819e-10
          3.49052e-07 5.4467e-07 9.36092e-07 1.85037e-06 9.3677e-12 9.30213e-12
        </DataArray>
        <DataArray type="Float32" Name="m^w_nanoAu" NumberOfComponents="1" format="ascii">
          1.71873e-15 1.71839e-15 1.71903e-15 1.71904e-15 1.71898e-15 1.71912e-15 1.71893e-15 1.71902e-15 1.71901e-15 1.71904e-15 1.71897e-15 1.71921e-15
          1.71899e-15 1.71902e-15 1.71916e-15 1.71901e-15 1.71896e-15 1.71899e-15 1.71906e-15 1.71902e-15 1.72098e-15 2.00395e-15 4.34719e-14 6.09727e-12
          8.41349e-10 1.06953e-09 1.42597e-09 2.01398e-09 6.61978e-15 6.53098e-15
        </DataArray>
        <DataArray type="Float32" Name="m^w_cyanide" NumberOfComponents="1" format="ascii">
          0.194585 0.194585 0.194585 0.194585 0.194585 0.194585 0.194585 0.194585 0.194585 0.194585 0.194585 0.194585
          0.194585 0.194585 0.194585 0.194585 0.194585 0.194585 0.194585 0.194585 0.194585 0.194585 0.194585 0.194585
          0.194604 0.247257 0.329416 0.470609 0.749689 0.748704
        </DataArray>
        <DataArray type="Float32" Name="m^w_citrate" NumberOfComponents="1" format="ascii">
          0.749742 0.749742 0.749742 0.749742 0.749742 0.749742 0.749742 0.749741 0.749741 0.749741 0.749741 0.749741
          0.749741 0.749741 0.749741 0.749741 0.74974 0.74974 0.74974 0.74974 0.74974 0.74974 0.74974 0.74974
          0.749739 0.749744 0.749749 0.749747 0.749692 0.748706
        </DataArray>
        <DataArray type="Float32" Name="m^w_substrate" NumberOfComponents="1" format="ascii">
          1.54435e-23 6.87886e-23 3.06374e-22 1.36444e-21 6.07608e-21 2.70556e-20 1.20464e-19 5.36321e-19 2.38758e-18 1.06281e-17 4.73066e-17 2.10549e-16
          9.37026e-16 4.16983e-15 1.85548e-14 8.25605e-14 3.67352e-13 1.63464e-12 7.27548e-12 3.24006e-11 1.44475e-10 6.45865e-10 2.90169e-09 1.31587e-08
          6.06978e-08 2.8865e-07 1.44982e-06 8.05899e-06 5.57356e-05 0.000785422
        </DataArray>
        <DataArray type="Float32" Name="process rank" NumberOfComponents="1" format="ascii">
          0 0 0 0 0 0 0 0 0 0 0 0
          0 0 0 0 0 0 0 0 0 0 0 0
          0 0 0 0 0 0
        </DataArray>
      </CellData>
      <Points>
        <DataArray type="Float32" Name="Coordinates" NumberOfComponents="3" format="ascii">
          0 0 0 0.5 0 0 0 0.0333333 0 0.5 0.0333333 0
          0 0.0666667 0 0.5 0.0666667 0 0 0.1 0 0.5 0.1 0
          0 0.133333 0 0.5 0.133333 0 0 0.166667 0 0.5 0.166667 0
          0 0.2 0 0.5 0.2 0 0 0.233333 0 0.5 0.233333 0
          0 0.266667 0 0.5 0.266667 0 0 0.3 0 0.5 0.3 0
          0 0.333333 0 0.5 0.333333 0 0 0.366667 0 0.5 0.366667 0
          0 0.4 0 0.5 0.4 0 0 0.433333 0 0.5 0.433333 0
          0 0.466667 0 0.5 0.466667 0 0 0.5 0 0.5 0.5 0
          0 0.533333 0 0.5 0.533333 0 0 0.566667 0 0.5 0.566667 0
          0 0.6 0 0.5 0.6 0 0 0.633333 0 0.5 0.633333 0
          0 0.666667 0 0.5 0.666667 0 0 0.7 0 0.5 0.7 0
          0 0.733333 0 0.5 0.733333 0 0 0.766667 0 0.5 0.766667 0
          0 0.8 0 0.5 0.8 0 0 0.833333 0 0.5 0.833333 0
          0 0.866667 0 0.5 0.866667 0 0 0.9 0 0.5 0.9 0
          0 0.933333 0 0.5 0.933333 0 0 0.966667 0 0.5 0.966667 0
          0 1 0 0.5 1 0
        </DataArray>
      </Points>
      <Cells>
        <DataArray type="Int32" Name="connectivity" NumberOfComponents="1" format="ascii">
          0 1 3 2 2 3 5 4 4 5 7 6
          6 7 9 8 8 9 11 10 10 11 13 12
          12 13 15 14 14 15 17 16 16 17 19 18
          18 19 21 20 20 21 23 22 22 23 25 24
          24 25 27 26 26 27 29 28 28 29 31 30
          30 31 33 32 32 33 35 34 34 35 37 36
          36 37 39 38 38 39 41 40 40 41 43 42
          42 43 45 44 44 45 47 46 46 47 49 48
          48 49 51 50 50 51 53 52 52 53 55 54
          54 55 57 56 56 57 59 58 58 59 61 60
        </DataArray>
        <DataArray type="Int32" Name="offsets" NumberOfComponents="1" format="ascii">
          4 8 12 16 20 24 28 32 36 40 44 48
          52 56 60 64 68 72 76 80 84 88 92 96
          100 104 108 112 116 120
        </DataArray>
        <DataArray type="UInt8" Name="types" NumberOfComponents="1" format="ascii">
          9 9 9 9 9 9 9 9 9 9 9 9
          9 9 9 9 9 9 9 9 9 9 9 9
          9 9 9 9 9 9
        </DataArray>
      </Cells>
    </Piece>
  </UnstructuredGrid>
</VTKFile>
