<?xml version="1.0"?>
<VTKFile type="UnstructuredGrid" version="0.1" byte_order="LittleEndian">
  <UnstructuredGrid>
    <Piece NumberOfCells="30" NumberOfPoints="62">
      <CellData Scalars="Sg">
        <DataArray type="Float32" Name="Sg" NumberOfComponents="1" format="ascii">
          0 0 0 0 0 0 0 0 0 0 0 0
          0 0 0 0 0 0 0 0 0 0 0 0
          0 0 0 0 0 0
        </DataArray>
        <DataArray type="Float32" Name="Sl" NumberOfComponents="1" format="ascii">
          1 1 1 1 1 1 1 1 1 1 1 1
          1 1 1 1 1 1 1 1 1 1 1 1
          1 1 1 1 1 1
        </DataArray>
        <DataArray type="Float32" Name="pg" NumberOfComponents="1" format="ascii">
          24687.8 24360.9 24034 23707 23380.1 23053.1 22726.2 22399.3 22072.3 21745.4 21418.4 21091.5
          20764.6 20437.6 20110.7 19783.7 19456.8 19129.8 18802.9 18476 18149 17822.1 17495.1 17168.2
          16841.3 16514.3 16187.4 15860.4 15533.5 15209.4
        </DataArray>
        <DataArray type="Float32" Name="pl" NumberOfComponents="1" format="ascii">
          110628 110301 109974 109647 109320 108993 108666 108339 108012 107685 107358 107031
          106704 106377 106050 105723 105396 105070 104743 104416 104089 103762 103435 103108
          102781 102454 102127 101800 101473 101149
        </DataArray>
        <DataArray type="Float32" Name="pc" NumberOfComponents="1" format="ascii">
          -85939.7 -85939.7 -85939.7 -85939.7 -85939.7 -85939.7 -85939.7 -85939.7 -85939.7 -85939.7 -85939.7 -85939.7
          -85939.7 -85939.7 -85939.7 -85939.7 -85939.7 -85939.7 -85939.7 -85939.7 -85939.7 -85939.7 -85939.7 -85939.7
          -85939.7 -85939.7 -85939.7 -85939.7 -85939.7 -85939.7
        </DataArray>
        <DataArray type="Float32" Name="rhoL" NumberOfComponents="1" format="ascii">
          999.855 999.855 999.855 999.855 999.855 999.854 999.854 999.854 999.854 999.854 999.854 999.854
          999.853 999.853 999.853 999.853 999.853 999.853 999.852 999.852 999.852 999.852 999.852 999.852
          999.852 999.851 999.851 999.851 999.851 999.851
        </DataArray>
        <DataArray type="Float32" Name="rhoG" NumberOfComponents="1" format="ascii">
          0.30585 0.3018 0.29775 0.293699 0.289649 0.285598 0.281548 0.277498 0.273447 0.269397 0.265347 0.261296
          0.257246 0.253195 0.249145 0.245095 0.241044 0.236994 0.232944 0.228893 0.224843 0.220793 0.216742 0.212692
          0.208641 0.204591 0.200541 0.19649 0.19244 0.188424
        </DataArray>
        <DataArray type="Float32" Name="mobL" NumberOfComponents="1" format="ascii">
          722.171 722.17 722.17 722.17 722.17 722.17 722.169 722.169 722.169 722.169 722.169 722.169
          722.168 722.168 722.168 722.168 722.168 722.167 722.167 722.167 722.167 722.167 722.166 722.166
          722.166 722.166 722.166 722.166 722.165 722.165
        </DataArray>
        <DataArray type="Float32" Name="mobG" NumberOfComponents="1" format="ascii">
          0 0 0 0 0 0 0 0 0 0 0 0
          0 0 0 0 0 0 0 0 0 0 0 0
          0 0 0 0 0 0
        </DataArray>
        <DataArray type="Float32" Name="porosity" NumberOfComponents="1" format="ascii">
          0.298736 0.298736 0.298736 0.298736 0.298736 0.298736 0.298736 0.298736 0.298736 0.298736 0.298736 0.298736
          0.298736 0.298736 0.298735 0.298735 0.298735 0.298735 0.298734 0.298731 0.298727 0.298719 0.298703 0.298674
          0.298352 0.298253 0.298057 0.297564 0.295292 0.0461861
        </DataArray>
        <DataArray type="Float32" Name="temperature" NumberOfComponents="1" format="ascii">
          281.15 281.15 281.15 281.15 281.15 281.15 281.15 281.15 281.15 281.15 281.15 281.15
          281.15 281.15 281.15 281.15 281.15 281.15 281.15 281.15 281.15 281.15 281.15 281.15
          281.15 281.15 281.15 281.15 281.15 281.15
        </DataArray>
        <DataArray type="Float32" Name="phase presence" NumberOfComponents="1" format="ascii">
          1 1 1 1 1 1 1 1 1 1 1 1
          1 1 1 1 1 1 1 1 1 1 1 1
          1 1 1 1 1 1
        </DataArray>
        <DataArray type="Float32" Name="precipitateVolumeFraction_au" NumberOfComponents="1" format="ascii">
          5.52649e-10 5.52537e-10 5.52747e-10 5.5275e-10 5.52729e-10 5.52776e-10 5.52715e-10 5.52743e-10 5.52742e-10 5.52751e-10 5.52729e-10 5.52807e-10
          5.52734e-10 5.52746e-10 5.52789e-10 5.52743e-10 5.52727e-10 5.52735e-10 5.5276e-10 5.52744e-10 5.52752e-10 5.52713e-10 5.52893e-10 1.01971e-09
          0.00026994 0.000269924 0.0002699 0.000269852 5.52581e-10 5.51096e-10
        </DataArray>
        <DataArray type="Float32" Name="precipitateVolumeFraction_nanoAu" NumberOfComponents="1" format="ascii">
          1.23482e-13 1.23456e-13 1.23503e-13 1.23504e-13 1.23499e-13 1.23509e-13 1.23496e-13 1.23502e-13 1.23502e-13 1.23503e-13 1.23499e-13 1.23516e-13
          1.23499e-13 1.23502e-13 1.23511e-13 1.23501e-13 1.23497e-13 1.23499e-13 1.23505e-13 1.23501e-13 1.23503e-13 1.23501e-13 1.3476e-13 2.57222e-11
          6.03315e-08 7.66605e-08 1.02152e-07 1.45677e-07 4.75632e-13 4.7305e-13
        </DataArray>
        <DataArray type="Float32" Name="precipitateVolumeFraction_d" NumberOfComponents="1" format="ascii">
          0.000632207 0.000632207 0.000632208 0.000632208 0.000632208 0.000632209 0.000632209 0.000632209 0.00063221 0.00063221 0.000632211 0.000632213
          0.000632217 0.000632227 0.000632251 0.000632304 0.000632422 0.000632678 0.000633216 0.000634311 0.000636476 0.000640638 0.000648447 0.000662831
          0.000689141 0.000738285 0.000836503 0.00108319 0.0023542 0.126907
        </DataArray>
        <DataArray type="Float32" Name="precipitateVolumeFraction_p" NumberOfComponents="1" format="ascii">
          0.000632207 0.000632207 0.000632208 0.000632208 0.000632208 0.000632209 0.000632209 0.000632209 0.00063221 0.00063221 0.000632211 0.000632213
          0.000632217 0.000632227 0.000632251 0.000632304 0.000632422 0.000632678 0.000633216 0.000634311 0.000636476 0.000640638 0.000648447 0.000662831
          0.000689141 0.000738285 0.000836503 0.00108319 0.0023542 0.126907
        </DataArray>
        <DataArray type="Float32" Name="K" NumberOfComponents="1" format="ascii">
          9.83852e-11 9.83852e-11 9.83852e-11 9.83852e-11 9.83852e-11 9.83852e-11 9.83852e-11 9.83852e-11 9.83852e-11 9.83851e-11 9.83851e-11 9.83851e-11
          9.83851e-11 9.83851e-11 9.83851e-11 9.83849e-11 9.83846e-11 9.8384e-11 9.83826e-11 9.83798e-11 9.83743e-11 9.83638e-11 9.8344e-11 9.83075e-11
          9.78992e-11 9.77751e-11 9.75274e-11 9.69076e-11 9.4095e-11 1.96535e-13
        </DataArray>
        <DataArray type="Float32" Name="X^w_H2O" NumberOfComponents="1" format="ascii">
          0.999853 0.999853 0.999853 0.999853 0.999853 0.999853 0.999853 0.999853 0.999853 0.999853 0.999853 0.999853
          0.999853 0.999853 0.999853 0.999853 0.999853 0.999853 0.999853 0.999853 0.999853 0.999853 0.999853 0.999853
          0.999853 0.999852 0.99985 0.999846 0.999839 0.999839
        </DataArray>
        <DataArray type="Float32" Name="X^w_Air" NumberOfComponents="1" format="ascii">
          0 0 0 0 0 0 0 0 0 0 0 0
          0 0 0 0 0 0 0 0 0 0 0 0
          0 0 0 0 0 0
        </DataArray>
        <DataArray type="Float32" Name="X^w_AuComplex" NumberOfComponents="1" format="ascii">
          1.40738e-16 1.40709e-16 1.40763e-16 1.40764e-16 1.40758e-16 1.4077e-16 1.40754e-16 1.40761e-16 1.40761e-16 1.40763e-16 1.40757e-16 1.40777e-16
          1.40758e-16 1.40761e-16 1.40772e-16 1.4076e-16 1.40756e-16 1.40757e-16 1.40764e-16 1.40759e-16 1.40762e-16 1.4076e-16 1.53514e-16 2.93066e-14
          6.87684e-11 1.07307e-10 1.8442e-10 3.64535e-10 1.84544e-15 1.8325e-15
        </DataArray>
        <DataArray type="Float32" Name="X^w_nanoAu" NumberOfComponents="1" format="ascii">
          3.38617e-19 3.38549e-19 3.38678e-19 3.38679e-19 3.38666e-19 3.38694e-19 3.38657e-19 3.38673e-19 3.38673e-19 3.38678e-19 3.38665e-19 3.38711e-19
          3.38667e-19 3.38674e-19 3.387e-19 3.38671e-19 3.38661e-19 3.38666e-19 3.38681e-19 3.38673e-19 3.39059e-19 3.94814e-19 8.56511e-18 1.20126e-15
          1.65753e-13 2.10706e-13 2.80925e-13 3.96761e-13 1.3041e-18 1.28658e-18
        </DataArray>
        <DataArray type="Float32" Name="X^w_cyanide" NumberOfComponents="1" format="ascii">
          5.06408e-06 5.06408e-06 5.06407e-06 5.06407e-06 5.06407e-06 5.06407e-06 5.06407e-06 5.06406e-06 5.06406e-06 5.06406e-06 5.06406e-06 5.06406e-06
          5.06405e-06 5.06405e-06 5.06405e-06 5.06405e-06 5.06405e-06 5.06404e-06 5.06404e-06 5.06404e-06 5.06404e-06 5.06404e-06 5.06404e-06 5.06403e-06
          5.06452e-06 6.43479e-06 8.5729e-06 1.22473e-05 1.95098e-05 1.9484e-05
        </DataArray>
        <DataArray type="Float32" Name="X^w_citrate" NumberOfComponents="1" format="ascii">
          0.000141796 0.000141796 0.000141796 0.000141796 0.000141796 0.000141796 0.000141796 0.000141796 0.000141796 0.000141796 0.000141796 0.000141796
          0.000141796 0.000141796 0.000141796 0.000141796 0.000141796 0.000141796 0.000141796 0.000141796 0.000141796 0.000141796 0.000141796 0.000141796
          0.000141796 0.000141797 0.000141798 0.000141798 0.000141787 0.000141599
        </DataArray>
        <DataArray type="Float32" Name="X^w_substrate" NumberOfComponents="1" format="ascii">
          1.52893e-27 6.95685e-27 3.16521e-26 1.43999e-25 6.55064e-25 2.97971e-24 1.35528e-23 6.16388e-23 2.80313e-22 1.27468e-21 5.79594e-21 2.6352e-20
          1.19804e-19 5.44626e-19 2.47569e-18 1.12531e-17 5.11499e-17 2.32513e-16 1.05719e-15 4.80961e-15 2.19089e-14 1.00058e-13 4.59261e-13 2.12791e-12
          1.00299e-11 4.87504e-11 2.50348e-10 1.42319e-09 1.00549e-08 1.42476e-07
        </DataArray>
        <DataArray type="Float32" Name="m^w_H2O" NumberOfComponents="1" format="ascii">
          55492.6 55492.6 55492.5 55492.5 55492.5 55492.5 55492.5 55492.5 55492.5 55492.5 55492.5 55492.5
          55492.5 55492.4 55492.4 55492.4 55492.4 55492.4 55492.4 55492.4 55492.4 55492.4 55492.4 55492.4
          55492.3 55492.3 55492.1 55491.9 55491.5 55491.5
        </DataArray>
        <DataArray type="Float32" Name="m^w_Air" NumberOfComponents="1" format="ascii">
          0 0 0 0 0 0 0 0 0 0 0 0
          0 0 0 0 0 0 0 0 0 0 0 0
          0 0 0 0 0 0
        </DataArray>
        <DataArray type="Float32" Name="m^w_AuComplex" NumberOfComponents="1" format="ascii">
          7.14413e-13 7.14266e-13 7.14539e-13 7.14541e-13 7.14513e-13 7.14572e-13 7.14493e-13 7.14528e-13 7.14526e-13 7.14536e-13 7.14508e-13 7.14607e-13
          7.14512e-13 7.14526e-13 7.14581e-13 7.14521e-13 7.14499e-13 7.14508e-13 7.1454e-13 7.14518e-13 7.14529e-13 7.14519e-13 7.79262e-13 1.48765e-10
          3.49079e-07 5.44708e-07 9.36144e-07 1.85044e-06 9.36776e-12 9.30203e-12
        </DataArray>
        <DataArray type="Float32" Name="m^w_nanoAu" NumberOfComponents="1" format="ascii">
          1.71888e-15 1.71854e-15 1.71919e-15 1.71919e-15 1.71913e-15 1.71927e-15 1.71908e-15 1.71917e-15 1.71916e-15 1.71919e-15 1.71912e-15 1.71936e-15
          1.71913e-15 1.71917e-15 1.7193e-15 1.71915e-15 1.7191e-15 1.71912e-15 1.7192e-15 1.71916e-15 1.72112e-15 2.00414e-15 4.34779e-14 6.09777e-12
          8.4139e-10 1.06958e-09 1.42602e-09 2.01402e-09 6.61982e-15 6.5309e-15
        </DataArray>
        <DataArray type="Float32" Name="m^w_cyanide" NumberOfComponents="1" format="ascii">
          0.194594 0.194594 0.194594 0.194594 0.194594 0.194594 0.194594 0.194594 0.194593 0.194593 0.194593 0.194593
          0.194593 0.194593 0.194593 0.194593 0.194593 0.194593 0.194592 0.194592 0.194592 0.194592 0.194592 0.194592
          0.194611 0.247265 0.329425 0.470616 0.749689 0.748697
        </DataArray>
        <DataArray type="Float32" Name="m^w_citrate" NumberOfComponents="1" format="ascii">
          0.749742 0.749742 0.749742 0.749742 0.749742 0.749742 0.749742 0.749741 0.749741 0.749741 0.749741 0.749741
          0.749741 0.749741 0.749741 0.749741 0.74974 0.74974 0.74974 0.74974 0.74974 0.74974 0.74974 0.74974
          0.749739 0.749744 0.749749 0.749747 0.749692 0.748699
        </DataArray>
        <DataArray type="Float32" Name="m^w_substrate" NumberOfComponents="1" format="ascii">
          8.48531e-24 3.86092e-23 1.75663e-22 7.99169e-22 3.63548e-21 1.65368e-20 7.52157e-20 3.42084e-19 1.55569e-18 7.07422e-18 3.21664e-17 1.46249e-16
          6.6489e-16 3.02257e-15 1.37396e-14 6.24527e-14 2.83872e-13 1.2904e-12 5.86717e-12 2.66924e-11 1.2159e-10 5.55301e-10 2.54881e-09 1.18095e-08
          5.56641e-08 2.70555e-07 1.38938e-06 7.8984e-06 5.58028e-05 0.000790712
        </DataArray>
        <DataArray type="Float32" Name="process rank" NumberOfComponents="1" format="ascii">
          0 0 0 0 0 0 0 0 0 0 0 0
          0 0 0 0 0 0 0 0 0 0 0 0
          0 0 0 0 0 0
        </DataArray>
      </CellData>
      <Points>
        <DataArray type="Float32" Name="Coordinates" NumberOfComponents="3" format="ascii">
          0 0 0 0.5 0 0 0 0.0333333 0 0.5 0.0333333 0
          0 0.0666667 0 0.5 0.0666667 0 0 0.1 0 0.5 0.1 0
          0 0.133333 0 0.5 0.133333 0 0 0.166667 0 0.5 0.166667 0
          0 0.2 0 0.5 0.2 0 0 0.233333 0 0.5 0.233333 0
          0 0.266667 0 0.5 0.266667 0 0 0.3 0 0.5 0.3 0
          0 0.333333 0 0.5 0.333333 0 0 0.366667 0 0.5 0.366667 0
          0 0.4 0 0.5 0.4 0 0 0.433333 0 0.5 0.433333 0
          0 0.466667 0 0.5 0.466667 0 0 0.5 0 0.5 0.5 0
          0 0.533333 0 0.5 0.533333 0 0 0.566667 0 0.5 0.566667 0
          0 0.6 0 0.5 0.6 0 0 0.633333 0 0.5 0.633333 0
          0 0.666667 0 0.5 0.666667 0 0 0.7 0 0.5 0.7 0
          0 0.733333 0 0.5 0.733333 0 0 0.766667 0 0.5 0.766667 0
          0 0.8 0 0.5 0.8 0 0 0.833333 0 0.5 0.833333 0
          0 0.866667 0 0.5 0.866667 0 0 0.9 0 0.5 0.9 0
          0 0.933333 0 0.5 0.933333 0 0 0.966667 0 0.5 0.966667 0
          0 1 0 0.5 1 0
        </DataArray>
      </Points>
      <Cells>
        <DataArray type="Int32" Name="connectivity" NumberOfComponents="1" format="ascii">
          0 1 3 2 2 3 5 4 4 5 7 6
          6 7 9 8 8 9 11 10 10 11 13 12
          12 13 15 14 14 15 17 16 16 17 19 18
          18 19 21 20 20 21 23 22 22 23 25 24
          24 25 27 26 26 27 29 28 28 29 31 30
          30 31 33 32 32 33 35 34 34 35 37 36
          36 37 39 38 38 39 41 40 40 41 43 42
          42 43 45 44 44 45 47 46 46 47 49 48
          48 49 51 50 50 51 53 52 52 53 55 54
          54 55 57 56 56 57 59 58 58 59 61 60
        </DataArray>
        <DataArray type="Int32" Name="offsets" NumberOfComponents="1" format="ascii">
          4 8 12 16 20 24 28 32 36 40 44 48
          52 56 60 64 68 72 76 80 84 88 92 96
          100 104 108 112 116 120
        </DataArray>
        <DataArray type="UInt8" Name="types" NumberOfComponents="1" format="ascii">
          9 9 9 9 9 9 9 9 9 9 9 9
          9 9 9 9 9 9 9 9 9 9 9 9
          9 9 9 9 9 9
        </DataArray>
      </Cells>
    </Piece>
  </UnstructuredGrid>
</VTKFile>
