<?xml version="1.0"?>
<VTKFile type="UnstructuredGrid" version="0.1" byte_order="LittleEndian">
  <UnstructuredGrid>
    <Piece NumberOfCells="30" NumberOfPoints="62">
      <CellData Scalars="Sg">
        <DataArray type="Float32" Name="Sg" NumberOfComponents="1" format="ascii">
          0.0928528 0.0928218 0.0927906 0.0927591 0.0927273 0.0926951 0.0926621 0.0926261 0.0925778 0.0924764 0.0921425 0.0907936
          0.0850957 0.0620759 0 0 0 0 0 0 0 0 0 0
          0 0 0 0 0 0
        </DataArray>
        <DataArray type="Float32" Name="Sl" NumberOfComponents="1" format="ascii">
          0.907147 0.907178 0.907209 0.907241 0.907273 0.907305 0.907338 0.907374 0.907422 0.907524 0.907857 0.909206
          0.914904 0.937924 1 1 1 1 1 1 1 1 1 1
          1 1 1 1 1 1
        </DataArray>
        <DataArray type="Float32" Name="pg" NumberOfComponents="1" format="ascii">
          51287 50951.2 50615.3 50279.3 49943.3 49607.1 49270.7 48933.4 48592.7 48236.7 47814.1 47100.7
          45141.6 38220.2 20110.7 19783.7 19456.8 19129.8 18802.9 18476 18149 17822.1 17495.1 17168.2
          16841.3 16514.3 16187.4 15860.4 15533.5 15206.6
        </DataArray>
        <DataArray type="Float32" Name="pl" NumberOfComponents="1" format="ascii">
          110628 110301 109974 109647 109320 108993 108666 108339 108012 107685 107358 107031
          106704 106377 106050 105723 105396 105070 104743 104416 104089 103762 103435 103108
          102781 102454 102127 101800 101473 101146
        </DataArray>
        <DataArray type="Float32" Name="pc" NumberOfComponents="1" format="ascii">
          -59340.6 -59349.4 -59358.4 -59367.4 -59376.5 -59385.7 -59395.2 -59405.5 -59419.3 -59448.4 -59544 -59930.4
          -61562.7 -68157.1 -85939.7 -85939.7 -85939.7 -85939.7 -85939.7 -85939.7 -85939.7 -85939.7 -85939.7 -85939.7
          -85939.7 -85939.7 -85939.7 -85939.7 -85939.7 -85939.7
        </DataArray>
        <DataArray type="Float32" Name="rhoL" NumberOfComponents="1" format="ascii">
          999.855 999.855 999.855 999.855 999.855 999.854 999.854 999.854 999.854 999.854 999.854 999.854
          999.853 999.853 999.853 999.853 999.853 999.853 999.852 999.852 999.852 999.852 999.852 999.852
          999.852 999.851 999.851 999.851 999.851 999.851
        </DataArray>
        <DataArray type="Float32" Name="rhoG" NumberOfComponents="1" format="ascii">
          0.635379 0.631219 0.627058 0.622895 0.618732 0.614568 0.6104 0.606222 0.602 0.59759 0.592355 0.583517
          0.559245 0.473499 0.249145 0.245095 0.241044 0.236994 0.232944 0.228893 0.224843 0.220793 0.216742 0.212692
          0.208641 0.204591 0.200541 0.19649 0.19244 0.18839
        </DataArray>
        <DataArray type="Float32" Name="mobL" NumberOfComponents="1" format="ascii">
          722.171 722.17 722.17 722.17 722.17 722.17 722.169 722.169 722.169 722.169 722.169 722.169
          722.168 722.168 722.168 722.168 722.168 722.167 722.167 722.167 722.167 722.167 722.166 722.166
          722.166 722.166 722.166 722.166 722.165 722.165
        </DataArray>
        <DataArray type="Float32" Name="mobG" NumberOfComponents="1" format="ascii">
          0 0 0 0 0 0 0 0 0 0 0 0
          0 0 0 0 0 0 0 0 0 0 0 0
          0 0 0 0 0 0
        </DataArray>
        <DataArray type="Float32" Name="porosity" NumberOfComponents="1" format="ascii">
          0.298507 0.298507 0.298507 0.298507 0.298507 0.298507 0.298507 0.298507 0.298507 0.298507 0.298507 0.298507
          0.298507 0.298507 0.298507 0.298507 0.298506 0.298506 0.298505 0.298502 0.298497 0.298487 0.298468 0.298434
          0.298101 0.297985 0.297756 0.297218 0.295296 0.19663
        </DataArray>
        <DataArray type="Float32" Name="temperature" NumberOfComponents="1" format="ascii">
          281.15 281.15 281.15 281.15 281.15 281.15 281.15 281.15 281.15 281.15 281.15 281.15
          281.15 281.15 281.15 281.15 281.15 281.15 281.15 281.15 281.15 281.15 281.15 281.15
          281.15 281.15 281.15 281.15 281.15 281.15
        </DataArray>
        <DataArray type="Float32" Name="phase presence" NumberOfComponents="1" format="ascii">
          3 3 3 3 3 3 3 3 3 3 3 3
          3 3 1 1 1 1 1 1 1 1 1 1
          1 1 1 1 1 1
        </DataArray>
        <DataArray type="Float32" Name="precipitateVolumeFraction_au" NumberOfComponents="1" format="ascii">
          5.33282e-10 5.3328e-10 5.3328e-10 5.33282e-10 5.33283e-10 5.33284e-10 5.33284e-10 5.33286e-10 5.33286e-10 5.33287e-10 5.33288e-10 5.33289e-10
          5.3329e-10 5.3329e-10 5.33292e-10 5.33289e-10 5.33284e-10 5.33286e-10 5.33299e-10 5.3329e-10 5.33297e-10 5.33268e-10 5.33276e-10 6.01811e-10
          0.000269939 0.000269923 0.000269898 0.000269856 5.33177e-10 5.31845e-10
        </DataArray>
        <DataArray type="Float32" Name="precipitateVolumeFraction_nanoAu" NumberOfComponents="1" format="ascii">
          1.95955e-11 1.95938e-11 1.9592e-11 1.95908e-11 1.95897e-11 1.95885e-11 1.95869e-11 1.9586e-11 1.95848e-11 1.95839e-11 1.95827e-11 1.95818e-11
          1.95809e-11 1.95963e-11 1.96209e-11 1.95774e-11 1.95667e-11 1.95722e-11 1.95841e-11 1.95766e-11 1.95782e-11 1.95679e-11 1.95761e-11 4.57748e-11
          6.14982e-08 7.77574e-08 1.02694e-07 1.44034e-07 1.98784e-11 1.97603e-11
        </DataArray>
        <DataArray type="Float32" Name="precipitateVolumeFraction_d" NumberOfComponents="1" format="ascii">
          0.000746521 0.000746521 0.000746522 0.000746522 0.000746523 0.000746523 0.000746523 0.000746524 0.000746524 0.000746525 0.000746526 0.000746528
          0.000746533 0.000746545 0.000746573 0.000746636 0.000746778 0.000747083 0.000747725 0.000749032 0.000751616 0.000756584 0.000765904 0.000783067
          0.000814419 0.000872689 0.000987042 0.00125615 0.00235183 0.0516849
        </DataArray>
        <DataArray type="Float32" Name="precipitateVolumeFraction_p" NumberOfComponents="1" format="ascii">
          0.000746521 0.000746521 0.000746522 0.000746522 0.000746523 0.000746523 0.000746523 0.000746524 0.000746524 0.000746525 0.000746526 0.000746528
          0.000746533 0.000746545 0.000746573 0.000746636 0.000746778 0.000747083 0.000747725 0.000749032 0.000751616 0.000756584 0.000765904 0.000783067
          0.000814419 0.000872689 0.000987042 0.00125615 0.00235183 0.0516849
        </DataArray>
        <DataArray type="Float32" Name="K" NumberOfComponents="1" format="ascii">
          9.80955e-11 9.80955e-11 9.80955e-11 9.80955e-11 9.80955e-11 9.80955e-11 9.80955e-11 9.80955e-11 9.80955e-11 9.80955e-11 9.80955e-11 9.80955e-11
          9.80954e-11 9.80954e-11 9.80953e-11 9.80952e-11 9.80948e-11 9.8094e-11 9.80924e-11 9.80891e-11 9.80826e-11 9.807e-11 9.80464e-11 9.8003e-11
          9.7583e-11 9.74363e-11 9.71488e-11 9.6475e-11 9.41008e-11 2.13773e-11
        </DataArray>
        <DataArray type="Float32" Name="X^w_H2O" NumberOfComponents="1" format="ascii">
          0.999838 0.999838 0.999838 0.999838 0.999838 0.999838 0.999838 0.999838 0.999838 0.999839 0.999839 0.999839
          0.999839 0.999842 0.999849 0.999853 0.999853 0.999853 0.999853 0.999853 0.999853 0.999853 0.999853 0.999853
          0.999853 0.999852 0.99985 0.999846 0.999839 0.999839
        </DataArray>
        <DataArray type="Float32" Name="X^w_Air" NumberOfComponents="1" format="ascii">
          1.5565e-05 1.54609e-05 1.53568e-05 1.52527e-05 1.51485e-05 1.50443e-05 1.494e-05 1.48355e-05 1.47299e-05 1.46195e-05 1.44885e-05 1.42674e-05
          1.36601e-05 1.15147e-05 4.40443e-06 6.31091e-08 8.86888e-10 1.22464e-11 1.65984e-13 2.205e-15 2.87354e-17 3.66342e-19 4.55032e-21 5.46869e-23
          6.21251e-25 6.91147e-27 7.05376e-29 5.98498e-31 3.03356e-33 0
        </DataArray>
        <DataArray type="Float32" Name="X^w_AuComplex" NumberOfComponents="1" format="ascii">
          1.85762e-14 1.96252e-14 1.79547e-14 1.8889e-14 1.71218e-14 1.87687e-14 1.97047e-14 1.82565e-14 1.79872e-14 2.0394e-14 1.78126e-14 1.93052e-14
          1.88333e-14 6.3034e-15 1.88971e-14 1.88523e-14 1.88394e-14 1.88426e-14 1.88524e-14 1.88438e-14 1.88444e-14 1.88338e-14 1.88432e-14 4.86823e-14
          6.99444e-11 1.09011e-10 1.8629e-10 3.62655e-10 7.36264e-14 7.29381e-14
        </DataArray>
        <DataArray type="Float32" Name="X^w_nanoAu" NumberOfComponents="1" format="ascii">
          3.70652e-16 2.05939e-16 -2.50812e-16 -5.30255e-16 -1.08381e-15 5.6309e-16 2.85443e-16 5.09661e-17 -2.18365e-16 -1.4527e-15 8.20699e-16 -1.32782e-15
          -5.85999e-16 5.08969e-15 3.0412e-16 5.37012e-17 5.36723e-17 5.36874e-17 5.37199e-17 5.36995e-17 5.3704e-17 5.37334e-17 6.21156e-17 1.28227e-15
          1.68953e-13 2.13706e-13 2.82374e-13 3.92269e-13 5.45089e-17 5.36379e-17
        </DataArray>
        <DataArray type="Float32" Name="X^w_cyanide" NumberOfComponents="1" format="ascii">
          5.10167e-06 5.09766e-06 5.09403e-06 5.09077e-06 5.08783e-06 5.08519e-06 5.08283e-06 5.08072e-06 5.07884e-06 5.07718e-06 5.07571e-06 5.07442e-06
          5.0733e-06 5.07232e-06 5.07149e-06 5.0707e-06 5.07e-06 5.06943e-06 5.06897e-06 5.06861e-06 5.06835e-06 5.06817e-06 5.06806e-06 5.06801e-06
          5.06853e-06 6.4564e-06 8.61864e-06 1.2313e-05 1.95038e-05 1.94408e-05
        </DataArray>
        <DataArray type="Float32" Name="X^w_citrate" NumberOfComponents="1" format="ascii">
          0.000141794 0.000141794 0.000141794 0.000141794 0.000141794 0.000141794 0.000141794 0.000141794 0.000141794 0.000141794 0.000141794 0.000141794
          0.000141794 0.000141794 0.000141795 0.000141796 0.000141796 0.000141796 0.000141796 0.000141796 0.000141796 0.000141796 0.000141796 0.000141796
          0.000141796 0.000141797 0.000141798 0.000141795 0.000141765 0.000141296
        </DataArray>
        <DataArray type="Float32" Name="X^w_substrate" NumberOfComponents="1" format="ascii">
          3.3902e-16 -9.2176e-16 8.80716e-16 6.25122e-16 -9.91312e-16 -1.70521e-15 -8.4904e-16 -3.28375e-15 2.02052e-15 -2.186e-16 -3.59465e-16 2.11587e-15
          2.38867e-14 2.59984e-13 2.4985e-13 5.4169e-18 2.79279e-17 1.44006e-16 7.42747e-16 3.83333e-15 1.98106e-14 1.0266e-13 5.34809e-13 2.81371e-12
          1.50719e-11 8.33645e-11 4.88164e-10 3.16967e-09 2.5331e-08 3.5646e-07
        </DataArray>
        <DataArray type="Float32" Name="m^w_H2O" NumberOfComponents="1" format="ascii">
          55491.7 55491.7 55491.7 55491.7 55491.7 55491.7 55491.7 55491.7 55491.7 55491.7 55491.7 55491.7
          55491.7 55491.8 55492.2 55492.4 55492.4 55492.4 55492.4 55492.4 55492.4 55492.4 55492.4 55492.4
          55492.3 55492.3 55492.1 55491.9 55491.5 55491.5
        </DataArray>
        <DataArray type="Float32" Name="m^w_Air" NumberOfComponents="1" format="ascii">
          0.537388 0.533794 0.5302 0.526604 0.523008 0.51941 0.51581 0.5122 0.508554 0.504744 0.500221 0.492587
          0.47162 0.397548 0.152064 0.00217886 3.06201e-05 4.22811e-07 5.73066e-09 7.61284e-11 9.92098e-13 1.26481e-14 1.57101e-16 1.88808e-18
          2.14488e-20 2.3862e-22 2.43533e-24 2.06633e-26 1.04734e-28 1.8256e-36
        </DataArray>
        <DataArray type="Float32" Name="m^w_AuComplex" NumberOfComponents="1" format="ascii">
          9.42962e-11 9.96211e-11 9.11415e-11 9.5884e-11 8.69131e-11 9.5273e-11 1.00025e-10 9.26733e-11 9.13062e-11 1.03523e-10 9.04196e-11 9.79963e-11
          9.56009e-11 3.19971e-11 9.5925e-11 9.56974e-11 9.56321e-11 9.5648e-11 9.56978e-11 9.56544e-11 9.56572e-11 9.56035e-11 9.56513e-11 2.47119e-10
          3.55049e-07 5.53357e-07 9.45639e-07 1.84089e-06 3.73739e-10 3.70245e-10
        </DataArray>
        <DataArray type="Float32" Name="m^w_nanoAu" NumberOfComponents="1" format="ascii">
          1.8815e-12 1.04538e-12 -1.27316e-12 -2.69167e-12 -5.5016e-12 2.85834e-12 1.44896e-12 2.58713e-13 -1.10846e-12 -7.37416e-12 4.16601e-12 -6.74026e-12
          -2.97463e-12 2.58361e-11 1.54377e-12 2.72596e-13 2.72449e-13 2.72526e-13 2.72691e-13 2.72587e-13 2.7261e-13 2.72759e-13 3.15309e-13 6.50903e-12
          8.57634e-10 1.08481e-09 1.43338e-09 1.99122e-09 2.76696e-13 2.72274e-13
        </DataArray>
        <DataArray type="Float32" Name="m^w_cyanide" NumberOfComponents="1" format="ascii">
          0.196039 0.195885 0.195745 0.19562 0.195507 0.195405 0.195315 0.195234 0.195161 0.195098 0.195041 0.194992
          0.194948 0.194911 0.194879 0.194848 0.194821 0.194799 0.194782 0.194768 0.194758 0.194751 0.194747 0.194745
          0.194765 0.248095 0.331182 0.473142 0.749459 0.747037
        </DataArray>
        <DataArray type="Float32" Name="m^w_citrate" NumberOfComponents="1" format="ascii">
          0.749731 0.749731 0.749731 0.749731 0.749731 0.749731 0.749731 0.74973 0.74973 0.74973 0.74973 0.74973
          0.749731 0.749732 0.749737 0.749741 0.749741 0.74974 0.74974 0.74974 0.74974 0.74974 0.74974 0.74974
          0.749739 0.749744 0.749747 0.749734 0.749577 0.747094
        </DataArray>
        <DataArray type="Float32" Name="m^w_substrate" NumberOfComponents="1" format="ascii">
          1.8815e-12 -5.1156e-12 4.88781e-12 3.46931e-12 -5.5016e-12 -9.46361e-12 -4.71201e-12 -1.82242e-11 1.12135e-11 -1.21319e-12 -1.99496e-12 1.17427e-11
          1.32567e-10 1.44286e-09 1.38662e-09 3.00627e-14 1.54995e-13 7.99206e-13 4.1221e-12 2.12742e-11 1.09945e-10 5.69745e-10 2.96808e-09 1.56155e-08
          8.36458e-08 4.62656e-07 2.70921e-06 1.7591e-05 0.000140582 0.00197828
        </DataArray>
        <DataArray type="Float32" Name="process rank" NumberOfComponents="1" format="ascii">
          0 0 0 0 0 0 0 0 0 0 0 0
          0 0 0 0 0 0 0 0 0 0 0 0
          0 0 0 0 0 0
        </DataArray>
      </CellData>
      <Points>
        <DataArray type="Float32" Name="Coordinates" NumberOfComponents="3" format="ascii">
          0 0 0 0.5 0 0 0 0.0333333 0 0.5 0.0333333 0
          0 0.0666667 0 0.5 0.0666667 0 0 0.1 0 0.5 0.1 0
          0 0.133333 0 0.5 0.133333 0 0 0.166667 0 0.5 0.166667 0
          0 0.2 0 0.5 0.2 0 0 0.233333 0 0.5 0.233333 0
          0 0.266667 0 0.5 0.266667 0 0 0.3 0 0.5 0.3 0
          0 0.333333 0 0.5 0.333333 0 0 0.366667 0 0.5 0.366667 0
          0 0.4 0 0.5 0.4 0 0 0.433333 0 0.5 0.433333 0
          0 0.466667 0 0.5 0.466667 0 0 0.5 0 0.5 0.5 0
          0 0.533333 0 0.5 0.533333 0 0 0.566667 0 0.5 0.566667 0
          0 0.6 0 0.5 0.6 0 0 0.633333 0 0.5 0.633333 0
          0 0.666667 0 0.5 0.666667 0 0 0.7 0 0.5 0.7 0
          0 0.733333 0 0.5 0.733333 0 0 0.766667 0 0.5 0.766667 0
          0 0.8 0 0.5 0.8 0 0 0.833333 0 0.5 0.833333 0
          0 0.866667 0 0.5 0.866667 0 0 0.9 0 0.5 0.9 0
          0 0.933333 0 0.5 0.933333 0 0 0.966667 0 0.5 0.966667 0
          0 1 0 0.5 1 0
        </DataArray>
      </Points>
      <Cells>
        <DataArray type="Int32" Name="connectivity" NumberOfComponents="1" format="ascii">
          0 1 3 2 2 3 5 4 4 5 7 6
          6 7 9 8 8 9 11 10 10 11 13 12
          12 13 15 14 14 15 17 16 16 17 19 18
          18 19 21 20 20 21 23 22 22 23 25 24
          24 25 27 26 26 27 29 28 28 29 31 30
          30 31 33 32 32 33 35 34 34 35 37 36
          36 37 39 38 38 39 41 40 40 41 43 42
          42 43 45 44 44 45 47 46 46 47 49 48
          48 49 51 50 50 51 53 52 52 53 55 54
          54 55 57 56 56 57 59 58 58 59 61 60
        </DataArray>
        <DataArray type="Int32" Name="offsets" NumberOfComponents="1" format="ascii">
          4 8 12 16 20 24 28 32 36 40 44 48
          52 56 60 64 68 72 76 80 84 88 92 96
          100 104 108 112 116 120
        </DataArray>
        <DataArray type="UInt8" Name="types" NumberOfComponents="1" format="ascii">
          9 9 9 9 9 9 9 9 9 9 9 9
          9 9 9 9 9 9 9 9 9 9 9 9
          9 9 9 9 9 9
        </DataArray>
      </Cells>
    </Piece>
  </UnstructuredGrid>
</VTKFile>
