<?xml version="1.0"?>
<VTKFile type="UnstructuredGrid" version="0.1" byte_order="LittleEndian">
  <UnstructuredGrid>
    <Piece NumberOfCells="30" NumberOfPoints="62">
      <CellData Scalars="Sg">
        <DataArray type="Float32" Name="Sg" NumberOfComponents="1" format="ascii">
          0 0 0 0 0 0 0 0 0 0 0 0
          0 0 0 0 0 0 0 0 0 0 0 0
          0 0 0 0 0 0
        </DataArray>
        <DataArray type="Float32" Name="Sl" NumberOfComponents="1" format="ascii">
          1 1 1 1 1 1 1 1 1 1 1 1
          1 1 1 1 1 1 1 1 1 1 1 1
          1 1 1 1 1 1
        </DataArray>
        <DataArray type="Float32" Name="pg" NumberOfComponents="1" format="ascii">
          24687.8 24360.9 24034 23707 23380.1 23053.1 22726.2 22399.3 22072.3 21745.4 21418.4 21091.5
          20764.6 20437.6 20110.7 19783.7 19456.8 19129.8 18802.9 18476 18149 17822.1 17495.1 17168.2
          16841.3 16514.3 16187.4 15860.4 15533.5 15210
        </DataArray>
        <DataArray type="Float32" Name="pl" NumberOfComponents="1" format="ascii">
          110628 110301 109974 109647 109320 108993 108666 108339 108012 107685 107358 107031
          106704 106377 106050 105723 105396 105070 104743 104416 104089 103762 103435 103108
          102781 102454 102127 101800 101473 101150
        </DataArray>
        <DataArray type="Float32" Name="pc" NumberOfComponents="1" format="ascii">
          -85939.7 -85939.7 -85939.7 -85939.7 -85939.7 -85939.7 -85939.7 -85939.7 -85939.7 -85939.7 -85939.7 -85939.7
          -85939.7 -85939.7 -85939.7 -85939.7 -85939.7 -85939.7 -85939.7 -85939.7 -85939.7 -85939.7 -85939.7 -85939.7
          -85939.7 -85939.7 -85939.7 -85939.7 -85939.7 -85939.7
        </DataArray>
        <DataArray type="Float32" Name="rhoL" NumberOfComponents="1" format="ascii">
          999.855 999.855 999.855 999.855 999.855 999.854 999.854 999.854 999.854 999.854 999.854 999.854
          999.853 999.853 999.853 999.853 999.853 999.853 999.852 999.852 999.852 999.852 999.852 999.852
          999.852 999.851 999.851 999.851 999.851 999.851
        </DataArray>
        <DataArray type="Float32" Name="rhoG" NumberOfComponents="1" format="ascii">
          0.30585 0.3018 0.29775 0.293699 0.289649 0.285598 0.281548 0.277498 0.273447 0.269397 0.265347 0.261296
          0.257246 0.253195 0.249145 0.245095 0.241044 0.236994 0.232944 0.228893 0.224843 0.220793 0.216742 0.212692
          0.208641 0.204591 0.200541 0.19649 0.19244 0.188432
        </DataArray>
        <DataArray type="Float32" Name="mobL" NumberOfComponents="1" format="ascii">
          722.171 722.17 722.17 722.17 722.17 722.17 722.169 722.169 722.169 722.169 722.169 722.169
          722.168 722.168 722.168 722.168 722.168 722.167 722.167 722.167 722.167 722.167 722.166 722.166
          722.166 722.166 722.166 722.166 722.165 722.165
        </DataArray>
        <DataArray type="Float32" Name="mobG" NumberOfComponents="1" format="ascii">
          0 0 0 0 0 0 0 0 0 0 0 0
          0 0 0 0 0 0 0 0 0 0 0 0
          0 0 0 0 0 0
        </DataArray>
        <DataArray type="Float32" Name="porosity" NumberOfComponents="1" format="ascii">
          0.298836 0.298836 0.298836 0.298836 0.298836 0.298836 0.298836 0.298836 0.298836 0.298836 0.298836 0.298836
          0.298836 0.298836 0.298836 0.298836 0.298835 0.298835 0.298834 0.298832 0.298828 0.29882 0.298806 0.29878
          0.298461 0.298371 0.298189 0.297719 0.295375 0.0432218
        </DataArray>
        <DataArray type="Float32" Name="temperature" NumberOfComponents="1" format="ascii">
          281.15 281.15 281.15 281.15 281.15 281.15 281.15 281.15 281.15 281.15 281.15 281.15
          281.15 281.15 281.15 281.15 281.15 281.15 281.15 281.15 281.15 281.15 281.15 281.15
          281.15 281.15 281.15 281.15 281.15 281.15
        </DataArray>
        <DataArray type="Float32" Name="phase presence" NumberOfComponents="1" format="ascii">
          1 1 1 1 1 1 1 1 1 1 1 1
          1 1 1 1 1 1 1 1 1 1 1 1
          1 1 1 1 1 1
        </DataArray>
        <DataArray type="Float32" Name="precipitateVolumeFraction_au" NumberOfComponents="1" format="ascii">
          5.52649e-10 5.52537e-10 5.52747e-10 5.5275e-10 5.52729e-10 5.52776e-10 5.52715e-10 5.52743e-10 5.52742e-10 5.52751e-10 5.52729e-10 5.52807e-10
          5.52734e-10 5.52746e-10 5.52789e-10 5.52743e-10 5.52727e-10 5.52735e-10 5.5276e-10 5.52744e-10 5.52752e-10 5.52713e-10 5.52981e-10 1.21791e-09
          0.000269941 0.000269925 0.0002699 0.000269851 5.52581e-10 5.5109e-10
        </DataArray>
        <DataArray type="Float32" Name="precipitateVolumeFraction_nanoAu" NumberOfComponents="1" format="ascii">
          1.23464e-13 1.23439e-13 1.23486e-13 1.23487e-13 1.23482e-13 1.23493e-13 1.23479e-13 1.23485e-13 1.23485e-13 1.23487e-13 1.23482e-13 1.235e-13
          1.23484e-13 1.23486e-13 1.23496e-13 1.23486e-13 1.23482e-13 1.23484e-13 1.23489e-13 1.23486e-13 1.23488e-13 1.23487e-13 1.34777e-13 2.57579e-11
          6.03263e-08 7.66548e-08 1.02146e-07 1.45671e-07 4.75628e-13 4.73052e-13
        </DataArray>
        <DataArray type="Float32" Name="precipitateVolumeFraction_d" NumberOfComponents="1" format="ascii">
          0.000582158 0.000582159 0.000582159 0.000582159 0.000582159 0.00058216 0.00058216 0.00058216 0.000582161 0.000582161 0.000582162 0.000582164
          0.000582168 0.000582177 0.000582198 0.000582247 0.000582355 0.00058259 0.000583083 0.000584087 0.000586071 0.000589885 0.000597043 0.000610231
          0.000634373 0.000679586 0.000770709 0.00100548 0.00231274 0.128389
        </DataArray>
        <DataArray type="Float32" Name="precipitateVolumeFraction_p" NumberOfComponents="1" format="ascii">
          0.000582158 0.000582159 0.000582159 0.000582159 0.000582159 0.00058216 0.00058216 0.00058216 0.000582161 0.000582161 0.000582162 0.000582164
          0.000582168 0.000582177 0.000582198 0.000582247 0.000582355 0.00058259 0.000583083 0.000584087 0.000586071 0.000589885 0.000597043 0.000610231
          0.000634373 0.000679586 0.000770709 0.00100548 0.00231274 0.128389
        </DataArray>
        <DataArray type="Float32" Name="K" NumberOfComponents="1" format="ascii">
          9.85122e-11 9.85122e-11 9.85122e-11 9.85122e-11 9.85122e-11 9.85122e-11 9.85122e-11 9.85122e-11 9.85122e-11 9.85122e-11 9.85122e-11 9.85122e-11
          9.85122e-11 9.85122e-11 9.85121e-11 9.8512e-11 9.85117e-11 9.85111e-11 9.85099e-11 9.85073e-11 9.85023e-11 9.84926e-11 9.84744e-11 9.84409e-11
          9.80376e-11 9.79233e-11 9.76932e-11 9.71025e-11 9.41965e-11 1.60073e-13
        </DataArray>
        <DataArray type="Float32" Name="X^w_H2O" NumberOfComponents="1" format="ascii">
          0.999853 0.999853 0.999853 0.999853 0.999853 0.999853 0.999853 0.999853 0.999853 0.999853 0.999853 0.999853
          0.999853 0.999853 0.999853 0.999853 0.999853 0.999853 0.999853 0.999853 0.999853 0.999853 0.999853 0.999853
          0.999853 0.999852 0.99985 0.999846 0.999839 0.999839
        </DataArray>
        <DataArray type="Float32" Name="X^w_Air" NumberOfComponents="1" format="ascii">
          0 0 0 0 0 0 0 0 0 0 0 0
          0 0 0 0 0 0 0 0 0 0 0 0
          0 0 0 0 0 0
        </DataArray>
        <DataArray type="Float32" Name="X^w_AuComplex" NumberOfComponents="1" format="ascii">
          1.4071e-16 1.40681e-16 1.40735e-16 1.40736e-16 1.40731e-16 1.40743e-16 1.40727e-16 1.40734e-16 1.40734e-16 1.40737e-16 1.40731e-16 1.40751e-16
          1.40733e-16 1.40736e-16 1.40747e-16 1.40735e-16 1.40731e-16 1.40733e-16 1.4074e-16 1.40736e-16 1.40738e-16 1.40736e-16 1.53526e-16 2.93462e-14
          6.87591e-11 1.07294e-10 1.84402e-10 3.6451e-10 1.84543e-15 1.83253e-15
        </DataArray>
        <DataArray type="Float32" Name="X^w_nanoAu" NumberOfComponents="1" format="ascii">
          3.3857e-19 3.38502e-19 3.3863e-19 3.38632e-19 3.3862e-19 3.38648e-19 3.38611e-19 3.38628e-19 3.38628e-19 3.38633e-19 3.3862e-19 3.38667e-19
          3.38623e-19 3.38631e-19 3.38657e-19 3.38629e-19 3.38619e-19 3.38624e-19 3.38639e-19 3.38632e-19 3.39018e-19 3.94757e-19 8.56343e-18 1.20113e-15
          1.65739e-13 2.10691e-13 2.80909e-13 3.96745e-13 1.30409e-18 1.28661e-18
        </DataArray>
        <DataArray type="Float32" Name="X^w_cyanide" NumberOfComponents="1" format="ascii">
          5.06366e-06 5.06366e-06 5.06366e-06 5.06366e-06 5.06367e-06 5.06367e-06 5.06367e-06 5.06367e-06 5.06368e-06 5.06368e-06 5.06368e-06 5.06368e-06
          5.06368e-06 5.06369e-06 5.06369e-06 5.06369e-06 5.06369e-06 5.0637e-06 5.0637e-06 5.0637e-06 5.0637e-06 5.0637e-06 5.06371e-06 5.06371e-06
          5.0642e-06 6.43443e-06 8.57252e-06 1.22469e-05 1.95098e-05 1.94843e-05
        </DataArray>
        <DataArray type="Float32" Name="X^w_citrate" NumberOfComponents="1" format="ascii">
          0.000141796 0.000141796 0.000141796 0.000141796 0.000141796 0.000141796 0.000141796 0.000141796 0.000141796 0.000141796 0.000141796 0.000141796
          0.000141796 0.000141796 0.000141796 0.000141796 0.000141796 0.000141796 0.000141796 0.000141796 0.000141796 0.000141796 0.000141796 0.000141796
          0.000141796 0.000141797 0.000141798 0.000141797 0.000141787 0.000141602
        </DataArray>
        <DataArray type="Float32" Name="X^w_substrate" NumberOfComponents="1" format="ascii">
          9.18543e-27 3.9223e-26 1.67474e-25 7.15021e-25 3.0525e-24 1.30304e-23 5.56192e-23 2.37387e-22 1.01311e-21 4.32332e-21 1.84478e-20 7.87117e-20
          3.35814e-19 1.4326e-18 6.11114e-18 2.60673e-17 1.11189e-16 4.74303e-16 2.02371e-15 8.63946e-15 3.69285e-14 1.58244e-13 6.81429e-13 2.96143e-12
          1.30878e-11 5.96057e-11 2.86531e-10 1.52348e-09 1.01017e-08 1.4081e-07
        </DataArray>
        <DataArray type="Float32" Name="m^w_H2O" NumberOfComponents="1" format="ascii">
          55492.6 55492.6 55492.5 55492.5 55492.5 55492.5 55492.5 55492.5 55492.5 55492.5 55492.5 55492.5
          55492.5 55492.4 55492.4 55492.4 55492.4 55492.4 55492.4 55492.4 55492.4 55492.4 55492.4 55492.4
          55492.3 55492.3 55492.1 55491.9 55491.5 55491.5
        </DataArray>
        <DataArray type="Float32" Name="m^w_Air" NumberOfComponents="1" format="ascii">
          0 0 0 0 0 0 0 0 0 0 0 0
          0 0 0 0 0 0 0 0 0 0 0 0
          0 0 0 0 0 0
        </DataArray>
        <DataArray type="Float32" Name="m^w_AuComplex" NumberOfComponents="1" format="ascii">
          7.14269e-13 7.14124e-13 7.14396e-13 7.144e-13 7.14374e-13 7.14434e-13 7.14356e-13 7.14392e-13 7.14392e-13 7.14403e-13 7.14376e-13 7.14476e-13
          7.14383e-13 7.14398e-13 7.14455e-13 7.14395e-13 7.14375e-13 7.14385e-13 7.14418e-13 7.14398e-13 7.14409e-13 7.14401e-13 7.79323e-13 1.48966e-10
          3.49032e-07 5.44643e-07 9.36054e-07 1.85031e-06 9.36769e-12 9.3022e-12
        </DataArray>
        <DataArray type="Float32" Name="m^w_nanoAu" NumberOfComponents="1" format="ascii">
          1.71864e-15 1.7183e-15 1.71895e-15 1.71896e-15 1.71889e-15 1.71904e-15 1.71885e-15 1.71894e-15 1.71893e-15 1.71896e-15 1.7189e-15 1.71913e-15
          1.71891e-15 1.71895e-15 1.71908e-15 1.71894e-15 1.71889e-15 1.71891e-15 1.71899e-15 1.71895e-15 1.72091e-15 2.00385e-15 4.34694e-14 6.09715e-12
          8.41318e-10 1.0695e-09 1.42594e-09 2.01394e-09 6.61977e-15 6.53104e-15
        </DataArray>
        <DataArray type="Float32" Name="m^w_cyanide" NumberOfComponents="1" format="ascii">
          0.194578 0.194578 0.194578 0.194578 0.194578 0.194578 0.194579 0.194579 0.194579 0.194579 0.194579 0.194579
          0.194579 0.194579 0.194579 0.194579 0.194579 0.194579 0.194579 0.194579 0.194579 0.194579 0.194579 0.194579
          0.194598 0.247251 0.32941 0.470603 0.749689 0.74871
        </DataArray>
        <DataArray type="Float32" Name="m^w_citrate" NumberOfComponents="1" format="ascii">
          0.749742 0.749742 0.749742 0.749742 0.749742 0.749742 0.749742 0.749741 0.749741 0.749741 0.749741 0.749741
          0.749741 0.749741 0.749741 0.749741 0.74974 0.74974 0.74974 0.74974 0.74974 0.74974 0.74974 0.74974
          0.749739 0.749744 0.749748 0.749747 0.749691 0.748711
        </DataArray>
        <DataArray type="Float32" Name="m^w_substrate" NumberOfComponents="1" format="ascii">
          5.09775e-23 2.1768e-22 9.29449e-22 3.96823e-21 1.69408e-20 7.23163e-20 3.08676e-19 1.31745e-18 5.62255e-18 2.39936e-17 1.02382e-16 4.36835e-16
          1.8637e-15 7.95066e-15 3.39156e-14 1.44668e-13 6.17078e-13 2.63229e-12 1.12312e-11 4.79473e-11 2.04946e-10 8.78225e-10 3.78179e-09 1.64354e-08
          7.26349e-08 3.308e-07 1.59019e-06 8.45499e-06 5.60623e-05 0.000781468
        </DataArray>
        <DataArray type="Float32" Name="process rank" NumberOfComponents="1" format="ascii">
          0 0 0 0 0 0 0 0 0 0 0 0
          0 0 0 0 0 0 0 0 0 0 0 0
          0 0 0 0 0 0
        </DataArray>
      </CellData>
      <Points>
        <DataArray type="Float32" Name="Coordinates" NumberOfComponents="3" format="ascii">
          0 0 0 0.5 0 0 0 0.0333333 0 0.5 0.0333333 0
          0 0.0666667 0 0.5 0.0666667 0 0 0.1 0 0.5 0.1 0
          0 0.133333 0 0.5 0.133333 0 0 0.166667 0 0.5 0.166667 0
          0 0.2 0 0.5 0.2 0 0 0.233333 0 0.5 0.233333 0
          0 0.266667 0 0.5 0.266667 0 0 0.3 0 0.5 0.3 0
          0 0.333333 0 0.5 0.333333 0 0 0.366667 0 0.5 0.366667 0
          0 0.4 0 0.5 0.4 0 0 0.433333 0 0.5 0.433333 0
          0 0.466667 0 0.5 0.466667 0 0 0.5 0 0.5 0.5 0
          0 0.533333 0 0.5 0.533333 0 0 0.566667 0 0.5 0.566667 0
          0 0.6 0 0.5 0.6 0 0 0.633333 0 0.5 0.633333 0
          0 0.666667 0 0.5 0.666667 0 0 0.7 0 0.5 0.7 0
          0 0.733333 0 0.5 0.733333 0 0 0.766667 0 0.5 0.766667 0
          0 0.8 0 0.5 0.8 0 0 0.833333 0 0.5 0.833333 0
          0 0.866667 0 0.5 0.866667 0 0 0.9 0 0.5 0.9 0
          0 0.933333 0 0.5 0.933333 0 0 0.966667 0 0.5 0.966667 0
          0 1 0 0.5 1 0
        </DataArray>
      </Points>
      <Cells>
        <DataArray type="Int32" Name="connectivity" NumberOfComponents="1" format="ascii">
          0 1 3 2 2 3 5 4 4 5 7 6
          6 7 9 8 8 9 11 10 10 11 13 12
          12 13 15 14 14 15 17 16 16 17 19 18
          18 19 21 20 20 21 23 22 22 23 25 24
          24 25 27 26 26 27 29 28 28 29 31 30
          30 31 33 32 32 33 35 34 34 35 37 36
          36 37 39 38 38 39 41 40 40 41 43 42
          42 43 45 44 44 45 47 46 46 47 49 48
          48 49 51 50 50 51 53 52 52 53 55 54
          54 55 57 56 56 57 59 58 58 59 61 60
        </DataArray>
        <DataArray type="Int32" Name="offsets" NumberOfComponents="1" format="ascii">
          4 8 12 16 20 24 28 32 36 40 44 48
          52 56 60 64 68 72 76 80 84 88 92 96
          100 104 108 112 116 120
        </DataArray>
        <DataArray type="UInt8" Name="types" NumberOfComponents="1" format="ascii">
          9 9 9 9 9 9 9 9 9 9 9 9
          9 9 9 9 9 9 9 9 9 9 9 9
          9 9 9 9 9 9
        </DataArray>
      </Cells>
    </Piece>
  </UnstructuredGrid>
</VTKFile>
