<?xml version="1.0"?>
<VTKFile type="UnstructuredGrid" version="0.1" byte_order="LittleEndian">
  <UnstructuredGrid>
    <Piece NumberOfCells="30" NumberOfPoints="62">
      <CellData Scalars="Sg">
        <DataArray type="Float32" Name="Sg" NumberOfComponents="1" format="ascii">
          0 0 0 0 0 0 0 0 0 0 0 0
          0 0 0 0 0 0 0 0 0 0 0 0
          0 0 0 0 0 0
        </DataArray>
        <DataArray type="Float32" Name="Sl" NumberOfComponents="1" format="ascii">
          1 1 1 1 1 1 1 1 1 1 1 1
          1 1 1 1 1 1 1 1 1 1 1 1
          1 1 1 1 1 1
        </DataArray>
        <DataArray type="Float32" Name="pg" NumberOfComponents="1" format="ascii">
          24687.8 24360.9 24034 23707 23380.1 23053.1 22726.2 22399.3 22072.3 21745.4 21418.4 21091.5
          20764.6 20437.6 20110.7 19783.7 19456.8 19129.8 18802.9 18476 18149 17822.1 17495.1 17168.2
          16841.3 16514.3 16187.4 15860.4 15533.5 15209.8
        </DataArray>
        <DataArray type="Float32" Name="pl" NumberOfComponents="1" format="ascii">
          110628 110301 109974 109647 109320 108993 108666 108339 108012 107685 107358 107031
          106704 106377 106050 105723 105396 105070 104743 104416 104089 103762 103435 103108
          102781 102454 102127 101800 101473 101150
        </DataArray>
        <DataArray type="Float32" Name="pc" NumberOfComponents="1" format="ascii">
          -85939.7 -85939.7 -85939.7 -85939.7 -85939.7 -85939.7 -85939.7 -85939.7 -85939.7 -85939.7 -85939.7 -85939.7
          -85939.7 -85939.7 -85939.7 -85939.7 -85939.7 -85939.7 -85939.7 -85939.7 -85939.7 -85939.7 -85939.7 -85939.7
          -85939.7 -85939.7 -85939.7 -85939.7 -85939.7 -85939.7
        </DataArray>
        <DataArray type="Float32" Name="rhoL" NumberOfComponents="1" format="ascii">
          999.855 999.855 999.855 999.855 999.855 999.854 999.854 999.854 999.854 999.854 999.854 999.854
          999.853 999.853 999.853 999.853 999.853 999.853 999.852 999.852 999.852 999.852 999.852 999.852
          999.852 999.851 999.851 999.851 999.851 999.851
        </DataArray>
        <DataArray type="Float32" Name="rhoG" NumberOfComponents="1" format="ascii">
          0.30585 0.3018 0.29775 0.293699 0.289649 0.285598 0.281548 0.277498 0.273447 0.269397 0.265347 0.261296
          0.257246 0.253195 0.249145 0.245095 0.241044 0.236994 0.232944 0.228893 0.224843 0.220793 0.216742 0.212692
          0.208641 0.204591 0.200541 0.19649 0.19244 0.18843
        </DataArray>
        <DataArray type="Float32" Name="mobL" NumberOfComponents="1" format="ascii">
          722.171 722.17 722.17 722.17 722.17 722.17 722.169 722.169 722.169 722.169 722.169 722.169
          722.168 722.168 722.168 722.168 722.168 722.167 722.167 722.167 722.167 722.167 722.166 722.166
          722.166 722.166 722.166 722.166 722.165 722.165
        </DataArray>
        <DataArray type="Float32" Name="mobG" NumberOfComponents="1" format="ascii">
          0 0 0 0 0 0 0 0 0 0 0 0
          0 0 0 0 0 0 0 0 0 0 0 0
          0 0 0 0 0 0
        </DataArray>
        <DataArray type="Float32" Name="porosity" NumberOfComponents="1" format="ascii">
          0.298792 0.298792 0.298792 0.298792 0.298792 0.298792 0.298792 0.298792 0.298792 0.298792 0.298792 0.298792
          0.298792 0.298792 0.298792 0.298792 0.298792 0.298791 0.29879 0.298788 0.298784 0.298776 0.298761 0.298734
          0.298414 0.29832 0.298132 0.297652 0.295338 0.0438697
        </DataArray>
        <DataArray type="Float32" Name="temperature" NumberOfComponents="1" format="ascii">
          281.15 281.15 281.15 281.15 281.15 281.15 281.15 281.15 281.15 281.15 281.15 281.15
          281.15 281.15 281.15 281.15 281.15 281.15 281.15 281.15 281.15 281.15 281.15 281.15
          281.15 281.15 281.15 281.15 281.15 281.15
        </DataArray>
        <DataArray type="Float32" Name="phase presence" NumberOfComponents="1" format="ascii">
          1 1 1 1 1 1 1 1 1 1 1 1
          1 1 1 1 1 1 1 1 1 1 1 1
          1 1 1 1 1 1
        </DataArray>
        <DataArray type="Float32" Name="precipitateVolumeFraction_au" NumberOfComponents="1" format="ascii">
          5.52649e-10 5.52537e-10 5.52747e-10 5.5275e-10 5.52729e-10 5.52776e-10 5.52715e-10 5.52743e-10 5.52742e-10 5.52751e-10 5.52729e-10 5.52807e-10
          5.52734e-10 5.52746e-10 5.52789e-10 5.52743e-10 5.52727e-10 5.52735e-10 5.5276e-10 5.52744e-10 5.52752e-10 5.52713e-10 5.52942e-10 1.12982e-09
          0.000269941 0.000269925 0.0002699 0.000269852 5.52581e-10 5.51093e-10
        </DataArray>
        <DataArray type="Float32" Name="precipitateVolumeFraction_nanoAu" NumberOfComponents="1" format="ascii">
          1.23467e-13 1.23442e-13 1.23489e-13 1.2349e-13 1.23485e-13 1.23496e-13 1.23482e-13 1.23488e-13 1.23488e-13 1.2349e-13 1.23485e-13 1.23502e-13
          1.23486e-13 1.23489e-13 1.23499e-13 1.23488e-13 1.23485e-13 1.23486e-13 1.23492e-13 1.23488e-13 1.2349e-13 1.23489e-13 1.34764e-13 2.57401e-11
          6.03274e-08 7.6656e-08 1.02147e-07 1.45672e-07 4.75628e-13 4.73052e-13
        </DataArray>
        <DataArray type="Float32" Name="precipitateVolumeFraction_d" NumberOfComponents="1" format="ascii">
          0.000603865 0.000603865 0.000603865 0.000603865 0.000603866 0.000603866 0.000603866 0.000603867 0.000603867 0.000603868 0.000603868 0.00060387
          0.000603874 0.000603884 0.000603906 0.000603957 0.000604069 0.000604313 0.000604826 0.000605869 0.000607931 0.000611896 0.000619335 0.00063304
          0.000658119 0.000705028 0.000799208 0.00103913 0.00233085 0.128065
        </DataArray>
        <DataArray type="Float32" Name="precipitateVolumeFraction_p" NumberOfComponents="1" format="ascii">
          0.000603865 0.000603865 0.000603865 0.000603865 0.000603866 0.000603866 0.000603866 0.000603867 0.000603867 0.000603868 0.000603868 0.00060387
          0.000603874 0.000603884 0.000603906 0.000603957 0.000604069 0.000604313 0.000604826 0.000605869 0.000607931 0.000611896 0.000619335 0.00063304
          0.000658119 0.000705028 0.000799208 0.00103913 0.00233085 0.128065
        </DataArray>
        <DataArray type="Float32" Name="K" NumberOfComponents="1" format="ascii">
          9.84571e-11 9.84571e-11 9.84571e-11 9.84571e-11 9.84571e-11 9.84571e-11 9.84571e-11 9.84571e-11 9.84571e-11 9.84571e-11 9.84571e-11 9.84571e-11
          9.84571e-11 9.8457e-11 9.8457e-11 9.84569e-11 9.84566e-11 9.8456e-11 9.84547e-11 9.8452e-11 9.84468e-11 9.84367e-11 9.84178e-11 9.8383e-11
          9.79776e-11 9.7859e-11 9.76214e-11 9.70181e-11 9.41522e-11 1.67607e-13
        </DataArray>
        <DataArray type="Float32" Name="X^w_H2O" NumberOfComponents="1" format="ascii">
          0.999853 0.999853 0.999853 0.999853 0.999853 0.999853 0.999853 0.999853 0.999853 0.999853 0.999853 0.999853
          0.999853 0.999853 0.999853 0.999853 0.999853 0.999853 0.999853 0.999853 0.999853 0.999853 0.999853 0.999853
          0.999853 0.999852 0.99985 0.999846 0.999839 0.999839
        </DataArray>
        <DataArray type="Float32" Name="X^w_Air" NumberOfComponents="1" format="ascii">
          0 0 0 0 0 0 0 0 0 0 0 0
          0 0 0 0 0 0 0 0 0 0 0 0
          0 0 0 0 0 0
        </DataArray>
        <DataArray type="Float32" Name="X^w_AuComplex" NumberOfComponents="1" format="ascii">
          1.40715e-16 1.40687e-16 1.4074e-16 1.40741e-16 1.40736e-16 1.40748e-16 1.40732e-16 1.40739e-16 1.40739e-16 1.40742e-16 1.40736e-16 1.40756e-16
          1.40737e-16 1.4074e-16 1.40752e-16 1.4074e-16 1.40736e-16 1.40738e-16 1.40744e-16 1.4074e-16 1.40742e-16 1.40741e-16 1.53513e-16 2.93261e-14
          6.87611e-11 1.07297e-10 1.84406e-10 3.64516e-10 1.84543e-15 1.83252e-15
        </DataArray>
        <DataArray type="Float32" Name="X^w_nanoAu" NumberOfComponents="1" format="ascii">
          3.38578e-19 3.38511e-19 3.38639e-19 3.3864e-19 3.38628e-19 3.38656e-19 3.38619e-19 3.38636e-19 3.38636e-19 3.38641e-19 3.38628e-19 3.38675e-19
          3.38631e-19 3.38638e-19 3.38664e-19 3.38636e-19 3.38626e-19 3.38631e-19 3.38646e-19 3.38639e-19 3.39025e-19 3.94766e-19 8.56359e-18 1.20113e-15
          1.65742e-13 2.10694e-13 2.80912e-13 3.96749e-13 1.30409e-18 1.28661e-18
        </DataArray>
        <DataArray type="Float32" Name="X^w_cyanide" NumberOfComponents="1" format="ascii">
          5.06375e-06 5.06375e-06 5.06375e-06 5.06375e-06 5.06375e-06 5.06376e-06 5.06376e-06 5.06376e-06 5.06376e-06 5.06376e-06 5.06376e-06 5.06376e-06
          5.06376e-06 5.06377e-06 5.06377e-06 5.06377e-06 5.06377e-06 5.06377e-06 5.06377e-06 5.06377e-06 5.06378e-06 5.06378e-06 5.06378e-06 5.06378e-06
          5.06427e-06 6.43451e-06 8.57261e-06 1.2247e-05 1.95098e-05 1.94843e-05
        </DataArray>
        <DataArray type="Float32" Name="X^w_citrate" NumberOfComponents="1" format="ascii">
          0.000141796 0.000141796 0.000141796 0.000141796 0.000141796 0.000141796 0.000141796 0.000141796 0.000141796 0.000141796 0.000141796 0.000141796
          0.000141796 0.000141796 0.000141796 0.000141796 0.000141796 0.000141796 0.000141796 0.000141796 0.000141796 0.000141796 0.000141796 0.000141796
          0.000141796 0.000141797 0.000141798 0.000141798 0.000141787 0.000141601
        </DataArray>
        <DataArray type="Float32" Name="X^w_substrate" NumberOfComponents="1" format="ascii">
          4.14785e-27 1.82161e-26 7.99932e-26 3.5125e-25 1.54222e-24 6.77083e-24 2.97237e-23 1.30476e-22 5.72693e-22 2.51351e-21 1.10307e-20 4.84056e-20
          2.12399e-19 9.31917e-19 4.08858e-18 1.79369e-17 7.86889e-17 3.4523e-16 1.51497e-15 6.65197e-15 2.92441e-14 1.28894e-13 5.70919e-13 2.5524e-12
          1.1606e-11 5.43991e-11 2.69248e-10 1.47452e-09 1.00547e-08 1.41171e-07
        </DataArray>
        <DataArray type="Float32" Name="m^w_H2O" NumberOfComponents="1" format="ascii">
          55492.6 55492.6 55492.5 55492.5 55492.5 55492.5 55492.5 55492.5 55492.5 55492.5 55492.5 55492.5
          55492.5 55492.4 55492.4 55492.4 55492.4 55492.4 55492.4 55492.4 55492.4 55492.4 55492.4 55492.4
          55492.3 55492.3 55492.1 55491.9 55491.5 55491.5
        </DataArray>
        <DataArray type="Float32" Name="m^w_Air" NumberOfComponents="1" format="ascii">
          0 0 0 0 0 0 0 0 0 0 0 0
          0 0 0 0 0 0 0 0 0 0 0 0
          0 0 0 0 0 0
        </DataArray>
        <DataArray type="Float32" Name="m^w_AuComplex" NumberOfComponents="1" format="ascii">
          7.14297e-13 7.14152e-13 7.14424e-13 7.14427e-13 7.144e-13 7.1446e-13 7.14382e-13 7.14418e-13 7.14417e-13 7.14429e-13 7.14401e-13 7.14501e-13
          7.14407e-13 7.14422e-13 7.14479e-13 7.14419e-13 7.14398e-13 7.14408e-13 7.14441e-13 7.1442e-13 7.14431e-13 7.14423e-13 7.79256e-13 1.48864e-10
          3.49042e-07 5.44657e-07 9.36073e-07 1.85034e-06 9.36769e-12 9.30217e-12
        </DataArray>
        <DataArray type="Float32" Name="m^w_nanoAu" NumberOfComponents="1" format="ascii">
          1.71868e-15 1.71834e-15 1.71899e-15 1.719e-15 1.71894e-15 1.71908e-15 1.71889e-15 1.71898e-15 1.71897e-15 1.719e-15 1.71893e-15 1.71917e-15
          1.71895e-15 1.71898e-15 1.71912e-15 1.71897e-15 1.71892e-15 1.71895e-15 1.71903e-15 1.71899e-15 1.72095e-15 2.0039e-15 4.34702e-14 6.09715e-12
          8.41333e-10 1.06952e-09 1.42595e-09 2.01396e-09 6.61978e-15 6.53102e-15
        </DataArray>
        <DataArray type="Float32" Name="m^w_cyanide" NumberOfComponents="1" format="ascii">
          0.194582 0.194582 0.194582 0.194582 0.194582 0.194582 0.194582 0.194582 0.194582 0.194582 0.194582 0.194582
          0.194582 0.194582 0.194582 0.194582 0.194582 0.194582 0.194582 0.194582 0.194582 0.194582 0.194582 0.194582
          0.194601 0.247254 0.329413 0.470606 0.749689 0.748707
        </DataArray>
        <DataArray type="Float32" Name="m^w_citrate" NumberOfComponents="1" format="ascii">
          0.749742 0.749742 0.749742 0.749742 0.749742 0.749742 0.749742 0.749741 0.749741 0.749741 0.749741 0.749741
          0.749741 0.749741 0.749741 0.749741 0.74974 0.74974 0.74974 0.74974 0.74974 0.74974 0.74974 0.74974
          0.749739 0.749744 0.749748 0.749747 0.749692 0.748708
        </DataArray>
        <DataArray type="Float32" Name="m^w_substrate" NumberOfComponents="1" format="ascii">
          2.30198e-23 1.01096e-22 4.43948e-22 1.94938e-21 8.55904e-21 3.75768e-20 1.64961e-19 7.24116e-19 3.17834e-18 1.39495e-17 6.12186e-17 2.68642e-16
          1.17877e-15 5.17196e-15 2.26908e-14 9.95461e-14 4.36708e-13 1.91596e-12 8.4078e-12 3.69171e-11 1.62299e-10 7.15336e-10 3.16848e-09 1.41653e-08
          6.44107e-08 3.01904e-07 1.49427e-06 8.18331e-06 5.58014e-05 0.00078347
        </DataArray>
        <DataArray type="Float32" Name="process rank" NumberOfComponents="1" format="ascii">
          0 0 0 0 0 0 0 0 0 0 0 0
          0 0 0 0 0 0 0 0 0 0 0 0
          0 0 0 0 0 0
        </DataArray>
      </CellData>
      <Points>
        <DataArray type="Float32" Name="Coordinates" NumberOfComponents="3" format="ascii">
          0 0 0 0.5 0 0 0 0.0333333 0 0.5 0.0333333 0
          0 0.0666667 0 0.5 0.0666667 0 0 0.1 0 0.5 0.1 0
          0 0.133333 0 0.5 0.133333 0 0 0.166667 0 0.5 0.166667 0
          0 0.2 0 0.5 0.2 0 0 0.233333 0 0.5 0.233333 0
          0 0.266667 0 0.5 0.266667 0 0 0.3 0 0.5 0.3 0
          0 0.333333 0 0.5 0.333333 0 0 0.366667 0 0.5 0.366667 0
          0 0.4 0 0.5 0.4 0 0 0.433333 0 0.5 0.433333 0
          0 0.466667 0 0.5 0.466667 0 0 0.5 0 0.5 0.5 0
          0 0.533333 0 0.5 0.533333 0 0 0.566667 0 0.5 0.566667 0
          0 0.6 0 0.5 0.6 0 0 0.633333 0 0.5 0.633333 0
          0 0.666667 0 0.5 0.666667 0 0 0.7 0 0.5 0.7 0
          0 0.733333 0 0.5 0.733333 0 0 0.766667 0 0.5 0.766667 0
          0 0.8 0 0.5 0.8 0 0 0.833333 0 0.5 0.833333 0
          0 0.866667 0 0.5 0.866667 0 0 0.9 0 0.5 0.9 0
          0 0.933333 0 0.5 0.933333 0 0 0.966667 0 0.5 0.966667 0
          0 1 0 0.5 1 0
        </DataArray>
      </Points>
      <Cells>
        <DataArray type="Int32" Name="connectivity" NumberOfComponents="1" format="ascii">
          0 1 3 2 2 3 5 4 4 5 7 6
          6 7 9 8 8 9 11 10 10 11 13 12
          12 13 15 14 14 15 17 16 16 17 19 18
          18 19 21 20 20 21 23 22 22 23 25 24
          24 25 27 26 26 27 29 28 28 29 31 30
          30 31 33 32 32 33 35 34 34 35 37 36
          36 37 39 38 38 39 41 40 40 41 43 42
          42 43 45 44 44 45 47 46 46 47 49 48
          48 49 51 50 50 51 53 52 52 53 55 54
          54 55 57 56 56 57 59 58 58 59 61 60
        </DataArray>
        <DataArray type="Int32" Name="offsets" NumberOfComponents="1" format="ascii">
          4 8 12 16 20 24 28 32 36 40 44 48
          52 56 60 64 68 72 76 80 84 88 92 96
          100 104 108 112 116 120
        </DataArray>
        <DataArray type="UInt8" Name="types" NumberOfComponents="1" format="ascii">
          9 9 9 9 9 9 9 9 9 9 9 9
          9 9 9 9 9 9 9 9 9 9 9 9
          9 9 9 9 9 9
        </DataArray>
      </Cells>
    </Piece>
  </UnstructuredGrid>
</VTKFile>
