<?xml version="1.0"?>
<VTKFile type="UnstructuredGrid" version="0.1" byte_order="LittleEndian">
  <UnstructuredGrid>
    <Piece NumberOfCells="30" NumberOfPoints="62">
      <CellData Scalars="Sg">
        <DataArray type="Float32" Name="Sg" NumberOfComponents="1" format="ascii">
          0 0 0 0 0 0 0 0 0 0 0 0
          0 0 0 0 0 0 0 0 0 0 0 0
          0 0 0 0 0 0
        </DataArray>
        <DataArray type="Float32" Name="Sl" NumberOfComponents="1" format="ascii">
          1 1 1 1 1 1 1 1 1 1 1 1
          1 1 1 1 1 1 1 1 1 1 1 1
          1 1 1 1 1 1
        </DataArray>
        <DataArray type="Float32" Name="pg" NumberOfComponents="1" format="ascii">
          24687.8 24360.9 24034 23707 23380.1 23053.1 22726.2 22399.3 22072.3 21745.4 21418.4 21091.5
          20764.6 20437.6 20110.7 19783.7 19456.8 19129.9 18802.9 18476 18149 17822.1 17495.1 17168.2
          16841.3 16514.3 16187.4 15860.4 15533.5 15207
        </DataArray>
        <DataArray type="Float32" Name="pl" NumberOfComponents="1" format="ascii">
          110628 110301 109974 109647 109320 108993 108666 108339 108012 107685 107358 107031
          106704 106377 106050 105723 105396 105070 104743 104416 104089 103762 103435 103108
          102781 102454 102127 101800 101473 101147
        </DataArray>
        <DataArray type="Float32" Name="pc" NumberOfComponents="1" format="ascii">
          -85939.7 -85939.7 -85939.7 -85939.7 -85939.7 -85939.7 -85939.7 -85939.7 -85939.7 -85939.7 -85939.7 -85939.7
          -85939.7 -85939.7 -85939.7 -85939.7 -85939.7 -85939.7 -85939.7 -85939.7 -85939.7 -85939.7 -85939.7 -85939.7
          -85939.7 -85939.7 -85939.7 -85939.7 -85939.7 -85939.7
        </DataArray>
        <DataArray type="Float32" Name="rhoL" NumberOfComponents="1" format="ascii">
          999.855 999.855 999.855 999.855 999.855 999.854 999.854 999.854 999.854 999.854 999.854 999.854
          999.853 999.853 999.853 999.853 999.853 999.853 999.852 999.852 999.852 999.852 999.852 999.852
          999.852 999.851 999.851 999.851 999.851 999.851
        </DataArray>
        <DataArray type="Float32" Name="rhoG" NumberOfComponents="1" format="ascii">
          0.30585 0.3018 0.29775 0.293699 0.289649 0.285598 0.281548 0.277498 0.273447 0.269397 0.265347 0.261296
          0.257246 0.253195 0.249145 0.245095 0.241044 0.236994 0.232944 0.228893 0.224843 0.220793 0.216742 0.212692
          0.208641 0.204591 0.200541 0.19649 0.19244 0.188395
        </DataArray>
        <DataArray type="Float32" Name="mobL" NumberOfComponents="1" format="ascii">
          722.171 722.17 722.17 722.17 722.17 722.17 722.169 722.169 722.169 722.169 722.169 722.169
          722.168 722.168 722.168 722.168 722.168 722.167 722.167 722.167 722.167 722.167 722.166 722.166
          722.166 722.166 722.166 722.166 722.165 722.165
        </DataArray>
        <DataArray type="Float32" Name="mobG" NumberOfComponents="1" format="ascii">
          0 0 0 0 0 0 0 0 0 0 0 0
          0 0 0 0 0 0 0 0 0 0 0 0
          0 0 0 0 0 0
        </DataArray>
        <DataArray type="Float32" Name="porosity" NumberOfComponents="1" format="ascii">
          0.298601 0.298601 0.298601 0.298601 0.298601 0.298601 0.298601 0.298601 0.298601 0.298601 0.298601 0.298601
          0.298601 0.298601 0.298601 0.2986 0.2986 0.2986 0.298598 0.298596 0.298591 0.298582 0.298565 0.298532
          0.298204 0.298095 0.297879 0.297354 0.295205 0.0826521
        </DataArray>
        <DataArray type="Float32" Name="temperature" NumberOfComponents="1" format="ascii">
          281.15 281.15 281.15 281.15 281.15 281.15 281.15 281.15 281.15 281.15 281.15 281.15
          281.15 281.15 281.15 281.15 281.15 281.15 281.15 281.15 281.15 281.15 281.15 281.15
          281.15 281.15 281.15 281.15 281.15 281.15
        </DataArray>
        <DataArray type="Float32" Name="phase presence" NumberOfComponents="1" format="ascii">
          1 1 1 1 1 1 1 1 1 1 1 1
          1 1 1 1 1 1 1 1 1 1 1 1
          1 1 1 1 1 1
        </DataArray>
        <DataArray type="Float32" Name="precipitateVolumeFraction_au" NumberOfComponents="1" format="ascii">
          5.52606e-10 5.52494e-10 5.527e-10 5.52702e-10 5.52682e-10 5.52728e-10 5.52668e-10 5.52696e-10 5.52695e-10 5.52704e-10 5.52682e-10 5.52759e-10
          5.52687e-10 5.52699e-10 5.52742e-10 5.52696e-10 5.5268e-10 5.52688e-10 5.52713e-10 5.52696e-10 5.52705e-10 5.52666e-10 5.52739e-10 7.77068e-10
          0.00026994 0.000269924 0.000269899 0.000269854 5.52534e-10 5.51056e-10
        </DataArray>
        <DataArray type="Float32" Name="precipitateVolumeFraction_nanoAu" NumberOfComponents="1" format="ascii">
          1.67195e-13 1.65807e-13 1.70727e-13 1.70779e-13 1.70448e-13 1.7111e-13 1.70384e-13 1.7071e-13 1.70708e-13 1.70767e-13 1.7065e-13 1.70998e-13
          1.70695e-13 1.70732e-13 1.70845e-13 1.70729e-13 1.70699e-13 1.70713e-13 1.70747e-13 1.70724e-13 1.70729e-13 1.70702e-13 1.81984e-13 2.5808e-11
          6.03897e-08 7.67253e-08 1.02221e-07 1.45737e-07 5.22432e-13 5.19042e-13
        </DataArray>
        <DataArray type="Float32" Name="precipitateVolumeFraction_d" NumberOfComponents="1" format="ascii">
          0.000699647 0.000699647 0.000699647 0.000699648 0.000699648 0.000699648 0.000699649 0.000699649 0.00069965 0.00069965 0.000699651 0.000699653
          0.000699658 0.000699669 0.000699695 0.000699754 0.000699886 0.000700171 0.00070077 0.00070199 0.000704401 0.000709036 0.000717733 0.00073375
          0.000763025 0.00081756 0.000925513 0.00118793 0.00239767 0.108674
        </DataArray>
        <DataArray type="Float32" Name="precipitateVolumeFraction_p" NumberOfComponents="1" format="ascii">
          0.000699647 0.000699647 0.000699647 0.000699648 0.000699648 0.000699648 0.000699649 0.000699649 0.00069965 0.00069965 0.000699651 0.000699653
          0.000699658 0.000699669 0.000699695 0.000699754 0.000699886 0.000700171 0.00070077 0.00070199 0.000704401 0.000709036 0.000717733 0.00073375
          0.000763025 0.00081756 0.000925513 0.00118793 0.00239767 0.108674
        </DataArray>
        <DataArray type="Float32" Name="K" NumberOfComponents="1" format="ascii">
          9.82142e-11 9.82142e-11 9.82142e-11 9.82142e-11 9.82142e-11 9.82142e-11 9.82142e-11 9.82142e-11 9.82142e-11 9.82142e-11 9.82142e-11 9.82142e-11
          9.82141e-11 9.82141e-11 9.8214e-11 9.82139e-11 9.82136e-11 9.82128e-11 9.82113e-11 9.82082e-11 9.82021e-11 9.81904e-11 9.81684e-11 9.81278e-11
          9.77126e-11 9.75751e-11 9.73034e-11 9.66454e-11 9.39888e-11 1.21766e-12
        </DataArray>
        <DataArray type="Float32" Name="X^w_H2O" NumberOfComponents="1" format="ascii">
          0.999853 0.999853 0.999853 0.999853 0.999853 0.999853 0.999853 0.999853 0.999853 0.999853 0.999853 0.999853
          0.999853 0.999853 0.999853 0.999853 0.999853 0.999853 0.999853 0.999853 0.999853 0.999853 0.999853 0.999853
          0.999853 0.999852 0.99985 0.999846 0.999839 0.999839
        </DataArray>
        <DataArray type="Float32" Name="X^w_Air" NumberOfComponents="1" format="ascii">
          2.13005e-37 0 0 0 0 0 0 0 0 0 0 0
          0 0 0 0 0 0 0 0 0 0 0 0
          0 0 0 0 0 0
        </DataArray>
        <DataArray type="Float32" Name="X^w_AuComplex" NumberOfComponents="1" format="ascii">
          1.82898e-16 1.81559e-16 1.86296e-16 1.86344e-16 1.86024e-16 1.8666e-16 1.85959e-16 1.86272e-16 1.86268e-16 1.86324e-16 1.86209e-16 1.86545e-16
          1.86249e-16 1.86284e-16 1.86393e-16 1.86278e-16 1.86247e-16 1.8626e-16 1.86292e-16 1.86268e-16 1.86272e-16 1.86244e-16 1.99029e-16 2.94111e-14
          6.88763e-11 1.07457e-10 1.84629e-10 3.64792e-10 2.0186e-15 2.00202e-15
        </DataArray>
        <DataArray type="Float32" Name="X^w_nanoAu" NumberOfComponents="1" format="ascii">
          4.585e-19 4.54811e-19 4.68216e-19 4.6835e-19 4.67461e-19 4.69251e-19 4.6728e-19 4.68168e-19 4.68163e-19 4.68321e-19 4.6801e-19 4.68951e-19
          4.68126e-19 4.6823e-19 4.68536e-19 4.68218e-19 4.68137e-19 4.68176e-19 4.68268e-19 4.68209e-19 4.68605e-19 5.2455e-19 8.72265e-18 1.20399e-15
          1.65913e-13 2.10885e-13 2.81116e-13 3.9692e-13 1.43242e-18 1.41134e-18
        </DataArray>
        <DataArray type="Float32" Name="X^w_cyanide" NumberOfComponents="1" format="ascii">
          5.0688e-06 5.06876e-06 5.06872e-06 5.06868e-06 5.06864e-06 5.0686e-06 5.06856e-06 5.06852e-06 5.06848e-06 5.06844e-06 5.0684e-06 5.06836e-06
          5.06832e-06 5.06828e-06 5.06824e-06 5.0682e-06 5.06816e-06 5.06812e-06 5.06808e-06 5.06805e-06 5.06801e-06 5.06797e-06 5.06793e-06 5.0679e-06
          5.06835e-06 6.43901e-06 8.57739e-06 1.22512e-05 1.95095e-05 1.94793e-05
        </DataArray>
        <DataArray type="Float32" Name="X^w_citrate" NumberOfComponents="1" format="ascii">
          0.000141796 0.000141796 0.000141796 0.000141796 0.000141796 0.000141796 0.000141796 0.000141796 0.000141796 0.000141796 0.000141796 0.000141796
          0.000141796 0.000141796 0.000141796 0.000141796 0.000141796 0.000141796 0.000141796 0.000141796 0.000141796 0.000141796 0.000141796 0.000141796
          0.000141796 0.000141797 0.000141798 0.000141797 0.000141785 0.000141565
        </DataArray>
        <DataArray type="Float32" Name="X^w_substrate" NumberOfComponents="1" format="ascii">
          1.93791e-28 9.53637e-28 4.69247e-27 2.30881e-26 1.13592e-25 5.58821e-25 2.74896e-24 1.35218e-23 6.65072e-23 3.27094e-22 1.60859e-21 7.91024e-21
          3.88959e-20 1.91244e-19 9.40261e-19 4.62264e-18 2.27264e-17 1.11739e-16 5.49529e-16 2.70421e-15 1.33248e-14 6.5832e-14 3.26931e-13 1.63937e-12
          8.36679e-12 4.40681e-11 2.45532e-10 1.51614e-09 1.15852e-08 1.66738e-07
        </DataArray>
        <DataArray type="Float32" Name="m^w_H2O" NumberOfComponents="1" format="ascii">
          55492.6 55492.6 55492.5 55492.5 55492.5 55492.5 55492.5 55492.5 55492.5 55492.5 55492.5 55492.5
          55492.5 55492.4 55492.4 55492.4 55492.4 55492.4 55492.4 55492.4 55492.4 55492.4 55492.4 55492.4
          55492.3 55492.3 55492.1 55491.9 55491.5 55491.5
        </DataArray>
        <DataArray type="Float32" Name="m^w_Air" NumberOfComponents="1" format="ascii">
          7.3541e-33 1.30174e-34 2.26558e-36 3.87605e-38 0 0 0 0 0 0 0 0
          0 0 0 0 0 0 0 0 0 0 0 0
          0 0 0 0 0 0
        </DataArray>
        <DataArray type="Float32" Name="m^w_AuComplex" NumberOfComponents="1" format="ascii">
          9.28426e-13 9.21625e-13 9.45671e-13 9.45914e-13 9.44289e-13 9.47522e-13 9.43959e-13 9.45548e-13 9.4553e-13 9.45811e-13 9.4523e-13 9.46934e-13
          9.45432e-13 9.4561e-13 9.46163e-13 9.45579e-13 9.45421e-13 9.45485e-13 9.45648e-13 9.45527e-13 9.45546e-13 9.45405e-13 1.0103e-12 1.49296e-10
          3.49627e-07 5.45467e-07 9.37205e-07 1.85174e-06 1.02467e-11 1.01625e-11
        </DataArray>
        <DataArray type="Float32" Name="m^w_nanoAu" NumberOfComponents="1" format="ascii">
          2.32743e-15 2.3087e-15 2.37675e-15 2.37743e-15 2.37292e-15 2.382e-15 2.37199e-15 2.3765e-15 2.37648e-15 2.37728e-15 2.3757e-15 2.38048e-15
          2.37629e-15 2.37682e-15 2.37837e-15 2.37676e-15 2.37634e-15 2.37654e-15 2.377e-15 2.37671e-15 2.37872e-15 2.6627e-15 4.42776e-14 6.11166e-12
          8.42203e-10 1.07049e-09 1.42699e-09 2.01483e-09 7.27119e-15 7.16417e-15
        </DataArray>
        <DataArray type="Float32" Name="m^w_cyanide" NumberOfComponents="1" format="ascii">
          0.194776 0.194774 0.194773 0.194771 0.194769 0.194768 0.194766 0.194765 0.194763 0.194762 0.19476 0.194758
          0.194757 0.194755 0.194754 0.194752 0.194751 0.194749 0.194748 0.194746 0.194745 0.194743 0.194742 0.19474
          0.194758 0.247427 0.329597 0.470769 0.749677 0.748515
        </DataArray>
        <DataArray type="Float32" Name="m^w_citrate" NumberOfComponents="1" format="ascii">
          0.749742 0.749742 0.749742 0.749742 0.749742 0.749742 0.749742 0.749742 0.749741 0.749741 0.749741 0.749741
          0.749741 0.749741 0.749741 0.749741 0.74974 0.74974 0.74974 0.74974 0.74974 0.74974 0.74974 0.74974
          0.749739 0.749744 0.749749 0.749747 0.74968 0.748517
        </DataArray>
        <DataArray type="Float32" Name="m^w_substrate" NumberOfComponents="1" format="ascii">
          1.07551e-24 5.29251e-24 2.60423e-23 1.28135e-22 6.30412e-22 3.10135e-21 1.52562e-20 7.50433e-20 3.69102e-19 1.81531e-18 8.92739e-18 4.39003e-17
          2.15865e-16 1.06137e-15 5.21827e-15 2.56548e-14 1.26127e-13 6.20131e-13 3.04977e-12 1.50078e-11 7.39499e-11 3.65354e-10 1.8144e-09 9.09818e-09
          4.6434e-08 2.44569e-07 1.36265e-06 8.41428e-06 6.42956e-05 0.000925359
        </DataArray>
        <DataArray type="Float32" Name="process rank" NumberOfComponents="1" format="ascii">
          0 0 0 0 0 0 0 0 0 0 0 0
          0 0 0 0 0 0 0 0 0 0 0 0
          0 0 0 0 0 0
        </DataArray>
      </CellData>
      <Points>
        <DataArray type="Float32" Name="Coordinates" NumberOfComponents="3" format="ascii">
          0 0 0 0.5 0 0 0 0.0333333 0 0.5 0.0333333 0
          0 0.0666667 0 0.5 0.0666667 0 0 0.1 0 0.5 0.1 0
          0 0.133333 0 0.5 0.133333 0 0 0.166667 0 0.5 0.166667 0
          0 0.2 0 0.5 0.2 0 0 0.233333 0 0.5 0.233333 0
          0 0.266667 0 0.5 0.266667 0 0 0.3 0 0.5 0.3 0
          0 0.333333 0 0.5 0.333333 0 0 0.366667 0 0.5 0.366667 0
          0 0.4 0 0.5 0.4 0 0 0.433333 0 0.5 0.433333 0
          0 0.466667 0 0.5 0.466667 0 0 0.5 0 0.5 0.5 0
          0 0.533333 0 0.5 0.533333 0 0 0.566667 0 0.5 0.566667 0
          0 0.6 0 0.5 0.6 0 0 0.633333 0 0.5 0.633333 0
          0 0.666667 0 0.5 0.666667 0 0 0.7 0 0.5 0.7 0
          0 0.733333 0 0.5 0.733333 0 0 0.766667 0 0.5 0.766667 0
          0 0.8 0 0.5 0.8 0 0 0.833333 0 0.5 0.833333 0
          0 0.866667 0 0.5 0.866667 0 0 0.9 0 0.5 0.9 0
          0 0.933333 0 0.5 0.933333 0 0 0.966667 0 0.5 0.966667 0
          0 1 0 0.5 1 0
        </DataArray>
      </Points>
      <Cells>
        <DataArray type="Int32" Name="connectivity" NumberOfComponents="1" format="ascii">
          0 1 3 2 2 3 5 4 4 5 7 6
          6 7 9 8 8 9 11 10 10 11 13 12
          12 13 15 14 14 15 17 16 16 17 19 18
          18 19 21 20 20 21 23 22 22 23 25 24
          24 25 27 26 26 27 29 28 28 29 31 30
          30 31 33 32 32 33 35 34 34 35 37 36
          36 37 39 38 38 39 41 40 40 41 43 42
          42 43 45 44 44 45 47 46 46 47 49 48
          48 49 51 50 50 51 53 52 52 53 55 54
          54 55 57 56 56 57 59 58 58 59 61 60
        </DataArray>
        <DataArray type="Int32" Name="offsets" NumberOfComponents="1" format="ascii">
          4 8 12 16 20 24 28 32 36 40 44 48
          52 56 60 64 68 72 76 80 84 88 92 96
          100 104 108 112 116 120
        </DataArray>
        <DataArray type="UInt8" Name="types" NumberOfComponents="1" format="ascii">
          9 9 9 9 9 9 9 9 9 9 9 9
          9 9 9 9 9 9 9 9 9 9 9 9
          9 9 9 9 9 9
        </DataArray>
      </Cells>
    </Piece>
  </UnstructuredGrid>
</VTKFile>
