<?xml version="1.0"?>
<VTKFile type="UnstructuredGrid" version="0.1" byte_order="LittleEndian">
  <UnstructuredGrid>
    <Piece NumberOfCells="30" NumberOfPoints="62">
      <CellData Scalars="Sg">
        <DataArray type="Float32" Name="Sg" NumberOfComponents="1" format="ascii">
          0 0 0 0 0 0 0 0 0 0 0 0
          0 0 0 0 0 0 0 0 0 0 0 0
          0 0 0 0 0 0
        </DataArray>
        <DataArray type="Float32" Name="Sl" NumberOfComponents="1" format="ascii">
          1 1 1 1 1 1 1 1 1 1 1 1
          1 1 1 1 1 1 1 1 1 1 1 1
          1 1 1 1 1 1
        </DataArray>
        <DataArray type="Float32" Name="pg" NumberOfComponents="1" format="ascii">
          24687.8 24360.9 24034 23707 23380.1 23053.1 22726.2 22399.3 22072.3 21745.4 21418.4 21091.5
          20764.6 20437.6 20110.7 19783.7 19456.8 19129.8 18802.9 18476 18149 17822.1 17495.1 17168.2
          16841.3 16514.3 16187.4 15860.4 15533.5 15210
        </DataArray>
        <DataArray type="Float32" Name="pl" NumberOfComponents="1" format="ascii">
          110628 110301 109974 109647 109320 108993 108666 108339 108012 107685 107358 107031
          106704 106377 106050 105723 105396 105070 104743 104416 104089 103762 103435 103108
          102781 102454 102127 101800 101473 101150
        </DataArray>
        <DataArray type="Float32" Name="pc" NumberOfComponents="1" format="ascii">
          -85939.7 -85939.7 -85939.7 -85939.7 -85939.7 -85939.7 -85939.7 -85939.7 -85939.7 -85939.7 -85939.7 -85939.7
          -85939.7 -85939.7 -85939.7 -85939.7 -85939.7 -85939.7 -85939.7 -85939.7 -85939.7 -85939.7 -85939.7 -85939.7
          -85939.7 -85939.7 -85939.7 -85939.7 -85939.7 -85939.7
        </DataArray>
        <DataArray type="Float32" Name="rhoL" NumberOfComponents="1" format="ascii">
          999.855 999.855 999.855 999.855 999.855 999.854 999.854 999.854 999.854 999.854 999.854 999.854
          999.853 999.853 999.853 999.853 999.853 999.853 999.852 999.852 999.852 999.852 999.852 999.852
          999.852 999.851 999.851 999.851 999.851 999.851
        </DataArray>
        <DataArray type="Float32" Name="rhoG" NumberOfComponents="1" format="ascii">
          0.30585 0.3018 0.29775 0.293699 0.289649 0.285598 0.281548 0.277498 0.273447 0.269397 0.265347 0.261296
          0.257246 0.253195 0.249145 0.245095 0.241044 0.236994 0.232944 0.228893 0.224843 0.220793 0.216742 0.212692
          0.208641 0.204591 0.200541 0.19649 0.19244 0.188432
        </DataArray>
        <DataArray type="Float32" Name="mobL" NumberOfComponents="1" format="ascii">
          722.171 722.17 722.17 722.17 722.17 722.17 722.169 722.169 722.169 722.169 722.169 722.169
          722.168 722.168 722.168 722.168 722.168 722.167 722.167 722.167 722.167 722.167 722.166 722.166
          722.166 722.166 722.166 722.166 722.165 722.165
        </DataArray>
        <DataArray type="Float32" Name="mobG" NumberOfComponents="1" format="ascii">
          0 0 0 0 0 0 0 0 0 0 0 0
          0 0 0 0 0 0 0 0 0 0 0 0
          0 0 0 0 0 0
        </DataArray>
        <DataArray type="Float32" Name="porosity" NumberOfComponents="1" format="ascii">
          0.298846 0.298846 0.298846 0.298846 0.298846 0.298846 0.298846 0.298846 0.298846 0.298846 0.298846 0.298846
          0.298846 0.298846 0.298846 0.298846 0.298846 0.298845 0.298844 0.298842 0.298839 0.298831 0.298817 0.298791
          0.298473 0.298383 0.298202 0.297735 0.295383 0.0431336
        </DataArray>
        <DataArray type="Float32" Name="temperature" NumberOfComponents="1" format="ascii">
          281.15 281.15 281.15 281.15 281.15 281.15 281.15 281.15 281.15 281.15 281.15 281.15
          281.15 281.15 281.15 281.15 281.15 281.15 281.15 281.15 281.15 281.15 281.15 281.15
          281.15 281.15 281.15 281.15 281.15 281.15
        </DataArray>
        <DataArray type="Float32" Name="phase presence" NumberOfComponents="1" format="ascii">
          1 1 1 1 1 1 1 1 1 1 1 1
          1 1 1 1 1 1 1 1 1 1 1 1
          1 1 1 1 1 1
        </DataArray>
        <DataArray type="Float32" Name="precipitateVolumeFraction_au" NumberOfComponents="1" format="ascii">
          5.52649e-10 5.52537e-10 5.52747e-10 5.5275e-10 5.52729e-10 5.52776e-10 5.52715e-10 5.52743e-10 5.52742e-10 5.52751e-10 5.52729e-10 5.52807e-10
          5.52734e-10 5.52746e-10 5.52789e-10 5.52743e-10 5.52727e-10 5.52735e-10 5.5276e-10 5.52744e-10 5.52752e-10 5.52713e-10 5.5299e-10 1.23993e-09
          0.000269941 0.000269925 0.0002699 0.000269851 5.52581e-10 5.5109e-10
        </DataArray>
        <DataArray type="Float32" Name="precipitateVolumeFraction_nanoAu" NumberOfComponents="1" format="ascii">
          1.23464e-13 1.23439e-13 1.23486e-13 1.23486e-13 1.23482e-13 1.23492e-13 1.23479e-13 1.23485e-13 1.23485e-13 1.23487e-13 1.23482e-13 1.23499e-13
          1.23483e-13 1.23486e-13 1.23496e-13 1.23485e-13 1.23482e-13 1.23483e-13 1.23489e-13 1.23486e-13 1.23487e-13 1.23486e-13 1.34781e-13 2.57626e-11
          6.03262e-08 7.66546e-08 1.02145e-07 1.45671e-07 4.75628e-13 4.73052e-13
        </DataArray>
        <DataArray type="Float32" Name="precipitateVolumeFraction_d" NumberOfComponents="1" format="ascii">
          0.000576862 0.000576862 0.000576862 0.000576862 0.000576863 0.000576863 0.000576863 0.000576864 0.000576864 0.000576864 0.000576865 0.000576867
          0.000576871 0.00057688 0.000576901 0.000576949 0.000577057 0.000577289 0.000577777 0.000578771 0.000580737 0.000584514 0.000591603 0.000604665
          0.00062858 0.000673381 0.000763763 0.00099729 0.00230832 0.128433
        </DataArray>
        <DataArray type="Float32" Name="precipitateVolumeFraction_p" NumberOfComponents="1" format="ascii">
          0.000576862 0.000576862 0.000576862 0.000576862 0.000576863 0.000576863 0.000576863 0.000576864 0.000576864 0.000576864 0.000576865 0.000576867
          0.000576871 0.00057688 0.000576901 0.000576949 0.000577057 0.000577289 0.000577777 0.000578771 0.000580737 0.000584514 0.000591603 0.000604665
          0.00062858 0.000673381 0.000763763 0.00099729 0.00230832 0.128433
        </DataArray>
        <DataArray type="Float32" Name="K" NumberOfComponents="1" format="ascii">
          9.85257e-11 9.85257e-11 9.85257e-11 9.85257e-11 9.85257e-11 9.85257e-11 9.85257e-11 9.85257e-11 9.85257e-11 9.85257e-11 9.85257e-11 9.85257e-11
          9.85256e-11 9.85256e-11 9.85256e-11 9.85254e-11 9.85252e-11 9.85246e-11 9.85233e-11 9.85208e-11 9.85158e-11 9.85062e-11 9.84882e-11 9.84551e-11
          9.80523e-11 9.7939e-11 9.77108e-11 9.71231e-11 9.42073e-11 1.59066e-13
        </DataArray>
        <DataArray type="Float32" Name="X^w_H2O" NumberOfComponents="1" format="ascii">
          0.999853 0.999853 0.999853 0.999853 0.999853 0.999853 0.999853 0.999853 0.999853 0.999853 0.999853 0.999853
          0.999853 0.999853 0.999853 0.999853 0.999853 0.999853 0.999853 0.999853 0.999853 0.999853 0.999853 0.999853
          0.999853 0.999852 0.99985 0.999846 0.999839 0.999839
        </DataArray>
        <DataArray type="Float32" Name="X^w_Air" NumberOfComponents="1" format="ascii">
          0 0 0 0 0 0 0 0 0 0 0 0
          0 0 0 0 0 0 0 0 0 0 0 0
          0 0 0 0 0 0
        </DataArray>
        <DataArray type="Float32" Name="X^w_AuComplex" NumberOfComponents="1" format="ascii">
          1.40709e-16 1.40681e-16 1.40734e-16 1.40735e-16 1.4073e-16 1.40742e-16 1.40726e-16 1.40734e-16 1.40734e-16 1.40736e-16 1.40731e-16 1.4075e-16
          1.40732e-16 1.40735e-16 1.40746e-16 1.40735e-16 1.40731e-16 1.40733e-16 1.40739e-16 1.40735e-16 1.40737e-16 1.40736e-16 1.5353e-16 2.93515e-14
          6.87588e-11 1.07294e-10 1.84401e-10 3.6451e-10 1.84543e-15 1.83253e-15
        </DataArray>
        <DataArray type="Float32" Name="X^w_nanoAu" NumberOfComponents="1" format="ascii">
          3.38569e-19 3.38501e-19 3.38629e-19 3.38631e-19 3.38619e-19 3.38647e-19 3.3861e-19 3.38627e-19 3.38627e-19 3.38632e-19 3.3862e-19 3.38666e-19
          3.38622e-19 3.3863e-19 3.38656e-19 3.38628e-19 3.38618e-19 3.38623e-19 3.38639e-19 3.38631e-19 3.39017e-19 3.94756e-19 8.56346e-18 1.20114e-15
          1.65739e-13 2.1069e-13 2.80908e-13 3.96744e-13 1.30409e-18 1.28661e-18
        </DataArray>
        <DataArray type="Float32" Name="X^w_cyanide" NumberOfComponents="1" format="ascii">
          5.06365e-06 5.06365e-06 5.06365e-06 5.06365e-06 5.06366e-06 5.06366e-06 5.06366e-06 5.06366e-06 5.06366e-06 5.06367e-06 5.06367e-06 5.06367e-06
          5.06367e-06 5.06368e-06 5.06368e-06 5.06368e-06 5.06368e-06 5.06369e-06 5.06369e-06 5.06369e-06 5.06369e-06 5.0637e-06 5.0637e-06 5.0637e-06
          5.06419e-06 6.43442e-06 8.57251e-06 1.22469e-05 1.95098e-05 1.94843e-05
        </DataArray>
        <DataArray type="Float32" Name="X^w_citrate" NumberOfComponents="1" format="ascii">
          0.000141796 0.000141796 0.000141796 0.000141796 0.000141796 0.000141796 0.000141796 0.000141796 0.000141796 0.000141796 0.000141796 0.000141796
          0.000141796 0.000141796 0.000141796 0.000141796 0.000141796 0.000141796 0.000141796 0.000141796 0.000141796 0.000141796 0.000141796 0.000141796
          0.000141796 0.000141797 0.000141798 0.000141797 0.000141787 0.000141602
        </DataArray>
        <DataArray type="Float32" Name="X^w_substrate" NumberOfComponents="1" format="ascii">
          1.11943e-26 4.74688e-26 2.01273e-25 8.53352e-25 3.61773e-24 1.53359e-23 6.50048e-23 2.75517e-22 1.16766e-21 4.94821e-21 2.09675e-20 8.88401e-20
          3.7639e-19 1.59453e-18 6.7546e-18 2.86116e-17 1.21193e-16 5.13381e-16 2.1752e-15 9.22157e-15 3.91422e-14 1.66561e-13 7.12234e-13 3.07362e-12
          1.34879e-11 6.09901e-11 2.91068e-10 1.53628e-09 1.01161e-08 1.40761e-07
        </DataArray>
        <DataArray type="Float32" Name="m^w_H2O" NumberOfComponents="1" format="ascii">
          55492.6 55492.6 55492.5 55492.5 55492.5 55492.5 55492.5 55492.5 55492.5 55492.5 55492.5 55492.5
          55492.5 55492.4 55492.4 55492.4 55492.4 55492.4 55492.4 55492.4 55492.4 55492.4 55492.4 55492.4
          55492.3 55492.3 55492.1 55491.9 55491.5 55491.5
        </DataArray>
        <DataArray type="Float32" Name="m^w_Air" NumberOfComponents="1" format="ascii">
          0 0 0 0 0 0 0 0 0 0 0 0
          0 0 0 0 0 0 0 0 0 0 0 0
          0 0 0 0 0 0
        </DataArray>
        <DataArray type="Float32" Name="m^w_AuComplex" NumberOfComponents="1" format="ascii">
          7.14265e-13 7.14121e-13 7.14393e-13 7.14396e-13 7.1437e-13 7.14431e-13 7.14352e-13 7.14389e-13 7.14388e-13 7.144e-13 7.14373e-13 7.14473e-13
          7.1438e-13 7.14395e-13 7.14452e-13 7.14392e-13 7.14372e-13 7.14382e-13 7.14415e-13 7.14395e-13 7.14406e-13 7.14398e-13 7.79343e-13 1.48993e-10
          3.49031e-07 5.44641e-07 9.36051e-07 1.85031e-06 9.36768e-12 9.3022e-12
        </DataArray>
        <DataArray type="Float32" Name="m^w_nanoAu" NumberOfComponents="1" format="ascii">
          1.71864e-15 1.71829e-15 1.71894e-15 1.71895e-15 1.71889e-15 1.71903e-15 1.71884e-15 1.71893e-15 1.71893e-15 1.71896e-15 1.71889e-15 1.71913e-15
          1.71891e-15 1.71894e-15 1.71908e-15 1.71893e-15 1.71888e-15 1.71891e-15 1.71899e-15 1.71895e-15 1.72091e-15 2.00385e-15 4.34695e-14 6.09718e-12
          8.41316e-10 1.0695e-09 1.42593e-09 2.01394e-09 6.61977e-15 6.53104e-15
        </DataArray>
        <DataArray type="Float32" Name="m^w_cyanide" NumberOfComponents="1" format="ascii">
          0.194578 0.194578 0.194578 0.194578 0.194578 0.194578 0.194578 0.194578 0.194578 0.194578 0.194578 0.194578
          0.194578 0.194579 0.194579 0.194579 0.194579 0.194579 0.194579 0.194579 0.194579 0.194579 0.194579 0.194579
          0.194598 0.247251 0.32941 0.470603 0.749689 0.74871
        </DataArray>
        <DataArray type="Float32" Name="m^w_citrate" NumberOfComponents="1" format="ascii">
          0.749742 0.749742 0.749742 0.749742 0.749742 0.749742 0.749742 0.749741 0.749741 0.749741 0.749741 0.749741
          0.749741 0.749741 0.749741 0.749741 0.74974 0.74974 0.74974 0.74974 0.74974 0.74974 0.74974 0.74974
          0.749739 0.749744 0.749748 0.749746 0.749691 0.748712
        </DataArray>
        <DataArray type="Float32" Name="m^w_substrate" NumberOfComponents="1" format="ascii">
          6.21262e-23 2.63443e-22 1.11703e-21 4.73595e-21 2.00777e-20 8.51112e-20 3.60765e-19 1.52907e-18 6.48028e-18 2.74616e-17 1.16365e-16 4.93046e-16
          2.08889e-15 8.84936e-15 3.74867e-14 1.58789e-13 6.72598e-13 2.84916e-12 1.2072e-11 5.11779e-11 2.17231e-10 9.24382e-10 3.95276e-09 1.7058e-08
          7.4855e-08 3.38483e-07 1.61537e-06 8.52604e-06 5.61423e-05 0.000781197
        </DataArray>
        <DataArray type="Float32" Name="process rank" NumberOfComponents="1" format="ascii">
          0 0 0 0 0 0 0 0 0 0 0 0
          0 0 0 0 0 0 0 0 0 0 0 0
          0 0 0 0 0 0
        </DataArray>
      </CellData>
      <Points>
        <DataArray type="Float32" Name="Coordinates" NumberOfComponents="3" format="ascii">
          0 0 0 0.5 0 0 0 0.0333333 0 0.5 0.0333333 0
          0 0.0666667 0 0.5 0.0666667 0 0 0.1 0 0.5 0.1 0
          0 0.133333 0 0.5 0.133333 0 0 0.166667 0 0.5 0.166667 0
          0 0.2 0 0.5 0.2 0 0 0.233333 0 0.5 0.233333 0
          0 0.266667 0 0.5 0.266667 0 0 0.3 0 0.5 0.3 0
          0 0.333333 0 0.5 0.333333 0 0 0.366667 0 0.5 0.366667 0
          0 0.4 0 0.5 0.4 0 0 0.433333 0 0.5 0.433333 0
          0 0.466667 0 0.5 0.466667 0 0 0.5 0 0.5 0.5 0
          0 0.533333 0 0.5 0.533333 0 0 0.566667 0 0.5 0.566667 0
          0 0.6 0 0.5 0.6 0 0 0.633333 0 0.5 0.633333 0
          0 0.666667 0 0.5 0.666667 0 0 0.7 0 0.5 0.7 0
          0 0.733333 0 0.5 0.733333 0 0 0.766667 0 0.5 0.766667 0
          0 0.8 0 0.5 0.8 0 0 0.833333 0 0.5 0.833333 0
          0 0.866667 0 0.5 0.866667 0 0 0.9 0 0.5 0.9 0
          0 0.933333 0 0.5 0.933333 0 0 0.966667 0 0.5 0.966667 0
          0 1 0 0.5 1 0
        </DataArray>
      </Points>
      <Cells>
        <DataArray type="Int32" Name="connectivity" NumberOfComponents="1" format="ascii">
          0 1 3 2 2 3 5 4 4 5 7 6
          6 7 9 8 8 9 11 10 10 11 13 12
          12 13 15 14 14 15 17 16 16 17 19 18
          18 19 21 20 20 21 23 22 22 23 25 24
          24 25 27 26 26 27 29 28 28 29 31 30
          30 31 33 32 32 33 35 34 34 35 37 36
          36 37 39 38 38 39 41 40 40 41 43 42
          42 43 45 44 44 45 47 46 46 47 49 48
          48 49 51 50 50 51 53 52 52 53 55 54
          54 55 57 56 56 57 59 58 58 59 61 60
        </DataArray>
        <DataArray type="Int32" Name="offsets" NumberOfComponents="1" format="ascii">
          4 8 12 16 20 24 28 32 36 40 44 48
          52 56 60 64 68 72 76 80 84 88 92 96
          100 104 108 112 116 120
        </DataArray>
        <DataArray type="UInt8" Name="types" NumberOfComponents="1" format="ascii">
          9 9 9 9 9 9 9 9 9 9 9 9
          9 9 9 9 9 9 9 9 9 9 9 9
          9 9 9 9 9 9
        </DataArray>
      </Cells>
    </Piece>
  </UnstructuredGrid>
</VTKFile>
