<?xml version="1.0"?>
<VTKFile type="UnstructuredGrid" version="0.1" byte_order="LittleEndian">
  <UnstructuredGrid>
    <Piece NumberOfCells="30" NumberOfPoints="62">
      <CellData Scalars="Sg">
        <DataArray type="Float32" Name="Sg" NumberOfComponents="1" format="ascii">
          0.0886223 0.0883607 0.0873201 0.0826988 0.0626884 0 0 0 0 0 0 0
          0 0 0 0 0 0 0 0 0 0 0 0
          0 0 0 0 0 0
        </DataArray>
        <DataArray type="Float32" Name="Sl" NumberOfComponents="1" format="ascii">
          0.911378 0.911639 0.91268 0.917301 0.937312 1 1 1 1 1 1 1
          1 1 1 1 1 1 1 1 1 1 1 1
          1 1 1 1 1 1
        </DataArray>
        <DataArray type="Float32" Name="pg" NumberOfComponents="1" format="ascii">
          50075.1 49673.2 49048.2 47397.4 41338.2 23053.1 22726.2 22399.3 22072.3 21745.4 21418.4 21091.5
          20764.6 20437.6 20110.7 19783.7 19456.8 19129.9 18802.9 18476 18149 17822.1 17495.1 17168.2
          16841.3 16514.3 16187.4 15860.4 15533.5 15206.6
        </DataArray>
        <DataArray type="Float32" Name="pl" NumberOfComponents="1" format="ascii">
          110628 110301 109974 109647 109320 108993 108666 108339 108012 107685 107358 107031
          106704 106377 106050 105723 105396 105070 104743 104416 104089 103762 103435 103108
          102781 102454 102127 101800 101473 101146
        </DataArray>
        <DataArray type="Float32" Name="pc" NumberOfComponents="1" format="ascii">
          -60552.4 -60627.4 -60925.5 -62249.3 -67981.6 -85939.7 -85939.7 -85939.7 -85939.7 -85939.7 -85939.7 -85939.7
          -85939.7 -85939.7 -85939.7 -85939.7 -85939.7 -85939.7 -85939.7 -85939.7 -85939.7 -85939.7 -85939.7 -85939.7
          -85939.7 -85939.7 -85939.7 -85939.7 -85939.7 -85939.7
        </DataArray>
        <DataArray type="Float32" Name="rhoL" NumberOfComponents="1" format="ascii">
          999.855 999.855 999.855 999.855 999.855 999.854 999.854 999.854 999.854 999.854 999.854 999.854
          999.853 999.853 999.853 999.853 999.853 999.853 999.852 999.852 999.852 999.852 999.852 999.852
          999.852 999.851 999.851 999.851 999.851 999.851
        </DataArray>
        <DataArray type="Float32" Name="rhoG" NumberOfComponents="1" format="ascii">
          0.620365 0.615387 0.607643 0.587192 0.512126 0.285598 0.281548 0.277498 0.273447 0.269397 0.265347 0.261296
          0.257246 0.253195 0.249145 0.245095 0.241044 0.236994 0.232944 0.228893 0.224843 0.220793 0.216742 0.212692
          0.208641 0.204591 0.200541 0.19649 0.19244 0.18839
        </DataArray>
        <DataArray type="Float32" Name="mobL" NumberOfComponents="1" format="ascii">
          722.171 722.17 722.17 722.17 722.17 722.17 722.169 722.169 722.169 722.169 722.169 722.169
          722.168 722.168 722.168 722.168 722.168 722.167 722.167 722.167 722.167 722.167 722.166 722.166
          722.166 722.166 722.166 722.166 722.165 722.165
        </DataArray>
        <DataArray type="Float32" Name="mobG" NumberOfComponents="1" format="ascii">
          0 0 0 0 0 0 0 0 0 0 0 0
          0 0 0 0 0 0 0 0 0 0 0 0
          0 0 0 0 0 0
        </DataArray>
        <DataArray type="Float32" Name="porosity" NumberOfComponents="1" format="ascii">
          0.298531 0.298531 0.298531 0.29853 0.29853 0.298529 0.298529 0.298528 0.298526 0.298524 0.298521 0.298517
          0.298512 0.298504 0.298494 0.298481 0.298463 0.298438 0.298405 0.29836 0.298298 0.298213 0.298092 0.297914
          0.29737 0.296915 0.296063 0.294083 0.287009 0.168682
        </DataArray>
        <DataArray type="Float32" Name="temperature" NumberOfComponents="1" format="ascii">
          281.15 281.15 281.15 281.15 281.15 281.15 281.15 281.15 281.15 281.15 281.15 281.15
          281.15 281.15 281.15 281.15 281.15 281.15 281.15 281.15 281.15 281.15 281.15 281.15
          281.15 281.15 281.15 281.15 281.15 281.15
        </DataArray>
        <DataArray type="Float32" Name="phase presence" NumberOfComponents="1" format="ascii">
          3 3 3 3 3 1 1 1 1 1 1 1
          1 1 1 1 1 1 1 1 1 1 1 1
          1 1 1 1 1 1
        </DataArray>
        <DataArray type="Float32" Name="precipitateVolumeFraction_au" NumberOfComponents="1" format="ascii">
          5.49273e-10 5.49268e-10 5.49268e-10 5.49269e-10 5.49268e-10 5.4927e-10 5.49267e-10 5.49271e-10 5.49272e-10 5.49255e-10 5.49288e-10 5.49298e-10
          5.49273e-10 5.49298e-10 5.49247e-10 5.49285e-10 5.49285e-10 5.49256e-10 5.49294e-10 5.49251e-10 5.49248e-10 5.493e-10 5.49337e-10 6.60386e-10
          0.000269942 0.000269925 0.0002699 0.000269857 5.4881e-10 5.47815e-10
        </DataArray>
        <DataArray type="Float32" Name="precipitateVolumeFraction_nanoAu" NumberOfComponents="1" format="ascii">
          3.60695e-12 3.60649e-12 3.60578e-12 3.60582e-12 3.60524e-12 3.61223e-12 3.59796e-12 3.60774e-12 3.60688e-12 3.59034e-12 3.61436e-12 3.61673e-12
          3.6044e-12 3.61039e-12 3.59822e-12 3.6052e-12 3.6043e-12 3.60079e-12 3.60408e-12 3.6005e-12 3.60035e-12 3.60265e-12 3.61425e-12 2.94796e-11
          5.90742e-08 7.52519e-08 1.00493e-07 1.43399e-07 3.93474e-12 3.89693e-12
        </DataArray>
        <DataArray type="Float32" Name="precipitateVolumeFraction_d" NumberOfComponents="1" format="ascii">
          0.000734532 0.000734602 0.000734702 0.000734842 0.000735039 0.000735316 0.000735704 0.000736244 0.000736996 0.000738038 0.000739474 0.000741447
          0.000744144 0.000747816 0.000752798 0.000759536 0.000768631 0.000780898 0.000797472 0.000819967 0.000850759 0.000893504 0.00095415 0.00104306
          0.00117997 0.00140749 0.00183369 0.00282357 0.0064953 0.0656589
        </DataArray>
        <DataArray type="Float32" Name="precipitateVolumeFraction_p" NumberOfComponents="1" format="ascii">
          0.000734532 0.000734602 0.000734702 0.000734842 0.000735039 0.000735316 0.000735704 0.000736244 0.000736996 0.000738038 0.000739474 0.000741447
          0.000744144 0.000747816 0.000752798 0.000759536 0.000768631 0.000780898 0.000797472 0.000819967 0.000850759 0.000893504 0.00095415 0.00104306
          0.00117997 0.00140749 0.00183369 0.00282357 0.0064953 0.0656589
        </DataArray>
        <DataArray type="Float32" Name="K" NumberOfComponents="1" format="ascii">
          9.81258e-11 9.81256e-11 9.81254e-11 9.8125e-11 9.81245e-11 9.81238e-11 9.81229e-11 9.81215e-11 9.81196e-11 9.81169e-11 9.81133e-11 9.81083e-11
          9.81015e-11 9.80922e-11 9.80796e-11 9.80625e-11 9.80395e-11 9.80085e-11 9.79666e-11 9.79097e-11 9.78319e-11 9.7724e-11 9.75711e-11 9.73473e-11
          9.66653e-11 9.60977e-11 9.50419e-11 9.26262e-11 8.44021e-11 1.26039e-11
        </DataArray>
        <DataArray type="Float32" Name="X^w_H2O" NumberOfComponents="1" format="ascii">
          0.999838 0.999838 0.999838 0.999839 0.999841 0.999848 0.999853 0.999853 0.999853 0.999853 0.999853 0.999853
          0.999853 0.999853 0.999853 0.999853 0.999853 0.999853 0.999853 0.999853 0.999853 0.999853 0.999853 0.999853
          0.999853 0.999852 0.99985 0.999846 0.999839 0.99984
        </DataArray>
        <DataArray type="Float32" Name="X^w_Air" NumberOfComponents="1" format="ascii">
          1.51894e-05 1.50648e-05 1.48711e-05 1.43594e-05 1.24812e-05 5.74977e-06 9.59011e-08 1.57076e-09 2.52945e-11 4.0069e-13 6.22652e-15 9.49108e-17
          1.42349e-18 2.09258e-20 3.02305e-22 4.2763e-24 5.93319e-26 8.07555e-28 1.07495e-29 1.3978e-31 1.7724e-33 2.18145e-35 2.5791e-37 0
          0 0 0 0 0 0
        </DataArray>
        <DataArray type="Float32" Name="X^w_AuComplex" NumberOfComponents="1" format="ascii">
          3.58761e-15 2.61357e-15 2.57271e-15 5.42987e-15 3.0856e-15 3.67469e-15 3.55888e-15 3.56862e-15 3.56789e-15 3.55174e-15 3.57548e-15 3.57792e-15
          3.5659e-15 3.57189e-15 3.55999e-15 3.56692e-15 3.56607e-15 3.56262e-15 3.5658e-15 3.56215e-15 3.56178e-15 3.56363e-15 3.57636e-15 3.35539e-14
          6.85526e-11 1.07669e-10 1.86423e-10 3.71217e-10 1.52846e-14 1.48115e-14
        </DataArray>
        <DataArray type="Float32" Name="X^w_nanoAu" NumberOfComponents="1" format="ascii">
          -5.35033e-17 1.8616e-16 -1.0684e-15 5.75054e-16 6.58189e-16 1.59737e-14 1.56777e-17 1.57199e-17 1.57154e-17 1.56452e-17 1.57488e-17 1.57584e-17
          1.57056e-17 1.57308e-17 1.56786e-17 1.57086e-17 1.57045e-17 1.56894e-17 1.57032e-17 1.56876e-17 1.56903e-17 1.60375e-17 4.72207e-17 2.92137e-15
          2.57964e-13 3.28748e-13 4.3913e-13 6.16374e-13 1.70354e-17 1.63373e-17
        </DataArray>
        <DataArray type="Float32" Name="X^w_cyanide" NumberOfComponents="1" format="ascii">
          4.93528e-06 4.9354e-06 4.93554e-06 4.93569e-06 4.93585e-06 4.93604e-06 4.93623e-06 4.93639e-06 4.93656e-06 4.93672e-06 4.93688e-06 4.93703e-06
          4.93717e-06 4.9373e-06 4.93741e-06 4.9375e-06 4.93755e-06 4.93755e-06 4.93748e-06 4.93731e-06 4.93698e-06 4.93642e-06 4.93549e-06 4.93393e-06
          4.93175e-06 6.28811e-06 8.41618e-06 1.20948e-05 1.93958e-05 1.89813e-05
        </DataArray>
        <DataArray type="Float32" Name="X^w_citrate" NumberOfComponents="1" format="ascii">
          0.000141794 0.000141794 0.000141794 0.000141794 0.000141794 0.000141795 0.000141796 0.000141796 0.000141796 0.000141796 0.000141796 0.000141796
          0.000141796 0.000141795 0.000141795 0.000141794 0.000141794 0.000141793 0.000141791 0.000141789 0.000141786 0.000141781 0.000141773 0.000141761
          0.000141741 0.000141706 0.000141636 0.000141472 0.000140963 0.000137948
        </DataArray>
        <DataArray type="Float32" Name="X^w_substrate" NumberOfComponents="1" format="ascii">
          7.60429e-12 1.07295e-11 1.51322e-11 2.13049e-11 2.97952e-11 4.05211e-11 5.93453e-11 8.31474e-11 1.16525e-10 1.63349e-10 2.29085e-10 3.21458e-10
          4.51431e-10 6.34631e-10 8.93474e-10 1.26036e-09 1.78263e-09 2.53034e-09 3.60893e-09 5.18059e-09 7.50158e-09 1.0991e-08 1.63654e-08 2.49205e-08
          3.91823e-08 6.45945e-08 1.14673e-07 2.30777e-07 5.91385e-07 2.71731e-06
        </DataArray>
        <DataArray type="Float32" Name="m^w_H2O" NumberOfComponents="1" format="ascii">
          55491.7 55491.7 55491.7 55491.7 55491.8 55492.2 55492.5 55492.5 55492.5 55492.5 55492.5 55492.5
          55492.5 55492.5 55492.4 55492.4 55492.4 55492.4 55492.4 55492.4 55492.4 55492.4 55492.4 55492.4
          55492.4 55492.3 55492.1 55491.9 55491.5 55491.6
        </DataArray>
        <DataArray type="Float32" Name="m^w_Air" NumberOfComponents="1" format="ascii">
          0.524419 0.520118 0.513429 0.495762 0.430917 0.198513 0.00331102 5.4231e-05 8.73302e-07 1.3834e-08 2.14973e-10 3.27683e-12
          4.91465e-14 7.22471e-16 1.04372e-17 1.47641e-19 2.04845e-21 2.78811e-23 3.71131e-25 4.82596e-27 6.11928e-29 7.5315e-31 8.9044e-33 9.92891e-35
          1.00508e-36 0 0 0 0 0
        </DataArray>
        <DataArray type="Float32" Name="m^w_AuComplex" NumberOfComponents="1" format="ascii">
          1.82114e-11 1.32669e-11 1.30596e-11 2.7563e-11 1.56631e-11 1.86534e-11 1.80655e-11 1.81149e-11 1.81112e-11 1.80293e-11 1.81497e-11 1.81621e-11
          1.81011e-11 1.81315e-11 1.80711e-11 1.81063e-11 1.8102e-11 1.80844e-11 1.81006e-11 1.80821e-11 1.80802e-11 1.80896e-11 1.81542e-11 1.70325e-10
          3.47984e-07 5.46545e-07 9.46313e-07 1.88436e-06 7.75869e-11 7.51854e-11
        </DataArray>
        <DataArray type="Float32" Name="m^w_nanoAu" NumberOfComponents="1" format="ascii">
          -2.71592e-13 9.4498e-13 -5.42338e-12 2.91908e-12 3.34109e-12 8.10852e-11 7.95829e-14 7.97967e-14 7.9774e-14 7.94177e-14 7.99437e-14 7.99926e-14
          7.97241e-14 7.98522e-14 7.95872e-14 7.97395e-14 7.97186e-14 7.96419e-14 7.97122e-14 7.96327e-14 7.96468e-14 8.14088e-14 2.397e-13 1.48293e-11
          1.30947e-09 1.66878e-09 2.22909e-09 3.12881e-09 8.64743e-14 8.29307e-14
        </DataArray>
        <DataArray type="Float32" Name="m^w_cyanide" NumberOfComponents="1" format="ascii">
          0.189645 0.18965 0.189655 0.189661 0.189667 0.189674 0.189681 0.189688 0.189694 0.1897 0.189706 0.189712
          0.189718 0.189722 0.189727 0.18973 0.189732 0.189732 0.189729 0.189722 0.18971 0.189688 0.189652 0.189592
          0.189509 0.241629 0.323402 0.464758 0.745309 0.72938
        </DataArray>
        <DataArray type="Float32" Name="m^w_citrate" NumberOfComponents="1" format="ascii">
          0.749732 0.749732 0.749732 0.749732 0.749733 0.749738 0.749742 0.749742 0.749741 0.749741 0.74974 0.74974
          0.749738 0.749737 0.749735 0.749732 0.749728 0.749722 0.749714 0.749702 0.749685 0.749658 0.749618 0.749554
          0.749447 0.749261 0.748891 0.748028 0.745333 0.729392
        </DataArray>
        <DataArray type="Float32" Name="m^w_substrate" NumberOfComponents="1" format="ascii">
          4.22025e-08 5.95468e-08 8.39811e-08 1.18238e-07 1.65358e-07 2.24884e-07 3.29355e-07 4.61452e-07 6.46689e-07 9.06557e-07 1.27138e-06 1.78403e-06
          2.50535e-06 3.52208e-06 4.95861e-06 6.99477e-06 9.89326e-06 1.40429e-05 2.00289e-05 2.87513e-05 4.16323e-05 6.09981e-05 9.08246e-05 0.000138304
          0.000217454 0.000358487 0.000636412 0.00128077 0.00328207 0.0150805
        </DataArray>
        <DataArray type="Float32" Name="process rank" NumberOfComponents="1" format="ascii">
          0 0 0 0 0 0 0 0 0 0 0 0
          0 0 0 0 0 0 0 0 0 0 0 0
          0 0 0 0 0 0
        </DataArray>
      </CellData>
      <Points>
        <DataArray type="Float32" Name="Coordinates" NumberOfComponents="3" format="ascii">
          0 0 0 0.5 0 0 0 0.0333333 0 0.5 0.0333333 0
          0 0.0666667 0 0.5 0.0666667 0 0 0.1 0 0.5 0.1 0
          0 0.133333 0 0.5 0.133333 0 0 0.166667 0 0.5 0.166667 0
          0 0.2 0 0.5 0.2 0 0 0.233333 0 0.5 0.233333 0
          0 0.266667 0 0.5 0.266667 0 0 0.3 0 0.5 0.3 0
          0 0.333333 0 0.5 0.333333 0 0 0.366667 0 0.5 0.366667 0
          0 0.4 0 0.5 0.4 0 0 0.433333 0 0.5 0.433333 0
          0 0.466667 0 0.5 0.466667 0 0 0.5 0 0.5 0.5 0
          0 0.533333 0 0.5 0.533333 0 0 0.566667 0 0.5 0.566667 0
          0 0.6 0 0.5 0.6 0 0 0.633333 0 0.5 0.633333 0
          0 0.666667 0 0.5 0.666667 0 0 0.7 0 0.5 0.7 0
          0 0.733333 0 0.5 0.733333 0 0 0.766667 0 0.5 0.766667 0
          0 0.8 0 0.5 0.8 0 0 0.833333 0 0.5 0.833333 0
          0 0.866667 0 0.5 0.866667 0 0 0.9 0 0.5 0.9 0
          0 0.933333 0 0.5 0.933333 0 0 0.966667 0 0.5 0.966667 0
          0 1 0 0.5 1 0
        </DataArray>
      </Points>
      <Cells>
        <DataArray type="Int32" Name="connectivity" NumberOfComponents="1" format="ascii">
          0 1 3 2 2 3 5 4 4 5 7 6
          6 7 9 8 8 9 11 10 10 11 13 12
          12 13 15 14 14 15 17 16 16 17 19 18
          18 19 21 20 20 21 23 22 22 23 25 24
          24 25 27 26 26 27 29 28 28 29 31 30
          30 31 33 32 32 33 35 34 34 35 37 36
          36 37 39 38 38 39 41 40 40 41 43 42
          42 43 45 44 44 45 47 46 46 47 49 48
          48 49 51 50 50 51 53 52 52 53 55 54
          54 55 57 56 56 57 59 58 58 59 61 60
        </DataArray>
        <DataArray type="Int32" Name="offsets" NumberOfComponents="1" format="ascii">
          4 8 12 16 20 24 28 32 36 40 44 48
          52 56 60 64 68 72 76 80 84 88 92 96
          100 104 108 112 116 120
        </DataArray>
        <DataArray type="UInt8" Name="types" NumberOfComponents="1" format="ascii">
          9 9 9 9 9 9 9 9 9 9 9 9
          9 9 9 9 9 9 9 9 9 9 9 9
          9 9 9 9 9 9
        </DataArray>
      </Cells>
    </Piece>
  </UnstructuredGrid>
</VTKFile>
