<?xml version="1.0"?>
<VTKFile type="UnstructuredGrid" version="0.1" byte_order="LittleEndian">
  <UnstructuredGrid>
    <Piece NumberOfCells="30" NumberOfPoints="62">
      <CellData Scalars="Sg">
        <DataArray type="Float32" Name="Sg" NumberOfComponents="1" format="ascii">
          0 0 0 0 0 0 0 0 0 0 0 0
          0 0 0 0 0 0 0 0 0 0 0 0
          0 0 0 0 0 0
        </DataArray>
        <DataArray type="Float32" Name="Sl" NumberOfComponents="1" format="ascii">
          1 1 1 1 1 1 1 1 1 1 1 1
          1 1 1 1 1 1 1 1 1 1 1 1
          1 1 1 1 1 1
        </DataArray>
        <DataArray type="Float32" Name="pg" NumberOfComponents="1" format="ascii">
          24687.8 24360.9 24034 23707 23380.1 23053.1 22726.2 22399.3 22072.3 21745.4 21418.4 21091.5
          20764.6 20437.6 20110.7 19783.7 19456.8 19129.8 18802.9 18476 18149 17822.1 17495.1 17168.2
          16841.3 16514.3 16187.4 15860.4 15533.5 15209.5
        </DataArray>
        <DataArray type="Float32" Name="pl" NumberOfComponents="1" format="ascii">
          110628 110301 109974 109647 109320 108993 108666 108339 108012 107685 107358 107031
          106704 106377 106050 105723 105396 105070 104743 104416 104089 103762 103435 103108
          102781 102454 102127 101800 101473 101149
        </DataArray>
        <DataArray type="Float32" Name="pc" NumberOfComponents="1" format="ascii">
          -85939.7 -85939.7 -85939.7 -85939.7 -85939.7 -85939.7 -85939.7 -85939.7 -85939.7 -85939.7 -85939.7 -85939.7
          -85939.7 -85939.7 -85939.7 -85939.7 -85939.7 -85939.7 -85939.7 -85939.7 -85939.7 -85939.7 -85939.7 -85939.7
          -85939.7 -85939.7 -85939.7 -85939.7 -85939.7 -85939.7
        </DataArray>
        <DataArray type="Float32" Name="rhoL" NumberOfComponents="1" format="ascii">
          999.855 999.855 999.855 999.855 999.855 999.854 999.854 999.854 999.854 999.854 999.854 999.854
          999.853 999.853 999.853 999.853 999.853 999.853 999.852 999.852 999.852 999.852 999.852 999.852
          999.852 999.851 999.851 999.851 999.851 999.851
        </DataArray>
        <DataArray type="Float32" Name="rhoG" NumberOfComponents="1" format="ascii">
          0.30585 0.3018 0.29775 0.293699 0.289649 0.285598 0.281548 0.277498 0.273447 0.269397 0.265347 0.261296
          0.257246 0.253195 0.249145 0.245095 0.241044 0.236994 0.232944 0.228893 0.224843 0.220793 0.216742 0.212692
          0.208641 0.204591 0.200541 0.19649 0.19244 0.188426
        </DataArray>
        <DataArray type="Float32" Name="mobL" NumberOfComponents="1" format="ascii">
          722.171 722.17 722.17 722.17 722.17 722.17 722.169 722.169 722.169 722.169 722.169 722.169
          722.168 722.168 722.168 722.168 722.168 722.167 722.167 722.167 722.167 722.167 722.166 722.166
          722.166 722.166 722.166 722.166 722.165 722.165
        </DataArray>
        <DataArray type="Float32" Name="mobG" NumberOfComponents="1" format="ascii">
          0 0 0 0 0 0 0 0 0 0 0 0
          0 0 0 0 0 0 0 0 0 0 0 0
          0 0 0 0 0 0
        </DataArray>
        <DataArray type="Float32" Name="porosity" NumberOfComponents="1" format="ascii">
          0.298811 0.298811 0.298811 0.298811 0.298811 0.29881 0.298809 0.298809 0.298807 0.298806 0.298803 0.2988
          0.298795 0.298789 0.298781 0.298769 0.298754 0.298733 0.298705 0.298667 0.298614 0.29854 0.298433 0.298274
          0.297754 0.297322 0.296458 0.294192 0.283221 0.0453493
        </DataArray>
        <DataArray type="Float32" Name="temperature" NumberOfComponents="1" format="ascii">
          281.15 281.15 281.15 281.15 281.15 281.15 281.15 281.15 281.15 281.15 281.15 281.15
          281.15 281.15 281.15 281.15 281.15 281.15 281.15 281.15 281.15 281.15 281.15 281.15
          281.15 281.15 281.15 281.15 281.15 281.15
        </DataArray>
        <DataArray type="Float32" Name="phase presence" NumberOfComponents="1" format="ascii">
          1 1 1 1 1 1 1 1 1 1 1 1
          1 1 1 1 1 1 1 1 1 1 1 1
          1 1 1 1 1 1
        </DataArray>
        <DataArray type="Float32" Name="precipitateVolumeFraction_au" NumberOfComponents="1" format="ascii">
          5.52667e-10 5.52795e-10 5.52775e-10 5.52758e-10 5.52723e-10 5.52762e-10 5.52745e-10 5.52759e-10 5.52759e-10 5.52726e-10 5.52782e-10 5.52795e-10
          5.52758e-10 5.52789e-10 5.52725e-10 5.5277e-10 5.5277e-10 5.52737e-10 5.52778e-10 5.52731e-10 5.52728e-10 5.52783e-10 5.53057e-10 1.16711e-09
          0.000269942 0.000269927 0.000269902 0.000269854 5.5227e-10 5.51227e-10
        </DataArray>
        <DataArray type="Float32" Name="precipitateVolumeFraction_nanoAu" NumberOfComponents="1" format="ascii">
          1.20098e-13 1.20126e-13 1.20122e-13 1.20118e-13 1.2011e-13 1.20119e-13 1.20115e-13 1.20118e-13 1.20118e-13 1.2011e-13 1.20122e-13 1.20125e-13
          1.20116e-13 1.20122e-13 1.20107e-13 1.20116e-13 1.20114e-13 1.20105e-13 1.20111e-13 1.20096e-13 1.2009e-13 1.20109e-13 1.32063e-13 2.54889e-11
          5.86357e-08 7.47569e-08 1.00091e-07 1.43738e-07 4.74215e-13 4.67162e-13
        </DataArray>
        <DataArray type="Float32" Name="precipitateVolumeFraction_d" NumberOfComponents="1" format="ascii">
          0.000594302 0.000594362 0.000594446 0.000594564 0.00059473 0.000594962 0.000595287 0.000595741 0.000596371 0.000597243 0.000598445 0.000600097
          0.000602357 0.000605437 0.000609621 0.000615289 0.000622957 0.000633333 0.000647408 0.000666613 0.00069308 0.000730156 0.0007834 0.000862785
          0.000988059 0.00120423 0.00163579 0.0027692 0.00838945 0.127325
        </DataArray>
        <DataArray type="Float32" Name="precipitateVolumeFraction_p" NumberOfComponents="1" format="ascii">
          0.000594302 0.000594362 0.000594446 0.000594564 0.00059473 0.000594962 0.000595287 0.000595741 0.000596371 0.000597243 0.000598445 0.000600097
          0.000602357 0.000605437 0.000609621 0.000615289 0.000622957 0.000633333 0.000647408 0.000666613 0.00069308 0.000730156 0.0007834 0.000862785
          0.000988059 0.00120423 0.00163579 0.0027692 0.00838945 0.127325
        </DataArray>
        <DataArray type="Float32" Name="K" NumberOfComponents="1" format="ascii">
          9.84814e-11 9.84812e-11 9.8481e-11 9.84807e-11 9.84803e-11 9.84797e-11 9.84789e-11 9.84777e-11 9.84761e-11 9.84739e-11 9.84708e-11 9.84667e-11
          9.84609e-11 9.84531e-11 9.84425e-11 9.84281e-11 9.84086e-11 9.83823e-11 9.83466e-11 9.82979e-11 9.82308e-11 9.81369e-11 9.80022e-11 9.78016e-11
          9.71462e-11 9.66047e-11 9.5531e-11 9.27576e-11 8.02488e-11 1.85718e-13
        </DataArray>
        <DataArray type="Float32" Name="X^w_H2O" NumberOfComponents="1" format="ascii">
          0.999853 0.999853 0.999853 0.999853 0.999853 0.999853 0.999853 0.999853 0.999853 0.999853 0.999853 0.999853
          0.999853 0.999853 0.999853 0.999853 0.999853 0.999853 0.999853 0.999853 0.999853 0.999853 0.999853 0.999853
          0.999853 0.999852 0.99985 0.999846 0.999839 0.99984
        </DataArray>
        <DataArray type="Float32" Name="X^w_Air" NumberOfComponents="1" format="ascii">
          0 0 0 0 0 0 0 0 0 0 0 0
          0 0 0 0 0 0 0 0 0 0 0 0
          0 0 0 0 0 0
        </DataArray>
        <DataArray type="Float32" Name="X^w_AuComplex" NumberOfComponents="1" format="ascii">
          1.39335e-16 1.39367e-16 1.39362e-16 1.39357e-16 1.39348e-16 1.39358e-16 1.39354e-16 1.39357e-16 1.39357e-16 1.39348e-16 1.39362e-16 1.39364e-16
          1.39354e-16 1.3936e-16 1.39342e-16 1.39351e-16 1.39348e-16 1.39335e-16 1.39338e-16 1.39317e-16 1.39304e-16 1.39316e-16 1.52982e-16 2.95428e-14
          6.79895e-11 1.06825e-10 1.85384e-10 3.71726e-10 1.92331e-15 1.87313e-15
        </DataArray>
        <DataArray type="Float32" Name="X^w_nanoAu" NumberOfComponents="1" format="ascii">
          5.2307e-19 5.2319e-19 5.23171e-19 5.23155e-19 5.23122e-19 5.23158e-19 5.23142e-19 5.23154e-19 5.23153e-19 5.23121e-19 5.23173e-19 5.23183e-19
          5.23145e-19 5.2317e-19 5.23106e-19 5.23142e-19 5.23132e-19 5.2309e-19 5.23111e-19 5.23083e-19 5.26631e-19 8.58528e-19 3.15974e-17 2.87437e-15
          2.561e-13 3.26708e-13 4.37692e-13 6.18689e-13 2.05954e-18 1.98455e-18
        </DataArray>
        <DataArray type="Float32" Name="X^w_cyanide" NumberOfComponents="1" format="ascii">
          4.92542e-06 4.92542e-06 4.92542e-06 4.92542e-06 4.92541e-06 4.92541e-06 4.92541e-06 4.92541e-06 4.9254e-06 4.9254e-06 4.92539e-06 4.92537e-06
          4.92535e-06 4.92533e-06 4.92529e-06 4.92524e-06 4.92518e-06 4.92508e-06 4.92496e-06 4.92479e-06 4.92454e-06 4.92419e-06 4.92368e-06 4.9229e-06
          4.92216e-06 6.27492e-06 8.39967e-06 1.20847e-05 1.94637e-05 1.92383e-05
        </DataArray>
        <DataArray type="Float32" Name="X^w_citrate" NumberOfComponents="1" format="ascii">
          0.000141796 0.000141796 0.000141796 0.000141796 0.000141796 0.000141796 0.000141796 0.000141796 0.000141796 0.000141796 0.000141796 0.000141796
          0.000141796 0.000141795 0.000141795 0.000141795 0.000141794 0.000141794 0.000141793 0.000141791 0.00014179 0.000141787 0.000141783 0.000141778
          0.000141769 0.000141754 0.000141727 0.000141663 0.000141452 0.000139813
        </DataArray>
        <DataArray type="Float32" Name="X^w_substrate" NumberOfComponents="1" format="ascii">
          1.28999e-11 1.72318e-11 2.3017e-11 3.07429e-11 4.10608e-11 5.48407e-11 7.32463e-11 9.78343e-11 1.3069e-10 1.74612e-10 2.3336e-10 3.12006e-10
          4.1741e-10 5.58903e-10 7.49262e-10 1.00613e-09 1.35413e-09 1.82816e-09 2.47855e-09 3.37957e-09 4.64407e-09 6.44997e-09 9.09121e-09 1.30839e-08
          1.94098e-08 3.01525e-08 5.04842e-08 9.67066e-08 2.46519e-07 1.40185e-06
        </DataArray>
        <DataArray type="Float32" Name="m^w_H2O" NumberOfComponents="1" format="ascii">
          55492.6 55492.6 55492.5 55492.5 55492.5 55492.5 55492.5 55492.5 55492.5 55492.5 55492.5 55492.5
          55492.5 55492.5 55492.4 55492.4 55492.4 55492.4 55492.4 55492.4 55492.4 55492.4 55492.4 55492.4
          55492.4 55492.3 55492.1 55491.9 55491.5 55491.6
        </DataArray>
        <DataArray type="Float32" Name="m^w_Air" NumberOfComponents="1" format="ascii">
          0 0 0 0 0 0 0 0 0 0 0 0
          0 0 0 0 0 0 0 0 0 0 0 0
          0 0 0 0 0 0
        </DataArray>
        <DataArray type="Float32" Name="m^w_AuComplex" NumberOfComponents="1" format="ascii">
          7.07287e-13 7.07452e-13 7.07425e-13 7.07403e-13 7.07357e-13 7.07407e-13 7.07384e-13 7.07401e-13 7.074e-13 7.07355e-13 7.07424e-13 7.07437e-13
          7.07384e-13 7.07416e-13 7.07325e-13 7.0737e-13 7.07352e-13 7.07286e-13 7.07305e-13 7.07198e-13 7.0713e-13 7.07193e-13 7.76561e-13 1.49964e-10
          3.45125e-07 5.42259e-07 9.4104e-07 1.88694e-06 9.76302e-12 9.5083e-12
        </DataArray>
        <DataArray type="Float32" Name="m^w_nanoAu" NumberOfComponents="1" format="ascii">
          2.6552e-15 2.65581e-15 2.65571e-15 2.65563e-15 2.65546e-15 2.65564e-15 2.65556e-15 2.65562e-15 2.65562e-15 2.65546e-15 2.65572e-15 2.65577e-15
          2.65557e-15 2.6557e-15 2.65538e-15 2.65556e-15 2.65551e-15 2.65529e-15 2.6554e-15 2.65525e-15 2.67327e-15 4.35803e-15 1.60394e-13 1.45908e-11
          1.3e-09 1.65842e-09 2.2218e-09 3.14056e-09 1.04545e-14 1.00739e-14
        </DataArray>
        <DataArray type="Float32" Name="m^w_cyanide" NumberOfComponents="1" format="ascii">
          0.189266 0.189266 0.189266 0.189266 0.189266 0.189266 0.189266 0.189266 0.189265 0.189265 0.189265 0.189264
          0.189263 0.189262 0.189261 0.189259 0.189256 0.189253 0.189248 0.189241 0.189232 0.189218 0.189199 0.189169
          0.18914 0.241122 0.322768 0.464371 0.747916 0.739254
        </DataArray>
        <DataArray type="Float32" Name="m^w_citrate" NumberOfComponents="1" format="ascii">
          0.749743 0.749743 0.749743 0.749743 0.749742 0.749742 0.749742 0.749742 0.749741 0.749741 0.74974 0.74974
          0.749739 0.749738 0.749736 0.749734 0.749731 0.749727 0.749723 0.749716 0.749706 0.749692 0.749672 0.749642
          0.749595 0.749519 0.749372 0.749033 0.747919 0.739255
        </DataArray>
        <DataArray type="Float32" Name="m^w_substrate" NumberOfComponents="1" format="ascii">
          7.15923e-08 9.56333e-08 1.2774e-07 1.70617e-07 2.2788e-07 3.04356e-07 4.06503e-07 5.42962e-07 7.25306e-07 9.69063e-07 1.2951e-06 1.73157e-06
          2.31654e-06 3.10181e-06 4.15826e-06 5.58381e-06 7.51516e-06 1.01459e-05 1.37555e-05 1.87559e-05 2.57737e-05 3.57961e-05 5.04544e-05 7.26129e-05
          0.00010772 0.00016734 0.000280177 0.000536702 0.00136813 0.00777997
        </DataArray>
        <DataArray type="Float32" Name="process rank" NumberOfComponents="1" format="ascii">
          0 0 0 0 0 0 0 0 0 0 0 0
          0 0 0 0 0 0 0 0 0 0 0 0
          0 0 0 0 0 0
        </DataArray>
      </CellData>
      <Points>
        <DataArray type="Float32" Name="Coordinates" NumberOfComponents="3" format="ascii">
          0 0 0 0.5 0 0 0 0.0333333 0 0.5 0.0333333 0
          0 0.0666667 0 0.5 0.0666667 0 0 0.1 0 0.5 0.1 0
          0 0.133333 0 0.5 0.133333 0 0 0.166667 0 0.5 0.166667 0
          0 0.2 0 0.5 0.2 0 0 0.233333 0 0.5 0.233333 0
          0 0.266667 0 0.5 0.266667 0 0 0.3 0 0.5 0.3 0
          0 0.333333 0 0.5 0.333333 0 0 0.366667 0 0.5 0.366667 0
          0 0.4 0 0.5 0.4 0 0 0.433333 0 0.5 0.433333 0
          0 0.466667 0 0.5 0.466667 0 0 0.5 0 0.5 0.5 0
          0 0.533333 0 0.5 0.533333 0 0 0.566667 0 0.5 0.566667 0
          0 0.6 0 0.5 0.6 0 0 0.633333 0 0.5 0.633333 0
          0 0.666667 0 0.5 0.666667 0 0 0.7 0 0.5 0.7 0
          0 0.733333 0 0.5 0.733333 0 0 0.766667 0 0.5 0.766667 0
          0 0.8 0 0.5 0.8 0 0 0.833333 0 0.5 0.833333 0
          0 0.866667 0 0.5 0.866667 0 0 0.9 0 0.5 0.9 0
          0 0.933333 0 0.5 0.933333 0 0 0.966667 0 0.5 0.966667 0
          0 1 0 0.5 1 0
        </DataArray>
      </Points>
      <Cells>
        <DataArray type="Int32" Name="connectivity" NumberOfComponents="1" format="ascii">
          0 1 3 2 2 3 5 4 4 5 7 6
          6 7 9 8 8 9 11 10 10 11 13 12
          12 13 15 14 14 15 17 16 16 17 19 18
          18 19 21 20 20 21 23 22 22 23 25 24
          24 25 27 26 26 27 29 28 28 29 31 30
          30 31 33 32 32 33 35 34 34 35 37 36
          36 37 39 38 38 39 41 40 40 41 43 42
          42 43 45 44 44 45 47 46 46 47 49 48
          48 49 51 50 50 51 53 52 52 53 55 54
          54 55 57 56 56 57 59 58 58 59 61 60
        </DataArray>
        <DataArray type="Int32" Name="offsets" NumberOfComponents="1" format="ascii">
          4 8 12 16 20 24 28 32 36 40 44 48
          52 56 60 64 68 72 76 80 84 88 92 96
          100 104 108 112 116 120
        </DataArray>
        <DataArray type="UInt8" Name="types" NumberOfComponents="1" format="ascii">
          9 9 9 9 9 9 9 9 9 9 9 9
          9 9 9 9 9 9 9 9 9 9 9 9
          9 9 9 9 9 9
        </DataArray>
      </Cells>
    </Piece>
  </UnstructuredGrid>
</VTKFile>
