<?xml version="1.0"?>
<VTKFile type="UnstructuredGrid" version="0.1" byte_order="LittleEndian">
  <UnstructuredGrid>
    <Piece NumberOfCells="30" NumberOfPoints="62">
      <CellData Scalars="Sg">
        <DataArray type="Float32" Name="Sg" NumberOfComponents="1" format="ascii">
          0 0 0 0 0 0 0 0 0 0 0 0
          0 0 0 0 0 0 0 0 0 0 0 0
          0 0 0 0 0 0
        </DataArray>
        <DataArray type="Float32" Name="Sl" NumberOfComponents="1" format="ascii">
          1 1 1 1 1 1 1 1 1 1 1 1
          1 1 1 1 1 1 1 1 1 1 1 1
          1 1 1 1 1 1
        </DataArray>
        <DataArray type="Float32" Name="pg" NumberOfComponents="1" format="ascii">
          24687.8 24360.9 24034 23707 23380.1 23053.1 22726.2 22399.3 22072.3 21745.4 21418.4 21091.5
          20764.6 20437.6 20110.7 19783.7 19456.8 19129.8 18802.9 18476 18149 17822.1 17495.1 17168.2
          16841.3 16514.3 16187.4 15860.4 15533.5 15208.4
        </DataArray>
        <DataArray type="Float32" Name="pl" NumberOfComponents="1" format="ascii">
          110628 110301 109974 109647 109320 108993 108666 108339 108012 107685 107358 107031
          106704 106377 106050 105723 105396 105070 104743 104416 104089 103762 103435 103108
          102781 102454 102127 101800 101473 101148
        </DataArray>
        <DataArray type="Float32" Name="pc" NumberOfComponents="1" format="ascii">
          -85939.7 -85939.7 -85939.7 -85939.7 -85939.7 -85939.7 -85939.7 -85939.7 -85939.7 -85939.7 -85939.7 -85939.7
          -85939.7 -85939.7 -85939.7 -85939.7 -85939.7 -85939.7 -85939.7 -85939.7 -85939.7 -85939.7 -85939.7 -85939.7
          -85939.7 -85939.7 -85939.7 -85939.7 -85939.7 -85939.7
        </DataArray>
        <DataArray type="Float32" Name="rhoL" NumberOfComponents="1" format="ascii">
          999.855 999.855 999.855 999.855 999.855 999.854 999.854 999.854 999.854 999.854 999.854 999.854
          999.853 999.853 999.853 999.853 999.853 999.853 999.852 999.852 999.852 999.852 999.852 999.852
          999.852 999.851 999.851 999.851 999.851 999.851
        </DataArray>
        <DataArray type="Float32" Name="rhoG" NumberOfComponents="1" format="ascii">
          0.30585 0.3018 0.29775 0.293699 0.289649 0.285598 0.281548 0.277498 0.273447 0.269397 0.265347 0.261296
          0.257246 0.253195 0.249145 0.245095 0.241044 0.236994 0.232944 0.228893 0.224843 0.220793 0.216742 0.212692
          0.208641 0.204591 0.200541 0.19649 0.19244 0.188412
        </DataArray>
        <DataArray type="Float32" Name="mobL" NumberOfComponents="1" format="ascii">
          722.171 722.17 722.17 722.17 722.17 722.17 722.169 722.169 722.169 722.169 722.169 722.169
          722.168 722.168 722.168 722.168 722.168 722.167 722.167 722.167 722.167 722.167 722.166 722.166
          722.166 722.166 722.166 722.166 722.165 722.165
        </DataArray>
        <DataArray type="Float32" Name="mobG" NumberOfComponents="1" format="ascii">
          0 0 0 0 0 0 0 0 0 0 0 0
          0 0 0 0 0 0 0 0 0 0 0 0
          0 0 0 0 0 0
        </DataArray>
        <DataArray type="Float32" Name="porosity" NumberOfComponents="1" format="ascii">
          0.298697 0.298697 0.298697 0.298697 0.298696 0.298696 0.298695 0.298694 0.298693 0.298691 0.298688 0.298685
          0.29868 0.298673 0.298664 0.298652 0.298635 0.298613 0.298583 0.298542 0.298485 0.298406 0.298293 0.298125
          0.297592 0.297144 0.296267 0.294052 0.284247 0.0528356
        </DataArray>
        <DataArray type="Float32" Name="temperature" NumberOfComponents="1" format="ascii">
          281.15 281.15 281.15 281.15 281.15 281.15 281.15 281.15 281.15 281.15 281.15 281.15
          281.15 281.15 281.15 281.15 281.15 281.15 281.15 281.15 281.15 281.15 281.15 281.15
          281.15 281.15 281.15 281.15 281.15 281.15
        </DataArray>
        <DataArray type="Float32" Name="phase presence" NumberOfComponents="1" format="ascii">
          1 1 1 1 1 1 1 1 1 1 1 1
          1 1 1 1 1 1 1 1 1 1 1 1
          1 1 1 1 1 1
        </DataArray>
        <DataArray type="Float32" Name="precipitateVolumeFraction_au" NumberOfComponents="1" format="ascii">
          5.52667e-10 5.52795e-10 5.52775e-10 5.52758e-10 5.52722e-10 5.52762e-10 5.52745e-10 5.52759e-10 5.52759e-10 5.52726e-10 5.52782e-10 5.52795e-10
          5.52758e-10 5.52789e-10 5.52725e-10 5.5277e-10 5.52769e-10 5.52737e-10 5.52778e-10 5.52731e-10 5.52728e-10 5.52782e-10 5.52954e-10 9.49004e-10
          0.000269942 0.000269926 0.000269901 0.000269855 5.52271e-10 5.51233e-10
        </DataArray>
        <DataArray type="Float32" Name="precipitateVolumeFraction_nanoAu" NumberOfComponents="1" format="ascii">
          1.20188e-13 1.20219e-13 1.20214e-13 1.20209e-13 1.20201e-13 1.20209e-13 1.20205e-13 1.20207e-13 1.20207e-13 1.20199e-13 1.20211e-13 1.20213e-13
          1.20204e-13 1.2021e-13 1.20195e-13 1.20203e-13 1.20201e-13 1.20192e-13 1.20197e-13 1.20183e-13 1.20176e-13 1.20196e-13 1.32127e-13 2.54661e-11
          5.86525e-08 7.47754e-08 1.00108e-07 1.43744e-07 4.74144e-13 4.66938e-13
        </DataArray>
        <DataArray type="Float32" Name="precipitateVolumeFraction_d" NumberOfComponents="1" format="ascii">
          0.000651418 0.000651482 0.000651572 0.000651699 0.000651877 0.000652127 0.000652477 0.000652965 0.000653643 0.000654583 0.00065588 0.000657661
          0.000660098 0.000663419 0.000667929 0.000674038 0.000682296 0.00069346 0.000708586 0.000729189 0.000757522 0.000797094 0.000853699 0.000937632
          0.00106904 0.00129306 0.00173136 0.00283907 0.00787642 0.123582
        </DataArray>
        <DataArray type="Float32" Name="precipitateVolumeFraction_p" NumberOfComponents="1" format="ascii">
          0.000651418 0.000651482 0.000651572 0.000651699 0.000651877 0.000652127 0.000652477 0.000652965 0.000653643 0.000654583 0.00065588 0.000657661
          0.000660098 0.000663419 0.000667929 0.000674038 0.000682296 0.00069346 0.000708586 0.000729189 0.000757522 0.000797094 0.000853699 0.000937632
          0.00106904 0.00129306 0.00173136 0.00283907 0.00787642 0.123582
        </DataArray>
        <DataArray type="Float32" Name="K" NumberOfComponents="1" format="ascii">
          9.83364e-11 9.83363e-11 9.8336e-11 9.83357e-11 9.83353e-11 9.83346e-11 9.83337e-11 9.83325e-11 9.83308e-11 9.83284e-11 9.83251e-11 9.83206e-11
          9.83144e-11 9.8306e-11 9.82946e-11 9.82791e-11 9.82581e-11 9.82298e-11 9.81915e-11 9.81394e-11 9.80676e-11 9.79675e-11 9.78245e-11 9.76127e-11
          9.69431e-11 9.63829e-11 9.52945e-11 9.25888e-11 8.13569e-11 2.98374e-13
        </DataArray>
        <DataArray type="Float32" Name="X^w_H2O" NumberOfComponents="1" format="ascii">
          0.999853 0.999853 0.999853 0.999853 0.999853 0.999853 0.999853 0.999853 0.999853 0.999853 0.999853 0.999853
          0.999853 0.999853 0.999853 0.999853 0.999853 0.999853 0.999853 0.999853 0.999853 0.999853 0.999853 0.999853
          0.999853 0.999852 0.99985 0.999846 0.999839 0.99984
        </DataArray>
        <DataArray type="Float32" Name="X^w_Air" NumberOfComponents="1" format="ascii">
          0 0 0 0 0 0 0 0 0 0 0 0
          0 0 0 0 0 0 0 0 0 0 0 0
          0 0 0 0 0 0
        </DataArray>
        <DataArray type="Float32" Name="X^w_AuComplex" NumberOfComponents="1" format="ascii">
          1.39461e-16 1.39497e-16 1.3949e-16 1.39484e-16 1.39474e-16 1.39484e-16 1.39478e-16 1.39481e-16 1.3948e-16 1.3947e-16 1.39483e-16 1.39485e-16
          1.39474e-16 1.3948e-16 1.39462e-16 1.3947e-16 1.39466e-16 1.39453e-16 1.39457e-16 1.39436e-16 1.39422e-16 1.39434e-16 1.53076e-16 2.95212e-14
          6.80212e-11 1.06868e-10 1.85439e-10 3.71749e-10 1.92263e-15 1.87149e-15
        </DataArray>
        <DataArray type="Float32" Name="X^w_nanoAu" NumberOfComponents="1" format="ascii">
          5.23461e-19 5.23598e-19 5.23574e-19 5.23553e-19 5.23516e-19 5.23553e-19 5.23534e-19 5.23545e-19 5.23542e-19 5.23508e-19 5.2356e-19 5.23568e-19
          5.23529e-19 5.23553e-19 5.23487e-19 5.23523e-19 5.23512e-19 5.23469e-19 5.2349e-19 5.23462e-19 5.27015e-19 8.59258e-19 3.1622e-17 2.87584e-15
          2.56174e-13 3.26787e-13 4.37759e-13 6.18671e-13 2.05878e-18 1.98274e-18
        </DataArray>
        <DataArray type="Float32" Name="X^w_cyanide" NumberOfComponents="1" format="ascii">
          4.92677e-06 4.92676e-06 4.92674e-06 4.92673e-06 4.92671e-06 4.9267e-06 4.92668e-06 4.92667e-06 4.92665e-06 4.92663e-06 4.92661e-06 4.92659e-06
          4.92656e-06 4.92652e-06 4.92648e-06 4.92643e-06 4.92636e-06 4.92627e-06 4.92614e-06 4.92597e-06 4.92573e-06 4.92538e-06 4.92486e-06 4.92406e-06
          4.92326e-06 6.27614e-06 8.40082e-06 1.2085e-05 1.94596e-05 1.923e-05
        </DataArray>
        <DataArray type="Float32" Name="X^w_citrate" NumberOfComponents="1" format="ascii">
          0.000141796 0.000141796 0.000141796 0.000141796 0.000141796 0.000141796 0.000141796 0.000141796 0.000141796 0.000141796 0.000141796 0.000141796
          0.000141796 0.000141796 0.000141795 0.000141795 0.000141795 0.000141794 0.000141793 0.000141792 0.00014179 0.000141788 0.000141784 0.000141778
          0.000141769 0.000141754 0.000141724 0.000141653 0.000141422 0.000139753
        </DataArray>
        <DataArray type="Float32" Name="X^w_substrate" NumberOfComponents="1" format="ascii">
          7.11436e-12 9.72793e-12 1.33008e-11 1.81852e-11 2.48624e-11 3.39909e-11 4.64719e-11 6.35395e-11 8.68855e-11 1.18833e-10 1.62575e-10 2.22518e-10
          3.0476e-10 4.17777e-10 5.73435e-10 7.88469e-10 1.08674e-09 1.50275e-09 2.08722e-09 2.91643e-09 4.10834e-09 5.85201e-09 8.46462e-09 1.25107e-08
          1.90767e-08 3.04887e-08 5.25441e-08 1.03425e-07 2.67588e-07 1.44429e-06
        </DataArray>
        <DataArray type="Float32" Name="m^w_H2O" NumberOfComponents="1" format="ascii">
          55492.6 55492.6 55492.5 55492.5 55492.5 55492.5 55492.5 55492.5 55492.5 55492.5 55492.5 55492.5
          55492.5 55492.5 55492.4 55492.4 55492.4 55492.4 55492.4 55492.4 55492.4 55492.4 55492.4 55492.4
          55492.4 55492.3 55492.1 55491.9 55491.5 55491.6
        </DataArray>
        <DataArray type="Float32" Name="m^w_Air" NumberOfComponents="1" format="ascii">
          0 0 0 0 0 0 0 0 0 0 0 0
          0 0 0 0 0 0 0 0 0 0 0 0
          0 0 0 0 0 0
        </DataArray>
        <DataArray type="Float32" Name="m^w_AuComplex" NumberOfComponents="1" format="ascii">
          7.07928e-13 7.0811e-13 7.08076e-13 7.08047e-13 7.07995e-13 7.08043e-13 7.08015e-13 7.08029e-13 7.08024e-13 7.07974e-13 7.08042e-13 7.08052e-13
          7.07995e-13 7.08025e-13 7.07931e-13 7.07975e-13 7.07954e-13 7.07887e-13 7.07906e-13 7.07799e-13 7.0773e-13 7.07792e-13 7.77039e-13 1.49854e-10
          3.45286e-07 5.42481e-07 9.41316e-07 1.88706e-06 9.75958e-12 9.49996e-12
        </DataArray>
        <DataArray type="Float32" Name="m^w_nanoAu" NumberOfComponents="1" format="ascii">
          2.65718e-15 2.65788e-15 2.65775e-15 2.65765e-15 2.65746e-15 2.65765e-15 2.65755e-15 2.65761e-15 2.65759e-15 2.65742e-15 2.65768e-15 2.65772e-15
          2.65752e-15 2.65764e-15 2.65731e-15 2.65749e-15 2.65743e-15 2.65722e-15 2.65732e-15 2.65718e-15 2.67521e-15 4.36174e-15 1.60518e-13 1.45982e-11
          1.30038e-09 1.65882e-09 2.22213e-09 3.14047e-09 1.04507e-14 1.00647e-14
        </DataArray>
        <DataArray type="Float32" Name="m^w_cyanide" NumberOfComponents="1" format="ascii">
          0.189318 0.189318 0.189317 0.189316 0.189316 0.189315 0.189315 0.189314 0.189313 0.189313 0.189312 0.189311
          0.18931 0.189308 0.189307 0.189305 0.189302 0.189298 0.189293 0.189287 0.189277 0.189264 0.189244 0.189213
          0.189182 0.241169 0.322812 0.464382 0.747758 0.738936
        </DataArray>
        <DataArray type="Float32" Name="m^w_citrate" NumberOfComponents="1" format="ascii">
          0.749743 0.749743 0.749743 0.749743 0.749743 0.749742 0.749742 0.749742 0.749742 0.749741 0.749741 0.74974
          0.74974 0.749739 0.749737 0.749736 0.749733 0.74973 0.749725 0.749719 0.74971 0.749697 0.749677 0.749647
          0.749597 0.749517 0.749357 0.748983 0.747761 0.738937
        </DataArray>
        <DataArray type="Float32" Name="m^w_substrate" NumberOfComponents="1" format="ascii">
          3.94834e-08 5.39882e-08 7.38173e-08 1.00924e-07 1.37982e-07 1.88643e-07 2.5791e-07 3.52632e-07 4.82198e-07 6.59498e-07 9.0226e-07 1.23493e-06
          1.69136e-06 2.31858e-06 3.18245e-06 4.37585e-06 6.03122e-06 8.33997e-06 1.15836e-05 1.61856e-05 2.28005e-05 3.24775e-05 4.6977e-05 6.94317e-05
          0.000105872 0.000169206 0.000291609 0.000573989 0.00148506 0.00801552
        </DataArray>
        <DataArray type="Float32" Name="process rank" NumberOfComponents="1" format="ascii">
          0 0 0 0 0 0 0 0 0 0 0 0
          0 0 0 0 0 0 0 0 0 0 0 0
          0 0 0 0 0 0
        </DataArray>
      </CellData>
      <Points>
        <DataArray type="Float32" Name="Coordinates" NumberOfComponents="3" format="ascii">
          0 0 0 0.5 0 0 0 0.0333333 0 0.5 0.0333333 0
          0 0.0666667 0 0.5 0.0666667 0 0 0.1 0 0.5 0.1 0
          0 0.133333 0 0.5 0.133333 0 0 0.166667 0 0.5 0.166667 0
          0 0.2 0 0.5 0.2 0 0 0.233333 0 0.5 0.233333 0
          0 0.266667 0 0.5 0.266667 0 0 0.3 0 0.5 0.3 0
          0 0.333333 0 0.5 0.333333 0 0 0.366667 0 0.5 0.366667 0
          0 0.4 0 0.5 0.4 0 0 0.433333 0 0.5 0.433333 0
          0 0.466667 0 0.5 0.466667 0 0 0.5 0 0.5 0.5 0
          0 0.533333 0 0.5 0.533333 0 0 0.566667 0 0.5 0.566667 0
          0 0.6 0 0.5 0.6 0 0 0.633333 0 0.5 0.633333 0
          0 0.666667 0 0.5 0.666667 0 0 0.7 0 0.5 0.7 0
          0 0.733333 0 0.5 0.733333 0 0 0.766667 0 0.5 0.766667 0
          0 0.8 0 0.5 0.8 0 0 0.833333 0 0.5 0.833333 0
          0 0.866667 0 0.5 0.866667 0 0 0.9 0 0.5 0.9 0
          0 0.933333 0 0.5 0.933333 0 0 0.966667 0 0.5 0.966667 0
          0 1 0 0.5 1 0
        </DataArray>
      </Points>
      <Cells>
        <DataArray type="Int32" Name="connectivity" NumberOfComponents="1" format="ascii">
          0 1 3 2 2 3 5 4 4 5 7 6
          6 7 9 8 8 9 11 10 10 11 13 12
          12 13 15 14 14 15 17 16 16 17 19 18
          18 19 21 20 20 21 23 22 22 23 25 24
          24 25 27 26 26 27 29 28 28 29 31 30
          30 31 33 32 32 33 35 34 34 35 37 36
          36 37 39 38 38 39 41 40 40 41 43 42
          42 43 45 44 44 45 47 46 46 47 49 48
          48 49 51 50 50 51 53 52 52 53 55 54
          54 55 57 56 56 57 59 58 58 59 61 60
        </DataArray>
        <DataArray type="Int32" Name="offsets" NumberOfComponents="1" format="ascii">
          4 8 12 16 20 24 28 32 36 40 44 48
          52 56 60 64 68 72 76 80 84 88 92 96
          100 104 108 112 116 120
        </DataArray>
        <DataArray type="UInt8" Name="types" NumberOfComponents="1" format="ascii">
          9 9 9 9 9 9 9 9 9 9 9 9
          9 9 9 9 9 9 9 9 9 9 9 9
          9 9 9 9 9 9
        </DataArray>
      </Cells>
    </Piece>
  </UnstructuredGrid>
</VTKFile>
