<?xml version="1.0"?>
<VTKFile type="UnstructuredGrid" version="0.1" byte_order="LittleEndian">
  <UnstructuredGrid>
    <Piece NumberOfCells="30" NumberOfPoints="62">
      <CellData Scalars="Sg">
        <DataArray type="Float32" Name="Sg" NumberOfComponents="1" format="ascii">
          0 0 0 0 0 0 0 0 0 0 0 0
          0 0 0 0 0 0 0 0 0 0 0 0
          0 0 0 0 0 0
        </DataArray>
        <DataArray type="Float32" Name="Sl" NumberOfComponents="1" format="ascii">
          1 1 1 1 1 1 1 1 1 1 1 1
          1 1 1 1 1 1 1 1 1 1 1 1
          1 1 1 1 1 1
        </DataArray>
        <DataArray type="Float32" Name="pg" NumberOfComponents="1" format="ascii">
          24687.8 24360.9 24034 23707 23380.1 23053.1 22726.2 22399.3 22072.3 21745.4 21418.4 21091.5
          20764.6 20437.6 20110.7 19783.7 19456.8 19129.8 18802.9 18476 18149 17822.1 17495.1 17168.2
          16841.3 16514.3 16187.4 15860.4 15533.5 15208.2
        </DataArray>
        <DataArray type="Float32" Name="pl" NumberOfComponents="1" format="ascii">
          110628 110301 109974 109647 109320 108993 108666 108339 108012 107685 107358 107031
          106704 106377 106050 105723 105396 105070 104743 104416 104089 103762 103435 103108
          102781 102454 102127 101800 101473 101148
        </DataArray>
        <DataArray type="Float32" Name="pc" NumberOfComponents="1" format="ascii">
          -85939.7 -85939.7 -85939.7 -85939.7 -85939.7 -85939.7 -85939.7 -85939.7 -85939.7 -85939.7 -85939.7 -85939.7
          -85939.7 -85939.7 -85939.7 -85939.7 -85939.7 -85939.7 -85939.7 -85939.7 -85939.7 -85939.7 -85939.7 -85939.7
          -85939.7 -85939.7 -85939.7 -85939.7 -85939.7 -85939.7
        </DataArray>
        <DataArray type="Float32" Name="rhoL" NumberOfComponents="1" format="ascii">
          999.855 999.855 999.855 999.855 999.855 999.854 999.854 999.854 999.854 999.854 999.854 999.854
          999.853 999.853 999.853 999.853 999.853 999.853 999.852 999.852 999.852 999.852 999.852 999.852
          999.852 999.851 999.851 999.851 999.851 999.851
        </DataArray>
        <DataArray type="Float32" Name="rhoG" NumberOfComponents="1" format="ascii">
          0.30585 0.3018 0.29775 0.293699 0.289649 0.285598 0.281548 0.277498 0.273447 0.269397 0.265347 0.261296
          0.257246 0.253195 0.249145 0.245095 0.241044 0.236994 0.232944 0.228893 0.224843 0.220793 0.216742 0.212692
          0.208641 0.204591 0.200541 0.19649 0.19244 0.18841
        </DataArray>
        <DataArray type="Float32" Name="mobL" NumberOfComponents="1" format="ascii">
          722.171 722.17 722.17 722.17 722.17 722.17 722.169 722.169 722.169 722.169 722.169 722.169
          722.168 722.168 722.168 722.168 722.168 722.167 722.167 722.167 722.167 722.167 722.166 722.166
          722.166 722.166 722.166 722.166 722.165 722.165
        </DataArray>
        <DataArray type="Float32" Name="mobG" NumberOfComponents="1" format="ascii">
          0 0 0 0 0 0 0 0 0 0 0 0
          0 0 0 0 0 0 0 0 0 0 0 0
          0 0 0 0 0 0
        </DataArray>
        <DataArray type="Float32" Name="porosity" NumberOfComponents="1" format="ascii">
          0.298685 0.298685 0.298685 0.298685 0.298684 0.298684 0.298683 0.298682 0.298681 0.298679 0.298676 0.298673
          0.298668 0.298661 0.298652 0.29864 0.298623 0.2986 0.29857 0.298528 0.298471 0.298392 0.298278 0.298109
          0.297575 0.297125 0.296248 0.29404 0.28437 0.0549276
        </DataArray>
        <DataArray type="Float32" Name="temperature" NumberOfComponents="1" format="ascii">
          281.15 281.15 281.15 281.15 281.15 281.15 281.15 281.15 281.15 281.15 281.15 281.15
          281.15 281.15 281.15 281.15 281.15 281.15 281.15 281.15 281.15 281.15 281.15 281.15
          281.15 281.15 281.15 281.15 281.15 281.15
        </DataArray>
        <DataArray type="Float32" Name="phase presence" NumberOfComponents="1" format="ascii">
          1 1 1 1 1 1 1 1 1 1 1 1
          1 1 1 1 1 1 1 1 1 1 1 1
          1 1 1 1 1 1
        </DataArray>
        <DataArray type="Float32" Name="precipitateVolumeFraction_au" NumberOfComponents="1" format="ascii">
          5.52666e-10 5.52795e-10 5.52775e-10 5.52758e-10 5.52722e-10 5.52762e-10 5.52745e-10 5.52759e-10 5.52759e-10 5.52726e-10 5.52782e-10 5.52795e-10
          5.52758e-10 5.52789e-10 5.52725e-10 5.5277e-10 5.52769e-10 5.52737e-10 5.52778e-10 5.52731e-10 5.52728e-10 5.52782e-10 5.52944e-10 9.27177e-10
          0.000269942 0.000269926 0.000269901 0.000269855 5.52271e-10 5.51233e-10
        </DataArray>
        <DataArray type="Float32" Name="precipitateVolumeFraction_nanoAu" NumberOfComponents="1" format="ascii">
          1.20262e-13 1.20299e-13 1.20293e-13 1.20287e-13 1.20278e-13 1.20287e-13 1.20282e-13 1.20285e-13 1.20284e-13 1.20276e-13 1.20288e-13 1.2029e-13
          1.20281e-13 1.20287e-13 1.20271e-13 1.2028e-13 1.20277e-13 1.20268e-13 1.20274e-13 1.20259e-13 1.20252e-13 1.20271e-13 1.32203e-13 2.54678e-11
          5.86568e-08 7.478e-08 1.00113e-07 1.43746e-07 4.74185e-13 4.66922e-13
        </DataArray>
        <DataArray type="Float32" Name="precipitateVolumeFraction_d" NumberOfComponents="1" format="ascii">
          0.000657442 0.000657506 0.000657597 0.000657725 0.000657904 0.000658156 0.000658509 0.000659 0.000659684 0.000660631 0.000661938 0.000663734
          0.00066619 0.000669537 0.000674083 0.000680238 0.000688559 0.000699808 0.000715046 0.000735797 0.000764327 0.000804161 0.000861115 0.000945514
          0.00107753 0.0013023 0.00174104 0.00284507 0.0078152 0.122536
        </DataArray>
        <DataArray type="Float32" Name="precipitateVolumeFraction_p" NumberOfComponents="1" format="ascii">
          0.000657442 0.000657506 0.000657597 0.000657725 0.000657904 0.000658156 0.000658509 0.000659 0.000659684 0.000660631 0.000661938 0.000663734
          0.00066619 0.000669537 0.000674083 0.000680238 0.000688559 0.000699808 0.000715046 0.000735797 0.000764327 0.000804161 0.000861115 0.000945514
          0.00107753 0.0013023 0.00174104 0.00284507 0.0078152 0.122536
        </DataArray>
        <DataArray type="Float32" Name="K" NumberOfComponents="1" format="ascii">
          9.83211e-11 9.8321e-11 9.83208e-11 9.83204e-11 9.832e-11 9.83193e-11 9.83184e-11 9.83172e-11 9.83155e-11 9.83131e-11 9.83097e-11 9.83052e-11
          9.8299e-11 9.82905e-11 9.8279e-11 9.82634e-11 9.82423e-11 9.82138e-11 9.81752e-11 9.81226e-11 9.80504e-11 9.79497e-11 9.78058e-11 9.75929e-11
          9.69218e-11 9.63598e-11 9.52706e-11 9.25743e-11 8.149e-11 3.36724e-13
        </DataArray>
        <DataArray type="Float32" Name="X^w_H2O" NumberOfComponents="1" format="ascii">
          0.999853 0.999853 0.999853 0.999853 0.999853 0.999853 0.999853 0.999853 0.999853 0.999853 0.999853 0.999853
          0.999853 0.999853 0.999853 0.999853 0.999853 0.999853 0.999853 0.999853 0.999853 0.999853 0.999853 0.999853
          0.999853 0.999852 0.99985 0.999846 0.999839 0.99984
        </DataArray>
        <DataArray type="Float32" Name="X^w_Air" NumberOfComponents="1" format="ascii">
          0 0 0 0 0 0 0 0 0 0 0 0
          0 0 0 0 0 0 0 0 0 0 0 0
          0 0 0 0 0 0
        </DataArray>
        <DataArray type="Float32" Name="X^w_AuComplex" NumberOfComponents="1" format="ascii">
          1.39544e-16 1.39585e-16 1.39578e-16 1.39571e-16 1.3956e-16 1.3957e-16 1.39564e-16 1.39567e-16 1.39566e-16 1.39555e-16 1.39569e-16 1.39571e-16
          1.39559e-16 1.39565e-16 1.39546e-16 1.39555e-16 1.3955e-16 1.39537e-16 1.39541e-16 1.39519e-16 1.39506e-16 1.39517e-16 1.53161e-16 2.95243e-14
          6.80292e-11 1.06879e-10 1.85452e-10 3.71757e-10 1.92271e-15 1.87119e-15
        </DataArray>
        <DataArray type="Float32" Name="X^w_nanoAu" NumberOfComponents="1" format="ascii">
          5.23783e-19 5.23944e-19 5.23916e-19 5.23893e-19 5.23852e-19 5.23892e-19 5.23871e-19 5.23883e-19 5.23879e-19 5.23843e-19 5.23896e-19 5.23904e-19
          5.23863e-19 5.23887e-19 5.2382e-19 5.23856e-19 5.23845e-19 5.23801e-19 5.23822e-19 5.23793e-19 5.27347e-19 8.59687e-19 3.16291e-17 2.87625e-15
          2.56193e-13 3.26807e-13 4.37776e-13 6.1867e-13 2.05887e-18 1.98242e-18
        </DataArray>
        <DataArray type="Float32" Name="X^w_cyanide" NumberOfComponents="1" format="ascii">
          4.92715e-06 4.92713e-06 4.92712e-06 4.9271e-06 4.92708e-06 4.92706e-06 4.92704e-06 4.92702e-06 4.927e-06 4.92698e-06 4.92695e-06 4.92693e-06
          4.9269e-06 4.92686e-06 4.92681e-06 4.92676e-06 4.92669e-06 4.92659e-06 4.92646e-06 4.92629e-06 4.92604e-06 4.92568e-06 4.92516e-06 4.92435e-06
          4.92354e-06 6.27644e-06 8.40111e-06 1.20851e-05 1.94588e-05 1.92276e-05
        </DataArray>
        <DataArray type="Float32" Name="X^w_citrate" NumberOfComponents="1" format="ascii">
          0.000141796 0.000141796 0.000141796 0.000141796 0.000141796 0.000141796 0.000141796 0.000141796 0.000141796 0.000141796 0.000141796 0.000141796
          0.000141796 0.000141796 0.000141795 0.000141795 0.000141795 0.000141794 0.000141793 0.000141792 0.00014179 0.000141788 0.000141784 0.000141778
          0.000141769 0.000141754 0.000141723 0.000141651 0.000141416 0.000139736
        </DataArray>
        <DataArray type="Float32" Name="X^w_substrate" NumberOfComponents="1" format="ascii">
          6.74668e-12 9.24689e-12 1.26729e-11 1.73675e-11 2.38004e-11 3.26157e-11 4.46969e-11 6.12568e-11 8.39619e-11 1.15105e-10 1.57848e-10 2.16561e-10
          2.97304e-10 4.08527e-10 5.62077e-10 7.74705e-10 1.07035e-09 1.48367e-09 2.06577e-09 2.89363e-09 4.08649e-09 5.83585e-09 8.46345e-09 1.25428e-08
          1.9179e-08 3.07403e-08 5.31313e-08 1.04859e-07 2.71622e-07 1.45662e-06
        </DataArray>
        <DataArray type="Float32" Name="m^w_H2O" NumberOfComponents="1" format="ascii">
          55492.6 55492.6 55492.5 55492.5 55492.5 55492.5 55492.5 55492.5 55492.5 55492.5 55492.5 55492.5
          55492.5 55492.5 55492.4 55492.4 55492.4 55492.4 55492.4 55492.4 55492.4 55492.4 55492.4 55492.4
          55492.4 55492.3 55492.1 55491.9 55491.5 55491.6
        </DataArray>
        <DataArray type="Float32" Name="m^w_Air" NumberOfComponents="1" format="ascii">
          0 0 0 0 0 0 0 0 0 0 0 0
          0 0 0 0 0 0 0 0 0 0 0 0
          0 0 0 0 0 0
        </DataArray>
        <DataArray type="Float32" Name="m^w_AuComplex" NumberOfComponents="1" format="ascii">
          7.08351e-13 7.0856e-13 7.08521e-13 7.08489e-13 7.08431e-13 7.08483e-13 7.08452e-13 7.08466e-13 7.08459e-13 7.08407e-13 7.08476e-13 7.08485e-13
          7.08426e-13 7.08456e-13 7.08359e-13 7.08403e-13 7.08381e-13 7.08313e-13 7.08331e-13 7.08223e-13 7.08153e-13 7.08213e-13 7.77468e-13 1.4987e-10
          3.45327e-07 5.42537e-07 9.41386e-07 1.8871e-06 9.75998e-12 9.49848e-12
        </DataArray>
        <DataArray type="Float32" Name="m^w_nanoAu" NumberOfComponents="1" format="ascii">
          2.65882e-15 2.65964e-15 2.65949e-15 2.65937e-15 2.65917e-15 2.65937e-15 2.65926e-15 2.65932e-15 2.6593e-15 2.65912e-15 2.65939e-15 2.65943e-15
          2.65922e-15 2.65934e-15 2.659e-15 2.65918e-15 2.65912e-15 2.6589e-15 2.65901e-15 2.65886e-15 2.6769e-15 4.36391e-15 1.60554e-13 1.46003e-11
          1.30048e-09 1.65892e-09 2.22222e-09 3.14047e-09 1.04512e-14 1.00631e-14
        </DataArray>
        <DataArray type="Float32" Name="m^w_cyanide" NumberOfComponents="1" format="ascii">
          0.189333 0.189332 0.189331 0.189331 0.18933 0.189329 0.189328 0.189328 0.189327 0.189326 0.189325 0.189324
          0.189323 0.189321 0.189319 0.189317 0.189314 0.189311 0.189306 0.189299 0.189289 0.189276 0.189255 0.189224
          0.189193 0.24118 0.322823 0.464387 0.747728 0.738843
        </DataArray>
        <DataArray type="Float32" Name="m^w_citrate" NumberOfComponents="1" format="ascii">
          0.749743 0.749743 0.749743 0.749743 0.749743 0.749742 0.749742 0.749742 0.749742 0.749741 0.749741 0.74974
          0.74974 0.749739 0.749737 0.749736 0.749733 0.74973 0.749726 0.749719 0.74971 0.749697 0.749677 0.749646
          0.749597 0.749515 0.749353 0.748972 0.74773 0.738845
        </DataArray>
        <DataArray type="Float32" Name="m^w_substrate" NumberOfComponents="1" format="ascii">
          3.74429e-08 5.13186e-08 7.03323e-08 9.63863e-08 1.32088e-07 1.81011e-07 2.48059e-07 3.39964e-07 4.65973e-07 6.38813e-07 8.76028e-07 1.20187e-06
          1.64998e-06 2.26725e-06 3.11942e-06 4.29946e-06 5.94022e-06 8.23409e-06 1.14646e-05 1.6059e-05 2.26792e-05 3.23878e-05 4.69705e-05 6.96099e-05
          0.00010644 0.000170602 0.000294868 0.000581944 0.00150745 0.00808392
        </DataArray>
        <DataArray type="Float32" Name="process rank" NumberOfComponents="1" format="ascii">
          0 0 0 0 0 0 0 0 0 0 0 0
          0 0 0 0 0 0 0 0 0 0 0 0
          0 0 0 0 0 0
        </DataArray>
      </CellData>
      <Points>
        <DataArray type="Float32" Name="Coordinates" NumberOfComponents="3" format="ascii">
          0 0 0 0.5 0 0 0 0.0333333 0 0.5 0.0333333 0
          0 0.0666667 0 0.5 0.0666667 0 0 0.1 0 0.5 0.1 0
          0 0.133333 0 0.5 0.133333 0 0 0.166667 0 0.5 0.166667 0
          0 0.2 0 0.5 0.2 0 0 0.233333 0 0.5 0.233333 0
          0 0.266667 0 0.5 0.266667 0 0 0.3 0 0.5 0.3 0
          0 0.333333 0 0.5 0.333333 0 0 0.366667 0 0.5 0.366667 0
          0 0.4 0 0.5 0.4 0 0 0.433333 0 0.5 0.433333 0
          0 0.466667 0 0.5 0.466667 0 0 0.5 0 0.5 0.5 0
          0 0.533333 0 0.5 0.533333 0 0 0.566667 0 0.5 0.566667 0
          0 0.6 0 0.5 0.6 0 0 0.633333 0 0.5 0.633333 0
          0 0.666667 0 0.5 0.666667 0 0 0.7 0 0.5 0.7 0
          0 0.733333 0 0.5 0.733333 0 0 0.766667 0 0.5 0.766667 0
          0 0.8 0 0.5 0.8 0 0 0.833333 0 0.5 0.833333 0
          0 0.866667 0 0.5 0.866667 0 0 0.9 0 0.5 0.9 0
          0 0.933333 0 0.5 0.933333 0 0 0.966667 0 0.5 0.966667 0
          0 1 0 0.5 1 0
        </DataArray>
      </Points>
      <Cells>
        <DataArray type="Int32" Name="connectivity" NumberOfComponents="1" format="ascii">
          0 1 3 2 2 3 5 4 4 5 7 6
          6 7 9 8 8 9 11 10 10 11 13 12
          12 13 15 14 14 15 17 16 16 17 19 18
          18 19 21 20 20 21 23 22 22 23 25 24
          24 25 27 26 26 27 29 28 28 29 31 30
          30 31 33 32 32 33 35 34 34 35 37 36
          36 37 39 38 38 39 41 40 40 41 43 42
          42 43 45 44 44 45 47 46 46 47 49 48
          48 49 51 50 50 51 53 52 52 53 55 54
          54 55 57 56 56 57 59 58 58 59 61 60
        </DataArray>
        <DataArray type="Int32" Name="offsets" NumberOfComponents="1" format="ascii">
          4 8 12 16 20 24 28 32 36 40 44 48
          52 56 60 64 68 72 76 80 84 88 92 96
          100 104 108 112 116 120
        </DataArray>
        <DataArray type="UInt8" Name="types" NumberOfComponents="1" format="ascii">
          9 9 9 9 9 9 9 9 9 9 9 9
          9 9 9 9 9 9 9 9 9 9 9 9
          9 9 9 9 9 9
        </DataArray>
      </Cells>
    </Piece>
  </UnstructuredGrid>
</VTKFile>
