<?xml version="1.0"?>
<VTKFile type="UnstructuredGrid" version="0.1" byte_order="LittleEndian">
  <UnstructuredGrid>
    <Piece NumberOfCells="30" NumberOfPoints="62">
      <CellData Scalars="Sg">
        <DataArray type="Float32" Name="Sg" NumberOfComponents="1" format="ascii">
          0.0948756 0.0948536 0.0948315 0.0948092 0.0947868 0.0947644 0.094742 0.0947196 0.0946973 0.0946752 0.0946531 0.0946297
          0.094599 0.0945339 0.0943171 0.0934478 0.0898177 0.0750082 0.0235495 0 0 0 0 0
          0 0 0 0 0 0
        </DataArray>
        <DataArray type="Float32" Name="Sl" NumberOfComponents="1" format="ascii">
          0.905124 0.905146 0.905169 0.905191 0.905213 0.905236 0.905258 0.90528 0.905303 0.905325 0.905347 0.90537
          0.905401 0.905466 0.905683 0.906552 0.910182 0.924992 0.976451 1 1 1 1 1
          1 1 1 1 1 1
        </DataArray>
        <DataArray type="Float32" Name="pg" NumberOfComponents="1" format="ascii">
          51866.5 51533.2 51199.9 50866.6 50533.2 50199.9 49866.5 49533.2 49199.8 48866.6 48533.3 48199.6
          47863.9 47518.3 47129.3 46553.3 45186.5 40617.1 25549 18476 18149 17822.1 17495.1 17168.2
          16841.3 16514.3 16187.4 15860.4 15533.5 15206.6
        </DataArray>
        <DataArray type="Float32" Name="pl" NumberOfComponents="1" format="ascii">
          110628 110301 109974 109647 109320 108993 108666 108339 108012 107685 107358 107031
          106704 106377 106050 105723 105396 105070 104743 104416 104089 103762 103435 103108
          102781 102454 102127 101800 101473 101146
        </DataArray>
        <DataArray type="Float32" Name="pc" NumberOfComponents="1" format="ascii">
          -58761.1 -58767.4 -58773.7 -58780.1 -58786.5 -58792.9 -58799.4 -58805.8 -58812.2 -58818.5 -58824.8 -58831.5
          -58840.3 -58859 -58921.1 -59170.1 -60210 -64452.4 -79193.6 -85939.7 -85939.7 -85939.7 -85939.7 -85939.7
          -85939.7 -85939.7 -85939.7 -85939.7 -85939.7 -85939.7
        </DataArray>
        <DataArray type="Float32" Name="rhoL" NumberOfComponents="1" format="ascii">
          999.855 999.855 999.855 999.855 999.855 999.854 999.854 999.854 999.854 999.854 999.854 999.854
          999.853 999.853 999.853 999.853 999.853 999.853 999.852 999.852 999.852 999.852 999.852 999.852
          999.852 999.851 999.851 999.851 999.851 999.851
        </DataArray>
        <DataArray type="Float32" Name="rhoG" NumberOfComponents="1" format="ascii">
          0.642558 0.638429 0.6343 0.630171 0.626041 0.621911 0.617781 0.613652 0.609522 0.605393 0.601264 0.597131
          0.592972 0.58869 0.583871 0.576735 0.559802 0.503193 0.316519 0.228893 0.224843 0.220793 0.216742 0.212692
          0.208641 0.204591 0.200541 0.19649 0.19244 0.18839
        </DataArray>
        <DataArray type="Float32" Name="mobL" NumberOfComponents="1" format="ascii">
          722.171 722.17 722.17 722.17 722.17 722.17 722.169 722.169 722.169 722.169 722.169 722.169
          722.168 722.168 722.168 722.168 722.168 722.167 722.167 722.167 722.167 722.167 722.166 722.166
          722.166 722.166 722.166 722.166 722.165 722.165
        </DataArray>
        <DataArray type="Float32" Name="mobG" NumberOfComponents="1" format="ascii">
          0 0 0 0 0 0 0 0 0 0 0 0
          0 0 0 0 0 0 0 0 0 0 0 0
          0 0 0 0 0 0
        </DataArray>
        <DataArray type="Float32" Name="porosity" NumberOfComponents="1" format="ascii">
          0.298489 0.298489 0.298489 0.298489 0.298488 0.298488 0.298487 0.298486 0.298484 0.298482 0.298479 0.298475
          0.29847 0.298462 0.298452 0.298439 0.29842 0.298396 0.298362 0.298317 0.298255 0.29817 0.29805 0.297876
          0.29734 0.296908 0.296125 0.294422 0.289314 0.242616
        </DataArray>
        <DataArray type="Float32" Name="temperature" NumberOfComponents="1" format="ascii">
          281.15 281.15 281.15 281.15 281.15 281.15 281.15 281.15 281.15 281.15 281.15 281.15
          281.15 281.15 281.15 281.15 281.15 281.15 281.15 281.15 281.15 281.15 281.15 281.15
          281.15 281.15 281.15 281.15 281.15 281.15
        </DataArray>
        <DataArray type="Float32" Name="phase presence" NumberOfComponents="1" format="ascii">
          3 3 3 3 3 3 3 3 3 3 3 3
          3 3 3 3 3 3 3 1 1 1 1 1
          1 1 1 1 1 1
        </DataArray>
        <DataArray type="Float32" Name="precipitateVolumeFraction_au" NumberOfComponents="1" format="ascii">
          5.06694e-10 5.06694e-10 5.06698e-10 5.06702e-10 5.06706e-10 5.0671e-10 5.06713e-10 5.06716e-10 5.06719e-10 5.06722e-10 5.06725e-10 5.06728e-10
          5.0673e-10 5.06733e-10 5.06735e-10 5.06736e-10 5.06739e-10 5.0674e-10 5.06742e-10 5.0674e-10 5.06739e-10 5.06763e-10 5.06777e-10 5.49264e-10
          0.000269938 0.000269923 0.000269901 0.000269866 5.06432e-10 5.05634e-10
        </DataArray>
        <DataArray type="Float32" Name="precipitateVolumeFraction_nanoAu" NumberOfComponents="1" format="ascii">
          4.61851e-11 4.618e-11 4.61758e-11 4.61717e-11 4.61676e-11 4.61638e-11 4.61599e-11 4.61563e-11 4.61529e-11 4.61493e-11 4.61464e-11 4.61433e-11
          4.61401e-11 4.61375e-11 4.61348e-11 4.6132e-11 4.61297e-11 4.61271e-11 4.61225e-11 4.61101e-11 4.61085e-11 4.61389e-11 4.61419e-11 7.31111e-11
          6.2977e-08 7.79522e-08 9.98992e-08 1.33881e-07 4.6313e-11 4.61358e-11
        </DataArray>
        <DataArray type="Float32" Name="precipitateVolumeFraction_d" NumberOfComponents="1" format="ascii">
          0.000755273 0.000755345 0.000755446 0.000755588 0.000755789 0.00075607 0.000756464 0.000757013 0.000757777 0.000758835 0.000760293 0.000762295
          0.00076503 0.000768753 0.000773799 0.000780616 0.000789806 0.000802182 0.00081887 0.00084146 0.000872276 0.000914864 0.000974915 0.00106219
          0.00119491 0.00141114 0.00180273 0.00265405 0.00534296 0.0286918
        </DataArray>
        <DataArray type="Float32" Name="precipitateVolumeFraction_p" NumberOfComponents="1" format="ascii">
          0.000755273 0.000755345 0.000755446 0.000755588 0.000755789 0.00075607 0.000756464 0.000757013 0.000757777 0.000758835 0.000760293 0.000762295
          0.00076503 0.000768753 0.000773799 0.000780616 0.000789806 0.000802182 0.00081887 0.00084146 0.000872276 0.000914864 0.000974915 0.00106219
          0.00119491 0.00141114 0.00180273 0.00265405 0.00534296 0.0286918
        </DataArray>
        <DataArray type="Float32" Name="K" NumberOfComponents="1" format="ascii">
          9.80733e-11 9.80731e-11 9.80729e-11 9.80725e-11 9.8072e-11 9.80713e-11 9.80703e-11 9.80689e-11 9.8067e-11 9.80643e-11 9.80606e-11 9.80555e-11
          9.80486e-11 9.80392e-11 9.80264e-11 9.80092e-11 9.7986e-11 9.79547e-11 9.79125e-11 9.78554e-11 9.77776e-11 9.76701e-11 9.75188e-11 9.72991e-11
          9.6628e-11 9.60887e-11 9.51183e-11 9.30363e-11 8.70133e-11 4.51815e-11
        </DataArray>
        <DataArray type="Float32" Name="X^w_H2O" NumberOfComponents="1" format="ascii">
          0.999837 0.999837 0.999837 0.999837 0.999837 0.999838 0.999838 0.999838 0.999838 0.999838 0.999838 0.999838
          0.999839 0.999839 0.999839 0.999839 0.999839 0.999841 0.999846 0.999853 0.999853 0.999853 0.999853 0.999853
          0.999853 0.999852 0.99985 0.999846 0.99984 0.999843
        </DataArray>
        <DataArray type="Float32" Name="X^w_Air" NumberOfComponents="1" format="ascii">
          1.57446e-05 1.56413e-05 1.5538e-05 1.54347e-05 1.53314e-05 1.52281e-05 1.51247e-05 1.50214e-05 1.49181e-05 1.48148e-05 1.47115e-05 1.4608e-05
          1.4504e-05 1.43968e-05 1.42763e-05 1.40977e-05 1.3674e-05 1.22577e-05 7.58695e-06 2.77899e-07 3.62112e-09 4.62025e-11 5.73505e-13 6.88259e-15
          7.84871e-17 8.62547e-19 8.69073e-21 7.42001e-23 4.16393e-25 1.58656e-28
        </DataArray>
        <DataArray type="Float32" Name="X^w_AuComplex" NumberOfComponents="1" format="ascii">
          5.20548e-14 5.04971e-14 5.19565e-14 5.20317e-14 4.96387e-14 5.07219e-14 4.93512e-14 5.01537e-14 4.94724e-14 4.68904e-14 4.82966e-14 4.68207e-14
          4.77015e-14 4.71208e-14 4.67549e-14 4.78622e-14 4.59932e-14 4.98332e-14 7.0025e-14 4.65972e-14 4.64659e-14 4.63716e-14 4.62522e-14 7.79454e-14
          7.33857e-11 1.13604e-10 1.90479e-10 3.55465e-10 1.77134e-13 1.68188e-13
        </DataArray>
        <DataArray type="Float32" Name="X^w_nanoAu" NumberOfComponents="1" format="ascii">
          -1.34471e-16 7.35286e-16 -2.32755e-16 -1.57584e-16 -1.23119e-16 -1.46733e-15 -4.10618e-16 3.91802e-16 -2.89481e-16 7.69603e-16 -2.51553e-16 -5.13772e-16
          1.58069e-15 1.00004e-15 -5.79573e-16 5.27681e-16 -1.27582e-16 2.49871e-15 2.14767e-14 2.00885e-16 2.0087e-16 2.01339e-16 2.34496e-16 3.2937e-15
          2.74693e-13 3.3992e-13 4.35171e-13 5.73011e-13 1.98466e-16 1.86504e-16
        </DataArray>
        <DataArray type="Float32" Name="X^w_cyanide" NumberOfComponents="1" format="ascii">
          5.69998e-06 5.63057e-06 5.56821e-06 5.51204e-06 5.46136e-06 5.41551e-06 5.37397e-06 5.33627e-06 5.30199e-06 5.27078e-06 5.24233e-06 5.21636e-06
          5.19263e-06 5.17092e-06 5.15103e-06 5.13278e-06 5.11596e-06 5.10039e-06 5.08577e-06 5.07149e-06 5.05738e-06 5.04379e-06 5.03025e-06 5.01592e-06
          4.99985e-06 6.43268e-06 8.64553e-06 1.23439e-05 1.91946e-05 1.82974e-05
        </DataArray>
        <DataArray type="Float32" Name="X^w_citrate" NumberOfComponents="1" format="ascii">
          0.000141795 0.000141795 0.000141795 0.000141795 0.000141795 0.000141794 0.000141794 0.000141794 0.000141794 0.000141794 0.000141794 0.000141793
          0.000141792 0.000141792 0.000141791 0.000141789 0.000141787 0.000141784 0.00014178 0.000141774 0.000141764 0.000141749 0.000141727 0.000141692
          0.000141633 0.000141531 0.00014133 0.000140877 0.000139548 0.000133001
        </DataArray>
        <DataArray type="Float32" Name="X^w_substrate" NumberOfComponents="1" format="ascii">
          2.71024e-11 3.74984e-11 5.19335e-11 7.19969e-11 9.99009e-11 1.38751e-10 1.92873e-10 2.6835e-10 3.73694e-10 5.20888e-10 7.26815e-10 1.01534e-09
          1.42031e-09 1.98993e-09 2.79332e-09 3.93027e-09 5.54639e-09 7.85514e-09 1.11633e-08 1.58831e-08 2.27869e-08 3.30963e-08 4.88738e-08 7.38324e-08
          1.15158e-07 1.88165e-07 3.3012e-07 6.50868e-07 1.58881e-06 6.20574e-06
        </DataArray>
        <DataArray type="Float32" Name="m^w_H2O" NumberOfComponents="1" format="ascii">
          55491.6 55491.6 55491.7 55491.7 55491.6 55491.6 55491.6 55491.6 55491.6 55491.6 55491.6 55491.6
          55491.6 55491.6 55491.6 55491.6 55491.7 55491.7 55492 55492.4 55492.4 55492.4 55492.4 55492.4
          55492.4 55492.3 55492.1 55491.9 55491.6 55491.7
        </DataArray>
        <DataArray type="Float32" Name="m^w_Air" NumberOfComponents="1" format="ascii">
          0.54359 0.540023 0.536456 0.532889 0.529322 0.525754 0.522186 0.518619 0.515051 0.511485 0.507918 0.504347
          0.500754 0.497056 0.492892 0.486728 0.4721 0.423199 0.261942 0.00959453 0.00012502 1.59516e-06 1.98004e-08 2.37623e-10
          2.70979e-12 2.97796e-14 3.0005e-16 2.56178e-18 1.43761e-20 5.47763e-24
        </DataArray>
        <DataArray type="Float32" Name="m^w_AuComplex" NumberOfComponents="1" format="ascii">
          2.64239e-10 2.56333e-10 2.63741e-10 2.64122e-10 2.51975e-10 2.57474e-10 2.50516e-10 2.54589e-10 2.5113e-10 2.38024e-10 2.45162e-10 2.3767e-10
          2.42141e-10 2.39193e-10 2.37336e-10 2.42956e-10 2.33469e-10 2.52962e-10 3.55458e-10 2.36535e-10 2.35869e-10 2.3539e-10 2.34784e-10 3.95664e-10
          3.72517e-07 5.76671e-07 9.669e-07 1.8044e-06 8.99158e-10 8.53746e-10
        </DataArray>
        <DataArray type="Float32" Name="m^w_nanoAu" NumberOfComponents="1" format="ascii">
          -6.826e-13 3.73244e-12 -1.18151e-12 -7.99923e-13 -6.24972e-13 -7.44843e-12 -2.08437e-12 1.98885e-12 -1.46945e-12 3.90664e-12 -1.27692e-12 -2.608e-12
          8.02385e-12 5.07639e-12 -2.94201e-12 2.6786e-12 -6.47628e-13 1.26839e-11 1.09019e-10 1.01973e-12 1.01965e-12 1.02203e-12 1.19034e-12 1.67194e-11
          1.39439e-09 1.72549e-09 2.209e-09 2.9087e-09 1.00745e-12 9.46726e-13
        </DataArray>
        <DataArray type="Float32" Name="m^w_cyanide" NumberOfComponents="1" format="ascii">
          0.21903 0.216363 0.213966 0.211808 0.20986 0.208099 0.206502 0.205053 0.203736 0.202537 0.201444 0.200446
          0.199534 0.1987 0.197935 0.197234 0.196588 0.195989 0.195427 0.194879 0.194336 0.193814 0.193294 0.192743
          0.192125 0.247184 0.332215 0.47433 0.737575 0.703101
        </DataArray>
        <DataArray type="Float32" Name="m^w_citrate" NumberOfComponents="1" format="ascii">
          0.749736 0.749736 0.749735 0.749735 0.749734 0.749733 0.749733 0.749732 0.749731 0.74973 0.749728 0.749725
          0.749722 0.749718 0.749711 0.749703 0.749691 0.749674 0.749653 0.749623 0.749571 0.749494 0.749375 0.749188
          0.748878 0.748335 0.747277 0.744879 0.737854 0.703234
        </DataArray>
        <DataArray type="Float32" Name="m^w_substrate" NumberOfComponents="1" format="ascii">
          1.50413e-07 2.08109e-07 2.88222e-07 3.99569e-07 5.54432e-07 7.70041e-07 1.07041e-06 1.48929e-06 2.07393e-06 2.89083e-06 4.03369e-06 5.63495e-06
          7.88244e-06 1.10437e-05 1.55024e-05 2.18122e-05 3.07814e-05 4.35945e-05 6.19543e-05 8.81481e-05 0.000126463 0.000183678 0.00027124 0.000409755
          0.000639104 0.00104428 0.0018321 0.00361219 0.00881756 0.0344406
        </DataArray>
        <DataArray type="Float32" Name="process rank" NumberOfComponents="1" format="ascii">
          0 0 0 0 0 0 0 0 0 0 0 0
          0 0 0 0 0 0 0 0 0 0 0 0
          0 0 0 0 0 0
        </DataArray>
      </CellData>
      <Points>
        <DataArray type="Float32" Name="Coordinates" NumberOfComponents="3" format="ascii">
          0 0 0 0.5 0 0 0 0.0333333 0 0.5 0.0333333 0
          0 0.0666667 0 0.5 0.0666667 0 0 0.1 0 0.5 0.1 0
          0 0.133333 0 0.5 0.133333 0 0 0.166667 0 0.5 0.166667 0
          0 0.2 0 0.5 0.2 0 0 0.233333 0 0.5 0.233333 0
          0 0.266667 0 0.5 0.266667 0 0 0.3 0 0.5 0.3 0
          0 0.333333 0 0.5 0.333333 0 0 0.366667 0 0.5 0.366667 0
          0 0.4 0 0.5 0.4 0 0 0.433333 0 0.5 0.433333 0
          0 0.466667 0 0.5 0.466667 0 0 0.5 0 0.5 0.5 0
          0 0.533333 0 0.5 0.533333 0 0 0.566667 0 0.5 0.566667 0
          0 0.6 0 0.5 0.6 0 0 0.633333 0 0.5 0.633333 0
          0 0.666667 0 0.5 0.666667 0 0 0.7 0 0.5 0.7 0
          0 0.733333 0 0.5 0.733333 0 0 0.766667 0 0.5 0.766667 0
          0 0.8 0 0.5 0.8 0 0 0.833333 0 0.5 0.833333 0
          0 0.866667 0 0.5 0.866667 0 0 0.9 0 0.5 0.9 0
          0 0.933333 0 0.5 0.933333 0 0 0.966667 0 0.5 0.966667 0
          0 1 0 0.5 1 0
        </DataArray>
      </Points>
      <Cells>
        <DataArray type="Int32" Name="connectivity" NumberOfComponents="1" format="ascii">
          0 1 3 2 2 3 5 4 4 5 7 6
          6 7 9 8 8 9 11 10 10 11 13 12
          12 13 15 14 14 15 17 16 16 17 19 18
          18 19 21 20 20 21 23 22 22 23 25 24
          24 25 27 26 26 27 29 28 28 29 31 30
          30 31 33 32 32 33 35 34 34 35 37 36
          36 37 39 38 38 39 41 40 40 41 43 42
          42 43 45 44 44 45 47 46 46 47 49 48
          48 49 51 50 50 51 53 52 52 53 55 54
          54 55 57 56 56 57 59 58 58 59 61 60
        </DataArray>
        <DataArray type="Int32" Name="offsets" NumberOfComponents="1" format="ascii">
          4 8 12 16 20 24 28 32 36 40 44 48
          52 56 60 64 68 72 76 80 84 88 92 96
          100 104 108 112 116 120
        </DataArray>
        <DataArray type="UInt8" Name="types" NumberOfComponents="1" format="ascii">
          9 9 9 9 9 9 9 9 9 9 9 9
          9 9 9 9 9 9 9 9 9 9 9 9
          9 9 9 9 9 9
        </DataArray>
      </Cells>
    </Piece>
  </UnstructuredGrid>
</VTKFile>
