<?xml version="1.0"?>
<VTKFile type="UnstructuredGrid" version="0.1" byte_order="LittleEndian">
  <UnstructuredGrid>
    <Piece NumberOfCells="30" NumberOfPoints="62">
      <CellData Scalars="Sg">
        <DataArray type="Float32" Name="Sg" NumberOfComponents="1" format="ascii">
          0.088623 0.0883617 0.0873215 0.0827014 0.0626956 0 0 0 0 0 0 0
          0 0 0 0 0 0 0 0 0 0 0 0
          0 0 0 0 0 0
        </DataArray>
        <DataArray type="Float32" Name="Sl" NumberOfComponents="1" format="ascii">
          0.911377 0.911638 0.912679 0.917299 0.937304 1 1 1 1 1 1 1
          1 1 1 1 1 1 1 1 1 1 1 1
          1 1 1 1 1 1
        </DataArray>
        <DataArray type="Float32" Name="pg" NumberOfComponents="1" format="ascii">
          50075.3 49673.5 49048.6 47398.1 41340.2 23053.1 22726.2 22399.3 22072.3 21745.4 21418.4 21091.5
          20764.6 20437.6 20110.7 19783.7 19456.8 19129.9 18802.9 18476 18149 17822.1 17495.1 17168.2
          16841.3 16514.3 16187.4 15860.4 15533.5 15206.6
        </DataArray>
        <DataArray type="Float32" Name="pl" NumberOfComponents="1" format="ascii">
          110628 110301 109974 109647 109320 108993 108666 108339 108012 107685 107358 107031
          106704 106377 106050 105723 105396 105070 104743 104416 104089 103762 103435 103108
          102781 102454 102127 101800 101473 101146
        </DataArray>
        <DataArray type="Float32" Name="pc" NumberOfComponents="1" format="ascii">
          -60552.2 -60627.1 -60925.1 -62248.6 -67979.5 -85939.7 -85939.7 -85939.7 -85939.7 -85939.7 -85939.7 -85939.7
          -85939.7 -85939.7 -85939.7 -85939.7 -85939.7 -85939.7 -85939.7 -85939.7 -85939.7 -85939.7 -85939.7 -85939.7
          -85939.7 -85939.7 -85939.7 -85939.7 -85939.7 -85939.7
        </DataArray>
        <DataArray type="Float32" Name="rhoL" NumberOfComponents="1" format="ascii">
          999.855 999.855 999.855 999.855 999.855 999.854 999.854 999.854 999.854 999.854 999.854 999.854
          999.853 999.853 999.853 999.853 999.853 999.853 999.852 999.852 999.852 999.852 999.852 999.852
          999.852 999.851 999.851 999.851 999.851 999.851
        </DataArray>
        <DataArray type="Float32" Name="rhoG" NumberOfComponents="1" format="ascii">
          0.620368 0.61539 0.607648 0.587201 0.512152 0.285598 0.281548 0.277498 0.273447 0.269397 0.265347 0.261296
          0.257246 0.253195 0.249145 0.245095 0.241044 0.236994 0.232944 0.228893 0.224843 0.220793 0.216742 0.212692
          0.208641 0.204591 0.200541 0.19649 0.19244 0.18839
        </DataArray>
        <DataArray type="Float32" Name="mobL" NumberOfComponents="1" format="ascii">
          722.171 722.17 722.17 722.17 722.17 722.17 722.169 722.169 722.169 722.169 722.169 722.169
          722.168 722.168 722.168 722.168 722.168 722.167 722.167 722.167 722.167 722.167 722.166 722.166
          722.166 722.166 722.166 722.166 722.165 722.165
        </DataArray>
        <DataArray type="Float32" Name="mobG" NumberOfComponents="1" format="ascii">
          0 0 0 0 0 0 0 0 0 0 0 0
          0 0 0 0 0 0 0 0 0 0 0 0
          0 0 0 0 0 0
        </DataArray>
        <DataArray type="Float32" Name="porosity" NumberOfComponents="1" format="ascii">
          0.29853 0.29853 0.29853 0.29853 0.298529 0.298528 0.298527 0.298526 0.298524 0.298521 0.298517 0.298513
          0.298506 0.298497 0.298485 0.29847 0.298449 0.298421 0.298384 0.298334 0.298267 0.298174 0.298044 0.297854
          0.297293 0.296813 0.295918 0.293855 0.286557 0.170148
        </DataArray>
        <DataArray type="Float32" Name="temperature" NumberOfComponents="1" format="ascii">
          281.15 281.15 281.15 281.15 281.15 281.15 281.15 281.15 281.15 281.15 281.15 281.15
          281.15 281.15 281.15 281.15 281.15 281.15 281.15 281.15 281.15 281.15 281.15 281.15
          281.15 281.15 281.15 281.15 281.15 281.15
        </DataArray>
        <DataArray type="Float32" Name="phase presence" NumberOfComponents="1" format="ascii">
          3 3 3 3 3 1 1 1 1 1 1 1
          1 1 1 1 1 1 1 1 1 1 1 1
          1 1 1 1 1 1
        </DataArray>
        <DataArray type="Float32" Name="precipitateVolumeFraction_au" NumberOfComponents="1" format="ascii">
          5.49269e-10 5.49265e-10 5.49265e-10 5.49266e-10 5.49265e-10 5.49265e-10 5.49261e-10 5.49259e-10 5.49267e-10 5.49286e-10 5.49261e-10 5.49231e-10
          5.49282e-10 5.49271e-10 5.49273e-10 5.49267e-10 5.49253e-10 5.4928e-10 5.49293e-10 5.49257e-10 5.49264e-10 5.49256e-10 5.493e-10 6.60598e-10
          0.00026994 0.000269923 0.000269898 0.000269855 5.48818e-10 5.4826e-10
        </DataArray>
        <DataArray type="Float32" Name="precipitateVolumeFraction_nanoAu" NumberOfComponents="1" format="ascii">
          3.61075e-12 3.61037e-12 3.60951e-12 3.60936e-12 3.6088e-12 3.5917e-12 3.59207e-12 3.59252e-12 3.60896e-12 3.62205e-12 3.60442e-12 3.59092e-12
          3.61246e-12 3.60755e-12 3.60767e-12 3.60632e-12 3.60423e-12 3.60712e-12 3.60774e-12 3.60466e-12 3.60493e-12 3.60436e-12 3.61579e-12 2.97935e-11
          6.08425e-08 7.72168e-08 1.02563e-07 1.45164e-07 3.93423e-12 3.89982e-12
        </DataArray>
        <DataArray type="Float32" Name="precipitateVolumeFraction_d" NumberOfComponents="1" format="ascii">
          0.000734777 0.000734881 0.000735025 0.000735224 0.0007355 0.000735881 0.000736405 0.000737124 0.000738106 0.000739444 0.000741256 0.000743704
          0.000746995 0.000751404 0.000757291 0.000765132 0.000775564 0.000789447 0.00080797 0.000832824 0.000866496 0.00091282 0.000978026 0.00107297
          0.00121832 0.00145853 0.00190587 0.00293752 0.00672158 0.0649261
        </DataArray>
        <DataArray type="Float32" Name="precipitateVolumeFraction_p" NumberOfComponents="1" format="ascii">
          0.000734777 0.000734881 0.000735025 0.000735224 0.0007355 0.000735881 0.000736405 0.000737124 0.000738106 0.000739444 0.000741256 0.000743704
          0.000746995 0.000751404 0.000757291 0.000765132 0.000775564 0.000789447 0.00080797 0.000832824 0.000866496 0.00091282 0.000978026 0.00107297
          0.00121832 0.00145853 0.00190587 0.00293752 0.00672158 0.0649261
        </DataArray>
        <DataArray type="Float32" Name="K" NumberOfComponents="1" format="ascii">
          9.81252e-11 9.81249e-11 9.81246e-11 9.81241e-11 9.81234e-11 9.81224e-11 9.81211e-11 9.81193e-11 9.81168e-11 9.81134e-11 9.81088e-11 9.81026e-11
          9.80943e-11 9.80831e-11 9.80682e-11 9.80484e-11 9.8022e-11 9.79869e-11 9.794e-11 9.78772e-11 9.77922e-11 9.76753e-11 9.7511e-11 9.72721e-11
          9.65695e-11 9.59708e-11 9.4864e-11 9.23514e-11 8.38969e-11 1.29811e-11
        </DataArray>
        <DataArray type="Float32" Name="X^w_H2O" NumberOfComponents="1" format="ascii">
          0.999838 0.999838 0.999838 0.999839 0.999841 0.999847 0.999853 0.999853 0.999853 0.999853 0.999853 0.999853
          0.999853 0.999853 0.999853 0.999853 0.999853 0.999853 0.999853 0.999853 0.999853 0.999853 0.999853 0.999853
          0.999853 0.999852 0.99985 0.999846 0.999839 0.99984
        </DataArray>
        <DataArray type="Float32" Name="X^w_Air" NumberOfComponents="1" format="ascii">
          1.51894e-05 1.50649e-05 1.48712e-05 1.43596e-05 1.24818e-05 5.75389e-06 9.59646e-08 1.57168e-09 2.53052e-11 4.00827e-13 6.22799e-15 9.49181e-17
          1.42322e-18 2.09163e-20 3.02039e-22 4.27042e-24 5.92164e-26 8.05433e-28 1.07109e-29 1.39104e-31 1.76102e-33 2.16325e-35 2.55102e-37 0
          0 0 0 0 0 0
        </DataArray>
        <DataArray type="Float32" Name="X^w_AuComplex" NumberOfComponents="1" format="ascii">
          3.36208e-15 3.45718e-15 2.55545e-15 3.35737e-15 3.93656e-15 3.58792e-15 3.486e-15 3.48651e-15 3.50243e-15 3.51512e-15 3.49819e-15 3.48524e-15
          3.50608e-15 3.5014e-15 3.50156e-15 3.50028e-15 3.49826e-15 3.50101e-15 3.50152e-15 3.49838e-15 3.49836e-15 3.49735e-15 3.50963e-15 3.33541e-14
          6.94385e-11 1.0826e-10 1.85457e-10 3.63347e-10 1.4552e-14 1.40952e-14
        </DataArray>
        <DataArray type="Float32" Name="X^w_nanoAu" NumberOfComponents="1" format="ascii">
          -2.79036e-16 -1.83937e-16 1.28045e-16 -2.8374e-16 2.95444e-16 1.02488e-14 9.85311e-18 9.85464e-18 9.89966e-18 9.93498e-18 9.8867e-18 9.85032e-18
          9.9089e-18 9.8955e-18 9.89577e-18 9.89201e-18 9.88629e-18 9.89409e-18 9.8956e-18 9.88705e-18 9.8879e-18 9.94277e-18 1.82396e-17 1.22533e-15
          1.67083e-13 2.12079e-13 2.81682e-13 3.94368e-13 1.072e-17 1.03159e-17
        </DataArray>
        <DataArray type="Float32" Name="X^w_cyanide" NumberOfComponents="1" format="ascii">
          5.08315e-06 5.08319e-06 5.08324e-06 5.08331e-06 5.0834e-06 5.08352e-06 5.08364e-06 5.08374e-06 5.08384e-06 5.08395e-06 5.08405e-06 5.08415e-06
          5.08424e-06 5.08432e-06 5.08438e-06 5.08442e-06 5.08442e-06 5.08436e-06 5.08423e-06 5.08399e-06 5.08358e-06 5.08292e-06 5.08185e-06 5.0801e-06
          5.07764e-06 6.4511e-06 8.58997e-06 1.22474e-05 1.93867e-05 1.89472e-05
        </DataArray>
        <DataArray type="Float32" Name="X^w_citrate" NumberOfComponents="1" format="ascii">
          0.000141794 0.000141794 0.000141794 0.000141794 0.000141794 0.000141795 0.000141796 0.000141796 0.000141796 0.000141796 0.000141796 0.000141795
          0.000141795 0.000141795 0.000141794 0.000141794 0.000141793 0.000141792 0.00014179 0.000141787 0.000141784 0.000141778 0.00014177 0.000141756
          0.000141734 0.000141696 0.00014162 0.000141444 0.000140896 0.0001377
        </DataArray>
        <DataArray type="Float32" Name="X^w_substrate" NumberOfComponents="1" format="ascii">
          1.16028e-11 1.6131e-11 2.24279e-11 3.11909e-11 4.34305e-11 6.04804e-11 8.28812e-11 1.1442e-10 1.5801e-10 2.1829e-10 3.01725e-10 4.17341e-10
          5.77805e-10 8.00977e-10 1.11222e-09 1.54787e-09 2.1606e-09 3.02781e-09 4.26535e-09 6.05052e-09 8.66243e-09 1.25562e-08 1.85082e-08 2.79204e-08
          4.35221e-08 7.119e-08 1.25493e-07 2.50894e-07 6.38203e-07 2.89236e-06
        </DataArray>
        <DataArray type="Float32" Name="m^w_H2O" NumberOfComponents="1" format="ascii">
          55491.7 55491.7 55491.7 55491.7 55491.8 55492.2 55492.5 55492.5 55492.5 55492.5 55492.5 55492.5
          55492.5 55492.4 55492.4 55492.4 55492.4 55492.4 55492.4 55492.4 55492.4 55492.4 55492.4 55492.4
          55492.3 55492.3 55492.1 55491.9 55491.5 55491.6
        </DataArray>
        <DataArray type="Float32" Name="m^w_Air" NumberOfComponents="1" format="ascii">
          0.524421 0.520121 0.513433 0.49577 0.430939 0.198655 0.00331321 5.42628e-05 8.73671e-07 1.38387e-08 2.15023e-10 3.27708e-12
          4.91372e-14 7.22142e-16 1.0428e-17 1.47437e-19 2.04446e-21 2.78078e-23 3.69796e-25 4.8026e-27 6.07997e-29 7.46866e-31 8.80745e-33 9.78702e-35
          9.86135e-37 0 0 0 0 0
        </DataArray>
        <DataArray type="Float32" Name="m^w_AuComplex" NumberOfComponents="1" format="ascii">
          1.70665e-11 1.75492e-11 1.29719e-11 1.70426e-11 1.99827e-11 1.82129e-11 1.76956e-11 1.76981e-11 1.77789e-11 1.78434e-11 1.77574e-11 1.76917e-11
          1.77975e-11 1.77737e-11 1.77745e-11 1.7768e-11 1.77577e-11 1.77717e-11 1.77743e-11 1.77584e-11 1.77583e-11 1.77531e-11 1.78154e-11 1.69311e-10
          3.52481e-07 5.49543e-07 9.41407e-07 1.84441e-06 7.38682e-11 7.15493e-11
        </DataArray>
        <DataArray type="Float32" Name="m^w_nanoAu" NumberOfComponents="1" format="ascii">
          -1.41644e-12 -9.33698e-13 6.49979e-13 -1.44031e-12 1.49973e-12 5.20247e-11 5.00161e-14 5.00239e-14 5.02524e-14 5.04317e-14 5.01866e-14 5.00019e-14
          5.02992e-14 5.02312e-14 5.02326e-14 5.02135e-14 5.01845e-14 5.0224e-14 5.02317e-14 5.01883e-14 5.01926e-14 5.04711e-14 9.25869e-14 6.21995e-12
          8.48143e-10 1.07655e-09 1.42986e-09 2.00188e-09 5.44164e-14 5.23653e-14
        </DataArray>
        <DataArray type="Float32" Name="m^w_cyanide" NumberOfComponents="1" format="ascii">
          0.195327 0.195329 0.195331 0.195333 0.195337 0.195341 0.195346 0.19535 0.195354 0.195358 0.195362 0.195365
          0.195369 0.195372 0.195374 0.195375 0.195375 0.195373 0.195368 0.195359 0.195343 0.195318 0.195277 0.195209
          0.195115 0.247892 0.330081 0.470623 0.744959 0.728068
        </DataArray>
        <DataArray type="Float32" Name="m^w_citrate" NumberOfComponents="1" format="ascii">
          0.749731 0.749731 0.749731 0.749731 0.749732 0.749737 0.749741 0.749741 0.74974 0.74974 0.749739 0.749738
          0.749737 0.749735 0.749732 0.749729 0.749724 0.749718 0.749708 0.749695 0.749675 0.749646 0.749601 0.74953
          0.749413 0.749211 0.74881 0.747877 0.744982 0.728079
        </DataArray>
        <DataArray type="Float32" Name="m^w_substrate" NumberOfComponents="1" format="ascii">
          6.43932e-08 8.95243e-08 1.24471e-07 1.73104e-07 2.41032e-07 3.35655e-07 4.59975e-07 6.3501e-07 8.76925e-07 1.21147e-06 1.67451e-06 2.31616e-06
          3.20671e-06 4.44527e-06 6.1726e-06 8.59039e-06 1.19909e-05 1.68038e-05 2.36718e-05 3.35792e-05 4.80747e-05 6.96846e-05 0.000102717 0.000154953
          0.000241539 0.00039509 0.000696461 0.00139241 0.0035419 0.016052
        </DataArray>
        <DataArray type="Float32" Name="process rank" NumberOfComponents="1" format="ascii">
          0 0 0 0 0 0 0 0 0 0 0 0
          0 0 0 0 0 0 0 0 0 0 0 0
          0 0 0 0 0 0
        </DataArray>
      </CellData>
      <Points>
        <DataArray type="Float32" Name="Coordinates" NumberOfComponents="3" format="ascii">
          0 0 0 0.5 0 0 0 0.0333333 0 0.5 0.0333333 0
          0 0.0666667 0 0.5 0.0666667 0 0 0.1 0 0.5 0.1 0
          0 0.133333 0 0.5 0.133333 0 0 0.166667 0 0.5 0.166667 0
          0 0.2 0 0.5 0.2 0 0 0.233333 0 0.5 0.233333 0
          0 0.266667 0 0.5 0.266667 0 0 0.3 0 0.5 0.3 0
          0 0.333333 0 0.5 0.333333 0 0 0.366667 0 0.5 0.366667 0
          0 0.4 0 0.5 0.4 0 0 0.433333 0 0.5 0.433333 0
          0 0.466667 0 0.5 0.466667 0 0 0.5 0 0.5 0.5 0
          0 0.533333 0 0.5 0.533333 0 0 0.566667 0 0.5 0.566667 0
          0 0.6 0 0.5 0.6 0 0 0.633333 0 0.5 0.633333 0
          0 0.666667 0 0.5 0.666667 0 0 0.7 0 0.5 0.7 0
          0 0.733333 0 0.5 0.733333 0 0 0.766667 0 0.5 0.766667 0
          0 0.8 0 0.5 0.8 0 0 0.833333 0 0.5 0.833333 0
          0 0.866667 0 0.5 0.866667 0 0 0.9 0 0.5 0.9 0
          0 0.933333 0 0.5 0.933333 0 0 0.966667 0 0.5 0.966667 0
          0 1 0 0.5 1 0
        </DataArray>
      </Points>
      <Cells>
        <DataArray type="Int32" Name="connectivity" NumberOfComponents="1" format="ascii">
          0 1 3 2 2 3 5 4 4 5 7 6
          6 7 9 8 8 9 11 10 10 11 13 12
          12 13 15 14 14 15 17 16 16 17 19 18
          18 19 21 20 20 21 23 22 22 23 25 24
          24 25 27 26 26 27 29 28 28 29 31 30
          30 31 33 32 32 33 35 34 34 35 37 36
          36 37 39 38 38 39 41 40 40 41 43 42
          42 43 45 44 44 45 47 46 46 47 49 48
          48 49 51 50 50 51 53 52 52 53 55 54
          54 55 57 56 56 57 59 58 58 59 61 60
        </DataArray>
        <DataArray type="Int32" Name="offsets" NumberOfComponents="1" format="ascii">
          4 8 12 16 20 24 28 32 36 40 44 48
          52 56 60 64 68 72 76 80 84 88 92 96
          100 104 108 112 116 120
        </DataArray>
        <DataArray type="UInt8" Name="types" NumberOfComponents="1" format="ascii">
          9 9 9 9 9 9 9 9 9 9 9 9
          9 9 9 9 9 9 9 9 9 9 9 9
          9 9 9 9 9 9
        </DataArray>
      </Cells>
    </Piece>
  </UnstructuredGrid>
</VTKFile>
