<?xml version="1.0"?>
<VTKFile type="UnstructuredGrid" version="0.1" byte_order="LittleEndian">
  <UnstructuredGrid>
    <Piece NumberOfCells="30" NumberOfPoints="62">
      <CellData Scalars="Sg">
        <DataArray type="Float32" Name="Sg" NumberOfComponents="1" format="ascii">
          0 0 0 0 0 0 0 0 0 0 0 0
          0 0 0 0 0 0 0 0 0 0 0 0
          0 0 0 0 0 0
        </DataArray>
        <DataArray type="Float32" Name="Sl" NumberOfComponents="1" format="ascii">
          1 1 1 1 1 1 1 1 1 1 1 1
          1 1 1 1 1 1 1 1 1 1 1 1
          1 1 1 1 1 1
        </DataArray>
        <DataArray type="Float32" Name="pg" NumberOfComponents="1" format="ascii">
          24687.8 24360.9 24034 23707 23380.1 23053.1 22726.2 22399.3 22072.3 21745.4 21418.4 21091.5
          20764.6 20437.6 20110.7 19783.7 19456.8 19129.8 18802.9 18476 18149 17822.1 17495.1 17168.2
          16841.3 16514.3 16187.4 15860.4 15533.5 15207.7
        </DataArray>
        <DataArray type="Float32" Name="pl" NumberOfComponents="1" format="ascii">
          110628 110301 109974 109647 109320 108993 108666 108339 108012 107685 107358 107031
          106704 106377 106050 105723 105396 105070 104743 104416 104089 103762 103435 103108
          102781 102454 102127 101800 101473 101147
        </DataArray>
        <DataArray type="Float32" Name="pc" NumberOfComponents="1" format="ascii">
          -85939.7 -85939.7 -85939.7 -85939.7 -85939.7 -85939.7 -85939.7 -85939.7 -85939.7 -85939.7 -85939.7 -85939.7
          -85939.7 -85939.7 -85939.7 -85939.7 -85939.7 -85939.7 -85939.7 -85939.7 -85939.7 -85939.7 -85939.7 -85939.7
          -85939.7 -85939.7 -85939.7 -85939.7 -85939.7 -85939.7
        </DataArray>
        <DataArray type="Float32" Name="rhoL" NumberOfComponents="1" format="ascii">
          999.855 999.855 999.855 999.855 999.855 999.854 999.854 999.854 999.854 999.854 999.854 999.854
          999.853 999.853 999.853 999.853 999.853 999.853 999.852 999.852 999.852 999.852 999.852 999.852
          999.852 999.851 999.851 999.851 999.851 999.851
        </DataArray>
        <DataArray type="Float32" Name="rhoG" NumberOfComponents="1" format="ascii">
          0.30585 0.3018 0.29775 0.293699 0.289649 0.285598 0.281548 0.277498 0.273447 0.269397 0.265347 0.261296
          0.257246 0.253195 0.249145 0.245095 0.241044 0.236994 0.232944 0.228893 0.224843 0.220793 0.216742 0.212692
          0.208641 0.204591 0.200541 0.19649 0.19244 0.188404
        </DataArray>
        <DataArray type="Float32" Name="mobL" NumberOfComponents="1" format="ascii">
          722.171 722.17 722.17 722.17 722.17 722.17 722.169 722.169 722.169 722.169 722.169 722.169
          722.168 722.168 722.168 722.168 722.168 722.167 722.167 722.167 722.167 722.167 722.166 722.166
          722.166 722.166 722.166 722.166 722.165 722.165
        </DataArray>
        <DataArray type="Float32" Name="mobG" NumberOfComponents="1" format="ascii">
          0 0 0 0 0 0 0 0 0 0 0 0
          0 0 0 0 0 0 0 0 0 0 0 0
          0 0 0 0 0 0
        </DataArray>
        <DataArray type="Float32" Name="porosity" NumberOfComponents="1" format="ascii">
          0.29866 0.29866 0.29866 0.298659 0.298659 0.298658 0.298657 0.298656 0.298654 0.298652 0.298648 0.298644
          0.298638 0.298629 0.298619 0.298604 0.298585 0.298559 0.298524 0.298478 0.298415 0.298327 0.298203 0.298021
          0.297468 0.29699 0.296066 0.293776 0.284048 0.0611256
        </DataArray>
        <DataArray type="Float32" Name="temperature" NumberOfComponents="1" format="ascii">
          281.15 281.15 281.15 281.15 281.15 281.15 281.15 281.15 281.15 281.15 281.15 281.15
          281.15 281.15 281.15 281.15 281.15 281.15 281.15 281.15 281.15 281.15 281.15 281.15
          281.15 281.15 281.15 281.15 281.15 281.15
        </DataArray>
        <DataArray type="Float32" Name="phase presence" NumberOfComponents="1" format="ascii">
          1 1 1 1 1 1 1 1 1 1 1 1
          1 1 1 1 1 1 1 1 1 1 1 1
          1 1 1 1 1 1
        </DataArray>
        <DataArray type="Float32" Name="precipitateVolumeFraction_au" NumberOfComponents="1" format="ascii">
          5.52683e-10 5.52788e-10 5.52735e-10 5.52799e-10 5.52753e-10 5.52732e-10 5.52729e-10 5.52727e-10 5.52752e-10 5.52784e-10 5.52741e-10 5.52698e-10
          5.52771e-10 5.52754e-10 5.52756e-10 5.52749e-10 5.52733e-10 5.52763e-10 5.52776e-10 5.52738e-10 5.52745e-10 5.52736e-10 5.52878e-10 8.86215e-10
          0.00026994 0.000269924 0.000269899 0.000269853 5.52278e-10 5.51683e-10
        </DataArray>
        <DataArray type="Float32" Name="precipitateVolumeFraction_nanoAu" NumberOfComponents="1" format="ascii">
          1.24356e-13 1.24425e-13 1.24394e-13 1.24425e-13 1.24402e-13 1.24392e-13 1.2439e-13 1.24389e-13 1.24397e-13 1.24405e-13 1.24391e-13 1.24378e-13
          1.24397e-13 1.24391e-13 1.24389e-13 1.24385e-13 1.24379e-13 1.24383e-13 1.24382e-13 1.24368e-13 1.24362e-13 1.24358e-13 1.35637e-13 2.57665e-11
          6.04009e-08 7.6725e-08 1.02183e-07 1.45574e-07 4.74551e-13 4.67213e-13
        </DataArray>
        <DataArray type="Float32" Name="precipitateVolumeFraction_d" NumberOfComponents="1" format="ascii">
          0.000669891 0.000669987 0.00067012 0.000670304 0.000670558 0.00067091 0.000671394 0.000672057 0.000672964 0.000674198 0.000675872 0.000678133
          0.000681175 0.000685253 0.000690704 0.000697973 0.000707658 0.000720572 0.000737844 0.00076109 0.000792709 0.000836432 0.000898409 0.000989531
          0.00113101 0.00136997 0.00183185 0.00297687 0.00797623 0.119437
        </DataArray>
        <DataArray type="Float32" Name="precipitateVolumeFraction_p" NumberOfComponents="1" format="ascii">
          0.000669891 0.000669987 0.00067012 0.000670304 0.000670558 0.00067091 0.000671394 0.000672057 0.000672964 0.000674198 0.000675872 0.000678133
          0.000681175 0.000685253 0.000690704 0.000697973 0.000707658 0.000720572 0.000737844 0.00076109 0.000792709 0.000836432 0.000898409 0.000989531
          0.00113101 0.00136997 0.00183185 0.00297687 0.00797623 0.119437
        </DataArray>
        <DataArray type="Float32" Name="K" NumberOfComponents="1" format="ascii">
          9.82896e-11 9.82893e-11 9.8289e-11 9.82885e-11 9.82879e-11 9.8287e-11 9.82858e-11 9.82841e-11 9.82818e-11 9.82787e-11 9.82744e-11 9.82687e-11
          9.8261e-11 9.82506e-11 9.82368e-11 9.82184e-11 9.81939e-11 9.81612e-11 9.81174e-11 9.80586e-11 9.79786e-11 9.78681e-11 9.77117e-11 9.7482e-11
          9.67878e-11 9.61912e-11 9.50464e-11 9.22567e-11 8.11404e-11 4.70204e-13
        </DataArray>
        <DataArray type="Float32" Name="X^w_H2O" NumberOfComponents="1" format="ascii">
          0.999853 0.999853 0.999853 0.999853 0.999853 0.999853 0.999853 0.999853 0.999853 0.999853 0.999853 0.999853
          0.999853 0.999853 0.999853 0.999853 0.999853 0.999853 0.999853 0.999853 0.999853 0.999853 0.999853 0.999853
          0.999853 0.999852 0.99985 0.999846 0.999839 0.99984
        </DataArray>
        <DataArray type="Float32" Name="X^w_Air" NumberOfComponents="1" format="ascii">
          0 0 0 0 0 0 0 0 0 0 0 0
          0 0 0 0 0 0 0 0 0 0 0 0
          0 0 0 0 0 0
        </DataArray>
        <DataArray type="Float32" Name="X^w_AuComplex" NumberOfComponents="1" format="ascii">
          1.41859e-16 1.41929e-16 1.41896e-16 1.41928e-16 1.41903e-16 1.41892e-16 1.41889e-16 1.41887e-16 1.41894e-16 1.41903e-16 1.41887e-16 1.41871e-16
          1.41891e-16 1.41883e-16 1.4188e-16 1.41874e-16 1.41864e-16 1.41866e-16 1.41862e-16 1.4184e-16 1.41827e-16 1.41812e-16 1.54591e-16 2.9388e-14
          6.89062e-11 1.07466e-10 1.84514e-10 3.64029e-10 1.83601e-15 1.78511e-15
        </DataArray>
        <DataArray type="Float32" Name="X^w_nanoAu" NumberOfComponents="1" format="ascii">
          3.41017e-19 3.41204e-19 3.41121e-19 3.41204e-19 3.41141e-19 3.41116e-19 3.41111e-19 3.41107e-19 3.41128e-19 3.4115e-19 3.41112e-19 3.41075e-19
          3.41126e-19 3.4111e-19 3.41105e-19 3.41094e-19 3.41075e-19 3.41085e-19 3.4108e-19 3.4104e-19 3.41401e-19 3.97275e-19 8.58315e-18 1.20297e-15
          1.65908e-13 2.1081e-13 2.80841e-13 3.96022e-13 1.29717e-18 1.2525e-18
        </DataArray>
        <DataArray type="Float32" Name="X^w_cyanide" NumberOfComponents="1" format="ascii">
          5.07409e-06 5.07406e-06 5.07403e-06 5.074e-06 5.07397e-06 5.07393e-06 5.0739e-06 5.07387e-06 5.07384e-06 5.0738e-06 5.07376e-06 5.07372e-06
          5.07368e-06 5.07363e-06 5.07357e-06 5.07349e-06 5.0734e-06 5.07328e-06 5.07313e-06 5.07292e-06 5.07264e-06 5.07224e-06 5.07164e-06 5.07074e-06
          5.06977e-06 6.43959e-06 8.57497e-06 1.22384e-05 1.94531e-05 1.92049e-05
        </DataArray>
        <DataArray type="Float32" Name="X^w_citrate" NumberOfComponents="1" format="ascii">
          0.000141796 0.000141796 0.000141796 0.000141796 0.000141796 0.000141796 0.000141796 0.000141796 0.000141796 0.000141796 0.000141796 0.000141796
          0.000141796 0.000141795 0.000141795 0.000141795 0.000141794 0.000141794 0.000141793 0.000141791 0.000141789 0.000141787 0.000141783 0.000141776
          0.000141766 0.000141748 0.000141714 0.000141634 0.000141375 0.000139571
        </DataArray>
        <DataArray type="Float32" Name="X^w_substrate" NumberOfComponents="1" format="ascii">
          8.97175e-12 1.21857e-11 1.65503e-11 2.24776e-11 3.05274e-11 4.14608e-11 5.63135e-11 7.64952e-11 1.03929e-10 1.41239e-10 1.92021e-10 2.61212e-10
          3.5562e-10 4.84686e-10 6.61592e-10 9.0491e-10 1.24111e-09 1.70848e-09 2.36337e-09 3.29074e-09 4.62227e-09 6.56972e-09 9.48956e-09 1.40185e-08
          2.1386e-08 3.42302e-08 5.91292e-08 1.16634e-07 3.00912e-07 1.57301e-06
        </DataArray>
        <DataArray type="Float32" Name="m^w_H2O" NumberOfComponents="1" format="ascii">
          55492.6 55492.6 55492.5 55492.5 55492.5 55492.5 55492.5 55492.5 55492.5 55492.5 55492.5 55492.5
          55492.5 55492.4 55492.4 55492.4 55492.4 55492.4 55492.4 55492.4 55492.4 55492.4 55492.4 55492.4
          55492.3 55492.3 55492.1 55491.9 55491.5 55491.6
        </DataArray>
        <DataArray type="Float32" Name="m^w_Air" NumberOfComponents="1" format="ascii">
          0 0 0 0 0 0 0 0 0 0 0 0
          0 0 0 0 0 0 0 0 0 0 0 0
          0 0 0 0 0 0
        </DataArray>
        <DataArray type="Float32" Name="m^w_AuComplex" NumberOfComponents="1" format="ascii">
          7.20103e-13 7.20457e-13 7.20291e-13 7.2045e-13 7.20323e-13 7.20269e-13 7.20255e-13 7.20243e-13 7.2028e-13 7.20323e-13 7.20241e-13 7.2016e-13
          7.20261e-13 7.20221e-13 7.20206e-13 7.20175e-13 7.20128e-13 7.20136e-13 7.20113e-13 7.20005e-13 7.19938e-13 7.19862e-13 7.84727e-13 1.49178e-10
          3.49779e-07 5.45513e-07 9.36624e-07 1.84787e-06 9.31988e-12 9.0615e-12
        </DataArray>
        <DataArray type="Float32" Name="m^w_nanoAu" NumberOfComponents="1" format="ascii">
          1.73106e-15 1.73201e-15 1.73159e-15 1.73201e-15 1.73169e-15 1.73156e-15 1.73154e-15 1.73152e-15 1.73162e-15 1.73174e-15 1.73154e-15 1.73136e-15
          1.73162e-15 1.73153e-15 1.73151e-15 1.73145e-15 1.73136e-15 1.7314e-15 1.73138e-15 1.73117e-15 1.73301e-15 2.01663e-15 4.35695e-14 6.10648e-12
          8.42175e-10 1.07011e-09 1.42559e-09 2.01027e-09 6.58462e-15 6.3579e-15
        </DataArray>
        <DataArray type="Float32" Name="m^w_cyanide" NumberOfComponents="1" format="ascii">
          0.194979 0.194978 0.194977 0.194975 0.194974 0.194973 0.194972 0.19497 0.194969 0.194968 0.194966 0.194965
          0.194963 0.194961 0.194958 0.194956 0.194952 0.194948 0.194942 0.194934 0.194923 0.194907 0.194884 0.194849
          0.194812 0.247449 0.329504 0.470276 0.747508 0.737971
        </DataArray>
        <DataArray type="Float32" Name="m^w_citrate" NumberOfComponents="1" format="ascii">
          0.749742 0.749742 0.749742 0.749742 0.749742 0.749741 0.749741 0.749741 0.749741 0.74974 0.74974 0.749739
          0.749738 0.749737 0.749736 0.749734 0.749731 0.749728 0.749723 0.749715 0.749705 0.749691 0.749669 0.749635
          0.749579 0.749488 0.749307 0.748883 0.747511 0.737972
        </DataArray>
        <DataArray type="Float32" Name="m^w_substrate" NumberOfComponents="1" format="ascii">
          4.97916e-08 6.76284e-08 9.18511e-08 1.24746e-07 1.69421e-07 2.301e-07 3.12529e-07 4.24534e-07 5.76784e-07 7.83849e-07 1.06568e-06 1.44968e-06
          1.97362e-06 2.68991e-06 3.6717e-06 5.02208e-06 6.88793e-06 9.48171e-06 1.31163e-05 1.82629e-05 2.56527e-05 3.64606e-05 5.26652e-05 7.77999e-05
          0.000118688 0.000189971 0.000328155 0.000647295 0.00167 0.00872988
        </DataArray>
        <DataArray type="Float32" Name="process rank" NumberOfComponents="1" format="ascii">
          0 0 0 0 0 0 0 0 0 0 0 0
          0 0 0 0 0 0 0 0 0 0 0 0
          0 0 0 0 0 0
        </DataArray>
      </CellData>
      <Points>
        <DataArray type="Float32" Name="Coordinates" NumberOfComponents="3" format="ascii">
          0 0 0 0.5 0 0 0 0.0333333 0 0.5 0.0333333 0
          0 0.0666667 0 0.5 0.0666667 0 0 0.1 0 0.5 0.1 0
          0 0.133333 0 0.5 0.133333 0 0 0.166667 0 0.5 0.166667 0
          0 0.2 0 0.5 0.2 0 0 0.233333 0 0.5 0.233333 0
          0 0.266667 0 0.5 0.266667 0 0 0.3 0 0.5 0.3 0
          0 0.333333 0 0.5 0.333333 0 0 0.366667 0 0.5 0.366667 0
          0 0.4 0 0.5 0.4 0 0 0.433333 0 0.5 0.433333 0
          0 0.466667 0 0.5 0.466667 0 0 0.5 0 0.5 0.5 0
          0 0.533333 0 0.5 0.533333 0 0 0.566667 0 0.5 0.566667 0
          0 0.6 0 0.5 0.6 0 0 0.633333 0 0.5 0.633333 0
          0 0.666667 0 0.5 0.666667 0 0 0.7 0 0.5 0.7 0
          0 0.733333 0 0.5 0.733333 0 0 0.766667 0 0.5 0.766667 0
          0 0.8 0 0.5 0.8 0 0 0.833333 0 0.5 0.833333 0
          0 0.866667 0 0.5 0.866667 0 0 0.9 0 0.5 0.9 0
          0 0.933333 0 0.5 0.933333 0 0 0.966667 0 0.5 0.966667 0
          0 1 0 0.5 1 0
        </DataArray>
      </Points>
      <Cells>
        <DataArray type="Int32" Name="connectivity" NumberOfComponents="1" format="ascii">
          0 1 3 2 2 3 5 4 4 5 7 6
          6 7 9 8 8 9 11 10 10 11 13 12
          12 13 15 14 14 15 17 16 16 17 19 18
          18 19 21 20 20 21 23 22 22 23 25 24
          24 25 27 26 26 27 29 28 28 29 31 30
          30 31 33 32 32 33 35 34 34 35 37 36
          36 37 39 38 38 39 41 40 40 41 43 42
          42 43 45 44 44 45 47 46 46 47 49 48
          48 49 51 50 50 51 53 52 52 53 55 54
          54 55 57 56 56 57 59 58 58 59 61 60
        </DataArray>
        <DataArray type="Int32" Name="offsets" NumberOfComponents="1" format="ascii">
          4 8 12 16 20 24 28 32 36 40 44 48
          52 56 60 64 68 72 76 80 84 88 92 96
          100 104 108 112 116 120
        </DataArray>
        <DataArray type="UInt8" Name="types" NumberOfComponents="1" format="ascii">
          9 9 9 9 9 9 9 9 9 9 9 9
          9 9 9 9 9 9 9 9 9 9 9 9
          9 9 9 9 9 9
        </DataArray>
      </Cells>
    </Piece>
  </UnstructuredGrid>
</VTKFile>
