<?xml version="1.0"?>
<VTKFile type="UnstructuredGrid" version="0.1" byte_order="LittleEndian">
  <UnstructuredGrid>
    <Piece NumberOfCells="30" NumberOfPoints="62">
      <CellData Scalars="Sg">
        <DataArray type="Float32" Name="Sg" NumberOfComponents="1" format="ascii">
          0 0 0 0 0 0 0 0 0 0 0 0
          0 0 0 0 0 0 0 0 0 0 0 0
          0 0 0 0 0 0
        </DataArray>
        <DataArray type="Float32" Name="Sl" NumberOfComponents="1" format="ascii">
          1 1 1 1 1 1 1 1 1 1 1 1
          1 1 1 1 1 1 1 1 1 1 1 1
          1 1 1 1 1 1
        </DataArray>
        <DataArray type="Float32" Name="pg" NumberOfComponents="1" format="ascii">
          24687.8 24360.9 24034 23707 23380.1 23053.1 22726.2 22399.3 22072.3 21745.4 21418.4 21091.5
          20764.6 20437.6 20110.7 19783.7 19456.8 19129.8 18802.9 18476 18149 17822.1 17495.1 17168.2
          16841.3 16514.3 16187.4 15860.4 15533.5 15209.6
        </DataArray>
        <DataArray type="Float32" Name="pl" NumberOfComponents="1" format="ascii">
          110628 110301 109974 109647 109320 108993 108666 108339 108012 107685 107358 107031
          106704 106377 106050 105723 105396 105070 104743 104416 104089 103762 103435 103108
          102781 102454 102127 101800 101473 101149
        </DataArray>
        <DataArray type="Float32" Name="pc" NumberOfComponents="1" format="ascii">
          -85939.7 -85939.7 -85939.7 -85939.7 -85939.7 -85939.7 -85939.7 -85939.7 -85939.7 -85939.7 -85939.7 -85939.7
          -85939.7 -85939.7 -85939.7 -85939.7 -85939.7 -85939.7 -85939.7 -85939.7 -85939.7 -85939.7 -85939.7 -85939.7
          -85939.7 -85939.7 -85939.7 -85939.7 -85939.7 -85939.7
        </DataArray>
        <DataArray type="Float32" Name="rhoL" NumberOfComponents="1" format="ascii">
          999.855 999.855 999.855 999.855 999.855 999.854 999.854 999.854 999.854 999.854 999.854 999.854
          999.853 999.853 999.853 999.853 999.853 999.853 999.852 999.852 999.852 999.852 999.852 999.852
          999.852 999.851 999.851 999.851 999.851 999.851
        </DataArray>
        <DataArray type="Float32" Name="rhoG" NumberOfComponents="1" format="ascii">
          0.30585 0.3018 0.29775 0.293699 0.289649 0.285598 0.281548 0.277498 0.273447 0.269397 0.265347 0.261296
          0.257246 0.253195 0.249145 0.245095 0.241044 0.236994 0.232944 0.228893 0.224843 0.220793 0.216742 0.212692
          0.208641 0.204591 0.200541 0.19649 0.19244 0.188428
        </DataArray>
        <DataArray type="Float32" Name="mobL" NumberOfComponents="1" format="ascii">
          722.171 722.17 722.17 722.17 722.17 722.17 722.169 722.169 722.169 722.169 722.169 722.169
          722.168 722.168 722.168 722.168 722.168 722.167 722.167 722.167 722.167 722.167 722.166 722.166
          722.166 722.166 722.166 722.166 722.165 722.165
        </DataArray>
        <DataArray type="Float32" Name="mobG" NumberOfComponents="1" format="ascii">
          0 0 0 0 0 0 0 0 0 0 0 0
          0 0 0 0 0 0 0 0 0 0 0 0
          0 0 0 0 0 0
        </DataArray>
        <DataArray type="Float32" Name="porosity" NumberOfComponents="1" format="ascii">
          0.298874 0.298874 0.298874 0.298874 0.298873 0.298873 0.298872 0.298871 0.298869 0.298867 0.298864 0.29886
          0.298855 0.298848 0.298838 0.298826 0.298809 0.298786 0.298756 0.298716 0.29866 0.298583 0.298473 0.298309
          0.29778 0.297334 0.296437 0.294046 0.28206 0.0448044
        </DataArray>
        <DataArray type="Float32" Name="temperature" NumberOfComponents="1" format="ascii">
          281.15 281.15 281.15 281.15 281.15 281.15 281.15 281.15 281.15 281.15 281.15 281.15
          281.15 281.15 281.15 281.15 281.15 281.15 281.15 281.15 281.15 281.15 281.15 281.15
          281.15 281.15 281.15 281.15 281.15 281.15
        </DataArray>
        <DataArray type="Float32" Name="phase presence" NumberOfComponents="1" format="ascii">
          1 1 1 1 1 1 1 1 1 1 1 1
          1 1 1 1 1 1 1 1 1 1 1 1
          1 1 1 1 1 1
        </DataArray>
        <DataArray type="Float32" Name="precipitateVolumeFraction_au" NumberOfComponents="1" format="ascii">
          5.52684e-10 5.52789e-10 5.52736e-10 5.52799e-10 5.52754e-10 5.52733e-10 5.5273e-10 5.52728e-10 5.52753e-10 5.52785e-10 5.52742e-10 5.52698e-10
          5.52771e-10 5.52755e-10 5.52757e-10 5.5275e-10 5.52734e-10 5.52763e-10 5.52777e-10 5.52739e-10 5.52745e-10 5.52737e-10 5.53064e-10 1.30528e-09
          0.000269941 0.000269925 0.0002699 0.000269851 5.52278e-10 5.51672e-10
        </DataArray>
        <DataArray type="Float32" Name="precipitateVolumeFraction_nanoAu" NumberOfComponents="1" format="ascii">
          1.23652e-13 1.23675e-13 1.23663e-13 1.23677e-13 1.23667e-13 1.23663e-13 1.23662e-13 1.23661e-13 1.23666e-13 1.23673e-13 1.23663e-13 1.23653e-13
          1.23669e-13 1.23664e-13 1.23664e-13 1.23661e-13 1.23655e-13 1.23659e-13 1.23658e-13 1.23645e-13 1.2364e-13 1.23636e-13 1.34954e-13 2.5807e-11
          6.03639e-08 7.66848e-08 1.02145e-07 1.45562e-07 4.74181e-13 4.67243e-13
        </DataArray>
        <DataArray type="Float32" Name="precipitateVolumeFraction_d" NumberOfComponents="1" format="ascii">
          0.000562785 0.000562869 0.000562985 0.000563146 0.000563369 0.000563675 0.000564095 0.000564672 0.000565458 0.000566528 0.000567978 0.000569936
          0.000572569 0.0005761 0.000580823 0.000587126 0.000595535 0.000606767 0.000621827 0.000642161 0.000669937 0.000708563 0.000763732 0.000845699
          0.000974894 0.00119819 0.00164667 0.00284208 0.00897012 0.127598
        </DataArray>
        <DataArray type="Float32" Name="precipitateVolumeFraction_p" NumberOfComponents="1" format="ascii">
          0.000562785 0.000562869 0.000562985 0.000563146 0.000563369 0.000563675 0.000564095 0.000564672 0.000565458 0.000566528 0.000567978 0.000569936
          0.000572569 0.0005761 0.000580823 0.000587126 0.000595535 0.000606767 0.000621827 0.000642161 0.000669937 0.000708563 0.000763732 0.000845699
          0.000974894 0.00119819 0.00164667 0.00284208 0.00897012 0.127598
        </DataArray>
        <DataArray type="Float32" Name="K" NumberOfComponents="1" format="ascii">
          9.85614e-11 9.85612e-11 9.85609e-11 9.85605e-11 9.85599e-11 9.85592e-11 9.85581e-11 9.85566e-11 9.85546e-11 9.85519e-11 9.85482e-11 9.85433e-11
          9.85366e-11 9.85276e-11 9.85156e-11 9.84996e-11 9.84782e-11 9.84497e-11 9.84115e-11 9.83599e-11 9.82895e-11 9.81916e-11 9.80519e-11 9.78447e-11
          9.71793e-11 9.66198e-11 9.5504e-11 9.25816e-11 7.90095e-11 1.789e-13
        </DataArray>
        <DataArray type="Float32" Name="X^w_H2O" NumberOfComponents="1" format="ascii">
          0.999853 0.999853 0.999853 0.999853 0.999853 0.999853 0.999853 0.999853 0.999853 0.999853 0.999853 0.999853
          0.999853 0.999853 0.999853 0.999853 0.999853 0.999853 0.999853 0.999853 0.999853 0.999853 0.999853 0.999853
          0.999853 0.999852 0.99985 0.999846 0.999839 0.99984
        </DataArray>
        <DataArray type="Float32" Name="X^w_Air" NumberOfComponents="1" format="ascii">
          0 0 0 0 0 0 0 0 0 0 0 0
          0 0 0 0 0 0 0 0 0 0 0 0
          0 0 0 0 0 0
        </DataArray>
        <DataArray type="Float32" Name="X^w_AuComplex" NumberOfComponents="1" format="ascii">
          1.41097e-16 1.41124e-16 1.4111e-16 1.41126e-16 1.41115e-16 1.41109e-16 1.41108e-16 1.41107e-16 1.41113e-16 1.41121e-16 1.41109e-16 1.41097e-16
          1.41115e-16 1.41109e-16 1.41107e-16 1.41102e-16 1.41094e-16 1.41095e-16 1.41091e-16 1.41071e-16 1.41058e-16 1.41044e-16 1.53864e-16 2.9424e-14
          6.88379e-11 1.07373e-10 1.84401e-10 3.63986e-10 1.83547e-15 1.787e-15
        </DataArray>
        <DataArray type="Float32" Name="X^w_nanoAu" NumberOfComponents="1" format="ascii">
          3.39085e-19 3.39148e-19 3.39116e-19 3.39155e-19 3.39126e-19 3.39114e-19 3.39111e-19 3.3911e-19 3.39124e-19 3.39143e-19 3.39115e-19 3.39087e-19
          3.39129e-19 3.39117e-19 3.39114e-19 3.39104e-19 3.39088e-19 3.39096e-19 3.39092e-19 3.39054e-19 3.39415e-19 3.95168e-19 8.5679e-18 1.20172e-15
          1.65806e-13 2.10702e-13 2.80753e-13 3.96051e-13 1.29676e-18 1.25386e-18
        </DataArray>
        <DataArray type="Float32" Name="X^w_cyanide" NumberOfComponents="1" format="ascii">
          5.07104e-06 5.07104e-06 5.07104e-06 5.07104e-06 5.07104e-06 5.07104e-06 5.07104e-06 5.07103e-06 5.07103e-06 5.07102e-06 5.071e-06 5.07098e-06
          5.07096e-06 5.07092e-06 5.07088e-06 5.07082e-06 5.07073e-06 5.07062e-06 5.07047e-06 5.07027e-06 5.06999e-06 5.06959e-06 5.06902e-06 5.06817e-06
          5.06735e-06 6.43694e-06 8.5725e-06 1.22378e-05 1.94619e-05 1.92245e-05
        </DataArray>
        <DataArray type="Float32" Name="X^w_citrate" NumberOfComponents="1" format="ascii">
          0.000141796 0.000141796 0.000141796 0.000141796 0.000141796 0.000141796 0.000141796 0.000141796 0.000141796 0.000141796 0.000141796 0.000141795
          0.000141795 0.000141795 0.000141795 0.000141794 0.000141793 0.000141793 0.000141792 0.00014179 0.000141788 0.000141785 0.000141781 0.000141775
          0.000141765 0.00014175 0.000141721 0.000141655 0.000141439 0.000139713
        </DataArray>
        <DataArray type="Float32" Name="X^w_substrate" NumberOfComponents="1" format="ascii">
          2.61002e-11 3.39889e-11 4.42599e-11 5.76329e-11 7.50456e-11 9.77204e-11 1.27252e-10 1.65724e-10 2.15861e-10 2.81233e-10 3.66535e-10 4.77955e-10
          6.23694e-10 8.1468e-10 1.0656e-09 1.39636e-09 1.83432e-09 2.41767e-09 3.20072e-09 4.26269e-09 5.72264e-09 7.76653e-09 1.06991e-08 1.50516e-08
          2.18291e-08 3.3155e-08 5.42887e-08 1.01826e-07 2.55627e-07 1.47245e-06
        </DataArray>
        <DataArray type="Float32" Name="m^w_H2O" NumberOfComponents="1" format="ascii">
          55492.6 55492.6 55492.5 55492.5 55492.5 55492.5 55492.5 55492.5 55492.5 55492.5 55492.5 55492.5
          55492.5 55492.4 55492.4 55492.4 55492.4 55492.4 55492.4 55492.4 55492.4 55492.4 55492.4 55492.4
          55492.3 55492.3 55492.1 55491.9 55491.5 55491.6
        </DataArray>
        <DataArray type="Float32" Name="m^w_Air" NumberOfComponents="1" format="ascii">
          0 0 0 0 0 0 0 0 0 0 0 0
          0 0 0 0 0 0 0 0 0 0 0 0
          0 0 0 0 0 0
        </DataArray>
        <DataArray type="Float32" Name="m^w_AuComplex" NumberOfComponents="1" format="ascii">
          7.16233e-13 7.16369e-13 7.163e-13 7.16382e-13 7.16322e-13 7.16295e-13 7.1629e-13 7.16286e-13 7.16316e-13 7.16355e-13 7.16296e-13 7.16234e-13
          7.16322e-13 7.16292e-13 7.16282e-13 7.16257e-13 7.16214e-13 7.16224e-13 7.16202e-13 7.16099e-13 7.16035e-13 7.15964e-13 7.81038e-13 1.49361e-10
          3.49432e-07 5.4504e-07 9.36047e-07 1.84765e-06 9.31716e-12 9.0711e-12
        </DataArray>
        <DataArray type="Float32" Name="m^w_nanoAu" NumberOfComponents="1" format="ascii">
          1.72125e-15 1.72158e-15 1.72141e-15 1.72161e-15 1.72147e-15 1.7214e-15 1.72139e-15 1.72138e-15 1.72145e-15 1.72155e-15 1.72141e-15 1.72127e-15
          1.72148e-15 1.72141e-15 1.7214e-15 1.72135e-15 1.72127e-15 1.72131e-15 1.72129e-15 1.72109e-15 1.72293e-15 2.00594e-15 4.34921e-14 6.10011e-12
          8.41656e-10 1.06956e-09 1.42515e-09 2.01042e-09 6.58254e-15 6.3648e-15
        </DataArray>
        <DataArray type="Float32" Name="m^w_cyanide" NumberOfComponents="1" format="ascii">
          0.194862 0.194862 0.194862 0.194862 0.194862 0.194862 0.194862 0.194861 0.194861 0.194861 0.19486 0.194859
          0.194858 0.194857 0.194855 0.194853 0.19485 0.194845 0.194839 0.194832 0.194821 0.194805 0.194784 0.194751
          0.194719 0.247348 0.329409 0.470253 0.747848 0.738725
        </DataArray>
        <DataArray type="Float32" Name="m^w_citrate" NumberOfComponents="1" format="ascii">
          0.749742 0.749742 0.749742 0.749742 0.749741 0.749741 0.749741 0.74974 0.74974 0.749739 0.749738 0.749738
          0.749736 0.749735 0.749733 0.74973 0.749727 0.749722 0.749716 0.749708 0.749697 0.749682 0.74966 0.749627
          0.749576 0.749496 0.749343 0.748994 0.74785 0.738726
        </DataArray>
        <DataArray type="Float32" Name="m^w_substrate" NumberOfComponents="1" format="ascii">
          1.44851e-07 1.88632e-07 2.45634e-07 3.19852e-07 4.16489e-07 5.4233e-07 7.06225e-07 9.19736e-07 1.19799e-06 1.56079e-06 2.0342e-06 2.65256e-06
          3.46138e-06 4.52132e-06 5.91385e-06 7.74951e-06 1.01801e-05 1.34176e-05 1.77634e-05 2.36571e-05 3.17595e-05 4.31027e-05 5.93778e-05 8.35334e-05
          0.000121147 0.000184004 0.000301291 0.000565112 0.00141868 0.00817179
        </DataArray>
        <DataArray type="Float32" Name="process rank" NumberOfComponents="1" format="ascii">
          0 0 0 0 0 0 0 0 0 0 0 0
          0 0 0 0 0 0 0 0 0 0 0 0
          0 0 0 0 0 0
        </DataArray>
      </CellData>
      <Points>
        <DataArray type="Float32" Name="Coordinates" NumberOfComponents="3" format="ascii">
          0 0 0 0.5 0 0 0 0.0333333 0 0.5 0.0333333 0
          0 0.0666667 0 0.5 0.0666667 0 0 0.1 0 0.5 0.1 0
          0 0.133333 0 0.5 0.133333 0 0 0.166667 0 0.5 0.166667 0
          0 0.2 0 0.5 0.2 0 0 0.233333 0 0.5 0.233333 0
          0 0.266667 0 0.5 0.266667 0 0 0.3 0 0.5 0.3 0
          0 0.333333 0 0.5 0.333333 0 0 0.366667 0 0.5 0.366667 0
          0 0.4 0 0.5 0.4 0 0 0.433333 0 0.5 0.433333 0
          0 0.466667 0 0.5 0.466667 0 0 0.5 0 0.5 0.5 0
          0 0.533333 0 0.5 0.533333 0 0 0.566667 0 0.5 0.566667 0
          0 0.6 0 0.5 0.6 0 0 0.633333 0 0.5 0.633333 0
          0 0.666667 0 0.5 0.666667 0 0 0.7 0 0.5 0.7 0
          0 0.733333 0 0.5 0.733333 0 0 0.766667 0 0.5 0.766667 0
          0 0.8 0 0.5 0.8 0 0 0.833333 0 0.5 0.833333 0
          0 0.866667 0 0.5 0.866667 0 0 0.9 0 0.5 0.9 0
          0 0.933333 0 0.5 0.933333 0 0 0.966667 0 0.5 0.966667 0
          0 1 0 0.5 1 0
        </DataArray>
      </Points>
      <Cells>
        <DataArray type="Int32" Name="connectivity" NumberOfComponents="1" format="ascii">
          0 1 3 2 2 3 5 4 4 5 7 6
          6 7 9 8 8 9 11 10 10 11 13 12
          12 13 15 14 14 15 17 16 16 17 19 18
          18 19 21 20 20 21 23 22 22 23 25 24
          24 25 27 26 26 27 29 28 28 29 31 30
          30 31 33 32 32 33 35 34 34 35 37 36
          36 37 39 38 38 39 41 40 40 41 43 42
          42 43 45 44 44 45 47 46 46 47 49 48
          48 49 51 50 50 51 53 52 52 53 55 54
          54 55 57 56 56 57 59 58 58 59 61 60
        </DataArray>
        <DataArray type="Int32" Name="offsets" NumberOfComponents="1" format="ascii">
          4 8 12 16 20 24 28 32 36 40 44 48
          52 56 60 64 68 72 76 80 84 88 92 96
          100 104 108 112 116 120
        </DataArray>
        <DataArray type="UInt8" Name="types" NumberOfComponents="1" format="ascii">
          9 9 9 9 9 9 9 9 9 9 9 9
          9 9 9 9 9 9 9 9 9 9 9 9
          9 9 9 9 9 9
        </DataArray>
      </Cells>
    </Piece>
  </UnstructuredGrid>
</VTKFile>
