<?xml version="1.0"?>
<VTKFile type="UnstructuredGrid" version="0.1" byte_order="LittleEndian">
  <UnstructuredGrid>
    <Piece NumberOfCells="30" NumberOfPoints="62">
      <CellData Scalars="Sg">
        <DataArray type="Float32" Name="Sg" NumberOfComponents="1" format="ascii">
          0 0 0 0 0 0 0 0 0 0 0 0
          0 0 0 0 0 0 0 0 0 0 0 0
          0 0 0 0 0 0
        </DataArray>
        <DataArray type="Float32" Name="Sl" NumberOfComponents="1" format="ascii">
          1 1 1 1 1 1 1 1 1 1 1 1
          1 1 1 1 1 1 1 1 1 1 1 1
          1 1 1 1 1 1
        </DataArray>
        <DataArray type="Float32" Name="pg" NumberOfComponents="1" format="ascii">
          24687.8 24360.9 24034 23707 23380.1 23053.1 22726.2 22399.3 22072.3 21745.4 21418.4 21091.5
          20764.6 20437.6 20110.7 19783.7 19456.8 19129.8 18802.9 18476 18149 17822.1 17495.1 17168.2
          16841.3 16514.3 16187.4 15860.4 15533.5 15208.6
        </DataArray>
        <DataArray type="Float32" Name="pl" NumberOfComponents="1" format="ascii">
          110628 110301 109974 109647 109320 108993 108666 108339 108012 107685 107358 107031
          106704 106377 106050 105723 105396 105070 104743 104416 104089 103762 103435 103108
          102781 102454 102127 101800 101473 101148
        </DataArray>
        <DataArray type="Float32" Name="pc" NumberOfComponents="1" format="ascii">
          -85939.7 -85939.7 -85939.7 -85939.7 -85939.7 -85939.7 -85939.7 -85939.7 -85939.7 -85939.7 -85939.7 -85939.7
          -85939.7 -85939.7 -85939.7 -85939.7 -85939.7 -85939.7 -85939.7 -85939.7 -85939.7 -85939.7 -85939.7 -85939.7
          -85939.7 -85939.7 -85939.7 -85939.7 -85939.7 -85939.7
        </DataArray>
        <DataArray type="Float32" Name="rhoL" NumberOfComponents="1" format="ascii">
          999.855 999.855 999.855 999.855 999.855 999.854 999.854 999.854 999.854 999.854 999.854 999.854
          999.853 999.853 999.853 999.853 999.853 999.853 999.852 999.852 999.852 999.852 999.852 999.852
          999.852 999.851 999.851 999.851 999.851 999.851
        </DataArray>
        <DataArray type="Float32" Name="rhoG" NumberOfComponents="1" format="ascii">
          0.30585 0.3018 0.29775 0.293699 0.289649 0.285598 0.281548 0.277498 0.273447 0.269397 0.265347 0.261296
          0.257246 0.253195 0.249145 0.245095 0.241044 0.236994 0.232944 0.228893 0.224843 0.220793 0.216742 0.212692
          0.208641 0.204591 0.200541 0.19649 0.19244 0.188414
        </DataArray>
        <DataArray type="Float32" Name="mobL" NumberOfComponents="1" format="ascii">
          722.171 722.17 722.17 722.17 722.17 722.17 722.169 722.169 722.169 722.169 722.169 722.169
          722.168 722.168 722.168 722.168 722.168 722.167 722.167 722.167 722.167 722.167 722.166 722.166
          722.166 722.166 722.166 722.166 722.165 722.165
        </DataArray>
        <DataArray type="Float32" Name="mobG" NumberOfComponents="1" format="ascii">
          0 0 0 0 0 0 0 0 0 0 0 0
          0 0 0 0 0 0 0 0 0 0 0 0
          0 0 0 0 0 0
        </DataArray>
        <DataArray type="Float32" Name="porosity" NumberOfComponents="1" format="ascii">
          0.298709 0.298708 0.298708 0.298708 0.298707 0.298707 0.298706 0.298704 0.298703 0.2987 0.298697 0.298693
          0.298687 0.298679 0.298668 0.298654 0.298635 0.29861 0.298577 0.298532 0.29847 0.298385 0.298264 0.298086
          0.297538 0.297066 0.296146 0.293823 0.283523 0.0513729
        </DataArray>
        <DataArray type="Float32" Name="temperature" NumberOfComponents="1" format="ascii">
          281.15 281.15 281.15 281.15 281.15 281.15 281.15 281.15 281.15 281.15 281.15 281.15
          281.15 281.15 281.15 281.15 281.15 281.15 281.15 281.15 281.15 281.15 281.15 281.15
          281.15 281.15 281.15 281.15 281.15 281.15
        </DataArray>
        <DataArray type="Float32" Name="phase presence" NumberOfComponents="1" format="ascii">
          1 1 1 1 1 1 1 1 1 1 1 1
          1 1 1 1 1 1 1 1 1 1 1 1
          1 1 1 1 1 1
        </DataArray>
        <DataArray type="Float32" Name="precipitateVolumeFraction_au" NumberOfComponents="1" format="ascii">
          5.52684e-10 5.52789e-10 5.52736e-10 5.52799e-10 5.52753e-10 5.52733e-10 5.5273e-10 5.52728e-10 5.52753e-10 5.52785e-10 5.52742e-10 5.52698e-10
          5.52771e-10 5.52755e-10 5.52757e-10 5.5275e-10 5.52734e-10 5.52763e-10 5.52777e-10 5.52738e-10 5.52745e-10 5.52737e-10 5.52918e-10 9.7452e-10
          0.00026994 0.000269924 0.000269899 0.000269853 5.52278e-10 5.5168e-10
        </DataArray>
        <DataArray type="Float32" Name="precipitateVolumeFraction_nanoAu" NumberOfComponents="1" format="ascii">
          1.23711e-13 1.23736e-13 1.23723e-13 1.23737e-13 1.23726e-13 1.23721e-13 1.2372e-13 1.23719e-13 1.23724e-13 1.23731e-13 1.2372e-13 1.2371e-13
          1.23725e-13 1.23721e-13 1.2372e-13 1.23717e-13 1.23711e-13 1.23715e-13 1.23715e-13 1.23701e-13 1.23696e-13 1.23693e-13 1.34966e-13 2.57561e-11
          6.03806e-08 7.67031e-08 1.02162e-07 1.45566e-07 4.74061e-13 4.67018e-13
        </DataArray>
        <DataArray type="Float32" Name="precipitateVolumeFraction_d" NumberOfComponents="1" format="ascii">
          0.000645669 0.000645762 0.000645891 0.000646069 0.000646316 0.000646656 0.000647125 0.000647767 0.000648645 0.00064984 0.000651461 0.000653651
          0.000656597 0.000660548 0.000665829 0.000672874 0.000682265 0.000694792 0.000711557 0.000734138 0.000764886 0.000807463 0.000867925 0.000957046
          0.00109592 0.00133179 0.001792 0.00295353 0.00823844 0.124314
        </DataArray>
        <DataArray type="Float32" Name="precipitateVolumeFraction_p" NumberOfComponents="1" format="ascii">
          0.000645669 0.000645762 0.000645891 0.000646069 0.000646316 0.000646656 0.000647125 0.000647767 0.000648645 0.00064984 0.000651461 0.000653651
          0.000656597 0.000660548 0.000665829 0.000672874 0.000682265 0.000694792 0.000711557 0.000734138 0.000764886 0.000807463 0.000867925 0.000957046
          0.00109592 0.00133179 0.001792 0.00295353 0.00823844 0.124314
        </DataArray>
        <DataArray type="Float32" Name="K" NumberOfComponents="1" format="ascii">
          9.8351e-11 9.83508e-11 9.83504e-11 9.835e-11 9.83494e-11 9.83485e-11 9.83473e-11 9.83457e-11 9.83435e-11 9.83404e-11 9.83363e-11 9.83308e-11
          9.83233e-11 9.83133e-11 9.82999e-11 9.8282e-11 9.82582e-11 9.82265e-11 9.8184e-11 9.81268e-11 9.8049e-11 9.79413e-11 9.77886e-11 9.75638e-11
          9.68757e-11 9.62863e-11 9.51447e-11 9.23129e-11 8.05737e-11 2.73429e-13
        </DataArray>
        <DataArray type="Float32" Name="X^w_H2O" NumberOfComponents="1" format="ascii">
          0.999853 0.999853 0.999853 0.999853 0.999853 0.999853 0.999853 0.999853 0.999853 0.999853 0.999853 0.999853
          0.999853 0.999853 0.999853 0.999853 0.999853 0.999853 0.999853 0.999853 0.999853 0.999853 0.999853 0.999853
          0.999853 0.999852 0.99985 0.999846 0.999839 0.99984
        </DataArray>
        <DataArray type="Float32" Name="X^w_Air" NumberOfComponents="1" format="ascii">
          0 0 0 0 0 0 0 0 0 0 0 0
          0 0 0 0 0 0 0 0 0 0 0 0
          0 0 0 0 0 0
        </DataArray>
        <DataArray type="Float32" Name="X^w_AuComplex" NumberOfComponents="1" format="ascii">
          1.41187e-16 1.41215e-16 1.412e-16 1.41216e-16 1.41203e-16 1.41197e-16 1.41195e-16 1.41194e-16 1.41199e-16 1.41207e-16 1.41194e-16 1.41182e-16
          1.41199e-16 1.41193e-16 1.41191e-16 1.41186e-16 1.41178e-16 1.4118e-16 1.41176e-16 1.41157e-16 1.41145e-16 1.41131e-16 1.53902e-16 2.93706e-14
          6.88689e-11 1.07415e-10 1.84452e-10 3.63996e-10 1.83456e-15 1.7855e-15
        </DataArray>
        <DataArray type="Float32" Name="X^w_nanoAu" NumberOfComponents="1" format="ascii">
          3.39247e-19 3.39314e-19 3.39279e-19 3.39318e-19 3.39288e-19 3.39274e-19 3.3927e-19 3.39268e-19 3.39282e-19 3.393e-19 3.39272e-19 3.39243e-19
          3.39285e-19 3.39272e-19 3.39269e-19 3.39259e-19 3.39243e-19 3.39253e-19 3.39249e-19 3.39212e-19 3.39575e-19 3.95376e-19 8.57307e-18 1.20218e-15
          1.65853e-13 2.10753e-13 2.80793e-13 3.96029e-13 1.29609e-18 1.25276e-18
        </DataArray>
        <DataArray type="Float32" Name="X^w_cyanide" NumberOfComponents="1" format="ascii">
          5.07224e-06 5.07223e-06 5.07222e-06 5.07221e-06 5.07219e-06 5.07218e-06 5.07217e-06 5.07215e-06 5.07214e-06 5.07212e-06 5.0721e-06 5.07207e-06
          5.07204e-06 5.07201e-06 5.07196e-06 5.0719e-06 5.07183e-06 5.07173e-06 5.07159e-06 5.0714e-06 5.07113e-06 5.07075e-06 5.07019e-06 5.06934e-06
          5.06845e-06 6.43817e-06 8.57363e-06 1.22379e-05 1.94569e-05 1.92169e-05
        </DataArray>
        <DataArray type="Float32" Name="X^w_citrate" NumberOfComponents="1" format="ascii">
          0.000141796 0.000141796 0.000141796 0.000141796 0.000141796 0.000141796 0.000141796 0.000141796 0.000141796 0.000141796 0.000141796 0.000141796
          0.000141796 0.000141795 0.000141795 0.000141795 0.000141794 0.000141794 0.000141793 0.000141791 0.000141789 0.000141787 0.000141783 0.000141777
          0.000141767 0.00014175 0.000141719 0.000141644 0.000141402 0.000139658
        </DataArray>
        <DataArray type="Float32" Name="X^w_substrate" NumberOfComponents="1" format="ascii">
          1.0907e-11 1.46816e-11 1.97617e-11 2.65987e-11 3.58007e-11 4.8187e-11 6.4862e-11 8.73164e-11 1.17564e-10 1.58333e-10 2.13322e-10 2.87569e-10
          3.8796e-10 5.23963e-10 7.08685e-10 9.60442e-10 1.30512e-09 1.77987e-09 2.43897e-09 3.3636e-09 4.67875e-09 6.58406e-09 9.4135e-09 1.37603e-08
          2.07645e-08 3.28638e-08 5.61284e-08 1.09577e-07 2.81476e-07 1.51133e-06
        </DataArray>
        <DataArray type="Float32" Name="m^w_H2O" NumberOfComponents="1" format="ascii">
          55492.6 55492.6 55492.5 55492.5 55492.5 55492.5 55492.5 55492.5 55492.5 55492.5 55492.5 55492.5
          55492.5 55492.4 55492.4 55492.4 55492.4 55492.4 55492.4 55492.4 55492.4 55492.4 55492.4 55492.4
          55492.3 55492.3 55492.1 55491.9 55491.5 55491.6
        </DataArray>
        <DataArray type="Float32" Name="m^w_Air" NumberOfComponents="1" format="ascii">
          0 0 0 0 0 0 0 0 0 0 0 0
          0 0 0 0 0 0 0 0 0 0 0 0
          0 0 0 0 0 0
        </DataArray>
        <DataArray type="Float32" Name="m^w_AuComplex" NumberOfComponents="1" format="ascii">
          7.16692e-13 7.16831e-13 7.16756e-13 7.16837e-13 7.16772e-13 7.16741e-13 7.16732e-13 7.16725e-13 7.16753e-13 7.16789e-13 7.16727e-13 7.16664e-13
          7.1675e-13 7.16719e-13 7.16709e-13 7.16684e-13 7.16643e-13 7.16654e-13 7.16635e-13 7.16535e-13 7.16474e-13 7.16406e-13 7.81229e-13 1.4909e-10
          3.49589e-07 5.45257e-07 9.36307e-07 1.8477e-06 9.3125e-12 9.06345e-12
        </DataArray>
        <DataArray type="Float32" Name="m^w_nanoAu" NumberOfComponents="1" format="ascii">
          1.72208e-15 1.72242e-15 1.72224e-15 1.72244e-15 1.72229e-15 1.72221e-15 1.7222e-15 1.72218e-15 1.72225e-15 1.72235e-15 1.7222e-15 1.72205e-15
          1.72227e-15 1.7222e-15 1.72219e-15 1.72214e-15 1.72206e-15 1.7221e-15 1.72208e-15 1.7219e-15 1.72374e-15 2.00699e-15 4.35183e-14 6.10245e-12
          8.41897e-10 1.06982e-09 1.42535e-09 2.01031e-09 6.57914e-15 6.35923e-15
        </DataArray>
        <DataArray type="Float32" Name="m^w_cyanide" NumberOfComponents="1" format="ascii">
          0.194908 0.194908 0.194907 0.194907 0.194906 0.194906 0.194905 0.194904 0.194904 0.194903 0.194902 0.194901
          0.1949 0.194899 0.194897 0.194895 0.194892 0.194888 0.194882 0.194875 0.194865 0.19485 0.194829 0.194796
          0.194762 0.247395 0.329452 0.470256 0.747654 0.738433
        </DataArray>
        <DataArray type="Float32" Name="m^w_citrate" NumberOfComponents="1" format="ascii">
          0.749742 0.749742 0.749742 0.749742 0.749742 0.749741 0.749741 0.749741 0.749741 0.74974 0.74974 0.749739
          0.749738 0.749737 0.749735 0.749733 0.749731 0.749727 0.749722 0.749715 0.749705 0.749691 0.749669 0.749636
          0.749584 0.749498 0.74933 0.748936 0.747657 0.738434
        </DataArray>
        <DataArray type="Float32" Name="m^w_substrate" NumberOfComponents="1" format="ascii">
          6.05316e-08 8.14802e-08 1.09674e-07 1.47618e-07 1.98687e-07 2.67429e-07 3.59972e-07 4.8459e-07 6.52461e-07 8.78718e-07 1.1839e-06 1.59595e-06
          2.1531e-06 2.90789e-06 3.93307e-06 5.33026e-06 7.24318e-06 9.87795e-06 1.35358e-05 1.86673e-05 2.59661e-05 3.65402e-05 5.22431e-05 7.63669e-05
          0.000115239 0.000182387 0.000311501 0.000608129 0.00156214 0.00838759
        </DataArray>
        <DataArray type="Float32" Name="process rank" NumberOfComponents="1" format="ascii">
          0 0 0 0 0 0 0 0 0 0 0 0
          0 0 0 0 0 0 0 0 0 0 0 0
          0 0 0 0 0 0
        </DataArray>
      </CellData>
      <Points>
        <DataArray type="Float32" Name="Coordinates" NumberOfComponents="3" format="ascii">
          0 0 0 0.5 0 0 0 0.0333333 0 0.5 0.0333333 0
          0 0.0666667 0 0.5 0.0666667 0 0 0.1 0 0.5 0.1 0
          0 0.133333 0 0.5 0.133333 0 0 0.166667 0 0.5 0.166667 0
          0 0.2 0 0.5 0.2 0 0 0.233333 0 0.5 0.233333 0
          0 0.266667 0 0.5 0.266667 0 0 0.3 0 0.5 0.3 0
          0 0.333333 0 0.5 0.333333 0 0 0.366667 0 0.5 0.366667 0
          0 0.4 0 0.5 0.4 0 0 0.433333 0 0.5 0.433333 0
          0 0.466667 0 0.5 0.466667 0 0 0.5 0 0.5 0.5 0
          0 0.533333 0 0.5 0.533333 0 0 0.566667 0 0.5 0.566667 0
          0 0.6 0 0.5 0.6 0 0 0.633333 0 0.5 0.633333 0
          0 0.666667 0 0.5 0.666667 0 0 0.7 0 0.5 0.7 0
          0 0.733333 0 0.5 0.733333 0 0 0.766667 0 0.5 0.766667 0
          0 0.8 0 0.5 0.8 0 0 0.833333 0 0.5 0.833333 0
          0 0.866667 0 0.5 0.866667 0 0 0.9 0 0.5 0.9 0
          0 0.933333 0 0.5 0.933333 0 0 0.966667 0 0.5 0.966667 0
          0 1 0 0.5 1 0
        </DataArray>
      </Points>
      <Cells>
        <DataArray type="Int32" Name="connectivity" NumberOfComponents="1" format="ascii">
          0 1 3 2 2 3 5 4 4 5 7 6
          6 7 9 8 8 9 11 10 10 11 13 12
          12 13 15 14 14 15 17 16 16 17 19 18
          18 19 21 20 20 21 23 22 22 23 25 24
          24 25 27 26 26 27 29 28 28 29 31 30
          30 31 33 32 32 33 35 34 34 35 37 36
          36 37 39 38 38 39 41 40 40 41 43 42
          42 43 45 44 44 45 47 46 46 47 49 48
          48 49 51 50 50 51 53 52 52 53 55 54
          54 55 57 56 56 57 59 58 58 59 61 60
        </DataArray>
        <DataArray type="Int32" Name="offsets" NumberOfComponents="1" format="ascii">
          4 8 12 16 20 24 28 32 36 40 44 48
          52 56 60 64 68 72 76 80 84 88 92 96
          100 104 108 112 116 120
        </DataArray>
        <DataArray type="UInt8" Name="types" NumberOfComponents="1" format="ascii">
          9 9 9 9 9 9 9 9 9 9 9 9
          9 9 9 9 9 9 9 9 9 9 9 9
          9 9 9 9 9 9
        </DataArray>
      </Cells>
    </Piece>
  </UnstructuredGrid>
</VTKFile>
