<?xml version="1.0"?>
<VTKFile type="UnstructuredGrid" version="0.1" byte_order="LittleEndian">
  <UnstructuredGrid>
    <Piece NumberOfCells="30" NumberOfPoints="62">
      <CellData Scalars="Sg">
        <DataArray type="Float32" Name="Sg" NumberOfComponents="1" format="ascii">
          0 0 0 0 0 0 0 0 0 0 0 0
          0 0 0 0 0 0 0 0 0 0 0 0
          0 0 0 0 0 0
        </DataArray>
        <DataArray type="Float32" Name="Sl" NumberOfComponents="1" format="ascii">
          1 1 1 1 1 1 1 1 1 1 1 1
          1 1 1 1 1 1 1 1 1 1 1 1
          1 1 1 1 1 1
        </DataArray>
        <DataArray type="Float32" Name="pg" NumberOfComponents="1" format="ascii">
          24687.8 24360.9 24034 23707 23380.1 23053.1 22726.2 22399.3 22072.3 21745.4 21418.4 21091.5
          20764.6 20437.6 20110.7 19783.7 19456.8 19129.9 18802.9 18476 18149 17822.1 17495.2 17168.2
          16841.3 16514.3 16187.4 15860.5 15533.5 15212.7
        </DataArray>
        <DataArray type="Float32" Name="pl" NumberOfComponents="1" format="ascii">
          110628 110301 109974 109647 109320 108993 108666 108339 108012 107685 107358 107031
          106704 106377 106050 105723 105396 105070 104743 104416 104089 103762 103435 103108
          102781 102454 102127 101800 101473 101152
        </DataArray>
        <DataArray type="Float32" Name="pc" NumberOfComponents="1" format="ascii">
          -85939.7 -85939.7 -85939.7 -85939.7 -85939.7 -85939.7 -85939.7 -85939.7 -85939.7 -85939.7 -85939.7 -85939.7
          -85939.7 -85939.7 -85939.7 -85939.7 -85939.7 -85939.7 -85939.7 -85939.7 -85939.7 -85939.7 -85939.7 -85939.7
          -85939.7 -85939.7 -85939.7 -85939.7 -85939.7 -85939.7
        </DataArray>
        <DataArray type="Float32" Name="rhoL" NumberOfComponents="1" format="ascii">
          999.855 999.855 999.855 999.855 999.855 999.854 999.854 999.854 999.854 999.854 999.854 999.854
          999.853 999.853 999.853 999.853 999.853 999.853 999.852 999.852 999.852 999.852 999.852 999.852
          999.852 999.851 999.851 999.851 999.851 999.851
        </DataArray>
        <DataArray type="Float32" Name="rhoG" NumberOfComponents="1" format="ascii">
          0.30585 0.3018 0.29775 0.293699 0.289649 0.285598 0.281548 0.277498 0.273447 0.269397 0.265347 0.261296
          0.257246 0.253195 0.249145 0.245095 0.241044 0.236994 0.232944 0.228893 0.224843 0.220793 0.216742 0.212692
          0.208641 0.204591 0.200541 0.19649 0.19244 0.188465
        </DataArray>
        <DataArray type="Float32" Name="mobL" NumberOfComponents="1" format="ascii">
          722.171 722.17 722.17 722.17 722.17 722.17 722.169 722.169 722.169 722.169 722.169 722.169
          722.168 722.168 722.168 722.168 722.168 722.167 722.167 722.167 722.167 722.167 722.166 722.166
          722.166 722.166 722.166 722.166 722.165 722.165
        </DataArray>
        <DataArray type="Float32" Name="mobG" NumberOfComponents="1" format="ascii">
          0 0 0 0 0 0 0 0 0 0 0 0
          0 0 0 0 0 0 0 0 0 0 0 0
          0 0 0 0 0 0
        </DataArray>
        <DataArray type="Float32" Name="porosity" NumberOfComponents="1" format="ascii">
          0.298211 0.29821 0.29821 0.298209 0.298209 0.298208 0.298206 0.298205 0.298202 0.298199 0.298194 0.298188
          0.29818 0.298169 0.298154 0.298135 0.298109 0.298075 0.29803 0.297969 0.297887 0.297774 0.297613 0.297377
          0.296743 0.29613 0.294956 0.292096 0.280417 0.0358404
        </DataArray>
        <DataArray type="Float32" Name="temperature" NumberOfComponents="1" format="ascii">
          281.15 281.15 281.15 281.15 281.15 281.15 281.15 281.15 281.15 281.15 281.15 281.15
          281.15 281.15 281.15 281.15 281.15 281.15 281.15 281.15 281.15 281.15 281.15 281.15
          281.15 281.15 281.15 281.15 281.15 281.15
        </DataArray>
        <DataArray type="Float32" Name="phase presence" NumberOfComponents="1" format="ascii">
          1 1 1 1 1 1 1 1 1 1 1 1
          1 1 1 1 1 1 1 1 1 1 1 1
          1 1 1 1 1 1
        </DataArray>
        <DataArray type="Float32" Name="precipitateVolumeFraction_au" NumberOfComponents="1" format="ascii">
          5.52335e-10 5.52723e-10 5.52726e-10 5.52722e-10 5.52732e-10 5.527e-10 5.52718e-10 5.52724e-10 5.52778e-10 5.52744e-10 5.52754e-10 5.52756e-10
          5.52689e-10 5.52718e-10 5.52707e-10 5.52735e-10 5.52769e-10 5.52657e-10 5.52711e-10 5.52765e-10 5.52698e-10 5.52721e-10 5.52849e-10 7.97591e-10
          0.00026994 0.000269924 0.000269899 0.000269854 5.52303e-10 5.51338e-10
        </DataArray>
        <DataArray type="Float32" Name="precipitateVolumeFraction_nanoAu" NumberOfComponents="1" format="ascii">
          1.37989e-13 1.43769e-13 1.43787e-13 1.43761e-13 1.43838e-13 1.43662e-13 1.43777e-13 1.43807e-13 1.43986e-13 1.43856e-13 1.43877e-13 1.43867e-13
          1.43745e-13 1.43792e-13 1.43778e-13 1.43806e-13 1.4383e-13 1.43733e-13 1.43771e-13 1.43795e-13 1.43747e-13 1.43763e-13 1.55737e-13 2.58695e-11
          6.0446e-08 7.67736e-08 1.02228e-07 1.45584e-07 4.93396e-13 4.84456e-13
        </DataArray>
        <DataArray type="Float32" Name="precipitateVolumeFraction_d" NumberOfComponents="1" format="ascii">
          0.000894723 0.000894855 0.00089504 0.000895295 0.000895648 0.000896134 0.000896801 0.000897714 0.000898957 0.000900643 0.00090292 0.000905982
          0.000910081 0.00091555 0.000922824 0.000932476 0.000945276 0.000962267 0.000984901 0.00101526 0.00105642 0.0011132 0.00119348 0.00131125
          0.00149353 0.00179997 0.00238713 0.00381684 0.00979153 0.13208
        </DataArray>
        <DataArray type="Float32" Name="precipitateVolumeFraction_p" NumberOfComponents="1" format="ascii">
          0.000894723 0.000894855 0.00089504 0.000895295 0.000895648 0.000896134 0.000896801 0.000897714 0.000898957 0.000900643 0.00090292 0.000905982
          0.000910081 0.00091555 0.000922824 0.000932476 0.000945276 0.000962267 0.000984901 0.00101526 0.00105642 0.0011132 0.00119348 0.00131125
          0.00149353 0.00179997 0.00238713 0.00381684 0.00979153 0.13208
        </DataArray>
        <DataArray type="Float32" Name="K" NumberOfComponents="1" format="ascii">
          9.77209e-11 9.77206e-11 9.77202e-11 9.77195e-11 9.77186e-11 9.77174e-11 9.77157e-11 9.77134e-11 9.77103e-11 9.7706e-11 9.77003e-11 9.76925e-11
          9.76822e-11 9.76684e-11 9.76501e-11 9.76257e-11 9.75935e-11 9.75506e-11 9.74936e-11 9.74172e-11 9.73137e-11 9.7171e-11 9.69695e-11 9.66746e-11
          9.58838e-11 9.51251e-11 9.3685e-11 9.02531e-11 7.72829e-11 8.98776e-14
        </DataArray>
        <DataArray type="Float32" Name="X^w_H2O" NumberOfComponents="1" format="ascii">
          0.999853 0.999853 0.999853 0.999853 0.999853 0.999853 0.999853 0.999853 0.999853 0.999853 0.999853 0.999853
          0.999853 0.999853 0.999853 0.999853 0.999853 0.999853 0.999853 0.999853 0.999853 0.999853 0.999853 0.999853
          0.999853 0.999852 0.99985 0.999846 0.999839 0.99984
        </DataArray>
        <DataArray type="Float32" Name="X^w_Air" NumberOfComponents="1" format="ascii">
          0 0 0 0 0 0 0 0 0 0 0 0
          0 0 0 0 0 0 0 0 0 0 0 0
          0 0 0 0 0 0
        </DataArray>
        <DataArray type="Float32" Name="X^w_AuComplex" NumberOfComponents="1" format="ascii">
          1.55097e-16 1.60678e-16 1.60693e-16 1.60666e-16 1.60738e-16 1.60565e-16 1.60674e-16 1.607e-16 1.60873e-16 1.60744e-16 1.60762e-16 1.6075e-16
          1.60627e-16 1.60671e-16 1.60654e-16 1.60678e-16 1.60698e-16 1.60595e-16 1.60627e-16 1.60645e-16 1.60585e-16 1.60587e-16 1.74043e-16 2.95071e-14
          6.89875e-11 1.07575e-10 1.84646e-10 3.64071e-10 1.90454e-15 1.84366e-15
        </DataArray>
        <DataArray type="Float32" Name="X^w_nanoAu" NumberOfComponents="1" format="ascii">
          6.01289e-19 6.26202e-19 6.26281e-19 6.26172e-19 6.26494e-19 6.25742e-19 6.26238e-19 6.26375e-19 6.27141e-19 6.26584e-19 6.26672e-19 6.26622e-19
          6.261e-19 6.263e-19 6.2624e-19 6.26361e-19 6.26457e-19 6.26036e-19 6.26196e-19 6.26332e-19 6.29828e-19 9.72971e-19 3.27152e-17 2.96471e-15
          2.63981e-13 3.35466e-13 4.46902e-13 6.26377e-13 2.14043e-18 2.04967e-18
        </DataArray>
        <DataArray type="Float32" Name="X^w_cyanide" NumberOfComponents="1" format="ascii">
          5.07833e-06 5.07825e-06 5.07818e-06 5.0781e-06 5.07803e-06 5.07796e-06 5.07788e-06 5.07781e-06 5.07773e-06 5.07766e-06 5.07758e-06 5.0775e-06
          5.07741e-06 5.07732e-06 5.07722e-06 5.07711e-06 5.07697e-06 5.07682e-06 5.07662e-06 5.07636e-06 5.07601e-06 5.07553e-06 5.07483e-06 5.07377e-06
          5.07255e-06 6.44255e-06 8.57768e-06 1.2239e-05 1.94427e-05 1.91603e-05
        </DataArray>
        <DataArray type="Float32" Name="X^w_citrate" NumberOfComponents="1" format="ascii">
          0.000141796 0.000141796 0.000141796 0.000141796 0.000141796 0.000141796 0.000141796 0.000141796 0.000141796 0.000141796 0.000141796 0.000141796
          0.000141796 0.000141795 0.000141795 0.000141795 0.000141794 0.000141794 0.000141793 0.000141791 0.000141789 0.000141786 0.000141781 0.000141774
          0.000141762 0.000141742 0.000141702 0.000141606 0.0001413 0.000139246
        </DataArray>
        <DataArray type="Float32" Name="X^w_substrate" NumberOfComponents="1" format="ascii">
          7.23091e-12 9.95132e-12 1.36948e-11 1.88461e-11 2.59352e-11 3.56922e-11 4.91236e-11 6.76181e-11 9.30945e-11 1.28209e-10 1.76646e-10 2.43532e-10
          3.36033e-10 4.64212e-10 6.42301e-10 8.90604e-10 1.23841e-09 1.72856e-09 2.42483e-09 3.42432e-09 4.879e-09 7.03531e-09 1.03113e-08 1.54586e-08
          2.39367e-08 3.88902e-08 6.81742e-08 1.36265e-07 3.53872e-07 1.80162e-06
        </DataArray>
        <DataArray type="Float32" Name="m^w_H2O" NumberOfComponents="1" format="ascii">
          55492.6 55492.5 55492.5 55492.5 55492.5 55492.5 55492.5 55492.5 55492.5 55492.5 55492.5 55492.5
          55492.5 55492.4 55492.4 55492.4 55492.4 55492.4 55492.4 55492.4 55492.4 55492.4 55492.4 55492.4
          55492.3 55492.3 55492.1 55491.9 55491.5 55491.6
        </DataArray>
        <DataArray type="Float32" Name="m^w_Air" NumberOfComponents="1" format="ascii">
          0 0 0 0 0 0 0 0 0 0 0 0
          0 0 0 0 0 0 0 0 0 0 0 0
          0 0 0 0 0 0
        </DataArray>
        <DataArray type="Float32" Name="m^w_AuComplex" NumberOfComponents="1" format="ascii">
          7.873e-13 8.15629e-13 8.15709e-13 8.15568e-13 8.15932e-13 8.15055e-13 8.15608e-13 8.15743e-13 8.16617e-13 8.15966e-13 8.16056e-13 8.15993e-13
          8.15372e-13 8.15592e-13 8.15505e-13 8.1563e-13 8.15732e-13 8.15207e-13 8.15371e-13 8.15459e-13 8.15158e-13 8.15168e-13 8.83471e-13 1.49783e-10
          3.50191e-07 5.46066e-07 9.37292e-07 1.84808e-06 9.66775e-12 9.35871e-12
        </DataArray>
        <DataArray type="Float32" Name="m^w_nanoAu" NumberOfComponents="1" format="ascii">
          3.05225e-15 3.17871e-15 3.17912e-15 3.17856e-15 3.18019e-15 3.17638e-15 3.1789e-15 3.17959e-15 3.18348e-15 3.18065e-15 3.1811e-15 3.18084e-15
          3.17819e-15 3.17921e-15 3.1789e-15 3.17952e-15 3.18e-15 3.17786e-15 3.17868e-15 3.17937e-15 3.19711e-15 4.93896e-15 1.66068e-13 1.50493e-11
          1.34001e-09 1.70288e-09 2.26854e-09 3.17959e-09 1.08652e-14 1.04045e-14
        </DataArray>
        <DataArray type="Float32" Name="m^w_cyanide" NumberOfComponents="1" format="ascii">
          0.195142 0.195139 0.195136 0.195133 0.19513 0.195127 0.195125 0.195122 0.195119 0.195116 0.195113 0.19511
          0.195106 0.195103 0.195099 0.195095 0.195089 0.195083 0.195076 0.195066 0.195052 0.195034 0.195007 0.194966
          0.194919 0.247563 0.329608 0.470298 0.747111 0.736256
        </DataArray>
        <DataArray type="Float32" Name="m^w_citrate" NumberOfComponents="1" format="ascii">
          0.749742 0.749742 0.749742 0.749742 0.749742 0.749742 0.749741 0.749741 0.749741 0.74974 0.74974 0.749739
          0.749738 0.749737 0.749736 0.749734 0.749731 0.749727 0.749722 0.749714 0.749703 0.749687 0.749662 0.749624
          0.74956 0.749453 0.749239 0.748736 0.747114 0.736258
        </DataArray>
        <DataArray type="Float32" Name="m^w_substrate" NumberOfComponents="1" format="ascii">
          4.01302e-08 5.5228e-08 7.60034e-08 1.04592e-07 1.43936e-07 1.98085e-07 2.72627e-07 3.75267e-07 5.16657e-07 7.11535e-07 9.8035e-07 1.35156e-06
          1.86492e-06 2.57629e-06 3.56465e-06 4.94268e-06 6.87292e-06 9.59314e-06 1.34573e-05 1.90043e-05 2.70775e-05 3.90446e-05 5.72256e-05 8.57922e-05
          0.000132844 0.000215833 0.000378353 0.000756245 0.00196392 0.00999862
        </DataArray>
        <DataArray type="Float32" Name="process rank" NumberOfComponents="1" format="ascii">
          0 0 0 0 0 0 0 0 0 0 0 0
          0 0 0 0 0 0 0 0 0 0 0 0
          0 0 0 0 0 0
        </DataArray>
      </CellData>
      <Points>
        <DataArray type="Float32" Name="Coordinates" NumberOfComponents="3" format="ascii">
          0 0 0 0.5 0 0 0 0.0333333 0 0.5 0.0333333 0
          0 0.0666667 0 0.5 0.0666667 0 0 0.1 0 0.5 0.1 0
          0 0.133333 0 0.5 0.133333 0 0 0.166667 0 0.5 0.166667 0
          0 0.2 0 0.5 0.2 0 0 0.233333 0 0.5 0.233333 0
          0 0.266667 0 0.5 0.266667 0 0 0.3 0 0.5 0.3 0
          0 0.333333 0 0.5 0.333333 0 0 0.366667 0 0.5 0.366667 0
          0 0.4 0 0.5 0.4 0 0 0.433333 0 0.5 0.433333 0
          0 0.466667 0 0.5 0.466667 0 0 0.5 0 0.5 0.5 0
          0 0.533333 0 0.5 0.533333 0 0 0.566667 0 0.5 0.566667 0
          0 0.6 0 0.5 0.6 0 0 0.633333 0 0.5 0.633333 0
          0 0.666667 0 0.5 0.666667 0 0 0.7 0 0.5 0.7 0
          0 0.733333 0 0.5 0.733333 0 0 0.766667 0 0.5 0.766667 0
          0 0.8 0 0.5 0.8 0 0 0.833333 0 0.5 0.833333 0
          0 0.866667 0 0.5 0.866667 0 0 0.9 0 0.5 0.9 0
          0 0.933333 0 0.5 0.933333 0 0 0.966667 0 0.5 0.966667 0
          0 1 0 0.5 1 0
        </DataArray>
      </Points>
      <Cells>
        <DataArray type="Int32" Name="connectivity" NumberOfComponents="1" format="ascii">
          0 1 3 2 2 3 5 4 4 5 7 6
          6 7 9 8 8 9 11 10 10 11 13 12
          12 13 15 14 14 15 17 16 16 17 19 18
          18 19 21 20 20 21 23 22 22 23 25 24
          24 25 27 26 26 27 29 28 28 29 31 30
          30 31 33 32 32 33 35 34 34 35 37 36
          36 37 39 38 38 39 41 40 40 41 43 42
          42 43 45 44 44 45 47 46 46 47 49 48
          48 49 51 50 50 51 53 52 52 53 55 54
          54 55 57 56 56 57 59 58 58 59 61 60
        </DataArray>
        <DataArray type="Int32" Name="offsets" NumberOfComponents="1" format="ascii">
          4 8 12 16 20 24 28 32 36 40 44 48
          52 56 60 64 68 72 76 80 84 88 92 96
          100 104 108 112 116 120
        </DataArray>
        <DataArray type="UInt8" Name="types" NumberOfComponents="1" format="ascii">
          9 9 9 9 9 9 9 9 9 9 9 9
          9 9 9 9 9 9 9 9 9 9 9 9
          9 9 9 9 9 9
        </DataArray>
      </Cells>
    </Piece>
  </UnstructuredGrid>
</VTKFile>
