<?xml version="1.0"?>
<VTKFile type="UnstructuredGrid" version="0.1" byte_order="LittleEndian">
  <UnstructuredGrid>
    <Piece NumberOfCells="30" NumberOfPoints="62">
      <CellData Scalars="Sg">
        <DataArray type="Float32" Name="Sg" NumberOfComponents="1" format="ascii">
          0 0 0 0 0 0 0 0 0 0 0 0
          0 0 0 0 0 0 0 0 0 0 0 0
          0 0 0 0 0 0
        </DataArray>
        <DataArray type="Float32" Name="Sl" NumberOfComponents="1" format="ascii">
          1 1 1 1 1 1 1 1 1 1 1 1
          1 1 1 1 1 1 1 1 1 1 1 1
          1 1 1 1 1 1
        </DataArray>
        <DataArray type="Float32" Name="pg" NumberOfComponents="1" format="ascii">
          24687.8 24360.9 24034 23707 23380.1 23053.1 22726.2 22399.3 22072.3 21745.4 21418.4 21091.5
          20764.6 20437.6 20110.7 19783.7 19456.8 19129.9 18802.9 18476 18149 17822.1 17495.1 17168.2
          16841.3 16514.3 16187.4 15860.5 15533.5 15807.2
        </DataArray>
        <DataArray type="Float32" Name="pl" NumberOfComponents="1" format="ascii">
          110628 110301 109974 109647 109320 108993 108666 108339 108012 107685 107358 107031
          106704 106377 106050 105723 105396 105070 104743 104416 104089 103762 103435 103108
          102781 102454 102127 101800 101473 101747
        </DataArray>
        <DataArray type="Float32" Name="pc" NumberOfComponents="1" format="ascii">
          -85939.7 -85939.7 -85939.7 -85939.7 -85939.7 -85939.7 -85939.7 -85939.7 -85939.7 -85939.7 -85939.7 -85939.7
          -85939.7 -85939.7 -85939.7 -85939.7 -85939.7 -85939.7 -85939.7 -85939.7 -85939.7 -85939.7 -85939.7 -85939.7
          -85939.7 -85939.7 -85939.7 -85939.7 -85939.7 -85939.7
        </DataArray>
        <DataArray type="Float32" Name="rhoL" NumberOfComponents="1" format="ascii">
          999.855 999.855 999.855 999.855 999.855 999.854 999.854 999.854 999.854 999.854 999.854 999.854
          999.853 999.853 999.853 999.853 999.853 999.853 999.852 999.852 999.852 999.852 999.852 999.852
          999.852 999.851 999.851 999.851 999.851 999.851
        </DataArray>
        <DataArray type="Float32" Name="rhoG" NumberOfComponents="1" format="ascii">
          0.30585 0.3018 0.29775 0.293699 0.289649 0.285598 0.281548 0.277498 0.273447 0.269397 0.265347 0.261296
          0.257246 0.253195 0.249145 0.245095 0.241044 0.236994 0.232944 0.228893 0.224843 0.220793 0.216742 0.212692
          0.208641 0.204591 0.200541 0.19649 0.19244 0.19583
        </DataArray>
        <DataArray type="Float32" Name="mobL" NumberOfComponents="1" format="ascii">
          722.171 722.17 722.17 722.17 722.17 722.17 722.169 722.169 722.169 722.169 722.169 722.169
          722.168 722.168 722.168 722.168 722.168 722.167 722.167 722.167 722.167 722.167 722.166 722.166
          722.166 722.166 722.166 722.166 722.165 722.165
        </DataArray>
        <DataArray type="Float32" Name="mobG" NumberOfComponents="1" format="ascii">
          0 0 0 0 0 0 0 0 0 0 0 0
          0 0 0 0 0 0 0 0 0 0 0 0
          0 0 0 0 0 0
        </DataArray>
        <DataArray type="Float32" Name="porosity" NumberOfComponents="1" format="ascii">
          0.29834 0.29834 0.298339 0.298339 0.298338 0.298337 0.298336 0.298334 0.298332 0.298329 0.298325 0.298319
          0.298311 0.298301 0.298287 0.298269 0.298245 0.298213 0.298171 0.298113 0.298036 0.297928 0.297775 0.297549
          0.296927 0.296328 0.295153 0.292175 0.278779 0.00791703
        </DataArray>
        <DataArray type="Float32" Name="temperature" NumberOfComponents="1" format="ascii">
          281.15 281.15 281.15 281.15 281.15 281.15 281.15 281.15 281.15 281.15 281.15 281.15
          281.15 281.15 281.15 281.15 281.15 281.15 281.15 281.15 281.15 281.15 281.15 281.15
          281.15 281.15 281.15 281.15 281.15 281.15
        </DataArray>
        <DataArray type="Float32" Name="phase presence" NumberOfComponents="1" format="ascii">
          1 1 1 1 1 1 1 1 1 1 1 1
          1 1 1 1 1 1 1 1 1 1 1 1
          1 1 1 1 1 1
        </DataArray>
        <DataArray type="Float32" Name="precipitateVolumeFraction_au" NumberOfComponents="1" format="ascii">
          5.52349e-10 5.52743e-10 5.52746e-10 5.52742e-10 5.52752e-10 5.5272e-10 5.52738e-10 5.52744e-10 5.52799e-10 5.52764e-10 5.52774e-10 5.52776e-10
          5.52709e-10 5.52738e-10 5.52727e-10 5.52755e-10 5.5279e-10 5.52677e-10 5.52731e-10 5.52785e-10 5.52718e-10 5.52741e-10 5.52951e-10 9.74603e-10
          0.00026994 0.000269924 0.000269899 0.000269853 5.52322e-10 5.51351e-10
        </DataArray>
        <DataArray type="Float32" Name="precipitateVolumeFraction_nanoAu" NumberOfComponents="1" format="ascii">
          1.23633e-13 1.23727e-13 1.23727e-13 1.23726e-13 1.23728e-13 1.2372e-13 1.23724e-13 1.23725e-13 1.23737e-13 1.23728e-13 1.2373e-13 1.2373e-13
          1.23714e-13 1.23719e-13 1.23716e-13 1.23721e-13 1.23726e-13 1.23699e-13 1.23707e-13 1.23715e-13 1.23693e-13 1.23705e-13 1.35627e-13 2.57891e-11
          6.03801e-08 7.6702e-08 1.02159e-07 1.45556e-07 4.74014e-13 4.66202e-13
        </DataArray>
        <DataArray type="Float32" Name="precipitateVolumeFraction_d" NumberOfComponents="1" format="ascii">
          0.000830017 0.000830141 0.000830313 0.000830552 0.000830882 0.000831336 0.00083196 0.000832813 0.000833975 0.000835551 0.00083768 0.000840543
          0.000844379 0.000849498 0.000856311 0.000865359 0.000877371 0.000893335 0.000914635 0.000943257 0.000982168 0.00103601 0.00111247 0.00122528
          0.00140137 0.00170122 0.00228826 0.00377766 0.0106106 0.146041
        </DataArray>
        <DataArray type="Float32" Name="precipitateVolumeFraction_p" NumberOfComponents="1" format="ascii">
          0.000830017 0.000830141 0.000830313 0.000830552 0.000830882 0.000831336 0.00083196 0.000832813 0.000833975 0.000835551 0.00083768 0.000840543
          0.000844379 0.000849498 0.000856311 0.000865359 0.000877371 0.000893335 0.000914635 0.000943257 0.000982168 0.00103601 0.00111247 0.00122528
          0.00140137 0.00170122 0.00228826 0.00377766 0.0106106 0.146041
        </DataArray>
        <DataArray type="Float32" Name="K" NumberOfComponents="1" format="ascii">
          9.78843e-11 9.7884e-11 9.78836e-11 9.7883e-11 9.78821e-11 9.7881e-11 9.78794e-11 9.78773e-11 9.78743e-11 9.78703e-11 9.7865e-11 9.78577e-11
          9.7848e-11 9.78351e-11 9.78179e-11 9.77951e-11 9.77647e-11 9.77245e-11 9.76707e-11 9.75986e-11 9.75005e-11 9.7365e-11 9.71728e-11 9.68898e-11
          9.6113e-11 9.5369e-11 9.39262e-11 9.03458e-11 7.55918e-11 9.15005e-16
        </DataArray>
        <DataArray type="Float32" Name="X^w_H2O" NumberOfComponents="1" format="ascii">
          0.999853 0.999853 0.999853 0.999853 0.999853 0.999853 0.999853 0.999853 0.999853 0.999853 0.999853 0.999853
          0.999853 0.999853 0.999853 0.999853 0.999853 0.999853 0.999853 0.999853 0.999853 0.999853 0.999853 0.999853
          0.999853 0.999852 0.99985 0.999846 0.999839 0.99984
        </DataArray>
        <DataArray type="Float32" Name="X^w_Air" NumberOfComponents="1" format="ascii">
          0 0 0 0 0 0 0 0 0 0 0 0
          0 0 0 0 0 0 0 0 0 0 0 0
          0 0 0 0 0 0
        </DataArray>
        <DataArray type="Float32" Name="X^w_AuComplex" NumberOfComponents="1" format="ascii">
          1.41103e-16 1.41208e-16 1.41209e-16 1.41207e-16 1.41209e-16 1.412e-16 1.41204e-16 1.41205e-16 1.41218e-16 1.41208e-16 1.4121e-16 1.41209e-16
          1.4119e-16 1.41196e-16 1.41191e-16 1.41195e-16 1.412e-16 1.41165e-16 1.41172e-16 1.41176e-16 1.41145e-16 1.41147e-16 1.54543e-16 2.94024e-14
          6.88685e-11 1.07413e-10 1.84443e-10 3.6395e-10 1.83406e-15 1.78041e-15
        </DataArray>
        <DataArray type="Float32" Name="X^w_nanoAu" NumberOfComponents="1" format="ascii">
          5.3847e-19 5.38873e-19 5.38874e-19 5.38868e-19 5.38876e-19 5.38843e-19 5.38859e-19 5.38864e-19 5.38915e-19 5.38878e-19 5.38886e-19 5.38883e-19
          5.38815e-19 5.38838e-19 5.38822e-19 5.38841e-19 5.38863e-19 5.38741e-19 5.38775e-19 5.3884e-19 5.42428e-19 8.84043e-19 3.25217e-17 2.95813e-15
          2.63699e-13 3.35168e-13 4.46644e-13 6.26392e-13 2.0575e-18 1.9759e-18
        </DataArray>
        <DataArray type="Float32" Name="X^w_cyanide" NumberOfComponents="1" format="ascii">
          5.07238e-06 5.07237e-06 5.07236e-06 5.07235e-06 5.07234e-06 5.07233e-06 5.07232e-06 5.0723e-06 5.07229e-06 5.07227e-06 5.07226e-06 5.07223e-06
          5.07221e-06 5.07217e-06 5.07213e-06 5.07207e-06 5.072e-06 5.07189e-06 5.07175e-06 5.07156e-06 5.07129e-06 5.07089e-06 5.07031e-06 5.06941e-06
          5.06846e-06 6.43812e-06 8.57343e-06 1.22371e-05 1.94534e-05 1.91938e-05
        </DataArray>
        <DataArray type="Float32" Name="X^w_citrate" NumberOfComponents="1" format="ascii">
          0.000141796 0.000141796 0.000141796 0.000141796 0.000141796 0.000141796 0.000141796 0.000141796 0.000141796 0.000141796 0.000141796 0.000141796
          0.000141796 0.000141795 0.000141795 0.000141795 0.000141794 0.000141793 0.000141793 0.000141791 0.000141789 0.000141786 0.000141782 0.000141776
          0.000141765 0.000141748 0.000141714 0.000141635 0.000141377 0.000139491
        </DataArray>
        <DataArray type="Float32" Name="X^w_substrate" NumberOfComponents="1" format="ascii">
          1.03589e-11 1.3999e-11 1.89174e-11 2.55631e-11 3.4543e-11 4.66782e-11 6.308e-11 8.52545e-11 1.15245e-10 1.55828e-10 2.10787e-10 2.85294e-10
          3.86446e-10 5.24041e-10 7.11692e-10 9.68492e-10 1.32152e-09 1.80973e-09 2.49023e-09 3.44857e-09 4.81674e-09 6.80581e-09 9.76921e-09 1.43352e-08
          2.17122e-08 3.44868e-08 5.91111e-08 1.15863e-07 2.99409e-07 1.62948e-06
        </DataArray>
        <DataArray type="Float32" Name="m^w_H2O" NumberOfComponents="1" format="ascii">
          55492.6 55492.6 55492.5 55492.5 55492.5 55492.5 55492.5 55492.5 55492.5 55492.5 55492.5 55492.5
          55492.5 55492.4 55492.4 55492.4 55492.4 55492.4 55492.4 55492.4 55492.4 55492.4 55492.4 55492.4
          55492.3 55492.3 55492.1 55491.9 55491.5 55491.6
        </DataArray>
        <DataArray type="Float32" Name="m^w_Air" NumberOfComponents="1" format="ascii">
          0 0 0 0 0 0 0 0 0 0 0 0
          0 0 0 0 0 0 0 0 0 0 0 0
          0 0 0 0 0 0
        </DataArray>
        <DataArray type="Float32" Name="m^w_AuComplex" NumberOfComponents="1" format="ascii">
          7.16263e-13 7.16799e-13 7.168e-13 7.1679e-13 7.168e-13 7.16754e-13 7.16775e-13 7.16779e-13 7.16846e-13 7.16796e-13 7.16804e-13 7.168e-13
          7.16705e-13 7.16733e-13 7.16708e-13 7.16728e-13 7.16752e-13 7.16578e-13 7.16613e-13 7.16631e-13 7.16473e-13 7.16485e-13 7.84488e-13 1.49251e-10
          3.49588e-07 5.45247e-07 9.36261e-07 1.84747e-06 9.30999e-12 9.03762e-12
        </DataArray>
        <DataArray type="Float32" Name="m^w_nanoAu" NumberOfComponents="1" format="ascii">
          2.73337e-15 2.73542e-15 2.73542e-15 2.73539e-15 2.73543e-15 2.73526e-15 2.73534e-15 2.73537e-15 2.73563e-15 2.73544e-15 2.73548e-15 2.73546e-15
          2.73512e-15 2.73523e-15 2.73515e-15 2.73525e-15 2.73536e-15 2.73474e-15 2.73491e-15 2.73524e-15 2.75345e-15 4.48755e-15 1.65085e-13 1.50159e-11
          1.33858e-09 1.70136e-09 2.26723e-09 3.17966e-09 1.04442e-14 1.003e-14
        </DataArray>
        <DataArray type="Float32" Name="m^w_cyanide" NumberOfComponents="1" format="ascii">
          0.194913 0.194913 0.194912 0.194912 0.194912 0.194911 0.194911 0.19491 0.19491 0.194909 0.194908 0.194907
          0.194906 0.194905 0.194903 0.194901 0.194898 0.194894 0.194889 0.194881 0.194871 0.194856 0.194833 0.194799
          0.194762 0.247393 0.329445 0.470226 0.747519 0.737547
        </DataArray>
        <DataArray type="Float32" Name="m^w_citrate" NumberOfComponents="1" format="ascii">
          0.749742 0.749742 0.749742 0.749742 0.749742 0.749741 0.749741 0.749741 0.749741 0.74974 0.74974 0.749739
          0.749738 0.749737 0.749735 0.749733 0.749731 0.749727 0.749722 0.749714 0.749704 0.749689 0.749667 0.749632
          0.749577 0.749486 0.749307 0.748889 0.747522 0.737549
        </DataArray>
        <DataArray type="Float32" Name="m^w_substrate" NumberOfComponents="1" format="ascii">
          5.74899e-08 7.7692e-08 1.04988e-07 1.4187e-07 1.91707e-07 2.59055e-07 3.50082e-07 4.73147e-07 6.39586e-07 8.64813e-07 1.16983e-06 1.58332e-06
          2.1447e-06 2.90833e-06 3.94976e-06 5.37494e-06 7.33416e-06 1.00437e-05 1.38203e-05 1.91389e-05 2.6732e-05 3.77709e-05 5.42171e-05 7.95576e-05
          0.000120498 0.000191395 0.000328055 0.000643015 0.00166166 0.00904326
        </DataArray>
        <DataArray type="Float32" Name="process rank" NumberOfComponents="1" format="ascii">
          0 0 0 0 0 0 0 0 0 0 0 0
          0 0 0 0 0 0 0 0 0 0 0 0
          0 0 0 0 0 0
        </DataArray>
      </CellData>
      <Points>
        <DataArray type="Float32" Name="Coordinates" NumberOfComponents="3" format="ascii">
          0 0 0 0.5 0 0 0 0.0333333 0 0.5 0.0333333 0
          0 0.0666667 0 0.5 0.0666667 0 0 0.1 0 0.5 0.1 0
          0 0.133333 0 0.5 0.133333 0 0 0.166667 0 0.5 0.166667 0
          0 0.2 0 0.5 0.2 0 0 0.233333 0 0.5 0.233333 0
          0 0.266667 0 0.5 0.266667 0 0 0.3 0 0.5 0.3 0
          0 0.333333 0 0.5 0.333333 0 0 0.366667 0 0.5 0.366667 0
          0 0.4 0 0.5 0.4 0 0 0.433333 0 0.5 0.433333 0
          0 0.466667 0 0.5 0.466667 0 0 0.5 0 0.5 0.5 0
          0 0.533333 0 0.5 0.533333 0 0 0.566667 0 0.5 0.566667 0
          0 0.6 0 0.5 0.6 0 0 0.633333 0 0.5 0.633333 0
          0 0.666667 0 0.5 0.666667 0 0 0.7 0 0.5 0.7 0
          0 0.733333 0 0.5 0.733333 0 0 0.766667 0 0.5 0.766667 0
          0 0.8 0 0.5 0.8 0 0 0.833333 0 0.5 0.833333 0
          0 0.866667 0 0.5 0.866667 0 0 0.9 0 0.5 0.9 0
          0 0.933333 0 0.5 0.933333 0 0 0.966667 0 0.5 0.966667 0
          0 1 0 0.5 1 0
        </DataArray>
      </Points>
      <Cells>
        <DataArray type="Int32" Name="connectivity" NumberOfComponents="1" format="ascii">
          0 1 3 2 2 3 5 4 4 5 7 6
          6 7 9 8 8 9 11 10 10 11 13 12
          12 13 15 14 14 15 17 16 16 17 19 18
          18 19 21 20 20 21 23 22 22 23 25 24
          24 25 27 26 26 27 29 28 28 29 31 30
          30 31 33 32 32 33 35 34 34 35 37 36
          36 37 39 38 38 39 41 40 40 41 43 42
          42 43 45 44 44 45 47 46 46 47 49 48
          48 49 51 50 50 51 53 52 52 53 55 54
          54 55 57 56 56 57 59 58 58 59 61 60
        </DataArray>
        <DataArray type="Int32" Name="offsets" NumberOfComponents="1" format="ascii">
          4 8 12 16 20 24 28 32 36 40 44 48
          52 56 60 64 68 72 76 80 84 88 92 96
          100 104 108 112 116 120
        </DataArray>
        <DataArray type="UInt8" Name="types" NumberOfComponents="1" format="ascii">
          9 9 9 9 9 9 9 9 9 9 9 9
          9 9 9 9 9 9 9 9 9 9 9 9
          9 9 9 9 9 9
        </DataArray>
      </Cells>
    </Piece>
  </UnstructuredGrid>
</VTKFile>
