<?xml version="1.0"?>
<VTKFile type="UnstructuredGrid" version="0.1" byte_order="LittleEndian">
  <UnstructuredGrid>
    <Piece NumberOfCells="30" NumberOfPoints="62">
      <CellData Scalars="Sg">
        <DataArray type="Float32" Name="Sg" NumberOfComponents="1" format="ascii">
          0.0969327 0.0969188 0.0969049 0.0968908 0.0968768 0.0968627 0.0968487 0.0968348 0.096821 0.0968074 0.0967942 0.0967814
          0.0967694 0.0967582 0.096748 0.0967383 0.0967254 0.0966905 0.0965485 0.0959342 0.0933297 0.0826995 0.0434084 0
          0 0 0 0 0 0
        </DataArray>
        <DataArray type="Float32" Name="Sl" NumberOfComponents="1" format="ascii">
          0.903067 0.903081 0.903095 0.903109 0.903123 0.903137 0.903151 0.903165 0.903179 0.903193 0.903206 0.903219
          0.903231 0.903242 0.903252 0.903262 0.903275 0.90331 0.903452 0.904066 0.90667 0.917301 0.956592 1
          1 1 1 1 1 1
        </DataArray>
        <DataArray type="Float32" Name="pg" NumberOfComponents="1" format="ascii">
          52455.7 52124.8 51793.9 51462.9 51132 50801 50470 50139.1 49808.2 49477.4 49146.6 48816
          48485.6 48155.5 47825.6 47495.9 47165.3 46828.3 46460.7 45957.8 44884.8 41512.6 29930.2 17168.2
          16841.3 16514.3 16187.4 15860.4 15533.5 15206.6
        </DataArray>
        <DataArray type="Float32" Name="pl" NumberOfComponents="1" format="ascii">
          110628 110301 109974 109647 109320 108993 108666 108339 108012 107685 107358 107031
          106704 106377 106050 105723 105396 105070 104743 104416 104089 103762 103435 103108
          102781 102454 102127 101800 101473 101146
        </DataArray>
        <DataArray type="Float32" Name="pc" NumberOfComponents="1" format="ascii">
          -58171.8 -58175.8 -58179.8 -58183.8 -58187.8 -58191.8 -58195.9 -58199.8 -58203.8 -58207.7 -58211.5 -58215.1
          -58218.6 -58221.8 -58224.7 -58227.5 -58231.2 -58241.2 -58281.9 -58457.8 -59203.9 -62249.1 -73504.7 -85939.7
          -85939.7 -85939.7 -85939.7 -85939.7 -85939.7 -85939.7
        </DataArray>
        <DataArray type="Float32" Name="rhoL" NumberOfComponents="1" format="ascii">
          999.855 999.855 999.855 999.855 999.855 999.854 999.854 999.854 999.854 999.854 999.854 999.854
          999.853 999.853 999.853 999.853 999.853 999.853 999.852 999.852 999.852 999.852 999.852 999.852
          999.852 999.851 999.851 999.851 999.851 999.851
        </DataArray>
        <DataArray type="Float32" Name="rhoG" NumberOfComponents="1" format="ascii">
          0.649858 0.645759 0.641659 0.637559 0.633458 0.629358 0.625258 0.621158 0.617059 0.61296 0.608863 0.604767
          0.600674 0.596584 0.592498 0.588413 0.584317 0.580142 0.575588 0.569358 0.556064 0.514288 0.370796 0.212692
          0.208641 0.204591 0.200541 0.19649 0.19244 0.18839
        </DataArray>
        <DataArray type="Float32" Name="mobL" NumberOfComponents="1" format="ascii">
          722.171 722.17 722.17 722.17 722.17 722.17 722.169 722.169 722.169 722.169 722.169 722.169
          722.168 722.168 722.168 722.168 722.168 722.167 722.167 722.167 722.167 722.167 722.166 722.166
          722.166 722.166 722.166 722.166 722.165 722.165
        </DataArray>
        <DataArray type="Float32" Name="mobG" NumberOfComponents="1" format="ascii">
          0 0 0 0 0 0 0 0 0 0 0 0
          0 0 0 0 0 0 0 0 0 0 0 0
          0 0 0 0 0 0
        </DataArray>
        <DataArray type="Float32" Name="porosity" NumberOfComponents="1" format="ascii">
          0.298033 0.298033 0.298033 0.298032 0.298031 0.29803 0.298029 0.298027 0.298024 0.298021 0.298016 0.298009
          0.298001 0.297989 0.297974 0.297953 0.297926 0.297891 0.297844 0.297781 0.297698 0.297583 0.297425 0.297198
          0.296589 0.29605 0.295112 0.293214 0.288365 0.262044
        </DataArray>
        <DataArray type="Float32" Name="temperature" NumberOfComponents="1" format="ascii">
          281.15 281.15 281.15 281.15 281.15 281.15 281.15 281.15 281.15 281.15 281.15 281.15
          281.15 281.15 281.15 281.15 281.15 281.15 281.15 281.15 281.15 281.15 281.15 281.15
          281.15 281.15 281.15 281.15 281.15 281.15
        </DataArray>
        <DataArray type="Float32" Name="phase presence" NumberOfComponents="1" format="ascii">
          3 3 3 3 3 3 3 3 3 3 3 3
          3 3 3 3 3 3 3 3 3 3 3 1
          1 1 1 1 1 1
        </DataArray>
        <DataArray type="Float32" Name="precipitateVolumeFraction_au" NumberOfComponents="1" format="ascii">
          4.43913e-10 4.43913e-10 4.43917e-10 4.43921e-10 4.43925e-10 4.43929e-10 4.43933e-10 4.43938e-10 4.43943e-10 4.43947e-10 4.43952e-10 4.43956e-10
          4.43961e-10 4.43965e-10 4.4397e-10 4.43974e-10 4.43978e-10 4.43983e-10 4.43986e-10 4.4399e-10 4.43994e-10 4.43996e-10 4.44005e-10 4.62444e-10
          0.000269934 0.000269923 0.000269908 0.000269889 4.43864e-10 4.43281e-10
        </DataArray>
        <DataArray type="Float32" Name="precipitateVolumeFraction_nanoAu" NumberOfComponents="1" format="ascii">
          1.08964e-10 1.0896e-10 1.08956e-10 1.08952e-10 1.08948e-10 1.08943e-10 1.08939e-10 1.08934e-10 1.08929e-10 1.08924e-10 1.08919e-10 1.08914e-10
          1.08909e-10 1.08904e-10 1.08899e-10 1.08894e-10 1.0889e-10 1.08885e-10 1.0888e-10 1.08876e-10 1.08871e-10 1.08865e-10 1.08871e-10 1.33457e-10
          6.69978e-08 7.79326e-08 9.2373e-08 1.11668e-07 1.08935e-10 1.0868e-10
        </DataArray>
        <DataArray type="Float32" Name="precipitateVolumeFraction_d" NumberOfComponents="1" format="ascii">
          0.00098338 0.000983521 0.000983717 0.000983989 0.000984366 0.000984884 0.000985596 0.000986569 0.000987895 0.000989692 0.000992117 0.000995373
          0.000999726 0.00100552 0.00101321 0.00102338 0.00103681 0.00105454 0.00107803 0.00110927 0.00115122 0.00120831 0.00128763 0.00140116
          0.00157066 0.00184008 0.00230916 0.00325823 0.00581773 0.018978
        </DataArray>
        <DataArray type="Float32" Name="precipitateVolumeFraction_p" NumberOfComponents="1" format="ascii">
          0.00098338 0.000983521 0.000983717 0.000983989 0.000984366 0.000984884 0.000985596 0.000986569 0.000987895 0.000989692 0.000992117 0.000995373
          0.000999726 0.00100552 0.00101321 0.00102338 0.00103681 0.00105454 0.00107803 0.00110927 0.00115122 0.00120831 0.00128763 0.00140116
          0.00157066 0.00184008 0.00230916 0.00325823 0.00581773 0.018978
        </DataArray>
        <DataArray type="Float32" Name="K" NumberOfComponents="1" format="ascii">
          9.74975e-11 9.74971e-11 9.74966e-11 9.74959e-11 9.7495e-11 9.74937e-11 9.74919e-11 9.74894e-11 9.74861e-11 9.74816e-11 9.74755e-11 9.74673e-11
          9.74563e-11 9.74417e-11 9.74224e-11 9.73968e-11 9.7363e-11 9.73184e-11 9.72593e-11 9.71808e-11 9.70755e-11 9.69324e-11 9.67337e-11 9.645e-11
          9.56924e-11 9.50261e-11 9.38752e-11 9.15815e-11 8.59296e-11 5.99644e-11
        </DataArray>
        <DataArray type="Float32" Name="X^w_H2O" NumberOfComponents="1" format="ascii">
          0.99983 0.99983 0.999831 0.999832 0.999832 0.999833 0.999833 0.999834 0.999834 0.999835 0.999835 0.999836
          0.999836 0.999836 0.999837 0.999837 0.999837 0.999838 0.999838 0.999838 0.999839 0.99984 0.999843 0.999852
          0.999853 0.999851 0.999849 0.999846 0.999841 0.999846
        </DataArray>
        <DataArray type="Float32" Name="X^w_Air" NumberOfComponents="1" format="ascii">
          1.59273e-05 1.58247e-05 1.57221e-05 1.56195e-05 1.55169e-05 1.54144e-05 1.53118e-05 1.52092e-05 1.51066e-05 1.50041e-05 1.49016e-05 1.47991e-05
          1.46967e-05 1.45943e-05 1.44921e-05 1.43899e-05 1.42874e-05 1.4183e-05 1.4069e-05 1.39131e-05 1.35805e-05 1.25352e-05 8.94499e-06 8.6149e-07
          1.01117e-08 1.14645e-10 1.2172e-12 1.1638e-14 8.96603e-17 2.92626e-19
        </DataArray>
        <DataArray type="Float32" Name="X^w_AuComplex" NumberOfComponents="1" format="ascii">
          2.63146e-13 2.50862e-13 2.40537e-13 2.27978e-13 2.16699e-13 2.07709e-13 1.97376e-13 1.89156e-13 1.79159e-13 1.7249e-13 1.65307e-13 1.58688e-13
          1.54443e-13 1.47044e-13 1.43449e-13 1.39135e-13 1.35864e-13 1.34743e-13 1.31959e-13 1.28901e-13 1.26063e-13 1.21604e-13 1.32141e-13 1.53689e-13
          8.5373e-11 1.24125e-10 1.89619e-10 3.06927e-10 3.87701e-13 3.52172e-13
        </DataArray>
        <DataArray type="Float32" Name="X^w_nanoAu" NumberOfComponents="1" format="ascii">
          -2.2755e-16 -3.73763e-16 1.43744e-15 -1.98104e-16 -5.53348e-16 1.65714e-16 -4.57472e-16 -1.81992e-16 -4.69251e-16 1.43916e-16 2.43718e-16 -3.07574e-16
          3.0237e-16 1.85604e-16 2.31755e-16 -4.41064e-16 -7.05414e-17 2.13902e-17 8.79128e-16 2.48071e-16 1.05171e-15 -9.79876e-16 1.31982e-14 3.73912e-15
          2.91357e-13 3.38322e-13 3.99551e-13 4.73013e-13 4.56224e-16 4.10235e-16
        </DataArray>
        <DataArray type="Float32" Name="X^w_cyanide" NumberOfComponents="1" format="ascii">
          1.27299e-05 1.21618e-05 1.15976e-05 1.10449e-05 1.05107e-05 1.00013e-05 9.5219e-06 9.07638e-06 8.6672e-06 8.29546e-06 7.96091e-06 7.66221e-06
          7.39712e-06 7.16278e-06 6.95598e-06 6.77344e-06 6.61194e-06 6.46851e-06 6.34047e-06 6.22537e-06 6.12098e-06 6.025e-06 5.93463e-06 5.84548e-06
          5.75178e-06 7.33725e-06 9.64664e-06 1.3165e-05 1.87591e-05 1.70815e-05
        </DataArray>
        <DataArray type="Float32" Name="X^w_citrate" NumberOfComponents="1" format="ascii">
          0.000141798 0.000141797 0.000141797 0.000141796 0.000141796 0.000141795 0.000141795 0.000141794 0.000141793 0.000141792 0.000141791 0.000141789
          0.000141787 0.000141784 0.000141779 0.000141774 0.000141766 0.000141756 0.000141742 0.000141721 0.000141692 0.000141649 0.000141586 0.000141489
          0.000141333 0.000141063 0.000140554 0.000139446 0.000136443 0.000124192
        </DataArray>
        <DataArray type="Float32" Name="X^w_substrate" NumberOfComponents="1" format="ascii">
          6.52637e-10 7.35228e-10 8.39795e-10 9.73195e-10 1.14459e-09 1.36625e-09 1.65455e-09 2.03156e-09 2.52697e-09 3.18097e-09 4.04813e-09 5.20304e-09
          6.74825e-09 8.82587e-09 1.16347e-08 1.54563e-08 2.06943e-08 2.79379e-08 3.80618e-08 5.23932e-08 7.29963e-08 1.03171e-07 1.48298e-07 2.1706e-07
          3.27491e-07 5.17996e-07 8.78206e-07 1.6598e-06 3.77844e-06 1.24173e-05
        </DataArray>
        <DataArray type="Float32" Name="m^w_H2O" NumberOfComponents="1" format="ascii">
          55491.2 55491.3 55491.3 55491.3 55491.4 55491.4 55491.4 55491.4 55491.4 55491.5 55491.5 55491.5
          55491.5 55491.5 55491.5 55491.5 55491.5 55491.5 55491.6 55491.6 55491.6 55491.6 55491.8 55492.3
          55492.3 55492.2 55492.1 55491.9 55491.6 55491.9
        </DataArray>
        <DataArray type="Float32" Name="m^w_Air" NumberOfComponents="1" format="ascii">
          0.549895 0.546354 0.542812 0.53927 0.535728 0.532186 0.528644 0.525103 0.521561 0.518021 0.514481 0.510943
          0.507408 0.503874 0.500344 0.496815 0.493277 0.489671 0.485737 0.480355 0.468871 0.432783 0.308828 0.0297432
          0.000349107 3.95816e-06 4.2024e-08 4.01805e-10 3.09554e-12 1.0103e-14
        </DataArray>
        <DataArray type="Float32" Name="m^w_AuComplex" NumberOfComponents="1" format="ascii">
          1.33577e-09 1.27342e-09 1.22101e-09 1.15726e-09 1.1e-09 1.05437e-09 1.00192e-09 9.60187e-10 9.09441e-10 8.75588e-10 8.39129e-10 8.05525e-10
          7.83978e-10 7.46419e-10 7.2817e-10 7.06272e-10 6.8967e-10 6.83976e-10 6.69847e-10 6.54321e-10 6.39918e-10 6.17284e-10 6.70771e-10 7.80153e-10
          4.33367e-07 6.30081e-07 9.62536e-07 1.55801e-06 1.96803e-09 1.78768e-09
        </DataArray>
        <DataArray type="Float32" Name="m^w_nanoAu" NumberOfComponents="1" format="ascii">
          -1.15509e-12 -1.89729e-12 7.29669e-12 -1.00561e-12 -2.80889e-12 8.41191e-13 -2.32221e-12 -9.23825e-13 -2.382e-12 7.30543e-13 1.23716e-12 -1.5613e-12
          1.53488e-12 9.42157e-13 1.17643e-12 -2.23892e-12 -3.5808e-13 1.0858e-13 4.4626e-12 1.25925e-12 5.33867e-12 -4.97401e-12 6.69961e-11 1.89804e-11
          1.47897e-09 1.71737e-09 2.02818e-09 2.40109e-09 2.31587e-12 2.08242e-12
        </DataArray>
        <DataArray type="Float32" Name="m^w_cyanide" NumberOfComponents="1" format="ascii">
          0.489164 0.467334 0.445655 0.424415 0.403888 0.384314 0.365892 0.348772 0.333049 0.318764 0.305909 0.294431
          0.284244 0.275239 0.267293 0.260278 0.254073 0.248561 0.243641 0.239218 0.235206 0.231518 0.228046 0.22462
          0.221019 0.281943 0.370684 0.50588 0.72084 0.656379
        </DataArray>
        <DataArray type="Float32" Name="m^w_citrate" NumberOfComponents="1" format="ascii">
          0.749752 0.749749 0.749747 0.749744 0.749741 0.749738 0.749735 0.749731 0.749726 0.74972 0.749713 0.749703
          0.749691 0.749675 0.749653 0.749623 0.749583 0.749528 0.749452 0.749344 0.749189 0.748963 0.748627 0.748117
          0.747289 0.745865 0.74317 0.737315 0.721435 0.656657
        </DataArray>
        <DataArray type="Float32" Name="m^w_substrate" NumberOfComponents="1" format="ascii">
          3.62202e-06 4.08038e-06 4.66071e-06 5.40105e-06 6.35229e-06 7.58241e-06 9.18244e-06 1.12748e-05 1.40242e-05 1.76538e-05 2.24664e-05 2.88759e-05
          3.74515e-05 4.89819e-05 6.45705e-05 8.57793e-05 0.00011485 0.00015505 0.000211235 0.000290772 0.000405115 0.000572577 0.000823026 0.00120464
          0.00181751 0.00287477 0.00487386 0.00921157 0.0209696 0.0689135
        </DataArray>
        <DataArray type="Float32" Name="process rank" NumberOfComponents="1" format="ascii">
          0 0 0 0 0 0 0 0 0 0 0 0
          0 0 0 0 0 0 0 0 0 0 0 0
          0 0 0 0 0 0
        </DataArray>
      </CellData>
      <Points>
        <DataArray type="Float32" Name="Coordinates" NumberOfComponents="3" format="ascii">
          0 0 0 0.5 0 0 0 0.0333333 0 0.5 0.0333333 0
          0 0.0666667 0 0.5 0.0666667 0 0 0.1 0 0.5 0.1 0
          0 0.133333 0 0.5 0.133333 0 0 0.166667 0 0.5 0.166667 0
          0 0.2 0 0.5 0.2 0 0 0.233333 0 0.5 0.233333 0
          0 0.266667 0 0.5 0.266667 0 0 0.3 0 0.5 0.3 0
          0 0.333333 0 0.5 0.333333 0 0 0.366667 0 0.5 0.366667 0
          0 0.4 0 0.5 0.4 0 0 0.433333 0 0.5 0.433333 0
          0 0.466667 0 0.5 0.466667 0 0 0.5 0 0.5 0.5 0
          0 0.533333 0 0.5 0.533333 0 0 0.566667 0 0.5 0.566667 0
          0 0.6 0 0.5 0.6 0 0 0.633333 0 0.5 0.633333 0
          0 0.666667 0 0.5 0.666667 0 0 0.7 0 0.5 0.7 0
          0 0.733333 0 0.5 0.733333 0 0 0.766667 0 0.5 0.766667 0
          0 0.8 0 0.5 0.8 0 0 0.833333 0 0.5 0.833333 0
          0 0.866667 0 0.5 0.866667 0 0 0.9 0 0.5 0.9 0
          0 0.933333 0 0.5 0.933333 0 0 0.966667 0 0.5 0.966667 0
          0 1 0 0.5 1 0
        </DataArray>
      </Points>
      <Cells>
        <DataArray type="Int32" Name="connectivity" NumberOfComponents="1" format="ascii">
          0 1 3 2 2 3 5 4 4 5 7 6
          6 7 9 8 8 9 11 10 10 11 13 12
          12 13 15 14 14 15 17 16 16 17 19 18
          18 19 21 20 20 21 23 22 22 23 25 24
          24 25 27 26 26 27 29 28 28 29 31 30
          30 31 33 32 32 33 35 34 34 35 37 36
          36 37 39 38 38 39 41 40 40 41 43 42
          42 43 45 44 44 45 47 46 46 47 49 48
          48 49 51 50 50 51 53 52 52 53 55 54
          54 55 57 56 56 57 59 58 58 59 61 60
        </DataArray>
        <DataArray type="Int32" Name="offsets" NumberOfComponents="1" format="ascii">
          4 8 12 16 20 24 28 32 36 40 44 48
          52 56 60 64 68 72 76 80 84 88 92 96
          100 104 108 112 116 120
        </DataArray>
        <DataArray type="UInt8" Name="types" NumberOfComponents="1" format="ascii">
          9 9 9 9 9 9 9 9 9 9 9 9
          9 9 9 9 9 9 9 9 9 9 9 9
          9 9 9 9 9 9
        </DataArray>
      </Cells>
    </Piece>
  </UnstructuredGrid>
</VTKFile>
