<?xml version="1.0"?>
<VTKFile type="UnstructuredGrid" version="0.1" byte_order="LittleEndian">
  <UnstructuredGrid>
    <Piece NumberOfCells="30" NumberOfPoints="62">
      <CellData Scalars="Sg">
        <DataArray type="Float32" Name="Sg" NumberOfComponents="1" format="ascii">
          0 0 0 0 0 0 0 0 0 0 0 0
          0 0 0 0 0 0 0 0 0 0 0 0
          0 0 0 0 0 0
        </DataArray>
        <DataArray type="Float32" Name="Sl" NumberOfComponents="1" format="ascii">
          1 1 1 1 1 1 1 1 1 1 1 1
          1 1 1 1 1 1 1 1 1 1 1 1
          1 1 1 1 1 1
        </DataArray>
        <DataArray type="Float32" Name="pg" NumberOfComponents="1" format="ascii">
          24687.8 24360.9 24034 23707 23380.1 23053.1 22726.2 22399.3 22072.3 21745.4 21418.4 21091.5
          20764.6 20437.6 20110.7 19783.7 19456.8 19129.9 18802.9 18476 18149 17822.1 17495.1 17168.2
          16841.3 16514.3 16187.4 15860.4 15533.5 15206.8
        </DataArray>
        <DataArray type="Float32" Name="pl" NumberOfComponents="1" format="ascii">
          110628 110301 109974 109647 109320 108993 108666 108339 108012 107685 107358 107031
          106704 106377 106050 105723 105396 105070 104743 104416 104089 103762 103435 103108
          102781 102454 102127 101800 101473 101146
        </DataArray>
        <DataArray type="Float32" Name="pc" NumberOfComponents="1" format="ascii">
          -85939.7 -85939.7 -85939.7 -85939.7 -85939.7 -85939.7 -85939.7 -85939.7 -85939.7 -85939.7 -85939.7 -85939.7
          -85939.7 -85939.7 -85939.7 -85939.7 -85939.7 -85939.7 -85939.7 -85939.7 -85939.7 -85939.7 -85939.7 -85939.7
          -85939.7 -85939.7 -85939.7 -85939.7 -85939.7 -85939.7
        </DataArray>
        <DataArray type="Float32" Name="rhoL" NumberOfComponents="1" format="ascii">
          999.855 999.855 999.855 999.855 999.855 999.854 999.854 999.854 999.854 999.854 999.854 999.854
          999.853 999.853 999.853 999.853 999.853 999.853 999.852 999.852 999.852 999.852 999.852 999.852
          999.852 999.851 999.851 999.851 999.851 999.851
        </DataArray>
        <DataArray type="Float32" Name="rhoG" NumberOfComponents="1" format="ascii">
          0.30585 0.3018 0.29775 0.293699 0.289649 0.285598 0.281548 0.277498 0.273447 0.269397 0.265347 0.261296
          0.257246 0.253195 0.249145 0.245095 0.241044 0.236994 0.232944 0.228893 0.224843 0.220793 0.216742 0.212692
          0.208641 0.204591 0.200541 0.19649 0.19244 0.188392
        </DataArray>
        <DataArray type="Float32" Name="mobL" NumberOfComponents="1" format="ascii">
          722.171 722.17 722.17 722.17 722.17 722.17 722.169 722.169 722.169 722.169 722.169 722.169
          722.168 722.168 722.168 722.168 722.168 722.167 722.167 722.167 722.167 722.167 722.166 722.166
          722.166 722.166 722.166 722.166 722.165 722.165
        </DataArray>
        <DataArray type="Float32" Name="mobG" NumberOfComponents="1" format="ascii">
          0 0 0 0 0 0 0 0 0 0 0 0
          0 0 0 0 0 0 0 0 0 0 0 0
          0 0 0 0 0 0
        </DataArray>
        <DataArray type="Float32" Name="porosity" NumberOfComponents="1" format="ascii">
          0.298584 0.298584 0.298584 0.298584 0.298583 0.298583 0.298582 0.298581 0.29858 0.298578 0.298575 0.298571
          0.298566 0.298559 0.298549 0.298536 0.298518 0.298494 0.298462 0.298418 0.298358 0.298274 0.298155 0.297979
          0.297436 0.296978 0.296103 0.293994 0.285692 0.102881
        </DataArray>
        <DataArray type="Float32" Name="temperature" NumberOfComponents="1" format="ascii">
          281.15 281.15 281.15 281.15 281.15 281.15 281.15 281.15 281.15 281.15 281.15 281.15
          281.15 281.15 281.15 281.15 281.15 281.15 281.15 281.15 281.15 281.15 281.15 281.15
          281.15 281.15 281.15 281.15 281.15 281.15
        </DataArray>
        <DataArray type="Float32" Name="phase presence" NumberOfComponents="1" format="ascii">
          1 1 1 1 1 1 1 1 1 1 1 1
          1 1 1 1 1 1 1 1 1 1 1 1
          1 1 1 1 1 1
        </DataArray>
        <DataArray type="Float32" Name="precipitateVolumeFraction_au" NumberOfComponents="1" format="ascii">
          5.52493e-10 5.52696e-10 5.52661e-10 5.52652e-10 5.52632e-10 5.52643e-10 5.52628e-10 5.52629e-10 5.52632e-10 5.52659e-10 5.52678e-10 5.52681e-10
          5.52641e-10 5.526e-10 5.52663e-10 5.52638e-10 5.52651e-10 5.52633e-10 5.52645e-10 5.52618e-10 5.52588e-10 5.52674e-10 5.52724e-10 7.53814e-10
          0.00026994 0.000269924 0.000269899 0.000269854 5.52353e-10 5.50875e-10
        </DataArray>
        <DataArray type="Float32" Name="precipitateVolumeFraction_nanoAu" NumberOfComponents="1" format="ascii">
          2.22359e-13 2.3926e-13 2.36723e-13 2.3607e-13 2.35185e-13 2.35617e-13 2.35171e-13 2.35245e-13 2.35302e-13 2.35675e-13 2.35888e-13 2.35823e-13
          2.35418e-13 2.35094e-13 2.35513e-13 2.35359e-13 2.35395e-13 2.35323e-13 2.35344e-13 2.3527e-13 2.35206e-13 2.3535e-13 2.47289e-13 2.6002e-11
          6.04776e-08 7.681e-08 1.02265e-07 1.45596e-07 5.84232e-13 5.73442e-13
        </DataArray>
        <DataArray type="Float32" Name="precipitateVolumeFraction_d" NumberOfComponents="1" format="ascii">
          0.000707817 0.000707885 0.000707982 0.000708118 0.000708309 0.000708577 0.000708953 0.000709477 0.000710207 0.000711217 0.00071261 0.000714524
          0.000717141 0.000720707 0.000725546 0.000732095 0.00074094 0.000752883 0.000769039 0.000790999 0.000821118 0.000863039 0.000922723 0.00101065
          0.00114702 0.00137618 0.00181366 0.00286823 0.00715392 0.0985594
        </DataArray>
        <DataArray type="Float32" Name="precipitateVolumeFraction_p" NumberOfComponents="1" format="ascii">
          0.000707817 0.000707885 0.000707982 0.000708118 0.000708309 0.000708577 0.000708953 0.000709477 0.000710207 0.000711217 0.00071261 0.000714524
          0.000717141 0.000720707 0.000725546 0.000732095 0.00074094 0.000752883 0.000769039 0.000790999 0.000821118 0.000863039 0.000922723 0.00101065
          0.00114702 0.00137618 0.00181366 0.00286823 0.00715392 0.0985594
        </DataArray>
        <DataArray type="Float32" Name="K" NumberOfComponents="1" format="ascii">
          9.81935e-11 9.81933e-11 9.81931e-11 9.81927e-11 9.81922e-11 9.81915e-11 9.81906e-11 9.81893e-11 9.81874e-11 9.81849e-11 9.81813e-11 9.81765e-11
          9.81699e-11 9.81608e-11 9.81486e-11 9.8132e-11 9.81096e-11 9.80794e-11 9.80385e-11 9.79829e-11 9.79068e-11 9.78009e-11 9.76503e-11 9.74288e-11
          9.67478e-11 9.61757e-11 9.50913e-11 9.25185e-11 8.29385e-11 2.4555e-12
        </DataArray>
        <DataArray type="Float32" Name="X^w_H2O" NumberOfComponents="1" format="ascii">
          0.999853 0.999853 0.999853 0.999853 0.999853 0.999853 0.999853 0.999853 0.999853 0.999853 0.999853 0.999853
          0.999853 0.999853 0.999853 0.999853 0.999853 0.999853 0.999853 0.999853 0.999853 0.999853 0.999853 0.999853
          0.999853 0.999852 0.99985 0.999846 0.999839 0.99984
        </DataArray>
        <DataArray type="Float32" Name="X^w_Air" NumberOfComponents="1" format="ascii">
          2.27986e-29 4.05598e-31 7.09484e-33 1.2195e-34 2.06209e-36 3.42991e-38 0 0 0 0 0 0
          0 0 0 0 0 0 0 0 0 0 0 0
          0 0 0 0 0 0
        </DataArray>
        <DataArray type="Float32" Name="X^w_AuComplex" NumberOfComponents="1" format="ascii">
          2.36493e-16 2.52785e-16 2.50335e-16 2.49701e-16 2.48843e-16 2.49257e-16 2.48821e-16 2.48889e-16 2.4894e-16 2.49296e-16 2.49498e-16 2.49431e-16
          2.49035e-16 2.48716e-16 2.49117e-16 2.48961e-16 2.48989e-16 2.4891e-16 2.48921e-16 2.48835e-16 2.48755e-16 2.48874e-16 2.62289e-16 2.96504e-14
          6.90468e-11 1.07659e-10 1.8476e-10 3.64159e-10 2.23934e-15 2.16668e-15
        </DataArray>
        <DataArray type="Float32" Name="X^w_nanoAu" NumberOfComponents="1" format="ascii">
          9.6944e-19 1.04217e-18 1.0312e-18 1.02835e-18 1.02455e-18 1.0264e-18 1.02447e-18 1.0248e-18 1.02506e-18 1.02668e-18 1.02759e-18 1.02729e-18
          1.02553e-18 1.02415e-18 1.02595e-18 1.02528e-18 1.02543e-18 1.02512e-18 1.0252e-18 1.02491e-18 1.02834e-18 1.37284e-18 3.31708e-17 2.96852e-15
          2.64119e-13 3.35623e-13 4.47055e-13 6.26401e-13 2.5344e-18 2.426e-18
        </DataArray>
        <DataArray type="Float32" Name="X^w_cyanide" NumberOfComponents="1" format="ascii">
          5.08077e-06 5.08069e-06 5.08061e-06 5.08053e-06 5.08045e-06 5.08037e-06 5.08028e-06 5.0802e-06 5.08012e-06 5.08003e-06 5.07994e-06 5.07985e-06
          5.07976e-06 5.07965e-06 5.07954e-06 5.07942e-06 5.07927e-06 5.0791e-06 5.07889e-06 5.07862e-06 5.07827e-06 5.07777e-06 5.07705e-06 5.07595e-06
          5.07468e-06 6.44492e-06 8.58018e-06 1.2241e-05 1.94408e-05 1.91585e-05
        </DataArray>
        <DataArray type="Float32" Name="X^w_citrate" NumberOfComponents="1" format="ascii">
          0.000141796 0.000141796 0.000141796 0.000141796 0.000141796 0.000141796 0.000141796 0.000141796 0.000141796 0.000141796 0.000141796 0.000141796
          0.000141796 0.000141795 0.000141795 0.000141795 0.000141794 0.000141794 0.000141793 0.000141791 0.000141789 0.000141786 0.000141782 0.000141774
          0.000141762 0.000141741 0.000141699 0.000141601 0.000141286 0.000139233
        </DataArray>
        <DataArray type="Float32" Name="X^w_substrate" NumberOfComponents="1" format="ascii">
          5.47524e-12 7.63563e-12 1.06481e-11 1.48487e-11 2.07063e-11 2.88749e-11 4.02679e-11 5.61611e-11 7.83386e-11 1.09299e-10 1.52546e-10 2.13011e-10
          2.97652e-10 4.16333e-10 5.83126e-10 8.18264e-10 1.15114e-09 1.62501e-09 2.30463e-09 3.28909e-09 4.73411e-09 6.89316e-09 1.01976e-08 1.54252e-08
          2.40884e-08 3.94491e-08 6.9648e-08 1.39961e-07 3.63537e-07 1.81079e-06
        </DataArray>
        <DataArray type="Float32" Name="m^w_H2O" NumberOfComponents="1" format="ascii">
          55492.6 55492.5 55492.5 55492.5 55492.5 55492.5 55492.5 55492.5 55492.5 55492.5 55492.5 55492.5
          55492.5 55492.4 55492.4 55492.4 55492.4 55492.4 55492.4 55492.4 55492.4 55492.4 55492.4 55492.4
          55492.3 55492.3 55492.1 55491.9 55491.5 55491.6
        </DataArray>
        <DataArray type="Float32" Name="m^w_Air" NumberOfComponents="1" format="ascii">
          7.87132e-25 1.40034e-26 2.44952e-28 4.21038e-30 7.11942e-32 1.18419e-33 1.93575e-35 3.1103e-37 0 0 0 0
          0 0 0 0 0 0 0 0 0 0 0 0
          0 0 0 0 0 0
        </DataArray>
        <DataArray type="Float32" Name="m^w_AuComplex" NumberOfComponents="1" format="ascii">
          1.20048e-12 1.28318e-12 1.27075e-12 1.26753e-12 1.26317e-12 1.26527e-12 1.26306e-12 1.26341e-12 1.26366e-12 1.26547e-12 1.2665e-12 1.26616e-12
          1.26414e-12 1.26253e-12 1.26456e-12 1.26377e-12 1.26391e-12 1.26351e-12 1.26357e-12 1.26313e-12 1.26272e-12 1.26332e-12 1.33142e-12 1.5051e-10
          3.50493e-07 5.46492e-07 9.37869e-07 1.84853e-06 1.13672e-11 1.09984e-11
        </DataArray>
        <DataArray type="Float32" Name="m^w_nanoAu" NumberOfComponents="1" format="ascii">
          4.92105e-15 5.29025e-15 5.23458e-15 5.22008e-15 5.20081e-15 5.21017e-15 5.20041e-15 5.20206e-15 5.20339e-15 5.21159e-15 5.21624e-15 5.21472e-15
          5.20578e-15 5.19878e-15 5.2079e-15 5.20451e-15 5.20528e-15 5.20367e-15 5.20409e-15 5.2026e-15 5.22004e-15 6.96877e-15 1.6838e-13 1.50687e-11
          1.34071e-09 1.70367e-09 2.26932e-09 3.17971e-09 1.2865e-14 1.23148e-14
        </DataArray>
        <DataArray type="Float32" Name="m^w_cyanide" NumberOfComponents="1" format="ascii">
          0.195236 0.195233 0.195229 0.195226 0.195223 0.19522 0.195217 0.195214 0.19521 0.195207 0.195204 0.1952
          0.195196 0.195192 0.195188 0.195183 0.195178 0.195171 0.195163 0.195153 0.195139 0.19512 0.195092 0.19505
          0.195001 0.247654 0.329704 0.470375 0.747038 0.736187
        </DataArray>
        <DataArray type="Float32" Name="m^w_citrate" NumberOfComponents="1" format="ascii">
          0.749742 0.749742 0.749742 0.749742 0.749742 0.749742 0.749741 0.749741 0.749741 0.749741 0.74974 0.74974
          0.749739 0.749738 0.749736 0.749734 0.749732 0.749728 0.749723 0.749716 0.749705 0.749688 0.749663 0.749624
          0.749559 0.749449 0.749228 0.748709 0.747041 0.736189
        </DataArray>
        <DataArray type="Float32" Name="m^w_substrate" NumberOfComponents="1" format="ascii">
          3.03866e-08 4.23764e-08 5.9095e-08 8.24076e-08 1.14916e-07 1.60251e-07 2.2348e-07 3.11684e-07 4.34764e-07 6.06587e-07 8.46603e-07 1.18217e-06
          1.65191e-06 2.31057e-06 3.23623e-06 4.5412e-06 6.38858e-06 9.01846e-06 1.27903e-05 1.82538e-05 2.62733e-05 3.82557e-05 5.65948e-05 8.56066e-05
          0.000133686 0.000218935 0.000386532 0.000776755 0.00201756 0.0100495
        </DataArray>
        <DataArray type="Float32" Name="process rank" NumberOfComponents="1" format="ascii">
          0 0 0 0 0 0 0 0 0 0 0 0
          0 0 0 0 0 0 0 0 0 0 0 0
          0 0 0 0 0 0
        </DataArray>
      </CellData>
      <Points>
        <DataArray type="Float32" Name="Coordinates" NumberOfComponents="3" format="ascii">
          0 0 0 0.5 0 0 0 0.0333333 0 0.5 0.0333333 0
          0 0.0666667 0 0.5 0.0666667 0 0 0.1 0 0.5 0.1 0
          0 0.133333 0 0.5 0.133333 0 0 0.166667 0 0.5 0.166667 0
          0 0.2 0 0.5 0.2 0 0 0.233333 0 0.5 0.233333 0
          0 0.266667 0 0.5 0.266667 0 0 0.3 0 0.5 0.3 0
          0 0.333333 0 0.5 0.333333 0 0 0.366667 0 0.5 0.366667 0
          0 0.4 0 0.5 0.4 0 0 0.433333 0 0.5 0.433333 0
          0 0.466667 0 0.5 0.466667 0 0 0.5 0 0.5 0.5 0
          0 0.533333 0 0.5 0.533333 0 0 0.566667 0 0.5 0.566667 0
          0 0.6 0 0.5 0.6 0 0 0.633333 0 0.5 0.633333 0
          0 0.666667 0 0.5 0.666667 0 0 0.7 0 0.5 0.7 0
          0 0.733333 0 0.5 0.733333 0 0 0.766667 0 0.5 0.766667 0
          0 0.8 0 0.5 0.8 0 0 0.833333 0 0.5 0.833333 0
          0 0.866667 0 0.5 0.866667 0 0 0.9 0 0.5 0.9 0
          0 0.933333 0 0.5 0.933333 0 0 0.966667 0 0.5 0.966667 0
          0 1 0 0.5 1 0
        </DataArray>
      </Points>
      <Cells>
        <DataArray type="Int32" Name="connectivity" NumberOfComponents="1" format="ascii">
          0 1 3 2 2 3 5 4 4 5 7 6
          6 7 9 8 8 9 11 10 10 11 13 12
          12 13 15 14 14 15 17 16 16 17 19 18
          18 19 21 20 20 21 23 22 22 23 25 24
          24 25 27 26 26 27 29 28 28 29 31 30
          30 31 33 32 32 33 35 34 34 35 37 36
          36 37 39 38 38 39 41 40 40 41 43 42
          42 43 45 44 44 45 47 46 46 47 49 48
          48 49 51 50 50 51 53 52 52 53 55 54
          54 55 57 56 56 57 59 58 58 59 61 60
        </DataArray>
        <DataArray type="Int32" Name="offsets" NumberOfComponents="1" format="ascii">
          4 8 12 16 20 24 28 32 36 40 44 48
          52 56 60 64 68 72 76 80 84 88 92 96
          100 104 108 112 116 120
        </DataArray>
        <DataArray type="UInt8" Name="types" NumberOfComponents="1" format="ascii">
          9 9 9 9 9 9 9 9 9 9 9 9
          9 9 9 9 9 9 9 9 9 9 9 9
          9 9 9 9 9 9
        </DataArray>
      </Cells>
    </Piece>
  </UnstructuredGrid>
</VTKFile>
