<?xml version="1.0"?>
<VTKFile type="UnstructuredGrid" version="0.1" byte_order="LittleEndian">
  <UnstructuredGrid>
    <Piece NumberOfCells="30" NumberOfPoints="62">
      <CellData Scalars="Sg">
        <DataArray type="Float32" Name="Sg" NumberOfComponents="1" format="ascii">
          0 0 0 0 0 0 0 0 0 0 0 0
          0 0 0 0 0 0 0 0 0 0 0 0
          0 0 0 0 0 0
        </DataArray>
        <DataArray type="Float32" Name="Sl" NumberOfComponents="1" format="ascii">
          1 1 1 1 1 1 1 1 1 1 1 1
          1 1 1 1 1 1 1 1 1 1 1 1
          1 1 1 1 1 1
        </DataArray>
        <DataArray type="Float32" Name="pg" NumberOfComponents="1" format="ascii">
          24687.8 24360.9 24034 23707 23380.1 23053.1 22726.2 22399.3 22072.3 21745.4 21418.4 21091.5
          20764.6 20437.6 20110.7 19783.7 19456.8 19129.8 18802.9 18476 18149 17822.1 17495.1 17168.2
          16841.3 16514.3 16187.4 15860.4 15533.5 15208.4
        </DataArray>
        <DataArray type="Float32" Name="pl" NumberOfComponents="1" format="ascii">
          110628 110301 109974 109647 109320 108993 108666 108339 108012 107685 107358 107031
          106704 106377 106050 105723 105396 105070 104743 104416 104089 103762 103435 103108
          102781 102454 102127 101800 101473 101148
        </DataArray>
        <DataArray type="Float32" Name="pc" NumberOfComponents="1" format="ascii">
          -85939.7 -85939.7 -85939.7 -85939.7 -85939.7 -85939.7 -85939.7 -85939.7 -85939.7 -85939.7 -85939.7 -85939.7
          -85939.7 -85939.7 -85939.7 -85939.7 -85939.7 -85939.7 -85939.7 -85939.7 -85939.7 -85939.7 -85939.7 -85939.7
          -85939.7 -85939.7 -85939.7 -85939.7 -85939.7 -85939.7
        </DataArray>
        <DataArray type="Float32" Name="rhoL" NumberOfComponents="1" format="ascii">
          999.855 999.855 999.855 999.855 999.855 999.854 999.854 999.854 999.854 999.854 999.854 999.854
          999.853 999.853 999.853 999.853 999.853 999.853 999.852 999.852 999.852 999.852 999.852 999.852
          999.852 999.851 999.851 999.851 999.851 999.851
        </DataArray>
        <DataArray type="Float32" Name="rhoG" NumberOfComponents="1" format="ascii">
          0.30585 0.3018 0.29775 0.293699 0.289649 0.285598 0.281548 0.277498 0.273447 0.269397 0.265347 0.261296
          0.257246 0.253195 0.249145 0.245095 0.241044 0.236994 0.232944 0.228893 0.224843 0.220793 0.216742 0.212692
          0.208641 0.204591 0.200541 0.19649 0.19244 0.188412
        </DataArray>
        <DataArray type="Float32" Name="mobL" NumberOfComponents="1" format="ascii">
          722.171 722.17 722.17 722.17 722.17 722.17 722.169 722.169 722.169 722.169 722.169 722.169
          722.168 722.168 722.168 722.168 722.168 722.167 722.167 722.167 722.167 722.167 722.166 722.166
          722.166 722.166 722.166 722.166 722.165 722.165
        </DataArray>
        <DataArray type="Float32" Name="mobG" NumberOfComponents="1" format="ascii">
          0 0 0 0 0 0 0 0 0 0 0 0
          0 0 0 0 0 0 0 0 0 0 0 0
          0 0 0 0 0 0
        </DataArray>
        <DataArray type="Float32" Name="porosity" NumberOfComponents="1" format="ascii">
          0.298697 0.298697 0.298697 0.298697 0.298696 0.298696 0.298695 0.298694 0.298693 0.298691 0.298688 0.298685
          0.29868 0.298673 0.298664 0.298652 0.298635 0.298613 0.298583 0.298542 0.298485 0.298406 0.298293 0.298125
          0.297592 0.297144 0.296267 0.294052 0.284247 0.0528356
        </DataArray>
        <DataArray type="Float32" Name="temperature" NumberOfComponents="1" format="ascii">
          281.15 281.15 281.15 281.15 281.15 281.15 281.15 281.15 281.15 281.15 281.15 281.15
          281.15 281.15 281.15 281.15 281.15 281.15 281.15 281.15 281.15 281.15 281.15 281.15
          281.15 281.15 281.15 281.15 281.15 281.15
        </DataArray>
        <DataArray type="Float32" Name="phase presence" NumberOfComponents="1" format="ascii">
          1 1 1 1 1 1 1 1 1 1 1 1
          1 1 1 1 1 1 1 1 1 1 1 1
          1 1 1 1 1 1
        </DataArray>
        <DataArray type="Float32" Name="precipitateVolumeFraction_au" NumberOfComponents="1" format="ascii">
          5.52592e-10 5.52811e-10 5.52774e-10 5.52764e-10 5.52743e-10 5.52755e-10 5.52739e-10 5.5274e-10 5.52744e-10 5.52771e-10 5.5279e-10 5.52793e-10
          5.52753e-10 5.52711e-10 5.52775e-10 5.5275e-10 5.52762e-10 5.52744e-10 5.52756e-10 5.5273e-10 5.527e-10 5.52786e-10 5.52928e-10 9.53208e-10
          0.00026994 0.000269924 0.000269899 0.000269853 5.52463e-10 5.50977e-10
        </DataArray>
        <DataArray type="Float32" Name="precipitateVolumeFraction_nanoAu" NumberOfComponents="1" format="ascii">
          1.23709e-13 1.23765e-13 1.23755e-13 1.23752e-13 1.23747e-13 1.23749e-13 1.23745e-13 1.23744e-13 1.23745e-13 1.2375e-13 1.23754e-13 1.23754e-13
          1.23744e-13 1.23733e-13 1.23747e-13 1.2374e-13 1.23741e-13 1.23734e-13 1.23734e-13 1.23723e-13 1.23711e-13 1.23738e-13 1.35649e-13 2.57897e-11
          6.03813e-08 7.67046e-08 1.02166e-07 1.45575e-07 4.7431e-13 4.66753e-13
        </DataArray>
        <DataArray type="Float32" Name="precipitateVolumeFraction_d" NumberOfComponents="1" format="ascii">
          0.000651418 0.000651482 0.000651572 0.000651699 0.000651877 0.000652127 0.000652477 0.000652965 0.000653643 0.000654583 0.00065588 0.000657661
          0.000660098 0.000663419 0.000667929 0.000674038 0.000682296 0.00069346 0.000708586 0.000729189 0.000757522 0.000797094 0.000853699 0.000937632
          0.00106904 0.00129306 0.00173136 0.00283907 0.00787642 0.123582
        </DataArray>
        <DataArray type="Float32" Name="precipitateVolumeFraction_p" NumberOfComponents="1" format="ascii">
          0.000651418 0.000651482 0.000651572 0.000651699 0.000651877 0.000652127 0.000652477 0.000652965 0.000653643 0.000654583 0.00065588 0.000657661
          0.000660098 0.000663419 0.000667929 0.000674038 0.000682296 0.00069346 0.000708586 0.000729189 0.000757522 0.000797094 0.000853699 0.000937632
          0.00106904 0.00129306 0.00173136 0.00283907 0.00787642 0.123582
        </DataArray>
        <DataArray type="Float32" Name="K" NumberOfComponents="1" format="ascii">
          9.83364e-11 9.83363e-11 9.8336e-11 9.83357e-11 9.83353e-11 9.83346e-11 9.83337e-11 9.83325e-11 9.83308e-11 9.83284e-11 9.83251e-11 9.83206e-11
          9.83144e-11 9.8306e-11 9.82946e-11 9.82791e-11 9.82581e-11 9.82298e-11 9.81915e-11 9.81394e-11 9.80676e-11 9.79675e-11 9.78245e-11 9.76127e-11
          9.69431e-11 9.63829e-11 9.52945e-11 9.25888e-11 8.13569e-11 2.98374e-13
        </DataArray>
        <DataArray type="Float32" Name="X^w_H2O" NumberOfComponents="1" format="ascii">
          0.999853 0.999853 0.999853 0.999853 0.999853 0.999853 0.999853 0.999853 0.999853 0.999853 0.999853 0.999853
          0.999853 0.999853 0.999853 0.999853 0.999853 0.999853 0.999853 0.999853 0.999853 0.999853 0.999853 0.999853
          0.999853 0.999852 0.99985 0.999846 0.999839 0.99984
        </DataArray>
        <DataArray type="Float32" Name="X^w_Air" NumberOfComponents="1" format="ascii">
          0 0 0 0 0 0 0 0 0 0 0 0
          0 0 0 0 0 0 0 0 0 0 0 0
          0 0 0 0 0 0
        </DataArray>
        <DataArray type="Float32" Name="X^w_AuComplex" NumberOfComponents="1" format="ascii">
          1.41174e-16 1.41236e-16 1.41225e-16 1.41221e-16 1.41215e-16 1.41217e-16 1.41212e-16 1.41211e-16 1.41211e-16 1.41217e-16 1.41221e-16 1.4122e-16
          1.41208e-16 1.41195e-16 1.4121e-16 1.412e-16 1.412e-16 1.4119e-16 1.41187e-16 1.41171e-16 1.41151e-16 1.41171e-16 1.54556e-16 2.94019e-14
          6.88695e-11 1.07418e-10 1.84463e-10 3.64039e-10 1.83576e-15 1.78561e-15
        </DataArray>
        <DataArray type="Float32" Name="X^w_nanoAu" NumberOfComponents="1" format="ascii">
          5.38799e-19 5.39039e-19 5.38996e-19 5.38983e-19 5.38959e-19 5.38969e-19 5.3895e-19 5.38949e-19 5.3895e-19 5.38974e-19 5.3899e-19 5.38989e-19
          5.38945e-19 5.38901e-19 5.38956e-19 5.38925e-19 5.38927e-19 5.38897e-19 5.38892e-19 5.38882e-19 5.42512e-19 8.84333e-19 3.25309e-17 2.95861e-15
          2.63711e-13 3.35193e-13 4.46703e-13 6.2655e-13 2.05949e-18 1.98196e-18
        </DataArray>
        <DataArray type="Float32" Name="X^w_cyanide" NumberOfComponents="1" format="ascii">
          5.07197e-06 5.07195e-06 5.07194e-06 5.07193e-06 5.07191e-06 5.0719e-06 5.07188e-06 5.07186e-06 5.07185e-06 5.07183e-06 5.07181e-06 5.07178e-06
          5.07175e-06 5.07172e-06 5.07168e-06 5.07162e-06 5.07155e-06 5.07146e-06 5.07134e-06 5.07116e-06 5.07092e-06 5.07057e-06 5.07005e-06 5.06925e-06
          5.06845e-06 6.43823e-06 8.57386e-06 1.22386e-05 1.94596e-05 1.923e-05
        </DataArray>
        <DataArray type="Float32" Name="X^w_citrate" NumberOfComponents="1" format="ascii">
          0.000141796 0.000141796 0.000141796 0.000141796 0.000141796 0.000141796 0.000141796 0.000141796 0.000141796 0.000141796 0.000141796 0.000141796
          0.000141796 0.000141795 0.000141795 0.000141795 0.000141795 0.000141794 0.000141793 0.000141792 0.00014179 0.000141788 0.000141784 0.000141778
          0.000141769 0.000141754 0.000141724 0.000141653 0.000141422 0.000139753
        </DataArray>
        <DataArray type="Float32" Name="X^w_substrate" NumberOfComponents="1" format="ascii">
          7.11437e-12 9.72794e-12 1.33009e-11 1.81852e-11 2.48624e-11 3.39909e-11 4.64719e-11 6.35395e-11 8.68856e-11 1.18833e-10 1.62575e-10 2.22518e-10
          3.0476e-10 4.17778e-10 5.73435e-10 7.8847e-10 1.08674e-09 1.50275e-09 2.08722e-09 2.91643e-09 4.10834e-09 5.85202e-09 8.46463e-09 1.25107e-08
          1.90767e-08 3.04887e-08 5.25441e-08 1.03425e-07 2.67588e-07 1.44429e-06
        </DataArray>
        <DataArray type="Float32" Name="m^w_H2O" NumberOfComponents="1" format="ascii">
          55492.6 55492.6 55492.5 55492.5 55492.5 55492.5 55492.5 55492.5 55492.5 55492.5 55492.5 55492.5
          55492.5 55492.4 55492.4 55492.4 55492.4 55492.4 55492.4 55492.4 55492.4 55492.4 55492.4 55492.4
          55492.3 55492.3 55492.1 55491.9 55491.5 55491.6
        </DataArray>
        <DataArray type="Float32" Name="m^w_Air" NumberOfComponents="1" format="ascii">
          0 0 0 0 0 0 0 0 0 0 0 0
          0 0 0 0 0 0 0 0 0 0 0 0
          0 0 0 0 0 0
        </DataArray>
        <DataArray type="Float32" Name="m^w_AuComplex" NumberOfComponents="1" format="ascii">
          7.16626e-13 7.16941e-13 7.16883e-13 7.16864e-13 7.1683e-13 7.16842e-13 7.16816e-13 7.16812e-13 7.16811e-13 7.16841e-13 7.1686e-13 7.16857e-13
          7.16796e-13 7.16732e-13 7.16804e-13 7.16756e-13 7.16753e-13 7.16705e-13 7.16687e-13 7.16607e-13 7.16504e-13 7.16609e-13 7.84552e-13 1.49249e-10
          3.49593e-07 5.45272e-07 9.36362e-07 1.84792e-06 9.31861e-12 9.06405e-12
        </DataArray>
        <DataArray type="Float32" Name="m^w_nanoAu" NumberOfComponents="1" format="ascii">
          2.73504e-15 2.73626e-15 2.73604e-15 2.73597e-15 2.73585e-15 2.7359e-15 2.73581e-15 2.7358e-15 2.7358e-15 2.73593e-15 2.73601e-15 2.736e-15
          2.73578e-15 2.73555e-15 2.73583e-15 2.73567e-15 2.73568e-15 2.73553e-15 2.7355e-15 2.73545e-15 2.75388e-15 4.48902e-15 1.65132e-13 1.50184e-11
          1.33864e-09 1.70149e-09 2.26753e-09 3.18047e-09 1.04543e-14 1.00607e-14
        </DataArray>
        <DataArray type="Float32" Name="m^w_cyanide" NumberOfComponents="1" format="ascii">
          0.194898 0.194897 0.194896 0.194896 0.194895 0.194895 0.194894 0.194893 0.194893 0.194892 0.194891 0.19489
          0.194889 0.194888 0.194886 0.194884 0.194881 0.194878 0.194873 0.194866 0.194857 0.194843 0.194823 0.194792
          0.194762 0.247397 0.329461 0.470285 0.747758 0.738936
        </DataArray>
        <DataArray type="Float32" Name="m^w_citrate" NumberOfComponents="1" format="ascii">
          0.749742 0.749742 0.749742 0.749742 0.749742 0.749741 0.749741 0.749741 0.749741 0.74974 0.74974 0.749739
          0.749739 0.749738 0.749736 0.749735 0.749732 0.749729 0.749725 0.749718 0.749709 0.749696 0.749676 0.749646
          0.749596 0.749516 0.749357 0.748982 0.747761 0.738937
        </DataArray>
        <DataArray type="Float32" Name="m^w_substrate" NumberOfComponents="1" format="ascii">
          3.94835e-08 5.39883e-08 7.38173e-08 1.00925e-07 1.37982e-07 1.88643e-07 2.57911e-07 3.52633e-07 4.82199e-07 6.59499e-07 9.02261e-07 1.23493e-06
          1.69136e-06 2.31858e-06 3.18245e-06 4.37585e-06 6.03122e-06 8.33998e-06 1.15837e-05 1.61856e-05 2.28005e-05 3.24775e-05 4.6977e-05 6.94318e-05
          0.000105872 0.000169206 0.000291609 0.000573989 0.00148506 0.00801552
        </DataArray>
        <DataArray type="Float32" Name="process rank" NumberOfComponents="1" format="ascii">
          0 0 0 0 0 0 0 0 0 0 0 0
          0 0 0 0 0 0 0 0 0 0 0 0
          0 0 0 0 0 0
        </DataArray>
      </CellData>
      <Points>
        <DataArray type="Float32" Name="Coordinates" NumberOfComponents="3" format="ascii">
          0 0 0 0.5 0 0 0 0.0333333 0 0.5 0.0333333 0
          0 0.0666667 0 0.5 0.0666667 0 0 0.1 0 0.5 0.1 0
          0 0.133333 0 0.5 0.133333 0 0 0.166667 0 0.5 0.166667 0
          0 0.2 0 0.5 0.2 0 0 0.233333 0 0.5 0.233333 0
          0 0.266667 0 0.5 0.266667 0 0 0.3 0 0.5 0.3 0
          0 0.333333 0 0.5 0.333333 0 0 0.366667 0 0.5 0.366667 0
          0 0.4 0 0.5 0.4 0 0 0.433333 0 0.5 0.433333 0
          0 0.466667 0 0.5 0.466667 0 0 0.5 0 0.5 0.5 0
          0 0.533333 0 0.5 0.533333 0 0 0.566667 0 0.5 0.566667 0
          0 0.6 0 0.5 0.6 0 0 0.633333 0 0.5 0.633333 0
          0 0.666667 0 0.5 0.666667 0 0 0.7 0 0.5 0.7 0
          0 0.733333 0 0.5 0.733333 0 0 0.766667 0 0.5 0.766667 0
          0 0.8 0 0.5 0.8 0 0 0.833333 0 0.5 0.833333 0
          0 0.866667 0 0.5 0.866667 0 0 0.9 0 0.5 0.9 0
          0 0.933333 0 0.5 0.933333 0 0 0.966667 0 0.5 0.966667 0
          0 1 0 0.5 1 0
        </DataArray>
      </Points>
      <Cells>
        <DataArray type="Int32" Name="connectivity" NumberOfComponents="1" format="ascii">
          0 1 3 2 2 3 5 4 4 5 7 6
          6 7 9 8 8 9 11 10 10 11 13 12
          12 13 15 14 14 15 17 16 16 17 19 18
          18 19 21 20 20 21 23 22 22 23 25 24
          24 25 27 26 26 27 29 28 28 29 31 30
          30 31 33 32 32 33 35 34 34 35 37 36
          36 37 39 38 38 39 41 40 40 41 43 42
          42 43 45 44 44 45 47 46 46 47 49 48
          48 49 51 50 50 51 53 52 52 53 55 54
          54 55 57 56 56 57 59 58 58 59 61 60
        </DataArray>
        <DataArray type="Int32" Name="offsets" NumberOfComponents="1" format="ascii">
          4 8 12 16 20 24 28 32 36 40 44 48
          52 56 60 64 68 72 76 80 84 88 92 96
          100 104 108 112 116 120
        </DataArray>
        <DataArray type="UInt8" Name="types" NumberOfComponents="1" format="ascii">
          9 9 9 9 9 9 9 9 9 9 9 9
          9 9 9 9 9 9 9 9 9 9 9 9
          9 9 9 9 9 9
        </DataArray>
      </Cells>
    </Piece>
  </UnstructuredGrid>
</VTKFile>
