<?xml version="1.0"?>
<VTKFile type="UnstructuredGrid" version="0.1" byte_order="LittleEndian">
  <UnstructuredGrid>
    <Piece NumberOfCells="30" NumberOfPoints="62">
      <CellData Scalars="Sg">
        <DataArray type="Float32" Name="Sg" NumberOfComponents="1" format="ascii">
          0 0 0 0 0 0 0 0 0 0 0 0
          0 0 0 0 0 0 0 0 0 0 0 0
          0 0 0 0 0 0
        </DataArray>
        <DataArray type="Float32" Name="Sl" NumberOfComponents="1" format="ascii">
          1 1 1 1 1 1 1 1 1 1 1 1
          1 1 1 1 1 1 1 1 1 1 1 1
          1 1 1 1 1 1
        </DataArray>
        <DataArray type="Float32" Name="pg" NumberOfComponents="1" format="ascii">
          24687.8 24360.9 24034 23707 23380.1 23053.1 22726.2 22399.3 22072.3 21745.4 21418.4 21091.5
          20764.6 20437.6 20110.7 19783.7 19456.8 19129.8 18802.9 18476 18149 17822.1 17495.1 17168.2
          16841.3 16514.3 16187.4 15860.4 15533.5 15207.4
        </DataArray>
        <DataArray type="Float32" Name="pl" NumberOfComponents="1" format="ascii">
          110628 110301 109974 109647 109320 108993 108666 108339 108012 107685 107358 107031
          106704 106377 106050 105723 105396 105070 104743 104416 104089 103762 103435 103108
          102781 102454 102127 101800 101473 101147
        </DataArray>
        <DataArray type="Float32" Name="pc" NumberOfComponents="1" format="ascii">
          -85939.7 -85939.7 -85939.7 -85939.7 -85939.7 -85939.7 -85939.7 -85939.7 -85939.7 -85939.7 -85939.7 -85939.7
          -85939.7 -85939.7 -85939.7 -85939.7 -85939.7 -85939.7 -85939.7 -85939.7 -85939.7 -85939.7 -85939.7 -85939.7
          -85939.7 -85939.7 -85939.7 -85939.7 -85939.7 -85939.7
        </DataArray>
        <DataArray type="Float32" Name="rhoL" NumberOfComponents="1" format="ascii">
          999.855 999.855 999.855 999.855 999.855 999.854 999.854 999.854 999.854 999.854 999.854 999.854
          999.853 999.853 999.853 999.853 999.853 999.853 999.852 999.852 999.852 999.852 999.852 999.852
          999.852 999.851 999.851 999.851 999.851 999.851
        </DataArray>
        <DataArray type="Float32" Name="rhoG" NumberOfComponents="1" format="ascii">
          0.30585 0.3018 0.29775 0.293699 0.289649 0.285598 0.281548 0.277498 0.273447 0.269397 0.265347 0.261296
          0.257246 0.253195 0.249145 0.245095 0.241044 0.236994 0.232944 0.228893 0.224843 0.220793 0.216742 0.212692
          0.208641 0.204591 0.200541 0.19649 0.19244 0.188399
        </DataArray>
        <DataArray type="Float32" Name="mobL" NumberOfComponents="1" format="ascii">
          722.171 722.17 722.17 722.17 722.17 722.17 722.169 722.169 722.169 722.169 722.169 722.169
          722.168 722.168 722.168 722.168 722.168 722.167 722.167 722.167 722.167 722.167 722.166 722.166
          722.166 722.166 722.166 722.166 722.165 722.165
        </DataArray>
        <DataArray type="Float32" Name="mobG" NumberOfComponents="1" format="ascii">
          0 0 0 0 0 0 0 0 0 0 0 0
          0 0 0 0 0 0 0 0 0 0 0 0
          0 0 0 0 0 0
        </DataArray>
        <DataArray type="Float32" Name="porosity" NumberOfComponents="1" format="ascii">
          0.298636 0.298636 0.298636 0.298636 0.298635 0.298635 0.298634 0.298634 0.298633 0.298631 0.298629 0.298626
          0.298622 0.298616 0.298608 0.298597 0.298582 0.298562 0.298534 0.298495 0.298441 0.298366 0.298257 0.298095
          0.297572 0.29714 0.296302 0.294221 0.285454 0.069242
        </DataArray>
        <DataArray type="Float32" Name="temperature" NumberOfComponents="1" format="ascii">
          281.15 281.15 281.15 281.15 281.15 281.15 281.15 281.15 281.15 281.15 281.15 281.15
          281.15 281.15 281.15 281.15 281.15 281.15 281.15 281.15 281.15 281.15 281.15 281.15
          281.15 281.15 281.15 281.15 281.15 281.15
        </DataArray>
        <DataArray type="Float32" Name="phase presence" NumberOfComponents="1" format="ascii">
          1 1 1 1 1 1 1 1 1 1 1 1
          1 1 1 1 1 1 1 1 1 1 1 1
          1 1 1 1 1 1
        </DataArray>
        <DataArray type="Float32" Name="precipitateVolumeFraction_au" NumberOfComponents="1" format="ascii">
          5.52666e-10 5.52502e-10 5.5274e-10 5.52779e-10 5.52766e-10 5.52717e-10 5.52752e-10 5.52719e-10 5.52787e-10 5.5277e-10 5.52779e-10 5.52753e-10
          5.52713e-10 5.52529e-10 5.52769e-10 5.52764e-10 5.52753e-10 5.52769e-10 5.52729e-10 5.52738e-10 5.52754e-10 5.52755e-10 5.52859e-10 8.42476e-10
          0.00026994 0.000269924 0.000269899 0.000269853 5.52186e-10 5.51652e-10
        </DataArray>
        <DataArray type="Float32" Name="precipitateVolumeFraction_nanoAu" NumberOfComponents="1" format="ascii">
          1.27111e-13 1.26855e-13 1.27335e-13 1.274e-13 1.27374e-13 1.27309e-13 1.2735e-13 1.27316e-13 1.27372e-13 1.27353e-13 1.27357e-13 1.27339e-13
          1.27317e-13 1.27244e-13 1.27339e-13 1.27334e-13 1.27327e-13 1.27329e-13 1.27312e-13 1.2731e-13 1.27308e-13 1.27306e-13 1.38589e-13 2.57789e-11
          6.04115e-08 7.6738e-08 1.02199e-07 1.45596e-07 4.77456e-13 4.70433e-13
        </DataArray>
        <DataArray type="Float32" Name="precipitateVolumeFraction_d" NumberOfComponents="1" format="ascii">
          0.000681952 0.000681997 0.000682062 0.000682155 0.000682288 0.000682477 0.000682747 0.000683129 0.00068367 0.000684432 0.000685501 0.000686994
          0.000689071 0.000691948 0.000695916 0.00070137 0.000708848 0.000719092 0.00073314 0.00075248 0.000779324 0.000817105 0.00087146 0.000952355
          0.00107915 0.00129489 0.00171395 0.00275442 0.00727285 0.115379
        </DataArray>
        <DataArray type="Float32" Name="precipitateVolumeFraction_p" NumberOfComponents="1" format="ascii">
          0.000681952 0.000681997 0.000682062 0.000682155 0.000682288 0.000682477 0.000682747 0.000683129 0.00068367 0.000684432 0.000685501 0.000686994
          0.000689071 0.000691948 0.000695916 0.00070137 0.000708848 0.000719092 0.00073314 0.00075248 0.000779324 0.000817105 0.00087146 0.000952355
          0.00107915 0.00129489 0.00171395 0.00275442 0.00727285 0.115379
        </DataArray>
        <DataArray type="Float32" Name="K" NumberOfComponents="1" format="ascii">
          9.8259e-11 9.82589e-11 9.82587e-11 9.82585e-11 9.82582e-11 9.82577e-11 9.8257e-11 9.8256e-11 9.82547e-11 9.82527e-11 9.825e-11 9.82462e-11
          9.8241e-11 9.82337e-11 9.82236e-11 9.82098e-11 9.81909e-11 9.81649e-11 9.81293e-11 9.80804e-11 9.80125e-11 9.7917e-11 9.77797e-11 9.75756e-11
          9.69177e-11 9.63783e-11 9.53376e-11 9.27933e-11 8.26765e-11 6.95451e-13
        </DataArray>
        <DataArray type="Float32" Name="X^w_H2O" NumberOfComponents="1" format="ascii">
          0.999853 0.999853 0.999853 0.999853 0.999853 0.999853 0.999853 0.999853 0.999853 0.999853 0.999853 0.999853
          0.999853 0.999853 0.999853 0.999853 0.999853 0.999853 0.999853 0.999853 0.999853 0.999853 0.999853 0.999853
          0.999853 0.999852 0.99985 0.999846 0.999839 0.99984
        </DataArray>
        <DataArray type="Float32" Name="X^w_Air" NumberOfComponents="1" format="ascii">
          0 0 0 0 0 0 0 0 0 0 0 0
          0 0 0 0 0 0 0 0 0 0 0 0
          0 0 0 0 0 0
        </DataArray>
        <DataArray type="Float32" Name="X^w_AuComplex" NumberOfComponents="1" format="ascii">
          1.44521e-16 1.44267e-16 1.44737e-16 1.448e-16 1.44773e-16 1.44707e-16 1.44746e-16 1.44712e-16 1.44766e-16 1.44747e-16 1.44749e-16 1.4473e-16
          1.44706e-16 1.44626e-16 1.44725e-16 1.44718e-16 1.44709e-16 1.44708e-16 1.44687e-16 1.44679e-16 1.4467e-16 1.44659e-16 1.57444e-16 2.94031e-14
          6.89248e-11 1.07495e-10 1.84565e-10 3.64136e-10 1.8471e-15 1.79867e-15
        </DataArray>
        <DataArray type="Float32" Name="X^w_nanoAu" NumberOfComponents="1" format="ascii">
          3.48569e-19 3.47881e-19 3.4919e-19 3.49366e-19 3.49294e-19 3.49116e-19 3.49227e-19 3.49137e-19 3.49288e-19 3.49238e-19 3.49247e-19 3.49197e-19
          3.49137e-19 3.48938e-19 3.49196e-19 3.49182e-19 3.49162e-19 3.49166e-19 3.49119e-19 3.49113e-19 3.49485e-19 4.05425e-19 8.59754e-18 1.20356e-15
          1.65942e-13 2.10855e-13 2.80903e-13 3.96121e-13 1.30539e-18 1.26241e-18
        </DataArray>
        <DataArray type="Float32" Name="X^w_cyanide" NumberOfComponents="1" format="ascii">
          5.07445e-06 5.0744e-06 5.07436e-06 5.07432e-06 5.07427e-06 5.07423e-06 5.07419e-06 5.07414e-06 5.0741e-06 5.07405e-06 5.07401e-06 5.07396e-06
          5.07391e-06 5.07385e-06 5.07379e-06 5.07371e-06 5.07363e-06 5.07352e-06 5.07338e-06 5.07319e-06 5.07294e-06 5.07258e-06 5.07204e-06 5.07122e-06
          5.07038e-06 6.44037e-06 8.57608e-06 1.22402e-05 1.94571e-05 1.92243e-05
        </DataArray>
        <DataArray type="Float32" Name="X^w_citrate" NumberOfComponents="1" format="ascii">
          0.000141796 0.000141796 0.000141796 0.000141796 0.000141796 0.000141796 0.000141796 0.000141796 0.000141796 0.000141796 0.000141796 0.000141796
          0.000141796 0.000141796 0.000141795 0.000141795 0.000141795 0.000141794 0.000141794 0.000141792 0.000141791 0.000141788 0.000141785 0.000141779
          0.00014177 0.000141754 0.000141722 0.000141648 0.000141404 0.000139712
        </DataArray>
        <DataArray type="Float32" Name="X^w_substrate" NumberOfComponents="1" format="ascii">
          3.87168e-12 5.42944e-12 7.61351e-12 1.06756e-11 1.49686e-11 2.09873e-11 2.94262e-11 4.12596e-11 5.78562e-11 8.11406e-11 1.13823e-10 1.59728e-10
          2.24268e-10 3.15134e-10 4.43313e-10 6.2461e-10 8.81978e-10 1.24917e-09 1.77659e-09 2.54116e-09 3.66333e-09 5.33836e-09 7.89708e-09 1.19333e-08
          1.85977e-08 3.03661e-08 5.34229e-08 1.07116e-07 2.80113e-07 1.4733e-06
        </DataArray>
        <DataArray type="Float32" Name="m^w_H2O" NumberOfComponents="1" format="ascii">
          55492.6 55492.6 55492.5 55492.5 55492.5 55492.5 55492.5 55492.5 55492.5 55492.5 55492.5 55492.5
          55492.5 55492.4 55492.4 55492.4 55492.4 55492.4 55492.4 55492.4 55492.4 55492.4 55492.4 55492.4
          55492.3 55492.3 55492.1 55491.9 55491.5 55491.6
        </DataArray>
        <DataArray type="Float32" Name="m^w_Air" NumberOfComponents="1" format="ascii">
          0 0 0 0 0 0 0 0 0 0 0 0
          0 0 0 0 0 0 0 0 0 0 0 0
          0 0 0 0 0 0
        </DataArray>
        <DataArray type="Float32" Name="m^w_AuComplex" NumberOfComponents="1" format="ascii">
          7.33614e-13 7.32325e-13 7.34711e-13 7.3503e-13 7.34894e-13 7.34557e-13 7.34758e-13 7.34582e-13 7.3486e-13 7.34761e-13 7.34773e-13 7.34672e-13
          7.34552e-13 7.34145e-13 7.3465e-13 7.34614e-13 7.34565e-13 7.34562e-13 7.34453e-13 7.34416e-13 7.34371e-13 7.34315e-13 7.9921e-13 1.49255e-10
          3.49873e-07 5.45661e-07 9.36883e-07 1.84841e-06 9.37619e-12 9.13035e-12
        </DataArray>
        <DataArray type="Float32" Name="m^w_nanoAu" NumberOfComponents="1" format="ascii">
          1.7694e-15 1.76591e-15 1.77255e-15 1.77345e-15 1.77308e-15 1.77217e-15 1.77274e-15 1.77228e-15 1.77305e-15 1.77279e-15 1.77284e-15 1.77259e-15
          1.77228e-15 1.77127e-15 1.77258e-15 1.77251e-15 1.77241e-15 1.77243e-15 1.77219e-15 1.77216e-15 1.77404e-15 2.058e-15 4.36425e-14 6.10947e-12
          8.42348e-10 1.07033e-09 1.42591e-09 2.01077e-09 6.62639e-15 6.40821e-15
        </DataArray>
        <DataArray type="Float32" Name="m^w_cyanide" NumberOfComponents="1" format="ascii">
          0.194993 0.194991 0.194989 0.194988 0.194986 0.194984 0.194983 0.194981 0.194979 0.194977 0.194976 0.194974
          0.194972 0.19497 0.194967 0.194964 0.194961 0.194957 0.194951 0.194944 0.194934 0.19492 0.1949 0.194868
          0.194836 0.247479 0.329547 0.470345 0.747664 0.738718
        </DataArray>
        <DataArray type="Float32" Name="m^w_citrate" NumberOfComponents="1" format="ascii">
          0.749742 0.749742 0.749742 0.749742 0.749742 0.749742 0.749741 0.749741 0.749741 0.749741 0.74974 0.74974
          0.749739 0.749738 0.749737 0.749736 0.749734 0.749731 0.749727 0.749721 0.749713 0.7497 0.749681 0.74965
          0.7496 0.749517 0.74935 0.748955 0.747667 0.73872
        </DataArray>
        <DataArray type="Float32" Name="m^w_substrate" NumberOfComponents="1" format="ascii">
          2.14871e-08 3.01324e-08 4.22536e-08 5.92475e-08 8.30727e-08 1.16476e-07 1.6331e-07 2.28983e-07 3.21091e-07 4.50315e-07 6.31695e-07 8.86458e-07
          1.24464e-06 1.74893e-06 2.4603e-06 3.46646e-06 4.89481e-06 6.93263e-06 9.85975e-06 1.4103e-05 2.03308e-05 2.96268e-05 4.38272e-05 6.62273e-05
          0.000103214 0.000168526 0.000296486 0.000594472 0.00155457 0.00817653
        </DataArray>
        <DataArray type="Float32" Name="process rank" NumberOfComponents="1" format="ascii">
          0 0 0 0 0 0 0 0 0 0 0 0
          0 0 0 0 0 0 0 0 0 0 0 0
          0 0 0 0 0 0
        </DataArray>
      </CellData>
      <Points>
        <DataArray type="Float32" Name="Coordinates" NumberOfComponents="3" format="ascii">
          0 0 0 0.5 0 0 0 0.0333333 0 0.5 0.0333333 0
          0 0.0666667 0 0.5 0.0666667 0 0 0.1 0 0.5 0.1 0
          0 0.133333 0 0.5 0.133333 0 0 0.166667 0 0.5 0.166667 0
          0 0.2 0 0.5 0.2 0 0 0.233333 0 0.5 0.233333 0
          0 0.266667 0 0.5 0.266667 0 0 0.3 0 0.5 0.3 0
          0 0.333333 0 0.5 0.333333 0 0 0.366667 0 0.5 0.366667 0
          0 0.4 0 0.5 0.4 0 0 0.433333 0 0.5 0.433333 0
          0 0.466667 0 0.5 0.466667 0 0 0.5 0 0.5 0.5 0
          0 0.533333 0 0.5 0.533333 0 0 0.566667 0 0.5 0.566667 0
          0 0.6 0 0.5 0.6 0 0 0.633333 0 0.5 0.633333 0
          0 0.666667 0 0.5 0.666667 0 0 0.7 0 0.5 0.7 0
          0 0.733333 0 0.5 0.733333 0 0 0.766667 0 0.5 0.766667 0
          0 0.8 0 0.5 0.8 0 0 0.833333 0 0.5 0.833333 0
          0 0.866667 0 0.5 0.866667 0 0 0.9 0 0.5 0.9 0
          0 0.933333 0 0.5 0.933333 0 0 0.966667 0 0.5 0.966667 0
          0 1 0 0.5 1 0
        </DataArray>
      </Points>
      <Cells>
        <DataArray type="Int32" Name="connectivity" NumberOfComponents="1" format="ascii">
          0 1 3 2 2 3 5 4 4 5 7 6
          6 7 9 8 8 9 11 10 10 11 13 12
          12 13 15 14 14 15 17 16 16 17 19 18
          18 19 21 20 20 21 23 22 22 23 25 24
          24 25 27 26 26 27 29 28 28 29 31 30
          30 31 33 32 32 33 35 34 34 35 37 36
          36 37 39 38 38 39 41 40 40 41 43 42
          42 43 45 44 44 45 47 46 46 47 49 48
          48 49 51 50 50 51 53 52 52 53 55 54
          54 55 57 56 56 57 59 58 58 59 61 60
        </DataArray>
        <DataArray type="Int32" Name="offsets" NumberOfComponents="1" format="ascii">
          4 8 12 16 20 24 28 32 36 40 44 48
          52 56 60 64 68 72 76 80 84 88 92 96
          100 104 108 112 116 120
        </DataArray>
        <DataArray type="UInt8" Name="types" NumberOfComponents="1" format="ascii">
          9 9 9 9 9 9 9 9 9 9 9 9
          9 9 9 9 9 9 9 9 9 9 9 9
          9 9 9 9 9 9
        </DataArray>
      </Cells>
    </Piece>
  </UnstructuredGrid>
</VTKFile>
