<?xml version="1.0"?>
<VTKFile type="UnstructuredGrid" version="0.1" byte_order="LittleEndian">
  <UnstructuredGrid>
    <Piece NumberOfCells="30" NumberOfPoints="62">
      <CellData Scalars="Sg">
        <DataArray type="Float32" Name="Sg" NumberOfComponents="1" format="ascii">
          0 0 0 0 0 0 0 0 0 0 0 0
          0 0 0 0 0 0 0 0 0 0 0 0
          0 0 0 0 0 0
        </DataArray>
        <DataArray type="Float32" Name="Sl" NumberOfComponents="1" format="ascii">
          1 1 1 1 1 1 1 1 1 1 1 1
          1 1 1 1 1 1 1 1 1 1 1 1
          1 1 1 1 1 1
        </DataArray>
        <DataArray type="Float32" Name="pg" NumberOfComponents="1" format="ascii">
          24687.8 24360.9 24034 23707 23380.1 23053.1 22726.2 22399.3 22072.3 21745.4 21418.4 21091.5
          20764.6 20437.6 20110.7 19783.7 19456.8 19129.9 18802.9 18476 18149 17822.1 17495.1 17168.2
          16841.3 16514.3 16187.4 15860.4 15533.5 15208.4
        </DataArray>
        <DataArray type="Float32" Name="pl" NumberOfComponents="1" format="ascii">
          110628 110301 109974 109647 109320 108993 108666 108339 108012 107685 107358 107031
          106704 106377 106050 105723 105396 105070 104743 104416 104089 103762 103435 103108
          102781 102454 102127 101800 101473 101148
        </DataArray>
        <DataArray type="Float32" Name="pc" NumberOfComponents="1" format="ascii">
          -85939.7 -85939.7 -85939.7 -85939.7 -85939.7 -85939.7 -85939.7 -85939.7 -85939.7 -85939.7 -85939.7 -85939.7
          -85939.7 -85939.7 -85939.7 -85939.7 -85939.7 -85939.7 -85939.7 -85939.7 -85939.7 -85939.7 -85939.7 -85939.7
          -85939.7 -85939.7 -85939.7 -85939.7 -85939.7 -85939.7
        </DataArray>
        <DataArray type="Float32" Name="rhoL" NumberOfComponents="1" format="ascii">
          999.855 999.855 999.855 999.855 999.855 999.854 999.854 999.854 999.854 999.854 999.854 999.854
          999.853 999.853 999.853 999.853 999.853 999.853 999.852 999.852 999.852 999.852 999.852 999.852
          999.852 999.851 999.851 999.851 999.851 999.851
        </DataArray>
        <DataArray type="Float32" Name="rhoG" NumberOfComponents="1" format="ascii">
          0.30585 0.3018 0.29775 0.293699 0.289649 0.285598 0.281548 0.277498 0.273447 0.269397 0.265347 0.261296
          0.257246 0.253195 0.249145 0.245095 0.241044 0.236994 0.232944 0.228893 0.224843 0.220793 0.216742 0.212692
          0.208641 0.204591 0.200541 0.19649 0.19244 0.188413
        </DataArray>
        <DataArray type="Float32" Name="mobL" NumberOfComponents="1" format="ascii">
          722.171 722.17 722.17 722.17 722.17 722.17 722.169 722.169 722.169 722.169 722.169 722.169
          722.168 722.168 722.168 722.168 722.168 722.167 722.167 722.167 722.167 722.167 722.166 722.166
          722.166 722.166 722.166 722.166 722.165 722.165
        </DataArray>
        <DataArray type="Float32" Name="mobG" NumberOfComponents="1" format="ascii">
          0 0 0 0 0 0 0 0 0 0 0 0
          0 0 0 0 0 0 0 0 0 0 0 0
          0 0 0 0 0 0
        </DataArray>
        <DataArray type="Float32" Name="porosity" NumberOfComponents="1" format="ascii">
          0.298699 0.298699 0.298699 0.298699 0.298698 0.298698 0.298697 0.298696 0.298695 0.298693 0.29869 0.298687
          0.298682 0.298675 0.298666 0.298654 0.298637 0.298614 0.298584 0.298543 0.298486 0.298406 0.298293 0.298124
          0.297591 0.297142 0.296263 0.294043 0.284218 0.0528479
        </DataArray>
        <DataArray type="Float32" Name="temperature" NumberOfComponents="1" format="ascii">
          281.15 281.15 281.15 281.15 281.15 281.15 281.15 281.15 281.15 281.15 281.15 281.15
          281.15 281.15 281.15 281.15 281.15 281.15 281.15 281.15 281.15 281.15 281.15 281.15
          281.15 281.15 281.15 281.15 281.15 281.15
        </DataArray>
        <DataArray type="Float32" Name="phase presence" NumberOfComponents="1" format="ascii">
          1 1 1 1 1 1 1 1 1 1 1 1
          1 1 1 1 1 1 1 1 1 1 1 1
          1 1 1 1 1 1
        </DataArray>
        <DataArray type="Float32" Name="precipitateVolumeFraction_au" NumberOfComponents="1" format="ascii">
          5.52767e-10 5.52738e-10 5.52787e-10 5.52732e-10 5.52729e-10 5.52778e-10 5.52757e-10 5.52821e-10 5.52743e-10 5.5277e-10 5.52733e-10 5.52753e-10
          5.52791e-10 5.5275e-10 5.52744e-10 5.52694e-10 5.52715e-10 5.52753e-10 5.52772e-10 5.52713e-10 5.52766e-10 5.52699e-10 5.5339e-10 9.97268e-10
          0.00026994 0.000269924 0.000269899 0.000269853 5.52487e-10 5.50879e-10
        </DataArray>
        <DataArray type="Float32" Name="precipitateVolumeFraction_nanoAu" NumberOfComponents="1" format="ascii">
          1.23886e-13 1.23879e-13 1.2389e-13 1.23876e-13 1.23875e-13 1.23886e-13 1.23881e-13 1.23895e-13 1.23876e-13 1.23882e-13 1.23873e-13 1.23877e-13
          1.23884e-13 1.23874e-13 1.23872e-13 1.23859e-13 1.23862e-13 1.23868e-13 1.23869e-13 1.23851e-13 1.23861e-13 1.24208e-13 1.68705e-13 2.87559e-11
          6.04468e-08 7.6736e-08 1.02112e-07 1.4529e-07 4.72385e-13 4.64738e-13
        </DataArray>
        <DataArray type="Float32" Name="precipitateVolumeFraction_d" NumberOfComponents="1" format="ascii">
          0.000650296 0.000650363 0.000650456 0.000650586 0.00065077 0.000651027 0.000651386 0.000651885 0.000652579 0.000653537 0.000654856 0.000656666
          0.000659136 0.000662497 0.000667055 0.000673217 0.000681538 0.000692774 0.000707982 0.00072868 0.000757124 0.000796831 0.000853606 0.000937766
          0.0010695 0.00129406 0.00173336 0.00284359 0.00789108 0.123576
        </DataArray>
        <DataArray type="Float32" Name="precipitateVolumeFraction_p" NumberOfComponents="1" format="ascii">
          0.000650296 0.000650363 0.000650456 0.000650586 0.00065077 0.000651027 0.000651386 0.000651885 0.000652579 0.000653537 0.000654856 0.000656666
          0.000659136 0.000662497 0.000667055 0.000673217 0.000681538 0.000692774 0.000707982 0.00072868 0.000757124 0.000796831 0.000853606 0.000937766
          0.0010695 0.00129406 0.00173336 0.00284359 0.00789108 0.123576
        </DataArray>
        <DataArray type="Float32" Name="K" NumberOfComponents="1" format="ascii">
          9.83393e-11 9.83391e-11 9.83389e-11 9.83385e-11 9.83381e-11 9.83374e-11 9.83365e-11 9.83352e-11 9.83335e-11 9.83311e-11 9.83277e-11 9.83231e-11
          9.83169e-11 9.83083e-11 9.82968e-11 9.82812e-11 9.82601e-11 9.82316e-11 9.81931e-11 9.81406e-11 9.80686e-11 9.79682e-11 9.78247e-11 9.76124e-11
          9.69419e-11 9.63804e-11 9.52896e-11 9.25779e-11 8.13251e-11 2.9859e-13
        </DataArray>
        <DataArray type="Float32" Name="X^w_H2O" NumberOfComponents="1" format="ascii">
          0.995758 0.995758 0.995758 0.995758 0.995758 0.995758 0.995758 0.995758 0.995758 0.995758 0.995758 0.995758
          0.995758 0.995758 0.995758 0.995758 0.995759 0.995759 0.995759 0.995759 0.995759 0.995759 0.995759 0.995759
          0.995759 0.995758 0.995757 0.995755 0.995755 0.995804
        </DataArray>
        <DataArray type="Float32" Name="X^w_Air" NumberOfComponents="1" format="ascii">
          0 0 0 0 0 0 0 0 0 0 0 0
          0 0 0 0 0 0 0 0 0 0 0 0
          0 0 0 0 0 0
        </DataArray>
        <DataArray type="Float32" Name="X^w_AuComplex" NumberOfComponents="1" format="ascii">
          1.41502e-16 1.41493e-16 1.41506e-16 1.4149e-16 1.41488e-16 1.41501e-16 1.41494e-16 1.4151e-16 1.41488e-16 1.41494e-16 1.41483e-16 1.41487e-16
          1.41495e-16 1.41483e-16 1.41479e-16 1.41463e-16 1.41465e-16 1.4147e-16 1.41468e-16 1.41444e-16 1.41449e-16 1.41773e-16 1.86763e-16 3.23131e-14
          6.90065e-11 1.07499e-10 1.84276e-10 3.62685e-10 1.82116e-15 1.771e-15
        </DataArray>
        <DataArray type="Float32" Name="X^w_nanoAu" NumberOfComponents="1" format="ascii">
          1.61207e-17 1.61198e-17 1.61212e-17 1.61194e-17 1.61193e-17 1.61207e-17 1.612e-17 1.61218e-17 1.61194e-17 1.61201e-17 1.6119e-17 1.61195e-17
          1.61204e-17 1.61191e-17 1.61187e-17 1.6117e-17 1.61174e-17 1.61181e-17 1.61181e-17 1.6117e-17 1.62316e-17 2.67084e-17 9.88961e-16 8.92153e-14
          7.88751e-12 1.00187e-11 1.33391e-11 1.8682e-11 6.12813e-17 5.89569e-17
        </DataArray>
        <DataArray type="Float32" Name="X^w_cyanide" NumberOfComponents="1" format="ascii">
          5.07738e-06 5.07736e-06 5.07735e-06 5.07733e-06 5.07732e-06 5.0773e-06 5.07729e-06 5.07727e-06 5.07725e-06 5.07723e-06 5.07721e-06 5.07719e-06
          5.07716e-06 5.07713e-06 5.07708e-06 5.07703e-06 5.07696e-06 5.07686e-06 5.07674e-06 5.07656e-06 5.07632e-06 5.07596e-06 5.07544e-06 5.07464e-06
          5.07389e-06 6.44076e-06 8.56924e-06 1.22153e-05 1.93798e-05 1.91512e-05
        </DataArray>
        <DataArray type="Float32" Name="X^w_citrate" NumberOfComponents="1" format="ascii">
          0.00423646 0.00423646 0.00423646 0.00423646 0.00423646 0.00423646 0.00423646 0.00423646 0.00423646 0.00423646 0.00423645 0.00423645
          0.00423645 0.00423644 0.00423644 0.00423643 0.00423642 0.0042364 0.00423637 0.00423634 0.00423629 0.00423621 0.0042361 0.00423593
          0.00423565 0.00423519 0.00423429 0.00423217 0.00422526 0.00417542
        </DataArray>
        <DataArray type="Float32" Name="X^w_substrate" NumberOfComponents="1" format="ascii">
          7.42874e-12 1.01419e-11 1.38451e-11 1.88996e-11 2.57987e-11 3.5216e-11 4.80718e-11 6.56249e-11 8.95982e-11 1.22353e-10 1.67135e-10 2.2841e-10
          3.12354e-10 4.27543e-10 5.85964e-10 8.04506e-10 1.10723e-09 1.52886e-09 2.12046e-09 2.95869e-09 4.16207e-09 5.92037e-09 8.55178e-09 1.26223e-08
          1.92206e-08 3.06765e-08 5.27939e-08 1.03767e-07 2.6806e-07 1.44428e-06
        </DataArray>
        <DataArray type="Float32" Name="m^w_H2O" NumberOfComponents="1" format="ascii">
          55265.3 55265.3 55265.3 55265.3 55265.3 55265.3 55265.2 55265.2 55265.2 55265.2 55265.2 55265.2
          55265.2 55265.2 55265.2 55265.2 55265.2 55265.2 55265.1 55265.1 55265.1 55265.1 55265.1 55265.1
          55265.1 55265.1 55265 55264.9 55264.9 55267.6
        </DataArray>
        <DataArray type="Float32" Name="m^w_Air" NumberOfComponents="1" format="ascii">
          0 0 0 0 0 0 0 0 0 0 0 0
          0 0 0 0 0 0 0 0 0 0 0 0
          0 0 0 0 0 0
        </DataArray>
        <DataArray type="Float32" Name="m^w_AuComplex" NumberOfComponents="1" format="ascii">
          7.18292e-13 7.18245e-13 7.18311e-13 7.18228e-13 7.1822e-13 7.18282e-13 7.18248e-13 7.18329e-13 7.18219e-13 7.18249e-13 7.18194e-13 7.18213e-13
          7.18254e-13 7.18191e-13 7.18172e-13 7.18091e-13 7.181e-13 7.18124e-13 7.18116e-13 7.17993e-13 7.18016e-13 7.19661e-13 9.48038e-13 1.64026e-10
          3.50288e-07 5.45682e-07 9.35417e-07 1.84105e-06 9.24451e-12 8.98985e-12
        </DataArray>
        <DataArray type="Float32" Name="m^w_nanoAu" NumberOfComponents="1" format="ascii">
          8.18318e-14 8.18267e-14 8.18343e-14 8.18251e-14 8.18243e-14 8.18315e-14 8.18281e-14 8.18372e-14 8.1825e-14 8.18286e-14 8.18226e-14 8.18251e-14
          8.183e-14 8.18231e-14 8.18213e-14 8.18128e-14 8.18146e-14 8.18181e-14 8.18184e-14 8.18125e-14 8.23944e-14 1.35576e-13 5.02012e-12 4.52871e-10
          4.00383e-08 5.08565e-08 6.77116e-08 9.48329e-08 3.11073e-13 2.99274e-13
        </DataArray>
        <DataArray type="Float32" Name="m^w_cyanide" NumberOfComponents="1" format="ascii">
          0.195105 0.195105 0.195104 0.195104 0.195103 0.195102 0.195102 0.195101 0.1951 0.1951 0.195099 0.195098
          0.195097 0.195095 0.195094 0.195092 0.195089 0.195085 0.19508 0.195074 0.195064 0.19505 0.19503 0.194999
          0.194971 0.247495 0.329284 0.469387 0.744692 0.73591
        </DataArray>
        <DataArray type="Float32" Name="m^w_citrate" NumberOfComponents="1" format="ascii">
          22.4002 22.4002 22.4002 22.4002 22.4001 22.4001 22.4001 22.4001 22.4001 22.4001 22.4001 22.4001
          22.4001 22.4 22.4 22.3999 22.3999 22.3998 22.3996 22.3994 22.3992 22.3988 22.3982 22.3973
          22.3958 22.3934 22.3886 22.3774 22.3408 22.0773
        </DataArray>
        <DataArray type="Float32" Name="m^w_substrate" NumberOfComponents="1" format="ascii">
          4.12282e-08 5.62855e-08 7.68376e-08 1.04889e-07 1.43178e-07 1.95442e-07 2.6679e-07 3.64206e-07 4.97253e-07 6.79038e-07 9.27566e-07 1.26763e-06
          1.73351e-06 2.37278e-06 3.25199e-06 4.46485e-06 6.14489e-06 8.48489e-06 1.17681e-05 1.64202e-05 2.30987e-05 3.28569e-05 4.74607e-05 7.00511e-05
          0.000106671 0.000170249 0.000292996 0.000575885 0.00148768 0.00801544
        </DataArray>
        <DataArray type="Float32" Name="process rank" NumberOfComponents="1" format="ascii">
          0 0 0 0 0 0 0 0 0 0 0 0
          0 0 0 0 0 0 0 0 0 0 0 0
          0 0 0 0 0 0
        </DataArray>
      </CellData>
      <Points>
        <DataArray type="Float32" Name="Coordinates" NumberOfComponents="3" format="ascii">
          0 0 0 0.5 0 0 0 0.0333333 0 0.5 0.0333333 0
          0 0.0666667 0 0.5 0.0666667 0 0 0.1 0 0.5 0.1 0
          0 0.133333 0 0.5 0.133333 0 0 0.166667 0 0.5 0.166667 0
          0 0.2 0 0.5 0.2 0 0 0.233333 0 0.5 0.233333 0
          0 0.266667 0 0.5 0.266667 0 0 0.3 0 0.5 0.3 0
          0 0.333333 0 0.5 0.333333 0 0 0.366667 0 0.5 0.366667 0
          0 0.4 0 0.5 0.4 0 0 0.433333 0 0.5 0.433333 0
          0 0.466667 0 0.5 0.466667 0 0 0.5 0 0.5 0.5 0
          0 0.533333 0 0.5 0.533333 0 0 0.566667 0 0.5 0.566667 0
          0 0.6 0 0.5 0.6 0 0 0.633333 0 0.5 0.633333 0
          0 0.666667 0 0.5 0.666667 0 0 0.7 0 0.5 0.7 0
          0 0.733333 0 0.5 0.733333 0 0 0.766667 0 0.5 0.766667 0
          0 0.8 0 0.5 0.8 0 0 0.833333 0 0.5 0.833333 0
          0 0.866667 0 0.5 0.866667 0 0 0.9 0 0.5 0.9 0
          0 0.933333 0 0.5 0.933333 0 0 0.966667 0 0.5 0.966667 0
          0 1 0 0.5 1 0
        </DataArray>
      </Points>
      <Cells>
        <DataArray type="Int32" Name="connectivity" NumberOfComponents="1" format="ascii">
          0 1 3 2 2 3 5 4 4 5 7 6
          6 7 9 8 8 9 11 10 10 11 13 12
          12 13 15 14 14 15 17 16 16 17 19 18
          18 19 21 20 20 21 23 22 22 23 25 24
          24 25 27 26 26 27 29 28 28 29 31 30
          30 31 33 32 32 33 35 34 34 35 37 36
          36 37 39 38 38 39 41 40 40 41 43 42
          42 43 45 44 44 45 47 46 46 47 49 48
          48 49 51 50 50 51 53 52 52 53 55 54
          54 55 57 56 56 57 59 58 58 59 61 60
        </DataArray>
        <DataArray type="Int32" Name="offsets" NumberOfComponents="1" format="ascii">
          4 8 12 16 20 24 28 32 36 40 44 48
          52 56 60 64 68 72 76 80 84 88 92 96
          100 104 108 112 116 120
        </DataArray>
        <DataArray type="UInt8" Name="types" NumberOfComponents="1" format="ascii">
          9 9 9 9 9 9 9 9 9 9 9 9
          9 9 9 9 9 9 9 9 9 9 9 9
          9 9 9 9 9 9
        </DataArray>
      </Cells>
    </Piece>
  </UnstructuredGrid>
</VTKFile>
