<?xml version="1.0"?>
<VTKFile type="UnstructuredGrid" version="0.1" byte_order="LittleEndian">
  <UnstructuredGrid>
    <Piece NumberOfCells="30" NumberOfPoints="62">
      <CellData Scalars="Sg">
        <DataArray type="Float32" Name="Sg" NumberOfComponents="1" format="ascii">
          0 0 0 0 0 0 0 0 0 0 0 0
          0 0 0 0 0 0 0 0 0 0 0 0
          0 0 0 0 0 0
        </DataArray>
        <DataArray type="Float32" Name="Sl" NumberOfComponents="1" format="ascii">
          1 1 1 1 1 1 1 1 1 1 1 1
          1 1 1 1 1 1 1 1 1 1 1 1
          1 1 1 1 1 1
        </DataArray>
        <DataArray type="Float32" Name="pg" NumberOfComponents="1" format="ascii">
          24687.8 24360.9 24034 23707 23380.1 23053.1 22726.2 22399.3 22072.3 21745.4 21418.4 21091.5
          20764.6 20437.6 20110.7 19783.7 19456.8 19129.9 18802.9 18476 18149 17822.1 17495.1 17168.2
          16841.3 16514.3 16187.4 15860.4 15533.5 15209.7
        </DataArray>
        <DataArray type="Float32" Name="pl" NumberOfComponents="1" format="ascii">
          110628 110301 109974 109647 109320 108993 108666 108339 108012 107685 107358 107031
          106704 106377 106050 105723 105396 105070 104743 104416 104089 103762 103435 103108
          102781 102454 102127 101800 101473 101149
        </DataArray>
        <DataArray type="Float32" Name="pc" NumberOfComponents="1" format="ascii">
          -85939.7 -85939.7 -85939.7 -85939.7 -85939.7 -85939.7 -85939.7 -85939.7 -85939.7 -85939.7 -85939.7 -85939.7
          -85939.7 -85939.7 -85939.7 -85939.7 -85939.7 -85939.7 -85939.7 -85939.7 -85939.7 -85939.7 -85939.7 -85939.7
          -85939.7 -85939.7 -85939.7 -85939.7 -85939.7 -85939.7
        </DataArray>
        <DataArray type="Float32" Name="rhoL" NumberOfComponents="1" format="ascii">
          999.855 999.855 999.855 999.855 999.855 999.854 999.854 999.854 999.854 999.854 999.854 999.854
          999.853 999.853 999.853 999.853 999.853 999.853 999.852 999.852 999.852 999.852 999.852 999.852
          999.852 999.851 999.851 999.851 999.851 999.851
        </DataArray>
        <DataArray type="Float32" Name="rhoG" NumberOfComponents="1" format="ascii">
          0.30585 0.3018 0.29775 0.293699 0.289649 0.285598 0.281548 0.277498 0.273447 0.269397 0.265347 0.261296
          0.257246 0.253195 0.249145 0.245095 0.241044 0.236994 0.232944 0.228893 0.224843 0.220793 0.216742 0.212692
          0.208641 0.204591 0.200541 0.19649 0.19244 0.188428
        </DataArray>
        <DataArray type="Float32" Name="mobL" NumberOfComponents="1" format="ascii">
          722.171 722.17 722.17 722.17 722.17 722.17 722.169 722.169 722.169 722.169 722.169 722.169
          722.168 722.168 722.168 722.168 722.168 722.167 722.167 722.167 722.167 722.167 722.166 722.166
          722.166 722.166 722.166 722.166 722.165 722.165
        </DataArray>
        <DataArray type="Float32" Name="mobG" NumberOfComponents="1" format="ascii">
          0 0 0 0 0 0 0 0 0 0 0 0
          0 0 0 0 0 0 0 0 0 0 0 0
          0 0 0 0 0 0
        </DataArray>
        <DataArray type="Float32" Name="porosity" NumberOfComponents="1" format="ascii">
          0.298887 0.298887 0.298887 0.298886 0.298886 0.298886 0.298885 0.298884 0.298883 0.298881 0.298879 0.298876
          0.298871 0.298865 0.298857 0.298846 0.298832 0.298812 0.298785 0.298748 0.298697 0.298626 0.298523 0.29837
          0.297857 0.297435 0.296581 0.294287 0.282599 0.0446626
        </DataArray>
        <DataArray type="Float32" Name="temperature" NumberOfComponents="1" format="ascii">
          281.15 281.15 281.15 281.15 281.15 281.15 281.15 281.15 281.15 281.15 281.15 281.15
          281.15 281.15 281.15 281.15 281.15 281.15 281.15 281.15 281.15 281.15 281.15 281.15
          281.15 281.15 281.15 281.15 281.15 281.15
        </DataArray>
        <DataArray type="Float32" Name="phase presence" NumberOfComponents="1" format="ascii">
          1 1 1 1 1 1 1 1 1 1 1 1
          1 1 1 1 1 1 1 1 1 1 1 1
          1 1 1 1 1 1
        </DataArray>
        <DataArray type="Float32" Name="precipitateVolumeFraction_au" NumberOfComponents="1" format="ascii">
          5.52768e-10 5.52738e-10 5.52787e-10 5.52732e-10 5.52729e-10 5.52778e-10 5.52757e-10 5.52821e-10 5.52743e-10 5.5277e-10 5.52733e-10 5.52753e-10
          5.52791e-10 5.5275e-10 5.52744e-10 5.52694e-10 5.52715e-10 5.52753e-10 5.52773e-10 5.52713e-10 5.52766e-10 5.52705e-10 5.54047e-10 1.41603e-09
          0.000269941 0.000269925 0.0002699 0.000269851 5.52487e-10 5.50868e-10
        </DataArray>
        <DataArray type="Float32" Name="precipitateVolumeFraction_nanoAu" NumberOfComponents="1" format="ascii">
          1.23789e-13 1.23782e-13 1.23793e-13 1.23781e-13 1.2378e-13 1.23791e-13 1.23786e-13 1.23801e-13 1.23783e-13 1.23789e-13 1.2378e-13 1.23784e-13
          1.23792e-13 1.23782e-13 1.2378e-13 1.23768e-13 1.2377e-13 1.23776e-13 1.23777e-13 1.2376e-13 1.23769e-13 1.24116e-13 1.6874e-13 2.88192e-11
          6.04269e-08 7.67142e-08 1.02092e-07 1.45285e-07 4.72494e-13 4.64981e-13
        </DataArray>
        <DataArray type="Float32" Name="precipitateVolumeFraction_d" NumberOfComponents="1" format="ascii">
          0.000556535 0.000556595 0.000556678 0.000556796 0.00055696 0.000557189 0.000557508 0.000557952 0.000558566 0.000559415 0.000560582 0.000562181
          0.000564363 0.000567331 0.000571356 0.000576802 0.000584161 0.000594111 0.000607604 0.000626014 0.000651404 0.000687013 0.000738253 0.000814886
          0.000936383 0.00114757 0.0015744 0.00272169 0.00870032 0.127669
        </DataArray>
        <DataArray type="Float32" Name="precipitateVolumeFraction_p" NumberOfComponents="1" format="ascii">
          0.000556535 0.000556595 0.000556678 0.000556796 0.00055696 0.000557189 0.000557508 0.000557952 0.000558566 0.000559415 0.000560582 0.000562181
          0.000564363 0.000567331 0.000571356 0.000576802 0.000584161 0.000594111 0.000607604 0.000626014 0.000651404 0.000687013 0.000738253 0.000814886
          0.000936383 0.00114757 0.0015744 0.00272169 0.00870032 0.127669
        </DataArray>
        <DataArray type="Float32" Name="K" NumberOfComponents="1" format="ascii">
          9.85773e-11 9.85772e-11 9.85769e-11 9.85766e-11 9.85762e-11 9.85756e-11 9.85748e-11 9.85737e-11 9.85722e-11 9.857e-11 9.8567e-11 9.8563e-11
          9.85574e-11 9.85499e-11 9.85396e-11 9.85258e-11 9.85071e-11 9.84819e-11 9.84476e-11 9.84009e-11 9.83365e-11 9.82462e-11 9.81164e-11 9.79226e-11
          9.7276e-11 9.67464e-11 9.56831e-11 9.28725e-11 7.95834e-11 1.77154e-13
        </DataArray>
        <DataArray type="Float32" Name="X^w_H2O" NumberOfComponents="1" format="ascii">
          0.995758 0.995758 0.995758 0.995758 0.995758 0.995758 0.995758 0.995758 0.995758 0.995758 0.995758 0.995758
          0.995758 0.995758 0.995758 0.995759 0.995759 0.995759 0.995759 0.995759 0.995759 0.995759 0.995759 0.995759
          0.995759 0.995758 0.995757 0.995755 0.995754 0.995802
        </DataArray>
        <DataArray type="Float32" Name="X^w_Air" NumberOfComponents="1" format="ascii">
          0 0 0 0 0 0 0 0 0 0 0 0
          0 0 0 0 0 0 0 0 0 0 0 0
          0 0 0 0 0 0
        </DataArray>
        <DataArray type="Float32" Name="X^w_AuComplex" NumberOfComponents="1" format="ascii">
          1.41368e-16 1.4136e-16 1.41373e-16 1.41359e-16 1.41358e-16 1.4137e-16 1.41365e-16 1.41381e-16 1.41361e-16 1.41367e-16 1.41357e-16 1.41361e-16
          1.4137e-16 1.41358e-16 1.41354e-16 1.41339e-16 1.4134e-16 1.41345e-16 1.41343e-16 1.41318e-16 1.41322e-16 1.41646e-16 1.86775e-16 3.23795e-14
          6.89695e-11 1.07448e-10 1.84215e-10 3.62668e-10 1.82208e-15 1.77269e-15
        </DataArray>
        <DataArray type="Float32" Name="X^w_nanoAu" NumberOfComponents="1" format="ascii">
          1.61081e-17 1.61072e-17 1.61086e-17 1.6107e-17 1.6107e-17 1.61083e-17 1.61078e-17 1.61095e-17 1.61073e-17 1.6108e-17 1.61069e-17 1.61074e-17
          1.61084e-17 1.61071e-17 1.61068e-17 1.61051e-17 1.61054e-17 1.61061e-17 1.61061e-17 1.61049e-17 1.62193e-17 2.66848e-17 9.88172e-16 8.91688e-14
          7.88483e-12 1.00158e-11 1.33368e-11 1.8683e-11 6.13134e-17 5.90155e-17
        </DataArray>
        <DataArray type="Float32" Name="X^w_cyanide" NumberOfComponents="1" format="ascii">
          5.0759e-06 5.07591e-06 5.07591e-06 5.07591e-06 5.07591e-06 5.07591e-06 5.07591e-06 5.0759e-06 5.0759e-06 5.07589e-06 5.07588e-06 5.07586e-06
          5.07584e-06 5.07581e-06 5.07577e-06 5.07571e-06 5.07564e-06 5.07553e-06 5.0754e-06 5.07521e-06 5.07495e-06 5.07458e-06 5.07405e-06 5.07326e-06
          5.07257e-06 6.43931e-06 8.56789e-06 1.22151e-05 1.93854e-05 1.91602e-05
        </DataArray>
        <DataArray type="Float32" Name="X^w_citrate" NumberOfComponents="1" format="ascii">
          0.00423646 0.00423646 0.00423646 0.00423646 0.00423646 0.00423646 0.00423646 0.00423646 0.00423645 0.00423645 0.00423645 0.00423644
          0.00423644 0.00423643 0.00423642 0.00423641 0.00423639 0.00423637 0.00423634 0.0042363 0.00423624 0.00423616 0.00423604 0.00423587
          0.0042356 0.00423518 0.00423438 0.00423254 0.00422648 0.00417739
        </DataArray>
        <DataArray type="Float32" Name="X^w_substrate" NumberOfComponents="1" format="ascii">
          2.04544e-11 2.68624e-11 3.5276e-11 4.63227e-11 6.08269e-11 7.98718e-11 1.04881e-10 1.3773e-10 1.80885e-10 2.37606e-10 3.12201e-10 4.10385e-10
          5.39769e-10 7.10545e-10 9.36452e-10 1.23619e-09 1.63548e-09 2.17028e-09 2.89178e-09 3.87457e-09 5.23071e-09 7.13499e-09 9.87338e-09 1.39437e-08
          2.02859e-08 3.08842e-08 5.06506e-08 9.51068e-08 2.39334e-07 1.398e-06
        </DataArray>
        <DataArray type="Float32" Name="m^w_H2O" NumberOfComponents="1" format="ascii">
          55265.3 55265.3 55265.3 55265.3 55265.3 55265.3 55265.2 55265.2 55265.2 55265.2 55265.2 55265.2
          55265.2 55265.2 55265.2 55265.2 55265.2 55265.2 55265.1 55265.1 55265.1 55265.1 55265.1 55265.1
          55265.1 55265.1 55265 55264.9 55264.8 55267.5
        </DataArray>
        <DataArray type="Float32" Name="m^w_Air" NumberOfComponents="1" format="ascii">
          0 0 0 0 0 0 0 0 0 0 0 0
          0 0 0 0 0 0 0 0 0 0 0 0
          0 0 0 0 0 0
        </DataArray>
        <DataArray type="Float32" Name="m^w_AuComplex" NumberOfComponents="1" format="ascii">
          7.17607e-13 7.1757e-13 7.17634e-13 7.17562e-13 7.17558e-13 7.17621e-13 7.17593e-13 7.17674e-13 7.17571e-13 7.17605e-13 7.17553e-13 7.17575e-13
          7.17618e-13 7.17556e-13 7.17539e-13 7.17459e-13 7.17467e-13 7.17489e-13 7.17479e-13 7.17353e-13 7.17373e-13 7.1902e-13 9.48101e-13 1.64363e-10
          3.501e-07 5.45424e-07 9.35105e-07 1.84096e-06 9.24919e-12 8.99846e-12
        </DataArray>
        <DataArray type="Float32" Name="m^w_nanoAu" NumberOfComponents="1" format="ascii">
          8.17674e-14 8.17632e-14 8.17703e-14 8.17622e-14 8.17617e-14 8.17688e-14 8.17658e-14 8.17749e-14 8.17633e-14 8.17671e-14 8.17614e-14 8.17641e-14
          8.1769e-14 8.17623e-14 8.17606e-14 8.17522e-14 8.17538e-14 8.17572e-14 8.17572e-14 8.17511e-14 8.2332e-14 1.35456e-13 5.01612e-12 4.52635e-10
          4.00247e-08 5.0842e-08 6.76999e-08 9.48381e-08 3.11236e-13 2.99572e-13
        </DataArray>
        <DataArray type="Float32" Name="m^w_cyanide" NumberOfComponents="1" format="ascii">
          0.195049 0.195049 0.195049 0.195049 0.195049 0.195049 0.195049 0.195048 0.195048 0.195048 0.195047 0.195047
          0.195046 0.195045 0.195043 0.195041 0.195038 0.195034 0.195029 0.195021 0.195011 0.194997 0.194977 0.194946
          0.19492 0.247439 0.329232 0.469381 0.744907 0.736255
        </DataArray>
        <DataArray type="Float32" Name="m^w_citrate" NumberOfComponents="1" format="ascii">
          22.4002 22.4002 22.4001 22.4001 22.4001 22.4001 22.4001 22.4001 22.4001 22.4001 22.4001 22.4
          22.4 22.4 22.3999 22.3998 22.3997 22.3996 22.3995 22.3992 22.3989 22.3985 22.3979 22.397
          22.3955 22.3933 22.3891 22.3793 22.3473 22.0877
        </DataArray>
        <DataArray type="Float32" Name="m^w_substrate" NumberOfComponents="1" format="ascii">
          1.13518e-07 1.49081e-07 1.95775e-07 2.57083e-07 3.37578e-07 4.43273e-07 5.82072e-07 7.64374e-07 1.00388e-06 1.31867e-06 1.73266e-06 2.27756e-06
          2.99561e-06 3.94339e-06 5.19713e-06 6.8606e-06 9.0766e-06 1.20447e-05 1.60488e-05 2.15031e-05 2.90294e-05 3.95978e-05 5.47953e-05 7.73845e-05
          0.000112583 0.000171401 0.0002811 0.000527823 0.00132826 0.00775861
        </DataArray>
        <DataArray type="Float32" Name="process rank" NumberOfComponents="1" format="ascii">
          0 0 0 0 0 0 0 0 0 0 0 0
          0 0 0 0 0 0 0 0 0 0 0 0
          0 0 0 0 0 0
        </DataArray>
      </CellData>
      <Points>
        <DataArray type="Float32" Name="Coordinates" NumberOfComponents="3" format="ascii">
          0 0 0 0.5 0 0 0 0.0333333 0 0.5 0.0333333 0
          0 0.0666667 0 0.5 0.0666667 0 0 0.1 0 0.5 0.1 0
          0 0.133333 0 0.5 0.133333 0 0 0.166667 0 0.5 0.166667 0
          0 0.2 0 0.5 0.2 0 0 0.233333 0 0.5 0.233333 0
          0 0.266667 0 0.5 0.266667 0 0 0.3 0 0.5 0.3 0
          0 0.333333 0 0.5 0.333333 0 0 0.366667 0 0.5 0.366667 0
          0 0.4 0 0.5 0.4 0 0 0.433333 0 0.5 0.433333 0
          0 0.466667 0 0.5 0.466667 0 0 0.5 0 0.5 0.5 0
          0 0.533333 0 0.5 0.533333 0 0 0.566667 0 0.5 0.566667 0
          0 0.6 0 0.5 0.6 0 0 0.633333 0 0.5 0.633333 0
          0 0.666667 0 0.5 0.666667 0 0 0.7 0 0.5 0.7 0
          0 0.733333 0 0.5 0.733333 0 0 0.766667 0 0.5 0.766667 0
          0 0.8 0 0.5 0.8 0 0 0.833333 0 0.5 0.833333 0
          0 0.866667 0 0.5 0.866667 0 0 0.9 0 0.5 0.9 0
          0 0.933333 0 0.5 0.933333 0 0 0.966667 0 0.5 0.966667 0
          0 1 0 0.5 1 0
        </DataArray>
      </Points>
      <Cells>
        <DataArray type="Int32" Name="connectivity" NumberOfComponents="1" format="ascii">
          0 1 3 2 2 3 5 4 4 5 7 6
          6 7 9 8 8 9 11 10 10 11 13 12
          12 13 15 14 14 15 17 16 16 17 19 18
          18 19 21 20 20 21 23 22 22 23 25 24
          24 25 27 26 26 27 29 28 28 29 31 30
          30 31 33 32 32 33 35 34 34 35 37 36
          36 37 39 38 38 39 41 40 40 41 43 42
          42 43 45 44 44 45 47 46 46 47 49 48
          48 49 51 50 50 51 53 52 52 53 55 54
          54 55 57 56 56 57 59 58 58 59 61 60
        </DataArray>
        <DataArray type="Int32" Name="offsets" NumberOfComponents="1" format="ascii">
          4 8 12 16 20 24 28 32 36 40 44 48
          52 56 60 64 68 72 76 80 84 88 92 96
          100 104 108 112 116 120
        </DataArray>
        <DataArray type="UInt8" Name="types" NumberOfComponents="1" format="ascii">
          9 9 9 9 9 9 9 9 9 9 9 9
          9 9 9 9 9 9 9 9 9 9 9 9
          9 9 9 9 9 9
        </DataArray>
      </Cells>
    </Piece>
  </UnstructuredGrid>
</VTKFile>
