<?xml version="1.0"?>
<VTKFile type="UnstructuredGrid" version="0.1" byte_order="LittleEndian">
  <UnstructuredGrid>
    <Piece NumberOfCells="30" NumberOfPoints="62">
      <CellData Scalars="Sg">
        <DataArray type="Float32" Name="Sg" NumberOfComponents="1" format="ascii">
          0 0 0 0 0 0 0 0 0 0 0 0
          0 0 0 0 0 0 0 0 0 0 0 0
          0 0 0 0 0 0
        </DataArray>
        <DataArray type="Float32" Name="Sl" NumberOfComponents="1" format="ascii">
          1 1 1 1 1 1 1 1 1 1 1 1
          1 1 1 1 1 1 1 1 1 1 1 1
          1 1 1 1 1 1
        </DataArray>
        <DataArray type="Float32" Name="pg" NumberOfComponents="1" format="ascii">
          24687.8 24360.9 24034 23707 23380.1 23053.1 22726.2 22399.3 22072.3 21745.4 21418.4 21091.5
          20764.6 20437.6 20110.7 19783.7 19456.8 19129.9 18802.9 18476 18149 17822.1 17495.1 17168.2
          16841.3 16514.3 16187.4 15860.4 15533.5 15209.6
        </DataArray>
        <DataArray type="Float32" Name="pl" NumberOfComponents="1" format="ascii">
          110628 110301 109974 109647 109320 108993 108666 108339 108012 107685 107358 107031
          106704 106377 106050 105723 105396 105070 104743 104416 104089 103762 103435 103108
          102781 102454 102127 101800 101473 101149
        </DataArray>
        <DataArray type="Float32" Name="pc" NumberOfComponents="1" format="ascii">
          -85939.7 -85939.7 -85939.7 -85939.7 -85939.7 -85939.7 -85939.7 -85939.7 -85939.7 -85939.7 -85939.7 -85939.7
          -85939.7 -85939.7 -85939.7 -85939.7 -85939.7 -85939.7 -85939.7 -85939.7 -85939.7 -85939.7 -85939.7 -85939.7
          -85939.7 -85939.7 -85939.7 -85939.7 -85939.7 -85939.7
        </DataArray>
        <DataArray type="Float32" Name="rhoL" NumberOfComponents="1" format="ascii">
          999.855 999.855 999.855 999.855 999.855 999.854 999.854 999.854 999.854 999.854 999.854 999.854
          999.853 999.853 999.853 999.853 999.853 999.853 999.852 999.852 999.852 999.852 999.852 999.852
          999.852 999.851 999.851 999.851 999.851 999.851
        </DataArray>
        <DataArray type="Float32" Name="rhoG" NumberOfComponents="1" format="ascii">
          0.30585 0.3018 0.29775 0.293699 0.289649 0.285598 0.281548 0.277498 0.273447 0.269397 0.265347 0.261296
          0.257246 0.253195 0.249145 0.245095 0.241044 0.236994 0.232944 0.228893 0.224843 0.220793 0.216742 0.212692
          0.208641 0.204591 0.200541 0.19649 0.19244 0.188428
        </DataArray>
        <DataArray type="Float32" Name="mobL" NumberOfComponents="1" format="ascii">
          722.171 722.17 722.17 722.17 722.17 722.17 722.169 722.169 722.169 722.169 722.169 722.169
          722.168 722.168 722.168 722.168 722.168 722.167 722.167 722.167 722.167 722.167 722.166 722.166
          722.166 722.166 722.166 722.166 722.165 722.165
        </DataArray>
        <DataArray type="Float32" Name="mobG" NumberOfComponents="1" format="ascii">
          0 0 0 0 0 0 0 0 0 0 0 0
          0 0 0 0 0 0 0 0 0 0 0 0
          0 0 0 0 0 0
        </DataArray>
        <DataArray type="Float32" Name="porosity" NumberOfComponents="1" format="ascii">
          0.298856 0.298856 0.298856 0.298856 0.298855 0.298855 0.298854 0.298853 0.298852 0.29885 0.298848 0.298845
          0.29884 0.298834 0.298826 0.298815 0.2988 0.298779 0.298752 0.298714 0.298662 0.29859 0.298486 0.29833
          0.297813 0.297386 0.296527 0.294241 0.28284 0.0448365
        </DataArray>
        <DataArray type="Float32" Name="temperature" NumberOfComponents="1" format="ascii">
          281.15 281.15 281.15 281.15 281.15 281.15 281.15 281.15 281.15 281.15 281.15 281.15
          281.15 281.15 281.15 281.15 281.15 281.15 281.15 281.15 281.15 281.15 281.15 281.15
          281.15 281.15 281.15 281.15 281.15 281.15
        </DataArray>
        <DataArray type="Float32" Name="phase presence" NumberOfComponents="1" format="ascii">
          1 1 1 1 1 1 1 1 1 1 1 1
          1 1 1 1 1 1 1 1 1 1 1 1
          1 1 1 1 1 1
        </DataArray>
        <DataArray type="Float32" Name="precipitateVolumeFraction_au" NumberOfComponents="1" format="ascii">
          5.52768e-10 5.52738e-10 5.52787e-10 5.52732e-10 5.52729e-10 5.52778e-10 5.52757e-10 5.52821e-10 5.52743e-10 5.5277e-10 5.52733e-10 5.52753e-10
          5.52791e-10 5.5275e-10 5.52744e-10 5.52694e-10 5.52715e-10 5.52753e-10 5.52773e-10 5.52713e-10 5.52766e-10 5.52704e-10 5.53931e-10 1.34215e-09
          0.000269941 0.000269925 0.0002699 0.000269851 5.52487e-10 5.5087e-10
        </DataArray>
        <DataArray type="Float32" Name="precipitateVolumeFraction_nanoAu" NumberOfComponents="1" format="ascii">
          1.23789e-13 1.23783e-13 1.23794e-13 1.23782e-13 1.23781e-13 1.23792e-13 1.23787e-13 1.23801e-13 1.23784e-13 1.23789e-13 1.23781e-13 1.23785e-13
          1.23793e-13 1.23783e-13 1.23781e-13 1.23768e-13 1.23771e-13 1.23777e-13 1.23779e-13 1.23761e-13 1.23771e-13 1.24118e-13 1.6871e-13 2.88038e-11
          6.04278e-08 7.67153e-08 1.02093e-07 1.45285e-07 4.7248e-13 4.64977e-13
        </DataArray>
        <DataArray type="Float32" Name="precipitateVolumeFraction_d" NumberOfComponents="1" format="ascii">
          0.000571982 0.000572042 0.000572127 0.000572246 0.000572413 0.000572646 0.000572971 0.000573423 0.00057405 0.000574915 0.000576105 0.000577737
          0.000579964 0.000582994 0.000587103 0.000592662 0.000600175 0.000610331 0.0006241 0.00064288 0.000668766 0.000705045 0.000757199 0.000835087
          0.000958325 0.00117188 0.00160127 0.00274435 0.00857994 0.127582
        </DataArray>
        <DataArray type="Float32" Name="precipitateVolumeFraction_p" NumberOfComponents="1" format="ascii">
          0.000571982 0.000572042 0.000572127 0.000572246 0.000572413 0.000572646 0.000572971 0.000573423 0.00057405 0.000574915 0.000576105 0.000577737
          0.000579964 0.000582994 0.000587103 0.000592662 0.000600175 0.000610331 0.0006241 0.00064288 0.000668766 0.000705045 0.000757199 0.000835087
          0.000958325 0.00117188 0.00160127 0.00274435 0.00857994 0.127582
        </DataArray>
        <DataArray type="Float32" Name="K" NumberOfComponents="1" format="ascii">
          9.85381e-11 9.85379e-11 9.85377e-11 9.85374e-11 9.8537e-11 9.85364e-11 9.85355e-11 9.85344e-11 9.85328e-11 9.85306e-11 9.85276e-11 9.85234e-11
          9.85178e-11 9.85101e-11 9.84997e-11 9.84855e-11 9.84665e-11 9.84407e-11 9.84057e-11 9.83581e-11 9.82924e-11 9.82005e-11 9.80684e-11 9.78715e-11
          9.72209e-11 9.66856e-11 9.56165e-11 9.28177e-11 7.98405e-11 1.79296e-13
        </DataArray>
        <DataArray type="Float32" Name="X^w_H2O" NumberOfComponents="1" format="ascii">
          0.995758 0.995758 0.995758 0.995758 0.995758 0.995758 0.995758 0.995758 0.995758 0.995758 0.995758 0.995758
          0.995758 0.995758 0.995758 0.995759 0.995759 0.995759 0.995759 0.995759 0.995759 0.995759 0.995759 0.995759
          0.995759 0.995758 0.995757 0.995755 0.995754 0.995802
        </DataArray>
        <DataArray type="Float32" Name="X^w_Air" NumberOfComponents="1" format="ascii">
          0 0 0 0 0 0 0 0 0 0 0 0
          0 0 0 0 0 0 0 0 0 0 0 0
          0 0 0 0 0 0
        </DataArray>
        <DataArray type="Float32" Name="X^w_AuComplex" NumberOfComponents="1" format="ascii">
          1.41368e-16 1.41361e-16 1.41374e-16 1.4136e-16 1.41359e-16 1.41371e-16 1.41366e-16 1.41382e-16 1.41362e-16 1.41368e-16 1.41358e-16 1.41362e-16
          1.41371e-16 1.41359e-16 1.41356e-16 1.4134e-16 1.41342e-16 1.41347e-16 1.41345e-16 1.4132e-16 1.41325e-16 1.41649e-16 1.86743e-16 3.23621e-14
          6.89713e-11 1.07451e-10 1.84218e-10 3.62666e-10 1.82198e-15 1.77266e-15
        </DataArray>
        <DataArray type="Float32" Name="X^w_nanoAu" NumberOfComponents="1" format="ascii">
          1.61081e-17 1.61073e-17 1.61087e-17 1.61071e-17 1.6107e-17 1.61084e-17 1.61078e-17 1.61096e-17 1.61074e-17 1.61081e-17 1.6107e-17 1.61075e-17
          1.61085e-17 1.61072e-17 1.61069e-17 1.61052e-17 1.61056e-17 1.61062e-17 1.61063e-17 1.61051e-17 1.62196e-17 2.66851e-17 9.88177e-16 8.91689e-14
          7.88497e-12 1.0016e-11 1.33369e-11 1.86829e-11 6.13097e-17 5.90143e-17
        </DataArray>
        <DataArray type="Float32" Name="X^w_cyanide" NumberOfComponents="1" format="ascii">
          5.07592e-06 5.07592e-06 5.07592e-06 5.07592e-06 5.07592e-06 5.07592e-06 5.07592e-06 5.07591e-06 5.07591e-06 5.0759e-06 5.07589e-06 5.07587e-06
          5.07585e-06 5.07583e-06 5.07579e-06 5.07573e-06 5.07566e-06 5.07557e-06 5.07543e-06 5.07525e-06 5.075e-06 5.07463e-06 5.07411e-06 5.07333e-06
          5.07264e-06 6.43939e-06 8.56796e-06 1.22151e-05 1.93848e-05 1.916e-05
        </DataArray>
        <DataArray type="Float32" Name="X^w_citrate" NumberOfComponents="1" format="ascii">
          0.00423646 0.00423646 0.00423646 0.00423646 0.00423646 0.00423646 0.00423646 0.00423646 0.00423646 0.00423645 0.00423645 0.00423645
          0.00423644 0.00423643 0.00423643 0.00423641 0.0042364 0.00423638 0.00423635 0.00423631 0.00423625 0.00423617 0.00423606 0.00423589
          0.00423562 0.00423519 0.00423438 0.00423251 0.00422635 0.00417734
        </DataArray>
        <DataArray type="Float32" Name="X^w_substrate" NumberOfComponents="1" format="ascii">
          1.7103e-11 2.26091e-11 2.98861e-11 3.95035e-11 5.22143e-11 6.90141e-11 9.12208e-11 1.2058e-10 1.59405e-10 2.1077e-10 2.78766e-10 3.68853e-10
          4.88349e-10 6.47111e-10 8.58511e-10 1.14084e-09 1.51944e-09 2.02987e-09 2.72305e-09 3.67355e-09 4.99388e-09 6.86026e-09 9.56213e-09 1.3605e-08
          1.99463e-08 3.06109e-08 5.06166e-08 9.57997e-08 2.42284e-07 1.39895e-06
        </DataArray>
        <DataArray type="Float32" Name="m^w_H2O" NumberOfComponents="1" format="ascii">
          55265.3 55265.3 55265.3 55265.3 55265.3 55265.3 55265.2 55265.2 55265.2 55265.2 55265.2 55265.2
          55265.2 55265.2 55265.2 55265.2 55265.2 55265.2 55265.1 55265.1 55265.1 55265.1 55265.1 55265.1
          55265.1 55265.1 55265 55264.9 55264.8 55267.5
        </DataArray>
        <DataArray type="Float32" Name="m^w_Air" NumberOfComponents="1" format="ascii">
          0 0 0 0 0 0 0 0 0 0 0 0
          0 0 0 0 0 0 0 0 0 0 0 0
          0 0 0 0 0 0
        </DataArray>
        <DataArray type="Float32" Name="m^w_AuComplex" NumberOfComponents="1" format="ascii">
          7.17612e-13 7.17574e-13 7.17638e-13 7.17566e-13 7.17562e-13 7.17625e-13 7.17597e-13 7.17679e-13 7.17576e-13 7.17609e-13 7.17558e-13 7.1758e-13
          7.17623e-13 7.17562e-13 7.17545e-13 7.17467e-13 7.17475e-13 7.17498e-13 7.17489e-13 7.17365e-13 7.17387e-13 7.19034e-13 9.47937e-13 1.64276e-10
          3.50109e-07 5.45437e-07 9.3512e-07 1.84095e-06 9.24865e-12 8.99829e-12
        </DataArray>
        <DataArray type="Float32" Name="m^w_nanoAu" NumberOfComponents="1" format="ascii">
          8.17678e-14 8.17636e-14 8.17706e-14 8.17626e-14 8.17621e-14 8.17692e-14 8.17662e-14 8.17752e-14 8.17637e-14 8.17675e-14 8.17618e-14 8.17645e-14
          8.17695e-14 8.17629e-14 8.17612e-14 8.17528e-14 8.17545e-14 8.1758e-14 8.17581e-14 8.17522e-14 8.23331e-14 1.35458e-13 5.01615e-12 4.52636e-10
          4.00254e-08 5.08428e-08 6.77005e-08 9.48372e-08 3.11218e-13 2.99566e-13
        </DataArray>
        <DataArray type="Float32" Name="m^w_cyanide" NumberOfComponents="1" format="ascii">
          0.195049 0.195049 0.195049 0.195049 0.195049 0.195049 0.195049 0.195049 0.195049 0.195048 0.195048 0.195047
          0.195046 0.195045 0.195044 0.195042 0.195039 0.195035 0.19503 0.195023 0.195013 0.194999 0.194979 0.194949
          0.194923 0.247442 0.329235 0.469379 0.744885 0.736248
        </DataArray>
        <DataArray type="Float32" Name="m^w_citrate" NumberOfComponents="1" format="ascii">
          22.4002 22.4002 22.4002 22.4001 22.4001 22.4001 22.4001 22.4001 22.4001 22.4001 22.4001 22.4
          22.4 22.4 22.3999 22.3999 22.3998 22.3996 22.3995 22.3993 22.399 22.3986 22.3979 22.397
          22.3956 22.3934 22.3891 22.3792 22.3466 22.0875
        </DataArray>
        <DataArray type="Float32" Name="m^w_substrate" NumberOfComponents="1" format="ascii">
          9.49185e-08 1.25476e-07 1.65862e-07 2.19237e-07 2.89779e-07 3.83015e-07 5.06258e-07 6.69195e-07 8.84668e-07 1.16974e-06 1.5471e-06 2.04707e-06
          2.71024e-06 3.59134e-06 4.76457e-06 6.33146e-06 8.43259e-06 1.12654e-05 1.51124e-05 2.03875e-05 2.7715e-05 3.8073e-05 5.30679e-05 7.55051e-05
          0.000110698 0.000169884 0.000280912 0.000531669 0.00134462 0.00776389
        </DataArray>
        <DataArray type="Float32" Name="process rank" NumberOfComponents="1" format="ascii">
          0 0 0 0 0 0 0 0 0 0 0 0
          0 0 0 0 0 0 0 0 0 0 0 0
          0 0 0 0 0 0
        </DataArray>
      </CellData>
      <Points>
        <DataArray type="Float32" Name="Coordinates" NumberOfComponents="3" format="ascii">
          0 0 0 0.5 0 0 0 0.0333333 0 0.5 0.0333333 0
          0 0.0666667 0 0.5 0.0666667 0 0 0.1 0 0.5 0.1 0
          0 0.133333 0 0.5 0.133333 0 0 0.166667 0 0.5 0.166667 0
          0 0.2 0 0.5 0.2 0 0 0.233333 0 0.5 0.233333 0
          0 0.266667 0 0.5 0.266667 0 0 0.3 0 0.5 0.3 0
          0 0.333333 0 0.5 0.333333 0 0 0.366667 0 0.5 0.366667 0
          0 0.4 0 0.5 0.4 0 0 0.433333 0 0.5 0.433333 0
          0 0.466667 0 0.5 0.466667 0 0 0.5 0 0.5 0.5 0
          0 0.533333 0 0.5 0.533333 0 0 0.566667 0 0.5 0.566667 0
          0 0.6 0 0.5 0.6 0 0 0.633333 0 0.5 0.633333 0
          0 0.666667 0 0.5 0.666667 0 0 0.7 0 0.5 0.7 0
          0 0.733333 0 0.5 0.733333 0 0 0.766667 0 0.5 0.766667 0
          0 0.8 0 0.5 0.8 0 0 0.833333 0 0.5 0.833333 0
          0 0.866667 0 0.5 0.866667 0 0 0.9 0 0.5 0.9 0
          0 0.933333 0 0.5 0.933333 0 0 0.966667 0 0.5 0.966667 0
          0 1 0 0.5 1 0
        </DataArray>
      </Points>
      <Cells>
        <DataArray type="Int32" Name="connectivity" NumberOfComponents="1" format="ascii">
          0 1 3 2 2 3 5 4 4 5 7 6
          6 7 9 8 8 9 11 10 10 11 13 12
          12 13 15 14 14 15 17 16 16 17 19 18
          18 19 21 20 20 21 23 22 22 23 25 24
          24 25 27 26 26 27 29 28 28 29 31 30
          30 31 33 32 32 33 35 34 34 35 37 36
          36 37 39 38 38 39 41 40 40 41 43 42
          42 43 45 44 44 45 47 46 46 47 49 48
          48 49 51 50 50 51 53 52 52 53 55 54
          54 55 57 56 56 57 59 58 58 59 61 60
        </DataArray>
        <DataArray type="Int32" Name="offsets" NumberOfComponents="1" format="ascii">
          4 8 12 16 20 24 28 32 36 40 44 48
          52 56 60 64 68 72 76 80 84 88 92 96
          100 104 108 112 116 120
        </DataArray>
        <DataArray type="UInt8" Name="types" NumberOfComponents="1" format="ascii">
          9 9 9 9 9 9 9 9 9 9 9 9
          9 9 9 9 9 9 9 9 9 9 9 9
          9 9 9 9 9 9
        </DataArray>
      </Cells>
    </Piece>
  </UnstructuredGrid>
</VTKFile>
