<?xml version="1.0"?>
<VTKFile type="UnstructuredGrid" version="0.1" byte_order="LittleEndian">
  <UnstructuredGrid>
    <Piece NumberOfCells="30" NumberOfPoints="62">
      <CellData Scalars="Sg">
        <DataArray type="Float32" Name="Sg" NumberOfComponents="1" format="ascii">
          0 0 0 0 0 0 0 0 0 0 0 0
          0 0 0 0 0 0 0 0 0 0 0 0
          0 0 0 0 0 0
        </DataArray>
        <DataArray type="Float32" Name="Sl" NumberOfComponents="1" format="ascii">
          1 1 1 1 1 1 1 1 1 1 1 1
          1 1 1 1 1 1 1 1 1 1 1 1
          1 1 1 1 1 1
        </DataArray>
        <DataArray type="Float32" Name="pg" NumberOfComponents="1" format="ascii">
          24687.8 24360.9 24034 23707 23380.1 23053.1 22726.2 22399.3 22072.3 21745.4 21418.4 21091.5
          20764.6 20437.6 20110.7 19783.7 19456.8 19129.8 18802.9 18476 18149 17822.1 17495.1 17168.2
          16841.3 16514.3 16187.4 15860.4 15533.5 15209.7
        </DataArray>
        <DataArray type="Float32" Name="pl" NumberOfComponents="1" format="ascii">
          110628 110301 109974 109647 109320 108993 108666 108339 108012 107685 107358 107031
          106704 106377 106050 105723 105396 105070 104743 104416 104089 103762 103435 103108
          102781 102454 102127 101800 101473 101149
        </DataArray>
        <DataArray type="Float32" Name="pc" NumberOfComponents="1" format="ascii">
          -85939.7 -85939.7 -85939.7 -85939.7 -85939.7 -85939.7 -85939.7 -85939.7 -85939.7 -85939.7 -85939.7 -85939.7
          -85939.7 -85939.7 -85939.7 -85939.7 -85939.7 -85939.7 -85939.7 -85939.7 -85939.7 -85939.7 -85939.7 -85939.7
          -85939.7 -85939.7 -85939.7 -85939.7 -85939.7 -85939.7
        </DataArray>
        <DataArray type="Float32" Name="rhoL" NumberOfComponents="1" format="ascii">
          999.855 999.855 999.855 999.855 999.855 999.854 999.854 999.854 999.854 999.854 999.854 999.854
          999.853 999.853 999.853 999.853 999.853 999.853 999.852 999.852 999.852 999.852 999.852 999.852
          999.852 999.851 999.851 999.851 999.851 999.851
        </DataArray>
        <DataArray type="Float32" Name="rhoG" NumberOfComponents="1" format="ascii">
          0.30585 0.3018 0.29775 0.293699 0.289649 0.285598 0.281548 0.277498 0.273447 0.269397 0.265347 0.261296
          0.257246 0.253195 0.249145 0.245095 0.241044 0.236994 0.232944 0.228893 0.224843 0.220793 0.216742 0.212692
          0.208641 0.204591 0.200541 0.19649 0.19244 0.188428
        </DataArray>
        <DataArray type="Float32" Name="mobL" NumberOfComponents="1" format="ascii">
          722.171 722.17 722.17 722.17 722.17 722.17 722.169 722.169 722.169 722.169 722.169 722.169
          722.168 722.168 722.168 722.168 722.168 722.167 722.167 722.167 722.167 722.167 722.166 722.166
          722.166 722.166 722.166 722.166 722.165 722.165
        </DataArray>
        <DataArray type="Float32" Name="mobG" NumberOfComponents="1" format="ascii">
          0 0 0 0 0 0 0 0 0 0 0 0
          0 0 0 0 0 0 0 0 0 0 0 0
          0 0 0 0 0 0
        </DataArray>
        <DataArray type="Float32" Name="porosity" NumberOfComponents="1" format="ascii">
          0.298891 0.298891 0.298891 0.298891 0.29889 0.29889 0.298889 0.298888 0.298887 0.298886 0.298883 0.29888
          0.298876 0.29887 0.298862 0.298851 0.298837 0.298817 0.29879 0.298754 0.298704 0.298633 0.298531 0.298379
          0.297867 0.297447 0.296597 0.294307 0.282591 0.0446319
        </DataArray>
        <DataArray type="Float32" Name="temperature" NumberOfComponents="1" format="ascii">
          281.15 281.15 281.15 281.15 281.15 281.15 281.15 281.15 281.15 281.15 281.15 281.15
          281.15 281.15 281.15 281.15 281.15 281.15 281.15 281.15 281.15 281.15 281.15 281.15
          281.15 281.15 281.15 281.15 281.15 281.15
        </DataArray>
        <DataArray type="Float32" Name="phase presence" NumberOfComponents="1" format="ascii">
          1 1 1 1 1 1 1 1 1 1 1 1
          1 1 1 1 1 1 1 1 1 1 1 1
          1 1 1 1 1 1
        </DataArray>
        <DataArray type="Float32" Name="precipitateVolumeFraction_au" NumberOfComponents="1" format="ascii">
          5.5268e-10 5.52782e-10 5.52765e-10 5.52731e-10 5.52774e-10 5.52767e-10 5.52776e-10 5.52725e-10 5.52761e-10 5.52785e-10 5.52749e-10 5.52716e-10
          5.52748e-10 5.52733e-10 5.52759e-10 5.52736e-10 5.52707e-10 5.52705e-10 5.52737e-10 5.52705e-10 5.52763e-10 5.52752e-10 5.5315e-10 1.34195e-09
          0.000269941 0.000269925 0.0002699 0.000269851 5.52241e-10 5.50888e-10
        </DataArray>
        <DataArray type="Float32" Name="precipitateVolumeFraction_nanoAu" NumberOfComponents="1" format="ascii">
          1.23637e-13 1.2366e-13 1.23656e-13 1.23649e-13 1.23658e-13 1.23657e-13 1.23659e-13 1.23647e-13 1.23655e-13 1.2366e-13 1.23652e-13 1.23644e-13
          1.23651e-13 1.23647e-13 1.23652e-13 1.23645e-13 1.23637e-13 1.23634e-13 1.23638e-13 1.23626e-13 1.23633e-13 1.23637e-13 1.35591e-13 2.58472e-11
          6.03612e-08 7.66826e-08 1.02145e-07 1.4557e-07 4.74232e-13 4.66932e-13
        </DataArray>
        <DataArray type="Float32" Name="precipitateVolumeFraction_d" NumberOfComponents="1" format="ascii">
          0.000554394 0.000554452 0.000554532 0.000554645 0.000554804 0.000555026 0.000555336 0.000555768 0.000556367 0.000557196 0.000558338 0.000559906
          0.000562049 0.00056497 0.000568936 0.00057431 0.000581581 0.000591424 0.000604786 0.000623034 0.000648219 0.000683564 0.000734454 0.000810606
          0.000931412 0.00114155 0.00156672 0.00271174 0.00870464 0.127684
        </DataArray>
        <DataArray type="Float32" Name="precipitateVolumeFraction_p" NumberOfComponents="1" format="ascii">
          0.000554394 0.000554452 0.000554532 0.000554645 0.000554804 0.000555026 0.000555336 0.000555768 0.000556367 0.000557196 0.000558338 0.000559906
          0.000562049 0.00056497 0.000568936 0.00057431 0.000581581 0.000591424 0.000604786 0.000623034 0.000648219 0.000683564 0.000734454 0.000810606
          0.000931412 0.00114155 0.00156672 0.00271174 0.00870464 0.127684
        </DataArray>
        <DataArray type="Float32" Name="K" NumberOfComponents="1" format="ascii">
          9.85827e-11 9.85826e-11 9.85824e-11 9.85821e-11 9.85817e-11 9.85811e-11 9.85804e-11 9.85793e-11 9.85777e-11 9.85756e-11 9.85727e-11 9.85687e-11
          9.85633e-11 9.85559e-11 9.85458e-11 9.85321e-11 9.85137e-11 9.84887e-11 9.84548e-11 9.84084e-11 9.83445e-11 9.82549e-11 9.8126e-11 9.79334e-11
          9.72885e-11 9.67614e-11 9.57021e-11 9.28966e-11 7.95742e-11 1.76777e-13
        </DataArray>
        <DataArray type="Float32" Name="X^w_H2O" NumberOfComponents="1" format="ascii">
          0.999853 0.999853 0.999853 0.999853 0.999853 0.999853 0.999853 0.999853 0.999853 0.999853 0.999853 0.999853
          0.999853 0.999853 0.999853 0.999853 0.999853 0.999853 0.999853 0.999853 0.999853 0.999853 0.999853 0.999853
          0.999853 0.999852 0.99985 0.999846 0.999839 0.99984
        </DataArray>
        <DataArray type="Float32" Name="X^w_Air" NumberOfComponents="1" format="ascii">
          0 0 0 0 0 0 0 0 0 0 0 0
          0 0 0 0 0 0 0 0 0 0 0 0
          0 0 0 0 0 0
        </DataArray>
        <DataArray type="Float32" Name="X^w_AuComplex" NumberOfComponents="1" format="ascii">
          1.41068e-16 1.41094e-16 1.4109e-16 1.41081e-16 1.41092e-16 1.4109e-16 1.41092e-16 1.41079e-16 1.41088e-16 1.41094e-16 1.41084e-16 1.41075e-16
          1.41082e-16 1.41076e-16 1.41081e-16 1.41072e-16 1.41061e-16 1.41055e-16 1.41056e-16 1.41038e-16 1.4104e-16 1.41035e-16 1.54471e-16 2.94621e-14
          6.88322e-11 1.07367e-10 1.844e-10 3.64022e-10 1.83597e-15 1.7871e-15
        </DataArray>
        <DataArray type="Float32" Name="X^w_nanoAu" NumberOfComponents="1" format="ascii">
          5.31311e-19 5.31407e-19 5.3139e-19 5.31359e-19 5.314e-19 5.31392e-19 5.314e-19 5.31352e-19 5.31385e-19 5.31406e-19 5.3137e-19 5.31337e-19
          5.31364e-19 5.31346e-19 5.31365e-19 5.31335e-19 5.31298e-19 5.31283e-19 5.31295e-19 5.31277e-19 5.34749e-19 8.58609e-19 3.12606e-17 2.88052e-15
          2.60098e-13 3.30615e-13 4.40649e-13 6.18325e-13 2.03234e-18 1.9575e-18
        </DataArray>
        <DataArray type="Float32" Name="X^w_cyanide" NumberOfComponents="1" format="ascii">
          5.0705e-06 5.0705e-06 5.0705e-06 5.0705e-06 5.0705e-06 5.0705e-06 5.0705e-06 5.0705e-06 5.07049e-06 5.07048e-06 5.07047e-06 5.07046e-06
          5.07043e-06 5.0704e-06 5.07036e-06 5.07031e-06 5.07023e-06 5.07013e-06 5.06999e-06 5.0698e-06 5.06954e-06 5.06918e-06 5.06865e-06 5.06786e-06
          5.06712e-06 6.43676e-06 8.5725e-06 1.22385e-05 1.94653e-05 1.9239e-05
        </DataArray>
        <DataArray type="Float32" Name="X^w_citrate" NumberOfComponents="1" format="ascii">
          0.000141796 0.000141796 0.000141796 0.000141796 0.000141796 0.000141796 0.000141796 0.000141796 0.000141796 0.000141796 0.000141796 0.000141795
          0.000141795 0.000141795 0.000141795 0.000141794 0.000141794 0.000141793 0.000141792 0.000141791 0.000141789 0.000141786 0.000141782 0.000141776
          0.000141767 0.000141753 0.000141727 0.000141665 0.000141463 0.000139819
        </DataArray>
        <DataArray type="Float32" Name="X^w_substrate" NumberOfComponents="1" format="ascii">
          2.04164e-11 2.68145e-11 3.52155e-11 4.62465e-11 6.07309e-11 7.97509e-11 1.04729e-10 1.37538e-10 1.80643e-10 2.37299e-10 3.1181e-10 4.09884e-10
          5.39121e-10 7.09697e-10 9.35327e-10 1.23467e-09 1.6334e-09 2.16736e-09 2.8876e-09 3.86846e-09 5.2216e-09 7.12109e-09 9.85166e-09 1.39088e-08
          2.02279e-08 3.07832e-08 5.04623e-08 9.47184e-08 2.38419e-07 1.39791e-06
        </DataArray>
        <DataArray type="Float32" Name="m^w_H2O" NumberOfComponents="1" format="ascii">
          55492.6 55492.6 55492.5 55492.5 55492.5 55492.5 55492.5 55492.5 55492.5 55492.5 55492.5 55492.5
          55492.5 55492.4 55492.4 55492.4 55492.4 55492.4 55492.4 55492.4 55492.4 55492.4 55492.4 55492.4
          55492.3 55492.3 55492.1 55491.9 55491.5 55491.6
        </DataArray>
        <DataArray type="Float32" Name="m^w_Air" NumberOfComponents="1" format="ascii">
          0 0 0 0 0 0 0 0 0 0 0 0
          0 0 0 0 0 0 0 0 0 0 0 0
          0 0 0 0 0 0
        </DataArray>
        <DataArray type="Float32" Name="m^w_AuComplex" NumberOfComponents="1" format="ascii">
          7.16086e-13 7.16218e-13 7.16196e-13 7.16153e-13 7.16208e-13 7.16198e-13 7.16209e-13 7.16143e-13 7.16187e-13 7.16216e-13 7.16166e-13 7.16119e-13
          7.16155e-13 7.16127e-13 7.16151e-13 7.16105e-13 7.16049e-13 7.16019e-13 7.16025e-13 7.15934e-13 7.15943e-13 7.15916e-13 7.84118e-13 1.49554e-10
          3.49403e-07 5.45011e-07 9.36046e-07 1.84783e-06 9.31969e-12 9.0716e-12
        </DataArray>
        <DataArray type="Float32" Name="m^w_nanoAu" NumberOfComponents="1" format="ascii">
          2.69703e-15 2.69752e-15 2.69743e-15 2.69727e-15 2.69748e-15 2.69744e-15 2.69748e-15 2.69724e-15 2.6974e-15 2.69751e-15 2.69733e-15 2.69716e-15
          2.6973e-15 2.6972e-15 2.6973e-15 2.69715e-15 2.69696e-15 2.69688e-15 2.69694e-15 2.69685e-15 2.71447e-15 4.35844e-15 1.58684e-13 1.4622e-11
          1.3203e-09 1.67826e-09 2.23681e-09 3.13872e-09 1.03165e-14 9.93657e-15
        </DataArray>
        <DataArray type="Float32" Name="m^w_cyanide" NumberOfComponents="1" format="ascii">
          0.194841 0.194841 0.194841 0.194841 0.194841 0.194841 0.194841 0.194841 0.194841 0.19484 0.19484 0.194839
          0.194838 0.194837 0.194835 0.194833 0.19483 0.194826 0.194821 0.194814 0.194804 0.19479 0.194769 0.194739
          0.194711 0.24734 0.329409 0.470278 0.747977 0.739284
        </DataArray>
        <DataArray type="Float32" Name="m^w_citrate" NumberOfComponents="1" format="ascii">
          0.749742 0.749742 0.749742 0.749742 0.749741 0.749741 0.749741 0.74974 0.74974 0.74974 0.749739 0.749738
          0.749737 0.749735 0.749734 0.749731 0.749728 0.749724 0.749719 0.749711 0.749701 0.749686 0.749666 0.749635
          0.749588 0.749514 0.749372 0.749048 0.747979 0.739285
        </DataArray>
        <DataArray type="Float32" Name="m^w_substrate" NumberOfComponents="1" format="ascii">
          1.13307e-07 1.48815e-07 1.9544e-07 2.5666e-07 3.37045e-07 4.42603e-07 5.81227e-07 7.63308e-07 1.00253e-06 1.31697e-06 1.73049e-06 2.27478e-06
          2.99202e-06 3.93868e-06 5.19089e-06 6.85217e-06 9.06503e-06 1.20284e-05 1.60256e-05 2.14692e-05 2.89788e-05 3.95206e-05 5.46747e-05 7.71909e-05
          0.000112261 0.00017084 0.000280055 0.000525668 0.00132318 0.00775812
        </DataArray>
        <DataArray type="Float32" Name="process rank" NumberOfComponents="1" format="ascii">
          0 0 0 0 0 0 0 0 0 0 0 0
          0 0 0 0 0 0 0 0 0 0 0 0
          0 0 0 0 0 0
        </DataArray>
      </CellData>
      <Points>
        <DataArray type="Float32" Name="Coordinates" NumberOfComponents="3" format="ascii">
          0 0 0 0.5 0 0 0 0.0333333 0 0.5 0.0333333 0
          0 0.0666667 0 0.5 0.0666667 0 0 0.1 0 0.5 0.1 0
          0 0.133333 0 0.5 0.133333 0 0 0.166667 0 0.5 0.166667 0
          0 0.2 0 0.5 0.2 0 0 0.233333 0 0.5 0.233333 0
          0 0.266667 0 0.5 0.266667 0 0 0.3 0 0.5 0.3 0
          0 0.333333 0 0.5 0.333333 0 0 0.366667 0 0.5 0.366667 0
          0 0.4 0 0.5 0.4 0 0 0.433333 0 0.5 0.433333 0
          0 0.466667 0 0.5 0.466667 0 0 0.5 0 0.5 0.5 0
          0 0.533333 0 0.5 0.533333 0 0 0.566667 0 0.5 0.566667 0
          0 0.6 0 0.5 0.6 0 0 0.633333 0 0.5 0.633333 0
          0 0.666667 0 0.5 0.666667 0 0 0.7 0 0.5 0.7 0
          0 0.733333 0 0.5 0.733333 0 0 0.766667 0 0.5 0.766667 0
          0 0.8 0 0.5 0.8 0 0 0.833333 0 0.5 0.833333 0
          0 0.866667 0 0.5 0.866667 0 0 0.9 0 0.5 0.9 0
          0 0.933333 0 0.5 0.933333 0 0 0.966667 0 0.5 0.966667 0
          0 1 0 0.5 1 0
        </DataArray>
      </Points>
      <Cells>
        <DataArray type="Int32" Name="connectivity" NumberOfComponents="1" format="ascii">
          0 1 3 2 2 3 5 4 4 5 7 6
          6 7 9 8 8 9 11 10 10 11 13 12
          12 13 15 14 14 15 17 16 16 17 19 18
          18 19 21 20 20 21 23 22 22 23 25 24
          24 25 27 26 26 27 29 28 28 29 31 30
          30 31 33 32 32 33 35 34 34 35 37 36
          36 37 39 38 38 39 41 40 40 41 43 42
          42 43 45 44 44 45 47 46 46 47 49 48
          48 49 51 50 50 51 53 52 52 53 55 54
          54 55 57 56 56 57 59 58 58 59 61 60
        </DataArray>
        <DataArray type="Int32" Name="offsets" NumberOfComponents="1" format="ascii">
          4 8 12 16 20 24 28 32 36 40 44 48
          52 56 60 64 68 72 76 80 84 88 92 96
          100 104 108 112 116 120
        </DataArray>
        <DataArray type="UInt8" Name="types" NumberOfComponents="1" format="ascii">
          9 9 9 9 9 9 9 9 9 9 9 9
          9 9 9 9 9 9 9 9 9 9 9 9
          9 9 9 9 9 9
        </DataArray>
      </Cells>
    </Piece>
  </UnstructuredGrid>
</VTKFile>
