<?xml version="1.0"?>
<VTKFile type="UnstructuredGrid" version="0.1" byte_order="LittleEndian">
  <UnstructuredGrid>
    <Piece NumberOfCells="30" NumberOfPoints="62">
      <CellData Scalars="Sg">
        <DataArray type="Float32" Name="Sg" NumberOfComponents="1" format="ascii">
          0 0 0 0 0 0 0 0 0 0 0 0
          0 0 0 0 0 0 0 0 0 0 0 0
          0 0 0 0 0 0
        </DataArray>
        <DataArray type="Float32" Name="Sl" NumberOfComponents="1" format="ascii">
          1 1 1 1 1 1 1 1 1 1 1 1
          1 1 1 1 1 1 1 1 1 1 1 1
          1 1 1 1 1 1
        </DataArray>
        <DataArray type="Float32" Name="pg" NumberOfComponents="1" format="ascii">
          24687.8 24360.9 24034 23707 23380.1 23053.1 22726.2 22399.3 22072.3 21745.4 21418.4 21091.5
          20764.6 20437.6 20110.7 19783.7 19456.8 19129.9 18802.9 18476 18149 17822.1 17495.2 17168.2
          16841.3 16514.3 16187.4 15860.5 15533.5 15206.6
        </DataArray>
        <DataArray type="Float32" Name="pl" NumberOfComponents="1" format="ascii">
          110628 110301 109974 109647 109320 108993 108666 108339 108012 107685 107358 107031
          106704 106377 106050 105723 105396 105070 104743 104416 104089 103762 103435 103108
          102781 102454 102127 101800 101473 101146
        </DataArray>
        <DataArray type="Float32" Name="pc" NumberOfComponents="1" format="ascii">
          -85939.7 -85939.7 -85939.7 -85939.7 -85939.7 -85939.7 -85939.7 -85939.7 -85939.7 -85939.7 -85939.7 -85939.7
          -85939.7 -85939.7 -85939.7 -85939.7 -85939.7 -85939.7 -85939.7 -85939.7 -85939.7 -85939.7 -85939.7 -85939.7
          -85939.7 -85939.7 -85939.7 -85939.7 -85939.7 -85939.7
        </DataArray>
        <DataArray type="Float32" Name="rhoL" NumberOfComponents="1" format="ascii">
          999.855 999.855 999.855 999.855 999.855 999.854 999.854 999.854 999.854 999.854 999.854 999.854
          999.853 999.853 999.853 999.853 999.853 999.853 999.852 999.852 999.852 999.852 999.852 999.852
          999.852 999.851 999.851 999.851 999.851 999.851
        </DataArray>
        <DataArray type="Float32" Name="rhoG" NumberOfComponents="1" format="ascii">
          0.30585 0.3018 0.29775 0.293699 0.289649 0.285599 0.281548 0.277498 0.273447 0.269397 0.265347 0.261296
          0.257246 0.253196 0.249145 0.245095 0.241044 0.236994 0.232944 0.228893 0.224843 0.220793 0.216742 0.212692
          0.208642 0.204591 0.200541 0.196491 0.19244 0.188391
        </DataArray>
        <DataArray type="Float32" Name="mobL" NumberOfComponents="1" format="ascii">
          722.171 722.17 722.17 722.17 722.17 722.17 722.169 722.169 722.169 722.169 722.169 722.169
          722.168 722.168 722.168 722.168 722.168 722.167 722.167 722.167 722.167 722.167 722.166 722.166
          722.166 722.166 722.166 722.166 722.165 722.165
        </DataArray>
        <DataArray type="Float32" Name="mobG" NumberOfComponents="1" format="ascii">
          0 0 0 0 0 0 0 0 0 0 0 0
          0 0 0 0 0 0 0 0 0 0 0 0
          0 0 0 0 0 0
        </DataArray>
        <DataArray type="Float32" Name="porosity" NumberOfComponents="1" format="ascii">
          0.297002 0.29692 0.296832 0.296736 0.296634 0.296522 0.2964 0.296268 0.296122 0.295961 0.295783 0.295585
          0.295362 0.295111 0.294825 0.294497 0.294116 0.293671 0.293141 0.292503 0.291719 0.290733 0.289461 0.287761
          0.285114 0.281587 0.275901 0.265561 0.243261 0.178201
        </DataArray>
        <DataArray type="Float32" Name="temperature" NumberOfComponents="1" format="ascii">
          281.15 281.15 281.15 281.15 281.15 281.15 281.15 281.15 281.15 281.15 281.15 281.15
          281.15 281.15 281.15 281.15 281.15 281.15 281.15 281.15 281.15 281.15 281.15 281.15
          281.15 281.15 281.15 281.15 281.15 281.15
        </DataArray>
        <DataArray type="Float32" Name="phase presence" NumberOfComponents="1" format="ascii">
          1 1 1 1 1 1 1 1 1 1 1 1
          1 1 1 1 1 1 1 1 1 1 1 1
          1 1 1 1 1 1
        </DataArray>
        <DataArray type="Float32" Name="precipitateVolumeFraction_au" NumberOfComponents="1" format="ascii">
          5.55671e-10 5.52755e-10 5.52734e-10 5.5274e-10 5.52781e-10 5.52726e-10 5.52736e-10 5.52733e-10 5.52763e-10 5.52752e-10 5.52735e-10 5.52761e-10
          5.52781e-10 5.52742e-10 5.52748e-10 5.52699e-10 5.52723e-10 5.52761e-10 5.52691e-10 5.52735e-10 5.52762e-10 5.52741e-10 5.52843e-10 8.27989e-10
          0.000269938 0.000269922 0.000269899 0.000269862 5.52648e-10 5.52059e-10
        </DataArray>
        <DataArray type="Float32" Name="precipitateVolumeFraction_nanoAu" NumberOfComponents="1" format="ascii">
          1.47447e-13 1.46206e-13 1.45837e-13 1.45478e-13 1.4513e-13 1.44754e-13 1.44396e-13 1.44031e-13 1.43671e-13 1.43293e-13 1.42905e-13 1.42517e-13
          1.42111e-13 1.41668e-13 1.4121e-13 1.40701e-13 1.40164e-13 1.39567e-13 1.38857e-13 1.38058e-13 1.37088e-13 1.35878e-13 1.47756e-13 2.83305e-11
          6.30715e-08 7.87238e-08 1.01851e-07 1.37938e-07 4.07685e-13 3.23937e-13
        </DataArray>
        <DataArray type="Float32" Name="precipitateVolumeFraction_d" NumberOfComponents="1" format="ascii">
          0.00149901 0.00154008 0.00158422 0.0016318 0.00168323 0.00173903 0.00179977 0.00186615 0.00193902 0.00201937 0.00210843 0.00220768
          0.00231897 0.00244463 0.00258759 0.00275165 0.00294178 0.00316464 0.00342931 0.00374852 0.00414068 0.0046333 0.00526935 0.00611951
          0.00730789 0.00907145 0.0119146 0.0170844 0.0283696 0.0608994
        </DataArray>
        <DataArray type="Float32" Name="precipitateVolumeFraction_p" NumberOfComponents="1" format="ascii">
          0.00149901 0.00154008 0.00158422 0.0016318 0.00168323 0.00173903 0.00179977 0.00186615 0.00193902 0.00201937 0.00210843 0.00220768
          0.00231897 0.00244463 0.00258759 0.00275165 0.00294178 0.00316464 0.00342931 0.00374852 0.00414068 0.0046333 0.00526935 0.00611951
          0.00730789 0.00907145 0.0119146 0.0170844 0.0283696 0.0608994
        </DataArray>
        <DataArray type="Float32" Name="K" NumberOfComponents="1" format="ascii">
          9.6206e-11 9.61037e-11 9.59939e-11 9.58757e-11 9.5748e-11 9.56097e-11 9.54592e-11 9.5295e-11 9.51151e-11 9.49169e-11 9.46978e-11 9.4454e-11
          9.41812e-11 9.38741e-11 9.35256e-11 9.3127e-11 9.26668e-11 9.21297e-11 9.14953e-11 9.07348e-11 8.98076e-11 8.86539e-11 8.71823e-11 8.52465e-11
          8.2303e-11 7.85095e-11 7.26934e-11 6.30108e-11 4.562e-11 1.52067e-11
        </DataArray>
        <DataArray type="Float32" Name="X^w_H2O" NumberOfComponents="1" format="ascii">
          0.999853 0.999853 0.999853 0.999853 0.999853 0.999853 0.999853 0.999853 0.999853 0.999853 0.999853 0.999853
          0.999853 0.999853 0.999853 0.999853 0.999853 0.999853 0.999853 0.999853 0.999853 0.999853 0.999853 0.999853
          0.999854 0.999853 0.999851 0.999849 0.999846 0.999855
        </DataArray>
        <DataArray type="Float32" Name="X^w_Air" NumberOfComponents="1" format="ascii">
          0 0 0 0 0 0 0 0 0 0 0 0
          0 0 0 0 0 0 0 0 0 0 0 0
          0 0 0 0 0 0
        </DataArray>
        <DataArray type="Float32" Name="X^w_AuComplex" NumberOfComponents="1" format="ascii">
          1.84328e-16 1.82605e-16 1.81955e-16 1.81319e-16 1.80695e-16 1.80037e-16 1.794e-16 1.78751e-16 1.78105e-16 1.77432e-16 1.76739e-16 1.76037e-16
          1.75302e-16 1.74506e-16 1.73672e-16 1.72751e-16 1.71761e-16 1.70653e-16 1.69347e-16 1.67852e-16 1.66037e-16 1.63768e-16 1.76796e-16 3.35736e-14
          7.38608e-11 1.12095e-10 1.83608e-10 3.32506e-10 1.41491e-15 9.34855e-16
        </DataArray>
        <DataArray type="Float32" Name="X^w_nanoAu" NumberOfComponents="1" format="ascii">
          4.04014e-19 4.00607e-19 3.99573e-19 3.98561e-19 3.97575e-19 3.96513e-19 3.95493e-19 3.9445e-19 3.93414e-19 3.92323e-19 3.91197e-19 3.90059e-19
          3.8886e-19 3.87548e-19 3.86174e-19 3.84641e-19 3.83e-19 3.81156e-19 3.78953e-19 3.76443e-19 3.73769e-19 4.27895e-19 8.89433e-18 1.24121e-15
          1.70206e-13 2.11014e-13 2.69739e-13 3.53387e-13 9.89991e-19 6.4246e-19
        </DataArray>
        <DataArray type="Float32" Name="X^w_cyanide" NumberOfComponents="1" format="ascii">
          5.69595e-06 5.68811e-06 5.68029e-06 5.67247e-06 5.66461e-06 5.65671e-06 5.64871e-06 5.64059e-06 5.6323e-06 5.62377e-06 5.61495e-06 5.60573e-06
          5.59601e-06 5.58565e-06 5.57445e-06 5.56216e-06 5.54846e-06 5.53287e-06 5.51474e-06 5.49312e-06 5.46658e-06 5.43293e-06 5.38859e-06 5.32749e-06
          5.23912e-06 6.56794e-06 8.55821e-06 1.17512e-05 1.73195e-05 1.42083e-05
        </DataArray>
        <DataArray type="Float32" Name="X^w_citrate" NumberOfComponents="1" format="ascii">
          0.000141689 0.000141681 0.000141672 0.000141663 0.000141652 0.000141639 0.000141626 0.00014161 0.000141592 0.000141572 0.000141549 0.000141522
          0.000141491 0.000141454 0.000141411 0.000141358 0.000141295 0.000141218 0.000141121 0.000140998 0.000140839 0.000140627 0.000140337 0.000139925
          0.000139309 0.000138333 0.00013665 0.000133385 0.000125869 0.000103258
        </DataArray>
        <DataArray type="Float32" Name="X^w_substrate" NumberOfComponents="1" format="ascii">
          7.57288e-08 8.13259e-08 8.75284e-08 9.44252e-08 1.02122e-07 1.10745e-07 1.20447e-07 1.31414e-07 1.43872e-07 1.58103e-07 1.74455e-07 1.93372e-07
          2.15415e-07 2.41312e-07 2.72015e-07 3.08791e-07 3.53357e-07 4.08085e-07 4.76328e-07 5.62953e-07 6.75242e-07 8.24489e-07 1.02898e-06 1.3199e-06
          1.75391e-06 2.4427e-06 3.63071e-06 5.93338e-06 1.12349e-05 2.71786e-05
        </DataArray>
        <DataArray type="Float32" Name="m^w_H2O" NumberOfComponents="1" format="ascii">
          55492.5 55492.5 55492.5 55492.5 55492.5 55492.5 55492.5 55492.5 55492.5 55492.5 55492.4 55492.4
          55492.4 55492.4 55492.4 55492.4 55492.4 55492.4 55492.4 55492.4 55492.4 55492.4 55492.4 55492.4
          55492.4 55492.3 55492.2 55492.1 55491.9 55492.4
        </DataArray>
        <DataArray type="Float32" Name="m^w_Air" NumberOfComponents="1" format="ascii">
          0 0 0 0 0 0 0 0 0 0 0 0
          0 0 0 0 0 0 0 0 0 0 0 0
          0 0 0 0 0 0
        </DataArray>
        <DataArray type="Float32" Name="m^w_AuComplex" NumberOfComponents="1" format="ascii">
          9.35685e-13 9.26934e-13 9.23638e-13 9.20405e-13 9.1724e-13 9.13902e-13 9.10664e-13 9.07372e-13 9.04091e-13 9.00675e-13 8.97158e-13 8.93594e-13
          8.89861e-13 8.85823e-13 8.81588e-13 8.76911e-13 8.71885e-13 8.66262e-13 8.59635e-13 8.52046e-13 8.42834e-13 8.31314e-13 8.97446e-13 1.70425e-10
          3.74929e-07 5.69013e-07 9.32022e-07 1.68785e-06 7.18229e-12 4.74547e-12
        </DataArray>
        <DataArray type="Float32" Name="m^w_nanoAu" NumberOfComponents="1" format="ascii">
          2.05085e-15 2.03355e-15 2.0283e-15 2.02317e-15 2.01816e-15 2.01277e-15 2.00759e-15 2.0023e-15 1.99704e-15 1.9915e-15 1.98578e-15 1.98e-15
          1.97392e-15 1.96726e-15 1.96029e-15 1.9525e-15 1.94417e-15 1.93481e-15 1.92363e-15 1.91089e-15 1.89731e-15 2.17207e-15 4.5149e-14 6.30056e-12
          8.63994e-10 1.07114e-09 1.36924e-09 1.79385e-09 5.02535e-15 3.26123e-15
        </DataArray>
        <DataArray type="Float32" Name="m^w_cyanide" NumberOfComponents="1" format="ascii">
          0.218875 0.218574 0.218273 0.217972 0.217671 0.217367 0.21706 0.216747 0.216429 0.216101 0.215762 0.215408
          0.215034 0.214636 0.214205 0.213733 0.213207 0.212608 0.211911 0.21108 0.210061 0.208767 0.207064 0.204715
          0.20132 0.252381 0.32886 0.451555 0.665522 0.54597
        </DataArray>
        <DataArray type="Float32" Name="m^w_citrate" NumberOfComponents="1" format="ascii">
          0.749177 0.749134 0.749088 0.749036 0.748978 0.748913 0.74884 0.748758 0.748664 0.748558 0.748435 0.748293
          0.748127 0.747933 0.747703 0.747427 0.747093 0.746682 0.74617 0.745521 0.744678 0.743559 0.742026 0.739844
          0.73659 0.73143 0.722528 0.705268 0.665523 0.545971
        </DataArray>
        <DataArray type="Float32" Name="m^w_substrate" NumberOfComponents="1" format="ascii">
          0.000420281 0.000451344 0.000485767 0.000524043 0.000566758 0.000614615 0.00066846 0.000729323 0.000798464 0.000877439 0.000968194 0.00107318
          0.00119551 0.00133923 0.00150963 0.00171373 0.00196106 0.00226479 0.00264353 0.00312428 0.00374746 0.00457575 0.00571064 0.00732515
          0.00973382 0.0135565 0.0201497 0.032929 0.0623512 0.150835
        </DataArray>
        <DataArray type="Float32" Name="process rank" NumberOfComponents="1" format="ascii">
          0 0 0 0 0 0 0 0 0 0 0 0
          0 0 0 0 0 0 0 0 0 0 0 0
          0 0 0 0 0 0
        </DataArray>
      </CellData>
      <Points>
        <DataArray type="Float32" Name="Coordinates" NumberOfComponents="3" format="ascii">
          0 0 0 0.5 0 0 0 0.0333333 0 0.5 0.0333333 0
          0 0.0666667 0 0.5 0.0666667 0 0 0.1 0 0.5 0.1 0
          0 0.133333 0 0.5 0.133333 0 0 0.166667 0 0.5 0.166667 0
          0 0.2 0 0.5 0.2 0 0 0.233333 0 0.5 0.233333 0
          0 0.266667 0 0.5 0.266667 0 0 0.3 0 0.5 0.3 0
          0 0.333333 0 0.5 0.333333 0 0 0.366667 0 0.5 0.366667 0
          0 0.4 0 0.5 0.4 0 0 0.433333 0 0.5 0.433333 0
          0 0.466667 0 0.5 0.466667 0 0 0.5 0 0.5 0.5 0
          0 0.533333 0 0.5 0.533333 0 0 0.566667 0 0.5 0.566667 0
          0 0.6 0 0.5 0.6 0 0 0.633333 0 0.5 0.633333 0
          0 0.666667 0 0.5 0.666667 0 0 0.7 0 0.5 0.7 0
          0 0.733333 0 0.5 0.733333 0 0 0.766667 0 0.5 0.766667 0
          0 0.8 0 0.5 0.8 0 0 0.833333 0 0.5 0.833333 0
          0 0.866667 0 0.5 0.866667 0 0 0.9 0 0.5 0.9 0
          0 0.933333 0 0.5 0.933333 0 0 0.966667 0 0.5 0.966667 0
          0 1 0 0.5 1 0
        </DataArray>
      </Points>
      <Cells>
        <DataArray type="Int32" Name="connectivity" NumberOfComponents="1" format="ascii">
          0 1 3 2 2 3 5 4 4 5 7 6
          6 7 9 8 8 9 11 10 10 11 13 12
          12 13 15 14 14 15 17 16 16 17 19 18
          18 19 21 20 20 21 23 22 22 23 25 24
          24 25 27 26 26 27 29 28 28 29 31 30
          30 31 33 32 32 33 35 34 34 35 37 36
          36 37 39 38 38 39 41 40 40 41 43 42
          42 43 45 44 44 45 47 46 46 47 49 48
          48 49 51 50 50 51 53 52 52 53 55 54
          54 55 57 56 56 57 59 58 58 59 61 60
        </DataArray>
        <DataArray type="Int32" Name="offsets" NumberOfComponents="1" format="ascii">
          4 8 12 16 20 24 28 32 36 40 44 48
          52 56 60 64 68 72 76 80 84 88 92 96
          100 104 108 112 116 120
        </DataArray>
        <DataArray type="UInt8" Name="types" NumberOfComponents="1" format="ascii">
          9 9 9 9 9 9 9 9 9 9 9 9
          9 9 9 9 9 9 9 9 9 9 9 9
          9 9 9 9 9 9
        </DataArray>
      </Cells>
    </Piece>
  </UnstructuredGrid>
</VTKFile>
