<?xml version="1.0"?>
<VTKFile type="UnstructuredGrid" version="0.1" byte_order="LittleEndian">
  <UnstructuredGrid>
    <Piece NumberOfCells="30" NumberOfPoints="62">
      <CellData Scalars="Sg">
        <DataArray type="Float32" Name="Sg" NumberOfComponents="1" format="ascii">
          0 0 0 0 0 0 0 0 0 0 0 0
          0 0 0 0 0 0 0 0 0 0 0 0
          0 0 0 0 0 0
        </DataArray>
        <DataArray type="Float32" Name="Sl" NumberOfComponents="1" format="ascii">
          1 1 1 1 1 1 1 1 1 1 1 1
          1 1 1 1 1 1 1 1 1 1 1 1
          1 1 1 1 1 1
        </DataArray>
        <DataArray type="Float32" Name="pg" NumberOfComponents="1" format="ascii">
          24687.8 24360.9 24034 23707 23380.1 23053.1 22726.2 22399.3 22072.3 21745.4 21418.4 21091.5
          20764.6 20437.6 20110.7 19783.7 19456.8 19129.9 18802.9 18476 18149 17822.1 17495.2 17168.2
          16841.3 16514.3 16187.4 15860.5 15533.5 15206.6
        </DataArray>
        <DataArray type="Float32" Name="pl" NumberOfComponents="1" format="ascii">
          110628 110301 109974 109647 109320 108993 108666 108339 108012 107685 107358 107031
          106704 106377 106050 105723 105396 105070 104743 104416 104089 103762 103435 103108
          102781 102454 102127 101800 101473 101146
        </DataArray>
        <DataArray type="Float32" Name="pc" NumberOfComponents="1" format="ascii">
          -85939.7 -85939.7 -85939.7 -85939.7 -85939.7 -85939.7 -85939.7 -85939.7 -85939.7 -85939.7 -85939.7 -85939.7
          -85939.7 -85939.7 -85939.7 -85939.7 -85939.7 -85939.7 -85939.7 -85939.7 -85939.7 -85939.7 -85939.7 -85939.7
          -85939.7 -85939.7 -85939.7 -85939.7 -85939.7 -85939.7
        </DataArray>
        <DataArray type="Float32" Name="rhoL" NumberOfComponents="1" format="ascii">
          999.855 999.855 999.855 999.855 999.855 999.854 999.854 999.854 999.854 999.854 999.854 999.854
          999.853 999.853 999.853 999.853 999.853 999.853 999.852 999.852 999.852 999.852 999.852 999.852
          999.852 999.851 999.851 999.851 999.851 999.851
        </DataArray>
        <DataArray type="Float32" Name="rhoG" NumberOfComponents="1" format="ascii">
          0.30585 0.3018 0.29775 0.293699 0.289649 0.285599 0.281548 0.277498 0.273447 0.269397 0.265347 0.261296
          0.257246 0.253196 0.249145 0.245095 0.241044 0.236994 0.232944 0.228893 0.224843 0.220793 0.216742 0.212692
          0.208642 0.204591 0.200541 0.196491 0.19244 0.18839
        </DataArray>
        <DataArray type="Float32" Name="mobL" NumberOfComponents="1" format="ascii">
          722.171 722.17 722.17 722.17 722.17 722.17 722.169 722.169 722.169 722.169 722.169 722.169
          722.168 722.168 722.168 722.168 722.168 722.167 722.167 722.167 722.167 722.167 722.166 722.166
          722.166 722.166 722.166 722.166 722.165 722.165
        </DataArray>
        <DataArray type="Float32" Name="mobG" NumberOfComponents="1" format="ascii">
          0 0 0 0 0 0 0 0 0 0 0 0
          0 0 0 0 0 0 0 0 0 0 0 0
          0 0 0 0 0 0
        </DataArray>
        <DataArray type="Float32" Name="porosity" NumberOfComponents="1" format="ascii">
          0.296859 0.296775 0.296685 0.296588 0.296483 0.29637 0.296247 0.296114 0.295968 0.295808 0.295631 0.295435
          0.295217 0.294973 0.294698 0.294386 0.294029 0.293618 0.293138 0.292574 0.291901 0.291088 0.290089 0.28884
          0.286976 0.284892 0.282102 0.278271 0.273164 0.265533
        </DataArray>
        <DataArray type="Float32" Name="temperature" NumberOfComponents="1" format="ascii">
          281.15 281.15 281.15 281.15 281.15 281.15 281.15 281.15 281.15 281.15 281.15 281.15
          281.15 281.15 281.15 281.15 281.15 281.15 281.15 281.15 281.15 281.15 281.15 281.15
          281.15 281.15 281.15 281.15 281.15 281.15
        </DataArray>
        <DataArray type="Float32" Name="phase presence" NumberOfComponents="1" format="ascii">
          1 1 1 1 1 1 1 1 1 1 1 1
          1 1 1 1 1 1 1 1 1 1 1 1
          1 1 1 1 1 1
        </DataArray>
        <DataArray type="Float32" Name="precipitateVolumeFraction_au" NumberOfComponents="1" format="ascii">
          5.55508e-10 5.52613e-10 5.52595e-10 5.52603e-10 5.52647e-10 5.52594e-10 5.52607e-10 5.52607e-10 5.5264e-10 5.52631e-10 5.52617e-10 5.52647e-10
          5.52671e-10 5.52635e-10 5.52645e-10 5.526e-10 5.52629e-10 5.52672e-10 5.52607e-10 5.52658e-10 5.52692e-10 5.5268e-10 5.52712e-10 6.6799e-10
          0.00026993 0.000269921 0.00026991 0.000269899 5.52826e-10 5.52242e-10
        </DataArray>
        <DataArray type="Float32" Name="precipitateVolumeFraction_nanoAu" NumberOfComponents="1" format="ascii">
          3.10506e-13 2.88164e-13 2.85245e-13 2.82407e-13 2.79627e-13 2.76466e-13 2.73441e-13 2.70291e-13 2.67105e-13 2.6372e-13 2.60191e-13 2.5656e-13
          2.52715e-13 2.48579e-13 2.44202e-13 2.39434e-13 2.34297e-13 2.28632e-13 2.22228e-13 2.15036e-13 2.06723e-13 1.9694e-13 2.01682e-13 3.31467e-11
          7.04757e-08 7.99831e-08 9.05035e-08 1.00962e-07 2.30976e-13 1.42398e-13
        </DataArray>
        <DataArray type="Float32" Name="precipitateVolumeFraction_d" NumberOfComponents="1" format="ascii">
          0.00157055 0.0016126 0.00165768 0.00170616 0.00175842 0.00181495 0.00187628 0.00194307 0.00201608 0.0020962 0.00218454 0.00228238
          0.00239133 0.00251334 0.00265084 0.00280687 0.0029853 0.00319111 0.00343079 0.00371299 0.00404935 0.00445592 0.00495527 0.00557981
          0.00637716 0.00741887 0.00881393 0.0107296 0.0134179 0.0172337
        </DataArray>
        <DataArray type="Float32" Name="precipitateVolumeFraction_p" NumberOfComponents="1" format="ascii">
          0.00157055 0.0016126 0.00165768 0.00170616 0.00175842 0.00181495 0.00187628 0.00194307 0.00201608 0.0020962 0.00218454 0.00228238
          0.00239133 0.00251334 0.00265084 0.00280687 0.0029853 0.00319111 0.00343079 0.00371299 0.00404935 0.00445592 0.00495527 0.00557981
          0.00637716 0.00741887 0.00881393 0.0107296 0.0134179 0.0172337
        </DataArray>
        <DataArray type="Float32" Name="K" NumberOfComponents="1" format="ascii">
          9.60279e-11 9.59234e-11 9.58114e-11 9.56911e-11 9.55616e-11 9.54216e-11 9.527e-11 9.51051e-11 9.49251e-11 9.47278e-11 9.45108e-11 9.42708e-11
          9.40042e-11 9.37064e-11 9.33717e-11 9.29931e-11 9.25617e-11 9.20661e-11 9.14917e-11 9.08192e-11 9.00229e-11 8.90679e-11 8.79065e-11 8.64713e-11
          8.43643e-11 8.206e-11 7.90544e-11 7.50734e-11 7.00215e-11 6.29855e-11
        </DataArray>
        <DataArray type="Float32" Name="X^w_H2O" NumberOfComponents="1" format="ascii">
          0.999849 0.999849 0.999849 0.999849 0.999849 0.999849 0.999849 0.99985 0.99985 0.99985 0.99985 0.99985
          0.99985 0.999851 0.999851 0.999851 0.999851 0.999852 0.999852 0.999852 0.999853 0.999854 0.999855 0.999856
          0.999857 0.999858 0.999858 0.99986 0.999864 0.999877
        </DataArray>
        <DataArray type="Float32" Name="X^w_Air" NumberOfComponents="1" format="ascii">
          0 0 0 0 0 0 0 0 0 0 0 0
          0 0 0 0 0 0 0 0 0 0 0 0
          0 0 0 0 0 0
        </DataArray>
        <DataArray type="Float32" Name="X^w_AuComplex" NumberOfComponents="1" format="ascii">
          6.18498e-16 5.7134e-16 5.60511e-16 5.49927e-16 5.39535e-16 5.28541e-16 5.17866e-16 5.07034e-16 4.96194e-16 4.85045e-16 4.7367e-16 4.62123e-16
          4.5019e-16 4.37709e-16 4.24737e-16 4.10974e-16 3.96405e-16 3.80697e-16 3.63425e-16 3.44402e-16 3.22972e-16 2.98444e-16 2.94375e-16 4.65196e-14
          9.12995e-11 1.20418e-10 1.59683e-10 2.09035e-10 5.50105e-16 2.26247e-16
        </DataArray>
        <DataArray type="Float32" Name="X^w_nanoAu" NumberOfComponents="1" format="ascii">
          8.44235e-19 7.83439e-19 7.75102e-19 7.66948e-19 7.58905e-19 7.49794e-19 7.40995e-19 7.318e-19 7.22438e-19 7.12459e-19 7.01998e-19 6.91149e-19
          6.79593e-19 6.67096e-19 6.53767e-19 6.39163e-19 6.23292e-19 6.0567e-19 5.85666e-19 5.63053e-19 5.37237e-19 5.64938e-19 9.07454e-18 1.25021e-15
          1.70526e-13 1.8578e-13 1.97191e-13 1.9639e-13 3.69063e-19 1.43327e-19
        </DataArray>
        <DataArray type="Float32" Name="X^w_cyanide" NumberOfComponents="1" format="ascii">
          9.77234e-06 9.67882e-06 9.58531e-06 9.49169e-06 9.39782e-06 9.30354e-06 9.20864e-06 9.11286e-06 9.01591e-06 8.91737e-06 8.81679e-06 8.71354e-06
          8.60685e-06 8.49575e-06 8.37896e-06 8.25481e-06 8.12109e-06 7.97481e-06 7.81188e-06 7.62659e-06 7.41077e-06 7.1525e-06 6.83389e-06 6.4273e-06
          5.88944e-06 6.95832e-06 8.27326e-06 9.82175e-06 1.14177e-05 7.21151e-06
        </DataArray>
        <DataArray type="Float32" Name="X^w_citrate" NumberOfComponents="1" format="ascii">
          0.000140649 0.000140583 0.00014051 0.000140429 0.000140339 0.00014024 0.000140128 0.000140002 0.000139861 0.0001397 0.000139516 0.000139306
          0.000139062 0.000138779 0.000138445 0.000138051 0.000137578 0.000137006 0.000136304 0.000135432 0.000134329 0.000132908 0.000131041 0.000128525
          0.000125039 0.000120057 0.000112672 0.000101283 8.29776e-05 5.24093e-05
        </DataArray>
        <DataArray type="Float32" Name="X^w_substrate" NumberOfComponents="1" format="ascii">
          8.10581e-07 8.57286e-07 9.08767e-07 9.65701e-07 1.02889e-06 1.09928e-06 1.17801e-06 1.26648e-06 1.36635e-06 1.47969e-06 1.60903e-06 1.75756e-06
          1.92929e-06 2.1293e-06 2.36419e-06 2.64256e-06 2.97579e-06 3.37925e-06 3.87394e-06 4.48922e-06 5.26699e-06 6.26845e-06 7.58538e-06 9.35956e-06
          1.1817e-05 1.5331e-05 2.05393e-05 2.8571e-05 4.14791e-05 6.30341e-05
        </DataArray>
        <DataArray type="Float32" Name="m^w_H2O" NumberOfComponents="1" format="ascii">
          55492.3 55492.3 55492.3 55492.3 55492.3 55492.3 55492.3 55492.3 55492.3 55492.3 55492.3 55492.3
          55492.3 55492.3 55492.3 55492.3 55492.3 55492.3 55492.3 55492.4 55492.4 55492.4 55492.4 55492.5
          55492.6 55492.6 55492.6 55492.7 55492.9 55493.6
        </DataArray>
        <DataArray type="Float32" Name="m^w_Air" NumberOfComponents="1" format="ascii">
          0 0 0 0 0 0 0 0 0 0 0 0
          0 0 0 0 0 0 0 0 0 0 0 0
          0 0 0 0 0 0
        </DataArray>
        <DataArray type="Float32" Name="m^w_AuComplex" NumberOfComponents="1" format="ascii">
          3.13961e-12 2.90022e-12 2.84526e-12 2.79153e-12 2.73878e-12 2.68297e-12 2.62878e-12 2.5738e-12 2.51877e-12 2.46217e-12 2.40443e-12 2.34582e-12
          2.28524e-12 2.22189e-12 2.15604e-12 2.08617e-12 2.01222e-12 1.93248e-12 1.8448e-12 1.74824e-12 1.63946e-12 1.51495e-12 1.4943e-12 2.36141e-10
          4.63451e-07 6.11261e-07 8.10575e-07 1.0611e-06 2.79242e-12 1.14846e-12
        </DataArray>
        <DataArray type="Float32" Name="m^w_nanoAu" NumberOfComponents="1" format="ascii">
          4.28549e-15 3.97688e-15 3.93455e-15 3.89317e-15 3.85233e-15 3.80609e-15 3.76142e-15 3.71475e-15 3.66722e-15 3.61656e-15 3.56346e-15 3.50839e-15
          3.44973e-15 3.38629e-15 3.31863e-15 3.2445e-15 3.16394e-15 3.07448e-15 2.97294e-15 2.85815e-15 2.72711e-15 2.86772e-15 4.60638e-14 6.34625e-12
          8.65617e-10 9.43049e-10 1.00098e-09 9.96905e-10 1.87342e-15 7.27549e-16
        </DataArray>
        <DataArray type="Float32" Name="m^w_cyanide" NumberOfComponents="1" format="ascii">
          0.375516 0.371922 0.368329 0.364731 0.361124 0.357501 0.353855 0.350174 0.346448 0.342662 0.338797 0.334829
          0.33073 0.326461 0.321973 0.317202 0.312064 0.306443 0.300182 0.293062 0.284769 0.274844 0.262601 0.246977
          0.226309 0.267382 0.31791 0.377413 0.438739 0.277111
        </DataArray>
        <DataArray type="Float32" Name="m^w_citrate" NumberOfComponents="1" format="ascii">
          0.743678 0.743328 0.742941 0.742514 0.74204 0.741512 0.740921 0.740258 0.739508 0.738658 0.737688 0.736574
          0.735286 0.733786 0.732024 0.729937 0.727438 0.724412 0.720702 0.716088 0.710256 0.702746 0.692871 0.679567
          0.66114 0.634795 0.595746 0.535526 0.438739 0.277111
        </DataArray>
        <DataArray type="Float32" Name="m^w_substrate" NumberOfComponents="1" format="ascii">
          0.00449857 0.00475778 0.00504349 0.00535946 0.00571013 0.00610078 0.00653776 0.00702872 0.00758299 0.00821198 0.00892982 0.00975414
          0.0107072 0.0118172 0.0131208 0.0146657 0.0165151 0.0187542 0.0214996 0.0249143 0.0292308 0.0347886 0.0420973 0.0519437
          0.0655821 0.0850839 0.113989 0.158563 0.2302 0.349826
        </DataArray>
        <DataArray type="Float32" Name="process rank" NumberOfComponents="1" format="ascii">
          0 0 0 0 0 0 0 0 0 0 0 0
          0 0 0 0 0 0 0 0 0 0 0 0
          0 0 0 0 0 0
        </DataArray>
      </CellData>
      <Points>
        <DataArray type="Float32" Name="Coordinates" NumberOfComponents="3" format="ascii">
          0 0 0 0.5 0 0 0 0.0333333 0 0.5 0.0333333 0
          0 0.0666667 0 0.5 0.0666667 0 0 0.1 0 0.5 0.1 0
          0 0.133333 0 0.5 0.133333 0 0 0.166667 0 0.5 0.166667 0
          0 0.2 0 0.5 0.2 0 0 0.233333 0 0.5 0.233333 0
          0 0.266667 0 0.5 0.266667 0 0 0.3 0 0.5 0.3 0
          0 0.333333 0 0.5 0.333333 0 0 0.366667 0 0.5 0.366667 0
          0 0.4 0 0.5 0.4 0 0 0.433333 0 0.5 0.433333 0
          0 0.466667 0 0.5 0.466667 0 0 0.5 0 0.5 0.5 0
          0 0.533333 0 0.5 0.533333 0 0 0.566667 0 0.5 0.566667 0
          0 0.6 0 0.5 0.6 0 0 0.633333 0 0.5 0.633333 0
          0 0.666667 0 0.5 0.666667 0 0 0.7 0 0.5 0.7 0
          0 0.733333 0 0.5 0.733333 0 0 0.766667 0 0.5 0.766667 0
          0 0.8 0 0.5 0.8 0 0 0.833333 0 0.5 0.833333 0
          0 0.866667 0 0.5 0.866667 0 0 0.9 0 0.5 0.9 0
          0 0.933333 0 0.5 0.933333 0 0 0.966667 0 0.5 0.966667 0
          0 1 0 0.5 1 0
        </DataArray>
      </Points>
      <Cells>
        <DataArray type="Int32" Name="connectivity" NumberOfComponents="1" format="ascii">
          0 1 3 2 2 3 5 4 4 5 7 6
          6 7 9 8 8 9 11 10 10 11 13 12
          12 13 15 14 14 15 17 16 16 17 19 18
          18 19 21 20 20 21 23 22 22 23 25 24
          24 25 27 26 26 27 29 28 28 29 31 30
          30 31 33 32 32 33 35 34 34 35 37 36
          36 37 39 38 38 39 41 40 40 41 43 42
          42 43 45 44 44 45 47 46 46 47 49 48
          48 49 51 50 50 51 53 52 52 53 55 54
          54 55 57 56 56 57 59 58 58 59 61 60
        </DataArray>
        <DataArray type="Int32" Name="offsets" NumberOfComponents="1" format="ascii">
          4 8 12 16 20 24 28 32 36 40 44 48
          52 56 60 64 68 72 76 80 84 88 92 96
          100 104 108 112 116 120
        </DataArray>
        <DataArray type="UInt8" Name="types" NumberOfComponents="1" format="ascii">
          9 9 9 9 9 9 9 9 9 9 9 9
          9 9 9 9 9 9 9 9 9 9 9 9
          9 9 9 9 9 9
        </DataArray>
      </Cells>
    </Piece>
  </UnstructuredGrid>
</VTKFile>
