<?xml version="1.0"?>
<VTKFile type="UnstructuredGrid" version="0.1" byte_order="LittleEndian">
  <UnstructuredGrid>
    <Piece NumberOfCells="30" NumberOfPoints="62">
      <CellData Scalars="Sg">
        <DataArray type="Float32" Name="Sg" NumberOfComponents="1" format="ascii">
          0 0 0 0 0 0 0 0 0 0 0 0
          0 0 0 0 0 0 0 0 0 0 0 0
          0 0 0 0 0 0
        </DataArray>
        <DataArray type="Float32" Name="Sl" NumberOfComponents="1" format="ascii">
          1 1 1 1 1 1 1 1 1 1 1 1
          1 1 1 1 1 1 1 1 1 1 1 1
          1 1 1 1 1 1
        </DataArray>
        <DataArray type="Float32" Name="pg" NumberOfComponents="1" format="ascii">
          24687.8 24360.9 24034 23707 23380.1 23053.1 22726.2 22399.3 22072.3 21745.4 21418.4 21091.5
          20764.6 20437.6 20110.7 19783.7 19456.8 19129.9 18802.9 18476 18149 17822.1 17495.2 17168.2
          16841.3 16514.3 16187.4 15860.5 15533.5 15207.2
        </DataArray>
        <DataArray type="Float32" Name="pl" NumberOfComponents="1" format="ascii">
          110628 110301 109974 109647 109320 108993 108666 108339 108012 107685 107358 107031
          106704 106377 106050 105723 105396 105070 104743 104416 104089 103762 103435 103108
          102781 102454 102127 101800 101473 101147
        </DataArray>
        <DataArray type="Float32" Name="pc" NumberOfComponents="1" format="ascii">
          -85939.7 -85939.7 -85939.7 -85939.7 -85939.7 -85939.7 -85939.7 -85939.7 -85939.7 -85939.7 -85939.7 -85939.7
          -85939.7 -85939.7 -85939.7 -85939.7 -85939.7 -85939.7 -85939.7 -85939.7 -85939.7 -85939.7 -85939.7 -85939.7
          -85939.7 -85939.7 -85939.7 -85939.7 -85939.7 -85939.7
        </DataArray>
        <DataArray type="Float32" Name="rhoL" NumberOfComponents="1" format="ascii">
          999.855 999.855 999.855 999.855 999.855 999.854 999.854 999.854 999.854 999.854 999.854 999.854
          999.853 999.853 999.853 999.853 999.853 999.853 999.852 999.852 999.852 999.852 999.852 999.852
          999.852 999.851 999.851 999.851 999.851 999.851
        </DataArray>
        <DataArray type="Float32" Name="rhoG" NumberOfComponents="1" format="ascii">
          0.30585 0.3018 0.29775 0.293699 0.289649 0.285599 0.281548 0.277498 0.273447 0.269397 0.265347 0.261296
          0.257246 0.253196 0.249145 0.245095 0.241044 0.236994 0.232944 0.228893 0.224843 0.220793 0.216742 0.212692
          0.208642 0.204591 0.200541 0.196491 0.19244 0.188397
        </DataArray>
        <DataArray type="Float32" Name="mobL" NumberOfComponents="1" format="ascii">
          722.171 722.17 722.17 722.17 722.17 722.17 722.169 722.169 722.169 722.169 722.169 722.169
          722.168 722.168 722.168 722.168 722.168 722.167 722.167 722.167 722.167 722.167 722.166 722.166
          722.166 722.166 722.166 722.166 722.165 722.165
        </DataArray>
        <DataArray type="Float32" Name="mobG" NumberOfComponents="1" format="ascii">
          0 0 0 0 0 0 0 0 0 0 0 0
          0 0 0 0 0 0 0 0 0 0 0 0
          0 0 0 0 0 0
        </DataArray>
        <DataArray type="Float32" Name="porosity" NumberOfComponents="1" format="ascii">
          0.297349 0.297277 0.297199 0.297115 0.297024 0.296925 0.296818 0.2967 0.296571 0.296429 0.296271 0.296094
          0.295896 0.295672 0.295416 0.295122 0.29478 0.294378 0.293898 0.293315 0.292593 0.291676 0.290475 0.288836
          0.286207 0.282549 0.276224 0.263258 0.228163 0.075941
        </DataArray>
        <DataArray type="Float32" Name="temperature" NumberOfComponents="1" format="ascii">
          281.15 281.15 281.15 281.15 281.15 281.15 281.15 281.15 281.15 281.15 281.15 281.15
          281.15 281.15 281.15 281.15 281.15 281.15 281.15 281.15 281.15 281.15 281.15 281.15
          281.15 281.15 281.15 281.15 281.15 281.15
        </DataArray>
        <DataArray type="Float32" Name="phase presence" NumberOfComponents="1" format="ascii">
          1 1 1 1 1 1 1 1 1 1 1 1
          1 1 1 1 1 1 1 1 1 1 1 1
          1 1 1 1 1 1
        </DataArray>
        <DataArray type="Float32" Name="precipitateVolumeFraction_au" NumberOfComponents="1" format="ascii">
          5.55689e-10 5.52772e-10 5.52751e-10 5.52757e-10 5.52797e-10 5.52741e-10 5.52752e-10 5.52748e-10 5.52778e-10 5.52766e-10 5.52749e-10 5.52775e-10
          5.52795e-10 5.52755e-10 5.52761e-10 5.52711e-10 5.52735e-10 5.52773e-10 5.52701e-10 5.52745e-10 5.52771e-10 5.5275e-10 5.52987e-10 1.12792e-09
          0.00026994 0.000269924 0.0002699 0.000269856 5.52605e-10 5.51978e-10
        </DataArray>
        <DataArray type="Float32" Name="precipitateVolumeFraction_nanoAu" NumberOfComponents="1" format="ascii">
          1.29821e-13 1.2912e-13 1.29094e-13 1.29073e-13 1.29058e-13 1.29018e-13 1.28991e-13 1.28958e-13 1.2893e-13 1.28887e-13 1.28839e-13 1.28795e-13
          1.28742e-13 1.28667e-13 1.28592e-13 1.28491e-13 1.2839e-13 1.2827e-13 1.28095e-13 1.27908e-13 1.27662e-13 1.27335e-13 1.38703e-13 2.64704e-11
          6.12248e-08 7.72854e-08 1.01912e-07 1.42738e-07 4.49614e-13 3.99627e-13
        </DataArray>
        <DataArray type="Float32" Name="precipitateVolumeFraction_d" NumberOfComponents="1" format="ascii">
          0.00132537 0.00136162 0.00140059 0.00144261 0.00148806 0.00153738 0.00159111 0.00164987 0.00171443 0.00178568 0.00186473 0.00195295
          0.00205202 0.00216408 0.00229185 0.00243887 0.00260981 0.00281098 0.00305109 0.00334254 0.00370356 0.00416202 0.00476271 0.0055821
          0.00676147 0.00859036 0.0117528 0.0182362 0.0359185 0.11203
        </DataArray>
        <DataArray type="Float32" Name="precipitateVolumeFraction_p" NumberOfComponents="1" format="ascii">
          0.00132537 0.00136162 0.00140059 0.00144261 0.00148806 0.00153738 0.00159111 0.00164987 0.00171443 0.00178568 0.00186473 0.00195295
          0.00205202 0.00216408 0.00229185 0.00243887 0.00260981 0.00281098 0.00305109 0.00334254 0.00370356 0.00416202 0.00476271 0.0055821
          0.00676147 0.00859036 0.0117528 0.0182362 0.0359185 0.11203
        </DataArray>
        <DataArray type="Float32" Name="K" NumberOfComponents="1" format="ascii">
          9.66393e-11 9.65487e-11 9.64514e-11 9.63466e-11 9.62333e-11 9.61105e-11 9.59768e-11 9.58308e-11 9.56706e-11 9.54941e-11 9.52985e-11 9.50807e-11
          9.48366e-11 9.4561e-11 9.42476e-11 9.38881e-11 9.34715e-11 9.29832e-11 9.24031e-11 9.17029e-11 9.08416e-11 8.97574e-11 8.83529e-11 8.6466e-11
          8.35081e-11 7.953e-11 7.30147e-11 6.10019e-11 3.6184e-11 9.30812e-13
        </DataArray>
        <DataArray type="Float32" Name="X^w_H2O" NumberOfComponents="1" format="ascii">
          0.999853 0.999853 0.999853 0.999853 0.999853 0.999853 0.999853 0.999853 0.999853 0.999853 0.999853 0.999853
          0.999853 0.999853 0.999853 0.999853 0.999853 0.999853 0.999853 0.999853 0.999853 0.999853 0.999853 0.999853
          0.999853 0.999852 0.99985 0.999847 0.999842 0.999848
        </DataArray>
        <DataArray type="Float32" Name="X^w_Air" NumberOfComponents="1" format="ascii">
          0 0 0 0 0 0 0 0 0 0 0 0
          0 0 0 0 0 0 0 0 0 0 0 0
          0 0 0 0 0 0
        </DataArray>
        <DataArray type="Float32" Name="X^w_AuComplex" NumberOfComponents="1" format="ascii">
          1.53489e-16 1.52642e-16 1.52592e-16 1.52546e-16 1.52505e-16 1.52433e-16 1.52374e-16 1.52305e-16 1.52237e-16 1.5215e-16 1.5205e-16 1.5195e-16
          1.51832e-16 1.5168e-16 1.51518e-16 1.51311e-16 1.51088e-16 1.50821e-16 1.50462e-16 1.5005e-16 1.49517e-16 1.48814e-16 1.61549e-16 3.07079e-14
          7.06286e-11 1.08921e-10 1.83593e-10 3.5059e-10 1.65562e-15 1.32049e-15
        </DataArray>
        <DataArray type="Float32" Name="X^w_nanoAu" NumberOfComponents="1" format="ascii">
          3.5585e-19 3.53931e-19 3.53848e-19 3.53777e-19 3.53721e-19 3.53596e-19 3.53505e-19 3.53395e-19 3.53294e-19 3.53153e-19 3.52991e-19 3.52837e-19
          3.52654e-19 3.52404e-19 3.52145e-19 3.51805e-19 3.51452e-19 3.51031e-19 3.50441e-19 3.4979e-19 3.4932e-19 4.04416e-19 8.63974e-18 1.21059e-15
          1.66843e-13 2.10049e-13 2.75628e-13 3.78334e-13 1.16538e-18 9.19172e-19
        </DataArray>
        <DataArray type="Float32" Name="X^w_cyanide" NumberOfComponents="1" format="ascii">
          5.28942e-06 5.28868e-06 5.28788e-06 5.28701e-06 5.28607e-06 5.28504e-06 5.28391e-06 5.28266e-06 5.28127e-06 5.27971e-06 5.27796e-06 5.27598e-06
          5.2737e-06 5.27108e-06 5.26803e-06 5.26444e-06 5.26015e-06 5.25498e-06 5.24863e-06 5.24069e-06 5.23057e-06 5.2173e-06 5.19939e-06 5.17421e-06
          5.1375e-06 6.48559e-06 8.55279e-06 1.20041e-05 1.84684e-05 1.64774e-05
        </DataArray>
        <DataArray type="Float32" Name="X^w_citrate" NumberOfComponents="1" format="ascii">
          0.00014174 0.000141736 0.000141732 0.000141726 0.000141721 0.000141714 0.000141707 0.000141699 0.00014169 0.00014168 0.000141669 0.000141655
          0.00014164 0.000141622 0.000141601 0.000141576 0.000141545 0.000141509 0.000141464 0.000141407 0.000141334 0.000141239 0.00014111 0.000140927
          0.000140658 0.000140232 0.000139489 0.000137996 0.000134219 0.000119749
        </DataArray>
        <DataArray type="Float32" Name="X^w_substrate" NumberOfComponents="1" format="ascii">
          3.93468e-08 4.22943e-08 4.55474e-08 4.91488e-08 5.3149e-08 5.76084e-08 6.25991e-08 6.82083e-08 7.45418e-08 8.17299e-08 8.99336e-08 9.93545e-08
          1.10248e-07 1.22941e-07 1.37859e-07 1.55563e-07 1.7681e-07 2.02633e-07 2.34487e-07 2.74469e-07 3.257e-07 3.93004e-07 4.84181e-07 6.12577e-07
          8.02694e-07 1.10385e-06 1.62844e-06 2.68188e-06 5.34674e-06 1.555e-05
        </DataArray>
        <DataArray type="Float32" Name="m^w_H2O" NumberOfComponents="1" format="ascii">
          55492.5 55492.5 55492.5 55492.5 55492.5 55492.5 55492.5 55492.5 55492.5 55492.5 55492.5 55492.5
          55492.4 55492.4 55492.4 55492.4 55492.4 55492.4 55492.4 55492.4 55492.4 55492.4 55492.4 55492.4
          55492.4 55492.3 55492.2 55492 55491.7 55492
        </DataArray>
        <DataArray type="Float32" Name="m^w_Air" NumberOfComponents="1" format="ascii">
          0 0 0 0 0 0 0 0 0 0 0 0
          0 0 0 0 0 0 0 0 0 0 0 0
          0 0 0 0 0 0
        </DataArray>
        <DataArray type="Float32" Name="m^w_AuComplex" NumberOfComponents="1" format="ascii">
          7.79136e-13 7.74838e-13 7.74584e-13 7.74349e-13 7.74142e-13 7.73777e-13 7.73477e-13 7.73125e-13 7.72783e-13 7.72337e-13 7.71831e-13 7.71322e-13
          7.70728e-13 7.69955e-13 7.69129e-13 7.6808e-13 7.66946e-13 7.65591e-13 7.63768e-13 7.61677e-13 7.58971e-13 7.55404e-13 8.20049e-13 1.55878e-10
          3.58522e-07 5.52898e-07 9.31945e-07 1.77965e-06 8.40421e-12 6.70302e-12
        </DataArray>
        <DataArray type="Float32" Name="m^w_nanoAu" NumberOfComponents="1" format="ascii">
          1.80636e-15 1.79662e-15 1.7962e-15 1.79583e-15 1.79555e-15 1.79492e-15 1.79445e-15 1.7939e-15 1.79338e-15 1.79266e-15 1.79184e-15 1.79106e-15
          1.79013e-15 1.78886e-15 1.78755e-15 1.78582e-15 1.78403e-15 1.78189e-15 1.7789e-15 1.77559e-15 1.77321e-15 2.05288e-15 4.38567e-14 6.14513e-12
          8.46923e-10 1.06624e-09 1.39913e-09 1.92048e-09 5.91565e-15 4.66586e-15
        </DataArray>
        <DataArray type="Float32" Name="m^w_cyanide" NumberOfComponents="1" format="ascii">
          0.203253 0.203225 0.203194 0.203161 0.203124 0.203085 0.203041 0.202993 0.20294 0.20288 0.202813 0.202736
          0.202649 0.202548 0.202431 0.202293 0.202128 0.201929 0.201685 0.20138 0.200991 0.200482 0.199793 0.198825
          0.197415 0.249217 0.328652 0.461274 0.709673 0.633166
        </DataArray>
        <DataArray type="Float32" Name="m^w_citrate" NumberOfComponents="1" format="ascii">
          0.749448 0.749426 0.749401 0.749374 0.749344 0.74931 0.749273 0.749231 0.749183 0.749129 0.749067 0.748997
          0.748915 0.74882 0.748708 0.748575 0.748415 0.748222 0.747983 0.747683 0.747298 0.746794 0.74611 0.745147
          0.743721 0.741468 0.73754 0.729649 0.709675 0.633167
        </DataArray>
        <DataArray type="Float32" Name="m^w_substrate" NumberOfComponents="1" format="ascii">
          0.000218367 0.000234726 0.00025278 0.000272767 0.000294967 0.000319716 0.000347414 0.000378543 0.000413693 0.000453585 0.000499114 0.000551398
          0.000611854 0.000682298 0.00076509 0.000863347 0.000981259 0.00112457 0.00130136 0.00152325 0.00180757 0.00218109 0.00268711 0.00339968
          0.00445479 0.00612615 0.00903753 0.0148839 0.0296733 0.0862991
        </DataArray>
        <DataArray type="Float32" Name="process rank" NumberOfComponents="1" format="ascii">
          0 0 0 0 0 0 0 0 0 0 0 0
          0 0 0 0 0 0 0 0 0 0 0 0
          0 0 0 0 0 0
        </DataArray>
      </CellData>
      <Points>
        <DataArray type="Float32" Name="Coordinates" NumberOfComponents="3" format="ascii">
          0 0 0 0.5 0 0 0 0.0333333 0 0.5 0.0333333 0
          0 0.0666667 0 0.5 0.0666667 0 0 0.1 0 0.5 0.1 0
          0 0.133333 0 0.5 0.133333 0 0 0.166667 0 0.5 0.166667 0
          0 0.2 0 0.5 0.2 0 0 0.233333 0 0.5 0.233333 0
          0 0.266667 0 0.5 0.266667 0 0 0.3 0 0.5 0.3 0
          0 0.333333 0 0.5 0.333333 0 0 0.366667 0 0.5 0.366667 0
          0 0.4 0 0.5 0.4 0 0 0.433333 0 0.5 0.433333 0
          0 0.466667 0 0.5 0.466667 0 0 0.5 0 0.5 0.5 0
          0 0.533333 0 0.5 0.533333 0 0 0.566667 0 0.5 0.566667 0
          0 0.6 0 0.5 0.6 0 0 0.633333 0 0.5 0.633333 0
          0 0.666667 0 0.5 0.666667 0 0 0.7 0 0.5 0.7 0
          0 0.733333 0 0.5 0.733333 0 0 0.766667 0 0.5 0.766667 0
          0 0.8 0 0.5 0.8 0 0 0.833333 0 0.5 0.833333 0
          0 0.866667 0 0.5 0.866667 0 0 0.9 0 0.5 0.9 0
          0 0.933333 0 0.5 0.933333 0 0 0.966667 0 0.5 0.966667 0
          0 1 0 0.5 1 0
        </DataArray>
      </Points>
      <Cells>
        <DataArray type="Int32" Name="connectivity" NumberOfComponents="1" format="ascii">
          0 1 3 2 2 3 5 4 4 5 7 6
          6 7 9 8 8 9 11 10 10 11 13 12
          12 13 15 14 14 15 17 16 16 17 19 18
          18 19 21 20 20 21 23 22 22 23 25 24
          24 25 27 26 26 27 29 28 28 29 31 30
          30 31 33 32 32 33 35 34 34 35 37 36
          36 37 39 38 38 39 41 40 40 41 43 42
          42 43 45 44 44 45 47 46 46 47 49 48
          48 49 51 50 50 51 53 52 52 53 55 54
          54 55 57 56 56 57 59 58 58 59 61 60
        </DataArray>
        <DataArray type="Int32" Name="offsets" NumberOfComponents="1" format="ascii">
          4 8 12 16 20 24 28 32 36 40 44 48
          52 56 60 64 68 72 76 80 84 88 92 96
          100 104 108 112 116 120
        </DataArray>
        <DataArray type="UInt8" Name="types" NumberOfComponents="1" format="ascii">
          9 9 9 9 9 9 9 9 9 9 9 9
          9 9 9 9 9 9 9 9 9 9 9 9
          9 9 9 9 9 9
        </DataArray>
      </Cells>
    </Piece>
  </UnstructuredGrid>
</VTKFile>
