<?xml version="1.0"?>
<VTKFile type="UnstructuredGrid" version="0.1" byte_order="LittleEndian">
  <UnstructuredGrid>
    <Piece NumberOfCells="30" NumberOfPoints="62">
      <CellData Scalars="Sg">
        <DataArray type="Float32" Name="Sg" NumberOfComponents="1" format="ascii">
          0 0 0 0 0 0 0 0 0 0 0 0
          0 0 0 0 0 0 0 0 0 0 0 0
          0 0 0 0 0 0
        </DataArray>
        <DataArray type="Float32" Name="Sl" NumberOfComponents="1" format="ascii">
          1 1 1 1 1 1 1 1 1 1 1 1
          1 1 1 1 1 1 1 1 1 1 1 1
          1 1 1 1 1 1
        </DataArray>
        <DataArray type="Float32" Name="pg" NumberOfComponents="1" format="ascii">
          24687.8 24360.9 24034 23707 23380.1 23053.1 22726.2 22399.3 22072.3 21745.4 21418.4 21091.5
          20764.6 20437.6 20110.7 19783.7 19456.8 19129.9 18802.9 18476 18149 17822.1 17495.1 17168.2
          16841.3 16514.3 16187.4 15860.4 15533.5 15206.7
        </DataArray>
        <DataArray type="Float32" Name="pl" NumberOfComponents="1" format="ascii">
          110628 110301 109974 109647 109320 108993 108666 108339 108012 107685 107358 107031
          106704 106377 106050 105723 105396 105070 104743 104416 104089 103762 103435 103108
          102781 102454 102127 101800 101473 101146
        </DataArray>
        <DataArray type="Float32" Name="pc" NumberOfComponents="1" format="ascii">
          -85939.7 -85939.7 -85939.7 -85939.7 -85939.7 -85939.7 -85939.7 -85939.7 -85939.7 -85939.7 -85939.7 -85939.7
          -85939.7 -85939.7 -85939.7 -85939.7 -85939.7 -85939.7 -85939.7 -85939.7 -85939.7 -85939.7 -85939.7 -85939.7
          -85939.7 -85939.7 -85939.7 -85939.7 -85939.7 -85939.7
        </DataArray>
        <DataArray type="Float32" Name="rhoL" NumberOfComponents="1" format="ascii">
          999.855 999.855 999.855 999.855 999.855 999.854 999.854 999.854 999.854 999.854 999.854 999.854
          999.853 999.853 999.853 999.853 999.853 999.853 999.852 999.852 999.852 999.852 999.852 999.852
          999.852 999.851 999.851 999.851 999.851 999.851
        </DataArray>
        <DataArray type="Float32" Name="rhoG" NumberOfComponents="1" format="ascii">
          0.30585 0.3018 0.29775 0.293699 0.289649 0.285598 0.281548 0.277498 0.273447 0.269397 0.265347 0.261296
          0.257246 0.253195 0.249145 0.245095 0.241044 0.236994 0.232944 0.228893 0.224843 0.220793 0.216742 0.212692
          0.208641 0.204591 0.200541 0.19649 0.19244 0.188391
        </DataArray>
        <DataArray type="Float32" Name="mobL" NumberOfComponents="1" format="ascii">
          722.171 722.17 722.17 722.17 722.17 722.17 722.169 722.169 722.169 722.169 722.169 722.169
          722.168 722.168 722.168 722.168 722.168 722.167 722.167 722.167 722.167 722.167 722.166 722.166
          722.166 722.166 722.166 722.166 722.165 722.165
        </DataArray>
        <DataArray type="Float32" Name="mobG" NumberOfComponents="1" format="ascii">
          0 0 0 0 0 0 0 0 0 0 0 0
          0 0 0 0 0 0 0 0 0 0 0 0
          0 0 0 0 0 0
        </DataArray>
        <DataArray type="Float32" Name="porosity" NumberOfComponents="1" format="ascii">
          0.298558 0.298558 0.298558 0.298557 0.298557 0.298556 0.298556 0.298555 0.298553 0.298551 0.298548 0.298544
          0.298539 0.298532 0.298522 0.298509 0.298491 0.298466 0.298434 0.298389 0.298328 0.298243 0.298123 0.297946
          0.297402 0.296944 0.296076 0.294017 0.286237 0.130905
        </DataArray>
        <DataArray type="Float32" Name="temperature" NumberOfComponents="1" format="ascii">
          281.15 281.15 281.15 281.15 281.15 281.15 281.15 281.15 281.15 281.15 281.15 281.15
          281.15 281.15 281.15 281.15 281.15 281.15 281.15 281.15 281.15 281.15 281.15 281.15
          281.15 281.15 281.15 281.15 281.15 281.15
        </DataArray>
        <DataArray type="Float32" Name="phase presence" NumberOfComponents="1" format="ascii">
          1 1 1 1 1 1 1 1 1 1 1 1
          1 1 1 1 1 1 1 1 1 1 1 1
          1 1 1 1 1 1
        </DataArray>
        <DataArray type="Float32" Name="precipitateVolumeFraction_au" NumberOfComponents="1" format="ascii">
          5.52682e-10 5.51963e-10 5.52095e-10 5.52132e-10 5.52104e-10 5.52143e-10 5.52128e-10 5.52136e-10 5.52148e-10 5.52115e-10 5.5209e-10 5.52136e-10
          5.52121e-10 5.52123e-10 5.52131e-10 5.52144e-10 5.52108e-10 5.52154e-10 5.52127e-10 5.52136e-10 5.52087e-10 5.52106e-10 5.52181e-10 7.08796e-10
          0.00026994 0.000269924 0.000269899 0.000269854 5.51928e-10 5.50686e-10
        </DataArray>
        <DataArray type="Float32" Name="precipitateVolumeFraction_nanoAu" NumberOfComponents="1" format="ascii">
          1.21032e-12 6.72738e-13 7.3324e-13 7.49069e-13 7.4159e-13 7.50917e-13 7.47685e-13 7.48708e-13 7.49523e-13 7.46039e-13 7.4463e-13 7.47587e-13
          7.46802e-13 7.46847e-13 7.47121e-13 7.4739e-13 7.46518e-13 7.47335e-13 7.46814e-13 7.46883e-13 7.46302e-13 7.46517e-13 7.58748e-13 2.66246e-11
          6.05464e-08 7.68921e-08 1.02339e-07 1.45554e-07 1.09236e-12 1.07555e-12
        </DataArray>
        <DataArray type="Float32" Name="precipitateVolumeFraction_d" NumberOfComponents="1" format="ascii">
          0.000721042 0.000721112 0.00072121 0.000721348 0.000721542 0.000721815 0.000722197 0.00072273 0.00072347 0.000724496 0.000725911 0.000727855
          0.000730514 0.000734134 0.000739047 0.000745694 0.000754668 0.000766781 0.000783158 0.000805404 0.000835889 0.000878273 0.000938526 0.00102711
          0.00116407 0.00139314 0.00182695 0.00285634 0.00688153 0.0845475
        </DataArray>
        <DataArray type="Float32" Name="precipitateVolumeFraction_p" NumberOfComponents="1" format="ascii">
          0.000721042 0.000721112 0.00072121 0.000721348 0.000721542 0.000721815 0.000722197 0.00072273 0.00072347 0.000724496 0.000725911 0.000727855
          0.000730514 0.000734134 0.000739047 0.000745694 0.000754668 0.000766781 0.000783158 0.000805404 0.000835889 0.000878273 0.000938526 0.00102711
          0.00116407 0.00139314 0.00182695 0.00285634 0.00688153 0.0845475
        </DataArray>
        <DataArray type="Float32" Name="K" NumberOfComponents="1" format="ascii">
          9.816e-11 9.81598e-11 9.81595e-11 9.81592e-11 9.81587e-11 9.8158e-11 9.81571e-11 9.81557e-11 9.81538e-11 9.81512e-11 9.81476e-11 9.81427e-11
          9.8136e-11 9.81268e-11 9.81144e-11 9.80976e-11 9.80748e-11 9.80442e-11 9.80028e-11 9.79465e-11 9.78695e-11 9.77625e-11 9.76105e-11 9.73874e-11
          9.67051e-11 9.61334e-11 9.50585e-11 9.25471e-11 8.35413e-11 5.38971e-12
        </DataArray>
        <DataArray type="Float32" Name="X^w_H2O" NumberOfComponents="1" format="ascii">
          0.999853 0.999853 0.999853 0.999853 0.999853 0.999853 0.999853 0.999853 0.999853 0.999853 0.999853 0.999853
          0.999853 0.999853 0.999853 0.999853 0.999853 0.999853 0.999853 0.999853 0.999853 0.999853 0.999853 0.999853
          0.999853 0.999852 0.99985 0.999846 0.999839 0.99984
        </DataArray>
        <DataArray type="Float32" Name="X^w_Air" NumberOfComponents="1" format="ascii">
          2.77147e-13 4.98148e-15 8.80926e-17 1.52916e-18 2.61042e-20 4.38612e-22 7.24104e-24 1.17467e-25 1.87363e-27 2.9368e-29 4.51704e-31 6.82151e-33
          1.01224e-34 1.47323e-36 2.1042e-38 0 0 0 0 0 0 0 0 0
          0 0 0 0 0 0
        </DataArray>
        <DataArray type="Float32" Name="X^w_AuComplex" NumberOfComponents="1" format="ascii">
          1.18927e-15 6.70898e-16 7.2924e-16 7.44502e-16 7.37288e-16 7.46279e-16 7.43158e-16 7.4414e-16 7.4492e-16 7.41554e-16 7.40187e-16 7.43032e-16
          7.42265e-16 7.42298e-16 7.4255e-16 7.42794e-16 7.41933e-16 7.42698e-16 7.42164e-16 7.42188e-16 7.41568e-16 7.41695e-16 7.55323e-16 3.02734e-14
          6.91491e-11 1.07809e-10 1.84947e-10 3.64094e-10 4.11003e-15 3.97879e-15
        </DataArray>
        <DataArray type="Float32" Name="X^w_nanoAu" NumberOfComponents="1" format="ascii">
          5.44609e-18 3.04525e-18 3.31659e-18 3.387e-18 3.35402e-18 3.39557e-18 3.38117e-18 3.38578e-18 3.38925e-18 3.3736e-18 3.36744e-18 3.38063e-18
          3.37711e-18 3.37733e-18 3.37855e-18 3.37971e-18 3.37584e-18 3.37944e-18 3.37709e-18 3.37738e-18 3.37921e-18 3.77931e-18 3.93327e-17 3.20076e-15
          2.74454e-13 3.48728e-13 4.64326e-13 6.49481e-13 4.91529e-18 4.70663e-18
        </DataArray>
        <DataArray type="Float32" Name="X^w_cyanide" NumberOfComponents="1" format="ascii">
          5.08347e-06 5.08347e-06 5.08346e-06 5.08344e-06 5.08342e-06 5.0834e-06 5.08337e-06 5.08334e-06 5.0833e-06 5.08326e-06 5.08321e-06 5.08315e-06
          5.08309e-06 5.08302e-06 5.08293e-06 5.08282e-06 5.08269e-06 5.08253e-06 5.08231e-06 5.08203e-06 5.08163e-06 5.08106e-06 5.08023e-06 5.07893e-06
          5.07732e-06 6.44792e-06 8.58328e-06 1.22421e-05 1.94263e-05 1.90999e-05
        </DataArray>
        <DataArray type="Float32" Name="X^w_citrate" NumberOfComponents="1" format="ascii">
          0.000141796 0.000141796 0.000141796 0.000141796 0.000141796 0.000141796 0.000141796 0.000141796 0.000141796 0.000141796 0.000141796 0.000141796
          0.000141796 0.000141795 0.000141795 0.000141795 0.000141794 0.000141793 0.000141792 0.000141791 0.000141788 0.000141785 0.000141779 0.00014177
          0.000141755 0.00014173 0.000141679 0.00014156 0.000141181 0.000138808
        </DataArray>
        <DataArray type="Float32" Name="X^w_substrate" NumberOfComponents="1" format="ascii">
          6.03914e-12 8.44773e-12 1.18168e-11 1.65294e-11 2.31217e-11 3.23443e-11 4.52484e-11 6.33076e-11 8.85894e-11 1.23999e-10 1.73624e-10 2.43235e-10
          3.41004e-10 4.78555e-10 6.72524e-10 9.46914e-10 1.3367e-09 1.89355e-09 2.69504e-09 3.86022e-09 5.57681e-09 8.15124e-09 1.21063e-08 1.83866e-08
          2.88321e-08 4.7413e-08 8.40222e-08 1.69211e-07 4.37751e-07 2.11069e-06
        </DataArray>
        <DataArray type="Float32" Name="m^w_H2O" NumberOfComponents="1" format="ascii">
          55492.6 55492.5 55492.5 55492.5 55492.5 55492.5 55492.5 55492.5 55492.5 55492.5 55492.5 55492.5
          55492.5 55492.4 55492.4 55492.4 55492.4 55492.4 55492.4 55492.4 55492.4 55492.4 55492.4 55492.4
          55492.3 55492.3 55492.1 55491.9 55491.5 55491.6
        </DataArray>
        <DataArray type="Float32" Name="m^w_Air" NumberOfComponents="1" format="ascii">
          9.5686e-09 1.71988e-10 3.04143e-12 5.27947e-14 9.01257e-16 1.51433e-17 2.5e-19 4.05558e-21 6.46876e-23 1.01394e-24 1.55952e-26 2.35515e-28
          3.49479e-30 5.08639e-32 7.26482e-34 1.01641e-35 1.39395e-37 0 0 0 0 0 0 0
          0 0 0 0 0 0
        </DataArray>
        <DataArray type="Float32" Name="m^w_AuComplex" NumberOfComponents="1" format="ascii">
          6.03697e-12 3.4056e-12 3.70176e-12 3.77923e-12 3.7426e-12 3.78824e-12 3.7724e-12 3.77738e-12 3.78134e-12 3.76426e-12 3.75732e-12 3.77176e-12
          3.76787e-12 3.76803e-12 3.76931e-12 3.77055e-12 3.76618e-12 3.77006e-12 3.76735e-12 3.76747e-12 3.76432e-12 3.76496e-12 3.83414e-12 1.53672e-10
          3.51012e-07 5.47257e-07 9.38821e-07 1.8482e-06 2.08631e-11 2.0197e-11
        </DataArray>
        <DataArray type="Float32" Name="m^w_nanoAu" NumberOfComponents="1" format="ascii">
          2.76453e-14 1.54582e-14 1.68356e-14 1.7193e-14 1.70256e-14 1.72365e-14 1.71634e-14 1.71868e-14 1.72044e-14 1.7125e-14 1.70937e-14 1.71606e-14
          1.71428e-14 1.71439e-14 1.71501e-14 1.7156e-14 1.71363e-14 1.71546e-14 1.71427e-14 1.71441e-14 1.71534e-14 1.91844e-14 1.99659e-13 1.62476e-11
          1.39317e-09 1.7702e-09 2.35699e-09 3.29687e-09 2.49508e-14 2.38916e-14
        </DataArray>
        <DataArray type="Float32" Name="m^w_cyanide" NumberOfComponents="1" format="ascii">
          0.195339 0.195339 0.195339 0.195338 0.195337 0.195337 0.195335 0.195334 0.195333 0.195331 0.195329 0.195327
          0.195325 0.195322 0.195318 0.195314 0.195309 0.195303 0.195295 0.195283 0.195268 0.195246 0.195214 0.195165
          0.195103 0.247769 0.329823 0.470417 0.746478 0.733937
        </DataArray>
        <DataArray type="Float32" Name="m^w_citrate" NumberOfComponents="1" format="ascii">
          0.749742 0.749742 0.749742 0.749742 0.749742 0.749742 0.749741 0.749741 0.749741 0.74974 0.74974 0.749739
          0.749738 0.749737 0.749736 0.749734 0.749731 0.749726 0.74972 0.749711 0.749698 0.749679 0.749649 0.749602
          0.749523 0.749389 0.749121 0.748489 0.746485 0.73394
        </DataArray>
        <DataArray type="Float32" Name="m^w_substrate" NumberOfComponents="1" format="ascii">
          3.35161e-08 4.68833e-08 6.55809e-08 9.1735e-08 1.28321e-07 1.79505e-07 2.5112e-07 3.51346e-07 4.91655e-07 6.88168e-07 9.63578e-07 1.34991e-06
          1.89251e-06 2.65589e-06 3.73238e-06 5.25519e-06 7.41844e-06 1.05088e-05 1.49569e-05 2.14235e-05 3.09502e-05 4.52377e-05 6.71875e-05 0.000102042
          0.000160012 0.000263132 0.000466306 0.000939088 0.00242943 0.0117139
        </DataArray>
        <DataArray type="Float32" Name="process rank" NumberOfComponents="1" format="ascii">
          0 0 0 0 0 0 0 0 0 0 0 0
          0 0 0 0 0 0 0 0 0 0 0 0
          0 0 0 0 0 0
        </DataArray>
      </CellData>
      <Points>
        <DataArray type="Float32" Name="Coordinates" NumberOfComponents="3" format="ascii">
          0 0 0 0.5 0 0 0 0.0333333 0 0.5 0.0333333 0
          0 0.0666667 0 0.5 0.0666667 0 0 0.1 0 0.5 0.1 0
          0 0.133333 0 0.5 0.133333 0 0 0.166667 0 0.5 0.166667 0
          0 0.2 0 0.5 0.2 0 0 0.233333 0 0.5 0.233333 0
          0 0.266667 0 0.5 0.266667 0 0 0.3 0 0.5 0.3 0
          0 0.333333 0 0.5 0.333333 0 0 0.366667 0 0.5 0.366667 0
          0 0.4 0 0.5 0.4 0 0 0.433333 0 0.5 0.433333 0
          0 0.466667 0 0.5 0.466667 0 0 0.5 0 0.5 0.5 0
          0 0.533333 0 0.5 0.533333 0 0 0.566667 0 0.5 0.566667 0
          0 0.6 0 0.5 0.6 0 0 0.633333 0 0.5 0.633333 0
          0 0.666667 0 0.5 0.666667 0 0 0.7 0 0.5 0.7 0
          0 0.733333 0 0.5 0.733333 0 0 0.766667 0 0.5 0.766667 0
          0 0.8 0 0.5 0.8 0 0 0.833333 0 0.5 0.833333 0
          0 0.866667 0 0.5 0.866667 0 0 0.9 0 0.5 0.9 0
          0 0.933333 0 0.5 0.933333 0 0 0.966667 0 0.5 0.966667 0
          0 1 0 0.5 1 0
        </DataArray>
      </Points>
      <Cells>
        <DataArray type="Int32" Name="connectivity" NumberOfComponents="1" format="ascii">
          0 1 3 2 2 3 5 4 4 5 7 6
          6 7 9 8 8 9 11 10 10 11 13 12
          12 13 15 14 14 15 17 16 16 17 19 18
          18 19 21 20 20 21 23 22 22 23 25 24
          24 25 27 26 26 27 29 28 28 29 31 30
          30 31 33 32 32 33 35 34 34 35 37 36
          36 37 39 38 38 39 41 40 40 41 43 42
          42 43 45 44 44 45 47 46 46 47 49 48
          48 49 51 50 50 51 53 52 52 53 55 54
          54 55 57 56 56 57 59 58 58 59 61 60
        </DataArray>
        <DataArray type="Int32" Name="offsets" NumberOfComponents="1" format="ascii">
          4 8 12 16 20 24 28 32 36 40 44 48
          52 56 60 64 68 72 76 80 84 88 92 96
          100 104 108 112 116 120
        </DataArray>
        <DataArray type="UInt8" Name="types" NumberOfComponents="1" format="ascii">
          9 9 9 9 9 9 9 9 9 9 9 9
          9 9 9 9 9 9 9 9 9 9 9 9
          9 9 9 9 9 9
        </DataArray>
      </Cells>
    </Piece>
  </UnstructuredGrid>
</VTKFile>
