<?xml version="1.0"?>
<VTKFile type="UnstructuredGrid" version="0.1" byte_order="LittleEndian">
  <UnstructuredGrid>
    <Piece NumberOfCells="30" NumberOfPoints="62">
      <CellData Scalars="Sg">
        <DataArray type="Float32" Name="Sg" NumberOfComponents="1" format="ascii">
          0 0 0 0 0 0 0 0 0 0 0 0
          0 0 0 0 0 0 0 0 0 0 0 0
          0 0 0 0 0 0
        </DataArray>
        <DataArray type="Float32" Name="Sl" NumberOfComponents="1" format="ascii">
          1 1 1 1 1 1 1 1 1 1 1 1
          1 1 1 1 1 1 1 1 1 1 1 1
          1 1 1 1 1 1
        </DataArray>
        <DataArray type="Float32" Name="pg" NumberOfComponents="1" format="ascii">
          24687.8 24360.9 24034 23707 23380.1 23053.1 22726.2 22399.3 22072.3 21745.4 21418.4 21091.5
          20764.6 20437.6 20110.7 19783.7 19456.8 19129.8 18802.9 18476 18149 17822.1 17495.1 17168.2
          16841.3 16514.3 16187.4 15860.4 15533.5 15207.5
        </DataArray>
        <DataArray type="Float32" Name="pl" NumberOfComponents="1" format="ascii">
          110628 110301 109974 109647 109320 108993 108666 108339 108012 107685 107358 107031
          106704 106377 106050 105723 105396 105070 104743 104416 104089 103762 103435 103108
          102781 102454 102127 101800 101473 101147
        </DataArray>
        <DataArray type="Float32" Name="pc" NumberOfComponents="1" format="ascii">
          -85939.7 -85939.7 -85939.7 -85939.7 -85939.7 -85939.7 -85939.7 -85939.7 -85939.7 -85939.7 -85939.7 -85939.7
          -85939.7 -85939.7 -85939.7 -85939.7 -85939.7 -85939.7 -85939.7 -85939.7 -85939.7 -85939.7 -85939.7 -85939.7
          -85939.7 -85939.7 -85939.7 -85939.7 -85939.7 -85939.7
        </DataArray>
        <DataArray type="Float32" Name="rhoL" NumberOfComponents="1" format="ascii">
          999.855 999.855 999.855 999.855 999.855 999.854 999.854 999.854 999.854 999.854 999.854 999.854
          999.853 999.853 999.853 999.853 999.853 999.853 999.852 999.852 999.852 999.852 999.852 999.852
          999.852 999.851 999.851 999.851 999.851 999.851
        </DataArray>
        <DataArray type="Float32" Name="rhoG" NumberOfComponents="1" format="ascii">
          0.30585 0.3018 0.29775 0.293699 0.289649 0.285598 0.281548 0.277498 0.273447 0.269397 0.265347 0.261296
          0.257246 0.253195 0.249145 0.245095 0.241044 0.236994 0.232944 0.228893 0.224843 0.220793 0.216742 0.212692
          0.208641 0.204591 0.200541 0.19649 0.19244 0.188402
        </DataArray>
        <DataArray type="Float32" Name="mobL" NumberOfComponents="1" format="ascii">
          722.171 722.17 722.17 722.17 722.17 722.17 722.169 722.169 722.169 722.169 722.169 722.169
          722.168 722.168 722.168 722.168 722.168 722.167 722.167 722.167 722.167 722.167 722.166 722.166
          722.166 722.166 722.166 722.166 722.165 722.165
        </DataArray>
        <DataArray type="Float32" Name="mobG" NumberOfComponents="1" format="ascii">
          0 0 0 0 0 0 0 0 0 0 0 0
          0 0 0 0 0 0 0 0 0 0 0 0
          0 0 0 0 0 0
        </DataArray>
        <DataArray type="Float32" Name="porosity" NumberOfComponents="1" format="ascii">
          0.298648 0.298648 0.298648 0.298648 0.298647 0.298647 0.298646 0.298645 0.298644 0.298642 0.298639 0.298635
          0.29863 0.298623 0.298614 0.298602 0.298585 0.298562 0.29853 0.298488 0.29843 0.298348 0.298232 0.298061
          0.297523 0.29707 0.29619 0.294009 0.284776 0.0647559
        </DataArray>
        <DataArray type="Float32" Name="temperature" NumberOfComponents="1" format="ascii">
          281.15 281.15 281.15 281.15 281.15 281.15 281.15 281.15 281.15 281.15 281.15 281.15
          281.15 281.15 281.15 281.15 281.15 281.15 281.15 281.15 281.15 281.15 281.15 281.15
          281.15 281.15 281.15 281.15 281.15 281.15
        </DataArray>
        <DataArray type="Float32" Name="phase presence" NumberOfComponents="1" format="ascii">
          1 1 1 1 1 1 1 1 1 1 1 1
          1 1 1 1 1 1 1 1 1 1 1 1
          1 1 1 1 1 1
        </DataArray>
        <DataArray type="Float32" Name="precipitateVolumeFraction_au" NumberOfComponents="1" format="ascii">
          5.52428e-10 5.52587e-10 5.52471e-10 5.52571e-10 5.52565e-10 5.52591e-10 5.52577e-10 5.52604e-10 5.52576e-10 5.52585e-10 5.52588e-10 5.52566e-10
          5.5252e-10 5.52605e-10 5.52574e-10 5.52517e-10 5.5256e-10 5.52509e-10 5.52582e-10 5.52578e-10 5.52576e-10 5.52573e-10 5.52685e-10 8.32804e-10
          0.000269851 0.000269835 0.000269817 0.000269795 5.52283e-10 5.51321e-10
        </DataArray>
        <DataArray type="Float32" Name="precipitateVolumeFraction_nanoAu" NumberOfComponents="1" format="ascii">
          3.07724e-13 3.07981e-13 3.07836e-13 3.07958e-13 3.07951e-13 3.07975e-13 3.07959e-13 3.07979e-13 3.07954e-13 3.07958e-13 3.07959e-13 3.07941e-13
          3.07909e-13 3.07962e-13 3.0794e-13 3.07903e-13 3.07926e-13 3.07893e-13 3.07932e-13 3.07924e-13 3.07916e-13 3.07933e-13 3.14659e-13 2.52857e-11
          1.49603e-07 1.65309e-07 1.83726e-07 2.0549e-07 4.75484e-13 4.68559e-13
        </DataArray>
        <DataArray type="Float32" Name="precipitateVolumeFraction_d" NumberOfComponents="1" format="ascii">
          0.00067587 0.000675936 0.000676029 0.00067616 0.000676344 0.000676601 0.000676962 0.000677466 0.000678166 0.000679137 0.000680475 0.000682314
          0.000684829 0.000688257 0.00069291 0.000699211 0.000707726 0.000719232 0.000734811 0.000756014 0.000785142 0.000825768 0.000883773 0.000969562
          0.00110338 0.00133022 0.0017698 0.00286053 0.00761214 0.117622
        </DataArray>
        <DataArray type="Float32" Name="precipitateVolumeFraction_p" NumberOfComponents="1" format="ascii">
          0.00067587 0.000675936 0.000676029 0.00067616 0.000676344 0.000676601 0.000676962 0.000677466 0.000678166 0.000679137 0.000680475 0.000682314
          0.000684829 0.000688257 0.00069291 0.000699211 0.000707726 0.000719232 0.000734811 0.000756014 0.000785142 0.000825768 0.000883773 0.000969562
          0.00110338 0.00133022 0.0017698 0.00286053 0.00761214 0.117622
        </DataArray>
        <DataArray type="Float32" Name="K" NumberOfComponents="1" format="ascii">
          9.82744e-11 9.82743e-11 9.8274e-11 9.82737e-11 9.82732e-11 9.82726e-11 9.82717e-11 9.82704e-11 9.82686e-11 9.82661e-11 9.82628e-11 9.82581e-11
          9.82517e-11 9.8243e-11 9.82312e-11 9.82153e-11 9.81937e-11 9.81646e-11 9.81251e-11 9.80714e-11 9.79978e-11 9.78951e-11 9.77486e-11 9.75323e-11
          9.6857e-11 9.62902e-11 9.51995e-11 9.2537e-11 8.19326e-11 5.63403e-13
        </DataArray>
        <DataArray type="Float32" Name="X^w_H2O" NumberOfComponents="1" format="ascii">
          0.999846 0.999846 0.999846 0.999846 0.999846 0.999846 0.999846 0.999846 0.999846 0.999846 0.999846 0.999846
          0.999846 0.999846 0.999846 0.999846 0.999846 0.999846 0.999846 0.999846 0.999846 0.999846 0.999846 0.999846
          0.999846 0.999844 0.999843 0.999841 0.999839 0.99984
        </DataArray>
        <DataArray type="Float32" Name="X^w_Air" NumberOfComponents="1" format="ascii">
          0 0 0 0 0 0 0 0 0 0 0 0
          0 0 0 0 0 0 0 0 0 0 0 0
          0 0 0 0 0 0
        </DataArray>
        <DataArray type="Float32" Name="X^w_AuComplex" NumberOfComponents="1" format="ascii">
          1.36402e-16 1.36485e-16 1.36435e-16 1.36477e-16 1.36474e-16 1.36482e-16 1.36476e-16 1.36483e-16 1.36474e-16 1.36475e-16 1.36475e-16 1.36467e-16
          1.36454e-16 1.36476e-16 1.36466e-16 1.3645e-16 1.36459e-16 1.36444e-16 1.3646e-16 1.36455e-16 1.3645e-16 1.3645e-16 1.38969e-16 1.11844e-14
          6.64161e-11 7.79893e-11 9.2675e-11 1.11601e-10 2.79897e-16 2.73399e-16
        </DataArray>
        <DataArray type="Float32" Name="X^w_nanoAu" NumberOfComponents="1" format="ascii">
          1.34019e-18 1.34129e-18 1.34067e-18 1.3412e-18 1.34117e-18 1.34127e-18 1.3412e-18 1.34129e-18 1.34118e-18 1.3412e-18 1.3412e-18 1.34112e-18
          1.34098e-18 1.34121e-18 1.34111e-18 1.34095e-18 1.34105e-18 1.3409e-18 1.34106e-18 1.34111e-18 1.34998e-18 2.17595e-18 7.86335e-17 7.15378e-15
          6.52156e-13 7.20597e-13 8.00648e-13 8.84337e-13 2.06416e-18 1.98815e-18
        </DataArray>
        <DataArray type="Float32" Name="X^w_cyanide" NumberOfComponents="1" format="ascii">
          1.25691e-05 1.25691e-05 1.2569e-05 1.2569e-05 1.25689e-05 1.25689e-05 1.25688e-05 1.25688e-05 1.25687e-05 1.25687e-05 1.25686e-05 1.25686e-05
          1.25685e-05 1.25685e-05 1.25684e-05 1.25683e-05 1.25682e-05 1.25681e-05 1.2568e-05 1.25678e-05 1.25675e-05 1.25671e-05 1.25665e-05 1.25656e-05
          1.25644e-05 1.38846e-05 1.54329e-05 1.72676e-05 1.94554e-05 1.92157e-05
        </DataArray>
        <DataArray type="Float32" Name="X^w_citrate" NumberOfComponents="1" format="ascii">
          0.000141789 0.000141789 0.000141789 0.000141789 0.000141789 0.000141789 0.000141789 0.000141789 0.000141789 0.000141789 0.000141789 0.000141789
          0.000141788 0.000141788 0.000141788 0.000141788 0.000141787 0.000141787 0.000141786 0.000141785 0.000141783 0.000141781 0.000141777 0.000141771
          0.000141761 0.000141746 0.000141715 0.00014164 0.000141391 0.000139649
        </DataArray>
        <DataArray type="Float32" Name="X^w_substrate" NumberOfComponents="1" format="ascii">
          5.87835e-12 8.11289e-12 1.11963e-11 1.54508e-11 2.13215e-11 2.94226e-11 4.06028e-11 5.6035e-11 7.73422e-11 1.06773e-10 1.47449e-10 2.03716e-10
          2.8164e-10 3.89735e-10 5.40023e-10 7.49609e-10 1.04309e-09 1.45634e-09 2.0425e-09 2.88215e-09 4.10082e-09 5.90112e-09 8.62518e-09 1.28855e-08
          1.98667e-08 3.21145e-08 5.59818e-08 1.11334e-07 2.89225e-07 1.51745e-06
        </DataArray>
        <DataArray type="Float32" Name="m^w_H2O" NumberOfComponents="1" format="ascii">
          55492.1 55492.1 55492.1 55492.1 55492.1 55492.1 55492.1 55492.1 55492.1 55492.1 55492.1 55492
          55492 55492 55492 55492 55492 55492 55492 55492 55492 55492 55491.9 55491.9
          55491.9 55491.9 55491.8 55491.6 55491.5 55491.6
        </DataArray>
        <DataArray type="Float32" Name="m^w_Air" NumberOfComponents="1" format="ascii">
          0 0 0 0 0 0 0 0 0 0 0 0
          0 0 0 0 0 0 0 0 0 0 0 0
          0 0 0 0 0 0
        </DataArray>
        <DataArray type="Float32" Name="m^w_AuComplex" NumberOfComponents="1" format="ascii">
          6.92401e-13 6.92823e-13 6.92569e-13 6.92779e-13 6.92765e-13 6.92807e-13 6.92776e-13 6.92814e-13 6.92763e-13 6.9277e-13 6.92771e-13 6.92732e-13
          6.92662e-13 6.92774e-13 6.92724e-13 6.92641e-13 6.92689e-13 6.92611e-13 6.92692e-13 6.92669e-13 6.9264e-13 6.92641e-13 7.05428e-13 5.67739e-11
          3.37139e-07 3.95886e-07 4.70433e-07 5.66504e-07 1.4208e-12 1.38782e-12
        </DataArray>
        <DataArray type="Float32" Name="m^w_nanoAu" NumberOfComponents="1" format="ascii">
          6.80305e-15 6.80863e-15 6.8055e-15 6.80815e-15 6.80801e-15 6.80852e-15 6.80818e-15 6.80861e-15 6.80806e-15 6.80815e-15 6.80816e-15 6.80776e-15
          6.80705e-15 6.80821e-15 6.80771e-15 6.80689e-15 6.80737e-15 6.80662e-15 6.80744e-15 6.80769e-15 6.85272e-15 1.10455e-14 3.99156e-13 3.63138e-11
          3.31045e-09 3.65787e-09 4.06422e-09 4.48904e-09 1.0478e-14 1.00921e-14
        </DataArray>
        <DataArray type="Float32" Name="m^w_cyanide" NumberOfComponents="1" format="ascii">
          0.482986 0.482984 0.482982 0.482981 0.482979 0.482977 0.482975 0.482973 0.482971 0.482969 0.482967 0.482965
          0.482963 0.48296 0.482958 0.482954 0.482951 0.482946 0.48294 0.482932 0.482921 0.482906 0.482885 0.482851
          0.482802 0.533532 0.593029 0.663529 0.747598 0.738388
        </DataArray>
        <DataArray type="Float32" Name="m^w_citrate" NumberOfComponents="1" format="ascii">
          0.749704 0.749704 0.749704 0.749704 0.749704 0.749704 0.749703 0.749703 0.749703 0.749703 0.749702 0.749702
          0.749701 0.7497 0.749699 0.749697 0.749695 0.749692 0.749687 0.749681 0.749671 0.749658 0.749637 0.749605
          0.749553 0.749475 0.749311 0.748913 0.747598 0.738389
        </DataArray>
        <DataArray type="Float32" Name="m^w_substrate" NumberOfComponents="1" format="ascii">
          3.26238e-08 4.50251e-08 6.21371e-08 8.57491e-08 1.1833e-07 1.6329e-07 2.25338e-07 3.10984e-07 4.29235e-07 5.9257e-07 8.18316e-07 1.13058e-06
          1.56305e-06 2.16296e-06 2.99702e-06 4.16019e-06 5.78897e-06 8.08237e-06 1.13355e-05 1.59953e-05 2.27587e-05 3.27501e-05 4.7868e-05 7.15118e-05
          0.000110256 0.000178229 0.000310688 0.000617879 0.00160514 0.00842152
        </DataArray>
        <DataArray type="Float32" Name="process rank" NumberOfComponents="1" format="ascii">
          0 0 0 0 0 0 0 0 0 0 0 0
          0 0 0 0 0 0 0 0 0 0 0 0
          0 0 0 0 0 0
        </DataArray>
      </CellData>
      <Points>
        <DataArray type="Float32" Name="Coordinates" NumberOfComponents="3" format="ascii">
          0 0 0 0.5 0 0 0 0.0333333 0 0.5 0.0333333 0
          0 0.0666667 0 0.5 0.0666667 0 0 0.1 0 0.5 0.1 0
          0 0.133333 0 0.5 0.133333 0 0 0.166667 0 0.5 0.166667 0
          0 0.2 0 0.5 0.2 0 0 0.233333 0 0.5 0.233333 0
          0 0.266667 0 0.5 0.266667 0 0 0.3 0 0.5 0.3 0
          0 0.333333 0 0.5 0.333333 0 0 0.366667 0 0.5 0.366667 0
          0 0.4 0 0.5 0.4 0 0 0.433333 0 0.5 0.433333 0
          0 0.466667 0 0.5 0.466667 0 0 0.5 0 0.5 0.5 0
          0 0.533333 0 0.5 0.533333 0 0 0.566667 0 0.5 0.566667 0
          0 0.6 0 0.5 0.6 0 0 0.633333 0 0.5 0.633333 0
          0 0.666667 0 0.5 0.666667 0 0 0.7 0 0.5 0.7 0
          0 0.733333 0 0.5 0.733333 0 0 0.766667 0 0.5 0.766667 0
          0 0.8 0 0.5 0.8 0 0 0.833333 0 0.5 0.833333 0
          0 0.866667 0 0.5 0.866667 0 0 0.9 0 0.5 0.9 0
          0 0.933333 0 0.5 0.933333 0 0 0.966667 0 0.5 0.966667 0
          0 1 0 0.5 1 0
        </DataArray>
      </Points>
      <Cells>
        <DataArray type="Int32" Name="connectivity" NumberOfComponents="1" format="ascii">
          0 1 3 2 2 3 5 4 4 5 7 6
          6 7 9 8 8 9 11 10 10 11 13 12
          12 13 15 14 14 15 17 16 16 17 19 18
          18 19 21 20 20 21 23 22 22 23 25 24
          24 25 27 26 26 27 29 28 28 29 31 30
          30 31 33 32 32 33 35 34 34 35 37 36
          36 37 39 38 38 39 41 40 40 41 43 42
          42 43 45 44 44 45 47 46 46 47 49 48
          48 49 51 50 50 51 53 52 52 53 55 54
          54 55 57 56 56 57 59 58 58 59 61 60
        </DataArray>
        <DataArray type="Int32" Name="offsets" NumberOfComponents="1" format="ascii">
          4 8 12 16 20 24 28 32 36 40 44 48
          52 56 60 64 68 72 76 80 84 88 92 96
          100 104 108 112 116 120
        </DataArray>
        <DataArray type="UInt8" Name="types" NumberOfComponents="1" format="ascii">
          9 9 9 9 9 9 9 9 9 9 9 9
          9 9 9 9 9 9 9 9 9 9 9 9
          9 9 9 9 9 9
        </DataArray>
      </Cells>
    </Piece>
  </UnstructuredGrid>
</VTKFile>
