<?xml version="1.0"?>
<VTKFile type="UnstructuredGrid" version="0.1" byte_order="LittleEndian">
  <UnstructuredGrid>
    <Piece NumberOfCells="30" NumberOfPoints="62">
      <CellData Scalars="Sg">
        <DataArray type="Float32" Name="Sg" NumberOfComponents="1" format="ascii">
          0 0 0 0 0 0 0 0 0 0 0 0
          0 0 0 0 0 0 0 0 0 0 0 0
          0 0 0 0 0 0
        </DataArray>
        <DataArray type="Float32" Name="Sl" NumberOfComponents="1" format="ascii">
          1 1 1 1 1 1 1 1 1 1 1 1
          1 1 1 1 1 1 1 1 1 1 1 1
          1 1 1 1 1 1
        </DataArray>
        <DataArray type="Float32" Name="pg" NumberOfComponents="1" format="ascii">
          24687.8 24360.9 24034 23707 23380.1 23053.1 22726.2 22399.3 22072.3 21745.4 21418.4 21091.5
          20764.6 20437.6 20110.7 19783.7 19456.8 19129.8 18802.9 18476 18149 17822.1 17495.1 17168.2
          16841.3 16514.3 16187.4 15860.4 15533.5 15208.4
        </DataArray>
        <DataArray type="Float32" Name="pl" NumberOfComponents="1" format="ascii">
          110628 110301 109974 109647 109320 108993 108666 108339 108012 107685 107358 107031
          106704 106377 106050 105723 105396 105070 104743 104416 104089 103762 103435 103108
          102781 102454 102127 101800 101473 101148
        </DataArray>
        <DataArray type="Float32" Name="pc" NumberOfComponents="1" format="ascii">
          -85939.7 -85939.7 -85939.7 -85939.7 -85939.7 -85939.7 -85939.7 -85939.7 -85939.7 -85939.7 -85939.7 -85939.7
          -85939.7 -85939.7 -85939.7 -85939.7 -85939.7 -85939.7 -85939.7 -85939.7 -85939.7 -85939.7 -85939.7 -85939.7
          -85939.7 -85939.7 -85939.7 -85939.7 -85939.7 -85939.7
        </DataArray>
        <DataArray type="Float32" Name="rhoL" NumberOfComponents="1" format="ascii">
          999.855 999.855 999.855 999.855 999.855 999.854 999.854 999.854 999.854 999.854 999.854 999.854
          999.853 999.853 999.853 999.853 999.853 999.853 999.852 999.852 999.852 999.852 999.852 999.852
          999.852 999.851 999.851 999.851 999.851 999.851
        </DataArray>
        <DataArray type="Float32" Name="rhoG" NumberOfComponents="1" format="ascii">
          0.30585 0.3018 0.29775 0.293699 0.289649 0.285598 0.281548 0.277498 0.273447 0.269397 0.265347 0.261296
          0.257246 0.253195 0.249145 0.245095 0.241044 0.236994 0.232944 0.228893 0.224843 0.220793 0.216742 0.212692
          0.208641 0.204591 0.200541 0.19649 0.19244 0.188412
        </DataArray>
        <DataArray type="Float32" Name="mobL" NumberOfComponents="1" format="ascii">
          722.171 722.17 722.17 722.17 722.17 722.17 722.169 722.169 722.169 722.169 722.169 722.169
          722.168 722.168 722.168 722.168 722.168 722.167 722.167 722.167 722.167 722.167 722.166 722.166
          722.166 722.166 722.166 722.166 722.165 722.165
        </DataArray>
        <DataArray type="Float32" Name="mobG" NumberOfComponents="1" format="ascii">
          0 0 0 0 0 0 0 0 0 0 0 0
          0 0 0 0 0 0 0 0 0 0 0 0
          0 0 0 0 0 0
        </DataArray>
        <DataArray type="Float32" Name="porosity" NumberOfComponents="1" format="ascii">
          0.298697 0.298697 0.298697 0.298697 0.298696 0.298696 0.298695 0.298694 0.298693 0.298691 0.298688 0.298685
          0.29868 0.298673 0.298664 0.298652 0.298635 0.298613 0.298583 0.298542 0.298485 0.298406 0.298293 0.298125
          0.297592 0.297144 0.296267 0.294052 0.284247 0.0528356
        </DataArray>
        <DataArray type="Float32" Name="temperature" NumberOfComponents="1" format="ascii">
          281.15 281.15 281.15 281.15 281.15 281.15 281.15 281.15 281.15 281.15 281.15 281.15
          281.15 281.15 281.15 281.15 281.15 281.15 281.15 281.15 281.15 281.15 281.15 281.15
          281.15 281.15 281.15 281.15 281.15 281.15
        </DataArray>
        <DataArray type="Float32" Name="phase presence" NumberOfComponents="1" format="ascii">
          1 1 1 1 1 1 1 1 1 1 1 1
          1 1 1 1 1 1 1 1 1 1 1 1
          1 1 1 1 1 1
        </DataArray>
        <DataArray type="Float32" Name="precipitateVolumeFraction_au" NumberOfComponents="1" format="ascii">
          5.5243e-10 5.52588e-10 5.52473e-10 5.52572e-10 5.52567e-10 5.52593e-10 5.52579e-10 5.52605e-10 5.52578e-10 5.52586e-10 5.5259e-10 5.52567e-10
          5.52521e-10 5.52606e-10 5.52575e-10 5.52519e-10 5.52561e-10 5.5251e-10 5.52584e-10 5.5258e-10 5.52577e-10 5.52574e-10 5.52709e-10 9.18548e-10
          0.000269851 0.000269835 0.000269817 0.000269794 5.52284e-10 5.51322e-10
        </DataArray>
        <DataArray type="Float32" Name="precipitateVolumeFraction_nanoAu" NumberOfComponents="1" format="ascii">
          3.06334e-13 3.06427e-13 3.06359e-13 3.06416e-13 3.06413e-13 3.06426e-13 3.06418e-13 3.06432e-13 3.06416e-13 3.0642e-13 3.06421e-13 3.06407e-13
          3.06381e-13 3.06427e-13 3.06408e-13 3.06375e-13 3.06397e-13 3.06366e-13 3.06404e-13 3.06397e-13 3.0639e-13 3.06408e-13 3.13146e-13 2.53092e-11
          1.49571e-07 1.65283e-07 1.83712e-07 2.05499e-07 4.74175e-13 4.67606e-13
        </DataArray>
        <DataArray type="Float32" Name="precipitateVolumeFraction_d" NumberOfComponents="1" format="ascii">
          0.000651418 0.000651482 0.000651572 0.000651699 0.000651877 0.000652127 0.000652477 0.000652965 0.000653643 0.000654583 0.00065588 0.000657661
          0.000660098 0.000663419 0.00066793 0.000674038 0.000682296 0.00069346 0.000708586 0.000729189 0.000757522 0.000797094 0.000853699 0.000937632
          0.00106904 0.00129306 0.00173136 0.00283907 0.00787642 0.123582
        </DataArray>
        <DataArray type="Float32" Name="precipitateVolumeFraction_p" NumberOfComponents="1" format="ascii">
          0.000651418 0.000651482 0.000651572 0.000651699 0.000651877 0.000652127 0.000652477 0.000652965 0.000653643 0.000654583 0.00065588 0.000657661
          0.000660098 0.000663419 0.00066793 0.000674038 0.000682296 0.00069346 0.000708586 0.000729189 0.000757522 0.000797094 0.000853699 0.000937632
          0.00106904 0.00129306 0.00173136 0.00283907 0.00787642 0.123582
        </DataArray>
        <DataArray type="Float32" Name="K" NumberOfComponents="1" format="ascii">
          9.83364e-11 9.83363e-11 9.8336e-11 9.83357e-11 9.83353e-11 9.83346e-11 9.83337e-11 9.83325e-11 9.83308e-11 9.83284e-11 9.83251e-11 9.83206e-11
          9.83144e-11 9.8306e-11 9.82946e-11 9.82791e-11 9.82581e-11 9.82298e-11 9.81915e-11 9.81393e-11 9.80676e-11 9.79675e-11 9.78245e-11 9.76127e-11
          9.69431e-11 9.63829e-11 9.52945e-11 9.25888e-11 8.13569e-11 2.98374e-13
        </DataArray>
        <DataArray type="Float32" Name="X^w_H2O" NumberOfComponents="1" format="ascii">
          0.999846 0.999846 0.999846 0.999846 0.999846 0.999846 0.999846 0.999846 0.999846 0.999846 0.999846 0.999846
          0.999846 0.999846 0.999846 0.999846 0.999846 0.999846 0.999846 0.999846 0.999846 0.999846 0.999846 0.999846
          0.999846 0.999844 0.999843 0.999841 0.999839 0.99984
        </DataArray>
        <DataArray type="Float32" Name="X^w_Air" NumberOfComponents="1" format="ascii">
          0 0 0 0 0 0 0 0 0 0 0 0
          0 0 0 0 0 0 0 0 0 0 0 0
          0 0 0 0 0 0
        </DataArray>
        <DataArray type="Float32" Name="X^w_AuComplex" NumberOfComponents="1" format="ascii">
          1.36004e-16 1.36044e-16 1.36014e-16 1.36039e-16 1.36037e-16 1.36043e-16 1.3604e-16 1.36046e-16 1.36038e-16 1.3604e-16 1.3604e-16 1.36034e-16
          1.36022e-16 1.36043e-16 1.36034e-16 1.36019e-16 1.36028e-16 1.36014e-16 1.3603e-16 1.36026e-16 1.36021e-16 1.36022e-16 1.38547e-16 1.11949e-14
          6.63971e-11 7.79725e-11 9.26644e-11 1.11607e-10 2.7942e-16 2.73212e-16
        </DataArray>
        <DataArray type="Float32" Name="X^w_nanoAu" NumberOfComponents="1" format="ascii">
          1.33413e-18 1.33452e-18 1.33424e-18 1.33448e-18 1.33447e-18 1.33452e-18 1.33449e-18 1.33455e-18 1.33448e-18 1.33449e-18 1.3345e-18 1.33444e-18
          1.33432e-18 1.33452e-18 1.33444e-18 1.33429e-18 1.33438e-18 1.33425e-18 1.3344e-18 1.33445e-18 1.34331e-18 2.16812e-18 7.8549e-17 7.14954e-15
          6.52025e-13 7.20499e-13 8.00614e-13 8.84448e-13 2.05894e-18 1.98558e-18
        </DataArray>
        <DataArray type="Float32" Name="X^w_cyanide" NumberOfComponents="1" format="ascii">
          1.25663e-05 1.25663e-05 1.25663e-05 1.25663e-05 1.25663e-05 1.25662e-05 1.25662e-05 1.25662e-05 1.25662e-05 1.25662e-05 1.25661e-05 1.25661e-05
          1.25661e-05 1.2566e-05 1.2566e-05 1.25659e-05 1.25658e-05 1.25658e-05 1.25656e-05 1.25654e-05 1.25652e-05 1.25648e-05 1.25643e-05 1.25635e-05
          1.25624e-05 1.38829e-05 1.54319e-05 1.72681e-05 1.94596e-05 1.923e-05
        </DataArray>
        <DataArray type="Float32" Name="X^w_citrate" NumberOfComponents="1" format="ascii">
          0.000141789 0.000141789 0.000141789 0.000141789 0.000141789 0.000141789 0.000141789 0.000141789 0.000141789 0.000141789 0.000141789 0.000141789
          0.000141788 0.000141788 0.000141788 0.000141788 0.000141787 0.000141787 0.000141786 0.000141785 0.000141783 0.000141781 0.000141777 0.000141771
          0.000141762 0.000141748 0.00014172 0.000141651 0.000141422 0.000139753
        </DataArray>
        <DataArray type="Float32" Name="X^w_substrate" NumberOfComponents="1" format="ascii">
          7.11477e-12 9.72846e-12 1.33016e-11 1.81861e-11 2.48636e-11 3.39925e-11 4.6474e-11 6.35422e-11 8.68891e-11 1.18837e-10 1.62581e-10 2.22526e-10
          3.04769e-10 4.1779e-10 5.73451e-10 7.8849e-10 1.08677e-09 1.50278e-09 2.08726e-09 2.91648e-09 4.1084e-09 5.85209e-09 8.46472e-09 1.25108e-08
          1.90768e-08 3.04888e-08 5.25441e-08 1.03425e-07 2.67588e-07 1.44429e-06
        </DataArray>
        <DataArray type="Float32" Name="m^w_H2O" NumberOfComponents="1" format="ascii">
          55492.1 55492.1 55492.1 55492.1 55492.1 55492.1 55492.1 55492.1 55492.1 55492.1 55492.1 55492
          55492 55492 55492 55492 55492 55492 55492 55492 55492 55492 55491.9 55491.9
          55491.9 55491.9 55491.8 55491.6 55491.5 55491.6
        </DataArray>
        <DataArray type="Float32" Name="m^w_Air" NumberOfComponents="1" format="ascii">
          0 0 0 0 0 0 0 0 0 0 0 0
          0 0 0 0 0 0 0 0 0 0 0 0
          0 0 0 0 0 0
        </DataArray>
        <DataArray type="Float32" Name="m^w_AuComplex" NumberOfComponents="1" format="ascii">
          6.9038e-13 6.90584e-13 6.90433e-13 6.90559e-13 6.9055e-13 6.9058e-13 6.9056e-13 6.90592e-13 6.90555e-13 6.90563e-13 6.90565e-13 6.90534e-13
          6.90473e-13 6.90575e-13 6.90532e-13 6.90456e-13 6.90502e-13 6.9043e-13 6.9051e-13 6.90489e-13 6.90464e-13 6.90469e-13 7.03285e-13 5.68272e-11
          3.37042e-07 3.95801e-07 4.70379e-07 5.66535e-07 1.41838e-12 1.38687e-12
        </DataArray>
        <DataArray type="Float32" Name="m^w_nanoAu" NumberOfComponents="1" format="ascii">
          6.77228e-15 6.77428e-15 6.77282e-15 6.77406e-15 6.77398e-15 6.77428e-15 6.77409e-15 6.7744e-15 6.77404e-15 6.77413e-15 6.77415e-15 6.77384e-15
          6.77326e-15 6.77426e-15 6.77383e-15 6.7731e-15 6.77354e-15 6.77285e-15 6.77363e-15 6.77391e-15 6.81888e-15 1.10057e-14 3.98728e-13 3.62922e-11
          3.30978e-09 3.65737e-09 4.06404e-09 4.4896e-09 1.04515e-14 1.00791e-14
        </DataArray>
        <DataArray type="Float32" Name="m^w_cyanide" NumberOfComponents="1" format="ascii">
          0.482879 0.482878 0.482878 0.482877 0.482876 0.482875 0.482874 0.482873 0.482872 0.482871 0.48287 0.482869
          0.482868 0.482866 0.482864 0.482862 0.482859 0.482855 0.48285 0.482844 0.482834 0.48282 0.4828 0.482769
          0.482724 0.533467 0.592992 0.663547 0.74776 0.738937
        </DataArray>
        <DataArray type="Float32" Name="m^w_citrate" NumberOfComponents="1" format="ascii">
          0.749704 0.749704 0.749704 0.749704 0.749704 0.749704 0.749703 0.749703 0.749703 0.749703 0.749702 0.749701
          0.749701 0.7497 0.749698 0.749697 0.749694 0.749691 0.749687 0.74968 0.749671 0.749658 0.749638 0.749608
          0.749559 0.749487 0.749337 0.748973 0.747761 0.738937
        </DataArray>
        <DataArray type="Float32" Name="m^w_substrate" NumberOfComponents="1" format="ascii">
          3.94857e-08 5.39912e-08 7.38212e-08 1.0093e-07 1.37988e-07 1.88652e-07 2.57922e-07 3.52647e-07 4.82218e-07 6.59523e-07 9.02293e-07 1.23498e-06
          1.69141e-06 2.31865e-06 3.18254e-06 4.37597e-06 6.03136e-06 8.34016e-06 1.15839e-05 1.61859e-05 2.28008e-05 3.2478e-05 4.69775e-05 6.94324e-05
          0.000105872 0.000169207 0.000291609 0.000573988 0.00148506 0.00801552
        </DataArray>
        <DataArray type="Float32" Name="process rank" NumberOfComponents="1" format="ascii">
          0 0 0 0 0 0 0 0 0 0 0 0
          0 0 0 0 0 0 0 0 0 0 0 0
          0 0 0 0 0 0
        </DataArray>
      </CellData>
      <Points>
        <DataArray type="Float32" Name="Coordinates" NumberOfComponents="3" format="ascii">
          0 0 0 0.5 0 0 0 0.0333333 0 0.5 0.0333333 0
          0 0.0666667 0 0.5 0.0666667 0 0 0.1 0 0.5 0.1 0
          0 0.133333 0 0.5 0.133333 0 0 0.166667 0 0.5 0.166667 0
          0 0.2 0 0.5 0.2 0 0 0.233333 0 0.5 0.233333 0
          0 0.266667 0 0.5 0.266667 0 0 0.3 0 0.5 0.3 0
          0 0.333333 0 0.5 0.333333 0 0 0.366667 0 0.5 0.366667 0
          0 0.4 0 0.5 0.4 0 0 0.433333 0 0.5 0.433333 0
          0 0.466667 0 0.5 0.466667 0 0 0.5 0 0.5 0.5 0
          0 0.533333 0 0.5 0.533333 0 0 0.566667 0 0.5 0.566667 0
          0 0.6 0 0.5 0.6 0 0 0.633333 0 0.5 0.633333 0
          0 0.666667 0 0.5 0.666667 0 0 0.7 0 0.5 0.7 0
          0 0.733333 0 0.5 0.733333 0 0 0.766667 0 0.5 0.766667 0
          0 0.8 0 0.5 0.8 0 0 0.833333 0 0.5 0.833333 0
          0 0.866667 0 0.5 0.866667 0 0 0.9 0 0.5 0.9 0
          0 0.933333 0 0.5 0.933333 0 0 0.966667 0 0.5 0.966667 0
          0 1 0 0.5 1 0
        </DataArray>
      </Points>
      <Cells>
        <DataArray type="Int32" Name="connectivity" NumberOfComponents="1" format="ascii">
          0 1 3 2 2 3 5 4 4 5 7 6
          6 7 9 8 8 9 11 10 10 11 13 12
          12 13 15 14 14 15 17 16 16 17 19 18
          18 19 21 20 20 21 23 22 22 23 25 24
          24 25 27 26 26 27 29 28 28 29 31 30
          30 31 33 32 32 33 35 34 34 35 37 36
          36 37 39 38 38 39 41 40 40 41 43 42
          42 43 45 44 44 45 47 46 46 47 49 48
          48 49 51 50 50 51 53 52 52 53 55 54
          54 55 57 56 56 57 59 58 58 59 61 60
        </DataArray>
        <DataArray type="Int32" Name="offsets" NumberOfComponents="1" format="ascii">
          4 8 12 16 20 24 28 32 36 40 44 48
          52 56 60 64 68 72 76 80 84 88 92 96
          100 104 108 112 116 120
        </DataArray>
        <DataArray type="UInt8" Name="types" NumberOfComponents="1" format="ascii">
          9 9 9 9 9 9 9 9 9 9 9 9
          9 9 9 9 9 9 9 9 9 9 9 9
          9 9 9 9 9 9
        </DataArray>
      </Cells>
    </Piece>
  </UnstructuredGrid>
</VTKFile>
