<?xml version="1.0"?>
<VTKFile type="UnstructuredGrid" version="0.1" byte_order="LittleEndian">
  <UnstructuredGrid>
    <Piece NumberOfCells="30" NumberOfPoints="62">
      <CellData Scalars="Sg">
        <DataArray type="Float32" Name="Sg" NumberOfComponents="1" format="ascii">
          0 0 0 0 0 0 0 0 0 0 0 0
          0 0 0 0 0 0 0 0 0 0 0 0
          0 0 0 0 0 0
        </DataArray>
        <DataArray type="Float32" Name="Sl" NumberOfComponents="1" format="ascii">
          1 1 1 1 1 1 1 1 1 1 1 1
          1 1 1 1 1 1 1 1 1 1 1 1
          1 1 1 1 1 1
        </DataArray>
        <DataArray type="Float32" Name="pg" NumberOfComponents="1" format="ascii">
          24687.8 24360.9 24034 23707 23380.1 23053.1 22726.2 22399.3 22072.3 21745.4 21418.4 21091.5
          20764.6 20437.6 20110.7 19783.7 19456.8 19129.9 18802.9 18476 18149 17822.1 17495.1 17168.2
          16841.3 16514.3 16187.4 15860.4 15533.5 15207.2
        </DataArray>
        <DataArray type="Float32" Name="pl" NumberOfComponents="1" format="ascii">
          110628 110301 109974 109647 109320 108993 108666 108339 108012 107685 107358 107031
          106704 106377 106050 105723 105396 105070 104743 104416 104089 103762 103435 103108
          102781 102454 102127 101800 101473 101147
        </DataArray>
        <DataArray type="Float32" Name="pc" NumberOfComponents="1" format="ascii">
          -85939.7 -85939.7 -85939.7 -85939.7 -85939.7 -85939.7 -85939.7 -85939.7 -85939.7 -85939.7 -85939.7 -85939.7
          -85939.7 -85939.7 -85939.7 -85939.7 -85939.7 -85939.7 -85939.7 -85939.7 -85939.7 -85939.7 -85939.7 -85939.7
          -85939.7 -85939.7 -85939.7 -85939.7 -85939.7 -85939.7
        </DataArray>
        <DataArray type="Float32" Name="rhoL" NumberOfComponents="1" format="ascii">
          999.855 999.855 999.855 999.855 999.855 999.854 999.854 999.854 999.854 999.854 999.854 999.854
          999.853 999.853 999.853 999.853 999.853 999.853 999.852 999.852 999.852 999.852 999.852 999.852
          999.852 999.851 999.851 999.851 999.851 999.851
        </DataArray>
        <DataArray type="Float32" Name="rhoG" NumberOfComponents="1" format="ascii">
          0.30585 0.3018 0.29775 0.293699 0.289649 0.285598 0.281548 0.277498 0.273447 0.269397 0.265347 0.261296
          0.257246 0.253195 0.249145 0.245095 0.241044 0.236994 0.232944 0.228893 0.224843 0.220793 0.216742 0.212692
          0.208641 0.204591 0.200541 0.19649 0.19244 0.188397
        </DataArray>
        <DataArray type="Float32" Name="mobL" NumberOfComponents="1" format="ascii">
          722.171 722.17 722.17 722.17 722.17 722.17 722.169 722.169 722.169 722.169 722.169 722.169
          722.168 722.168 722.168 722.168 722.168 722.167 722.167 722.167 722.167 722.167 722.166 722.166
          722.166 722.166 722.166 722.166 722.165 722.165
        </DataArray>
        <DataArray type="Float32" Name="mobG" NumberOfComponents="1" format="ascii">
          0 0 0 0 0 0 0 0 0 0 0 0
          0 0 0 0 0 0 0 0 0 0 0 0
          0 0 0 0 0 0
        </DataArray>
        <DataArray type="Float32" Name="porosity" NumberOfComponents="1" format="ascii">
          0.298623 0.298623 0.298623 0.298622 0.298622 0.298622 0.298621 0.29862 0.298618 0.298616 0.298614 0.29861
          0.298605 0.298598 0.298588 0.298576 0.298558 0.298535 0.298503 0.29846 0.298401 0.298319 0.298202 0.298028
          0.297488 0.297032 0.296153 0.293995 0.285093 0.0757351
        </DataArray>
        <DataArray type="Float32" Name="temperature" NumberOfComponents="1" format="ascii">
          281.15 281.15 281.15 281.15 281.15 281.15 281.15 281.15 281.15 281.15 281.15 281.15
          281.15 281.15 281.15 281.15 281.15 281.15 281.15 281.15 281.15 281.15 281.15 281.15
          281.15 281.15 281.15 281.15 281.15 281.15
        </DataArray>
        <DataArray type="Float32" Name="phase presence" NumberOfComponents="1" format="ascii">
          1 1 1 1 1 1 1 1 1 1 1 1
          1 1 1 1 1 1 1 1 1 1 1 1
          1 1 1 1 1 1
        </DataArray>
        <DataArray type="Float32" Name="precipitateVolumeFraction_au" NumberOfComponents="1" format="ascii">
          5.52422e-10 5.5258e-10 5.52464e-10 5.52564e-10 5.52559e-10 5.52584e-10 5.5257e-10 5.52597e-10 5.52569e-10 5.52578e-10 5.52581e-10 5.52559e-10
          5.52513e-10 5.52598e-10 5.52567e-10 5.52511e-10 5.52553e-10 5.52502e-10 5.52575e-10 5.52571e-10 5.52569e-10 5.52566e-10 5.52666e-10 7.89889e-10
          0.000269851 0.000269835 0.000269817 0.000269795 5.52276e-10 5.51315e-10
        </DataArray>
        <DataArray type="Float32" Name="precipitateVolumeFraction_nanoAu" NumberOfComponents="1" format="ascii">
          3.13976e-13 3.15015e-13 3.1451e-13 3.14941e-13 3.14922e-13 3.14996e-13 3.14948e-13 3.15e-13 3.14936e-13 3.14944e-13 3.14948e-13 3.14911e-13
          3.14855e-13 3.14947e-13 3.14911e-13 3.14856e-13 3.14891e-13 3.14847e-13 3.14899e-13 3.14889e-13 3.14878e-13 3.14893e-13 3.21618e-13 2.52876e-11
          1.4963e-07 1.65331e-07 1.83737e-07 2.05478e-07 4.82215e-13 4.74887e-13
        </DataArray>
        <DataArray type="Float32" Name="precipitateVolumeFraction_d" NumberOfComponents="1" format="ascii">
          0.000688461 0.000688528 0.000688622 0.000688755 0.000688941 0.000689203 0.00068957 0.000690082 0.000690794 0.00069178 0.00069314 0.000695008
          0.000697564 0.000701047 0.000705774 0.000712173 0.00072082 0.000732501 0.000748311 0.000769819 0.000799347 0.000840502 0.000899199 0.000985889
          0.00112083 0.00134885 0.00178833 0.00286749 0.00745342 0.112132
        </DataArray>
        <DataArray type="Float32" Name="precipitateVolumeFraction_p" NumberOfComponents="1" format="ascii">
          0.000688461 0.000688528 0.000688622 0.000688755 0.000688941 0.000689203 0.00068957 0.000690082 0.000690794 0.00069178 0.00069314 0.000695008
          0.000697564 0.000701047 0.000705774 0.000712173 0.00072082 0.000732501 0.000748311 0.000769819 0.000799347 0.000840502 0.000899199 0.000985889
          0.00112083 0.00134885 0.00178833 0.00286749 0.00745342 0.112132
        </DataArray>
        <DataArray type="Float32" Name="K" NumberOfComponents="1" format="ascii">
          9.82425e-11 9.82423e-11 9.82421e-11 9.82418e-11 9.82413e-11 9.82406e-11 9.82397e-11 9.82384e-11 9.82366e-11 9.82341e-11 9.82307e-11 9.82259e-11
          9.82194e-11 9.82106e-11 9.81987e-11 9.81824e-11 9.81605e-11 9.8131e-11 9.80909e-11 9.80365e-11 9.79618e-11 9.78578e-11 9.77097e-11 9.74911e-11
          9.68133e-11 9.62438e-11 9.51538e-11 9.25202e-11 8.22799e-11 9.2285e-13
        </DataArray>
        <DataArray type="Float32" Name="X^w_H2O" NumberOfComponents="1" format="ascii">
          0.999846 0.999846 0.999846 0.999846 0.999846 0.999846 0.999846 0.999846 0.999846 0.999846 0.999846 0.999846
          0.999846 0.999846 0.999846 0.999846 0.999846 0.999846 0.999846 0.999846 0.999846 0.999846 0.999846 0.999846
          0.999846 0.999844 0.999843 0.999841 0.999839 0.99984
        </DataArray>
        <DataArray type="Float32" Name="X^w_Air" NumberOfComponents="1" format="ascii">
          0 0 0 0 0 0 0 0 0 0 0 0
          0 0 0 0 0 0 0 0 0 0 0 0
          0 0 0 0 0 0
        </DataArray>
        <DataArray type="Float32" Name="X^w_AuComplex" NumberOfComponents="1" format="ascii">
          1.38085e-16 1.38375e-16 1.38229e-16 1.38352e-16 1.38346e-16 1.38368e-16 1.38353e-16 1.38368e-16 1.38348e-16 1.3835e-16 1.38351e-16 1.38338e-16
          1.38317e-16 1.38349e-16 1.38336e-16 1.38315e-16 1.38327e-16 1.38308e-16 1.38327e-16 1.38322e-16 1.38315e-16 1.38315e-16 1.40832e-16 1.11844e-14
          6.64328e-11 7.80039e-11 9.26835e-11 1.11594e-10 2.826e-16 2.75756e-16
        </DataArray>
        <DataArray type="Float32" Name="X^w_nanoAu" NumberOfComponents="1" format="ascii">
          1.36747e-18 1.37192e-18 1.36977e-18 1.37162e-18 1.37154e-18 1.37186e-18 1.37166e-18 1.37188e-18 1.3716e-18 1.37164e-18 1.37165e-18 1.37149e-18
          1.37125e-18 1.37164e-18 1.37148e-18 1.37125e-18 1.37139e-18 1.3712e-18 1.37141e-18 1.37145e-18 1.38033e-18 2.20732e-18 7.87328e-17 7.15759e-15
          6.52269e-13 7.20679e-13 8.00666e-13 8.84218e-13 2.09295e-18 2.01348e-18
        </DataArray>
        <DataArray type="Float32" Name="X^w_cyanide" NumberOfComponents="1" format="ascii">
          1.25716e-05 1.25715e-05 1.25715e-05 1.25714e-05 1.25713e-05 1.25713e-05 1.25712e-05 1.25711e-05 1.25711e-05 1.2571e-05 1.25709e-05 1.25708e-05
          1.25708e-05 1.25707e-05 1.25706e-05 1.25705e-05 1.25704e-05 1.25702e-05 1.257e-05 1.25698e-05 1.25695e-05 1.25691e-05 1.25685e-05 1.25675e-05
          1.25662e-05 1.3886e-05 1.54338e-05 1.72671e-05 1.94516e-05 1.92012e-05
        </DataArray>
        <DataArray type="Float32" Name="X^w_citrate" NumberOfComponents="1" format="ascii">
          0.000141789 0.000141789 0.000141789 0.000141789 0.000141789 0.000141789 0.000141789 0.000141789 0.000141789 0.000141789 0.000141789 0.000141789
          0.000141788 0.000141788 0.000141788 0.000141788 0.000141787 0.000141787 0.000141786 0.000141785 0.000141783 0.00014178 0.000141776 0.00014177
          0.000141759 0.000141743 0.00014171 0.000141629 0.000141364 0.000139544
        </DataArray>
        <DataArray type="Float32" Name="X^w_substrate" NumberOfComponents="1" format="ascii">
          5.52254e-12 7.65568e-12 1.06122e-11 1.47101e-11 2.03898e-11 2.82625e-11 3.9176e-11 5.43078e-11 7.5294e-11 1.04412e-10 1.44837e-10 2.01008e-10
          2.79151e-10 3.88044e-10 5.40127e-10 7.53186e-10 1.0529e-09 1.47686e-09 2.08101e-09 2.95048e-09 4.21838e-09 6.1003e-09 8.96146e-09 1.34576e-08
          2.08602e-08 3.39056e-08 5.94257e-08 1.18737e-07 3.08762e-07 1.5917e-06
        </DataArray>
        <DataArray type="Float32" Name="m^w_H2O" NumberOfComponents="1" format="ascii">
          55492.1 55492.1 55492.1 55492.1 55492.1 55492.1 55492.1 55492.1 55492.1 55492.1 55492.1 55492
          55492 55492 55492 55492 55492 55492 55492 55492 55492 55492 55491.9 55491.9
          55491.9 55491.9 55491.8 55491.6 55491.5 55491.6
        </DataArray>
        <DataArray type="Float32" Name="m^w_Air" NumberOfComponents="1" format="ascii">
          0 0 0 0 0 0 0 0 0 0 0 0
          0 0 0 0 0 0 0 0 0 0 0 0
          0 0 0 0 0 0
        </DataArray>
        <DataArray type="Float32" Name="m^w_AuComplex" NumberOfComponents="1" format="ascii">
          7.00944e-13 7.02418e-13 7.01676e-13 7.02301e-13 7.02269e-13 7.02378e-13 7.02303e-13 7.02382e-13 7.02278e-13 7.02289e-13 7.02292e-13 7.02227e-13
          7.02123e-13 7.02285e-13 7.02215e-13 7.02109e-13 7.0217e-13 7.02076e-13 7.02173e-13 7.02145e-13 7.02112e-13 7.02107e-13 7.14885e-13 5.6774e-11
          3.37224e-07 3.9596e-07 4.70476e-07 5.66467e-07 1.43452e-12 1.39978e-12
        </DataArray>
        <DataArray type="Float32" Name="m^w_nanoAu" NumberOfComponents="1" format="ascii">
          6.94152e-15 6.96413e-15 6.95319e-15 6.9626e-15 6.9622e-15 6.96382e-15 6.96278e-15 6.96389e-15 6.96249e-15 6.96267e-15 6.96274e-15 6.96192e-15
          6.9607e-15 6.96269e-15 6.96187e-15 6.96068e-15 6.96141e-15 6.96042e-15 6.96151e-15 6.96172e-15 7.00676e-15 1.12047e-14 3.9966e-13 3.63331e-11
          3.31102e-09 3.65828e-09 4.06431e-09 4.48843e-09 1.06242e-14 1.02208e-14
        </DataArray>
        <DataArray type="Float32" Name="m^w_cyanide" NumberOfComponents="1" format="ascii">
          0.483082 0.483079 0.483076 0.483073 0.483071 0.483068 0.483065 0.483063 0.48306 0.483057 0.483054 0.483051
          0.483048 0.483045 0.483041 0.483037 0.483033 0.483027 0.48302 0.483011 0.483 0.482983 0.482959 0.482923
          0.482871 0.533587 0.593061 0.66351 0.747451 0.737832
        </DataArray>
        <DataArray type="Float32" Name="m^w_citrate" NumberOfComponents="1" format="ascii">
          0.749704 0.749704 0.749704 0.749704 0.749704 0.749704 0.749703 0.749703 0.749703 0.749703 0.749702 0.749702
          0.749701 0.7497 0.749699 0.749697 0.749695 0.749691 0.749687 0.74968 0.749671 0.749656 0.749635 0.749601
          0.749545 0.749461 0.749286 0.748858 0.747452 0.737832
        </DataArray>
        <DataArray type="Float32" Name="m^w_substrate" NumberOfComponents="1" format="ascii">
          3.06491e-08 4.24876e-08 5.8896e-08 8.16382e-08 1.1316e-07 1.56851e-07 2.1742e-07 3.01398e-07 4.17867e-07 5.79466e-07 8.03816e-07 1.11555e-06
          1.54924e-06 2.15357e-06 2.9976e-06 4.18003e-06 5.84339e-06 8.19628e-06 1.15492e-05 1.63746e-05 2.34112e-05 3.38554e-05 4.97343e-05 7.4687e-05
          0.00011577 0.000188169 0.0003298 0.000658966 0.00171356 0.00883362
        </DataArray>
        <DataArray type="Float32" Name="process rank" NumberOfComponents="1" format="ascii">
          0 0 0 0 0 0 0 0 0 0 0 0
          0 0 0 0 0 0 0 0 0 0 0 0
          0 0 0 0 0 0
        </DataArray>
      </CellData>
      <Points>
        <DataArray type="Float32" Name="Coordinates" NumberOfComponents="3" format="ascii">
          0 0 0 0.5 0 0 0 0.0333333 0 0.5 0.0333333 0
          0 0.0666667 0 0.5 0.0666667 0 0 0.1 0 0.5 0.1 0
          0 0.133333 0 0.5 0.133333 0 0 0.166667 0 0.5 0.166667 0
          0 0.2 0 0.5 0.2 0 0 0.233333 0 0.5 0.233333 0
          0 0.266667 0 0.5 0.266667 0 0 0.3 0 0.5 0.3 0
          0 0.333333 0 0.5 0.333333 0 0 0.366667 0 0.5 0.366667 0
          0 0.4 0 0.5 0.4 0 0 0.433333 0 0.5 0.433333 0
          0 0.466667 0 0.5 0.466667 0 0 0.5 0 0.5 0.5 0
          0 0.533333 0 0.5 0.533333 0 0 0.566667 0 0.5 0.566667 0
          0 0.6 0 0.5 0.6 0 0 0.633333 0 0.5 0.633333 0
          0 0.666667 0 0.5 0.666667 0 0 0.7 0 0.5 0.7 0
          0 0.733333 0 0.5 0.733333 0 0 0.766667 0 0.5 0.766667 0
          0 0.8 0 0.5 0.8 0 0 0.833333 0 0.5 0.833333 0
          0 0.866667 0 0.5 0.866667 0 0 0.9 0 0.5 0.9 0
          0 0.933333 0 0.5 0.933333 0 0 0.966667 0 0.5 0.966667 0
          0 1 0 0.5 1 0
        </DataArray>
      </Points>
      <Cells>
        <DataArray type="Int32" Name="connectivity" NumberOfComponents="1" format="ascii">
          0 1 3 2 2 3 5 4 4 5 7 6
          6 7 9 8 8 9 11 10 10 11 13 12
          12 13 15 14 14 15 17 16 16 17 19 18
          18 19 21 20 20 21 23 22 22 23 25 24
          24 25 27 26 26 27 29 28 28 29 31 30
          30 31 33 32 32 33 35 34 34 35 37 36
          36 37 39 38 38 39 41 40 40 41 43 42
          42 43 45 44 44 45 47 46 46 47 49 48
          48 49 51 50 50 51 53 52 52 53 55 54
          54 55 57 56 56 57 59 58 58 59 61 60
        </DataArray>
        <DataArray type="Int32" Name="offsets" NumberOfComponents="1" format="ascii">
          4 8 12 16 20 24 28 32 36 40 44 48
          52 56 60 64 68 72 76 80 84 88 92 96
          100 104 108 112 116 120
        </DataArray>
        <DataArray type="UInt8" Name="types" NumberOfComponents="1" format="ascii">
          9 9 9 9 9 9 9 9 9 9 9 9
          9 9 9 9 9 9 9 9 9 9 9 9
          9 9 9 9 9 9
        </DataArray>
      </Cells>
    </Piece>
  </UnstructuredGrid>
</VTKFile>
