<?xml version="1.0"?>
<VTKFile type="UnstructuredGrid" version="0.1" byte_order="LittleEndian">
  <UnstructuredGrid>
    <Piece NumberOfCells="30" NumberOfPoints="62">
      <CellData Scalars="Sg">
        <DataArray type="Float32" Name="Sg" NumberOfComponents="1" format="ascii">
          0 0 0 0 0 0 0 0 0 0 0 0
          0 0 0 0 0 0 0 0 0 0 0 0
          0 0 0 0 0 0
        </DataArray>
        <DataArray type="Float32" Name="Sl" NumberOfComponents="1" format="ascii">
          1 1 1 1 1 1 1 1 1 1 1 1
          1 1 1 1 1 1 1 1 1 1 1 1
          1 1 1 1 1 1
        </DataArray>
        <DataArray type="Float32" Name="pg" NumberOfComponents="1" format="ascii">
          24687.8 24360.9 24034 23707 23380.1 23053.1 22726.2 22399.3 22072.3 21745.4 21418.4 21091.5
          20764.6 20437.6 20110.7 19783.7 19456.8 19129.8 18802.9 18476 18149 17822.1 17495.1 17168.2
          16841.3 16514.3 16187.4 15860.4 15533.5 15209.7
        </DataArray>
        <DataArray type="Float32" Name="pl" NumberOfComponents="1" format="ascii">
          110628 110301 109974 109647 109320 108993 108666 108339 108012 107685 107358 107031
          106704 106377 106050 105723 105396 105070 104743 104416 104089 103762 103435 103108
          102781 102454 102127 101800 101473 101149
        </DataArray>
        <DataArray type="Float32" Name="pc" NumberOfComponents="1" format="ascii">
          -85939.7 -85939.7 -85939.7 -85939.7 -85939.7 -85939.7 -85939.7 -85939.7 -85939.7 -85939.7 -85939.7 -85939.7
          -85939.7 -85939.7 -85939.7 -85939.7 -85939.7 -85939.7 -85939.7 -85939.7 -85939.7 -85939.7 -85939.7 -85939.7
          -85939.7 -85939.7 -85939.7 -85939.7 -85939.7 -85939.7
        </DataArray>
        <DataArray type="Float32" Name="rhoL" NumberOfComponents="1" format="ascii">
          999.855 999.855 999.855 999.855 999.855 999.854 999.854 999.854 999.854 999.854 999.854 999.854
          999.853 999.853 999.853 999.853 999.853 999.853 999.852 999.852 999.852 999.852 999.852 999.852
          999.852 999.851 999.851 999.851 999.851 999.851
        </DataArray>
        <DataArray type="Float32" Name="rhoG" NumberOfComponents="1" format="ascii">
          0.30585 0.3018 0.29775 0.293699 0.289649 0.285598 0.281548 0.277498 0.273447 0.269397 0.265347 0.261296
          0.257246 0.253195 0.249145 0.245095 0.241044 0.236994 0.232944 0.228893 0.224843 0.220793 0.216742 0.212692
          0.208641 0.204591 0.200541 0.19649 0.19244 0.188428
        </DataArray>
        <DataArray type="Float32" Name="mobL" NumberOfComponents="1" format="ascii">
          722.171 722.17 722.17 722.17 722.17 722.17 722.169 722.169 722.169 722.169 722.169 722.169
          722.168 722.168 722.168 722.168 722.168 722.167 722.167 722.167 722.167 722.167 722.166 722.166
          722.166 722.166 722.166 722.166 722.165 722.165
        </DataArray>
        <DataArray type="Float32" Name="mobG" NumberOfComponents="1" format="ascii">
          0 0 0 0 0 0 0 0 0 0 0 0
          0 0 0 0 0 0 0 0 0 0 0 0
          0 0 0 0 0 0
        </DataArray>
        <DataArray type="Float32" Name="porosity" NumberOfComponents="1" format="ascii">
          0.298891 0.298891 0.298891 0.298891 0.29889 0.29889 0.298889 0.298888 0.298887 0.298886 0.298883 0.29888
          0.298876 0.29887 0.298862 0.298851 0.298837 0.298817 0.29879 0.298754 0.298704 0.298633 0.298531 0.298379
          0.297867 0.297447 0.296597 0.294307 0.282591 0.0446319
        </DataArray>
        <DataArray type="Float32" Name="temperature" NumberOfComponents="1" format="ascii">
          281.15 281.15 281.15 281.15 281.15 281.15 281.15 281.15 281.15 281.15 281.15 281.15
          281.15 281.15 281.15 281.15 281.15 281.15 281.15 281.15 281.15 281.15 281.15 281.15
          281.15 281.15 281.15 281.15 281.15 281.15
        </DataArray>
        <DataArray type="Float32" Name="phase presence" NumberOfComponents="1" format="ascii">
          1 1 1 1 1 1 1 1 1 1 1 1
          1 1 1 1 1 1 1 1 1 1 1 1
          1 1 1 1 1 1
        </DataArray>
        <DataArray type="Float32" Name="precipitateVolumeFraction_au" NumberOfComponents="1" format="ascii">
          5.5243e-10 5.52589e-10 5.52473e-10 5.52572e-10 5.52567e-10 5.52593e-10 5.52579e-10 5.52605e-10 5.52578e-10 5.52586e-10 5.5259e-10 5.52567e-10
          5.52521e-10 5.52606e-10 5.52575e-10 5.52519e-10 5.52561e-10 5.52511e-10 5.52584e-10 5.5258e-10 5.52577e-10 5.52575e-10 5.52812e-10 1.29568e-09
          0.000269851 0.000269835 0.000269817 0.000269794 5.52284e-10 5.5132e-10
        </DataArray>
        <DataArray type="Float32" Name="precipitateVolumeFraction_nanoAu" NumberOfComponents="1" format="ascii">
          3.06226e-13 3.06314e-13 3.0625e-13 3.06305e-13 3.06302e-13 3.06316e-13 3.06308e-13 3.06323e-13 3.06307e-13 3.06312e-13 3.06314e-13 3.06301e-13
          3.06275e-13 3.06321e-13 3.06303e-13 3.0627e-13 3.06292e-13 3.06261e-13 3.06298e-13 3.06291e-13 3.06284e-13 3.06303e-13 3.13123e-13 2.55003e-11
          1.49545e-07 1.65261e-07 1.83699e-07 2.05509e-07 4.74286e-13 4.67859e-13
        </DataArray>
        <DataArray type="Float32" Name="precipitateVolumeFraction_d" NumberOfComponents="1" format="ascii">
          0.000554394 0.000554452 0.000554532 0.000554645 0.000554804 0.000555026 0.000555336 0.000555768 0.000556367 0.000557196 0.000558338 0.000559906
          0.000562049 0.00056497 0.000568936 0.00057431 0.000581581 0.000591425 0.000604787 0.000623035 0.000648219 0.000683564 0.000734455 0.000810606
          0.000931412 0.00114155 0.00156672 0.00271174 0.00870464 0.127684
        </DataArray>
        <DataArray type="Float32" Name="precipitateVolumeFraction_p" NumberOfComponents="1" format="ascii">
          0.000554394 0.000554452 0.000554532 0.000554645 0.000554804 0.000555026 0.000555336 0.000555768 0.000556367 0.000557196 0.000558338 0.000559906
          0.000562049 0.00056497 0.000568936 0.00057431 0.000581581 0.000591425 0.000604787 0.000623035 0.000648219 0.000683564 0.000734455 0.000810606
          0.000931412 0.00114155 0.00156672 0.00271174 0.00870464 0.127684
        </DataArray>
        <DataArray type="Float32" Name="K" NumberOfComponents="1" format="ascii">
          9.85827e-11 9.85826e-11 9.85824e-11 9.85821e-11 9.85817e-11 9.85811e-11 9.85804e-11 9.85793e-11 9.85777e-11 9.85756e-11 9.85727e-11 9.85687e-11
          9.85633e-11 9.85559e-11 9.85458e-11 9.85321e-11 9.85137e-11 9.84887e-11 9.84548e-11 9.84084e-11 9.83445e-11 9.82549e-11 9.8126e-11 9.79334e-11
          9.72885e-11 9.67614e-11 9.57021e-11 9.28966e-11 7.95742e-11 1.76777e-13
        </DataArray>
        <DataArray type="Float32" Name="X^w_H2O" NumberOfComponents="1" format="ascii">
          0.999846 0.999846 0.999846 0.999846 0.999846 0.999846 0.999846 0.999846 0.999846 0.999846 0.999846 0.999846
          0.999846 0.999846 0.999846 0.999846 0.999846 0.999846 0.999846 0.999846 0.999846 0.999846 0.999846 0.999846
          0.999846 0.999844 0.999843 0.999841 0.999839 0.99984
        </DataArray>
        <DataArray type="Float32" Name="X^w_Air" NumberOfComponents="1" format="ascii">
          0 0 0 0 0 0 0 0 0 0 0 0
          0 0 0 0 0 0 0 0 0 0 0 0
          0 0 0 0 0 0
        </DataArray>
        <DataArray type="Float32" Name="X^w_AuComplex" NumberOfComponents="1" format="ascii">
          1.35954e-16 1.35993e-16 1.35964e-16 1.35989e-16 1.35987e-16 1.35994e-16 1.3599e-16 1.35997e-16 1.3599e-16 1.35992e-16 1.35992e-16 1.35986e-16
          1.35975e-16 1.35995e-16 1.35987e-16 1.35972e-16 1.35981e-16 1.35967e-16 1.35982e-16 1.35978e-16 1.35973e-16 1.35974e-16 1.38536e-16 1.12795e-14
          6.63808e-11 7.79576e-11 9.26552e-11 1.11616e-10 2.79547e-16 2.7344e-16
        </DataArray>
        <DataArray type="Float32" Name="X^w_nanoAu" NumberOfComponents="1" format="ascii">
          1.33366e-18 1.33403e-18 1.33376e-18 1.334e-18 1.33398e-18 1.33404e-18 1.33401e-18 1.33407e-18 1.33401e-18 1.33402e-18 1.33403e-18 1.33397e-18
          1.33386e-18 1.33406e-18 1.33397e-18 1.33383e-18 1.33392e-18 1.33378e-18 1.33393e-18 1.33398e-18 1.34283e-18 2.16684e-18 7.84974e-17 7.14692e-15
          6.51902e-13 7.20399e-13 8.00576e-13 8.84573e-13 2.06004e-18 1.98759e-18
        </DataArray>
        <DataArray type="Float32" Name="X^w_cyanide" NumberOfComponents="1" format="ascii">
          1.25643e-05 1.25643e-05 1.25643e-05 1.25643e-05 1.25643e-05 1.25643e-05 1.25643e-05 1.25643e-05 1.25643e-05 1.25643e-05 1.25643e-05 1.25643e-05
          1.25643e-05 1.25642e-05 1.25642e-05 1.25641e-05 1.25641e-05 1.2564e-05 1.25638e-05 1.25636e-05 1.25634e-05 1.2563e-05 1.25625e-05 1.25617e-05
          1.25606e-05 1.38814e-05 1.54311e-05 1.72689e-05 1.94653e-05 1.92391e-05
        </DataArray>
        <DataArray type="Float32" Name="X^w_citrate" NumberOfComponents="1" format="ascii">
          0.000141789 0.000141789 0.000141789 0.000141789 0.000141789 0.000141789 0.000141789 0.000141789 0.000141789 0.000141789 0.000141788 0.000141788
          0.000141788 0.000141788 0.000141788 0.000141787 0.000141787 0.000141786 0.000141785 0.000141783 0.000141781 0.000141779 0.000141775 0.000141769
          0.00014176 0.000141748 0.000141723 0.000141663 0.000141463 0.000139819
        </DataArray>
        <DataArray type="Float32" Name="X^w_substrate" NumberOfComponents="1" format="ascii">
          2.04174e-11 2.68157e-11 3.52171e-11 4.62485e-11 6.07335e-11 7.97541e-11 1.04733e-10 1.37543e-10 1.80649e-10 2.37307e-10 3.1182e-10 4.09896e-10
          5.39136e-10 7.09715e-10 9.3535e-10 1.2347e-09 1.63343e-09 2.1674e-09 2.88765e-09 3.86852e-09 5.22167e-09 7.12117e-09 9.85176e-09 1.39089e-08
          2.0228e-08 3.07833e-08 5.04623e-08 9.47183e-08 2.38419e-07 1.39791e-06
        </DataArray>
        <DataArray type="Float32" Name="m^w_H2O" NumberOfComponents="1" format="ascii">
          55492.1 55492.1 55492.1 55492.1 55492.1 55492.1 55492.1 55492.1 55492.1 55492.1 55492.1 55492
          55492 55492 55492 55492 55492 55492 55492 55492 55492 55492 55491.9 55491.9
          55491.9 55491.9 55491.8 55491.6 55491.5 55491.6
        </DataArray>
        <DataArray type="Float32" Name="m^w_Air" NumberOfComponents="1" format="ascii">
          0 0 0 0 0 0 0 0 0 0 0 0
          0 0 0 0 0 0 0 0 0 0 0 0
          0 0 0 0 0 0
        </DataArray>
        <DataArray type="Float32" Name="m^w_AuComplex" NumberOfComponents="1" format="ascii">
          6.90125e-13 6.90323e-13 6.90178e-13 6.90303e-13 6.90296e-13 6.90328e-13 6.9031e-13 6.90343e-13 6.90308e-13 6.90317e-13 6.90321e-13 6.90291e-13
          6.90231e-13 6.90334e-13 6.90292e-13 6.90217e-13 6.90263e-13 6.9019e-13 6.90269e-13 6.90248e-13 6.90222e-13 6.90226e-13 7.03231e-13 5.72567e-11
          3.3696e-07 3.95725e-07 4.70333e-07 5.66582e-07 1.41903e-12 1.38802e-12
        </DataArray>
        <DataArray type="Float32" Name="m^w_nanoAu" NumberOfComponents="1" format="ascii">
          6.76988e-15 6.77179e-15 6.7704e-15 6.7716e-15 6.77154e-15 6.77184e-15 6.77167e-15 6.77198e-15 6.77164e-15 6.77173e-15 6.77176e-15 6.77147e-15
          6.7709e-15 6.77189e-15 6.77147e-15 6.77074e-15 6.77118e-15 6.77048e-15 6.77125e-15 6.77152e-15 6.81642e-15 1.09993e-14 3.98466e-13 3.62789e-11
          3.30916e-09 3.65686e-09 4.06385e-09 4.49023e-09 1.04571e-14 1.00893e-14
        </DataArray>
        <DataArray type="Float32" Name="m^w_cyanide" NumberOfComponents="1" format="ascii">
          0.482802 0.482802 0.482802 0.482802 0.482802 0.482802 0.482802 0.482802 0.482801 0.482801 0.4828 0.4828
          0.482799 0.482797 0.482796 0.482793 0.48279 0.482786 0.482781 0.482774 0.482764 0.482749 0.482729 0.482699
          0.482656 0.53341 0.592959 0.663579 0.747979 0.739285
        </DataArray>
        <DataArray type="Float32" Name="m^w_citrate" NumberOfComponents="1" format="ascii">
          0.749704 0.749704 0.749704 0.749704 0.749703 0.749703 0.749703 0.749703 0.749702 0.749702 0.749701 0.7497
          0.749699 0.749698 0.749696 0.749693 0.74969 0.749686 0.749681 0.749673 0.749663 0.749649 0.749628 0.749597
          0.74955 0.749485 0.749353 0.749038 0.747979 0.739285
        </DataArray>
        <DataArray type="Float32" Name="m^w_substrate" NumberOfComponents="1" format="ascii">
          1.13313e-07 1.48822e-07 1.95449e-07 2.56671e-07 3.3706e-07 4.4262e-07 5.81249e-07 7.63336e-07 1.00257e-06 1.31701e-06 1.73054e-06 2.27484e-06
          2.9921e-06 3.93878e-06 5.19101e-06 6.85233e-06 9.06521e-06 1.20287e-05 1.60259e-05 2.14695e-05 2.89792e-05 3.95211e-05 5.46753e-05 7.71915e-05
          0.000112261 0.000170841 0.000280056 0.000525667 0.00132318 0.00775812
        </DataArray>
        <DataArray type="Float32" Name="process rank" NumberOfComponents="1" format="ascii">
          0 0 0 0 0 0 0 0 0 0 0 0
          0 0 0 0 0 0 0 0 0 0 0 0
          0 0 0 0 0 0
        </DataArray>
      </CellData>
      <Points>
        <DataArray type="Float32" Name="Coordinates" NumberOfComponents="3" format="ascii">
          0 0 0 0.5 0 0 0 0.0333333 0 0.5 0.0333333 0
          0 0.0666667 0 0.5 0.0666667 0 0 0.1 0 0.5 0.1 0
          0 0.133333 0 0.5 0.133333 0 0 0.166667 0 0.5 0.166667 0
          0 0.2 0 0.5 0.2 0 0 0.233333 0 0.5 0.233333 0
          0 0.266667 0 0.5 0.266667 0 0 0.3 0 0.5 0.3 0
          0 0.333333 0 0.5 0.333333 0 0 0.366667 0 0.5 0.366667 0
          0 0.4 0 0.5 0.4 0 0 0.433333 0 0.5 0.433333 0
          0 0.466667 0 0.5 0.466667 0 0 0.5 0 0.5 0.5 0
          0 0.533333 0 0.5 0.533333 0 0 0.566667 0 0.5 0.566667 0
          0 0.6 0 0.5 0.6 0 0 0.633333 0 0.5 0.633333 0
          0 0.666667 0 0.5 0.666667 0 0 0.7 0 0.5 0.7 0
          0 0.733333 0 0.5 0.733333 0 0 0.766667 0 0.5 0.766667 0
          0 0.8 0 0.5 0.8 0 0 0.833333 0 0.5 0.833333 0
          0 0.866667 0 0.5 0.866667 0 0 0.9 0 0.5 0.9 0
          0 0.933333 0 0.5 0.933333 0 0 0.966667 0 0.5 0.966667 0
          0 1 0 0.5 1 0
        </DataArray>
      </Points>
      <Cells>
        <DataArray type="Int32" Name="connectivity" NumberOfComponents="1" format="ascii">
          0 1 3 2 2 3 5 4 4 5 7 6
          6 7 9 8 8 9 11 10 10 11 13 12
          12 13 15 14 14 15 17 16 16 17 19 18
          18 19 21 20 20 21 23 22 22 23 25 24
          24 25 27 26 26 27 29 28 28 29 31 30
          30 31 33 32 32 33 35 34 34 35 37 36
          36 37 39 38 38 39 41 40 40 41 43 42
          42 43 45 44 44 45 47 46 46 47 49 48
          48 49 51 50 50 51 53 52 52 53 55 54
          54 55 57 56 56 57 59 58 58 59 61 60
        </DataArray>
        <DataArray type="Int32" Name="offsets" NumberOfComponents="1" format="ascii">
          4 8 12 16 20 24 28 32 36 40 44 48
          52 56 60 64 68 72 76 80 84 88 92 96
          100 104 108 112 116 120
        </DataArray>
        <DataArray type="UInt8" Name="types" NumberOfComponents="1" format="ascii">
          9 9 9 9 9 9 9 9 9 9 9 9
          9 9 9 9 9 9 9 9 9 9 9 9
          9 9 9 9 9 9
        </DataArray>
      </Cells>
    </Piece>
  </UnstructuredGrid>
</VTKFile>
