<?xml version="1.0"?>
<VTKFile type="UnstructuredGrid" version="0.1" byte_order="LittleEndian">
  <UnstructuredGrid>
    <Piece NumberOfCells="30" NumberOfPoints="62">
      <CellData Scalars="Sg">
        <DataArray type="Float32" Name="Sg" NumberOfComponents="1" format="ascii">
          0 0 0 0 0 0 0 0 0 0 0 0
          0 0 0 0 0 0 0 0 0 0 0 0
          0 0 0 0 0 0
        </DataArray>
        <DataArray type="Float32" Name="Sl" NumberOfComponents="1" format="ascii">
          1 1 1 1 1 1 1 1 1 1 1 1
          1 1 1 1 1 1 1 1 1 1 1 1
          1 1 1 1 1 1
        </DataArray>
        <DataArray type="Float32" Name="pg" NumberOfComponents="1" format="ascii">
          24687.8 24360.9 24034 23707 23380.1 23053.1 22726.2 22399.3 22072.3 21745.4 21418.4 21091.5
          20764.6 20437.6 20110.7 19783.7 19456.8 19129.8 18802.9 18476 18149 17822.1 17495.1 17168.2
          16841.3 16514.3 16187.4 15860.4 15533.5 15209.6
        </DataArray>
        <DataArray type="Float32" Name="pl" NumberOfComponents="1" format="ascii">
          110628 110301 109974 109647 109320 108993 108666 108339 108012 107685 107358 107031
          106704 106377 106050 105723 105396 105070 104743 104416 104089 103762 103435 103108
          102781 102454 102127 101800 101473 101149
        </DataArray>
        <DataArray type="Float32" Name="pc" NumberOfComponents="1" format="ascii">
          -85939.7 -85939.7 -85939.7 -85939.7 -85939.7 -85939.7 -85939.7 -85939.7 -85939.7 -85939.7 -85939.7 -85939.7
          -85939.7 -85939.7 -85939.7 -85939.7 -85939.7 -85939.7 -85939.7 -85939.7 -85939.7 -85939.7 -85939.7 -85939.7
          -85939.7 -85939.7 -85939.7 -85939.7 -85939.7 -85939.7
        </DataArray>
        <DataArray type="Float32" Name="rhoL" NumberOfComponents="1" format="ascii">
          999.855 999.855 999.855 999.855 999.855 999.854 999.854 999.854 999.854 999.854 999.854 999.854
          999.853 999.853 999.853 999.853 999.853 999.853 999.852 999.852 999.852 999.852 999.852 999.852
          999.852 999.851 999.851 999.851 999.851 999.851
        </DataArray>
        <DataArray type="Float32" Name="rhoG" NumberOfComponents="1" format="ascii">
          0.30585 0.3018 0.29775 0.293699 0.289649 0.285598 0.281548 0.277498 0.273447 0.269397 0.265347 0.261296
          0.257246 0.253195 0.249145 0.245095 0.241044 0.236994 0.232944 0.228893 0.224843 0.220793 0.216742 0.212692
          0.208641 0.204591 0.200541 0.19649 0.19244 0.188428
        </DataArray>
        <DataArray type="Float32" Name="mobL" NumberOfComponents="1" format="ascii">
          722.171 722.17 722.17 722.17 722.17 722.17 722.169 722.169 722.169 722.169 722.169 722.169
          722.168 722.168 722.168 722.168 722.168 722.167 722.167 722.167 722.167 722.167 722.166 722.166
          722.166 722.166 722.166 722.166 722.165 722.165
        </DataArray>
        <DataArray type="Float32" Name="mobG" NumberOfComponents="1" format="ascii">
          0 0 0 0 0 0 0 0 0 0 0 0
          0 0 0 0 0 0 0 0 0 0 0 0
          0 0 0 0 0 0
        </DataArray>
        <DataArray type="Float32" Name="porosity" NumberOfComponents="1" format="ascii">
          0.298864 0.298864 0.298864 0.298864 0.298864 0.298863 0.298863 0.298862 0.29886 0.298859 0.298856 0.298853
          0.298849 0.298843 0.298835 0.298824 0.298809 0.298789 0.298762 0.298725 0.298674 0.298602 0.298498 0.298344
          0.297829 0.297405 0.29655 0.294267 0.282796 0.0447572
        </DataArray>
        <DataArray type="Float32" Name="temperature" NumberOfComponents="1" format="ascii">
          281.15 281.15 281.15 281.15 281.15 281.15 281.15 281.15 281.15 281.15 281.15 281.15
          281.15 281.15 281.15 281.15 281.15 281.15 281.15 281.15 281.15 281.15 281.15 281.15
          281.15 281.15 281.15 281.15 281.15 281.15
        </DataArray>
        <DataArray type="Float32" Name="phase presence" NumberOfComponents="1" format="ascii">
          1 1 1 1 1 1 1 1 1 1 1 1
          1 1 1 1 1 1 1 1 1 1 1 1
          1 1 1 1 1 1
        </DataArray>
        <DataArray type="Float32" Name="precipitateVolumeFraction_au" NumberOfComponents="1" format="ascii">
          5.52649e-10 5.52501e-10 5.5277e-10 5.52754e-10 5.52736e-10 5.5275e-10 5.52768e-10 5.52745e-10 5.52762e-10 5.52507e-10 5.52751e-10 5.52789e-10
          5.52778e-10 5.52769e-10 5.52761e-10 5.52782e-10 5.52726e-10 5.52728e-10 5.52709e-10 5.52746e-10 5.52739e-10 5.52759e-10 5.53151e-10 1.33699e-09
          0.000269937 0.000269927 0.000269914 0.000269894 5.5245e-10 5.51633e-10
        </DataArray>
        <DataArray type="Float32" Name="precipitateVolumeFraction_nanoAu" NumberOfComponents="1" format="ascii">
          1.29987e-13 1.29952e-13 1.30016e-13 1.30012e-13 1.30008e-13 1.30011e-13 1.30015e-13 1.3001e-13 1.30014e-13 1.29954e-13 1.30011e-13 1.30019e-13
          1.30017e-13 1.30014e-13 1.30012e-13 1.30016e-13 1.30001e-13 1.30001e-13 1.29995e-13 1.30001e-13 1.29996e-13 1.30013e-13 1.43628e-13 2.83491e-11
          6.34782e-08 7.35781e-08 8.68602e-08 1.04863e-07 2.67566e-13 2.63858e-13
        </DataArray>
        <DataArray type="Float32" Name="precipitateVolumeFraction_d" NumberOfComponents="1" format="ascii">
          0.000567753 0.000567811 0.000567893 0.000568008 0.000568168 0.000568394 0.000568709 0.000569147 0.000569756 0.000570599 0.000571761 0.000573356
          0.000575538 0.000578511 0.000582549 0.00058802 0.000595422 0.000605442 0.00061904 0.000637606 0.000663218 0.00069914 0.000750817 0.000828054
          0.000950366 0.00116256 0.00158999 0.00273158 0.00860222 0.127621
        </DataArray>
        <DataArray type="Float32" Name="precipitateVolumeFraction_p" NumberOfComponents="1" format="ascii">
          0.000567753 0.000567811 0.000567893 0.000568008 0.000568168 0.000568394 0.000568709 0.000569147 0.000569756 0.000570599 0.000571761 0.000573356
          0.000575538 0.000578511 0.000582549 0.00058802 0.000595422 0.000605442 0.00061904 0.000637606 0.000663218 0.00069914 0.000750817 0.000828054
          0.000950366 0.00116256 0.00158999 0.00273158 0.00860222 0.127621
        </DataArray>
        <DataArray type="Float32" Name="K" NumberOfComponents="1" format="ascii">
          9.85488e-11 9.85487e-11 9.85484e-11 9.85482e-11 9.85477e-11 9.85472e-11 9.85464e-11 9.85453e-11 9.85437e-11 9.85416e-11 9.85386e-11 9.85346e-11
          9.8529e-11 9.85215e-11 9.85112e-11 9.84973e-11 9.84785e-11 9.84531e-11 9.84186e-11 9.83715e-11 9.83065e-11 9.82155e-11 9.80846e-11 9.78893e-11
          9.72409e-11 9.67089e-11 9.56444e-11 9.28486e-11 7.97929e-11 1.78317e-13
        </DataArray>
        <DataArray type="Float32" Name="X^w_H2O" NumberOfComponents="1" format="ascii">
          0.999849 0.999849 0.999849 0.999849 0.999849 0.999849 0.999849 0.999849 0.999849 0.999849 0.999849 0.999849
          0.999849 0.999849 0.999849 0.999849 0.999849 0.999849 0.999849 0.999849 0.999849 0.999849 0.999849 0.999849
          0.999849 0.999847 0.999845 0.999843 0.999839 0.99984
        </DataArray>
        <DataArray type="Float32" Name="X^w_Air" NumberOfComponents="1" format="ascii">
          0 0 0 0 0 0 0 0 0 0 0 0
          0 0 0 0 0 0 0 0 0 0 0 0
          0 0 0 0 0 0
        </DataArray>
        <DataArray type="Float32" Name="X^w_AuComplex" NumberOfComponents="1" format="ascii">
          1.54741e-16 1.547e-16 1.54775e-16 1.54771e-16 1.54766e-16 1.54769e-16 1.54775e-16 1.54768e-16 1.54772e-16 1.54701e-16 1.54769e-16 1.54779e-16
          1.54775e-16 1.54772e-16 1.54768e-16 1.54773e-16 1.54755e-16 1.54752e-16 1.54743e-16 1.54748e-16 1.54738e-16 1.54752e-16 1.70748e-16 3.37228e-14
          7.55444e-11 9.93986e-11 1.35713e-10 1.94083e-10 6.0512e-16 5.90168e-16
        </DataArray>
        <DataArray type="Float32" Name="X^w_nanoAu" NumberOfComponents="1" format="ascii">
          5.66139e-19 5.65993e-19 5.66265e-19 5.66248e-19 5.6623e-19 5.66244e-19 5.66262e-19 5.66238e-19 5.66252e-19 5.65996e-19 5.66242e-19 5.66279e-19
          5.66266e-19 5.66254e-19 5.66243e-19 5.66258e-19 5.66195e-19 5.66188e-19 5.66158e-19 5.66221e-19 5.70069e-19 9.29308e-19 3.42025e-17 3.11114e-15
          2.76897e-13 3.20996e-13 3.78913e-13 4.51367e-13 1.16213e-18 1.12093e-18
        </DataArray>
        <DataArray type="Float32" Name="X^w_cyanide" NumberOfComponents="1" format="ascii">
          9.45249e-06 9.45249e-06 9.45249e-06 9.45249e-06 9.45249e-06 9.45249e-06 9.45249e-06 9.45249e-06 9.45248e-06 9.45247e-06 9.45246e-06 9.45245e-06
          9.45243e-06 9.4524e-06 9.45236e-06 9.45231e-06 9.45223e-06 9.45214e-06 9.452e-06 9.45182e-06 9.45157e-06 9.4512e-06 9.45068e-06 9.4499e-06
          9.44924e-06 1.09526e-05 1.29296e-05 1.56252e-05 1.94648e-05 1.92389e-05
        </DataArray>
        <DataArray type="Float32" Name="X^w_citrate" NumberOfComponents="1" format="ascii">
          0.000141796 0.000141796 0.000141796 0.000141796 0.000141796 0.000141796 0.000141796 0.000141796 0.000141796 0.000141796 0.000141796 0.000141796
          0.000141796 0.000141796 0.000141795 0.000141795 0.000141794 0.000141794 0.000141793 0.000141791 0.000141789 0.000141787 0.000141783 0.000141777
          0.000141768 0.000141754 0.000141727 0.000141665 0.00014146 0.000139818
        </DataArray>
        <DataArray type="Float32" Name="X^w_substrate" NumberOfComponents="1" format="ascii">
          1.7471e-11 2.30773e-11 3.04809e-11 4.02579e-11 5.31691e-11 7.02202e-11 9.27408e-11 1.22491e-10 1.618e-10 2.13763e-10 2.82493e-10 3.73473e-10
          4.94048e-10 6.541e-10 8.67022e-10 1.15112e-09 1.53171e-09 2.04431e-09 2.7397e-09 3.6922e-09 5.0138e-09 6.87978e-09 9.57779e-09 1.36098e-08
          1.99259e-08 3.05347e-08 5.04136e-08 9.52824e-08 2.40894e-07 1.3986e-06
        </DataArray>
        <DataArray type="Float32" Name="m^w_H2O" NumberOfComponents="1" format="ascii">
          55492.3 55492.3 55492.3 55492.3 55492.3 55492.3 55492.3 55492.3 55492.2 55492.2 55492.2 55492.2
          55492.2 55492.2 55492.2 55492.2 55492.2 55492.2 55492.2 55492.1 55492.1 55492.1 55492.1 55492.1
          55492.1 55492 55491.9 55491.7 55491.5 55491.6
        </DataArray>
        <DataArray type="Float32" Name="m^w_Air" NumberOfComponents="1" format="ascii">
          0 0 0 0 0 0 0 0 0 0 0 0
          0 0 0 0 0 0 0 0 0 0 0 0
          0 0 0 0 0 0
        </DataArray>
        <DataArray type="Float32" Name="m^w_AuComplex" NumberOfComponents="1" format="ascii">
          7.85494e-13 7.85284e-13 7.85666e-13 7.85644e-13 7.85618e-13 7.85637e-13 7.85663e-13 7.85629e-13 7.85652e-13 7.85289e-13 7.85633e-13 7.85684e-13
          7.85665e-13 7.85648e-13 7.85631e-13 7.85652e-13 7.85561e-13 7.85549e-13 7.85502e-13 7.85526e-13 7.85477e-13 7.85548e-13 8.66746e-13 1.71182e-10
          3.83476e-07 5.04563e-07 6.889e-07 9.85199e-07 3.07168e-12 2.99579e-12
        </DataArray>
        <DataArray type="Float32" Name="m^w_nanoAu" NumberOfComponents="1" format="ascii">
          2.87382e-15 2.87308e-15 2.87446e-15 2.87438e-15 2.87428e-15 2.87436e-15 2.87445e-15 2.87433e-15 2.87439e-15 2.87309e-15 2.87434e-15 2.87453e-15
          2.87446e-15 2.8744e-15 2.87434e-15 2.87442e-15 2.8741e-15 2.87407e-15 2.87391e-15 2.87423e-15 2.89377e-15 4.71732e-15 1.73617e-13 1.57926e-11
          1.40557e-09 1.62943e-09 1.92342e-09 2.29121e-09 5.89915e-15 5.69002e-15
        </DataArray>
        <DataArray type="Float32" Name="m^w_cyanide" NumberOfComponents="1" format="ascii">
          0.363225 0.363225 0.363225 0.363225 0.363225 0.363225 0.363225 0.363225 0.363225 0.363224 0.363224 0.363223
          0.363222 0.363221 0.363219 0.363217 0.363215 0.363211 0.363206 0.363198 0.363189 0.363175 0.363155 0.363124
          0.363099 0.420868 0.496834 0.60042 0.74796 0.739279
        </DataArray>
        <DataArray type="Float32" Name="m^w_citrate" NumberOfComponents="1" format="ascii">
          0.749745 0.749744 0.749744 0.749744 0.749744 0.749744 0.749743 0.749743 0.749743 0.749742 0.749741 0.749741
          0.74974 0.749738 0.749737 0.749734 0.749731 0.749727 0.749722 0.749715 0.749705 0.749691 0.74967 0.74964
          0.749592 0.749518 0.749375 0.749045 0.747961 0.73928
        </DataArray>
        <DataArray type="Float32" Name="m^w_substrate" NumberOfComponents="1" format="ascii">
          9.69609e-08 1.28075e-07 1.69164e-07 2.23424e-07 2.95079e-07 3.89709e-07 5.14694e-07 6.798e-07 8.97962e-07 1.18635e-06 1.56778e-06 2.0727e-06
          2.74187e-06 3.63013e-06 4.8118e-06 6.38849e-06 8.50068e-06 1.13455e-05 1.52048e-05 2.0491e-05 2.78256e-05 3.81814e-05 5.31548e-05 7.55315e-05
          0.000110585 0.000169461 0.000279785 0.000528798 0.00133691 0.00776193
        </DataArray>
        <DataArray type="Float32" Name="process rank" NumberOfComponents="1" format="ascii">
          0 0 0 0 0 0 0 0 0 0 0 0
          0 0 0 0 0 0 0 0 0 0 0 0
          0 0 0 0 0 0
        </DataArray>
      </CellData>
      <Points>
        <DataArray type="Float32" Name="Coordinates" NumberOfComponents="3" format="ascii">
          0 0 0 0.5 0 0 0 0.0333333 0 0.5 0.0333333 0
          0 0.0666667 0 0.5 0.0666667 0 0 0.1 0 0.5 0.1 0
          0 0.133333 0 0.5 0.133333 0 0 0.166667 0 0.5 0.166667 0
          0 0.2 0 0.5 0.2 0 0 0.233333 0 0.5 0.233333 0
          0 0.266667 0 0.5 0.266667 0 0 0.3 0 0.5 0.3 0
          0 0.333333 0 0.5 0.333333 0 0 0.366667 0 0.5 0.366667 0
          0 0.4 0 0.5 0.4 0 0 0.433333 0 0.5 0.433333 0
          0 0.466667 0 0.5 0.466667 0 0 0.5 0 0.5 0.5 0
          0 0.533333 0 0.5 0.533333 0 0 0.566667 0 0.5 0.566667 0
          0 0.6 0 0.5 0.6 0 0 0.633333 0 0.5 0.633333 0
          0 0.666667 0 0.5 0.666667 0 0 0.7 0 0.5 0.7 0
          0 0.733333 0 0.5 0.733333 0 0 0.766667 0 0.5 0.766667 0
          0 0.8 0 0.5 0.8 0 0 0.833333 0 0.5 0.833333 0
          0 0.866667 0 0.5 0.866667 0 0 0.9 0 0.5 0.9 0
          0 0.933333 0 0.5 0.933333 0 0 0.966667 0 0.5 0.966667 0
          0 1 0 0.5 1 0
        </DataArray>
      </Points>
      <Cells>
        <DataArray type="Int32" Name="connectivity" NumberOfComponents="1" format="ascii">
          0 1 3 2 2 3 5 4 4 5 7 6
          6 7 9 8 8 9 11 10 10 11 13 12
          12 13 15 14 14 15 17 16 16 17 19 18
          18 19 21 20 20 21 23 22 22 23 25 24
          24 25 27 26 26 27 29 28 28 29 31 30
          30 31 33 32 32 33 35 34 34 35 37 36
          36 37 39 38 38 39 41 40 40 41 43 42
          42 43 45 44 44 45 47 46 46 47 49 48
          48 49 51 50 50 51 53 52 52 53 55 54
          54 55 57 56 56 57 59 58 58 59 61 60
        </DataArray>
        <DataArray type="Int32" Name="offsets" NumberOfComponents="1" format="ascii">
          4 8 12 16 20 24 28 32 36 40 44 48
          52 56 60 64 68 72 76 80 84 88 92 96
          100 104 108 112 116 120
        </DataArray>
        <DataArray type="UInt8" Name="types" NumberOfComponents="1" format="ascii">
          9 9 9 9 9 9 9 9 9 9 9 9
          9 9 9 9 9 9 9 9 9 9 9 9
          9 9 9 9 9 9
        </DataArray>
      </Cells>
    </Piece>
  </UnstructuredGrid>
</VTKFile>
