<?xml version="1.0"?>
<VTKFile type="UnstructuredGrid" version="0.1" byte_order="LittleEndian">
  <UnstructuredGrid>
    <Piece NumberOfCells="30" NumberOfPoints="62">
      <CellData Scalars="Sg">
        <DataArray type="Float32" Name="Sg" NumberOfComponents="1" format="ascii">
          0 0 0 0 0 0 0 0 0 0 0 0
          0 0 0 0 0 0 0 0 0 0 0 0
          0 0 0 0 0 0
        </DataArray>
        <DataArray type="Float32" Name="Sl" NumberOfComponents="1" format="ascii">
          1 1 1 1 1 1 1 1 1 1 1 1
          1 1 1 1 1 1 1 1 1 1 1 1
          1 1 1 1 1 1
        </DataArray>
        <DataArray type="Float32" Name="pg" NumberOfComponents="1" format="ascii">
          24687.8 24360.9 24034 23707 23380.1 23053.1 22726.2 22399.3 22072.3 21745.4 21418.4 21091.5
          20764.6 20437.6 20110.7 19783.7 19456.8 19129.8 18802.9 18476 18149 17822.1 17495.1 17168.2
          16841.3 16514.3 16187.4 15860.4 15533.5 15209.7
        </DataArray>
        <DataArray type="Float32" Name="pl" NumberOfComponents="1" format="ascii">
          110628 110301 109974 109647 109320 108993 108666 108339 108012 107685 107358 107031
          106704 106377 106050 105723 105396 105070 104743 104416 104089 103762 103435 103108
          102781 102454 102127 101800 101473 101149
        </DataArray>
        <DataArray type="Float32" Name="pc" NumberOfComponents="1" format="ascii">
          -85939.7 -85939.7 -85939.7 -85939.7 -85939.7 -85939.7 -85939.7 -85939.7 -85939.7 -85939.7 -85939.7 -85939.7
          -85939.7 -85939.7 -85939.7 -85939.7 -85939.7 -85939.7 -85939.7 -85939.7 -85939.7 -85939.7 -85939.7 -85939.7
          -85939.7 -85939.7 -85939.7 -85939.7 -85939.7 -85939.7
        </DataArray>
        <DataArray type="Float32" Name="rhoL" NumberOfComponents="1" format="ascii">
          999.855 999.855 999.855 999.855 999.855 999.854 999.854 999.854 999.854 999.854 999.854 999.854
          999.853 999.853 999.853 999.853 999.853 999.853 999.852 999.852 999.852 999.852 999.852 999.852
          999.852 999.851 999.851 999.851 999.851 999.851
        </DataArray>
        <DataArray type="Float32" Name="rhoG" NumberOfComponents="1" format="ascii">
          0.30585 0.3018 0.29775 0.293699 0.289649 0.285598 0.281548 0.277498 0.273447 0.269397 0.265347 0.261296
          0.257246 0.253195 0.249145 0.245095 0.241044 0.236994 0.232944 0.228893 0.224843 0.220793 0.216742 0.212692
          0.208641 0.204591 0.200541 0.19649 0.19244 0.188428
        </DataArray>
        <DataArray type="Float32" Name="mobL" NumberOfComponents="1" format="ascii">
          722.171 722.17 722.17 722.17 722.17 722.17 722.169 722.169 722.169 722.169 722.169 722.169
          722.168 722.168 722.168 722.168 722.168 722.167 722.167 722.167 722.167 722.167 722.166 722.166
          722.166 722.166 722.166 722.166 722.165 722.165
        </DataArray>
        <DataArray type="Float32" Name="mobG" NumberOfComponents="1" format="ascii">
          0 0 0 0 0 0 0 0 0 0 0 0
          0 0 0 0 0 0 0 0 0 0 0 0
          0 0 0 0 0 0
        </DataArray>
        <DataArray type="Float32" Name="porosity" NumberOfComponents="1" format="ascii">
          0.298885 0.298885 0.298885 0.298885 0.298884 0.298884 0.298883 0.298882 0.298881 0.298879 0.298877 0.298874
          0.29887 0.298864 0.298856 0.298845 0.29883 0.298811 0.298784 0.298747 0.298697 0.298626 0.298524 0.298371
          0.297858 0.297437 0.296586 0.294297 0.282638 0.0446549
        </DataArray>
        <DataArray type="Float32" Name="temperature" NumberOfComponents="1" format="ascii">
          281.15 281.15 281.15 281.15 281.15 281.15 281.15 281.15 281.15 281.15 281.15 281.15
          281.15 281.15 281.15 281.15 281.15 281.15 281.15 281.15 281.15 281.15 281.15 281.15
          281.15 281.15 281.15 281.15 281.15 281.15
        </DataArray>
        <DataArray type="Float32" Name="phase presence" NumberOfComponents="1" format="ascii">
          1 1 1 1 1 1 1 1 1 1 1 1
          1 1 1 1 1 1 1 1 1 1 1 1
          1 1 1 1 1 1
        </DataArray>
        <DataArray type="Float32" Name="precipitateVolumeFraction_au" NumberOfComponents="1" format="ascii">
          5.52649e-10 5.52501e-10 5.5277e-10 5.52754e-10 5.52736e-10 5.5275e-10 5.52768e-10 5.52745e-10 5.52762e-10 5.52507e-10 5.52751e-10 5.52789e-10
          5.52778e-10 5.52769e-10 5.52761e-10 5.52782e-10 5.52726e-10 5.52728e-10 5.52709e-10 5.52746e-10 5.52739e-10 5.52759e-10 5.53175e-10 1.38544e-09
          0.000269937 0.000269927 0.000269914 0.000269894 5.5245e-10 5.51632e-10
        </DataArray>
        <DataArray type="Float32" Name="precipitateVolumeFraction_nanoAu" NumberOfComponents="1" format="ascii">
          1.29987e-13 1.29952e-13 1.30015e-13 1.30012e-13 1.30007e-13 1.30011e-13 1.30015e-13 1.30009e-13 1.30013e-13 1.29953e-13 1.3001e-13 1.30019e-13
          1.30016e-13 1.30014e-13 1.30011e-13 1.30015e-13 1.30001e-13 1.3e-13 1.29994e-13 1.3e-13 1.29995e-13 1.30013e-13 1.43637e-13 2.83599e-11
          6.34778e-08 7.35777e-08 8.68599e-08 1.04864e-07 2.67572e-13 2.6386e-13
        </DataArray>
        <DataArray type="Float32" Name="precipitateVolumeFraction_d" NumberOfComponents="1" format="ascii">
          0.000557487 0.000557544 0.000557625 0.000557739 0.000557898 0.00055812 0.000558432 0.000558865 0.000559466 0.000560299 0.000561445 0.000563019
          0.000565171 0.000568104 0.000572087 0.000577483 0.000584784 0.000594668 0.000608085 0.000626406 0.000651689 0.000687168 0.00073824 0.000814643
          0.000935799 0.00114641 0.00157212 0.00271638 0.0086812 0.127673
        </DataArray>
        <DataArray type="Float32" Name="precipitateVolumeFraction_p" NumberOfComponents="1" format="ascii">
          0.000557487 0.000557544 0.000557625 0.000557739 0.000557898 0.00055812 0.000558432 0.000558865 0.000559466 0.000560299 0.000561445 0.000563019
          0.000565171 0.000568104 0.000572087 0.000577483 0.000584784 0.000594668 0.000608085 0.000626406 0.000651689 0.000687168 0.00073824 0.000814643
          0.000935799 0.00114641 0.00157212 0.00271638 0.0086812 0.127673
        </DataArray>
        <DataArray type="Float32" Name="K" NumberOfComponents="1" format="ascii">
          9.85749e-11 9.85747e-11 9.85745e-11 9.85743e-11 9.85738e-11 9.85733e-11 9.85725e-11 9.85714e-11 9.85699e-11 9.85677e-11 9.85648e-11 9.85608e-11
          9.85554e-11 9.85479e-11 9.85378e-11 9.85241e-11 9.85055e-11 9.84804e-11 9.84464e-11 9.83999e-11 9.83357e-11 9.82458e-11 9.81164e-11 9.79232e-11
          9.72775e-11 9.67493e-11 9.56888e-11 9.28854e-11 7.96242e-11 1.7706e-13
        </DataArray>
        <DataArray type="Float32" Name="X^w_H2O" NumberOfComponents="1" format="ascii">
          0.999849 0.999849 0.999849 0.999849 0.999849 0.999849 0.999849 0.999849 0.999849 0.999849 0.999849 0.999849
          0.999849 0.999849 0.999849 0.999849 0.999849 0.999849 0.999849 0.999849 0.999849 0.999849 0.999849 0.999849
          0.999849 0.999847 0.999845 0.999843 0.999839 0.99984
        </DataArray>
        <DataArray type="Float32" Name="X^w_Air" NumberOfComponents="1" format="ascii">
          0 0 0 0 0 0 0 0 0 0 0 0
          0 0 0 0 0 0 0 0 0 0 0 0
          0 0 0 0 0 0
        </DataArray>
        <DataArray type="Float32" Name="X^w_AuComplex" NumberOfComponents="1" format="ascii">
          1.5474e-16 1.54699e-16 1.54774e-16 1.5477e-16 1.54765e-16 1.54769e-16 1.54774e-16 1.54767e-16 1.54772e-16 1.547e-16 1.54768e-16 1.54778e-16
          1.54774e-16 1.54771e-16 1.54768e-16 1.54772e-16 1.54754e-16 1.54751e-16 1.54742e-16 1.54747e-16 1.54737e-16 1.54751e-16 1.70759e-16 3.37356e-14
          7.55436e-11 9.93975e-11 1.35712e-10 1.94085e-10 6.05142e-16 5.90175e-16
        </DataArray>
        <DataArray type="Float32" Name="X^w_nanoAu" NumberOfComponents="1" format="ascii">
          5.66137e-19 5.65991e-19 5.66263e-19 5.66247e-19 5.66228e-19 5.66242e-19 5.66261e-19 5.66237e-19 5.6625e-19 5.65994e-19 5.66241e-19 5.66277e-19
          5.66264e-19 5.66252e-19 5.6624e-19 5.66256e-19 5.66192e-19 5.66185e-19 5.66155e-19 5.66217e-19 5.70065e-19 9.29302e-19 3.42024e-17 3.11114e-15
          2.76894e-13 3.20993e-13 3.78912e-13 4.51371e-13 1.16218e-18 1.12094e-18
        </DataArray>
        <DataArray type="Float32" Name="X^w_cyanide" NumberOfComponents="1" format="ascii">
          9.45247e-06 9.45247e-06 9.45247e-06 9.45247e-06 9.45247e-06 9.45247e-06 9.45247e-06 9.45247e-06 9.45246e-06 9.45245e-06 9.45244e-06 9.45243e-06
          9.45241e-06 9.45238e-06 9.45234e-06 9.45228e-06 9.45221e-06 9.45211e-06 9.45197e-06 9.45178e-06 9.45152e-06 9.45116e-06 9.45063e-06 9.44984e-06
          9.44918e-06 1.09526e-05 1.29295e-05 1.56253e-05 1.94652e-05 1.9239e-05
        </DataArray>
        <DataArray type="Float32" Name="X^w_citrate" NumberOfComponents="1" format="ascii">
          0.000141796 0.000141796 0.000141796 0.000141796 0.000141796 0.000141796 0.000141796 0.000141796 0.000141796 0.000141796 0.000141796 0.000141796
          0.000141796 0.000141796 0.000141795 0.000141795 0.000141794 0.000141793 0.000141792 0.000141791 0.000141789 0.000141786 0.000141783 0.000141777
          0.000141768 0.000141754 0.000141727 0.000141665 0.000141462 0.000139819
        </DataArray>
        <DataArray type="Float32" Name="X^w_substrate" NumberOfComponents="1" format="ascii">
          1.96904e-11 2.58952e-11 3.40532e-11 4.47794e-11 5.88821e-11 7.74254e-11 1.0181e-10 1.33881e-10 1.76073e-10 2.31602e-10 3.04728e-10 4.01105e-10
          5.28274e-10 6.96343e-10 9.18952e-10 1.21468e-09 1.6091e-09 2.13802e-09 2.85238e-09 3.82655e-09 5.17225e-09 7.06383e-09 9.78668e-09 1.38378e-08
          2.01559e-08 3.07229e-08 5.0447e-08 9.48419e-08 2.38976e-07 1.39804e-06
        </DataArray>
        <DataArray type="Float32" Name="m^w_H2O" NumberOfComponents="1" format="ascii">
          55492.3 55492.3 55492.3 55492.3 55492.3 55492.3 55492.3 55492.3 55492.2 55492.2 55492.2 55492.2
          55492.2 55492.2 55492.2 55492.2 55492.2 55492.2 55492.2 55492.1 55492.1 55492.1 55492.1 55492.1
          55492.1 55492 55491.9 55491.7 55491.5 55491.6
        </DataArray>
        <DataArray type="Float32" Name="m^w_Air" NumberOfComponents="1" format="ascii">
          0 0 0 0 0 0 0 0 0 0 0 0
          0 0 0 0 0 0 0 0 0 0 0 0
          0 0 0 0 0 0
        </DataArray>
        <DataArray type="Float32" Name="m^w_AuComplex" NumberOfComponents="1" format="ascii">
          7.8549e-13 7.85281e-13 7.85662e-13 7.8564e-13 7.85614e-13 7.85634e-13 7.85659e-13 7.85626e-13 7.85648e-13 7.85285e-13 7.8563e-13 7.85681e-13
          7.85662e-13 7.85644e-13 7.85627e-13 7.85647e-13 7.85556e-13 7.85544e-13 7.85496e-13 7.85519e-13 7.8547e-13 7.8554e-13 8.66798e-13 1.71247e-10
          3.83471e-07 5.04558e-07 6.88896e-07 9.85204e-07 3.0718e-12 2.99582e-12
        </DataArray>
        <DataArray type="Float32" Name="m^w_nanoAu" NumberOfComponents="1" format="ascii">
          2.87382e-15 2.87307e-15 2.87445e-15 2.87437e-15 2.87428e-15 2.87435e-15 2.87444e-15 2.87432e-15 2.87439e-15 2.87309e-15 2.87433e-15 2.87452e-15
          2.87445e-15 2.87439e-15 2.87433e-15 2.87441e-15 2.87409e-15 2.87405e-15 2.8739e-15 2.87421e-15 2.89374e-15 4.71729e-15 1.73617e-13 1.57927e-11
          1.40556e-09 1.62941e-09 1.92342e-09 2.29123e-09 5.89939e-15 5.69009e-15
        </DataArray>
        <DataArray type="Float32" Name="m^w_cyanide" NumberOfComponents="1" format="ascii">
          0.363225 0.363225 0.363225 0.363225 0.363224 0.363224 0.363224 0.363224 0.363224 0.363223 0.363223 0.363222
          0.363221 0.36322 0.363219 0.363216 0.363213 0.36321 0.363204 0.363197 0.363187 0.363173 0.363152 0.363122
          0.363097 0.420866 0.496833 0.600422 0.747974 0.739284
        </DataArray>
        <DataArray type="Float32" Name="m^w_citrate" NumberOfComponents="1" format="ascii">
          0.749745 0.749744 0.749744 0.749744 0.749744 0.749744 0.749743 0.749743 0.749742 0.749742 0.749741 0.74974
          0.749739 0.749738 0.749736 0.749734 0.749731 0.749727 0.749721 0.749714 0.749704 0.749689 0.749669 0.749638
          0.749591 0.749517 0.749375 0.749048 0.747975 0.739284
        </DataArray>
        <DataArray type="Float32" Name="m^w_substrate" NumberOfComponents="1" format="ascii">
          1.09278e-07 1.43713e-07 1.88989e-07 2.48517e-07 3.26785e-07 4.29697e-07 5.65026e-07 7.43014e-07 9.77172e-07 1.28535e-06 1.69118e-06 2.22606e-06
          2.93182e-06 3.86457e-06 5.1e-06 6.74121e-06 8.93021e-06 1.18656e-05 1.58302e-05 2.12366e-05 2.87049e-05 3.92028e-05 5.43141e-05 7.67967e-05
          0.000111861 0.000170506 0.000279971 0.000526353 0.00132627 0.00775882
        </DataArray>
        <DataArray type="Float32" Name="process rank" NumberOfComponents="1" format="ascii">
          0 0 0 0 0 0 0 0 0 0 0 0
          0 0 0 0 0 0 0 0 0 0 0 0
          0 0 0 0 0 0
        </DataArray>
      </CellData>
      <Points>
        <DataArray type="Float32" Name="Coordinates" NumberOfComponents="3" format="ascii">
          0 0 0 0.5 0 0 0 0.0333333 0 0.5 0.0333333 0
          0 0.0666667 0 0.5 0.0666667 0 0 0.1 0 0.5 0.1 0
          0 0.133333 0 0.5 0.133333 0 0 0.166667 0 0.5 0.166667 0
          0 0.2 0 0.5 0.2 0 0 0.233333 0 0.5 0.233333 0
          0 0.266667 0 0.5 0.266667 0 0 0.3 0 0.5 0.3 0
          0 0.333333 0 0.5 0.333333 0 0 0.366667 0 0.5 0.366667 0
          0 0.4 0 0.5 0.4 0 0 0.433333 0 0.5 0.433333 0
          0 0.466667 0 0.5 0.466667 0 0 0.5 0 0.5 0.5 0
          0 0.533333 0 0.5 0.533333 0 0 0.566667 0 0.5 0.566667 0
          0 0.6 0 0.5 0.6 0 0 0.633333 0 0.5 0.633333 0
          0 0.666667 0 0.5 0.666667 0 0 0.7 0 0.5 0.7 0
          0 0.733333 0 0.5 0.733333 0 0 0.766667 0 0.5 0.766667 0
          0 0.8 0 0.5 0.8 0 0 0.833333 0 0.5 0.833333 0
          0 0.866667 0 0.5 0.866667 0 0 0.9 0 0.5 0.9 0
          0 0.933333 0 0.5 0.933333 0 0 0.966667 0 0.5 0.966667 0
          0 1 0 0.5 1 0
        </DataArray>
      </Points>
      <Cells>
        <DataArray type="Int32" Name="connectivity" NumberOfComponents="1" format="ascii">
          0 1 3 2 2 3 5 4 4 5 7 6
          6 7 9 8 8 9 11 10 10 11 13 12
          12 13 15 14 14 15 17 16 16 17 19 18
          18 19 21 20 20 21 23 22 22 23 25 24
          24 25 27 26 26 27 29 28 28 29 31 30
          30 31 33 32 32 33 35 34 34 35 37 36
          36 37 39 38 38 39 41 40 40 41 43 42
          42 43 45 44 44 45 47 46 46 47 49 48
          48 49 51 50 50 51 53 52 52 53 55 54
          54 55 57 56 56 57 59 58 58 59 61 60
        </DataArray>
        <DataArray type="Int32" Name="offsets" NumberOfComponents="1" format="ascii">
          4 8 12 16 20 24 28 32 36 40 44 48
          52 56 60 64 68 72 76 80 84 88 92 96
          100 104 108 112 116 120
        </DataArray>
        <DataArray type="UInt8" Name="types" NumberOfComponents="1" format="ascii">
          9 9 9 9 9 9 9 9 9 9 9 9
          9 9 9 9 9 9 9 9 9 9 9 9
          9 9 9 9 9 9
        </DataArray>
      </Cells>
    </Piece>
  </UnstructuredGrid>
</VTKFile>
