<?xml version="1.0"?>
<VTKFile type="UnstructuredGrid" version="0.1" byte_order="LittleEndian">
  <UnstructuredGrid>
    <Piece NumberOfCells="30" NumberOfPoints="62">
      <CellData Scalars="Sg">
        <DataArray type="Float32" Name="Sg" NumberOfComponents="1" format="ascii">
          0 0 0 0 0 0 0 0 0 0 0 0
          0 0 0 0 0 0 0 0 0 0 0 0
          0 0 0 0 0 0
        </DataArray>
        <DataArray type="Float32" Name="Sl" NumberOfComponents="1" format="ascii">
          1 1 1 1 1 1 1 1 1 1 1 1
          1 1 1 1 1 1 1 1 1 1 1 1
          1 1 1 1 1 1
        </DataArray>
        <DataArray type="Float32" Name="pg" NumberOfComponents="1" format="ascii">
          24687.8 24360.9 24034 23707 23380.1 23053.1 22726.2 22399.3 22072.3 21745.4 21418.4 21091.5
          20764.6 20437.6 20110.7 19783.7 19456.8 19129.8 18802.9 18476 18149 17822.1 17495.1 17168.2
          16841.3 16514.3 16187.4 15860.4 15533.5 15208.4
        </DataArray>
        <DataArray type="Float32" Name="pl" NumberOfComponents="1" format="ascii">
          110628 110301 109974 109647 109320 108993 108666 108339 108012 107685 107358 107031
          106704 106377 106050 105723 105396 105070 104743 104416 104089 103762 103435 103108
          102781 102454 102127 101800 101473 101148
        </DataArray>
        <DataArray type="Float32" Name="pc" NumberOfComponents="1" format="ascii">
          -85939.7 -85939.7 -85939.7 -85939.7 -85939.7 -85939.7 -85939.7 -85939.7 -85939.7 -85939.7 -85939.7 -85939.7
          -85939.7 -85939.7 -85939.7 -85939.7 -85939.7 -85939.7 -85939.7 -85939.7 -85939.7 -85939.7 -85939.7 -85939.7
          -85939.7 -85939.7 -85939.7 -85939.7 -85939.7 -85939.7
        </DataArray>
        <DataArray type="Float32" Name="rhoL" NumberOfComponents="1" format="ascii">
          999.855 999.855 999.855 999.855 999.855 999.854 999.854 999.854 999.854 999.854 999.854 999.854
          999.853 999.853 999.853 999.853 999.853 999.853 999.852 999.852 999.852 999.852 999.852 999.852
          999.852 999.851 999.851 999.851 999.851 999.851
        </DataArray>
        <DataArray type="Float32" Name="rhoG" NumberOfComponents="1" format="ascii">
          0.30585 0.3018 0.29775 0.293699 0.289649 0.285598 0.281548 0.277498 0.273447 0.269397 0.265347 0.261296
          0.257246 0.253195 0.249145 0.245095 0.241044 0.236994 0.232944 0.228893 0.224843 0.220793 0.216742 0.212692
          0.208641 0.204591 0.200541 0.19649 0.19244 0.188412
        </DataArray>
        <DataArray type="Float32" Name="mobL" NumberOfComponents="1" format="ascii">
          722.171 722.17 722.17 722.17 722.17 722.17 722.169 722.169 722.169 722.169 722.169 722.169
          722.168 722.168 722.168 722.168 722.168 722.167 722.167 722.167 722.167 722.167 722.166 722.166
          722.166 722.166 722.166 722.166 722.165 722.165
        </DataArray>
        <DataArray type="Float32" Name="mobG" NumberOfComponents="1" format="ascii">
          0 0 0 0 0 0 0 0 0 0 0 0
          0 0 0 0 0 0 0 0 0 0 0 0
          0 0 0 0 0 0
        </DataArray>
        <DataArray type="Float32" Name="porosity" NumberOfComponents="1" format="ascii">
          0.298697 0.298697 0.298697 0.298697 0.298696 0.298696 0.298695 0.298694 0.298693 0.298691 0.298688 0.298685
          0.29868 0.298673 0.298664 0.298652 0.298635 0.298613 0.298583 0.298542 0.298485 0.298406 0.298293 0.298125
          0.297592 0.297144 0.296267 0.294052 0.284247 0.0528356
        </DataArray>
        <DataArray type="Float32" Name="temperature" NumberOfComponents="1" format="ascii">
          281.15 281.15 281.15 281.15 281.15 281.15 281.15 281.15 281.15 281.15 281.15 281.15
          281.15 281.15 281.15 281.15 281.15 281.15 281.15 281.15 281.15 281.15 281.15 281.15
          281.15 281.15 281.15 281.15 281.15 281.15
        </DataArray>
        <DataArray type="Float32" Name="phase presence" NumberOfComponents="1" format="ascii">
          1 1 1 1 1 1 1 1 1 1 1 1
          1 1 1 1 1 1 1 1 1 1 1 1
          1 1 1 1 1 1
        </DataArray>
        <DataArray type="Float32" Name="precipitateVolumeFraction_au" NumberOfComponents="1" format="ascii">
          5.52648e-10 5.52501e-10 5.52769e-10 5.52754e-10 5.52736e-10 5.5275e-10 5.52768e-10 5.52745e-10 5.52762e-10 5.52507e-10 5.52751e-10 5.52789e-10
          5.52778e-10 5.52769e-10 5.52761e-10 5.52782e-10 5.52725e-10 5.52728e-10 5.52709e-10 5.52746e-10 5.52739e-10 5.52758e-10 5.52976e-10 9.73575e-10
          0.000269937 0.000269927 0.000269914 0.000269895 5.5245e-10 5.51636e-10
        </DataArray>
        <DataArray type="Float32" Name="precipitateVolumeFraction_nanoAu" NumberOfComponents="1" format="ascii">
          1.30068e-13 1.30031e-13 1.301e-13 1.30095e-13 1.3009e-13 1.30094e-13 1.30098e-13 1.30092e-13 1.30095e-13 1.30034e-13 1.30092e-13 1.301e-13
          1.30097e-13 1.30094e-13 1.30092e-13 1.30096e-13 1.30081e-13 1.30081e-13 1.30074e-13 1.3008e-13 1.30075e-13 1.30093e-13 1.4365e-13 2.82881e-11
          6.34925e-08 7.35917e-08 8.68702e-08 1.04862e-07 2.67531e-13 2.6374e-13
        </DataArray>
        <DataArray type="Float32" Name="precipitateVolumeFraction_d" NumberOfComponents="1" format="ascii">
          0.000651418 0.000651482 0.000651572 0.000651699 0.000651877 0.000652127 0.000652477 0.000652965 0.000653643 0.000654583 0.00065588 0.000657661
          0.000660098 0.000663419 0.00066793 0.000674038 0.000682296 0.00069346 0.000708586 0.000729189 0.000757522 0.000797094 0.000853699 0.000937632
          0.00106904 0.00129306 0.00173136 0.00283907 0.00787642 0.123582
        </DataArray>
        <DataArray type="Float32" Name="precipitateVolumeFraction_p" NumberOfComponents="1" format="ascii">
          0.000651418 0.000651482 0.000651572 0.000651699 0.000651877 0.000652127 0.000652477 0.000652965 0.000653643 0.000654583 0.00065588 0.000657661
          0.000660098 0.000663419 0.00066793 0.000674038 0.000682296 0.00069346 0.000708586 0.000729189 0.000757522 0.000797094 0.000853699 0.000937632
          0.00106904 0.00129306 0.00173136 0.00283907 0.00787642 0.123582
        </DataArray>
        <DataArray type="Float32" Name="K" NumberOfComponents="1" format="ascii">
          9.83364e-11 9.83363e-11 9.8336e-11 9.83357e-11 9.83353e-11 9.83346e-11 9.83337e-11 9.83325e-11 9.83308e-11 9.83284e-11 9.83251e-11 9.83206e-11
          9.83144e-11 9.8306e-11 9.82946e-11 9.82791e-11 9.82581e-11 9.82298e-11 9.81915e-11 9.81393e-11 9.80676e-11 9.79675e-11 9.78245e-11 9.76127e-11
          9.69431e-11 9.63829e-11 9.52945e-11 9.25888e-11 8.13569e-11 2.98374e-13
        </DataArray>
        <DataArray type="Float32" Name="X^w_H2O" NumberOfComponents="1" format="ascii">
          0.999849 0.999849 0.999849 0.999849 0.999849 0.999849 0.999849 0.999849 0.999849 0.999849 0.999849 0.999849
          0.999849 0.999849 0.999849 0.999849 0.999849 0.999849 0.999849 0.999849 0.999849 0.999849 0.999849 0.999849
          0.999849 0.999847 0.999845 0.999843 0.999839 0.99984
        </DataArray>
        <DataArray type="Float32" Name="X^w_Air" NumberOfComponents="1" format="ascii">
          0 0 0 0 0 0 0 0 0 0 0 0
          0 0 0 0 0 0 0 0 0 0 0 0
          0 0 0 0 0 0
        </DataArray>
        <DataArray type="Float32" Name="X^w_AuComplex" NumberOfComponents="1" format="ascii">
          1.54855e-16 1.54811e-16 1.54892e-16 1.54886e-16 1.5488e-16 1.54884e-16 1.54888e-16 1.54881e-16 1.54885e-16 1.54811e-16 1.5488e-16 1.5489e-16
          1.54886e-16 1.54882e-16 1.54878e-16 1.54882e-16 1.54864e-16 1.54861e-16 1.54852e-16 1.54857e-16 1.54847e-16 1.54861e-16 1.70791e-16 3.36545e-14
          7.55723e-11 9.94291e-11 1.35739e-10 1.94077e-10 6.04886e-16 5.89657e-16
        </DataArray>
        <DataArray type="Float32" Name="X^w_nanoAu" NumberOfComponents="1" format="ascii">
          5.66491e-19 5.66333e-19 5.66631e-19 5.66612e-19 5.66591e-19 5.66605e-19 5.66622e-19 5.66596e-19 5.66609e-19 5.66346e-19 5.66596e-19 5.66633e-19
          5.66618e-19 5.66606e-19 5.66593e-19 5.66609e-19 5.66545e-19 5.66539e-19 5.66509e-19 5.66572e-19 5.70426e-19 9.30026e-19 3.42268e-17 3.11246e-15
          2.76961e-13 3.21055e-13 3.78948e-13 4.51323e-13 1.16166e-18 1.11991e-18
        </DataArray>
        <DataArray type="Float32" Name="X^w_cyanide" NumberOfComponents="1" format="ascii">
          9.45445e-06 9.45443e-06 9.45441e-06 9.4544e-06 9.45438e-06 9.45436e-06 9.45434e-06 9.45432e-06 9.45429e-06 9.45427e-06 9.45425e-06 9.45422e-06
          9.45419e-06 9.45415e-06 9.4541e-06 9.45404e-06 9.45397e-06 9.45387e-06 9.45374e-06 9.45357e-06 9.45332e-06 9.45296e-06 9.45244e-06 9.45164e-06
          9.45091e-06 1.09542e-05 1.29307e-05 1.56249e-05 1.94596e-05 1.923e-05
        </DataArray>
        <DataArray type="Float32" Name="X^w_citrate" NumberOfComponents="1" format="ascii">
          0.000141796 0.000141796 0.000141796 0.000141796 0.000141796 0.000141796 0.000141796 0.000141796 0.000141796 0.000141796 0.000141796 0.000141796
          0.000141796 0.000141796 0.000141796 0.000141795 0.000141795 0.000141794 0.000141794 0.000141792 0.000141791 0.000141788 0.000141785 0.000141779
          0.000141769 0.000141754 0.000141724 0.000141653 0.000141422 0.000139753
        </DataArray>
        <DataArray type="Float32" Name="X^w_substrate" NumberOfComponents="1" format="ascii">
          7.11461e-12 9.72825e-12 1.33013e-11 1.81858e-11 2.48631e-11 3.39919e-11 4.64732e-11 6.35412e-11 8.68877e-11 1.18835e-10 1.62579e-10 2.22523e-10
          3.04766e-10 4.17785e-10 5.73445e-10 7.88483e-10 1.08676e-09 1.50277e-09 2.08725e-09 2.91646e-09 4.10838e-09 5.85207e-09 8.46469e-09 1.25108e-08
          1.90768e-08 3.04888e-08 5.25441e-08 1.03425e-07 2.67588e-07 1.44429e-06
        </DataArray>
        <DataArray type="Float32" Name="m^w_H2O" NumberOfComponents="1" format="ascii">
          55492.3 55492.3 55492.3 55492.3 55492.3 55492.3 55492.3 55492.3 55492.2 55492.2 55492.2 55492.2
          55492.2 55492.2 55492.2 55492.2 55492.2 55492.2 55492.2 55492.1 55492.1 55492.1 55492.1 55492.1
          55492.1 55492 55491.9 55491.7 55491.5 55491.6
        </DataArray>
        <DataArray type="Float32" Name="m^w_Air" NumberOfComponents="1" format="ascii">
          0 0 0 0 0 0 0 0 0 0 0 0
          0 0 0 0 0 0 0 0 0 0 0 0
          0 0 0 0 0 0
        </DataArray>
        <DataArray type="Float32" Name="m^w_AuComplex" NumberOfComponents="1" format="ascii">
          7.86072e-13 7.85846e-13 7.86258e-13 7.8623e-13 7.86199e-13 7.86216e-13 7.8624e-13 7.86201e-13 7.86222e-13 7.85849e-13 7.86198e-13 7.86247e-13
          7.86225e-13 7.86206e-13 7.86187e-13 7.86207e-13 7.86114e-13 7.86103e-13 7.86055e-13 7.8608e-13 7.86031e-13 7.86102e-13 8.66964e-13 1.70836e-10
          3.83617e-07 5.04718e-07 6.89033e-07 9.85168e-07 3.0705e-12 2.99319e-12
        </DataArray>
        <DataArray type="Float32" Name="m^w_nanoAu" NumberOfComponents="1" format="ascii">
          2.87561e-15 2.87481e-15 2.87632e-15 2.87622e-15 2.87612e-15 2.87618e-15 2.87627e-15 2.87614e-15 2.8762e-15 2.87487e-15 2.87614e-15 2.87632e-15
          2.87625e-15 2.87619e-15 2.87612e-15 2.8762e-15 2.87588e-15 2.87585e-15 2.87569e-15 2.87601e-15 2.89558e-15 4.72096e-15 1.73741e-13 1.57994e-11
          1.4059e-09 1.62973e-09 1.9236e-09 2.29099e-09 5.89677e-15 5.68482e-15
        </DataArray>
        <DataArray type="Float32" Name="m^w_cyanide" NumberOfComponents="1" format="ascii">
          0.363301 0.3633 0.363299 0.363298 0.363298 0.363297 0.363296 0.363295 0.363294 0.363293 0.363292 0.363291
          0.36329 0.363288 0.363286 0.363284 0.363281 0.363277 0.363272 0.363266 0.363256 0.363242 0.363222 0.363191
          0.363163 0.42093 0.49688 0.600408 0.74776 0.738937
        </DataArray>
        <DataArray type="Float32" Name="m^w_citrate" NumberOfComponents="1" format="ascii">
          0.749745 0.749745 0.749744 0.749744 0.749744 0.749744 0.749744 0.749743 0.749743 0.749743 0.749742 0.749742
          0.749741 0.74974 0.749739 0.749737 0.749735 0.749731 0.749727 0.749721 0.749712 0.749698 0.749679 0.749648
          0.749599 0.749518 0.749359 0.748984 0.747761 0.738937
        </DataArray>
        <DataArray type="Float32" Name="m^w_substrate" NumberOfComponents="1" format="ascii">
          3.94848e-08 5.399e-08 7.38197e-08 1.00928e-07 1.37986e-07 1.88648e-07 2.57917e-07 3.52642e-07 4.8221e-07 6.59514e-07 9.0228e-07 1.23496e-06
          1.69139e-06 2.31863e-06 3.18251e-06 4.37592e-06 6.03131e-06 8.34009e-06 1.15838e-05 1.61858e-05 2.28007e-05 3.24778e-05 4.69773e-05 6.94322e-05
          0.000105872 0.000169206 0.000291609 0.000573988 0.00148506 0.00801552
        </DataArray>
        <DataArray type="Float32" Name="process rank" NumberOfComponents="1" format="ascii">
          0 0 0 0 0 0 0 0 0 0 0 0
          0 0 0 0 0 0 0 0 0 0 0 0
          0 0 0 0 0 0
        </DataArray>
      </CellData>
      <Points>
        <DataArray type="Float32" Name="Coordinates" NumberOfComponents="3" format="ascii">
          0 0 0 0.5 0 0 0 0.0333333 0 0.5 0.0333333 0
          0 0.0666667 0 0.5 0.0666667 0 0 0.1 0 0.5 0.1 0
          0 0.133333 0 0.5 0.133333 0 0 0.166667 0 0.5 0.166667 0
          0 0.2 0 0.5 0.2 0 0 0.233333 0 0.5 0.233333 0
          0 0.266667 0 0.5 0.266667 0 0 0.3 0 0.5 0.3 0
          0 0.333333 0 0.5 0.333333 0 0 0.366667 0 0.5 0.366667 0
          0 0.4 0 0.5 0.4 0 0 0.433333 0 0.5 0.433333 0
          0 0.466667 0 0.5 0.466667 0 0 0.5 0 0.5 0.5 0
          0 0.533333 0 0.5 0.533333 0 0 0.566667 0 0.5 0.566667 0
          0 0.6 0 0.5 0.6 0 0 0.633333 0 0.5 0.633333 0
          0 0.666667 0 0.5 0.666667 0 0 0.7 0 0.5 0.7 0
          0 0.733333 0 0.5 0.733333 0 0 0.766667 0 0.5 0.766667 0
          0 0.8 0 0.5 0.8 0 0 0.833333 0 0.5 0.833333 0
          0 0.866667 0 0.5 0.866667 0 0 0.9 0 0.5 0.9 0
          0 0.933333 0 0.5 0.933333 0 0 0.966667 0 0.5 0.966667 0
          0 1 0 0.5 1 0
        </DataArray>
      </Points>
      <Cells>
        <DataArray type="Int32" Name="connectivity" NumberOfComponents="1" format="ascii">
          0 1 3 2 2 3 5 4 4 5 7 6
          6 7 9 8 8 9 11 10 10 11 13 12
          12 13 15 14 14 15 17 16 16 17 19 18
          18 19 21 20 20 21 23 22 22 23 25 24
          24 25 27 26 26 27 29 28 28 29 31 30
          30 31 33 32 32 33 35 34 34 35 37 36
          36 37 39 38 38 39 41 40 40 41 43 42
          42 43 45 44 44 45 47 46 46 47 49 48
          48 49 51 50 50 51 53 52 52 53 55 54
          54 55 57 56 56 57 59 58 58 59 61 60
        </DataArray>
        <DataArray type="Int32" Name="offsets" NumberOfComponents="1" format="ascii">
          4 8 12 16 20 24 28 32 36 40 44 48
          52 56 60 64 68 72 76 80 84 88 92 96
          100 104 108 112 116 120
        </DataArray>
        <DataArray type="UInt8" Name="types" NumberOfComponents="1" format="ascii">
          9 9 9 9 9 9 9 9 9 9 9 9
          9 9 9 9 9 9 9 9 9 9 9 9
          9 9 9 9 9 9
        </DataArray>
      </Cells>
    </Piece>
  </UnstructuredGrid>
</VTKFile>
