<?xml version="1.0"?>
<VTKFile type="UnstructuredGrid" version="0.1" byte_order="LittleEndian">
  <UnstructuredGrid>
    <Piece NumberOfCells="30" NumberOfPoints="62">
      <CellData Scalars="Sg">
        <DataArray type="Float32" Name="Sg" NumberOfComponents="1" format="ascii">
          0 0 0 0 0 0 0 0 0 0 0 0
          0 0 0 0 0 0 0 0 0 0 0 0
          0 0 0 0 0 0
        </DataArray>
        <DataArray type="Float32" Name="Sl" NumberOfComponents="1" format="ascii">
          1 1 1 1 1 1 1 1 1 1 1 1
          1 1 1 1 1 1 1 1 1 1 1 1
          1 1 1 1 1 1
        </DataArray>
        <DataArray type="Float32" Name="pg" NumberOfComponents="1" format="ascii">
          24687.8 24360.9 24034 23707 23380.1 23053.1 22726.2 22399.3 22072.3 21745.4 21418.4 21091.5
          20764.6 20437.6 20110.7 19783.7 19456.8 19129.8 18802.9 18476 18149 17822.1 17495.1 17168.2
          16841.3 16514.3 16187.4 15860.4 15533.5 15208
        </DataArray>
        <DataArray type="Float32" Name="pl" NumberOfComponents="1" format="ascii">
          110628 110301 109974 109647 109320 108993 108666 108339 108012 107685 107358 107031
          106704 106377 106050 105723 105396 105070 104743 104416 104089 103762 103435 103108
          102781 102454 102127 101800 101473 101148
        </DataArray>
        <DataArray type="Float32" Name="pc" NumberOfComponents="1" format="ascii">
          -85939.7 -85939.7 -85939.7 -85939.7 -85939.7 -85939.7 -85939.7 -85939.7 -85939.7 -85939.7 -85939.7 -85939.7
          -85939.7 -85939.7 -85939.7 -85939.7 -85939.7 -85939.7 -85939.7 -85939.7 -85939.7 -85939.7 -85939.7 -85939.7
          -85939.7 -85939.7 -85939.7 -85939.7 -85939.7 -85939.7
        </DataArray>
        <DataArray type="Float32" Name="rhoL" NumberOfComponents="1" format="ascii">
          999.855 999.855 999.855 999.855 999.855 999.854 999.854 999.854 999.854 999.854 999.854 999.854
          999.853 999.853 999.853 999.853 999.853 999.853 999.852 999.852 999.852 999.852 999.852 999.852
          999.852 999.851 999.851 999.851 999.851 999.851
        </DataArray>
        <DataArray type="Float32" Name="rhoG" NumberOfComponents="1" format="ascii">
          0.30585 0.3018 0.29775 0.293699 0.289649 0.285598 0.281548 0.277498 0.273447 0.269397 0.265347 0.261296
          0.257246 0.253195 0.249145 0.245095 0.241044 0.236994 0.232944 0.228893 0.224843 0.220793 0.216742 0.212692
          0.208641 0.204591 0.200541 0.19649 0.19244 0.188407
        </DataArray>
        <DataArray type="Float32" Name="mobL" NumberOfComponents="1" format="ascii">
          722.171 722.17 722.17 722.17 722.17 722.17 722.169 722.169 722.169 722.169 722.169 722.169
          722.168 722.168 722.168 722.168 722.168 722.167 722.167 722.167 722.167 722.167 722.166 722.166
          722.166 722.166 722.166 722.166 722.165 722.165
        </DataArray>
        <DataArray type="Float32" Name="mobG" NumberOfComponents="1" format="ascii">
          0 0 0 0 0 0 0 0 0 0 0 0
          0 0 0 0 0 0 0 0 0 0 0 0
          0 0 0 0 0 0
        </DataArray>
        <DataArray type="Float32" Name="porosity" NumberOfComponents="1" format="ascii">
          0.298673 0.298673 0.298673 0.298672 0.298672 0.298671 0.298671 0.29867 0.298668 0.298666 0.298664 0.29866
          0.298655 0.298649 0.298639 0.298627 0.29861 0.298588 0.298557 0.298515 0.298458 0.298377 0.298263 0.298093
          0.297558 0.297107 0.296229 0.294029 0.284499 0.0575294
        </DataArray>
        <DataArray type="Float32" Name="temperature" NumberOfComponents="1" format="ascii">
          281.15 281.15 281.15 281.15 281.15 281.15 281.15 281.15 281.15 281.15 281.15 281.15
          281.15 281.15 281.15 281.15 281.15 281.15 281.15 281.15 281.15 281.15 281.15 281.15
          281.15 281.15 281.15 281.15 281.15 281.15
        </DataArray>
        <DataArray type="Float32" Name="phase presence" NumberOfComponents="1" format="ascii">
          1 1 1 1 1 1 1 1 1 1 1 1
          1 1 1 1 1 1 1 1 1 1 1 1
          1 1 1 1 1 1
        </DataArray>
        <DataArray type="Float32" Name="precipitateVolumeFraction_au" NumberOfComponents="1" format="ascii">
          5.5264e-10 5.52764e-10 5.52784e-10 5.52764e-10 5.52741e-10 5.52761e-10 5.52773e-10 5.52749e-10 5.52737e-10 5.52749e-10 5.5275e-10 5.52718e-10
          5.52732e-10 5.52778e-10 5.52747e-10 5.52755e-10 5.52723e-10 5.52726e-10 5.52728e-10 5.52789e-10 5.52747e-10 5.52761e-10 5.52905e-10 9.07838e-10
          0.00026994 0.000269924 0.000269899 0.000269853 5.52238e-10 5.51211e-10
        </DataArray>
        <DataArray type="Float32" Name="precipitateVolumeFraction_nanoAu" NumberOfComponents="1" format="ascii">
          1.23949e-13 1.24e-13 1.24006e-13 1.23998e-13 1.2399e-13 1.23996e-13 1.23998e-13 1.2399e-13 1.23986e-13 1.23989e-13 1.23988e-13 1.23979e-13
          1.23982e-13 1.23991e-13 1.23983e-13 1.23983e-13 1.23973e-13 1.23971e-13 1.23968e-13 1.23978e-13 1.23962e-13 1.23962e-13 1.34956e-13 2.57091e-11
          6.03891e-08 7.67142e-08 1.02177e-07 1.45587e-07 4.74339e-13 4.67038e-13
        </DataArray>
        <DataArray type="Float32" Name="precipitateVolumeFraction_d" NumberOfComponents="1" format="ascii">
          0.000663558 0.000663623 0.000663714 0.000663842 0.000664023 0.000664277 0.000664632 0.000665127 0.000665816 0.00066677 0.000668087 0.000669895
          0.00067237 0.000675743 0.000680323 0.000686524 0.000694908 0.000706239 0.000721588 0.000742486 0.00077121 0.000811304 0.000868603 0.000953462
          0.00108608 0.00131155 0.00175064 0.00285059 0.00775071 0.121235
        </DataArray>
        <DataArray type="Float32" Name="precipitateVolumeFraction_p" NumberOfComponents="1" format="ascii">
          0.000663558 0.000663623 0.000663714 0.000663842 0.000664023 0.000664277 0.000664632 0.000665127 0.000665816 0.00066677 0.000668087 0.000669895
          0.00067237 0.000675743 0.000680323 0.000686524 0.000694908 0.000706239 0.000721588 0.000742486 0.00077121 0.000811304 0.000868603 0.000953462
          0.00108608 0.00131155 0.00175064 0.00285059 0.00775071 0.121235
        </DataArray>
        <DataArray type="Float32" Name="K" NumberOfComponents="1" format="ascii">
          9.83056e-11 9.83055e-11 9.83052e-11 9.83049e-11 9.83045e-11 9.83038e-11 9.83029e-11 9.83017e-11 9.82999e-11 9.82975e-11 9.82942e-11 9.82896e-11
          9.82833e-11 9.82747e-11 9.82631e-11 9.82474e-11 9.82262e-11 9.81975e-11 9.81586e-11 9.81057e-11 9.8033e-11 9.79316e-11 9.77869e-11 9.75728e-11
          9.69004e-11 9.63367e-11 9.52469e-11 9.2561e-11 8.16303e-11 3.89015e-13
        </DataArray>
        <DataArray type="Float32" Name="X^w_H2O" NumberOfComponents="1" format="ascii">
          0.999971 0.999971 0.999971 0.999971 0.999971 0.999971 0.999971 0.999971 0.999971 0.999971 0.999971 0.999971
          0.999971 0.999971 0.999971 0.999971 0.999971 0.999971 0.999971 0.999971 0.999971 0.999971 0.999971 0.999971
          0.999971 0.99997 0.999968 0.999964 0.999957 0.999956
        </DataArray>
        <DataArray type="Float32" Name="X^w_Air" NumberOfComponents="1" format="ascii">
          0 0 0 0 0 0 0 0 0 0 0 0
          0 0 0 0 0 0 0 0 0 0 0 0
          0 0 0 0 0 0
        </DataArray>
        <DataArray type="Float32" Name="X^w_AuComplex" NumberOfComponents="1" format="ascii">
          1.41427e-16 1.4148e-16 1.41487e-16 1.41477e-16 1.41468e-16 1.41473e-16 1.41475e-16 1.41466e-16 1.41461e-16 1.41463e-16 1.41462e-16 1.41451e-16
          1.41453e-16 1.41463e-16 1.41452e-16 1.41451e-16 1.41438e-16 1.41434e-16 1.41427e-16 1.41434e-16 1.4141e-16 1.41402e-16 1.539e-16 2.93262e-14
          6.88834e-11 1.0744e-10 1.84498e-10 3.64096e-10 1.83589e-15 1.78643e-15
        </DataArray>
        <DataArray type="Float32" Name="X^w_nanoAu" NumberOfComponents="1" format="ascii">
          8.99847e-20 9.00213e-20 9.00258e-20 9.00199e-20 9.00141e-20 9.00181e-20 9.00196e-20 9.00142e-20 9.00112e-20 9.00128e-20 9.00124e-20 9.00059e-20
          9.00077e-20 9.00145e-20 9.00082e-20 9.00079e-20 9.00009e-20 8.9999e-20 8.99966e-20 9.0009e-20 9.06116e-20 1.47571e-19 5.42251e-18 4.93186e-16
          4.39627e-14 5.58787e-14 7.44666e-14 1.04443e-13 3.4328e-19 3.30473e-19
        </DataArray>
        <DataArray type="Float32" Name="X^w_cyanide" NumberOfComponents="1" format="ascii">
          5.07268e-06 5.07266e-06 5.07264e-06 5.07261e-06 5.07259e-06 5.07257e-06 5.07254e-06 5.07252e-06 5.07249e-06 5.07246e-06 5.07244e-06 5.0724e-06
          5.07237e-06 5.07233e-06 5.07228e-06 5.07222e-06 5.07214e-06 5.07204e-06 5.07191e-06 5.07173e-06 5.07148e-06 5.07111e-06 5.07058e-06 5.06976e-06
          5.06892e-06 6.43883e-06 8.57464e-06 1.22396e-05 1.94601e-05 1.92268e-05
        </DataArray>
        <DataArray type="Float32" Name="X^w_citrate" NumberOfComponents="1" format="ascii">
          2.36355e-05 2.36355e-05 2.36355e-05 2.36355e-05 2.36355e-05 2.36355e-05 2.36355e-05 2.36355e-05 2.36354e-05 2.36354e-05 2.36354e-05 2.36354e-05
          2.36354e-05 2.36354e-05 2.36353e-05 2.36353e-05 2.36352e-05 2.36351e-05 2.3635e-05 2.36348e-05 2.36345e-05 2.36341e-05 2.36335e-05 2.36325e-05
          2.36309e-05 2.36283e-05 2.36231e-05 2.36109e-05 2.3571e-05 2.32883e-05
        </DataArray>
        <DataArray type="Float32" Name="X^w_substrate" NumberOfComponents="1" format="ascii">
          6.40884e-12 8.80482e-12 1.20959e-11 1.66163e-11 2.28253e-11 3.13543e-11 4.30711e-11 5.91699e-11 8.12958e-11 1.11717e-10 1.5357e-10 2.11198e-10
          2.9064e-10 4.00333e-10 5.52137e-10 7.62855e-10 1.05655e-09 1.46816e-09 2.04925e-09 2.8777e-09 4.07438e-09 5.8337e-09 8.48285e-09 1.26059e-08
          1.933e-08 3.10722e-08 5.38619e-08 1.06583e-07 2.76404e-07 1.47224e-06
        </DataArray>
        <DataArray type="Float32" Name="m^w_H2O" NumberOfComponents="1" format="ascii">
          55499.1 55499.1 55499.1 55499.1 55499.1 55499.1 55499.1 55499.1 55499 55499 55499 55499
          55499 55499 55499 55499 55499 55499 55499 55498.9 55498.9 55498.9 55498.9 55498.9
          55498.9 55498.8 55498.7 55498.5 55498.1 55498
        </DataArray>
        <DataArray type="Float32" Name="m^w_Air" NumberOfComponents="1" format="ascii">
          0 0 0 0 0 0 0 0 0 0 0 0
          0 0 0 0 0 0 0 0 0 0 0 0
          0 0 0 0 0 0
        </DataArray>
        <DataArray type="Float32" Name="m^w_AuComplex" NumberOfComponents="1" format="ascii">
          7.17909e-13 7.1818e-13 7.18211e-13 7.18163e-13 7.18116e-13 7.18144e-13 7.18153e-13 7.18109e-13 7.18082e-13 7.18091e-13 7.18085e-13 7.1803e-13
          7.1804e-13 7.18091e-13 7.18035e-13 7.18028e-13 7.17965e-13 7.17942e-13 7.17909e-13 7.17941e-13 7.17819e-13 7.17778e-13 7.81222e-13 1.48865e-10
          3.49663e-07 5.45383e-07 9.36542e-07 1.84821e-06 9.31926e-12 9.06821e-12
        </DataArray>
        <DataArray type="Float32" Name="m^w_nanoAu" NumberOfComponents="1" format="ascii">
          4.56779e-16 4.56965e-16 4.56987e-16 4.56957e-16 4.56927e-16 4.56948e-16 4.56955e-16 4.56928e-16 4.56913e-16 4.5692e-16 4.56918e-16 4.56885e-16
          4.56894e-16 4.56929e-16 4.56897e-16 4.56895e-16 4.5686e-16 4.5685e-16 4.56837e-16 4.56901e-16 4.59959e-16 7.49094e-16 2.75255e-14 2.50349e-12
          2.23162e-10 2.83649e-10 3.78004e-10 5.30169e-10 1.74254e-15 1.67753e-15
        </DataArray>
        <DataArray type="Float32" Name="m^w_cyanide" NumberOfComponents="1" format="ascii">
          0.194925 0.194924 0.194923 0.194922 0.194921 0.19492 0.194919 0.194918 0.194917 0.194916 0.194915 0.194914
          0.194913 0.194911 0.194909 0.194907 0.194904 0.1949 0.194895 0.194888 0.194878 0.194864 0.194843 0.194812
          0.19478 0.24742 0.329491 0.470321 0.74778 0.738814
        </DataArray>
        <DataArray type="Float32" Name="m^w_citrate" NumberOfComponents="1" format="ascii">
          0.124972 0.124972 0.124972 0.124972 0.124972 0.124972 0.124972 0.124972 0.124972 0.124972 0.124971 0.124971
          0.124971 0.124971 0.124971 0.124971 0.12497 0.12497 0.124969 0.124968 0.124966 0.124964 0.124961 0.124956
          0.124947 0.124933 0.124906 0.124841 0.12463 0.123136
        </DataArray>
        <DataArray type="Float32" Name="m^w_substrate" NumberOfComponents="1" format="ascii">
          3.55679e-08 4.88651e-08 6.71298e-08 9.22173e-08 1.26676e-07 1.7401e-07 2.39036e-07 3.28382e-07 4.51176e-07 6.20011e-07 8.52285e-07 1.17211e-06
          1.61299e-06 2.22177e-06 3.06425e-06 4.2337e-06 5.86366e-06 8.14798e-06 1.13729e-05 1.59707e-05 2.2612e-05 3.23758e-05 4.70781e-05 6.99605e-05
          0.000107278 0.000172444 0.000298922 0.000591514 0.00153398 0.00817064
        </DataArray>
        <DataArray type="Float32" Name="process rank" NumberOfComponents="1" format="ascii">
          0 0 0 0 0 0 0 0 0 0 0 0
          0 0 0 0 0 0 0 0 0 0 0 0
          0 0 0 0 0 0
        </DataArray>
      </CellData>
      <Points>
        <DataArray type="Float32" Name="Coordinates" NumberOfComponents="3" format="ascii">
          0 0 0 0.5 0 0 0 0.0333333 0 0.5 0.0333333 0
          0 0.0666667 0 0.5 0.0666667 0 0 0.1 0 0.5 0.1 0
          0 0.133333 0 0.5 0.133333 0 0 0.166667 0 0.5 0.166667 0
          0 0.2 0 0.5 0.2 0 0 0.233333 0 0.5 0.233333 0
          0 0.266667 0 0.5 0.266667 0 0 0.3 0 0.5 0.3 0
          0 0.333333 0 0.5 0.333333 0 0 0.366667 0 0.5 0.366667 0
          0 0.4 0 0.5 0.4 0 0 0.433333 0 0.5 0.433333 0
          0 0.466667 0 0.5 0.466667 0 0 0.5 0 0.5 0.5 0
          0 0.533333 0 0.5 0.533333 0 0 0.566667 0 0.5 0.566667 0
          0 0.6 0 0.5 0.6 0 0 0.633333 0 0.5 0.633333 0
          0 0.666667 0 0.5 0.666667 0 0 0.7 0 0.5 0.7 0
          0 0.733333 0 0.5 0.733333 0 0 0.766667 0 0.5 0.766667 0
          0 0.8 0 0.5 0.8 0 0 0.833333 0 0.5 0.833333 0
          0 0.866667 0 0.5 0.866667 0 0 0.9 0 0.5 0.9 0
          0 0.933333 0 0.5 0.933333 0 0 0.966667 0 0.5 0.966667 0
          0 1 0 0.5 1 0
        </DataArray>
      </Points>
      <Cells>
        <DataArray type="Int32" Name="connectivity" NumberOfComponents="1" format="ascii">
          0 1 3 2 2 3 5 4 4 5 7 6
          6 7 9 8 8 9 11 10 10 11 13 12
          12 13 15 14 14 15 17 16 16 17 19 18
          18 19 21 20 20 21 23 22 22 23 25 24
          24 25 27 26 26 27 29 28 28 29 31 30
          30 31 33 32 32 33 35 34 34 35 37 36
          36 37 39 38 38 39 41 40 40 41 43 42
          42 43 45 44 44 45 47 46 46 47 49 48
          48 49 51 50 50 51 53 52 52 53 55 54
          54 55 57 56 56 57 59 58 58 59 61 60
        </DataArray>
        <DataArray type="Int32" Name="offsets" NumberOfComponents="1" format="ascii">
          4 8 12 16 20 24 28 32 36 40 44 48
          52 56 60 64 68 72 76 80 84 88 92 96
          100 104 108 112 116 120
        </DataArray>
        <DataArray type="UInt8" Name="types" NumberOfComponents="1" format="ascii">
          9 9 9 9 9 9 9 9 9 9 9 9
          9 9 9 9 9 9 9 9 9 9 9 9
          9 9 9 9 9 9
        </DataArray>
      </Cells>
    </Piece>
  </UnstructuredGrid>
</VTKFile>
