<?xml version="1.0"?>
<VTKFile type="UnstructuredGrid" version="0.1" byte_order="LittleEndian">
  <UnstructuredGrid>
    <Piece NumberOfCells="30" NumberOfPoints="62">
      <CellData Scalars="Sg">
        <DataArray type="Float32" Name="Sg" NumberOfComponents="1" format="ascii">
          0 0 0 0 0 0 0 0 0 0 0 0
          0 0 0 0 0 0 0 0 0 0 0 0
          0 0 0 0 0 0
        </DataArray>
        <DataArray type="Float32" Name="Sl" NumberOfComponents="1" format="ascii">
          1 1 1 1 1 1 1 1 1 1 1 1
          1 1 1 1 1 1 1 1 1 1 1 1
          1 1 1 1 1 1
        </DataArray>
        <DataArray type="Float32" Name="pg" NumberOfComponents="1" format="ascii">
          24687.8 24360.9 24034 23707 23380.1 23053.1 22726.2 22399.3 22072.3 21745.4 21418.4 21091.5
          20764.6 20437.6 20110.7 19783.7 19456.8 19129.8 18802.9 18476 18149 17822.1 17495.1 17168.2
          16841.3 16514.3 16187.4 15860.4 15533.5 15209.7
        </DataArray>
        <DataArray type="Float32" Name="pl" NumberOfComponents="1" format="ascii">
          110628 110301 109974 109647 109320 108993 108666 108339 108012 107685 107358 107031
          106704 106377 106050 105723 105396 105070 104743 104416 104089 103762 103435 103108
          102781 102454 102127 101800 101473 101149
        </DataArray>
        <DataArray type="Float32" Name="pc" NumberOfComponents="1" format="ascii">
          -85939.7 -85939.7 -85939.7 -85939.7 -85939.7 -85939.7 -85939.7 -85939.7 -85939.7 -85939.7 -85939.7 -85939.7
          -85939.7 -85939.7 -85939.7 -85939.7 -85939.7 -85939.7 -85939.7 -85939.7 -85939.7 -85939.7 -85939.7 -85939.7
          -85939.7 -85939.7 -85939.7 -85939.7 -85939.7 -85939.7
        </DataArray>
        <DataArray type="Float32" Name="rhoL" NumberOfComponents="1" format="ascii">
          999.855 999.855 999.855 999.855 999.855 999.854 999.854 999.854 999.854 999.854 999.854 999.854
          999.853 999.853 999.853 999.853 999.853 999.853 999.852 999.852 999.852 999.852 999.852 999.852
          999.852 999.851 999.851 999.851 999.851 999.851
        </DataArray>
        <DataArray type="Float32" Name="rhoG" NumberOfComponents="1" format="ascii">
          0.30585 0.3018 0.29775 0.293699 0.289649 0.285598 0.281548 0.277498 0.273447 0.269397 0.265347 0.261296
          0.257246 0.253195 0.249145 0.245095 0.241044 0.236994 0.232944 0.228893 0.224843 0.220793 0.216742 0.212692
          0.208641 0.204591 0.200541 0.19649 0.19244 0.188428
        </DataArray>
        <DataArray type="Float32" Name="mobL" NumberOfComponents="1" format="ascii">
          722.171 722.17 722.17 722.17 722.17 722.17 722.169 722.169 722.169 722.169 722.169 722.169
          722.168 722.168 722.168 722.168 722.168 722.167 722.167 722.167 722.167 722.167 722.166 722.166
          722.166 722.166 722.166 722.166 722.165 722.165
        </DataArray>
        <DataArray type="Float32" Name="mobG" NumberOfComponents="1" format="ascii">
          0 0 0 0 0 0 0 0 0 0 0 0
          0 0 0 0 0 0 0 0 0 0 0 0
          0 0 0 0 0 0
        </DataArray>
        <DataArray type="Float32" Name="porosity" NumberOfComponents="1" format="ascii">
          0.298875 0.298875 0.298874 0.298874 0.298874 0.298873 0.298873 0.298872 0.298871 0.298869 0.298867 0.298864
          0.298859 0.298853 0.298845 0.298835 0.29882 0.2988 0.298773 0.298736 0.298685 0.298614 0.298511 0.298357
          0.297844 0.297421 0.296568 0.294282 0.282717 0.0447
        </DataArray>
        <DataArray type="Float32" Name="temperature" NumberOfComponents="1" format="ascii">
          281.15 281.15 281.15 281.15 281.15 281.15 281.15 281.15 281.15 281.15 281.15 281.15
          281.15 281.15 281.15 281.15 281.15 281.15 281.15 281.15 281.15 281.15 281.15 281.15
          281.15 281.15 281.15 281.15 281.15 281.15
        </DataArray>
        <DataArray type="Float32" Name="phase presence" NumberOfComponents="1" format="ascii">
          1 1 1 1 1 1 1 1 1 1 1 1
          1 1 1 1 1 1 1 1 1 1 1 1
          1 1 1 1 1 1
        </DataArray>
        <DataArray type="Float32" Name="precipitateVolumeFraction_au" NumberOfComponents="1" format="ascii">
          5.5264e-10 5.52764e-10 5.52784e-10 5.52764e-10 5.52741e-10 5.52762e-10 5.52773e-10 5.5275e-10 5.52737e-10 5.52749e-10 5.52751e-10 5.52718e-10
          5.52733e-10 5.52778e-10 5.52748e-10 5.52755e-10 5.52724e-10 5.52726e-10 5.52728e-10 5.52789e-10 5.52748e-10 5.52762e-10 5.53076e-10 1.30402e-09
          0.000269941 0.000269925 0.0002699 0.000269851 5.52238e-10 5.512e-10
        </DataArray>
        <DataArray type="Float32" Name="precipitateVolumeFraction_nanoAu" NumberOfComponents="1" format="ascii">
          1.23625e-13 1.23653e-13 1.23657e-13 1.23652e-13 1.23647e-13 1.23652e-13 1.23654e-13 1.23649e-13 1.23646e-13 1.23649e-13 1.23649e-13 1.23641e-13
          1.23644e-13 1.23653e-13 1.23645e-13 1.23646e-13 1.23637e-13 1.23635e-13 1.23632e-13 1.23642e-13 1.23626e-13 1.23627e-13 1.34663e-13 2.57556e-11
          6.03597e-08 7.66822e-08 1.02147e-07 1.45578e-07 4.74278e-13 4.6725e-13
        </DataArray>
        <DataArray type="Float32" Name="precipitateVolumeFraction_d" NumberOfComponents="1" format="ascii">
          0.000562623 0.000562681 0.000562762 0.000562876 0.000563036 0.00056326 0.000563572 0.000564008 0.000564613 0.00056545 0.000566603 0.000568187
          0.000570353 0.000573304 0.000577313 0.000582745 0.000590095 0.000600044 0.000613549 0.000631989 0.000657433 0.000693128 0.000744497 0.000821308
          0.00094303 0.00115442 0.00158096 0.00272384 0.00864158 0.12765
        </DataArray>
        <DataArray type="Float32" Name="precipitateVolumeFraction_p" NumberOfComponents="1" format="ascii">
          0.000562623 0.000562681 0.000562762 0.000562876 0.000563036 0.00056326 0.000563572 0.000564008 0.000564613 0.00056545 0.000566603 0.000568187
          0.000570353 0.000573304 0.000577313 0.000582745 0.000590095 0.000600044 0.000613549 0.000631989 0.000657433 0.000693128 0.000744497 0.000821308
          0.00094303 0.00115442 0.00158096 0.00272384 0.00864158 0.12765
        </DataArray>
        <DataArray type="Float32" Name="K" NumberOfComponents="1" format="ascii">
          9.85618e-11 9.85617e-11 9.85615e-11 9.85612e-11 9.85608e-11 9.85602e-11 9.85594e-11 9.85583e-11 9.85568e-11 9.85547e-11 9.85517e-11 9.85477e-11
          9.85422e-11 9.85347e-11 9.85245e-11 9.85107e-11 9.84921e-11 9.84668e-11 9.84325e-11 9.83857e-11 9.83212e-11 9.82307e-11 9.81006e-11 9.79063e-11
          9.72593e-11 9.67292e-11 9.56668e-11 9.28673e-11 7.97088e-11 1.77614e-13
        </DataArray>
        <DataArray type="Float32" Name="X^w_H2O" NumberOfComponents="1" format="ascii">
          0.999971 0.999971 0.999971 0.999971 0.999971 0.999971 0.999971 0.999971 0.999971 0.999971 0.999971 0.999971
          0.999971 0.999971 0.999971 0.999971 0.999971 0.999971 0.999971 0.999971 0.999971 0.999971 0.999971 0.999971
          0.999971 0.99997 0.999968 0.999964 0.999957 0.999956
        </DataArray>
        <DataArray type="Float32" Name="X^w_Air" NumberOfComponents="1" format="ascii">
          0 0 0 0 0 0 0 0 0 0 0 0
          0 0 0 0 0 0 0 0 0 0 0 0
          0 0 0 0 0 0
        </DataArray>
        <DataArray type="Float32" Name="X^w_AuComplex" NumberOfComponents="1" format="ascii">
          1.4105e-16 1.41082e-16 1.41087e-16 1.41082e-16 1.41076e-16 1.41081e-16 1.41084e-16 1.41078e-16 1.41074e-16 1.41077e-16 1.41077e-16 1.41067e-16
          1.4107e-16 1.4108e-16 1.4107e-16 1.41069e-16 1.41058e-16 1.41053e-16 1.41047e-16 1.41053e-16 1.41029e-16 1.41021e-16 1.53566e-16 2.93712e-14
          6.88291e-11 1.07366e-10 1.84407e-10 3.6406e-10 1.83633e-15 1.78851e-15
        </DataArray>
        <DataArray type="Float32" Name="X^w_nanoAu" NumberOfComponents="1" format="ascii">
          8.97489e-20 8.97689e-20 8.97721e-20 8.97688e-20 8.97651e-20 8.97684e-20 8.97701e-20 8.97662e-20 8.97641e-20 8.97658e-20 8.97658e-20 8.97602e-20
          8.97621e-20 8.97687e-20 8.97629e-20 8.97629e-20 8.97562e-20 8.97544e-20 8.97519e-20 8.97641e-20 9.03654e-20 1.47224e-19 5.41528e-18 4.92765e-16
          4.3941e-14 5.58557e-14 7.44476e-14 1.04449e-13 3.43365e-19 3.30871e-19
        </DataArray>
        <DataArray type="Float32" Name="X^w_cyanide" NumberOfComponents="1" format="ascii">
          5.07034e-06 5.07035e-06 5.07035e-06 5.07035e-06 5.07035e-06 5.07035e-06 5.07034e-06 5.07034e-06 5.07034e-06 5.07033e-06 5.07032e-06 5.0703e-06
          5.07028e-06 5.07025e-06 5.07021e-06 5.07016e-06 5.07009e-06 5.06999e-06 5.06985e-06 5.06967e-06 5.06941e-06 5.06905e-06 5.06852e-06 5.06773e-06
          5.067e-06 6.43672e-06 8.57266e-06 1.22391e-05 1.94673e-05 1.92412e-05
        </DataArray>
        <DataArray type="Float32" Name="X^w_citrate" NumberOfComponents="1" format="ascii">
          2.36355e-05 2.36355e-05 2.36355e-05 2.36355e-05 2.36355e-05 2.36354e-05 2.36354e-05 2.36354e-05 2.36354e-05 2.36354e-05 2.36354e-05 2.36354e-05
          2.36353e-05 2.36353e-05 2.36353e-05 2.36352e-05 2.36351e-05 2.3635e-05 2.36348e-05 2.36346e-05 2.36343e-05 2.36338e-05 2.36332e-05 2.36322e-05
          2.36307e-05 2.36284e-05 2.36239e-05 2.36136e-05 2.35796e-05 2.33058e-05
        </DataArray>
        <DataArray type="Float32" Name="X^w_substrate" NumberOfComponents="1" format="ascii">
          1.85292e-11 2.44223e-11 3.21879e-11 4.24207e-11 5.59049e-11 7.36743e-11 9.7093e-11 1.27962e-10 1.68664e-10 2.22351e-10 2.93207e-10 3.86801e-10
          5.10573e-10 6.74514e-10 8.92138e-10 1.18188e-09 1.5692e-09 2.08973e-09 2.79434e-09 3.75735e-09 5.09063e-09 6.96896e-09 9.67882e-09 1.37196e-08
          2.00357e-08 3.06221e-08 5.0421e-08 9.50473e-08 2.39906e-07 1.39829e-06
        </DataArray>
        <DataArray type="Float32" Name="m^w_H2O" NumberOfComponents="1" format="ascii">
          55499.1 55499.1 55499.1 55499.1 55499.1 55499.1 55499.1 55499.1 55499 55499 55499 55499
          55499 55499 55499 55499 55499 55499 55499 55498.9 55498.9 55498.9 55498.9 55498.9
          55498.9 55498.8 55498.7 55498.5 55498.1 55498
        </DataArray>
        <DataArray type="Float32" Name="m^w_Air" NumberOfComponents="1" format="ascii">
          0 0 0 0 0 0 0 0 0 0 0 0
          0 0 0 0 0 0 0 0 0 0 0 0
          0 0 0 0 0 0
        </DataArray>
        <DataArray type="Float32" Name="m^w_AuComplex" NumberOfComponents="1" format="ascii">
          7.15994e-13 7.16155e-13 7.16181e-13 7.16155e-13 7.16125e-13 7.16152e-13 7.16166e-13 7.16134e-13 7.16116e-13 7.1613e-13 7.16129e-13 7.16083e-13
          7.16095e-13 7.16146e-13 7.16097e-13 7.16092e-13 7.16033e-13 7.1601e-13 7.15978e-13 7.16008e-13 7.15888e-13 7.15848e-13 7.79524e-13 1.49093e-10
          3.49388e-07 5.45006e-07 9.3608e-07 1.84803e-06 9.32152e-12 9.07878e-12
        </DataArray>
        <DataArray type="Float32" Name="m^w_nanoAu" NumberOfComponents="1" format="ascii">
          4.55582e-16 4.55683e-16 4.55699e-16 4.55682e-16 4.55664e-16 4.5568e-16 4.55689e-16 4.55669e-16 4.55658e-16 4.55667e-16 4.55667e-16 4.55638e-16
          4.55648e-16 4.55681e-16 4.55652e-16 4.55651e-16 4.55617e-16 4.55608e-16 4.55595e-16 4.55657e-16 4.5871e-16 7.47335e-16 2.74888e-14 2.50136e-12
          2.23052e-10 2.83532e-10 3.77908e-10 5.30198e-10 1.74298e-15 1.67956e-15
        </DataArray>
        <DataArray type="Float32" Name="m^w_cyanide" NumberOfComponents="1" format="ascii">
          0.194835 0.194835 0.194835 0.194835 0.194835 0.194835 0.194835 0.194835 0.194835 0.194834 0.194834 0.194833
          0.194832 0.194831 0.19483 0.194828 0.194825 0.194821 0.194816 0.194809 0.194799 0.194785 0.194764 0.194734
          0.194706 0.247339 0.329415 0.470303 0.748054 0.739368
        </DataArray>
        <DataArray type="Float32" Name="m^w_citrate" NumberOfComponents="1" format="ascii">
          0.124972 0.124972 0.124972 0.124972 0.124972 0.124972 0.124972 0.124972 0.124971 0.124971 0.124971 0.124971
          0.124971 0.124971 0.12497 0.12497 0.12497 0.124969 0.124968 0.124967 0.124965 0.124963 0.124959 0.124954
          0.124946 0.124934 0.12491 0.124856 0.124676 0.123228
        </DataArray>
        <DataArray type="Float32" Name="m^w_substrate" NumberOfComponents="1" format="ascii">
          1.02833e-07 1.35539e-07 1.78637e-07 2.35427e-07 3.10262e-07 4.08878e-07 5.38848e-07 7.10168e-07 9.36054e-07 1.23401e-06 1.62724e-06 2.14667e-06
          2.83358e-06 3.74342e-06 4.95119e-06 6.55922e-06 8.70874e-06 1.15976e-05 1.5508e-05 2.08526e-05 2.8252e-05 3.86763e-05 5.37155e-05 7.61412e-05
          0.000111194 0.000169947 0.000279826 0.000527493 0.00133143 0.0077602
        </DataArray>
        <DataArray type="Float32" Name="process rank" NumberOfComponents="1" format="ascii">
          0 0 0 0 0 0 0 0 0 0 0 0
          0 0 0 0 0 0 0 0 0 0 0 0
          0 0 0 0 0 0
        </DataArray>
      </CellData>
      <Points>
        <DataArray type="Float32" Name="Coordinates" NumberOfComponents="3" format="ascii">
          0 0 0 0.5 0 0 0 0.0333333 0 0.5 0.0333333 0
          0 0.0666667 0 0.5 0.0666667 0 0 0.1 0 0.5 0.1 0
          0 0.133333 0 0.5 0.133333 0 0 0.166667 0 0.5 0.166667 0
          0 0.2 0 0.5 0.2 0 0 0.233333 0 0.5 0.233333 0
          0 0.266667 0 0.5 0.266667 0 0 0.3 0 0.5 0.3 0
          0 0.333333 0 0.5 0.333333 0 0 0.366667 0 0.5 0.366667 0
          0 0.4 0 0.5 0.4 0 0 0.433333 0 0.5 0.433333 0
          0 0.466667 0 0.5 0.466667 0 0 0.5 0 0.5 0.5 0
          0 0.533333 0 0.5 0.533333 0 0 0.566667 0 0.5 0.566667 0
          0 0.6 0 0.5 0.6 0 0 0.633333 0 0.5 0.633333 0
          0 0.666667 0 0.5 0.666667 0 0 0.7 0 0.5 0.7 0
          0 0.733333 0 0.5 0.733333 0 0 0.766667 0 0.5 0.766667 0
          0 0.8 0 0.5 0.8 0 0 0.833333 0 0.5 0.833333 0
          0 0.866667 0 0.5 0.866667 0 0 0.9 0 0.5 0.9 0
          0 0.933333 0 0.5 0.933333 0 0 0.966667 0 0.5 0.966667 0
          0 1 0 0.5 1 0
        </DataArray>
      </Points>
      <Cells>
        <DataArray type="Int32" Name="connectivity" NumberOfComponents="1" format="ascii">
          0 1 3 2 2 3 5 4 4 5 7 6
          6 7 9 8 8 9 11 10 10 11 13 12
          12 13 15 14 14 15 17 16 16 17 19 18
          18 19 21 20 20 21 23 22 22 23 25 24
          24 25 27 26 26 27 29 28 28 29 31 30
          30 31 33 32 32 33 35 34 34 35 37 36
          36 37 39 38 38 39 41 40 40 41 43 42
          42 43 45 44 44 45 47 46 46 47 49 48
          48 49 51 50 50 51 53 52 52 53 55 54
          54 55 57 56 56 57 59 58 58 59 61 60
        </DataArray>
        <DataArray type="Int32" Name="offsets" NumberOfComponents="1" format="ascii">
          4 8 12 16 20 24 28 32 36 40 44 48
          52 56 60 64 68 72 76 80 84 88 92 96
          100 104 108 112 116 120
        </DataArray>
        <DataArray type="UInt8" Name="types" NumberOfComponents="1" format="ascii">
          9 9 9 9 9 9 9 9 9 9 9 9
          9 9 9 9 9 9 9 9 9 9 9 9
          9 9 9 9 9 9
        </DataArray>
      </Cells>
    </Piece>
  </UnstructuredGrid>
</VTKFile>
