<?xml version="1.0"?>
<VTKFile type="UnstructuredGrid" version="0.1" byte_order="LittleEndian">
  <UnstructuredGrid>
    <Piece NumberOfCells="30" NumberOfPoints="62">
      <CellData Scalars="Sg">
        <DataArray type="Float32" Name="Sg" NumberOfComponents="1" format="ascii">
          0 0 0 0 0 0 0 0 0 0 0 0
          0 0 0 0 0 0 0 0 0 0 0 0
          0 0 0 0 0 0
        </DataArray>
        <DataArray type="Float32" Name="Sl" NumberOfComponents="1" format="ascii">
          1 1 1 1 1 1 1 1 1 1 1 1
          1 1 1 1 1 1 1 1 1 1 1 1
          1 1 1 1 1 1
        </DataArray>
        <DataArray type="Float32" Name="pg" NumberOfComponents="1" format="ascii">
          24687.8 24360.9 24034 23707 23380.1 23053.1 22726.2 22399.3 22072.3 21745.4 21418.4 21091.5
          20764.6 20437.6 20110.7 19783.7 19456.8 19129.8 18802.9 18476 18149 17822.1 17495.1 17168.2
          16841.3 16514.3 16187.4 15860.4 15533.5 15208.9
        </DataArray>
        <DataArray type="Float32" Name="pl" NumberOfComponents="1" format="ascii">
          110628 110301 109974 109647 109320 108993 108666 108339 108012 107685 107358 107031
          106704 106377 106050 105723 105396 105070 104743 104416 104089 103762 103435 103108
          102781 102454 102127 101800 101473 101149
        </DataArray>
        <DataArray type="Float32" Name="pc" NumberOfComponents="1" format="ascii">
          -85939.7 -85939.7 -85939.7 -85939.7 -85939.7 -85939.7 -85939.7 -85939.7 -85939.7 -85939.7 -85939.7 -85939.7
          -85939.7 -85939.7 -85939.7 -85939.7 -85939.7 -85939.7 -85939.7 -85939.7 -85939.7 -85939.7 -85939.7 -85939.7
          -85939.7 -85939.7 -85939.7 -85939.7 -85939.7 -85939.7
        </DataArray>
        <DataArray type="Float32" Name="rhoL" NumberOfComponents="1" format="ascii">
          999.855 999.855 999.855 999.855 999.855 999.854 999.854 999.854 999.854 999.854 999.854 999.854
          999.853 999.853 999.853 999.853 999.853 999.853 999.852 999.852 999.852 999.852 999.852 999.852
          999.852 999.851 999.851 999.851 999.851 999.851
        </DataArray>
        <DataArray type="Float32" Name="rhoG" NumberOfComponents="1" format="ascii">
          0.30585 0.3018 0.29775 0.293699 0.289649 0.285598 0.281548 0.277498 0.273447 0.269397 0.265347 0.261296
          0.257246 0.253195 0.249145 0.245095 0.241044 0.236994 0.232944 0.228893 0.224843 0.220793 0.216742 0.212692
          0.208641 0.204591 0.200541 0.19649 0.19244 0.188419
        </DataArray>
        <DataArray type="Float32" Name="mobL" NumberOfComponents="1" format="ascii">
          722.171 722.17 722.17 722.17 722.17 722.17 722.169 722.169 722.169 722.169 722.169 722.169
          722.168 722.168 722.168 722.168 722.168 722.167 722.167 722.167 722.167 722.167 722.166 722.166
          722.166 722.166 722.166 722.166 722.165 722.165
        </DataArray>
        <DataArray type="Float32" Name="mobG" NumberOfComponents="1" format="ascii">
          0 0 0 0 0 0 0 0 0 0 0 0
          0 0 0 0 0 0 0 0 0 0 0 0
          0 0 0 0 0 0
        </DataArray>
        <DataArray type="Float32" Name="porosity" NumberOfComponents="1" format="ascii">
          0.298733 0.298732 0.298732 0.298732 0.298732 0.298731 0.298731 0.29873 0.298728 0.298726 0.298724 0.29872
          0.298716 0.298709 0.2987 0.298688 0.298672 0.29865 0.298621 0.29858 0.298525 0.298447 0.298336 0.298171
          0.297642 0.297199 0.296325 0.294091 0.283907 0.0487354
        </DataArray>
        <DataArray type="Float32" Name="temperature" NumberOfComponents="1" format="ascii">
          281.15 281.15 281.15 281.15 281.15 281.15 281.15 281.15 281.15 281.15 281.15 281.15
          281.15 281.15 281.15 281.15 281.15 281.15 281.15 281.15 281.15 281.15 281.15 281.15
          281.15 281.15 281.15 281.15 281.15 281.15
        </DataArray>
        <DataArray type="Float32" Name="phase presence" NumberOfComponents="1" format="ascii">
          1 1 1 1 1 1 1 1 1 1 1 1
          1 1 1 1 1 1 1 1 1 1 1 1
          1 1 1 1 1 1
        </DataArray>
        <DataArray type="Float32" Name="precipitateVolumeFraction_au" NumberOfComponents="1" format="ascii">
          5.52649e-10 5.52501e-10 5.5277e-10 5.52754e-10 5.52736e-10 5.5275e-10 5.52768e-10 5.52745e-10 5.52762e-10 5.52507e-10 5.52751e-10 5.52789e-10
          5.52778e-10 5.52769e-10 5.52761e-10 5.52782e-10 5.52725e-10 5.52728e-10 5.52709e-10 5.52746e-10 5.52739e-10 5.52758e-10 5.53011e-10 1.04629e-09
          0.000269937 0.000269927 0.000269914 0.000269894 5.5245e-10 5.51635e-10
        </DataArray>
        <DataArray type="Float32" Name="precipitateVolumeFraction_nanoAu" NumberOfComponents="1" format="ascii">
          1.30009e-13 1.29974e-13 1.30037e-13 1.30033e-13 1.30029e-13 1.30032e-13 1.30036e-13 1.3003e-13 1.30034e-13 1.29974e-13 1.30031e-13 1.30039e-13
          1.30036e-13 1.30034e-13 1.30031e-13 1.30035e-13 1.30021e-13 1.30021e-13 1.30014e-13 1.30021e-13 1.30016e-13 1.30034e-13 1.43596e-13 2.82935e-11
          6.34859e-08 7.35856e-08 8.68656e-08 1.04862e-07 2.67517e-13 2.63782e-13
        </DataArray>
        <DataArray type="Float32" Name="precipitateVolumeFraction_d" NumberOfComponents="1" format="ascii">
          0.000633697 0.000633759 0.000633847 0.000633971 0.000634145 0.000634389 0.000634731 0.000635208 0.000635871 0.000636789 0.000638056 0.000639796
          0.000642177 0.000645422 0.00064983 0.000655799 0.000663872 0.000674789 0.000689587 0.000709754 0.000737506 0.000776304 0.000831873 0.000914413
          0.00104397 0.00126569 0.0017023 0.00281953 0.00804647 0.125632
        </DataArray>
        <DataArray type="Float32" Name="precipitateVolumeFraction_p" NumberOfComponents="1" format="ascii">
          0.000633697 0.000633759 0.000633847 0.000633971 0.000634145 0.000634389 0.000634731 0.000635208 0.000635871 0.000636789 0.000638056 0.000639796
          0.000642177 0.000645422 0.00064983 0.000655799 0.000663872 0.000674789 0.000689587 0.000709754 0.000737506 0.000776304 0.000831873 0.000914413
          0.00104397 0.00126569 0.0017023 0.00281953 0.00804647 0.125632
        </DataArray>
        <DataArray type="Float32" Name="K" NumberOfComponents="1" format="ascii">
          9.83814e-11 9.83812e-11 9.8381e-11 9.83807e-11 9.83802e-11 9.83796e-11 9.83788e-11 9.83775e-11 9.83759e-11 9.83735e-11 9.83703e-11 9.83659e-11
          9.83599e-11 9.83516e-11 9.83405e-11 9.83253e-11 9.83048e-11 9.82772e-11 9.82397e-11 9.81886e-11 9.81183e-11 9.80201e-11 9.78796e-11 9.76713e-11
          9.70059e-11 9.64512e-11 9.53664e-11 9.2636e-11 8.09883e-11 2.32147e-13
        </DataArray>
        <DataArray type="Float32" Name="X^w_H2O" NumberOfComponents="1" format="ascii">
          0.999849 0.999849 0.999849 0.999849 0.999849 0.999849 0.999849 0.999849 0.999849 0.999849 0.999849 0.999849
          0.999849 0.999849 0.999849 0.999849 0.999849 0.999849 0.999849 0.999849 0.999849 0.999849 0.999849 0.999849
          0.999849 0.999847 0.999845 0.999843 0.999839 0.99984
        </DataArray>
        <DataArray type="Float32" Name="X^w_Air" NumberOfComponents="1" format="ascii">
          0 0 0 0 0 0 0 0 0 0 0 0
          0 0 0 0 0 0 0 0 0 0 0 0
          0 0 0 0 0 0
        </DataArray>
        <DataArray type="Float32" Name="X^w_AuComplex" NumberOfComponents="1" format="ascii">
          1.54779e-16 1.54737e-16 1.54812e-16 1.54807e-16 1.54802e-16 1.54806e-16 1.5481e-16 1.54803e-16 1.54808e-16 1.54736e-16 1.54804e-16 1.54814e-16
          1.5481e-16 1.54806e-16 1.54803e-16 1.54807e-16 1.54789e-16 1.54787e-16 1.54778e-16 1.54783e-16 1.54774e-16 1.54788e-16 1.70724e-16 3.3659e-14
          7.55596e-11 9.94154e-11 1.35727e-10 1.94077e-10 6.0491e-16 5.89882e-16
        </DataArray>
        <DataArray type="Float32" Name="X^w_nanoAu" NumberOfComponents="1" format="ascii">
          5.66232e-19 5.66084e-19 5.66358e-19 5.66341e-19 5.66321e-19 5.66335e-19 5.66352e-19 5.66328e-19 5.66341e-19 5.66084e-19 5.6633e-19 5.66367e-19
          5.66353e-19 5.66341e-19 5.6633e-19 5.66346e-19 5.66283e-19 5.66277e-19 5.66248e-19 5.66312e-19 5.70164e-19 9.29575e-19 3.42137e-17 3.11173e-15
          2.76933e-13 3.21029e-13 3.78932e-13 4.51337e-13 1.16171e-18 1.12036e-18
        </DataArray>
        <DataArray type="Float32" Name="X^w_cyanide" NumberOfComponents="1" format="ascii">
          9.45346e-06 9.45345e-06 9.45344e-06 9.45343e-06 9.45342e-06 9.45341e-06 9.4534e-06 9.45339e-06 9.45338e-06 9.45337e-06 9.45335e-06 9.45333e-06
          9.45331e-06 9.45328e-06 9.45324e-06 9.45319e-06 9.45312e-06 9.45303e-06 9.45291e-06 9.45273e-06 9.45249e-06 9.45215e-06 9.45163e-06 9.45085e-06
          9.45016e-06 1.09535e-05 1.29302e-05 1.5625e-05 1.94614e-05 1.92346e-05
        </DataArray>
        <DataArray type="Float32" Name="X^w_citrate" NumberOfComponents="1" format="ascii">
          0.000141796 0.000141796 0.000141796 0.000141796 0.000141796 0.000141796 0.000141796 0.000141796 0.000141796 0.000141796 0.000141796 0.000141796
          0.000141796 0.000141796 0.000141796 0.000141795 0.000141795 0.000141794 0.000141793 0.000141792 0.000141791 0.000141788 0.000141784 0.000141779
          0.00014177 0.000141755 0.000141726 0.000141658 0.000141435 0.000139787
        </DataArray>
        <DataArray type="Float32" Name="X^w_substrate" NumberOfComponents="1" format="ascii">
          8.44012e-12 1.14593e-11 1.55576e-11 2.11205e-11 2.86717e-11 3.89221e-11 5.2838e-11 7.17333e-11 9.73966e-11 1.32266e-10 1.79672e-10 2.44177e-10
          3.32048e-10 4.51946e-10 6.15906e-10 8.40798e-10 1.15052e-09 1.57939e-09 2.1776e-09 3.02017e-09 4.22248e-09 5.9685e-09 8.56538e-09 1.25575e-08
          1.89886e-08 3.00874e-08 5.14016e-08 1.0036e-07 2.58612e-07 1.42073e-06
        </DataArray>
        <DataArray type="Float32" Name="m^w_H2O" NumberOfComponents="1" format="ascii">
          55492.3 55492.3 55492.3 55492.3 55492.3 55492.3 55492.3 55492.3 55492.2 55492.2 55492.2 55492.2
          55492.2 55492.2 55492.2 55492.2 55492.2 55492.2 55492.2 55492.1 55492.1 55492.1 55492.1 55492.1
          55492.1 55492 55491.9 55491.7 55491.5 55491.6
        </DataArray>
        <DataArray type="Float32" Name="m^w_Air" NumberOfComponents="1" format="ascii">
          0 0 0 0 0 0 0 0 0 0 0 0
          0 0 0 0 0 0 0 0 0 0 0 0
          0 0 0 0 0 0
        </DataArray>
        <DataArray type="Float32" Name="m^w_AuComplex" NumberOfComponents="1" format="ascii">
          7.85684e-13 7.85472e-13 7.85854e-13 7.8583e-13 7.85802e-13 7.8582e-13 7.85844e-13 7.85809e-13 7.85831e-13 7.85466e-13 7.8581e-13 7.8586e-13
          7.8584e-13 7.85823e-13 7.85805e-13 7.85826e-13 7.85735e-13 7.85725e-13 7.85679e-13 7.85704e-13 7.85657e-13 7.85729e-13 8.66621e-13 1.70859e-10
          3.83553e-07 5.04648e-07 6.88972e-07 9.85168e-07 3.07062e-12 2.99434e-12
        </DataArray>
        <DataArray type="Float32" Name="m^w_nanoAu" NumberOfComponents="1" format="ascii">
          2.8743e-15 2.87355e-15 2.87493e-15 2.87485e-15 2.87475e-15 2.87482e-15 2.8749e-15 2.87478e-15 2.87485e-15 2.87354e-15 2.87479e-15 2.87497e-15
          2.87491e-15 2.87485e-15 2.87479e-15 2.87487e-15 2.87455e-15 2.87452e-15 2.87437e-15 2.87469e-15 2.89425e-15 4.71867e-15 1.73674e-13 1.57957e-11
          1.40576e-09 1.6296e-09 1.92352e-09 2.29106e-09 5.897e-15 5.6871e-15
        </DataArray>
        <DataArray type="Float32" Name="m^w_cyanide" NumberOfComponents="1" format="ascii">
          0.363263 0.363262 0.363262 0.363261 0.363261 0.363261 0.36326 0.36326 0.363259 0.363258 0.363258 0.363257
          0.363256 0.363255 0.363253 0.363251 0.363249 0.363245 0.36324 0.363234 0.363224 0.363211 0.363191 0.363161
          0.363134 0.420903 0.496859 0.600409 0.747827 0.739113
        </DataArray>
        <DataArray type="Float32" Name="m^w_citrate" NumberOfComponents="1" format="ascii">
          0.749745 0.749745 0.749744 0.749744 0.749744 0.749744 0.749744 0.749743 0.749743 0.749743 0.749742 0.749742
          0.749741 0.74974 0.749738 0.749737 0.749734 0.749731 0.749726 0.74972 0.749711 0.749698 0.749678 0.749648
          0.7496 0.749521 0.749367 0.749007 0.747828 0.739114
        </DataArray>
        <DataArray type="Float32" Name="m^w_substrate" NumberOfComponents="1" format="ascii">
          4.68411e-08 6.3597e-08 8.63417e-08 1.17215e-07 1.59123e-07 2.1601e-07 2.93241e-07 3.98106e-07 5.40533e-07 7.34052e-07 9.97148e-07 1.35513e-06
          1.8428e-06 2.50821e-06 3.41816e-06 4.66626e-06 6.38514e-06 8.76531e-06 1.20853e-05 1.67613e-05 2.34339e-05 3.3124e-05 4.75361e-05 6.96914e-05
          0.000105383 0.000166979 0.000285269 0.000556979 0.00143525 0.00788477
        </DataArray>
        <DataArray type="Float32" Name="process rank" NumberOfComponents="1" format="ascii">
          0 0 0 0 0 0 0 0 0 0 0 0
          0 0 0 0 0 0 0 0 0 0 0 0
          0 0 0 0 0 0
        </DataArray>
      </CellData>
      <Points>
        <DataArray type="Float32" Name="Coordinates" NumberOfComponents="3" format="ascii">
          0 0 0 0.5 0 0 0 0.0333333 0 0.5 0.0333333 0
          0 0.0666667 0 0.5 0.0666667 0 0 0.1 0 0.5 0.1 0
          0 0.133333 0 0.5 0.133333 0 0 0.166667 0 0.5 0.166667 0
          0 0.2 0 0.5 0.2 0 0 0.233333 0 0.5 0.233333 0
          0 0.266667 0 0.5 0.266667 0 0 0.3 0 0.5 0.3 0
          0 0.333333 0 0.5 0.333333 0 0 0.366667 0 0.5 0.366667 0
          0 0.4 0 0.5 0.4 0 0 0.433333 0 0.5 0.433333 0
          0 0.466667 0 0.5 0.466667 0 0 0.5 0 0.5 0.5 0
          0 0.533333 0 0.5 0.533333 0 0 0.566667 0 0.5 0.566667 0
          0 0.6 0 0.5 0.6 0 0 0.633333 0 0.5 0.633333 0
          0 0.666667 0 0.5 0.666667 0 0 0.7 0 0.5 0.7 0
          0 0.733333 0 0.5 0.733333 0 0 0.766667 0 0.5 0.766667 0
          0 0.8 0 0.5 0.8 0 0 0.833333 0 0.5 0.833333 0
          0 0.866667 0 0.5 0.866667 0 0 0.9 0 0.5 0.9 0
          0 0.933333 0 0.5 0.933333 0 0 0.966667 0 0.5 0.966667 0
          0 1 0 0.5 1 0
        </DataArray>
      </Points>
      <Cells>
        <DataArray type="Int32" Name="connectivity" NumberOfComponents="1" format="ascii">
          0 1 3 2 2 3 5 4 4 5 7 6
          6 7 9 8 8 9 11 10 10 11 13 12
          12 13 15 14 14 15 17 16 16 17 19 18
          18 19 21 20 20 21 23 22 22 23 25 24
          24 25 27 26 26 27 29 28 28 29 31 30
          30 31 33 32 32 33 35 34 34 35 37 36
          36 37 39 38 38 39 41 40 40 41 43 42
          42 43 45 44 44 45 47 46 46 47 49 48
          48 49 51 50 50 51 53 52 52 53 55 54
          54 55 57 56 56 57 59 58 58 59 61 60
        </DataArray>
        <DataArray type="Int32" Name="offsets" NumberOfComponents="1" format="ascii">
          4 8 12 16 20 24 28 32 36 40 44 48
          52 56 60 64 68 72 76 80 84 88 92 96
          100 104 108 112 116 120
        </DataArray>
        <DataArray type="UInt8" Name="types" NumberOfComponents="1" format="ascii">
          9 9 9 9 9 9 9 9 9 9 9 9
          9 9 9 9 9 9 9 9 9 9 9 9
          9 9 9 9 9 9
        </DataArray>
      </Cells>
    </Piece>
  </UnstructuredGrid>
</VTKFile>
