<?xml version="1.0"?>
<VTKFile type="UnstructuredGrid" version="0.1" byte_order="LittleEndian">
  <UnstructuredGrid>
    <Piece NumberOfCells="30" NumberOfPoints="62">
      <CellData Scalars="Sg">
        <DataArray type="Float32" Name="Sg" NumberOfComponents="1" format="ascii">
          0 0 0 0 0 0 0 0 0 0 0 0
          0 0 0 0 0 0 0 0 0 0 0 0
          0 0 0 0 0 0
        </DataArray>
        <DataArray type="Float32" Name="Sl" NumberOfComponents="1" format="ascii">
          1 1 1 1 1 1 1 1 1 1 1 1
          1 1 1 1 1 1 1 1 1 1 1 1
          1 1 1 1 1 1
        </DataArray>
        <DataArray type="Float32" Name="pg" NumberOfComponents="1" format="ascii">
          24687.8 24360.9 24034 23707 23380.1 23053.1 22726.2 22399.3 22072.3 21745.4 21418.4 21091.5
          20764.6 20437.6 20110.7 19783.7 19456.8 19129.8 18802.9 18476 18149 17822.1 17495.1 17168.2
          16841.3 16514.3 16187.4 15860.4 15533.5 15209.3
        </DataArray>
        <DataArray type="Float32" Name="pl" NumberOfComponents="1" format="ascii">
          110628 110301 109974 109647 109320 108993 108666 108339 108012 107685 107358 107031
          106704 106377 106050 105723 105396 105070 104743 104416 104089 103762 103435 103108
          102781 102454 102127 101800 101473 101149
        </DataArray>
        <DataArray type="Float32" Name="pc" NumberOfComponents="1" format="ascii">
          -85939.7 -85939.7 -85939.7 -85939.7 -85939.7 -85939.7 -85939.7 -85939.7 -85939.7 -85939.7 -85939.7 -85939.7
          -85939.7 -85939.7 -85939.7 -85939.7 -85939.7 -85939.7 -85939.7 -85939.7 -85939.7 -85939.7 -85939.7 -85939.7
          -85939.7 -85939.7 -85939.7 -85939.7 -85939.7 -85939.7
        </DataArray>
        <DataArray type="Float32" Name="rhoL" NumberOfComponents="1" format="ascii">
          999.855 999.855 999.855 999.855 999.855 999.854 999.854 999.854 999.854 999.854 999.854 999.854
          999.853 999.853 999.853 999.853 999.853 999.853 999.852 999.852 999.852 999.852 999.852 999.852
          999.852 999.851 999.851 999.851 999.851 999.851
        </DataArray>
        <DataArray type="Float32" Name="rhoG" NumberOfComponents="1" format="ascii">
          0.30585 0.3018 0.29775 0.293699 0.289649 0.285598 0.281548 0.277498 0.273447 0.269397 0.265347 0.261296
          0.257246 0.253195 0.249145 0.245095 0.241044 0.236994 0.232944 0.228893 0.224843 0.220793 0.216742 0.212692
          0.208641 0.204591 0.200541 0.19649 0.19244 0.188423
        </DataArray>
        <DataArray type="Float32" Name="mobL" NumberOfComponents="1" format="ascii">
          722.171 722.17 722.17 722.17 722.17 722.17 722.169 722.169 722.169 722.169 722.169 722.169
          722.168 722.168 722.168 722.168 722.168 722.167 722.167 722.167 722.167 722.167 722.166 722.166
          722.166 722.166 722.166 722.166 722.165 722.165
        </DataArray>
        <DataArray type="Float32" Name="mobG" NumberOfComponents="1" format="ascii">
          0 0 0 0 0 0 0 0 0 0 0 0
          0 0 0 0 0 0 0 0 0 0 0 0
          0 0 0 0 0 0
        </DataArray>
        <DataArray type="Float32" Name="porosity" NumberOfComponents="1" format="ascii">
          0.298767 0.298767 0.298767 0.298766 0.298766 0.298766 0.298765 0.298764 0.298763 0.298761 0.298759 0.298755
          0.29875 0.298744 0.298735 0.298724 0.298708 0.298687 0.298658 0.298618 0.298564 0.298488 0.298379 0.298216
          0.297691 0.297252 0.296383 0.294133 0.283598 0.046638
        </DataArray>
        <DataArray type="Float32" Name="temperature" NumberOfComponents="1" format="ascii">
          281.15 281.15 281.15 281.15 281.15 281.15 281.15 281.15 281.15 281.15 281.15 281.15
          281.15 281.15 281.15 281.15 281.15 281.15 281.15 281.15 281.15 281.15 281.15 281.15
          281.15 281.15 281.15 281.15 281.15 281.15
        </DataArray>
        <DataArray type="Float32" Name="phase presence" NumberOfComponents="1" format="ascii">
          1 1 1 1 1 1 1 1 1 1 1 1
          1 1 1 1 1 1 1 1 1 1 1 1
          1 1 1 1 1 1
        </DataArray>
        <DataArray type="Float32" Name="precipitateVolumeFraction_au" NumberOfComponents="1" format="ascii">
          5.52649e-10 5.52501e-10 5.5277e-10 5.52754e-10 5.52736e-10 5.5275e-10 5.52768e-10 5.52745e-10 5.52762e-10 5.52507e-10 5.52751e-10 5.52789e-10
          5.52778e-10 5.52769e-10 5.52761e-10 5.52782e-10 5.52725e-10 5.52728e-10 5.52709e-10 5.52746e-10 5.52739e-10 5.52758e-10 5.53046e-10 1.11898e-09
          0.000269937 0.000269927 0.000269914 0.000269894 5.5245e-10 5.51635e-10
        </DataArray>
        <DataArray type="Float32" Name="precipitateVolumeFraction_nanoAu" NumberOfComponents="1" format="ascii">
          1.29996e-13 1.29961e-13 1.30024e-13 1.30021e-13 1.30016e-13 1.30019e-13 1.30024e-13 1.30018e-13 1.30022e-13 1.29962e-13 1.30019e-13 1.30027e-13
          1.30025e-13 1.30022e-13 1.3002e-13 1.30024e-13 1.3001e-13 1.30009e-13 1.30003e-13 1.30009e-13 1.30004e-13 1.30022e-13 1.43595e-13 2.83043e-11
          6.34823e-08 7.35821e-08 8.68631e-08 1.04862e-07 2.67533e-13 2.63822e-13
        </DataArray>
        <DataArray type="Float32" Name="precipitateVolumeFraction_d" NumberOfComponents="1" format="ascii">
          0.000616485 0.000616546 0.000616632 0.000616754 0.000616924 0.000617163 0.000617497 0.000617964 0.000618612 0.00061951 0.000620748 0.000622449
          0.000624777 0.000627949 0.000632257 0.000638094 0.000645989 0.000656668 0.000671148 0.000690892 0.000718082 0.000756127 0.000810681 0.00089185
          0.00101955 0.00123891 0.0016735 0.0027985 0.00820108 0.126681
        </DataArray>
        <DataArray type="Float32" Name="precipitateVolumeFraction_p" NumberOfComponents="1" format="ascii">
          0.000616485 0.000616546 0.000616632 0.000616754 0.000616924 0.000617163 0.000617497 0.000617964 0.000618612 0.00061951 0.000620748 0.000622449
          0.000624777 0.000627949 0.000632257 0.000638094 0.000645989 0.000656668 0.000671148 0.000690892 0.000718082 0.000756127 0.000810681 0.00089185
          0.00101955 0.00123891 0.0016735 0.0027985 0.00820108 0.126681
        </DataArray>
        <DataArray type="Float32" Name="K" NumberOfComponents="1" format="ascii">
          9.84251e-11 9.84249e-11 9.84247e-11 9.84244e-11 9.84239e-11 9.84233e-11 9.84225e-11 9.84213e-11 9.84197e-11 9.84174e-11 9.84142e-11 9.84099e-11
          9.8404e-11 9.8396e-11 9.8385e-11 9.83702e-11 9.83502e-11 9.83231e-11 9.82864e-11 9.82364e-11 9.81675e-11 9.80712e-11 9.79332e-11 9.77282e-11
          9.70672e-11 9.6518e-11 9.54376e-11 9.26868e-11 8.06543e-11 2.02552e-13
        </DataArray>
        <DataArray type="Float32" Name="X^w_H2O" NumberOfComponents="1" format="ascii">
          0.999849 0.999849 0.999849 0.999849 0.999849 0.999849 0.999849 0.999849 0.999849 0.999849 0.999849 0.999849
          0.999849 0.999849 0.999849 0.999849 0.999849 0.999849 0.999849 0.999849 0.999849 0.999849 0.999849 0.999849
          0.999849 0.999847 0.999845 0.999843 0.999839 0.99984
        </DataArray>
        <DataArray type="Float32" Name="X^w_Air" NumberOfComponents="1" format="ascii">
          0 0 0 0 0 0 0 0 0 0 0 0
          0 0 0 0 0 0 0 0 0 0 0 0
          0 0 0 0 0 0
        </DataArray>
        <DataArray type="Float32" Name="X^w_AuComplex" NumberOfComponents="1" format="ascii">
          1.54757e-16 1.54716e-16 1.54791e-16 1.54787e-16 1.54781e-16 1.54785e-16 1.5479e-16 1.54783e-16 1.54788e-16 1.54716e-16 1.54784e-16 1.54794e-16
          1.5479e-16 1.54787e-16 1.54784e-16 1.54788e-16 1.5477e-16 1.54768e-16 1.54759e-16 1.54764e-16 1.54755e-16 1.54769e-16 1.70717e-16 3.36708e-14
          7.55526e-11 9.94077e-11 1.3572e-10 1.94078e-10 6.0498e-16 5.90032e-16
        </DataArray>
        <DataArray type="Float32" Name="X^w_nanoAu" NumberOfComponents="1" format="ascii">
          5.66178e-19 5.66031e-19 5.66302e-19 5.66286e-19 5.66267e-19 5.66281e-19 5.66299e-19 5.66275e-19 5.66288e-19 5.66032e-19 5.66278e-19 5.66315e-19
          5.66302e-19 5.6629e-19 5.66279e-19 5.66295e-19 5.66232e-19 5.66226e-19 5.66197e-19 5.66261e-19 5.70112e-19 9.29427e-19 3.42073e-17 3.11138e-15
          2.76917e-13 3.21015e-13 3.78924e-13 4.51347e-13 1.16185e-18 1.12066e-18
        </DataArray>
        <DataArray type="Float32" Name="X^w_cyanide" NumberOfComponents="1" format="ascii">
          9.45295e-06 9.45294e-06 9.45294e-06 9.45293e-06 9.45293e-06 9.45293e-06 9.45292e-06 9.45291e-06 9.45291e-06 9.4529e-06 9.45288e-06 9.45287e-06
          9.45285e-06 9.45282e-06 9.45278e-06 9.45274e-06 9.45267e-06 9.45258e-06 9.45246e-06 9.45229e-06 9.45205e-06 9.4517e-06 9.45119e-06 9.45041e-06
          9.44974e-06 1.09531e-05 1.29299e-05 1.5625e-05 1.94626e-05 1.92369e-05
        </DataArray>
        <DataArray type="Float32" Name="X^w_citrate" NumberOfComponents="1" format="ascii">
          0.000141796 0.000141796 0.000141796 0.000141796 0.000141796 0.000141796 0.000141796 0.000141796 0.000141796 0.000141796 0.000141796 0.000141796
          0.000141796 0.000141796 0.000141796 0.000141795 0.000141795 0.000141794 0.000141793 0.000141792 0.00014179 0.000141788 0.000141784 0.000141778
          0.000141769 0.000141755 0.000141727 0.00014166 0.000141443 0.000139803
        </DataArray>
        <DataArray type="Float32" Name="X^w_substrate" NumberOfComponents="1" format="ascii">
          1.01051e-11 1.36237e-11 1.83663e-11 2.47587e-11 3.33748e-11 4.49887e-11 6.06451e-11 8.17544e-11 1.10223e-10 1.48634e-10 2.00487e-10 2.70546e-10
          3.65314e-10 4.93711e-10 6.68057e-10 9.05506e-10 1.23021e-09 1.67663e-09 2.29489e-09 3.15947e-09 4.38431e-09 6.1502e-09 8.75757e-09 1.27367e-08
          1.91007e-08 3.00071e-08 5.08198e-08 9.84154e-08 2.5247e-07 1.40898e-06
        </DataArray>
        <DataArray type="Float32" Name="m^w_H2O" NumberOfComponents="1" format="ascii">
          55492.3 55492.3 55492.3 55492.3 55492.3 55492.3 55492.3 55492.3 55492.2 55492.2 55492.2 55492.2
          55492.2 55492.2 55492.2 55492.2 55492.2 55492.2 55492.2 55492.1 55492.1 55492.1 55492.1 55492.1
          55492.1 55492 55491.9 55491.7 55491.5 55491.6
        </DataArray>
        <DataArray type="Float32" Name="m^w_Air" NumberOfComponents="1" format="ascii">
          0 0 0 0 0 0 0 0 0 0 0 0
          0 0 0 0 0 0 0 0 0 0 0 0
          0 0 0 0 0 0
        </DataArray>
        <DataArray type="Float32" Name="m^w_AuComplex" NumberOfComponents="1" format="ascii">
          7.85577e-13 7.85366e-13 7.85747e-13 7.85724e-13 7.85697e-13 7.85716e-13 7.85741e-13 7.85707e-13 7.85729e-13 7.85366e-13 7.8571e-13 7.85761e-13
          7.85742e-13 7.85725e-13 7.85707e-13 7.85729e-13 7.85639e-13 7.85629e-13 7.85583e-13 7.85608e-13 7.85561e-13 7.85634e-13 8.66586e-13 1.70919e-10
          3.83517e-07 5.0461e-07 6.88938e-07 9.85173e-07 3.07097e-12 2.9951e-12
        </DataArray>
        <DataArray type="Float32" Name="m^w_nanoAu" NumberOfComponents="1" format="ascii">
          2.87402e-15 2.87327e-15 2.87465e-15 2.87457e-15 2.87447e-15 2.87454e-15 2.87463e-15 2.87451e-15 2.87458e-15 2.87328e-15 2.87453e-15 2.87471e-15
          2.87464e-15 2.87458e-15 2.87453e-15 2.87461e-15 2.87429e-15 2.87426e-15 2.87411e-15 2.87443e-15 2.89398e-15 4.71793e-15 1.73642e-13 1.57938e-11
          1.40567e-09 1.62952e-09 1.92348e-09 2.29111e-09 5.89773e-15 5.68863e-15
        </DataArray>
        <DataArray type="Float32" Name="m^w_cyanide" NumberOfComponents="1" format="ascii">
          0.363243 0.363243 0.363242 0.363242 0.363242 0.363242 0.363241 0.363241 0.363241 0.36324 0.36324 0.363239
          0.363238 0.363237 0.363236 0.363234 0.363231 0.363228 0.363223 0.363216 0.363207 0.363194 0.363174 0.363144
          0.363118 0.420887 0.496848 0.600411 0.747873 0.739201
        </DataArray>
        <DataArray type="Float32" Name="m^w_citrate" NumberOfComponents="1" format="ascii">
          0.749745 0.749745 0.749744 0.749744 0.749744 0.749744 0.749744 0.749743 0.749743 0.749743 0.749742 0.749741
          0.749741 0.74974 0.749738 0.749736 0.749734 0.74973 0.749725 0.749719 0.749709 0.749696 0.749676 0.749646
          0.749599 0.749522 0.749372 0.749022 0.747874 0.739202
        </DataArray>
        <DataArray type="Float32" Name="m^w_substrate" NumberOfComponents="1" format="ascii">
          5.60816e-08 7.56089e-08 1.0193e-07 1.37406e-07 1.85224e-07 2.49679e-07 3.36569e-07 4.53721e-07 6.11719e-07 8.24889e-07 1.11266e-06 1.50148e-06
          2.02742e-06 2.74e-06 3.70759e-06 5.02538e-06 6.8274e-06 9.30498e-06 1.27362e-05 1.75344e-05 2.43321e-05 3.41324e-05 4.86028e-05 7.06859e-05
          0.000106005 0.000166533 0.00028204 0.000546185 0.00140116 0.00781953
        </DataArray>
        <DataArray type="Float32" Name="process rank" NumberOfComponents="1" format="ascii">
          0 0 0 0 0 0 0 0 0 0 0 0
          0 0 0 0 0 0 0 0 0 0 0 0
          0 0 0 0 0 0
        </DataArray>
      </CellData>
      <Points>
        <DataArray type="Float32" Name="Coordinates" NumberOfComponents="3" format="ascii">
          0 0 0 0.5 0 0 0 0.0333333 0 0.5 0.0333333 0
          0 0.0666667 0 0.5 0.0666667 0 0 0.1 0 0.5 0.1 0
          0 0.133333 0 0.5 0.133333 0 0 0.166667 0 0.5 0.166667 0
          0 0.2 0 0.5 0.2 0 0 0.233333 0 0.5 0.233333 0
          0 0.266667 0 0.5 0.266667 0 0 0.3 0 0.5 0.3 0
          0 0.333333 0 0.5 0.333333 0 0 0.366667 0 0.5 0.366667 0
          0 0.4 0 0.5 0.4 0 0 0.433333 0 0.5 0.433333 0
          0 0.466667 0 0.5 0.466667 0 0 0.5 0 0.5 0.5 0
          0 0.533333 0 0.5 0.533333 0 0 0.566667 0 0.5 0.566667 0
          0 0.6 0 0.5 0.6 0 0 0.633333 0 0.5 0.633333 0
          0 0.666667 0 0.5 0.666667 0 0 0.7 0 0.5 0.7 0
          0 0.733333 0 0.5 0.733333 0 0 0.766667 0 0.5 0.766667 0
          0 0.8 0 0.5 0.8 0 0 0.833333 0 0.5 0.833333 0
          0 0.866667 0 0.5 0.866667 0 0 0.9 0 0.5 0.9 0
          0 0.933333 0 0.5 0.933333 0 0 0.966667 0 0.5 0.966667 0
          0 1 0 0.5 1 0
        </DataArray>
      </Points>
      <Cells>
        <DataArray type="Int32" Name="connectivity" NumberOfComponents="1" format="ascii">
          0 1 3 2 2 3 5 4 4 5 7 6
          6 7 9 8 8 9 11 10 10 11 13 12
          12 13 15 14 14 15 17 16 16 17 19 18
          18 19 21 20 20 21 23 22 22 23 25 24
          24 25 27 26 26 27 29 28 28 29 31 30
          30 31 33 32 32 33 35 34 34 35 37 36
          36 37 39 38 38 39 41 40 40 41 43 42
          42 43 45 44 44 45 47 46 46 47 49 48
          48 49 51 50 50 51 53 52 52 53 55 54
          54 55 57 56 56 57 59 58 58 59 61 60
        </DataArray>
        <DataArray type="Int32" Name="offsets" NumberOfComponents="1" format="ascii">
          4 8 12 16 20 24 28 32 36 40 44 48
          52 56 60 64 68 72 76 80 84 88 92 96
          100 104 108 112 116 120
        </DataArray>
        <DataArray type="UInt8" Name="types" NumberOfComponents="1" format="ascii">
          9 9 9 9 9 9 9 9 9 9 9 9
          9 9 9 9 9 9 9 9 9 9 9 9
          9 9 9 9 9 9
        </DataArray>
      </Cells>
    </Piece>
  </UnstructuredGrid>
</VTKFile>
