<?xml version="1.0"?>
<VTKFile type="UnstructuredGrid" version="0.1" byte_order="LittleEndian">
  <UnstructuredGrid>
    <Piece NumberOfCells="30" NumberOfPoints="62">
      <CellData Scalars="Sg">
        <DataArray type="Float32" Name="Sg" NumberOfComponents="1" format="ascii">
          0 0 0 0 0 0 0 0 0 0 0 0
          0 0 0 0 0 0 0 0 0 0 0 0
          0 0 0 0 0 0
        </DataArray>
        <DataArray type="Float32" Name="Sl" NumberOfComponents="1" format="ascii">
          1 1 1 1 1 1 1 1 1 1 1 1
          1 1 1 1 1 1 1 1 1 1 1 1
          1 1 1 1 1 1
        </DataArray>
        <DataArray type="Float32" Name="pg" NumberOfComponents="1" format="ascii">
          24687.8 24360.9 24034 23707 23380.1 23053.1 22726.2 22399.3 22072.3 21745.4 21418.4 21091.5
          20764.6 20437.6 20110.7 19783.7 19456.8 19129.8 18802.9 18476 18149 17822.1 17495.1 17168.2
          16841.3 16514.3 16187.4 15860.4 15533.5 15208
        </DataArray>
        <DataArray type="Float32" Name="pl" NumberOfComponents="1" format="ascii">
          110628 110301 109974 109647 109320 108993 108666 108339 108012 107685 107358 107031
          106704 106377 106050 105723 105396 105070 104743 104416 104089 103762 103435 103108
          102781 102454 102127 101800 101473 101148
        </DataArray>
        <DataArray type="Float32" Name="pc" NumberOfComponents="1" format="ascii">
          -85939.7 -85939.7 -85939.7 -85939.7 -85939.7 -85939.7 -85939.7 -85939.7 -85939.7 -85939.7 -85939.7 -85939.7
          -85939.7 -85939.7 -85939.7 -85939.7 -85939.7 -85939.7 -85939.7 -85939.7 -85939.7 -85939.7 -85939.7 -85939.7
          -85939.7 -85939.7 -85939.7 -85939.7 -85939.7 -85939.7
        </DataArray>
        <DataArray type="Float32" Name="rhoL" NumberOfComponents="1" format="ascii">
          999.855 999.855 999.855 999.855 999.855 999.854 999.854 999.854 999.854 999.854 999.854 999.854
          999.853 999.853 999.853 999.853 999.853 999.853 999.852 999.852 999.852 999.852 999.852 999.852
          999.852 999.851 999.851 999.851 999.851 999.851
        </DataArray>
        <DataArray type="Float32" Name="rhoG" NumberOfComponents="1" format="ascii">
          0.30585 0.3018 0.29775 0.293699 0.289649 0.285598 0.281548 0.277498 0.273447 0.269397 0.265347 0.261296
          0.257246 0.253195 0.249145 0.245095 0.241044 0.236994 0.232944 0.228893 0.224843 0.220793 0.216742 0.212692
          0.208641 0.204591 0.200541 0.19649 0.19244 0.188407
        </DataArray>
        <DataArray type="Float32" Name="mobL" NumberOfComponents="1" format="ascii">
          722.171 722.17 722.17 722.17 722.17 722.17 722.169 722.169 722.169 722.169 722.169 722.169
          722.168 722.168 722.168 722.168 722.168 722.167 722.167 722.167 722.167 722.167 722.166 722.166
          722.166 722.166 722.166 722.166 722.165 722.165
        </DataArray>
        <DataArray type="Float32" Name="mobG" NumberOfComponents="1" format="ascii">
          0 0 0 0 0 0 0 0 0 0 0 0
          0 0 0 0 0 0 0 0 0 0 0 0
          0 0 0 0 0 0
        </DataArray>
        <DataArray type="Float32" Name="porosity" NumberOfComponents="1" format="ascii">
          0.298673 0.298673 0.298673 0.298672 0.298672 0.298672 0.298671 0.29867 0.298668 0.298667 0.298664 0.29866
          0.298655 0.298649 0.298639 0.298627 0.29861 0.298588 0.298557 0.298515 0.298458 0.298377 0.298263 0.298093
          0.297558 0.297107 0.296229 0.294029 0.284498 0.0575298
        </DataArray>
        <DataArray type="Float32" Name="temperature" NumberOfComponents="1" format="ascii">
          281.15 281.15 281.15 281.15 281.15 281.15 281.15 281.15 281.15 281.15 281.15 281.15
          281.15 281.15 281.15 281.15 281.15 281.15 281.15 281.15 281.15 281.15 281.15 281.15
          281.15 281.15 281.15 281.15 281.15 281.15
        </DataArray>
        <DataArray type="Float32" Name="phase presence" NumberOfComponents="1" format="ascii">
          1 1 1 1 1 1 1 1 1 1 1 1
          1 1 1 1 1 1 1 1 1 1 1 1
          1 1 1 1 1 1
        </DataArray>
        <DataArray type="Float32" Name="precipitateVolumeFraction_au" NumberOfComponents="1" format="ascii">
          5.52637e-10 5.52783e-10 5.5272e-10 5.52769e-10 5.52739e-10 5.52765e-10 5.52761e-10 5.52768e-10 5.52733e-10 5.52764e-10 5.52729e-10 5.52799e-10
          5.52724e-10 5.52771e-10 5.52723e-10 5.52725e-10 5.52736e-10 5.5274e-10 5.52791e-10 5.52742e-10 5.52709e-10 5.52768e-10 5.52915e-10 9.09175e-10
          0.00026994 0.000269924 0.000269899 0.000269853 5.52311e-10 5.51231e-10
        </DataArray>
        <DataArray type="Float32" Name="precipitateVolumeFraction_nanoAu" NumberOfComponents="1" format="ascii">
          1.23952e-13 1.24011e-13 1.23988e-13 1.24004e-13 1.23993e-13 1.24001e-13 1.23998e-13 1.23999e-13 1.23989e-13 1.23996e-13 1.23987e-13 1.24003e-13
          1.23983e-13 1.23993e-13 1.23981e-13 1.2398e-13 1.2398e-13 1.23978e-13 1.23987e-13 1.23971e-13 1.23957e-13 1.23978e-13 1.35907e-13 2.58061e-11
          6.0391e-08 7.67151e-08 1.02176e-07 1.45579e-07 4.74345e-13 4.66999e-13
        </DataArray>
        <DataArray type="Float32" Name="precipitateVolumeFraction_d" NumberOfComponents="1" format="ascii">
          0.000663525 0.00066359 0.000663681 0.00066381 0.000663991 0.000664244 0.0006646 0.000665095 0.000665785 0.000666739 0.000668057 0.000669866
          0.000672342 0.000675716 0.000680297 0.0006865 0.000694885 0.000706219 0.00072157 0.00074247 0.000771198 0.000811296 0.0008686 0.000953465
          0.00108609 0.00131158 0.0017507 0.00285071 0.00775111 0.121235
        </DataArray>
        <DataArray type="Float32" Name="precipitateVolumeFraction_p" NumberOfComponents="1" format="ascii">
          0.000663525 0.00066359 0.000663681 0.00066381 0.000663991 0.000664244 0.0006646 0.000665095 0.000665785 0.000666739 0.000668057 0.000669866
          0.000672342 0.000675716 0.000680297 0.0006865 0.000694885 0.000706219 0.00072157 0.00074247 0.000771198 0.000811296 0.0008686 0.000953465
          0.00108609 0.00131158 0.0017507 0.00285071 0.00775111 0.121235
        </DataArray>
        <DataArray type="Float32" Name="K" NumberOfComponents="1" format="ascii">
          9.83057e-11 9.83056e-11 9.83053e-11 9.8305e-11 9.83045e-11 9.83039e-11 9.8303e-11 9.83017e-11 9.83e-11 9.82976e-11 9.82942e-11 9.82896e-11
          9.82834e-11 9.82748e-11 9.82632e-11 9.82475e-11 9.82262e-11 9.81975e-11 9.81586e-11 9.81057e-11 9.8033e-11 9.79316e-11 9.77869e-11 9.75728e-11
          9.69003e-11 9.63367e-11 9.52467e-11 9.25607e-11 8.16295e-11 3.89024e-13
        </DataArray>
        <DataArray type="Float32" Name="X^w_H2O" NumberOfComponents="1" format="ascii">
          0.999853 0.999853 0.999853 0.999853 0.999853 0.999853 0.999853 0.999853 0.999853 0.999853 0.999853 0.999853
          0.999853 0.999853 0.999853 0.999853 0.999853 0.999853 0.999853 0.999853 0.999853 0.999853 0.999853 0.999853
          0.999853 0.999852 0.99985 0.999846 0.999839 0.99984
        </DataArray>
        <DataArray type="Float32" Name="X^w_Air" NumberOfComponents="1" format="ascii">
          0 0 0 0 0 0 0 0 0 0 0 0
          0 0 0 0 0 0 0 0 0 0 0 0
          0 0 0 0 0 0
        </DataArray>
        <DataArray type="Float32" Name="X^w_AuComplex" NumberOfComponents="1" format="ascii">
          1.41499e-16 1.41562e-16 1.41536e-16 1.41553e-16 1.41541e-16 1.41548e-16 1.41545e-16 1.41546e-16 1.41534e-16 1.41541e-16 1.4153e-16 1.41547e-16
          1.41524e-16 1.41535e-16 1.41519e-16 1.41516e-16 1.41515e-16 1.41511e-16 1.41517e-16 1.41495e-16 1.41473e-16 1.41487e-16 1.54899e-16 2.94369e-14
          6.89192e-11 1.07492e-10 1.84578e-10 3.64225e-10 1.83656e-15 1.78691e-15
        </DataArray>
        <DataArray type="Float32" Name="X^w_nanoAu" NumberOfComponents="1" format="ascii">
          5.39857e-19 5.40112e-19 5.4001e-19 5.40079e-19 5.40034e-19 5.40066e-19 5.40056e-19 5.4006e-19 5.40015e-19 5.40046e-19 5.40005e-19 5.40075e-19
          5.3999e-19 5.40032e-19 5.39977e-19 5.3997e-19 5.3997e-19 5.39961e-19 5.39994e-19 5.3996e-19 5.43588e-19 8.85611e-19 3.25481e-17 2.95961e-15
          2.63753e-13 3.35237e-13 4.4674e-13 6.26547e-13 2.05946e-18 1.98244e-18
        </DataArray>
        <DataArray type="Float32" Name="X^w_cyanide" NumberOfComponents="1" format="ascii">
          5.07284e-06 5.07282e-06 5.07279e-06 5.07277e-06 5.07275e-06 5.07272e-06 5.0727e-06 5.07267e-06 5.07265e-06 5.07262e-06 5.07259e-06 5.07256e-06
          5.07252e-06 5.07248e-06 5.07243e-06 5.07237e-06 5.0723e-06 5.0722e-06 5.07206e-06 5.07188e-06 5.07163e-06 5.07127e-06 5.07073e-06 5.06991e-06
          5.06907e-06 6.43891e-06 8.57451e-06 1.22389e-05 1.94578e-05 1.92245e-05
        </DataArray>
        <DataArray type="Float32" Name="X^w_citrate" NumberOfComponents="1" format="ascii">
          0.000141796 0.000141796 0.000141796 0.000141796 0.000141796 0.000141796 0.000141796 0.000141796 0.000141796 0.000141796 0.000141796 0.000141796
          0.000141796 0.000141795 0.000141795 0.000141795 0.000141795 0.000141794 0.000141793 0.000141792 0.00014179 0.000141788 0.000141784 0.000141778
          0.000141769 0.000141753 0.000141722 0.000141648 0.000141409 0.000139714
        </DataArray>
        <DataArray type="Float32" Name="X^w_substrate" NumberOfComponents="1" format="ascii">
          6.41696e-12 8.81557e-12 1.21101e-11 1.6635e-11 2.28501e-11 3.13868e-11 4.31138e-11 5.92259e-11 8.13691e-11 1.11813e-10 1.53695e-10 2.11359e-10
          2.90849e-10 4.00604e-10 5.52487e-10 7.63306e-10 1.05713e-09 1.4689e-09 2.0502e-09 2.87892e-09 4.07593e-09 5.83569e-09 8.48541e-09 1.26092e-08
          1.93343e-08 3.10778e-08 5.38694e-08 1.06593e-07 2.76418e-07 1.47224e-06
        </DataArray>
        <DataArray type="Float32" Name="m^w_H2O" NumberOfComponents="1" format="ascii">
          55492.6 55492.6 55492.5 55492.5 55492.5 55492.5 55492.5 55492.5 55492.5 55492.5 55492.5 55492.5
          55492.5 55492.4 55492.4 55492.4 55492.4 55492.4 55492.4 55492.4 55492.4 55492.4 55492.4 55492.4
          55492.3 55492.3 55492.1 55491.9 55491.5 55491.6
        </DataArray>
        <DataArray type="Float32" Name="m^w_Air" NumberOfComponents="1" format="ascii">
          0 0 0 0 0 0 0 0 0 0 0 0
          0 0 0 0 0 0 0 0 0 0 0 0
          0 0 0 0 0 0
        </DataArray>
        <DataArray type="Float32" Name="m^w_AuComplex" NumberOfComponents="1" format="ascii">
          7.18277e-13 7.18593e-13 7.18461e-13 7.18546e-13 7.18485e-13 7.18523e-13 7.18508e-13 7.1851e-13 7.18449e-13 7.18487e-13 7.18428e-13 7.18518e-13
          7.18402e-13 7.18455e-13 7.18376e-13 7.18362e-13 7.18355e-13 7.18333e-13 7.18366e-13 7.18252e-13 7.18142e-13 7.1821e-13 7.86293e-13 1.49426e-10
          3.49845e-07 5.45647e-07 9.36949e-07 1.84887e-06 9.32265e-12 9.07062e-12
        </DataArray>
        <DataArray type="Float32" Name="m^w_nanoAu" NumberOfComponents="1" format="ascii">
          2.74041e-15 2.7417e-15 2.74119e-15 2.74154e-15 2.74131e-15 2.74147e-15 2.74142e-15 2.74144e-15 2.74121e-15 2.74137e-15 2.74116e-15 2.74151e-15
          2.74108e-15 2.7413e-15 2.74101e-15 2.74098e-15 2.74098e-15 2.74093e-15 2.7411e-15 2.74093e-15 2.75934e-15 4.49551e-15 1.6522e-13 1.50234e-11
          1.33885e-09 1.70172e-09 2.26772e-09 3.18045e-09 1.04541e-14 1.00632e-14
        </DataArray>
        <DataArray type="Float32" Name="m^w_cyanide" NumberOfComponents="1" format="ascii">
          0.194931 0.19493 0.194929 0.194928 0.194927 0.194926 0.194925 0.194924 0.194923 0.194922 0.194921 0.19492
          0.194919 0.194917 0.194915 0.194913 0.19491 0.194906 0.194901 0.194894 0.194884 0.19487 0.194849 0.194818
          0.194786 0.247423 0.329486 0.470295 0.747692 0.738726
        </DataArray>
        <DataArray type="Float32" Name="m^w_citrate" NumberOfComponents="1" format="ascii">
          0.749742 0.749742 0.749742 0.749742 0.749742 0.749742 0.749741 0.749741 0.749741 0.74974 0.74974 0.749739
          0.749739 0.749738 0.749737 0.749735 0.749733 0.749729 0.749725 0.749719 0.749709 0.749696 0.749676 0.749645
          0.749595 0.749511 0.749347 0.748959 0.747694 0.738728
        </DataArray>
        <DataArray type="Float32" Name="m^w_substrate" NumberOfComponents="1" format="ascii">
          3.5613e-08 4.89248e-08 6.72087e-08 9.23214e-08 1.26814e-07 1.74191e-07 2.39273e-07 3.28693e-07 4.51583e-07 6.20541e-07 8.52976e-07 1.173e-06
          1.61416e-06 2.22328e-06 3.0662e-06 4.2362e-06 5.86687e-06 8.1521e-06 1.13782e-05 1.59774e-05 2.26206e-05 3.23869e-05 4.70923e-05 6.99787e-05
          0.000107301 0.000172476 0.000298964 0.000591572 0.00153406 0.00817064
        </DataArray>
        <DataArray type="Float32" Name="process rank" NumberOfComponents="1" format="ascii">
          0 0 0 0 0 0 0 0 0 0 0 0
          0 0 0 0 0 0 0 0 0 0 0 0
          0 0 0 0 0 0
        </DataArray>
      </CellData>
      <Points>
        <DataArray type="Float32" Name="Coordinates" NumberOfComponents="3" format="ascii">
          0 0 0 0.5 0 0 0 0.0333333 0 0.5 0.0333333 0
          0 0.0666667 0 0.5 0.0666667 0 0 0.1 0 0.5 0.1 0
          0 0.133333 0 0.5 0.133333 0 0 0.166667 0 0.5 0.166667 0
          0 0.2 0 0.5 0.2 0 0 0.233333 0 0.5 0.233333 0
          0 0.266667 0 0.5 0.266667 0 0 0.3 0 0.5 0.3 0
          0 0.333333 0 0.5 0.333333 0 0 0.366667 0 0.5 0.366667 0
          0 0.4 0 0.5 0.4 0 0 0.433333 0 0.5 0.433333 0
          0 0.466667 0 0.5 0.466667 0 0 0.5 0 0.5 0.5 0
          0 0.533333 0 0.5 0.533333 0 0 0.566667 0 0.5 0.566667 0
          0 0.6 0 0.5 0.6 0 0 0.633333 0 0.5 0.633333 0
          0 0.666667 0 0.5 0.666667 0 0 0.7 0 0.5 0.7 0
          0 0.733333 0 0.5 0.733333 0 0 0.766667 0 0.5 0.766667 0
          0 0.8 0 0.5 0.8 0 0 0.833333 0 0.5 0.833333 0
          0 0.866667 0 0.5 0.866667 0 0 0.9 0 0.5 0.9 0
          0 0.933333 0 0.5 0.933333 0 0 0.966667 0 0.5 0.966667 0
          0 1 0 0.5 1 0
        </DataArray>
      </Points>
      <Cells>
        <DataArray type="Int32" Name="connectivity" NumberOfComponents="1" format="ascii">
          0 1 3 2 2 3 5 4 4 5 7 6
          6 7 9 8 8 9 11 10 10 11 13 12
          12 13 15 14 14 15 17 16 16 17 19 18
          18 19 21 20 20 21 23 22 22 23 25 24
          24 25 27 26 26 27 29 28 28 29 31 30
          30 31 33 32 32 33 35 34 34 35 37 36
          36 37 39 38 38 39 41 40 40 41 43 42
          42 43 45 44 44 45 47 46 46 47 49 48
          48 49 51 50 50 51 53 52 52 53 55 54
          54 55 57 56 56 57 59 58 58 59 61 60
        </DataArray>
        <DataArray type="Int32" Name="offsets" NumberOfComponents="1" format="ascii">
          4 8 12 16 20 24 28 32 36 40 44 48
          52 56 60 64 68 72 76 80 84 88 92 96
          100 104 108 112 116 120
        </DataArray>
        <DataArray type="UInt8" Name="types" NumberOfComponents="1" format="ascii">
          9 9 9 9 9 9 9 9 9 9 9 9
          9 9 9 9 9 9 9 9 9 9 9 9
          9 9 9 9 9 9
        </DataArray>
      </Cells>
    </Piece>
  </UnstructuredGrid>
</VTKFile>
