<?xml version="1.0"?>
<VTKFile type="UnstructuredGrid" version="0.1" byte_order="LittleEndian">
  <UnstructuredGrid>
    <Piece NumberOfCells="30" NumberOfPoints="62">
      <CellData Scalars="Sg">
        <DataArray type="Float32" Name="Sg" NumberOfComponents="1" format="ascii">
          0 0 0 0 0 0 0 0 0 0 0 0
          0 0 0 0 0 0 0 0 0 0 0 0
          0 0 0 0 0 0
        </DataArray>
        <DataArray type="Float32" Name="Sl" NumberOfComponents="1" format="ascii">
          1 1 1 1 1 1 1 1 1 1 1 1
          1 1 1 1 1 1 1 1 1 1 1 1
          1 1 1 1 1 1
        </DataArray>
        <DataArray type="Float32" Name="pg" NumberOfComponents="1" format="ascii">
          24687.8 24360.9 24034 23707 23380.1 23053.1 22726.2 22399.3 22072.3 21745.4 21418.4 21091.5
          20764.6 20437.6 20110.7 19783.7 19456.8 19129.8 18802.9 18476 18149 17822.1 17495.1 17168.2
          16841.3 16514.3 16187.4 15860.4 15533.5 15208.8
        </DataArray>
        <DataArray type="Float32" Name="pl" NumberOfComponents="1" format="ascii">
          110628 110301 109974 109647 109320 108993 108666 108339 108012 107685 107358 107031
          106704 106377 106050 105723 105396 105070 104743 104416 104089 103762 103435 103108
          102781 102454 102127 101800 101473 101148
        </DataArray>
        <DataArray type="Float32" Name="pc" NumberOfComponents="1" format="ascii">
          -85939.7 -85939.7 -85939.7 -85939.7 -85939.7 -85939.7 -85939.7 -85939.7 -85939.7 -85939.7 -85939.7 -85939.7
          -85939.7 -85939.7 -85939.7 -85939.7 -85939.7 -85939.7 -85939.7 -85939.7 -85939.7 -85939.7 -85939.7 -85939.7
          -85939.7 -85939.7 -85939.7 -85939.7 -85939.7 -85939.7
        </DataArray>
        <DataArray type="Float32" Name="rhoL" NumberOfComponents="1" format="ascii">
          999.855 999.855 999.855 999.855 999.855 999.854 999.854 999.854 999.854 999.854 999.854 999.854
          999.853 999.853 999.853 999.853 999.853 999.853 999.852 999.852 999.852 999.852 999.852 999.852
          999.852 999.851 999.851 999.851 999.851 999.851
        </DataArray>
        <DataArray type="Float32" Name="rhoG" NumberOfComponents="1" format="ascii">
          0.30585 0.3018 0.29775 0.293699 0.289649 0.285598 0.281548 0.277498 0.273447 0.269397 0.265347 0.261296
          0.257246 0.253195 0.249145 0.245095 0.241044 0.236994 0.232944 0.228893 0.224843 0.220793 0.216742 0.212692
          0.208641 0.204591 0.200541 0.19649 0.19244 0.188417
        </DataArray>
        <DataArray type="Float32" Name="mobL" NumberOfComponents="1" format="ascii">
          722.171 722.17 722.17 722.17 722.17 722.17 722.169 722.169 722.169 722.169 722.169 722.169
          722.168 722.168 722.168 722.168 722.168 722.167 722.167 722.167 722.167 722.167 722.166 722.166
          722.166 722.166 722.166 722.166 722.165 722.165
        </DataArray>
        <DataArray type="Float32" Name="mobG" NumberOfComponents="1" format="ascii">
          0 0 0 0 0 0 0 0 0 0 0 0
          0 0 0 0 0 0 0 0 0 0 0 0
          0 0 0 0 0 0
        </DataArray>
        <DataArray type="Float32" Name="porosity" NumberOfComponents="1" format="ascii">
          0.298721 0.298721 0.298721 0.29872 0.29872 0.29872 0.298719 0.298718 0.298717 0.298715 0.298712 0.298709
          0.298704 0.298697 0.298688 0.298676 0.29866 0.298638 0.298608 0.298568 0.298512 0.298434 0.298322 0.298156
          0.297625 0.297181 0.296306 0.294077 0.284016 0.0498118
        </DataArray>
        <DataArray type="Float32" Name="temperature" NumberOfComponents="1" format="ascii">
          281.15 281.15 281.15 281.15 281.15 281.15 281.15 281.15 281.15 281.15 281.15 281.15
          281.15 281.15 281.15 281.15 281.15 281.15 281.15 281.15 281.15 281.15 281.15 281.15
          281.15 281.15 281.15 281.15 281.15 281.15
        </DataArray>
        <DataArray type="Float32" Name="phase presence" NumberOfComponents="1" format="ascii">
          1 1 1 1 1 1 1 1 1 1 1 1
          1 1 1 1 1 1 1 1 1 1 1 1
          1 1 1 1 1 1
        </DataArray>
        <DataArray type="Float32" Name="precipitateVolumeFraction_au" NumberOfComponents="1" format="ascii">
          5.52614e-10 5.52766e-10 5.52715e-10 5.52751e-10 5.52773e-10 5.52746e-10 5.52722e-10 5.52701e-10 5.52782e-10 5.52795e-10 5.52801e-10 5.52755e-10
          5.52783e-10 5.52757e-10 5.5271e-10 5.52755e-10 5.5273e-10 5.52766e-10 5.52784e-10 5.52753e-10 5.52777e-10 5.52781e-10 5.52869e-10 9.57786e-10
          0.00026994 0.000269924 0.000269899 0.000269853 5.52263e-10 5.51117e-10
        </DataArray>
        <DataArray type="Float32" Name="precipitateVolumeFraction_nanoAu" NumberOfComponents="1" format="ascii">
          1.23663e-13 1.23697e-13 1.23685e-13 1.23693e-13 1.23698e-13 1.23691e-13 1.23686e-13 1.23681e-13 1.23698e-13 1.23701e-13 1.23702e-13 1.23691e-13
          1.23696e-13 1.2369e-13 1.23678e-13 1.23687e-13 1.2368e-13 1.23686e-13 1.23687e-13 1.23675e-13 1.23675e-13 1.23683e-13 1.33742e-13 2.35201e-11
          6.03738e-08 7.66952e-08 1.02153e-07 1.45581e-07 4.74139e-13 4.67006e-13
        </DataArray>
        <DataArray type="Float32" Name="precipitateVolumeFraction_d" NumberOfComponents="1" format="ascii">
          0.000639546 0.000639609 0.000639698 0.000639823 0.000639998 0.000640244 0.000640589 0.000641069 0.000641737 0.000642663 0.000643939 0.000645693
          0.000648092 0.000651362 0.000655803 0.000661819 0.000669952 0.000680951 0.000695857 0.000716167 0.000744112 0.000783166 0.000839077 0.00092208
          0.00105225 0.00127475 0.00171197 0.00282625 0.00799176 0.125094
        </DataArray>
        <DataArray type="Float32" Name="precipitateVolumeFraction_p" NumberOfComponents="1" format="ascii">
          0.000639546 0.000639609 0.000639698 0.000639823 0.000639998 0.000640244 0.000640589 0.000641069 0.000641737 0.000642663 0.000643939 0.000645693
          0.000648092 0.000651362 0.000655803 0.000661819 0.000669952 0.000680951 0.000695857 0.000716167 0.000744112 0.000783166 0.000839077 0.00092208
          0.00105225 0.00127475 0.00171197 0.00282625 0.00799176 0.125094
        </DataArray>
        <DataArray type="Float32" Name="K" NumberOfComponents="1" format="ascii">
          9.83665e-11 9.83664e-11 9.83662e-11 9.83658e-11 9.83654e-11 9.83648e-11 9.83639e-11 9.83627e-11 9.8361e-11 9.83586e-11 9.83554e-11 9.83509e-11
          9.83449e-11 9.83366e-11 9.83253e-11 9.831e-11 9.82894e-11 9.82615e-11 9.82238e-11 9.81723e-11 9.81016e-11 9.80028e-11 9.78614e-11 9.76519e-11
          9.69851e-11 9.64285e-11 9.53424e-11 9.26198e-11 8.11067e-11 2.48434e-13
        </DataArray>
        <DataArray type="Float32" Name="X^w_H2O" NumberOfComponents="1" format="ascii">
          0.999853 0.999853 0.999853 0.999853 0.999853 0.999853 0.999853 0.999853 0.999853 0.999853 0.999853 0.999853
          0.999853 0.999853 0.999853 0.999853 0.999853 0.999853 0.999853 0.999853 0.999853 0.999853 0.999853 0.999853
          0.999853 0.999852 0.99985 0.999846 0.999839 0.99984
        </DataArray>
        <DataArray type="Float32" Name="X^w_Air" NumberOfComponents="1" format="ascii">
          0 0 0 0 0 0 0 0 0 0 0 0
          0 0 0 0 0 0 0 0 0 0 0 0
          0 0 0 0 0 0
        </DataArray>
        <DataArray type="Float32" Name="X^w_AuComplex" NumberOfComponents="1" format="ascii">
          1.28586e-16 1.28622e-16 1.28609e-16 1.28617e-16 1.28622e-16 1.28615e-16 1.28609e-16 1.28603e-16 1.28621e-16 1.28624e-16 1.28624e-16 1.28613e-16
          1.28618e-16 1.2861e-16 1.28598e-16 1.28606e-16 1.28597e-16 1.28601e-16 1.28599e-16 1.28584e-16 1.28578e-16 1.28577e-16 1.38849e-16 2.44308e-14
          6.27425e-11 9.78623e-11 1.68054e-10 3.31718e-10 1.67226e-15 1.62828e-15
        </DataArray>
        <DataArray type="Float32" Name="X^w_nanoAu" NumberOfComponents="1" format="ascii">
          5.38595e-19 5.38743e-19 5.38692e-19 5.38727e-19 5.38746e-19 5.38719e-19 5.38693e-19 5.38672e-19 5.38749e-19 5.3876e-19 5.38762e-19 5.38716e-19
          5.38739e-19 5.38709e-19 5.38658e-19 5.38695e-19 5.38662e-19 5.38685e-19 5.38686e-19 5.38673e-19 5.4234e-19 8.82715e-19 3.24066e-17 2.94818e-15
          2.63679e-13 3.35153e-13 4.4665e-13 6.26592e-13 2.0589e-18 1.98338e-18
        </DataArray>
        <DataArray type="Float32" Name="X^w_cyanide" NumberOfComponents="1" format="ascii">
          5.07148e-06 5.07147e-06 5.07146e-06 5.07145e-06 5.07144e-06 5.07143e-06 5.07142e-06 5.07141e-06 5.0714e-06 5.07138e-06 5.07137e-06 5.07135e-06
          5.07133e-06 5.0713e-06 5.07126e-06 5.07121e-06 5.07114e-06 5.07105e-06 5.07093e-06 5.07076e-06 5.07052e-06 5.07018e-06 5.06966e-06 5.06888e-06
          5.06806e-06 6.43779e-06 8.57339e-06 1.22382e-05 1.94608e-05 1.92334e-05
        </DataArray>
        <DataArray type="Float32" Name="X^w_citrate" NumberOfComponents="1" format="ascii">
          0.000141796 0.000141796 0.000141796 0.000141796 0.000141796 0.000141796 0.000141796 0.000141796 0.000141796 0.000141796 0.000141796 0.000141796
          0.000141796 0.000141795 0.000141795 0.000141795 0.000141794 0.000141794 0.000141793 0.000141792 0.00014179 0.000141788 0.000141784 0.000141778
          0.000141769 0.000141754 0.000141725 0.000141656 0.000141431 0.000139778
        </DataArray>
        <DataArray type="Float32" Name="X^w_substrate" NumberOfComponents="1" format="ascii">
          7.961e-12 1.08343e-11 1.47439e-11 2.00632e-11 2.73007e-11 3.71486e-11 5.05496e-11 6.87889e-11 9.36199e-11 1.27438e-10 1.73525e-10 2.36381e-10
          3.22212e-10 4.39602e-10 6.00516e-10 8.21754e-10 1.12717e-09 1.5511e-09 2.14383e-09 2.9807e-09 4.17779e-09 5.92047e-09 8.51876e-09 1.25228e-08
          1.8989e-08 3.01746e-08 5.17011e-08 1.0122e-07 2.61194e-07 1.42684e-06
        </DataArray>
        <DataArray type="Float32" Name="m^w_H2O" NumberOfComponents="1" format="ascii">
          55492.6 55492.6 55492.5 55492.5 55492.5 55492.5 55492.5 55492.5 55492.5 55492.5 55492.5 55492.5
          55492.5 55492.4 55492.4 55492.4 55492.4 55492.4 55492.4 55492.4 55492.4 55492.4 55492.4 55492.4
          55492.3 55492.3 55492.1 55491.9 55491.5 55491.6
        </DataArray>
        <DataArray type="Float32" Name="m^w_Air" NumberOfComponents="1" format="ascii">
          0 0 0 0 0 0 0 0 0 0 0 0
          0 0 0 0 0 0 0 0 0 0 0 0
          0 0 0 0 0 0
        </DataArray>
        <DataArray type="Float32" Name="m^w_AuComplex" NumberOfComponents="1" format="ascii">
          6.52725e-13 6.52906e-13 6.52842e-13 6.52884e-13 6.52907e-13 6.52872e-13 6.5284e-13 6.52812e-13 6.52904e-13 6.52917e-13 6.52919e-13 6.5286e-13
          6.52887e-13 6.52849e-13 6.52783e-13 6.52824e-13 6.52778e-13 6.52799e-13 6.52791e-13 6.52714e-13 6.52685e-13 6.52679e-13 7.04822e-13 1.24015e-10
          3.18491e-07 4.96765e-07 8.53067e-07 1.68385e-06 8.48866e-12 8.26542e-12
        </DataArray>
        <DataArray type="Float32" Name="m^w_nanoAu" NumberOfComponents="1" format="ascii">
          2.734e-15 2.73476e-15 2.7345e-15 2.73468e-15 2.73477e-15 2.73463e-15 2.7345e-15 2.73439e-15 2.73478e-15 2.73484e-15 2.73485e-15 2.73461e-15
          2.73473e-15 2.73458e-15 2.73432e-15 2.73451e-15 2.73434e-15 2.73446e-15 2.73446e-15 2.73439e-15 2.753e-15 4.48081e-15 1.64501e-13 1.49654e-11
          1.33848e-09 1.70129e-09 2.26727e-09 3.18068e-09 1.04513e-14 1.0068e-14
        </DataArray>
        <DataArray type="Float32" Name="m^w_cyanide" NumberOfComponents="1" format="ascii">
          0.194879 0.194878 0.194878 0.194878 0.194877 0.194877 0.194876 0.194876 0.194875 0.194875 0.194874 0.194873
          0.194872 0.194871 0.19487 0.194868 0.194865 0.194862 0.194857 0.194851 0.194841 0.194828 0.194808 0.194778
          0.194747 0.24738 0.329443 0.470269 0.747806 0.739067
        </DataArray>
        <DataArray type="Float32" Name="m^w_citrate" NumberOfComponents="1" format="ascii">
          0.749742 0.749742 0.749742 0.749742 0.749742 0.749741 0.749741 0.749741 0.749741 0.74974 0.74974 0.749739
          0.749739 0.749738 0.749736 0.749734 0.749732 0.749729 0.749724 0.749718 0.749709 0.749695 0.749676 0.749646
          0.749597 0.749518 0.749363 0.748999 0.747809 0.739068
        </DataArray>
        <DataArray type="Float32" Name="m^w_substrate" NumberOfComponents="1" format="ascii">
          4.41821e-08 6.01286e-08 8.18258e-08 1.11347e-07 1.51514e-07 2.06168e-07 2.80541e-07 3.81766e-07 5.19573e-07 7.07259e-07 9.63029e-07 1.31187e-06
          1.78821e-06 2.43971e-06 3.33275e-06 4.56057e-06 6.25557e-06 8.60829e-06 1.18978e-05 1.65423e-05 2.31859e-05 3.28574e-05 4.72774e-05 6.94993e-05
          0.000105385 0.000167463 0.000286931 0.000561749 0.00144957 0.00791868
        </DataArray>
        <DataArray type="Float32" Name="process rank" NumberOfComponents="1" format="ascii">
          0 0 0 0 0 0 0 0 0 0 0 0
          0 0 0 0 0 0 0 0 0 0 0 0
          0 0 0 0 0 0
        </DataArray>
      </CellData>
      <Points>
        <DataArray type="Float32" Name="Coordinates" NumberOfComponents="3" format="ascii">
          0 0 0 0.5 0 0 0 0.0333333 0 0.5 0.0333333 0
          0 0.0666667 0 0.5 0.0666667 0 0 0.1 0 0.5 0.1 0
          0 0.133333 0 0.5 0.133333 0 0 0.166667 0 0.5 0.166667 0
          0 0.2 0 0.5 0.2 0 0 0.233333 0 0.5 0.233333 0
          0 0.266667 0 0.5 0.266667 0 0 0.3 0 0.5 0.3 0
          0 0.333333 0 0.5 0.333333 0 0 0.366667 0 0.5 0.366667 0
          0 0.4 0 0.5 0.4 0 0 0.433333 0 0.5 0.433333 0
          0 0.466667 0 0.5 0.466667 0 0 0.5 0 0.5 0.5 0
          0 0.533333 0 0.5 0.533333 0 0 0.566667 0 0.5 0.566667 0
          0 0.6 0 0.5 0.6 0 0 0.633333 0 0.5 0.633333 0
          0 0.666667 0 0.5 0.666667 0 0 0.7 0 0.5 0.7 0
          0 0.733333 0 0.5 0.733333 0 0 0.766667 0 0.5 0.766667 0
          0 0.8 0 0.5 0.8 0 0 0.833333 0 0.5 0.833333 0
          0 0.866667 0 0.5 0.866667 0 0 0.9 0 0.5 0.9 0
          0 0.933333 0 0.5 0.933333 0 0 0.966667 0 0.5 0.966667 0
          0 1 0 0.5 1 0
        </DataArray>
      </Points>
      <Cells>
        <DataArray type="Int32" Name="connectivity" NumberOfComponents="1" format="ascii">
          0 1 3 2 2 3 5 4 4 5 7 6
          6 7 9 8 8 9 11 10 10 11 13 12
          12 13 15 14 14 15 17 16 16 17 19 18
          18 19 21 20 20 21 23 22 22 23 25 24
          24 25 27 26 26 27 29 28 28 29 31 30
          30 31 33 32 32 33 35 34 34 35 37 36
          36 37 39 38 38 39 41 40 40 41 43 42
          42 43 45 44 44 45 47 46 46 47 49 48
          48 49 51 50 50 51 53 52 52 53 55 54
          54 55 57 56 56 57 59 58 58 59 61 60
        </DataArray>
        <DataArray type="Int32" Name="offsets" NumberOfComponents="1" format="ascii">
          4 8 12 16 20 24 28 32 36 40 44 48
          52 56 60 64 68 72 76 80 84 88 92 96
          100 104 108 112 116 120
        </DataArray>
        <DataArray type="UInt8" Name="types" NumberOfComponents="1" format="ascii">
          9 9 9 9 9 9 9 9 9 9 9 9
          9 9 9 9 9 9 9 9 9 9 9 9
          9 9 9 9 9 9
        </DataArray>
      </Cells>
    </Piece>
  </UnstructuredGrid>
</VTKFile>
