<?xml version="1.0"?>
<VTKFile type="UnstructuredGrid" version="0.1" byte_order="LittleEndian">
  <UnstructuredGrid>
    <Piece NumberOfCells="30" NumberOfPoints="62">
      <CellData Scalars="Sg">
        <DataArray type="Float32" Name="Sg" NumberOfComponents="1" format="ascii">
          0 0 0 0 0 0 0 0 0 0 0 0
          0 0 0 0 0 0 0 0 0 0 0 0
          0 0 0 0 0 0
        </DataArray>
        <DataArray type="Float32" Name="Sl" NumberOfComponents="1" format="ascii">
          1 1 1 1 1 1 1 1 1 1 1 1
          1 1 1 1 1 1 1 1 1 1 1 1
          1 1 1 1 1 1
        </DataArray>
        <DataArray type="Float32" Name="pg" NumberOfComponents="1" format="ascii">
          24687.8 24360.9 24034 23707 23380.1 23053.1 22726.2 22399.3 22072.3 21745.4 21418.4 21091.5
          20764.6 20437.6 20110.7 19783.7 19456.8 19129.9 18802.9 18476 18149 17822.1 17495.1 17168.2
          16841.3 16514.3 16187.4 15860.4 15533.5 15207
        </DataArray>
        <DataArray type="Float32" Name="pl" NumberOfComponents="1" format="ascii">
          110628 110301 109974 109647 109320 108993 108666 108339 108012 107685 107358 107031
          106704 106377 106050 105723 105396 105070 104743 104416 104089 103762 103435 103108
          102781 102454 102127 101800 101473 101147
        </DataArray>
        <DataArray type="Float32" Name="pc" NumberOfComponents="1" format="ascii">
          -85939.7 -85939.7 -85939.7 -85939.7 -85939.7 -85939.7 -85939.7 -85939.7 -85939.7 -85939.7 -85939.7 -85939.7
          -85939.7 -85939.7 -85939.7 -85939.7 -85939.7 -85939.7 -85939.7 -85939.7 -85939.7 -85939.7 -85939.7 -85939.7
          -85939.7 -85939.7 -85939.7 -85939.7 -85939.7 -85939.7
        </DataArray>
        <DataArray type="Float32" Name="rhoL" NumberOfComponents="1" format="ascii">
          999.855 999.855 999.855 999.855 999.855 999.854 999.854 999.854 999.854 999.854 999.854 999.854
          999.853 999.853 999.853 999.853 999.853 999.853 999.852 999.852 999.852 999.852 999.852 999.852
          999.852 999.851 999.851 999.851 999.851 999.851
        </DataArray>
        <DataArray type="Float32" Name="rhoG" NumberOfComponents="1" format="ascii">
          0.30585 0.3018 0.29775 0.293699 0.289649 0.285598 0.281548 0.277498 0.273447 0.269397 0.265347 0.261296
          0.257246 0.253195 0.249145 0.245095 0.241044 0.236994 0.232944 0.228893 0.224843 0.220793 0.216742 0.212692
          0.208641 0.204591 0.200541 0.19649 0.19244 0.188395
        </DataArray>
        <DataArray type="Float32" Name="mobL" NumberOfComponents="1" format="ascii">
          722.171 722.17 722.17 722.17 722.17 722.17 722.169 722.169 722.169 722.169 722.169 722.169
          722.168 722.168 722.168 722.168 722.168 722.167 722.167 722.167 722.167 722.167 722.166 722.166
          722.166 722.166 722.166 722.166 722.165 722.165
        </DataArray>
        <DataArray type="Float32" Name="mobG" NumberOfComponents="1" format="ascii">
          0 0 0 0 0 0 0 0 0 0 0 0
          0 0 0 0 0 0 0 0 0 0 0 0
          0 0 0 0 0 0
        </DataArray>
        <DataArray type="Float32" Name="porosity" NumberOfComponents="1" format="ascii">
          0.29861 0.29861 0.29861 0.29861 0.298609 0.298609 0.298608 0.298607 0.298606 0.298604 0.298601 0.298597
          0.298592 0.298585 0.298575 0.298562 0.298545 0.298522 0.29849 0.298446 0.298387 0.298304 0.298186 0.298012
          0.297471 0.297014 0.296136 0.293991 0.285273 0.0831247
        </DataArray>
        <DataArray type="Float32" Name="temperature" NumberOfComponents="1" format="ascii">
          281.15 281.15 281.15 281.15 281.15 281.15 281.15 281.15 281.15 281.15 281.15 281.15
          281.15 281.15 281.15 281.15 281.15 281.15 281.15 281.15 281.15 281.15 281.15 281.15
          281.15 281.15 281.15 281.15 281.15 281.15
        </DataArray>
        <DataArray type="Float32" Name="phase presence" NumberOfComponents="1" format="ascii">
          1 1 1 1 1 1 1 1 1 1 1 1
          1 1 1 1 1 1 1 1 1 1 1 1
          1 1 1 1 1 1
        </DataArray>
        <DataArray type="Float32" Name="precipitateVolumeFraction_au" NumberOfComponents="1" format="ascii">
          5.52617e-10 5.52782e-10 5.5272e-10 5.52764e-10 5.52728e-10 5.52736e-10 5.52727e-10 5.52718e-10 5.52746e-10 5.52772e-10 5.5275e-10 5.52759e-10
          5.52704e-10 5.52683e-10 5.52672e-10 5.52745e-10 5.52718e-10 5.52666e-10 5.52721e-10 5.52744e-10 5.52697e-10 5.52707e-10 5.52838e-10 8.15264e-10
          0.00026994 0.000269924 0.000269899 0.000269854 5.5217e-10 5.51261e-10
        </DataArray>
        <DataArray type="Float32" Name="precipitateVolumeFraction_nanoAu" NumberOfComponents="1" format="ascii">
          1.42096e-13 1.44402e-13 1.43711e-13 1.44099e-13 1.43798e-13 1.43849e-13 1.43796e-13 1.43757e-13 1.43855e-13 1.43907e-13 1.43842e-13 1.43847e-13
          1.43745e-13 1.43713e-13 1.43709e-13 1.43791e-13 1.43761e-13 1.43716e-13 1.43754e-13 1.43761e-13 1.43726e-13 1.43736e-13 1.57267e-13 2.76413e-11
          6.04412e-08 7.67704e-08 1.02231e-07 1.45589e-07 4.93419e-13 4.85023e-13
        </DataArray>
        <DataArray type="Float32" Name="precipitateVolumeFraction_d" NumberOfComponents="1" format="ascii">
          0.000694849 0.000694917 0.000695012 0.000695146 0.000695334 0.000695598 0.000695968 0.000696484 0.000697201 0.000698195 0.000699566 0.00070145
          0.000704026 0.000707536 0.000712301 0.00071875 0.000727463 0.000739231 0.000755157 0.000776817 0.000806545 0.00084796 0.000906997 0.00099412
          0.00112958 0.00135809 0.00179722 0.00286938 0.00736369 0.108438
        </DataArray>
        <DataArray type="Float32" Name="precipitateVolumeFraction_p" NumberOfComponents="1" format="ascii">
          0.000694849 0.000694917 0.000695012 0.000695146 0.000695334 0.000695598 0.000695968 0.000696484 0.000697201 0.000698195 0.000699566 0.00070145
          0.000704026 0.000707536 0.000712301 0.00071875 0.000727463 0.000739231 0.000755157 0.000776817 0.000806545 0.00084796 0.000906997 0.00099412
          0.00112958 0.00135809 0.00179722 0.00286938 0.00736369 0.108438
        </DataArray>
        <DataArray type="Float32" Name="K" NumberOfComponents="1" format="ascii">
          9.82263e-11 9.82262e-11 9.82259e-11 9.82256e-11 9.82251e-11 9.82244e-11 9.82235e-11 9.82222e-11 9.82204e-11 9.82179e-11 9.82144e-11 9.82096e-11
          9.82031e-11 9.81942e-11 9.81821e-11 9.81658e-11 9.81437e-11 9.81139e-11 9.80736e-11 9.80188e-11 9.79436e-11 9.7839e-11 9.769e-11 9.74704e-11
          9.67914e-11 9.62207e-11 9.51319e-11 9.25157e-11 8.24768e-11 1.23994e-12
        </DataArray>
        <DataArray type="Float32" Name="X^w_H2O" NumberOfComponents="1" format="ascii">
          0.999853 0.999853 0.999853 0.999853 0.999853 0.999853 0.999853 0.999853 0.999853 0.999853 0.999853 0.999853
          0.999853 0.999853 0.999853 0.999853 0.999853 0.999853 0.999853 0.999853 0.999853 0.999853 0.999853 0.999853
          0.999853 0.999852 0.99985 0.999846 0.999839 0.99984
        </DataArray>
        <DataArray type="Float32" Name="X^w_Air" NumberOfComponents="1" format="ascii">
          0 0 0 0 0 0 0 0 0 0 0 0
          0 0 0 0 0 0 0 0 0 0 0 0
          0 0 0 0 0 0
        </DataArray>
        <DataArray type="Float32" Name="X^w_AuComplex" NumberOfComponents="1" format="ascii">
          1.70087e-16 1.72467e-16 1.7175e-16 1.7215e-16 1.71836e-16 1.71886e-16 1.71829e-16 1.71787e-16 1.71886e-16 1.71939e-16 1.71869e-16 1.71871e-16
          1.71762e-16 1.71726e-16 1.71717e-16 1.71801e-16 1.71765e-16 1.71712e-16 1.71748e-16 1.71747e-16 1.71699e-16 1.71697e-16 1.87989e-16 3.37188e-14
          7.37725e-11 1.15042e-10 1.97485e-10 3.89422e-10 2.03758e-15 1.97698e-15
        </DataArray>
        <DataArray type="Float32" Name="X^w_nanoAu" NumberOfComponents="1" format="ascii">
          6.19022e-19 6.28929e-19 6.25968e-19 6.27628e-19 6.26332e-19 6.26549e-19 6.26319e-19 6.26156e-19 6.26578e-19 6.268e-19 6.26522e-19 6.26536e-19
          6.26097e-19 6.25959e-19 6.25942e-19 6.26292e-19 6.26158e-19 6.25965e-19 6.26127e-19 6.26187e-19 6.29749e-19 9.73826e-19 3.2804e-17 2.97224e-15
          2.63967e-13 3.35464e-13 4.46943e-13 6.26472e-13 2.14125e-18 2.05533e-18
        </DataArray>
        <DataArray type="Float32" Name="X^w_cyanide" NumberOfComponents="1" format="ascii">
          5.07745e-06 5.07738e-06 5.07731e-06 5.07725e-06 5.07718e-06 5.07712e-06 5.07705e-06 5.07698e-06 5.07692e-06 5.07685e-06 5.07678e-06 5.07671e-06
          5.07663e-06 5.07655e-06 5.07646e-06 5.07636e-06 5.07624e-06 5.0761e-06 5.07592e-06 5.07569e-06 5.07537e-06 5.07494e-06 5.0743e-06 5.07334e-06
          5.07231e-06 6.44239e-06 8.57785e-06 1.22404e-05 1.94488e-05 1.91906e-05
        </DataArray>
        <DataArray type="Float32" Name="X^w_citrate" NumberOfComponents="1" format="ascii">
          0.000141796 0.000141796 0.000141796 0.000141796 0.000141796 0.000141796 0.000141796 0.000141796 0.000141796 0.000141796 0.000141796 0.000141796
          0.000141796 0.000141796 0.000141795 0.000141795 0.000141795 0.000141794 0.000141793 0.000141792 0.00014179 0.000141787 0.000141783 0.000141776
          0.000141765 0.000141747 0.00014171 0.000141624 0.000141344 0.000139467
        </DataArray>
        <DataArray type="Float32" Name="X^w_substrate" NumberOfComponents="1" format="ascii">
          5.4286e-12 7.54137e-12 1.04759e-11 1.45519e-11 2.02134e-11 2.80776e-11 3.90027e-11 5.4183e-11 7.52818e-11 1.04619e-10 1.45436e-10 2.02274e-10
          2.81518e-10 3.92184e-10 5.47082e-10 7.64559e-10 1.07116e-09 1.50583e-09 2.12663e-09 3.02207e-09 4.33082e-09 6.27783e-09 9.2448e-09 1.3918e-08
          2.16297e-08 3.5249e-08 6.19398e-08 1.24024e-07 3.22529e-07 1.64591e-06
        </DataArray>
        <DataArray type="Float32" Name="m^w_H2O" NumberOfComponents="1" format="ascii">
          55492.6 55492.5 55492.5 55492.5 55492.5 55492.5 55492.5 55492.5 55492.5 55492.5 55492.5 55492.5
          55492.5 55492.4 55492.4 55492.4 55492.4 55492.4 55492.4 55492.4 55492.4 55492.4 55492.4 55492.4
          55492.3 55492.3 55492.1 55491.9 55491.5 55491.6
        </DataArray>
        <DataArray type="Float32" Name="m^w_Air" NumberOfComponents="1" format="ascii">
          0 0 0 0 0 0 0 0 0 0 0 0
          0 0 0 0 0 0 0 0 0 0 0 0
          0 0 0 0 0 0
        </DataArray>
        <DataArray type="Float32" Name="m^w_AuComplex" NumberOfComponents="1" format="ascii">
          8.63393e-13 8.75474e-13 8.71835e-13 8.73864e-13 8.7227e-13 8.72526e-13 8.72236e-13 8.72019e-13 8.72523e-13 8.7279e-13 8.72437e-13 8.72449e-13
          8.71894e-13 8.71708e-13 8.71667e-13 8.72093e-13 8.71909e-13 8.71639e-13 8.71821e-13 8.71819e-13 8.71574e-13 8.71561e-13 9.54261e-13 1.71162e-10
          3.74481e-07 5.83973e-07 1.00247e-06 1.97677e-06 1.03431e-11 1.00355e-11
        </DataArray>
        <DataArray type="Float32" Name="m^w_nanoAu" NumberOfComponents="1" format="ascii">
          3.14227e-15 3.19256e-15 3.17753e-15 3.18595e-15 3.17937e-15 3.18047e-15 3.17931e-15 3.17848e-15 3.18062e-15 3.18174e-15 3.18034e-15 3.18041e-15
          3.17818e-15 3.17747e-15 3.17739e-15 3.17917e-15 3.17848e-15 3.1775e-15 3.17833e-15 3.17863e-15 3.19671e-15 4.9433e-15 1.66518e-13 1.50876e-11
          1.33994e-09 1.70287e-09 2.26875e-09 3.18007e-09 1.08693e-14 1.04332e-14
        </DataArray>
        <DataArray type="Float32" Name="m^w_cyanide" NumberOfComponents="1" format="ascii">
          0.195108 0.195105 0.195103 0.1951 0.195098 0.195095 0.195093 0.19509 0.195087 0.195085 0.195082 0.195079
          0.195076 0.195073 0.19507 0.195066 0.195061 0.195056 0.195049 0.19504 0.195028 0.195011 0.194987 0.194949
          0.19491 0.247557 0.329615 0.470354 0.747346 0.737424
        </DataArray>
        <DataArray type="Float32" Name="m^w_citrate" NumberOfComponents="1" format="ascii">
          0.749742 0.749742 0.749742 0.749742 0.749742 0.749742 0.749741 0.749741 0.749741 0.749741 0.74974 0.74974
          0.749739 0.749738 0.749737 0.749735 0.749732 0.749729 0.749724 0.749717 0.749708 0.749693 0.74967 0.749635
          0.749577 0.74948 0.749286 0.748828 0.747349 0.737425
        </DataArray>
        <DataArray type="Float32" Name="m^w_substrate" NumberOfComponents="1" format="ascii">
          3.01278e-08 4.18532e-08 5.81395e-08 8.07604e-08 1.12181e-07 1.55825e-07 2.16458e-07 3.00706e-07 4.178e-07 5.80615e-07 8.07142e-07 1.12258e-06
          1.56237e-06 2.17655e-06 3.0362e-06 4.24315e-06 5.94476e-06 8.35708e-06 1.18024e-05 1.67719e-05 2.40352e-05 3.48407e-05 5.13068e-05 7.72422e-05
          0.00012004 0.000195625 0.000343753 0.000688309 0.00178997 0.00913447
        </DataArray>
        <DataArray type="Float32" Name="process rank" NumberOfComponents="1" format="ascii">
          0 0 0 0 0 0 0 0 0 0 0 0
          0 0 0 0 0 0 0 0 0 0 0 0
          0 0 0 0 0 0
        </DataArray>
      </CellData>
      <Points>
        <DataArray type="Float32" Name="Coordinates" NumberOfComponents="3" format="ascii">
          0 0 0 0.5 0 0 0 0.0333333 0 0.5 0.0333333 0
          0 0.0666667 0 0.5 0.0666667 0 0 0.1 0 0.5 0.1 0
          0 0.133333 0 0.5 0.133333 0 0 0.166667 0 0.5 0.166667 0
          0 0.2 0 0.5 0.2 0 0 0.233333 0 0.5 0.233333 0
          0 0.266667 0 0.5 0.266667 0 0 0.3 0 0.5 0.3 0
          0 0.333333 0 0.5 0.333333 0 0 0.366667 0 0.5 0.366667 0
          0 0.4 0 0.5 0.4 0 0 0.433333 0 0.5 0.433333 0
          0 0.466667 0 0.5 0.466667 0 0 0.5 0 0.5 0.5 0
          0 0.533333 0 0.5 0.533333 0 0 0.566667 0 0.5 0.566667 0
          0 0.6 0 0.5 0.6 0 0 0.633333 0 0.5 0.633333 0
          0 0.666667 0 0.5 0.666667 0 0 0.7 0 0.5 0.7 0
          0 0.733333 0 0.5 0.733333 0 0 0.766667 0 0.5 0.766667 0
          0 0.8 0 0.5 0.8 0 0 0.833333 0 0.5 0.833333 0
          0 0.866667 0 0.5 0.866667 0 0 0.9 0 0.5 0.9 0
          0 0.933333 0 0.5 0.933333 0 0 0.966667 0 0.5 0.966667 0
          0 1 0 0.5 1 0
        </DataArray>
      </Points>
      <Cells>
        <DataArray type="Int32" Name="connectivity" NumberOfComponents="1" format="ascii">
          0 1 3 2 2 3 5 4 4 5 7 6
          6 7 9 8 8 9 11 10 10 11 13 12
          12 13 15 14 14 15 17 16 16 17 19 18
          18 19 21 20 20 21 23 22 22 23 25 24
          24 25 27 26 26 27 29 28 28 29 31 30
          30 31 33 32 32 33 35 34 34 35 37 36
          36 37 39 38 38 39 41 40 40 41 43 42
          42 43 45 44 44 45 47 46 46 47 49 48
          48 49 51 50 50 51 53 52 52 53 55 54
          54 55 57 56 56 57 59 58 58 59 61 60
        </DataArray>
        <DataArray type="Int32" Name="offsets" NumberOfComponents="1" format="ascii">
          4 8 12 16 20 24 28 32 36 40 44 48
          52 56 60 64 68 72 76 80 84 88 92 96
          100 104 108 112 116 120
        </DataArray>
        <DataArray type="UInt8" Name="types" NumberOfComponents="1" format="ascii">
          9 9 9 9 9 9 9 9 9 9 9 9
          9 9 9 9 9 9 9 9 9 9 9 9
          9 9 9 9 9 9
        </DataArray>
      </Cells>
    </Piece>
  </UnstructuredGrid>
</VTKFile>
