<?xml version="1.0"?>
<VTKFile type="UnstructuredGrid" version="0.1" byte_order="LittleEndian">
  <UnstructuredGrid>
    <Piece NumberOfCells="30" NumberOfPoints="62">
      <CellData Scalars="Sg">
        <DataArray type="Float32" Name="Sg" NumberOfComponents="1" format="ascii">
          0.0886223 0.0883607 0.0873201 0.0826989 0.0626885 0 0 0 0 0 0 0
          0 0 0 0 0 0 0 0 0 0 0 0
          0 0 0 0 0 0
        </DataArray>
        <DataArray type="Float32" Name="Sl" NumberOfComponents="1" format="ascii">
          0.911378 0.911639 0.91268 0.917301 0.937311 1 1 1 1 1 1 1
          1 1 1 1 1 1 1 1 1 1 1 1
          1 1 1 1 1 1
        </DataArray>
        <DataArray type="Float32" Name="pg" NumberOfComponents="1" format="ascii">
          50075.1 49673.2 49048.2 47397.4 41338.2 23053.1 22726.2 22399.3 22072.3 21745.4 21418.4 21091.5
          20764.6 20437.6 20110.7 19783.7 19456.8 19129.9 18802.9 18476 18149 17822.1 17495.1 17168.2
          16841.3 16514.3 16187.4 15860.4 15533.5 15206.6
        </DataArray>
        <DataArray type="Float32" Name="pl" NumberOfComponents="1" format="ascii">
          110628 110301 109974 109647 109320 108993 108666 108339 108012 107685 107358 107031
          106704 106377 106050 105723 105396 105070 104743 104416 104089 103762 103435 103108
          102781 102454 102127 101800 101473 101146
        </DataArray>
        <DataArray type="Float32" Name="pc" NumberOfComponents="1" format="ascii">
          -60552.4 -60627.4 -60925.5 -62249.3 -67981.6 -85939.7 -85939.7 -85939.7 -85939.7 -85939.7 -85939.7 -85939.7
          -85939.7 -85939.7 -85939.7 -85939.7 -85939.7 -85939.7 -85939.7 -85939.7 -85939.7 -85939.7 -85939.7 -85939.7
          -85939.7 -85939.7 -85939.7 -85939.7 -85939.7 -85939.7
        </DataArray>
        <DataArray type="Float32" Name="rhoL" NumberOfComponents="1" format="ascii">
          999.855 999.855 999.855 999.855 999.855 999.854 999.854 999.854 999.854 999.854 999.854 999.854
          999.853 999.853 999.853 999.853 999.853 999.853 999.852 999.852 999.852 999.852 999.852 999.852
          999.852 999.851 999.851 999.851 999.851 999.851
        </DataArray>
        <DataArray type="Float32" Name="rhoG" NumberOfComponents="1" format="ascii">
          0.620365 0.615387 0.607643 0.587192 0.512127 0.285598 0.281548 0.277498 0.273447 0.269397 0.265347 0.261296
          0.257246 0.253195 0.249145 0.245095 0.241044 0.236994 0.232944 0.228893 0.224843 0.220793 0.216742 0.212692
          0.208641 0.204591 0.200541 0.19649 0.19244 0.18839
        </DataArray>
        <DataArray type="Float32" Name="mobL" NumberOfComponents="1" format="ascii">
          722.171 722.17 722.17 722.17 722.17 722.17 722.169 722.169 722.169 722.169 722.169 722.169
          722.168 722.168 722.168 722.168 722.168 722.167 722.167 722.167 722.167 722.167 722.166 722.166
          722.166 722.166 722.166 722.166 722.165 722.165
        </DataArray>
        <DataArray type="Float32" Name="mobG" NumberOfComponents="1" format="ascii">
          0 0 0 0 0 0 0 0 0 0 0 0
          0 0 0 0 0 0 0 0 0 0 0 0
          0 0 0 0 0 0
        </DataArray>
        <DataArray type="Float32" Name="porosity" NumberOfComponents="1" format="ascii">
          0.298531 0.298531 0.298531 0.29853 0.29853 0.298529 0.298529 0.298528 0.298526 0.298524 0.298521 0.298517
          0.298512 0.298504 0.298494 0.298481 0.298463 0.298438 0.298405 0.29836 0.298298 0.298213 0.298092 0.297914
          0.29737 0.296915 0.296063 0.294083 0.287009 0.168682
        </DataArray>
        <DataArray type="Float32" Name="temperature" NumberOfComponents="1" format="ascii">
          281.15 281.15 281.15 281.15 281.15 281.15 281.15 281.15 281.15 281.15 281.15 281.15
          281.15 281.15 281.15 281.15 281.15 281.15 281.15 281.15 281.15 281.15 281.15 281.15
          281.15 281.15 281.15 281.15 281.15 281.15
        </DataArray>
        <DataArray type="Float32" Name="phase presence" NumberOfComponents="1" format="ascii">
          3 3 3 3 3 1 1 1 1 1 1 1
          1 1 1 1 1 1 1 1 1 1 1 1
          1 1 1 1 1 1
        </DataArray>
        <DataArray type="Float32" Name="precipitateVolumeFraction_au" NumberOfComponents="1" format="ascii">
          5.49269e-10 5.49266e-10 5.49267e-10 5.49266e-10 5.49266e-10 5.49267e-10 5.49274e-10 5.49283e-10 5.49275e-10 5.49303e-10 5.4926e-10 5.49286e-10
          5.49264e-10 5.4926e-10 5.4924e-10 5.49287e-10 5.49228e-10 5.49267e-10 5.49261e-10 5.49253e-10 5.49231e-10 5.49271e-10 5.4931e-10 6.5987e-10
          0.000269941 0.000269924 0.000269898 0.000269851 5.48709e-10 5.47813e-10
        </DataArray>
        <DataArray type="Float32" Name="precipitateVolumeFraction_nanoAu" NumberOfComponents="1" format="ascii">
          3.60902e-12 3.60848e-12 3.6082e-12 3.60766e-12 3.60732e-12 3.58383e-12 3.63825e-12 3.63807e-12 3.61712e-12 3.63374e-12 3.60163e-12 3.61302e-12
          3.60432e-12 3.60286e-12 3.59882e-12 3.60757e-12 3.59901e-12 3.60412e-12 3.60333e-12 3.60258e-12 3.60137e-12 3.60335e-12 3.61484e-12 2.91772e-11
          6.00048e-08 7.67863e-08 1.03171e-07 1.48518e-07 3.95647e-12 3.91898e-12
        </DataArray>
        <DataArray type="Float32" Name="precipitateVolumeFraction_d" NumberOfComponents="1" format="ascii">
          0.000734532 0.000734602 0.000734702 0.000734842 0.000735039 0.000735316 0.000735704 0.000736244 0.000736996 0.000738038 0.000739474 0.000741447
          0.000744144 0.000747816 0.000752798 0.000759536 0.000768631 0.000780898 0.000797472 0.000819967 0.000850759 0.000893504 0.00095415 0.00104306
          0.00117997 0.00140749 0.00183369 0.00282357 0.0064953 0.0656589
        </DataArray>
        <DataArray type="Float32" Name="precipitateVolumeFraction_p" NumberOfComponents="1" format="ascii">
          0.000734532 0.000734602 0.000734702 0.000734842 0.000735039 0.000735316 0.000735704 0.000736244 0.000736996 0.000738038 0.000739474 0.000741447
          0.000744144 0.000747816 0.000752798 0.000759536 0.000768631 0.000780898 0.000797472 0.000819967 0.000850759 0.000893504 0.00095415 0.00104306
          0.00117997 0.00140749 0.00183369 0.00282357 0.0064953 0.0656589
        </DataArray>
        <DataArray type="Float32" Name="K" NumberOfComponents="1" format="ascii">
          9.81258e-11 9.81256e-11 9.81254e-11 9.8125e-11 9.81245e-11 9.81238e-11 9.81229e-11 9.81215e-11 9.81196e-11 9.81169e-11 9.81133e-11 9.81083e-11
          9.81015e-11 9.80922e-11 9.80796e-11 9.80625e-11 9.80395e-11 9.80085e-11 9.79666e-11 9.79097e-11 9.78319e-11 9.7724e-11 9.75711e-11 9.73473e-11
          9.66653e-11 9.60977e-11 9.50419e-11 9.26262e-11 8.44021e-11 1.26039e-11
        </DataArray>
        <DataArray type="Float32" Name="X^w_H2O" NumberOfComponents="1" format="ascii">
          0.999838 0.999838 0.999839 0.999839 0.999841 0.999848 0.999853 0.999853 0.999853 0.999853 0.999853 0.999853
          0.999853 0.999853 0.999853 0.999853 0.999853 0.999853 0.999853 0.999853 0.999853 0.999853 0.999853 0.999853
          0.999853 0.999852 0.99985 0.999846 0.999839 0.99984
        </DataArray>
        <DataArray type="Float32" Name="X^w_Air" NumberOfComponents="1" format="ascii">
          1.51894e-05 1.50648e-05 1.48711e-05 1.43594e-05 1.24812e-05 5.74986e-06 9.59026e-08 1.57078e-09 2.52949e-11 4.00696e-13 6.22661e-15 9.49123e-17
          1.42351e-18 2.09261e-20 3.02309e-22 4.27637e-24 5.93328e-26 8.07568e-28 1.07497e-29 1.39783e-31 1.77243e-33 2.18148e-35 2.57914e-37 0
          0 0 0 0 0 0
        </DataArray>
        <DataArray type="Float32" Name="X^w_AuComplex" NumberOfComponents="1" format="ascii">
          3.56557e-15 4.26854e-15 4.39327e-15 3.79544e-15 3.19964e-15 3.07771e-15 3.48218e-15 3.48215e-15 3.46236e-15 3.4783e-15 3.44789e-15 3.45884e-15
          3.45068e-15 3.4494e-15 3.44564e-15 3.45403e-15 3.44593e-15 3.4508e-15 3.45001e-15 3.44917e-15 3.44779e-15 3.44927e-15 3.46145e-15 3.2267e-14
          6.77112e-11 1.0715e-10 1.87531e-10 3.79563e-10 1.53727e-14 1.48989e-14
        </DataArray>
        <DataArray type="Float32" Name="X^w_nanoAu" NumberOfComponents="1" format="ascii">
          -7.55417e-17 -5.86277e-16 -1.67525e-15 1.54324e-16 -4.41472e-16 -5.43991e-14 1.58528e-17 1.58511e-17 1.57615e-17 1.58316e-17 1.56938e-17 1.57424e-17
          1.57049e-17 1.56984e-17 1.56813e-17 1.57185e-17 1.56818e-17 1.57037e-17 1.57001e-17 1.56966e-17 1.56948e-17 1.60455e-17 4.76879e-17 2.96426e-15
          2.62044e-13 3.35482e-13 4.50892e-13 6.38378e-13 1.71294e-17 1.64297e-17
        </DataArray>
        <DataArray type="Float32" Name="X^w_cyanide" NumberOfComponents="1" format="ascii">
          4.77414e-06 4.7743e-06 4.77447e-06 4.77464e-06 4.77483e-06 4.77504e-06 4.77525e-06 4.77544e-06 4.77563e-06 4.77582e-06 4.77599e-06 4.77616e-06
          4.77632e-06 4.77646e-06 4.77659e-06 4.77668e-06 4.77674e-06 4.77675e-06 4.77669e-06 4.77653e-06 4.77621e-06 4.77566e-06 4.77473e-06 4.77317e-06
          4.77098e-06 6.11064e-06 8.2284e-06 1.1929e-05 1.93958e-05 1.89813e-05
        </DataArray>
        <DataArray type="Float32" Name="X^w_citrate" NumberOfComponents="1" format="ascii">
          0.000141794 0.000141794 0.000141794 0.000141794 0.000141794 0.000141795 0.000141796 0.000141796 0.000141796 0.000141796 0.000141796 0.000141796
          0.000141795 0.000141795 0.000141795 0.000141794 0.000141794 0.000141792 0.000141791 0.000141789 0.000141785 0.00014178 0.000141773 0.000141761
          0.00014174 0.000141705 0.000141636 0.000141472 0.000140963 0.000137948
        </DataArray>
        <DataArray type="Float32" Name="X^w_substrate" NumberOfComponents="1" format="ascii">
          7.60094e-12 1.0721e-11 1.51339e-11 2.137e-11 3.0115e-11 4.17841e-11 5.9342e-11 8.31473e-11 1.16524e-10 1.63349e-10 2.29085e-10 3.21458e-10
          4.51431e-10 6.34631e-10 8.93473e-10 1.26036e-09 1.78263e-09 2.53034e-09 3.60893e-09 5.18059e-09 7.50158e-09 1.0991e-08 1.63654e-08 2.49205e-08
          3.91823e-08 6.45945e-08 1.14673e-07 2.30777e-07 5.91385e-07 2.71731e-06
        </DataArray>
        <DataArray type="Float32" Name="m^w_H2O" NumberOfComponents="1" format="ascii">
          55491.7 55491.7 55491.7 55491.8 55491.8 55492.2 55492.5 55492.5 55492.5 55492.5 55492.5 55492.5
          55492.5 55492.5 55492.5 55492.4 55492.4 55492.4 55492.4 55492.4 55492.4 55492.4 55492.4 55492.4
          55492.4 55492.3 55492.2 55491.9 55491.5 55491.6
        </DataArray>
        <DataArray type="Float32" Name="m^w_Air" NumberOfComponents="1" format="ascii">
          0.524419 0.520118 0.513429 0.495762 0.430917 0.198516 0.00331107 5.42318e-05 8.73314e-07 1.38342e-08 2.14976e-10 3.27688e-12
          4.91472e-14 7.22482e-16 1.04373e-17 1.47643e-19 2.04848e-21 2.78815e-23 3.71136e-25 4.82604e-27 6.11937e-29 7.53162e-31 8.90454e-33 9.92907e-35
          1.00509e-36 0 0 0 0 0
        </DataArray>
        <DataArray type="Float32" Name="m^w_AuComplex" NumberOfComponents="1" format="ascii">
          1.80995e-11 2.16679e-11 2.2301e-11 1.92663e-11 1.6242e-11 1.5623e-11 1.76761e-11 1.7676e-11 1.75755e-11 1.76564e-11 1.75021e-11 1.75577e-11
          1.75163e-11 1.75097e-11 1.74906e-11 1.75333e-11 1.74921e-11 1.75168e-11 1.75128e-11 1.75086e-11 1.75015e-11 1.75091e-11 1.75709e-11 1.63793e-10
          3.43713e-07 5.43909e-07 9.51937e-07 1.92672e-06 7.80341e-11 7.56293e-11
        </DataArray>
        <DataArray type="Float32" Name="m^w_nanoAu" NumberOfComponents="1" format="ascii">
          -3.83463e-13 -2.97605e-12 -8.50388e-12 7.83378e-13 -2.24099e-12 -2.7614e-10 8.04715e-14 8.04627e-14 8.00082e-14 8.0364e-14 7.96642e-14 7.99113e-14
          7.97205e-14 7.96875e-14 7.96008e-14 7.97899e-14 7.96034e-14 7.97144e-14 7.96961e-14 7.96783e-14 7.96693e-14 8.14497e-14 2.42072e-13 1.50471e-11
          1.33018e-09 1.70296e-09 2.2888e-09 3.24051e-09 8.69516e-14 8.33997e-14
        </DataArray>
        <DataArray type="Float32" Name="m^w_cyanide" NumberOfComponents="1" format="ascii">
          0.183453 0.183459 0.183466 0.183472 0.183479 0.183487 0.183496 0.183503 0.18351 0.183517 0.183524 0.18353
          0.183537 0.183542 0.183547 0.18355 0.183553 0.183553 0.183551 0.183544 0.183532 0.183511 0.183475 0.183415
          0.183331 0.234809 0.316187 0.458388 0.745308 0.72938
        </DataArray>
        <DataArray type="Float32" Name="m^w_citrate" NumberOfComponents="1" format="ascii">
          0.749731 0.749731 0.749731 0.749731 0.749732 0.749737 0.749741 0.749741 0.749741 0.74974 0.749739 0.749739
          0.749738 0.749736 0.749734 0.749731 0.749727 0.749721 0.749713 0.749701 0.749684 0.749657 0.749617 0.749553
          0.749446 0.74926 0.748891 0.748028 0.745333 0.729392
        </DataArray>
        <DataArray type="Float32" Name="m^w_substrate" NumberOfComponents="1" format="ascii">
          4.21839e-08 5.94998e-08 8.39903e-08 1.186e-07 1.67133e-07 2.31894e-07 3.29337e-07 4.61452e-07 6.46689e-07 9.06556e-07 1.27138e-06 1.78403e-06
          2.50535e-06 3.52208e-06 4.9586e-06 6.99477e-06 9.89326e-06 1.40429e-05 2.00289e-05 2.87512e-05 4.16323e-05 6.09981e-05 9.08246e-05 0.000138304
          0.000217454 0.000358487 0.000636412 0.00128077 0.00328207 0.0150805
        </DataArray>
        <DataArray type="Float32" Name="process rank" NumberOfComponents="1" format="ascii">
          0 0 0 0 0 0 0 0 0 0 0 0
          0 0 0 0 0 0 0 0 0 0 0 0
          0 0 0 0 0 0
        </DataArray>
      </CellData>
      <Points>
        <DataArray type="Float32" Name="Coordinates" NumberOfComponents="3" format="ascii">
          0 0 0 0.5 0 0 0 0.0333333 0 0.5 0.0333333 0
          0 0.0666667 0 0.5 0.0666667 0 0 0.1 0 0.5 0.1 0
          0 0.133333 0 0.5 0.133333 0 0 0.166667 0 0.5 0.166667 0
          0 0.2 0 0.5 0.2 0 0 0.233333 0 0.5 0.233333 0
          0 0.266667 0 0.5 0.266667 0 0 0.3 0 0.5 0.3 0
          0 0.333333 0 0.5 0.333333 0 0 0.366667 0 0.5 0.366667 0
          0 0.4 0 0.5 0.4 0 0 0.433333 0 0.5 0.433333 0
          0 0.466667 0 0.5 0.466667 0 0 0.5 0 0.5 0.5 0
          0 0.533333 0 0.5 0.533333 0 0 0.566667 0 0.5 0.566667 0
          0 0.6 0 0.5 0.6 0 0 0.633333 0 0.5 0.633333 0
          0 0.666667 0 0.5 0.666667 0 0 0.7 0 0.5 0.7 0
          0 0.733333 0 0.5 0.733333 0 0 0.766667 0 0.5 0.766667 0
          0 0.8 0 0.5 0.8 0 0 0.833333 0 0.5 0.833333 0
          0 0.866667 0 0.5 0.866667 0 0 0.9 0 0.5 0.9 0
          0 0.933333 0 0.5 0.933333 0 0 0.966667 0 0.5 0.966667 0
          0 1 0 0.5 1 0
        </DataArray>
      </Points>
      <Cells>
        <DataArray type="Int32" Name="connectivity" NumberOfComponents="1" format="ascii">
          0 1 3 2 2 3 5 4 4 5 7 6
          6 7 9 8 8 9 11 10 10 11 13 12
          12 13 15 14 14 15 17 16 16 17 19 18
          18 19 21 20 20 21 23 22 22 23 25 24
          24 25 27 26 26 27 29 28 28 29 31 30
          30 31 33 32 32 33 35 34 34 35 37 36
          36 37 39 38 38 39 41 40 40 41 43 42
          42 43 45 44 44 45 47 46 46 47 49 48
          48 49 51 50 50 51 53 52 52 53 55 54
          54 55 57 56 56 57 59 58 58 59 61 60
        </DataArray>
        <DataArray type="Int32" Name="offsets" NumberOfComponents="1" format="ascii">
          4 8 12 16 20 24 28 32 36 40 44 48
          52 56 60 64 68 72 76 80 84 88 92 96
          100 104 108 112 116 120
        </DataArray>
        <DataArray type="UInt8" Name="types" NumberOfComponents="1" format="ascii">
          9 9 9 9 9 9 9 9 9 9 9 9
          9 9 9 9 9 9 9 9 9 9 9 9
          9 9 9 9 9 9
        </DataArray>
      </Cells>
    </Piece>
  </UnstructuredGrid>
</VTKFile>
