<?xml version="1.0"?>
<VTKFile type="UnstructuredGrid" version="0.1" byte_order="LittleEndian">
  <UnstructuredGrid>
    <Piece NumberOfCells="30" NumberOfPoints="62">
      <CellData Scalars="Sg">
        <DataArray type="Float32" Name="Sg" NumberOfComponents="1" format="ascii">
          0.027129 0 0 0 0 0 0 0 0 0 0 0
          0 0 0 0 0 0 0 0 0 0 0 0
          0 0 0 0 0 0
        </DataArray>
        <DataArray type="Float32" Name="Sl" NumberOfComponents="1" format="ascii">
          0.972871 1 1 1 1 1 1 1 1 1 1 1
          1 1 1 1 1 1 1 1 1 1 1 1
          1 1 1 1 1 1
        </DataArray>
        <DataArray type="Float32" Name="pg" NumberOfComponents="1" format="ascii">
          32459.4 24360.9 24034 23707 23380.1 23053.1 22726.2 22399.3 22072.3 21745.4 21418.4 21091.5
          20764.6 20437.6 20110.7 19783.7 19456.8 19129.9 18802.9 18476 18149 17822.1 17495.1 17168.2
          16841.3 16514.3 16187.4 15860.4 15533.5 15206.6
        </DataArray>
        <DataArray type="Float32" Name="pl" NumberOfComponents="1" format="ascii">
          110628 110301 109974 109647 109320 108993 108666 108339 108012 107685 107358 107031
          106704 106377 106050 105723 105396 105070 104743 104416 104089 103762 103435 103108
          102781 102454 102127 101800 101473 101146
        </DataArray>
        <DataArray type="Float32" Name="pc" NumberOfComponents="1" format="ascii">
          -78168.2 -85939.7 -85939.7 -85939.7 -85939.7 -85939.7 -85939.7 -85939.7 -85939.7 -85939.7 -85939.7 -85939.7
          -85939.7 -85939.7 -85939.7 -85939.7 -85939.7 -85939.7 -85939.7 -85939.7 -85939.7 -85939.7 -85939.7 -85939.7
          -85939.7 -85939.7 -85939.7 -85939.7 -85939.7 -85939.7
        </DataArray>
        <DataArray type="Float32" Name="rhoL" NumberOfComponents="1" format="ascii">
          999.855 999.855 999.855 999.855 999.855 999.854 999.854 999.854 999.854 999.854 999.854 999.854
          999.853 999.853 999.853 999.853 999.853 999.853 999.852 999.852 999.852 999.852 999.852 999.852
          999.852 999.851 999.851 999.851 999.851 999.851
        </DataArray>
        <DataArray type="Float32" Name="rhoG" NumberOfComponents="1" format="ascii">
          0.402129 0.3018 0.29775 0.293699 0.289649 0.285598 0.281548 0.277498 0.273447 0.269397 0.265347 0.261296
          0.257246 0.253195 0.249145 0.245095 0.241044 0.236994 0.232944 0.228893 0.224843 0.220793 0.216742 0.212692
          0.208641 0.204591 0.200541 0.19649 0.19244 0.18839
        </DataArray>
        <DataArray type="Float32" Name="mobL" NumberOfComponents="1" format="ascii">
          722.171 722.17 722.17 722.17 722.17 722.17 722.169 722.169 722.169 722.169 722.169 722.169
          722.168 722.168 722.168 722.168 722.168 722.167 722.167 722.167 722.167 722.167 722.166 722.166
          722.166 722.166 722.166 722.166 722.165 722.165
        </DataArray>
        <DataArray type="Float32" Name="mobG" NumberOfComponents="1" format="ascii">
          0 0 0 0 0 0 0 0 0 0 0 0
          0 0 0 0 0 0 0 0 0 0 0 0
          0 0 0 0 0 0
        </DataArray>
        <DataArray type="Float32" Name="porosity" NumberOfComponents="1" format="ascii">
          0.298544 0.298544 0.298544 0.298544 0.298543 0.298543 0.298542 0.298541 0.29854 0.298538 0.298535 0.298531
          0.298525 0.298518 0.298508 0.298495 0.298477 0.298452 0.298419 0.298375 0.298313 0.298228 0.298107 0.29793
          0.297386 0.296928 0.296067 0.294043 0.286585 0.148527
        </DataArray>
        <DataArray type="Float32" Name="temperature" NumberOfComponents="1" format="ascii">
          281.15 281.15 281.15 281.15 281.15 281.15 281.15 281.15 281.15 281.15 281.15 281.15
          281.15 281.15 281.15 281.15 281.15 281.15 281.15 281.15 281.15 281.15 281.15 281.15
          281.15 281.15 281.15 281.15 281.15 281.15
        </DataArray>
        <DataArray type="Float32" Name="phase presence" NumberOfComponents="1" format="ascii">
          3 1 1 1 1 1 1 1 1 1 1 1
          1 1 1 1 1 1 1 1 1 1 1 1
          1 1 1 1 1 1
        </DataArray>
        <DataArray type="Float32" Name="precipitateVolumeFraction_au" NumberOfComponents="1" format="ascii">
          5.51281e-10 5.51217e-10 5.51273e-10 5.51284e-10 5.51296e-10 5.51264e-10 5.51303e-10 5.51312e-10 5.51292e-10 5.5133e-10 5.51268e-10 5.513e-10
          5.51274e-10 5.51268e-10 5.51246e-10 5.51298e-10 5.51234e-10 5.51276e-10 5.51269e-10 5.51262e-10 5.51238e-10 5.5128e-10 5.51329e-10 6.83851e-10
          0.000269941 0.000269924 0.000269898 0.000269851 5.50707e-10 5.49794e-10
        </DataArray>
        <DataArray type="Float32" Name="precipitateVolumeFraction_nanoAu" NumberOfComponents="1" format="ascii">
          1.59487e-12 1.42353e-12 1.57885e-12 1.60756e-12 1.61438e-12 1.58606e-12 1.60943e-12 1.60936e-12 1.6005e-12 1.60753e-12 1.59395e-12 1.59877e-12
          1.59509e-12 1.59447e-12 1.59276e-12 1.59647e-12 1.59284e-12 1.595e-12 1.59467e-12 1.59435e-12 1.59383e-12 1.59467e-12 1.60628e-12 2.69582e-11
          5.982e-08 7.65815e-08 1.03027e-07 1.48762e-07 1.95903e-12 1.93497e-12
        </DataArray>
        <DataArray type="Float32" Name="precipitateVolumeFraction_d" NumberOfComponents="1" format="ascii">
          0.000727754 0.000727824 0.000727923 0.000728062 0.000728258 0.000728532 0.000728917 0.000729454 0.0007302 0.000731234 0.00073266 0.000734619
          0.000737297 0.000740944 0.000745892 0.000752586 0.000761622 0.000773815 0.000790295 0.000812673 0.000843323 0.000885906 0.000946388 0.00103519
          0.00117224 0.0014008 0.0018315 0.00284361 0.00670774 0.0757367
        </DataArray>
        <DataArray type="Float32" Name="precipitateVolumeFraction_p" NumberOfComponents="1" format="ascii">
          0.000727754 0.000727824 0.000727923 0.000728062 0.000728258 0.000728532 0.000728917 0.000729454 0.0007302 0.000731234 0.00073266 0.000734619
          0.000737297 0.000740944 0.000745892 0.000752586 0.000761622 0.000773815 0.000790295 0.000812673 0.000843323 0.000885906 0.000946388 0.00103519
          0.00117224 0.0014008 0.0018315 0.00284361 0.00670774 0.0757367
        </DataArray>
        <DataArray type="Float32" Name="K" NumberOfComponents="1" format="ascii">
          9.8143e-11 9.81428e-11 9.81426e-11 9.81422e-11 9.81417e-11 9.8141e-11 9.814e-11 9.81387e-11 9.81368e-11 9.81342e-11 9.81306e-11 9.81256e-11
          9.81188e-11 9.81096e-11 9.80971e-11 9.80801e-11 9.80573e-11 9.80264e-11 9.79847e-11 9.79282e-11 9.78507e-11 9.77432e-11 9.75907e-11 9.73671e-11
          9.66847e-11 9.61144e-11 9.50473e-11 9.25778e-11 8.39277e-11 8.20169e-12
        </DataArray>
        <DataArray type="Float32" Name="X^w_H2O" NumberOfComponents="1" format="ascii">
          0.999844 0.999853 0.999853 0.999853 0.999853 0.999853 0.999853 0.999853 0.999853 0.999853 0.999853 0.999853
          0.999853 0.999853 0.999853 0.999853 0.999853 0.999853 0.999853 0.999853 0.999853 0.999853 0.999853 0.999853
          0.999853 0.999852 0.99985 0.999846 0.999839 0.99984
        </DataArray>
        <DataArray type="Float32" Name="X^w_Air" NumberOfComponents="1" format="ascii">
          9.72898e-06 5.56909e-07 9.90541e-09 1.72818e-10 2.96386e-12 5.0057e-14 8.30588e-16 1.35388e-17 2.16993e-19 3.41913e-21 5.28558e-23 8.01997e-25
          1.19638e-26 1.75008e-28 2.51379e-30 3.53647e-32 4.87875e-34 6.59636e-36 8.71652e-38 0 0 0 0 0
          0 0 0 0 0 0
        </DataArray>
        <DataArray type="Float32" Name="X^w_AuComplex" NumberOfComponents="1" format="ascii">
          -2.65193e-14 1.37626e-15 1.52407e-15 1.55141e-15 1.55793e-15 1.53102e-15 1.55329e-15 1.55324e-15 1.54484e-15 1.55154e-15 1.53863e-15 1.54324e-15
          1.53974e-15 1.53916e-15 1.53752e-15 1.54104e-15 1.53757e-15 1.5396e-15 1.53923e-15 1.53884e-15 1.53822e-15 1.53884e-15 1.5515e-15 3.01492e-14
          6.75491e-11 1.06884e-10 1.87209e-10 3.79996e-10 7.66385e-15 7.42755e-15
        </DataArray>
        <DataArray type="Float32" Name="X^w_nanoAu" NumberOfComponents="1" format="ascii">
          -1.92371e-14 6.20991e-18 6.8807e-18 7.00472e-18 7.03281e-18 6.91185e-18 7.01258e-18 7.01185e-18 6.97399e-18 7.00365e-18 6.94533e-18 6.96594e-18
          6.95003e-18 6.94729e-18 6.94006e-18 6.95585e-18 6.94028e-18 6.94955e-18 6.94803e-18 6.94656e-18 6.94792e-18 7.29261e-18 3.88096e-17 2.94495e-15
          2.61255e-13 3.34627e-13 4.50365e-13 6.39671e-13 8.48895e-18 8.14172e-18
        </DataArray>
        <DataArray type="Float32" Name="X^w_cyanide" NumberOfComponents="1" format="ascii">
          4.77667e-06 4.77683e-06 4.77694e-06 4.77705e-06 4.77715e-06 4.77725e-06 4.77733e-06 4.77741e-06 4.77748e-06 4.77753e-06 4.77759e-06 4.77762e-06
          4.77765e-06 4.77766e-06 4.77766e-06 4.77763e-06 4.77756e-06 4.77746e-06 4.7773e-06 4.77705e-06 4.77667e-06 4.7761e-06 4.77521e-06 4.7738e-06
          4.77193e-06 6.10967e-06 8.22469e-06 1.19244e-05 1.94141e-05 1.90519e-05
        </DataArray>
        <DataArray type="Float32" Name="X^w_citrate" NumberOfComponents="1" format="ascii">
          0.000141795 0.000141796 0.000141796 0.000141796 0.000141796 0.000141796 0.000141796 0.000141796 0.000141796 0.000141796 0.000141796 0.000141796
          0.000141796 0.000141795 0.000141795 0.000141795 0.000141794 0.000141793 0.000141792 0.00014179 0.000141787 0.000141783 0.000141777 0.000141766
          0.000141749 0.00014172 0.000141662 0.000141525 0.000141093 0.00013846
        </DataArray>
        <DataArray type="Float32" Name="X^w_substrate" NumberOfComponents="1" format="ascii">
          7.08055e-12 9.41288e-12 1.31272e-11 1.83803e-11 2.57364e-11 3.60385e-11 5.04685e-11 7.06854e-11 9.90194e-11 1.38748e-10 1.94492e-10 2.72777e-10
          3.8286e-10 5.37925e-10 7.56863e-10 1.06696e-09 1.50806e-09 2.13903e-09 3.04845e-09 4.37239e-09 6.32568e-09 9.25938e-09 1.37731e-08 2.09511e-08
          3.29062e-08 5.41964e-08 9.61626e-08 1.93692e-07 4.99192e-07 2.35605e-06
        </DataArray>
        <DataArray type="Float32" Name="m^w_H2O" NumberOfComponents="1" format="ascii">
          55492 55492.5 55492.6 55492.5 55492.5 55492.5 55492.5 55492.5 55492.5 55492.5 55492.5 55492.5
          55492.5 55492.5 55492.5 55492.4 55492.4 55492.4 55492.4 55492.4 55492.4 55492.4 55492.4 55492.4
          55492.4 55492.3 55492.2 55491.9 55491.5 55491.6
        </DataArray>
        <DataArray type="Float32" Name="m^w_Air" NumberOfComponents="1" format="ascii">
          0.335897 0.0192275 0.000341988 5.96662e-06 1.02328e-07 1.72824e-09 2.86763e-11 4.6743e-13 7.49175e-15 1.18047e-16 1.82486e-18 2.76892e-20
          4.13054e-22 6.04221e-24 8.67894e-26 1.22098e-27 1.6844e-29 2.27741e-31 3.0094e-33 3.88069e-35 4.87033e-37 0 0 0
          0 0 0 0 0 0
        </DataArray>
        <DataArray type="Float32" Name="m^w_AuComplex" NumberOfComponents="1" format="ascii">
          -1.34617e-10 6.98615e-12 7.73643e-12 7.87524e-12 7.90833e-12 7.77173e-12 7.88476e-12 7.88453e-12 7.84185e-12 7.8759e-12 7.81037e-12 7.83373e-12
          7.81599e-12 7.81302e-12 7.80474e-12 7.8226e-12 7.80496e-12 7.81526e-12 7.81336e-12 7.81139e-12 7.80826e-12 7.8114e-12 7.87567e-12 1.53042e-10
          3.4289e-07 5.42558e-07 9.50305e-07 1.92892e-06 3.89029e-11 3.77034e-11
        </DataArray>
        <DataArray type="Float32" Name="m^w_nanoAu" NumberOfComponents="1" format="ascii">
          -9.76509e-11 3.15226e-14 3.49276e-14 3.55572e-14 3.56998e-14 3.50858e-14 3.55971e-14 3.55934e-14 3.54012e-14 3.55518e-14 3.52557e-14 3.53603e-14
          3.52796e-14 3.52656e-14 3.52289e-14 3.53091e-14 3.523e-14 3.52771e-14 3.52693e-14 3.52619e-14 3.52688e-14 3.70185e-14 1.97004e-13 1.49491e-11
          1.32617e-09 1.69862e-09 2.28613e-09 3.24707e-09 4.30913e-14 4.13286e-14
        </DataArray>
        <DataArray type="Float32" Name="m^w_cyanide" NumberOfComponents="1" format="ascii">
          0.18355 0.183556 0.183561 0.183565 0.183569 0.183572 0.183575 0.183578 0.183581 0.183583 0.183585 0.183587
          0.183588 0.183588 0.183588 0.183587 0.183584 0.18358 0.183574 0.183564 0.18355 0.183528 0.183494 0.183439
          0.183368 0.234772 0.316044 0.458209 0.746012 0.732095
        </DataArray>
        <DataArray type="Float32" Name="m^w_citrate" NumberOfComponents="1" format="ascii">
          0.749735 0.749742 0.749742 0.749742 0.749742 0.749741 0.749741 0.749741 0.749741 0.74974 0.74974 0.749739
          0.749738 0.749737 0.749735 0.749733 0.749729 0.749724 0.749717 0.749707 0.749693 0.74967 0.749636 0.749583
          0.749493 0.749338 0.749029 0.748306 0.746024 0.7321
        </DataArray>
        <DataArray type="Float32" Name="m^w_substrate" NumberOfComponents="1" format="ascii">
          3.92957e-08 5.22398e-08 7.28534e-08 1.02008e-07 1.42832e-07 2.00007e-07 2.80091e-07 3.92291e-07 5.49539e-07 7.70026e-07 1.07939e-06 1.51386e-06
          2.1248e-06 2.98538e-06 4.20044e-06 5.92145e-06 8.36942e-06 1.18712e-05 1.69183e-05 2.42659e-05 3.51062e-05 5.13877e-05 7.6438e-05 0.000116274
          0.000182623 0.000300779 0.000533683 0.00107495 0.00277041 0.0130756
        </DataArray>
        <DataArray type="Float32" Name="process rank" NumberOfComponents="1" format="ascii">
          0 0 0 0 0 0 0 0 0 0 0 0
          0 0 0 0 0 0 0 0 0 0 0 0
          0 0 0 0 0 0
        </DataArray>
      </CellData>
      <Points>
        <DataArray type="Float32" Name="Coordinates" NumberOfComponents="3" format="ascii">
          0 0 0 0.5 0 0 0 0.0333333 0 0.5 0.0333333 0
          0 0.0666667 0 0.5 0.0666667 0 0 0.1 0 0.5 0.1 0
          0 0.133333 0 0.5 0.133333 0 0 0.166667 0 0.5 0.166667 0
          0 0.2 0 0.5 0.2 0 0 0.233333 0 0.5 0.233333 0
          0 0.266667 0 0.5 0.266667 0 0 0.3 0 0.5 0.3 0
          0 0.333333 0 0.5 0.333333 0 0 0.366667 0 0.5 0.366667 0
          0 0.4 0 0.5 0.4 0 0 0.433333 0 0.5 0.433333 0
          0 0.466667 0 0.5 0.466667 0 0 0.5 0 0.5 0.5 0
          0 0.533333 0 0.5 0.533333 0 0 0.566667 0 0.5 0.566667 0
          0 0.6 0 0.5 0.6 0 0 0.633333 0 0.5 0.633333 0
          0 0.666667 0 0.5 0.666667 0 0 0.7 0 0.5 0.7 0
          0 0.733333 0 0.5 0.733333 0 0 0.766667 0 0.5 0.766667 0
          0 0.8 0 0.5 0.8 0 0 0.833333 0 0.5 0.833333 0
          0 0.866667 0 0.5 0.866667 0 0 0.9 0 0.5 0.9 0
          0 0.933333 0 0.5 0.933333 0 0 0.966667 0 0.5 0.966667 0
          0 1 0 0.5 1 0
        </DataArray>
      </Points>
      <Cells>
        <DataArray type="Int32" Name="connectivity" NumberOfComponents="1" format="ascii">
          0 1 3 2 2 3 5 4 4 5 7 6
          6 7 9 8 8 9 11 10 10 11 13 12
          12 13 15 14 14 15 17 16 16 17 19 18
          18 19 21 20 20 21 23 22 22 23 25 24
          24 25 27 26 26 27 29 28 28 29 31 30
          30 31 33 32 32 33 35 34 34 35 37 36
          36 37 39 38 38 39 41 40 40 41 43 42
          42 43 45 44 44 45 47 46 46 47 49 48
          48 49 51 50 50 51 53 52 52 53 55 54
          54 55 57 56 56 57 59 58 58 59 61 60
        </DataArray>
        <DataArray type="Int32" Name="offsets" NumberOfComponents="1" format="ascii">
          4 8 12 16 20 24 28 32 36 40 44 48
          52 56 60 64 68 72 76 80 84 88 92 96
          100 104 108 112 116 120
        </DataArray>
        <DataArray type="UInt8" Name="types" NumberOfComponents="1" format="ascii">
          9 9 9 9 9 9 9 9 9 9 9 9
          9 9 9 9 9 9 9 9 9 9 9 9
          9 9 9 9 9 9
        </DataArray>
      </Cells>
    </Piece>
  </UnstructuredGrid>
</VTKFile>
