<?xml version="1.0"?>
<VTKFile type="UnstructuredGrid" version="0.1" byte_order="LittleEndian">
  <UnstructuredGrid>
    <Piece NumberOfCells="30" NumberOfPoints="62">
      <CellData Scalars="Sg">
        <DataArray type="Float32" Name="Sg" NumberOfComponents="1" format="ascii">
          0 0 0 0 0 0 0 0 0 0 0 0
          0 0 0 0 0 0 0 0 0 0 0 0
          0 0 0 0 0 0
        </DataArray>
        <DataArray type="Float32" Name="Sl" NumberOfComponents="1" format="ascii">
          1 1 1 1 1 1 1 1 1 1 1 1
          1 1 1 1 1 1 1 1 1 1 1 1
          1 1 1 1 1 1
        </DataArray>
        <DataArray type="Float32" Name="pg" NumberOfComponents="1" format="ascii">
          24687.8 24360.9 24034 23707 23380.1 23053.1 22726.2 22399.3 22072.3 21745.4 21418.4 21091.5
          20764.6 20437.6 20110.7 19783.7 19456.8 19129.8 18802.9 18476 18149 17822.1 17495.1 17168.2
          16841.3 16514.3 16187.4 15860.4 15533.5 15209.7
        </DataArray>
        <DataArray type="Float32" Name="pl" NumberOfComponents="1" format="ascii">
          110628 110301 109974 109647 109320 108993 108666 108339 108012 107685 107358 107031
          106704 106377 106050 105723 105396 105070 104743 104416 104089 103762 103435 103108
          102781 102454 102127 101800 101473 101149
        </DataArray>
        <DataArray type="Float32" Name="pc" NumberOfComponents="1" format="ascii">
          -85939.7 -85939.7 -85939.7 -85939.7 -85939.7 -85939.7 -85939.7 -85939.7 -85939.7 -85939.7 -85939.7 -85939.7
          -85939.7 -85939.7 -85939.7 -85939.7 -85939.7 -85939.7 -85939.7 -85939.7 -85939.7 -85939.7 -85939.7 -85939.7
          -85939.7 -85939.7 -85939.7 -85939.7 -85939.7 -85939.7
        </DataArray>
        <DataArray type="Float32" Name="rhoL" NumberOfComponents="1" format="ascii">
          999.855 999.855 999.855 999.855 999.855 999.854 999.854 999.854 999.854 999.854 999.854 999.854
          999.853 999.853 999.853 999.853 999.853 999.853 999.852 999.852 999.852 999.852 999.852 999.852
          999.852 999.851 999.851 999.851 999.851 999.851
        </DataArray>
        <DataArray type="Float32" Name="rhoG" NumberOfComponents="1" format="ascii">
          0.30585 0.3018 0.29775 0.293699 0.289649 0.285598 0.281548 0.277498 0.273447 0.269397 0.265347 0.261296
          0.257246 0.253195 0.249145 0.245095 0.241044 0.236994 0.232944 0.228893 0.224843 0.220793 0.216742 0.212692
          0.208641 0.204591 0.200541 0.19649 0.19244 0.188428
        </DataArray>
        <DataArray type="Float32" Name="mobL" NumberOfComponents="1" format="ascii">
          722.171 722.17 722.17 722.17 722.17 722.17 722.169 722.169 722.169 722.169 722.169 722.169
          722.168 722.168 722.168 722.168 722.168 722.167 722.167 722.167 722.167 722.167 722.166 722.166
          722.166 722.166 722.166 722.166 722.165 722.165
        </DataArray>
        <DataArray type="Float32" Name="mobG" NumberOfComponents="1" format="ascii">
          0 0 0 0 0 0 0 0 0 0 0 0
          0 0 0 0 0 0 0 0 0 0 0 0
          0 0 0 0 0 0
        </DataArray>
        <DataArray type="Float32" Name="porosity" NumberOfComponents="1" format="ascii">
          0.298875 0.298875 0.298875 0.298874 0.298874 0.298874 0.298873 0.298872 0.298871 0.298869 0.298867 0.298864
          0.298859 0.298853 0.298845 0.298835 0.29882 0.2988 0.298773 0.298736 0.298685 0.298614 0.298511 0.298357
          0.297844 0.297421 0.296568 0.294282 0.282716 0.0447003
        </DataArray>
        <DataArray type="Float32" Name="temperature" NumberOfComponents="1" format="ascii">
          281.15 281.15 281.15 281.15 281.15 281.15 281.15 281.15 281.15 281.15 281.15 281.15
          281.15 281.15 281.15 281.15 281.15 281.15 281.15 281.15 281.15 281.15 281.15 281.15
          281.15 281.15 281.15 281.15 281.15 281.15
        </DataArray>
        <DataArray type="Float32" Name="phase presence" NumberOfComponents="1" format="ascii">
          1 1 1 1 1 1 1 1 1 1 1 1
          1 1 1 1 1 1 1 1 1 1 1 1
          1 1 1 1 1 1
        </DataArray>
        <DataArray type="Float32" Name="precipitateVolumeFraction_au" NumberOfComponents="1" format="ascii">
          5.52623e-10 5.52519e-10 5.52729e-10 5.5277e-10 5.52788e-10 5.52728e-10 5.5279e-10 5.52799e-10 5.5277e-10 5.52815e-10 5.5274e-10 5.52777e-10
          5.52747e-10 5.52741e-10 5.52717e-10 5.52772e-10 5.52705e-10 5.52749e-10 5.52742e-10 5.52734e-10 5.5271e-10 5.52753e-10 5.53081e-10 1.28972e-09
          0.000269941 0.000269925 0.0002699 0.000269848 5.52167e-10 5.51219e-10
        </DataArray>
        <DataArray type="Float32" Name="precipitateVolumeFraction_nanoAu" NumberOfComponents="1" format="ascii">
          1.21981e-13 1.21958e-13 1.22004e-13 1.22013e-13 1.22017e-13 1.22004e-13 1.22018e-13 1.22019e-13 1.22013e-13 1.22023e-13 1.22006e-13 1.22013e-13
          1.22006e-13 1.22004e-13 1.21998e-13 1.22009e-13 1.21992e-13 1.21999e-13 1.21994e-13 1.21988e-13 1.21976e-13 1.21992e-13 1.33555e-13 2.52104e-11
          5.95567e-08 7.62756e-08 1.02748e-07 1.48855e-07 4.97869e-13 4.90537e-13
        </DataArray>
        <DataArray type="Float32" Name="precipitateVolumeFraction_d" NumberOfComponents="1" format="ascii">
          0.000562595 0.000562653 0.000562734 0.000562848 0.000563008 0.000563232 0.000563545 0.000563981 0.000564587 0.000565424 0.000566578 0.000568163
          0.000570329 0.000573282 0.000577292 0.000582725 0.000590077 0.000600028 0.000613535 0.000631978 0.000657424 0.000693123 0.000744497 0.000821315
          0.000943047 0.00115445 0.00158102 0.00272399 0.00864212 0.12765
        </DataArray>
        <DataArray type="Float32" Name="precipitateVolumeFraction_p" NumberOfComponents="1" format="ascii">
          0.000562595 0.000562653 0.000562734 0.000562848 0.000563008 0.000563232 0.000563545 0.000563981 0.000564587 0.000565424 0.000566578 0.000568163
          0.000570329 0.000573282 0.000577292 0.000582725 0.000590077 0.000600028 0.000613535 0.000631978 0.000657424 0.000693123 0.000744497 0.000821315
          0.000943047 0.00115445 0.00158102 0.00272399 0.00864212 0.12765
        </DataArray>
        <DataArray type="Float32" Name="K" NumberOfComponents="1" format="ascii">
          9.85619e-11 9.85618e-11 9.85616e-11 9.85613e-11 9.85609e-11 9.85603e-11 9.85595e-11 9.85584e-11 9.85569e-11 9.85547e-11 9.85518e-11 9.85478e-11
          9.85423e-11 9.85348e-11 9.85246e-11 9.85108e-11 9.84921e-11 9.84668e-11 9.84325e-11 9.83857e-11 9.83212e-11 9.82307e-11 9.81006e-11 9.79063e-11
          9.72593e-11 9.67292e-11 9.56667e-11 9.28669e-11 7.97076e-11 1.77616e-13
        </DataArray>
        <DataArray type="Float32" Name="X^w_H2O" NumberOfComponents="1" format="ascii">
          0.999853 0.999853 0.999853 0.999853 0.999853 0.999853 0.999853 0.999853 0.999853 0.999853 0.999853 0.999853
          0.999853 0.999853 0.999853 0.999853 0.999853 0.999853 0.999853 0.999853 0.999853 0.999853 0.999853 0.999853
          0.999853 0.999852 0.99985 0.999846 0.999839 0.99984
        </DataArray>
        <DataArray type="Float32" Name="X^w_Air" NumberOfComponents="1" format="ascii">
          0 0 0 0 0 0 0 0 0 0 0 0
          0 0 0 0 0 0 0 0 0 0 0 0
          0 0 0 0 0 0
        </DataArray>
        <DataArray type="Float32" Name="X^w_AuComplex" NumberOfComponents="1" format="ascii">
          1.37617e-16 1.37592e-16 1.37644e-16 1.37654e-16 1.37659e-16 1.37644e-16 1.37659e-16 1.37661e-16 1.37654e-16 1.37664e-16 1.37645e-16 1.37653e-16
          1.37645e-16 1.37642e-16 1.37633e-16 1.37644e-16 1.37624e-16 1.3763e-16 1.37621e-16 1.37609e-16 1.37589e-16 1.37597e-16 1.50436e-16 2.84129e-14
          6.71513e-11 1.06301e-10 1.86465e-10 3.80045e-10 2.01937e-15 1.96692e-15
        </DataArray>
        <DataArray type="Float32" Name="X^w_nanoAu" NumberOfComponents="1" format="ascii">
          5.31267e-19 5.3117e-19 5.31371e-19 5.3141e-19 5.31426e-19 5.3137e-19 5.31428e-19 5.31435e-19 5.31408e-19 5.31448e-19 5.31376e-19 5.31408e-19
          5.31376e-19 5.31366e-19 5.31338e-19 5.31383e-19 5.31309e-19 5.31338e-19 5.31312e-19 5.31318e-19 5.34896e-19 8.7162e-19 3.20598e-17 2.91669e-15
          2.60137e-13 3.33373e-13 4.4937e-13 6.40721e-13 2.16241e-18 2.08392e-18
        </DataArray>
        <DataArray type="Float32" Name="X^w_cyanide" NumberOfComponents="1" format="ascii">
          4.76483e-06 4.76483e-06 4.76483e-06 4.76483e-06 4.76483e-06 4.76483e-06 4.76483e-06 4.76483e-06 4.76482e-06 4.76481e-06 4.7648e-06 4.76479e-06
          4.76476e-06 4.76474e-06 4.7647e-06 4.76464e-06 4.76457e-06 4.76447e-06 4.76434e-06 4.76415e-06 4.76389e-06 4.76353e-06 4.763e-06 4.76222e-06
          4.76146e-06 6.09759e-06 8.21205e-06 1.19191e-05 1.9465e-05 1.9239e-05
        </DataArray>
        <DataArray type="Float32" Name="X^w_citrate" NumberOfComponents="1" format="ascii">
          0.000141796 0.000141796 0.000141796 0.000141796 0.000141796 0.000141796 0.000141796 0.000141796 0.000141796 0.000141796 0.000141796 0.000141795
          0.000141795 0.000141795 0.000141795 0.000141794 0.000141794 0.000141793 0.000141792 0.000141791 0.000141789 0.000141786 0.000141782 0.000141777
          0.000141768 0.000141754 0.000141727 0.000141665 0.000141461 0.000139818
        </DataArray>
        <DataArray type="Float32" Name="X^w_substrate" NumberOfComponents="1" format="ascii">
          1.85497e-11 2.44483e-11 3.22209e-11 4.24625e-11 5.59577e-11 7.37408e-11 9.71768e-11 1.28068e-10 1.68796e-10 2.22516e-10 2.93414e-10 3.87058e-10
          5.10892e-10 6.7491e-10 8.92627e-10 1.18249e-09 1.56994e-09 2.09064e-09 2.79545e-09 3.75871e-09 5.09229e-09 6.97099e-09 9.6813e-09 1.37227e-08
          2.00395e-08 3.06268e-08 5.04269e-08 9.5055e-08 2.39916e-07 1.39829e-06
        </DataArray>
        <DataArray type="Float32" Name="m^w_H2O" NumberOfComponents="1" format="ascii">
          55492.6 55492.6 55492.6 55492.5 55492.5 55492.5 55492.5 55492.5 55492.5 55492.5 55492.5 55492.5
          55492.5 55492.5 55492.5 55492.4 55492.4 55492.4 55492.4 55492.4 55492.4 55492.4 55492.4 55492.4
          55492.4 55492.3 55492.2 55491.9 55491.5 55491.6
        </DataArray>
        <DataArray type="Float32" Name="m^w_Air" NumberOfComponents="1" format="ascii">
          0 0 0 0 0 0 0 0 0 0 0 0
          0 0 0 0 0 0 0 0 0 0 0 0
          0 0 0 0 0 0
        </DataArray>
        <DataArray type="Float32" Name="m^w_AuComplex" NumberOfComponents="1" format="ascii">
          6.9857e-13 6.98439e-13 6.98705e-13 6.98757e-13 6.98779e-13 6.98703e-13 6.98781e-13 6.98791e-13 6.98753e-13 6.98807e-13 6.98709e-13 6.98751e-13
          6.98708e-13 6.98692e-13 6.98651e-13 6.98707e-13 6.98601e-13 6.98631e-13 6.98585e-13 6.98525e-13 6.98426e-13 6.98465e-13 7.6364e-13 1.44229e-10
          3.40871e-07 5.396e-07 9.46528e-07 1.92917e-06 1.02506e-11 9.98439e-12
        </DataArray>
        <DataArray type="Float32" Name="m^w_nanoAu" NumberOfComponents="1" format="ascii">
          2.69681e-15 2.69632e-15 2.69733e-15 2.69753e-15 2.69761e-15 2.69733e-15 2.69762e-15 2.69766e-15 2.69752e-15 2.69772e-15 2.69735e-15 2.69752e-15
          2.69736e-15 2.69731e-15 2.69716e-15 2.69739e-15 2.69701e-15 2.69716e-15 2.69703e-15 2.69706e-15 2.71522e-15 4.42448e-15 1.62741e-13 1.48056e-11
          1.3205e-09 1.69225e-09 2.28108e-09 3.2524e-09 1.09767e-14 1.05783e-14
        </DataArray>
        <DataArray type="Float32" Name="m^w_cyanide" NumberOfComponents="1" format="ascii">
          0.183095 0.183095 0.183095 0.183095 0.183095 0.183095 0.183095 0.183095 0.183095 0.183094 0.183094 0.183093
          0.183092 0.183091 0.18309 0.183088 0.183085 0.183081 0.183076 0.183069 0.183059 0.183045 0.183024 0.182994
          0.182965 0.234308 0.315558 0.458005 0.747965 0.739281
        </DataArray>
        <DataArray type="Float32" Name="m^w_citrate" NumberOfComponents="1" format="ascii">
          0.749742 0.749742 0.749742 0.749742 0.749741 0.749741 0.749741 0.749741 0.74974 0.74974 0.749739 0.749738
          0.749737 0.749736 0.749734 0.749732 0.749729 0.749725 0.749719 0.749712 0.749702 0.749688 0.749667 0.749637
          0.749589 0.749515 0.749372 0.749045 0.747968 0.739282
        </DataArray>
        <DataArray type="Float32" Name="m^w_substrate" NumberOfComponents="1" format="ascii">
          1.02947e-07 1.35684e-07 1.7882e-07 2.35659e-07 3.10555e-07 4.09248e-07 5.39313e-07 7.10752e-07 9.36787e-07 1.23492e-06 1.62839e-06 2.1481e-06
          2.83535e-06 3.74562e-06 4.95391e-06 6.56257e-06 8.71285e-06 1.16026e-05 1.55142e-05 2.08601e-05 2.82612e-05 3.86876e-05 5.37293e-05 7.6158e-05
          0.000111215 0.000169972 0.000279859 0.000527536 0.00133149 0.0077602
        </DataArray>
        <DataArray type="Float32" Name="process rank" NumberOfComponents="1" format="ascii">
          0 0 0 0 0 0 0 0 0 0 0 0
          0 0 0 0 0 0 0 0 0 0 0 0
          0 0 0 0 0 0
        </DataArray>
      </CellData>
      <Points>
        <DataArray type="Float32" Name="Coordinates" NumberOfComponents="3" format="ascii">
          0 0 0 0.5 0 0 0 0.0333333 0 0.5 0.0333333 0
          0 0.0666667 0 0.5 0.0666667 0 0 0.1 0 0.5 0.1 0
          0 0.133333 0 0.5 0.133333 0 0 0.166667 0 0.5 0.166667 0
          0 0.2 0 0.5 0.2 0 0 0.233333 0 0.5 0.233333 0
          0 0.266667 0 0.5 0.266667 0 0 0.3 0 0.5 0.3 0
          0 0.333333 0 0.5 0.333333 0 0 0.366667 0 0.5 0.366667 0
          0 0.4 0 0.5 0.4 0 0 0.433333 0 0.5 0.433333 0
          0 0.466667 0 0.5 0.466667 0 0 0.5 0 0.5 0.5 0
          0 0.533333 0 0.5 0.533333 0 0 0.566667 0 0.5 0.566667 0
          0 0.6 0 0.5 0.6 0 0 0.633333 0 0.5 0.633333 0
          0 0.666667 0 0.5 0.666667 0 0 0.7 0 0.5 0.7 0
          0 0.733333 0 0.5 0.733333 0 0 0.766667 0 0.5 0.766667 0
          0 0.8 0 0.5 0.8 0 0 0.833333 0 0.5 0.833333 0
          0 0.866667 0 0.5 0.866667 0 0 0.9 0 0.5 0.9 0
          0 0.933333 0 0.5 0.933333 0 0 0.966667 0 0.5 0.966667 0
          0 1 0 0.5 1 0
        </DataArray>
      </Points>
      <Cells>
        <DataArray type="Int32" Name="connectivity" NumberOfComponents="1" format="ascii">
          0 1 3 2 2 3 5 4 4 5 7 6
          6 7 9 8 8 9 11 10 10 11 13 12
          12 13 15 14 14 15 17 16 16 17 19 18
          18 19 21 20 20 21 23 22 22 23 25 24
          24 25 27 26 26 27 29 28 28 29 31 30
          30 31 33 32 32 33 35 34 34 35 37 36
          36 37 39 38 38 39 41 40 40 41 43 42
          42 43 45 44 44 45 47 46 46 47 49 48
          48 49 51 50 50 51 53 52 52 53 55 54
          54 55 57 56 56 57 59 58 58 59 61 60
        </DataArray>
        <DataArray type="Int32" Name="offsets" NumberOfComponents="1" format="ascii">
          4 8 12 16 20 24 28 32 36 40 44 48
          52 56 60 64 68 72 76 80 84 88 92 96
          100 104 108 112 116 120
        </DataArray>
        <DataArray type="UInt8" Name="types" NumberOfComponents="1" format="ascii">
          9 9 9 9 9 9 9 9 9 9 9 9
          9 9 9 9 9 9 9 9 9 9 9 9
          9 9 9 9 9 9
        </DataArray>
      </Cells>
    </Piece>
  </UnstructuredGrid>
</VTKFile>
