<?xml version="1.0"?>
<VTKFile type="UnstructuredGrid" version="0.1" byte_order="LittleEndian">
  <UnstructuredGrid>
    <Piece NumberOfCells="30" NumberOfPoints="62">
      <CellData Scalars="Sg">
        <DataArray type="Float32" Name="Sg" NumberOfComponents="1" format="ascii">
          0 0 0 0 0 0 0 0 0 0 0 0
          0 0 0 0 0 0 0 0 0 0 0 0
          0 0 0 0 0 0
        </DataArray>
        <DataArray type="Float32" Name="Sl" NumberOfComponents="1" format="ascii">
          1 1 1 1 1 1 1 1 1 1 1 1
          1 1 1 1 1 1 1 1 1 1 1 1
          1 1 1 1 1 1
        </DataArray>
        <DataArray type="Float32" Name="pg" NumberOfComponents="1" format="ascii">
          24687.8 24360.9 24034 23707 23380.1 23053.1 22726.2 22399.3 22072.3 21745.4 21418.4 21091.5
          20764.6 20437.6 20110.7 19783.7 19456.8 19129.8 18802.9 18476 18149 17822.1 17495.1 17168.2
          16841.3 16514.3 16187.4 15860.4 15533.5 15208.2
        </DataArray>
        <DataArray type="Float32" Name="pl" NumberOfComponents="1" format="ascii">
          110628 110301 109974 109647 109320 108993 108666 108339 108012 107685 107358 107031
          106704 106377 106050 105723 105396 105070 104743 104416 104089 103762 103435 103108
          102781 102454 102127 101800 101473 101148
        </DataArray>
        <DataArray type="Float32" Name="pc" NumberOfComponents="1" format="ascii">
          -85939.7 -85939.7 -85939.7 -85939.7 -85939.7 -85939.7 -85939.7 -85939.7 -85939.7 -85939.7 -85939.7 -85939.7
          -85939.7 -85939.7 -85939.7 -85939.7 -85939.7 -85939.7 -85939.7 -85939.7 -85939.7 -85939.7 -85939.7 -85939.7
          -85939.7 -85939.7 -85939.7 -85939.7 -85939.7 -85939.7
        </DataArray>
        <DataArray type="Float32" Name="rhoL" NumberOfComponents="1" format="ascii">
          999.855 999.855 999.855 999.855 999.855 999.854 999.854 999.854 999.854 999.854 999.854 999.854
          999.853 999.853 999.853 999.853 999.853 999.853 999.852 999.852 999.852 999.852 999.852 999.852
          999.852 999.851 999.851 999.851 999.851 999.851
        </DataArray>
        <DataArray type="Float32" Name="rhoG" NumberOfComponents="1" format="ascii">
          0.30585 0.3018 0.29775 0.293699 0.289649 0.285598 0.281548 0.277498 0.273447 0.269397 0.265347 0.261296
          0.257246 0.253195 0.249145 0.245095 0.241044 0.236994 0.232944 0.228893 0.224843 0.220793 0.216742 0.212692
          0.208641 0.204591 0.200541 0.19649 0.19244 0.18841
        </DataArray>
        <DataArray type="Float32" Name="mobL" NumberOfComponents="1" format="ascii">
          722.171 722.17 722.17 722.17 722.17 722.17 722.169 722.169 722.169 722.169 722.169 722.169
          722.168 722.168 722.168 722.168 722.168 722.167 722.167 722.167 722.167 722.167 722.166 722.166
          722.166 722.166 722.166 722.166 722.165 722.165
        </DataArray>
        <DataArray type="Float32" Name="mobG" NumberOfComponents="1" format="ascii">
          0 0 0 0 0 0 0 0 0 0 0 0
          0 0 0 0 0 0 0 0 0 0 0 0
          0 0 0 0 0 0
        </DataArray>
        <DataArray type="Float32" Name="porosity" NumberOfComponents="1" format="ascii">
          0.298685 0.298685 0.298685 0.298685 0.298684 0.298684 0.298683 0.298682 0.298681 0.298679 0.298676 0.298673
          0.298668 0.298661 0.298652 0.29864 0.298623 0.2986 0.29857 0.298528 0.298471 0.298392 0.298278 0.298109
          0.297575 0.297125 0.296248 0.29404 0.28437 0.0549276
        </DataArray>
        <DataArray type="Float32" Name="temperature" NumberOfComponents="1" format="ascii">
          281.15 281.15 281.15 281.15 281.15 281.15 281.15 281.15 281.15 281.15 281.15 281.15
          281.15 281.15 281.15 281.15 281.15 281.15 281.15 281.15 281.15 281.15 281.15 281.15
          281.15 281.15 281.15 281.15 281.15 281.15
        </DataArray>
        <DataArray type="Float32" Name="phase presence" NumberOfComponents="1" format="ascii">
          1 1 1 1 1 1 1 1 1 1 1 1
          1 1 1 1 1 1 1 1 1 1 1 1
          1 1 1 1 1 1
        </DataArray>
        <DataArray type="Float32" Name="precipitateVolumeFraction_au" NumberOfComponents="1" format="ascii">
          5.52623e-10 5.52519e-10 5.52729e-10 5.5277e-10 5.52788e-10 5.52728e-10 5.5279e-10 5.52799e-10 5.5277e-10 5.52815e-10 5.5274e-10 5.52777e-10
          5.52747e-10 5.52741e-10 5.52716e-10 5.52772e-10 5.52705e-10 5.52749e-10 5.52742e-10 5.52734e-10 5.5271e-10 5.52753e-10 5.52912e-10 9.23478e-10
          0.000269941 0.000269925 0.000269899 0.00026985 5.52168e-10 5.5123e-10
        </DataArray>
        <DataArray type="Float32" Name="precipitateVolumeFraction_nanoAu" NumberOfComponents="1" format="ascii">
          1.22146e-13 1.2212e-13 1.22178e-13 1.22188e-13 1.22192e-13 1.22176e-13 1.22191e-13 1.22192e-13 1.22184e-13 1.22194e-13 1.22176e-13 1.22183e-13
          1.22176e-13 1.22173e-13 1.22166e-13 1.22177e-13 1.2216e-13 1.22167e-13 1.22162e-13 1.22156e-13 1.22144e-13 1.22161e-13 1.3368e-13 2.51635e-11
          5.9581e-08 7.63024e-08 1.02773e-07 1.48863e-07 4.97796e-13 4.90259e-13
        </DataArray>
        <DataArray type="Float32" Name="precipitateVolumeFraction_d" NumberOfComponents="1" format="ascii">
          0.000657442 0.000657506 0.000657597 0.000657725 0.000657904 0.000658156 0.000658509 0.000659 0.000659684 0.000660631 0.000661938 0.000663734
          0.00066619 0.000669537 0.000674083 0.000680238 0.000688559 0.000699808 0.000715046 0.000735797 0.000764327 0.000804161 0.000861115 0.000945514
          0.00107753 0.0013023 0.00174104 0.00284507 0.0078152 0.122536
        </DataArray>
        <DataArray type="Float32" Name="precipitateVolumeFraction_p" NumberOfComponents="1" format="ascii">
          0.000657442 0.000657506 0.000657597 0.000657725 0.000657904 0.000658156 0.000658509 0.000659 0.000659684 0.000660631 0.000661938 0.000663734
          0.00066619 0.000669537 0.000674083 0.000680238 0.000688559 0.000699808 0.000715046 0.000735797 0.000764327 0.000804161 0.000861115 0.000945514
          0.00107753 0.0013023 0.00174104 0.00284507 0.0078152 0.122536
        </DataArray>
        <DataArray type="Float32" Name="K" NumberOfComponents="1" format="ascii">
          9.83211e-11 9.8321e-11 9.83208e-11 9.83204e-11 9.832e-11 9.83193e-11 9.83184e-11 9.83172e-11 9.83155e-11 9.83131e-11 9.83097e-11 9.83052e-11
          9.8299e-11 9.82905e-11 9.8279e-11 9.82634e-11 9.82423e-11 9.82138e-11 9.81752e-11 9.81226e-11 9.80504e-11 9.79497e-11 9.78058e-11 9.75929e-11
          9.69218e-11 9.63598e-11 9.52706e-11 9.25743e-11 8.149e-11 3.36724e-13
        </DataArray>
        <DataArray type="Float32" Name="X^w_H2O" NumberOfComponents="1" format="ascii">
          0.999853 0.999853 0.999853 0.999853 0.999853 0.999853 0.999853 0.999853 0.999853 0.999853 0.999853 0.999853
          0.999853 0.999853 0.999853 0.999853 0.999853 0.999853 0.999853 0.999853 0.999853 0.999853 0.999853 0.999853
          0.999853 0.999852 0.99985 0.999846 0.999839 0.99984
        </DataArray>
        <DataArray type="Float32" Name="X^w_Air" NumberOfComponents="1" format="ascii">
          0 0 0 0 0 0 0 0 0 0 0 0
          0 0 0 0 0 0 0 0 0 0 0 0
          0 0 0 0 0 0
        </DataArray>
        <DataArray type="Float32" Name="X^w_AuComplex" NumberOfComponents="1" format="ascii">
          1.37826e-16 1.37796e-16 1.37859e-16 1.3787e-16 1.37874e-16 1.37856e-16 1.37872e-16 1.37873e-16 1.37864e-16 1.37874e-16 1.37853e-16 1.37861e-16
          1.37851e-16 1.37848e-16 1.37839e-16 1.3785e-16 1.37829e-16 1.37835e-16 1.37826e-16 1.37815e-16 1.37796e-16 1.37803e-16 1.50596e-16 2.83665e-14
          6.71957e-11 1.06363e-10 1.86543e-10 3.80076e-10 2.01845e-15 1.96472e-15
        </DataArray>
        <DataArray type="Float32" Name="X^w_nanoAu" NumberOfComponents="1" format="ascii">
          5.31986e-19 5.31877e-19 5.32127e-19 5.32172e-19 5.32188e-19 5.3212e-19 5.32184e-19 5.32189e-19 5.32156e-19 5.32197e-19 5.32117e-19 5.3215e-19
          5.32115e-19 5.32104e-19 5.32074e-19 5.3212e-19 5.32044e-19 5.32074e-19 5.32049e-19 5.32055e-19 5.3564e-19 8.72844e-19 3.20938e-17 2.9187e-15
          2.60246e-13 3.3349e-13 4.49468e-13 6.40691e-13 2.16139e-18 2.08151e-18
        </DataArray>
        <DataArray type="Float32" Name="X^w_cyanide" NumberOfComponents="1" format="ascii">
          4.76661e-06 4.7666e-06 4.76658e-06 4.76656e-06 4.76654e-06 4.76652e-06 4.7665e-06 4.76648e-06 4.76646e-06 4.76644e-06 4.76642e-06 4.76639e-06
          4.76636e-06 4.76632e-06 4.76628e-06 4.76622e-06 4.76615e-06 4.76606e-06 4.76593e-06 4.76575e-06 4.76551e-06 4.76515e-06 4.76462e-06 4.76382e-06
          4.76298e-06 6.09928e-06 8.21366e-06 1.19194e-05 1.94588e-05 1.92276e-05
        </DataArray>
        <DataArray type="Float32" Name="X^w_citrate" NumberOfComponents="1" format="ascii">
          0.000141796 0.000141796 0.000141796 0.000141796 0.000141796 0.000141796 0.000141796 0.000141796 0.000141796 0.000141796 0.000141796 0.000141796
          0.000141796 0.000141795 0.000141795 0.000141795 0.000141795 0.000141794 0.000141793 0.000141792 0.00014179 0.000141788 0.000141784 0.000141778
          0.000141769 0.000141753 0.000141723 0.000141651 0.000141416 0.000139736
        </DataArray>
        <DataArray type="Float32" Name="X^w_substrate" NumberOfComponents="1" format="ascii">
          6.74668e-12 9.24688e-12 1.26729e-11 1.73675e-11 2.38003e-11 3.26156e-11 4.46968e-11 6.12567e-11 8.39618e-11 1.15105e-10 1.57848e-10 2.16561e-10
          2.97304e-10 4.08527e-10 5.62077e-10 7.74705e-10 1.07035e-09 1.48367e-09 2.06577e-09 2.89362e-09 4.08649e-09 5.83585e-09 8.46345e-09 1.25428e-08
          1.9179e-08 3.07403e-08 5.31313e-08 1.04859e-07 2.71622e-07 1.45662e-06
        </DataArray>
        <DataArray type="Float32" Name="m^w_H2O" NumberOfComponents="1" format="ascii">
          55492.6 55492.6 55492.6 55492.5 55492.5 55492.5 55492.5 55492.5 55492.5 55492.5 55492.5 55492.5
          55492.5 55492.5 55492.5 55492.4 55492.4 55492.4 55492.4 55492.4 55492.4 55492.4 55492.4 55492.4
          55492.4 55492.3 55492.2 55491.9 55491.5 55491.6
        </DataArray>
        <DataArray type="Float32" Name="m^w_Air" NumberOfComponents="1" format="ascii">
          0 0 0 0 0 0 0 0 0 0 0 0
          0 0 0 0 0 0 0 0 0 0 0 0
          0 0 0 0 0 0
        </DataArray>
        <DataArray type="Float32" Name="m^w_AuComplex" NumberOfComponents="1" format="ascii">
          6.99628e-13 6.99479e-13 6.99797e-13 6.99853e-13 6.99873e-13 6.99781e-13 6.99862e-13 6.99867e-13 6.99821e-13 6.99873e-13 6.99766e-13 6.99806e-13
          6.99757e-13 6.99739e-13 6.99694e-13 6.9975e-13 6.99643e-13 6.99673e-13 6.99629e-13 6.9957e-13 6.99473e-13 6.99512e-13 7.64452e-13 1.43993e-10
          3.41096e-07 5.39915e-07 9.46923e-07 1.92933e-06 1.0246e-11 9.97323e-12
        </DataArray>
        <DataArray type="Float32" Name="m^w_nanoAu" NumberOfComponents="1" format="ascii">
          2.70046e-15 2.6999e-15 2.70117e-15 2.7014e-15 2.70148e-15 2.70113e-15 2.70146e-15 2.70148e-15 2.70132e-15 2.70152e-15 2.70112e-15 2.70128e-15
          2.70111e-15 2.70105e-15 2.7009e-15 2.70113e-15 2.70074e-15 2.70089e-15 2.70077e-15 2.7008e-15 2.719e-15 4.4307e-15 1.62914e-13 1.48158e-11
          1.32105e-09 1.69285e-09 2.28157e-09 3.25225e-09 1.09716e-14 1.05661e-14
        </DataArray>
        <DataArray type="Float32" Name="m^w_cyanide" NumberOfComponents="1" format="ascii">
          0.183164 0.183163 0.183162 0.183162 0.183161 0.18316 0.183159 0.183159 0.183158 0.183157 0.183156 0.183155
          0.183154 0.183152 0.183151 0.183148 0.183146 0.183142 0.183137 0.18313 0.183121 0.183107 0.183087 0.183056
          0.183024 0.234373 0.31562 0.458018 0.747727 0.738843
        </DataArray>
        <DataArray type="Float32" Name="m^w_citrate" NumberOfComponents="1" format="ascii">
          0.749742 0.749742 0.749742 0.749742 0.749742 0.749741 0.749741 0.749741 0.749741 0.74974 0.74974 0.749739
          0.749739 0.749738 0.749736 0.749735 0.749732 0.749729 0.749725 0.749718 0.749709 0.749696 0.749676 0.749646
          0.749596 0.749514 0.749352 0.748972 0.74773 0.738845
        </DataArray>
        <DataArray type="Float32" Name="m^w_substrate" NumberOfComponents="1" format="ascii">
          3.74428e-08 5.13185e-08 7.03323e-08 9.63862e-08 1.32088e-07 1.81011e-07 2.48059e-07 3.39963e-07 4.65972e-07 6.38812e-07 8.76027e-07 1.20187e-06
          1.64998e-06 2.26725e-06 3.11942e-06 4.29946e-06 5.94022e-06 8.23409e-06 1.14646e-05 1.6059e-05 2.26792e-05 3.23878e-05 4.69704e-05 6.96099e-05
          0.00010644 0.000170602 0.000294868 0.000581944 0.00150745 0.00808392
        </DataArray>
        <DataArray type="Float32" Name="process rank" NumberOfComponents="1" format="ascii">
          0 0 0 0 0 0 0 0 0 0 0 0
          0 0 0 0 0 0 0 0 0 0 0 0
          0 0 0 0 0 0
        </DataArray>
      </CellData>
      <Points>
        <DataArray type="Float32" Name="Coordinates" NumberOfComponents="3" format="ascii">
          0 0 0 0.5 0 0 0 0.0333333 0 0.5 0.0333333 0
          0 0.0666667 0 0.5 0.0666667 0 0 0.1 0 0.5 0.1 0
          0 0.133333 0 0.5 0.133333 0 0 0.166667 0 0.5 0.166667 0
          0 0.2 0 0.5 0.2 0 0 0.233333 0 0.5 0.233333 0
          0 0.266667 0 0.5 0.266667 0 0 0.3 0 0.5 0.3 0
          0 0.333333 0 0.5 0.333333 0 0 0.366667 0 0.5 0.366667 0
          0 0.4 0 0.5 0.4 0 0 0.433333 0 0.5 0.433333 0
          0 0.466667 0 0.5 0.466667 0 0 0.5 0 0.5 0.5 0
          0 0.533333 0 0.5 0.533333 0 0 0.566667 0 0.5 0.566667 0
          0 0.6 0 0.5 0.6 0 0 0.633333 0 0.5 0.633333 0
          0 0.666667 0 0.5 0.666667 0 0 0.7 0 0.5 0.7 0
          0 0.733333 0 0.5 0.733333 0 0 0.766667 0 0.5 0.766667 0
          0 0.8 0 0.5 0.8 0 0 0.833333 0 0.5 0.833333 0
          0 0.866667 0 0.5 0.866667 0 0 0.9 0 0.5 0.9 0
          0 0.933333 0 0.5 0.933333 0 0 0.966667 0 0.5 0.966667 0
          0 1 0 0.5 1 0
        </DataArray>
      </Points>
      <Cells>
        <DataArray type="Int32" Name="connectivity" NumberOfComponents="1" format="ascii">
          0 1 3 2 2 3 5 4 4 5 7 6
          6 7 9 8 8 9 11 10 10 11 13 12
          12 13 15 14 14 15 17 16 16 17 19 18
          18 19 21 20 20 21 23 22 22 23 25 24
          24 25 27 26 26 27 29 28 28 29 31 30
          30 31 33 32 32 33 35 34 34 35 37 36
          36 37 39 38 38 39 41 40 40 41 43 42
          42 43 45 44 44 45 47 46 46 47 49 48
          48 49 51 50 50 51 53 52 52 53 55 54
          54 55 57 56 56 57 59 58 58 59 61 60
        </DataArray>
        <DataArray type="Int32" Name="offsets" NumberOfComponents="1" format="ascii">
          4 8 12 16 20 24 28 32 36 40 44 48
          52 56 60 64 68 72 76 80 84 88 92 96
          100 104 108 112 116 120
        </DataArray>
        <DataArray type="UInt8" Name="types" NumberOfComponents="1" format="ascii">
          9 9 9 9 9 9 9 9 9 9 9 9
          9 9 9 9 9 9 9 9 9 9 9 9
          9 9 9 9 9 9
        </DataArray>
      </Cells>
    </Piece>
  </UnstructuredGrid>
</VTKFile>
