<?xml version="1.0"?>
<VTKFile type="UnstructuredGrid" version="0.1" byte_order="LittleEndian">
  <UnstructuredGrid>
    <Piece NumberOfCells="30" NumberOfPoints="62">
      <CellData Scalars="Sg">
        <DataArray type="Float32" Name="Sg" NumberOfComponents="1" format="ascii">
          0 0 0 0 0 0 0 0 0 0 0 0
          0 0 0 0 0 0 0 0 0 0 0 0
          0 0 0 0 0 0
        </DataArray>
        <DataArray type="Float32" Name="Sl" NumberOfComponents="1" format="ascii">
          1 1 1 1 1 1 1 1 1 1 1 1
          1 1 1 1 1 1 1 1 1 1 1 1
          1 1 1 1 1 1
        </DataArray>
        <DataArray type="Float32" Name="pg" NumberOfComponents="1" format="ascii">
          24687.8 24360.9 24034 23707 23380.1 23053.1 22726.2 22399.3 22072.3 21745.4 21418.4 21091.5
          20764.6 20437.6 20110.7 19783.7 19456.8 19129.8 18802.9 18476 18149 17822.1 17495.1 17168.2
          16841.3 16514.3 16187.4 15860.4 15533.5 15208
        </DataArray>
        <DataArray type="Float32" Name="pl" NumberOfComponents="1" format="ascii">
          110628 110301 109974 109647 109320 108993 108666 108339 108012 107685 107358 107031
          106704 106377 106050 105723 105396 105070 104743 104416 104089 103762 103435 103108
          102781 102454 102127 101800 101473 101148
        </DataArray>
        <DataArray type="Float32" Name="pc" NumberOfComponents="1" format="ascii">
          -85939.7 -85939.7 -85939.7 -85939.7 -85939.7 -85939.7 -85939.7 -85939.7 -85939.7 -85939.7 -85939.7 -85939.7
          -85939.7 -85939.7 -85939.7 -85939.7 -85939.7 -85939.7 -85939.7 -85939.7 -85939.7 -85939.7 -85939.7 -85939.7
          -85939.7 -85939.7 -85939.7 -85939.7 -85939.7 -85939.7
        </DataArray>
        <DataArray type="Float32" Name="rhoL" NumberOfComponents="1" format="ascii">
          999.855 999.855 999.855 999.855 999.855 999.854 999.854 999.854 999.854 999.854 999.854 999.854
          999.853 999.853 999.853 999.853 999.853 999.853 999.852 999.852 999.852 999.852 999.852 999.852
          999.852 999.851 999.851 999.851 999.851 999.851
        </DataArray>
        <DataArray type="Float32" Name="rhoG" NumberOfComponents="1" format="ascii">
          0.30585 0.3018 0.29775 0.293699 0.289649 0.285598 0.281548 0.277498 0.273447 0.269397 0.265347 0.261296
          0.257246 0.253195 0.249145 0.245095 0.241044 0.236994 0.232944 0.228893 0.224843 0.220793 0.216742 0.212692
          0.208641 0.204591 0.200541 0.19649 0.19244 0.188407
        </DataArray>
        <DataArray type="Float32" Name="mobL" NumberOfComponents="1" format="ascii">
          722.171 722.17 722.17 722.17 722.17 722.17 722.169 722.169 722.169 722.169 722.169 722.169
          722.168 722.168 722.168 722.168 722.168 722.167 722.167 722.167 722.167 722.167 722.166 722.166
          722.166 722.166 722.166 722.166 722.165 722.165
        </DataArray>
        <DataArray type="Float32" Name="mobG" NumberOfComponents="1" format="ascii">
          0 0 0 0 0 0 0 0 0 0 0 0
          0 0 0 0 0 0 0 0 0 0 0 0
          0 0 0 0 0 0
        </DataArray>
        <DataArray type="Float32" Name="porosity" NumberOfComponents="1" format="ascii">
          0.298673 0.298673 0.298673 0.298672 0.298672 0.298672 0.298671 0.29867 0.298668 0.298667 0.298664 0.29866
          0.298655 0.298649 0.298639 0.298627 0.29861 0.298588 0.298557 0.298515 0.298458 0.298377 0.298263 0.298093
          0.297558 0.297107 0.296229 0.294029 0.284498 0.0575298
        </DataArray>
        <DataArray type="Float32" Name="temperature" NumberOfComponents="1" format="ascii">
          281.15 281.15 281.15 281.15 281.15 281.15 281.15 281.15 281.15 281.15 281.15 281.15
          281.15 281.15 281.15 281.15 281.15 281.15 281.15 281.15 281.15 281.15 281.15 281.15
          281.15 281.15 281.15 281.15 281.15 281.15
        </DataArray>
        <DataArray type="Float32" Name="phase presence" NumberOfComponents="1" format="ascii">
          1 1 1 1 1 1 1 1 1 1 1 1
          1 1 1 1 1 1 1 1 1 1 1 1
          1 1 1 1 1 1
        </DataArray>
        <DataArray type="Float32" Name="precipitateVolumeFraction_au" NumberOfComponents="1" format="ascii">
          5.52622e-10 5.52518e-10 5.52729e-10 5.5277e-10 5.52788e-10 5.52728e-10 5.5279e-10 5.52799e-10 5.5277e-10 5.52815e-10 5.5274e-10 5.52776e-10
          5.52746e-10 5.52741e-10 5.52716e-10 5.52772e-10 5.52704e-10 5.52749e-10 5.52742e-10 5.52734e-10 5.5271e-10 5.52752e-10 5.52901e-10 9.01909e-10
          0.000269941 0.000269925 0.000269899 0.00026985 5.52168e-10 5.5123e-10
        </DataArray>
        <DataArray type="Float32" Name="precipitateVolumeFraction_nanoAu" NumberOfComponents="1" format="ascii">
          1.22303e-13 1.22273e-13 1.22347e-13 1.2236e-13 1.22365e-13 1.22346e-13 1.22363e-13 1.22364e-13 1.22355e-13 1.22366e-13 1.22346e-13 1.22354e-13
          1.22345e-13 1.22342e-13 1.22335e-13 1.22347e-13 1.22329e-13 1.22336e-13 1.22331e-13 1.22324e-13 1.22313e-13 1.22329e-13 1.3385e-13 2.51666e-11
          5.95864e-08 7.63083e-08 1.02779e-07 1.48865e-07 4.97918e-13 4.90302e-13
        </DataArray>
        <DataArray type="Float32" Name="precipitateVolumeFraction_d" NumberOfComponents="1" format="ascii">
          0.000663525 0.00066359 0.000663681 0.00066381 0.000663991 0.000664244 0.0006646 0.000665095 0.000665785 0.000666739 0.000668057 0.000669866
          0.000672342 0.000675716 0.000680297 0.0006865 0.000694885 0.000706219 0.00072157 0.00074247 0.000771198 0.000811296 0.0008686 0.000953465
          0.00108609 0.00131158 0.0017507 0.00285071 0.00775111 0.121235
        </DataArray>
        <DataArray type="Float32" Name="precipitateVolumeFraction_p" NumberOfComponents="1" format="ascii">
          0.000663525 0.00066359 0.000663681 0.00066381 0.000663991 0.000664244 0.0006646 0.000665095 0.000665785 0.000666739 0.000668057 0.000669866
          0.000672342 0.000675716 0.000680297 0.0006865 0.000694885 0.000706219 0.00072157 0.00074247 0.000771198 0.000811296 0.0008686 0.000953465
          0.00108609 0.00131158 0.0017507 0.00285071 0.00775111 0.121235
        </DataArray>
        <DataArray type="Float32" Name="K" NumberOfComponents="1" format="ascii">
          9.83057e-11 9.83056e-11 9.83053e-11 9.8305e-11 9.83045e-11 9.83039e-11 9.8303e-11 9.83017e-11 9.83e-11 9.82976e-11 9.82942e-11 9.82896e-11
          9.82834e-11 9.82748e-11 9.82632e-11 9.82475e-11 9.82262e-11 9.81975e-11 9.81586e-11 9.81057e-11 9.8033e-11 9.79316e-11 9.77869e-11 9.75728e-11
          9.69003e-11 9.63367e-11 9.52467e-11 9.25607e-11 8.16295e-11 3.89024e-13
        </DataArray>
        <DataArray type="Float32" Name="X^w_H2O" NumberOfComponents="1" format="ascii">
          0.999853 0.999853 0.999853 0.999853 0.999853 0.999853 0.999853 0.999853 0.999853 0.999853 0.999853 0.999853
          0.999853 0.999853 0.999853 0.999853 0.999853 0.999853 0.999853 0.999853 0.999853 0.999853 0.999853 0.999853
          0.999853 0.999852 0.99985 0.999846 0.999839 0.99984
        </DataArray>
        <DataArray type="Float32" Name="X^w_Air" NumberOfComponents="1" format="ascii">
          0 0 0 0 0 0 0 0 0 0 0 0
          0 0 0 0 0 0 0 0 0 0 0 0
          0 0 0 0 0 0
        </DataArray>
        <DataArray type="Float32" Name="X^w_AuComplex" NumberOfComponents="1" format="ascii">
          1.37988e-16 1.37955e-16 1.38033e-16 1.38047e-16 1.38051e-16 1.3803e-16 1.38048e-16 1.38049e-16 1.38038e-16 1.38049e-16 1.38026e-16 1.38035e-16
          1.38024e-16 1.3802e-16 1.38011e-16 1.38022e-16 1.38001e-16 1.38007e-16 1.37998e-16 1.37986e-16 1.37966e-16 1.37974e-16 1.50769e-16 2.83715e-14
          6.72055e-11 1.06376e-10 1.8656e-10 3.80087e-10 2.01883e-15 1.96458e-15
        </DataArray>
        <DataArray type="Float32" Name="X^w_nanoAu" NumberOfComponents="1" format="ascii">
          5.32669e-19 5.32545e-19 5.32865e-19 5.32923e-19 5.32941e-19 5.32859e-19 5.32933e-19 5.32937e-19 5.329e-19 5.32943e-19 5.32857e-19 5.32891e-19
          5.32854e-19 5.32842e-19 5.32811e-19 5.32858e-19 5.3278e-19 5.3281e-19 5.32784e-19 5.3279e-19 5.36375e-19 8.737e-19 3.21031e-17 2.91922e-15
          2.60269e-13 3.33514e-13 4.49489e-13 6.4069e-13 2.16182e-18 2.08136e-18
        </DataArray>
        <DataArray type="Float32" Name="X^w_cyanide" NumberOfComponents="1" format="ascii">
          4.76708e-06 4.76706e-06 4.76703e-06 4.76701e-06 4.76699e-06 4.76697e-06 4.76694e-06 4.76692e-06 4.76689e-06 4.76687e-06 4.76684e-06 4.76681e-06
          4.76677e-06 4.76673e-06 4.76668e-06 4.76662e-06 4.76655e-06 4.76645e-06 4.76632e-06 4.76614e-06 4.76589e-06 4.76552e-06 4.76499e-06 4.76417e-06
          4.76331e-06 6.09964e-06 8.21401e-06 1.19196e-05 1.94578e-05 1.92245e-05
        </DataArray>
        <DataArray type="Float32" Name="X^w_citrate" NumberOfComponents="1" format="ascii">
          0.000141796 0.000141796 0.000141796 0.000141796 0.000141796 0.000141796 0.000141796 0.000141796 0.000141796 0.000141796 0.000141796 0.000141796
          0.000141796 0.000141795 0.000141795 0.000141795 0.000141795 0.000141794 0.000141793 0.000141792 0.00014179 0.000141788 0.000141784 0.000141778
          0.000141769 0.000141753 0.000141722 0.000141648 0.000141409 0.000139714
        </DataArray>
        <DataArray type="Float32" Name="X^w_substrate" NumberOfComponents="1" format="ascii">
          6.41695e-12 8.81555e-12 1.21101e-11 1.6635e-11 2.285e-11 3.13868e-11 4.31137e-11 5.92258e-11 8.13689e-11 1.11813e-10 1.53694e-10 2.11359e-10
          2.90849e-10 4.00604e-10 5.52486e-10 7.63305e-10 1.05713e-09 1.4689e-09 2.0502e-09 2.87891e-09 4.07593e-09 5.83568e-09 8.4854e-09 1.26092e-08
          1.93343e-08 3.10778e-08 5.38694e-08 1.06593e-07 2.76418e-07 1.47224e-06
        </DataArray>
        <DataArray type="Float32" Name="m^w_H2O" NumberOfComponents="1" format="ascii">
          55492.6 55492.6 55492.6 55492.5 55492.5 55492.5 55492.5 55492.5 55492.5 55492.5 55492.5 55492.5
          55492.5 55492.5 55492.5 55492.4 55492.4 55492.4 55492.4 55492.4 55492.4 55492.4 55492.4 55492.4
          55492.4 55492.3 55492.2 55491.9 55491.5 55491.6
        </DataArray>
        <DataArray type="Float32" Name="m^w_Air" NumberOfComponents="1" format="ascii">
          0 0 0 0 0 0 0 0 0 0 0 0
          0 0 0 0 0 0 0 0 0 0 0 0
          0 0 0 0 0 0
        </DataArray>
        <DataArray type="Float32" Name="m^w_AuComplex" NumberOfComponents="1" format="ascii">
          7.00451e-13 7.00285e-13 7.00681e-13 7.0075e-13 7.00771e-13 7.00664e-13 7.00755e-13 7.00759e-13 7.00707e-13 7.00761e-13 7.00646e-13 7.00687e-13
          7.00635e-13 7.00615e-13 7.00569e-13 7.00625e-13 7.00515e-13 7.00545e-13 7.00499e-13 7.00439e-13 7.0034e-13 7.00377e-13 7.6533e-13 1.44018e-10
          3.41146e-07 5.39983e-07 9.4701e-07 1.92938e-06 1.02479e-11 9.97252e-12
        </DataArray>
        <DataArray type="Float32" Name="m^w_nanoAu" NumberOfComponents="1" format="ascii">
          2.70392e-15 2.70329e-15 2.70492e-15 2.70521e-15 2.7053e-15 2.70489e-15 2.70526e-15 2.70528e-15 2.70509e-15 2.70531e-15 2.70487e-15 2.70505e-15
          2.70486e-15 2.7048e-15 2.70464e-15 2.70488e-15 2.70448e-15 2.70463e-15 2.7045e-15 2.70453e-15 2.72273e-15 4.43505e-15 1.62961e-13 1.48184e-11
          1.32117e-09 1.69297e-09 2.28168e-09 3.25224e-09 1.09737e-14 1.05653e-14
        </DataArray>
        <DataArray type="Float32" Name="m^w_cyanide" NumberOfComponents="1" format="ascii">
          0.183182 0.183181 0.18318 0.183179 0.183178 0.183177 0.183176 0.183175 0.183174 0.183173 0.183172 0.183171
          0.18317 0.183168 0.183166 0.183164 0.183161 0.183157 0.183152 0.183145 0.183135 0.183121 0.183101 0.183069
          0.183036 0.234387 0.315634 0.458024 0.747691 0.738726
        </DataArray>
        <DataArray type="Float32" Name="m^w_citrate" NumberOfComponents="1" format="ascii">
          0.749742 0.749742 0.749742 0.749742 0.749742 0.749741 0.749741 0.749741 0.749741 0.74974 0.74974 0.749739
          0.749739 0.749738 0.749737 0.749735 0.749732 0.749729 0.749725 0.749718 0.749709 0.749696 0.749676 0.749645
          0.749595 0.749511 0.749346 0.748959 0.747694 0.738728
        </DataArray>
        <DataArray type="Float32" Name="m^w_substrate" NumberOfComponents="1" format="ascii">
          3.56129e-08 4.89247e-08 6.72086e-08 9.23212e-08 1.26813e-07 1.74191e-07 2.39273e-07 3.28692e-07 4.51582e-07 6.2054e-07 8.52975e-07 1.173e-06
          1.61416e-06 2.22327e-06 3.06619e-06 4.23619e-06 5.86687e-06 8.15209e-06 1.13782e-05 1.59774e-05 2.26206e-05 3.23869e-05 4.70923e-05 6.99787e-05
          0.000107301 0.000172476 0.000298964 0.000591572 0.00153406 0.00817064
        </DataArray>
        <DataArray type="Float32" Name="process rank" NumberOfComponents="1" format="ascii">
          0 0 0 0 0 0 0 0 0 0 0 0
          0 0 0 0 0 0 0 0 0 0 0 0
          0 0 0 0 0 0
        </DataArray>
      </CellData>
      <Points>
        <DataArray type="Float32" Name="Coordinates" NumberOfComponents="3" format="ascii">
          0 0 0 0.5 0 0 0 0.0333333 0 0.5 0.0333333 0
          0 0.0666667 0 0.5 0.0666667 0 0 0.1 0 0.5 0.1 0
          0 0.133333 0 0.5 0.133333 0 0 0.166667 0 0.5 0.166667 0
          0 0.2 0 0.5 0.2 0 0 0.233333 0 0.5 0.233333 0
          0 0.266667 0 0.5 0.266667 0 0 0.3 0 0.5 0.3 0
          0 0.333333 0 0.5 0.333333 0 0 0.366667 0 0.5 0.366667 0
          0 0.4 0 0.5 0.4 0 0 0.433333 0 0.5 0.433333 0
          0 0.466667 0 0.5 0.466667 0 0 0.5 0 0.5 0.5 0
          0 0.533333 0 0.5 0.533333 0 0 0.566667 0 0.5 0.566667 0
          0 0.6 0 0.5 0.6 0 0 0.633333 0 0.5 0.633333 0
          0 0.666667 0 0.5 0.666667 0 0 0.7 0 0.5 0.7 0
          0 0.733333 0 0.5 0.733333 0 0 0.766667 0 0.5 0.766667 0
          0 0.8 0 0.5 0.8 0 0 0.833333 0 0.5 0.833333 0
          0 0.866667 0 0.5 0.866667 0 0 0.9 0 0.5 0.9 0
          0 0.933333 0 0.5 0.933333 0 0 0.966667 0 0.5 0.966667 0
          0 1 0 0.5 1 0
        </DataArray>
      </Points>
      <Cells>
        <DataArray type="Int32" Name="connectivity" NumberOfComponents="1" format="ascii">
          0 1 3 2 2 3 5 4 4 5 7 6
          6 7 9 8 8 9 11 10 10 11 13 12
          12 13 15 14 14 15 17 16 16 17 19 18
          18 19 21 20 20 21 23 22 22 23 25 24
          24 25 27 26 26 27 29 28 28 29 31 30
          30 31 33 32 32 33 35 34 34 35 37 36
          36 37 39 38 38 39 41 40 40 41 43 42
          42 43 45 44 44 45 47 46 46 47 49 48
          48 49 51 50 50 51 53 52 52 53 55 54
          54 55 57 56 56 57 59 58 58 59 61 60
        </DataArray>
        <DataArray type="Int32" Name="offsets" NumberOfComponents="1" format="ascii">
          4 8 12 16 20 24 28 32 36 40 44 48
          52 56 60 64 68 72 76 80 84 88 92 96
          100 104 108 112 116 120
        </DataArray>
        <DataArray type="UInt8" Name="types" NumberOfComponents="1" format="ascii">
          9 9 9 9 9 9 9 9 9 9 9 9
          9 9 9 9 9 9 9 9 9 9 9 9
          9 9 9 9 9 9
        </DataArray>
      </Cells>
    </Piece>
  </UnstructuredGrid>
</VTKFile>
