<?xml version="1.0"?>
<VTKFile type="UnstructuredGrid" version="0.1" byte_order="LittleEndian">
  <UnstructuredGrid>
    <Piece NumberOfCells="30" NumberOfPoints="62">
      <CellData Scalars="Sg">
        <DataArray type="Float32" Name="Sg" NumberOfComponents="1" format="ascii">
          0 0 0 0 0 0 0 0 0 0 0 0
          0 0 0 0 0 0 0 0 0 0 0 0
          0 0 0 0 0 0
        </DataArray>
        <DataArray type="Float32" Name="Sl" NumberOfComponents="1" format="ascii">
          1 1 1 1 1 1 1 1 1 1 1 1
          1 1 1 1 1 1 1 1 1 1 1 1
          1 1 1 1 1 1
        </DataArray>
        <DataArray type="Float32" Name="pg" NumberOfComponents="1" format="ascii">
          24687.8 24360.9 24034 23707 23380.1 23053.1 22726.2 22399.3 22072.3 21745.4 21418.4 21091.5
          20764.6 20437.6 20110.7 19783.7 19456.8 19129.8 18802.9 18476 18149 17822.1 17495.1 17168.2
          16841.3 16514.3 16187.4 15860.4 15533.5 15209.6
        </DataArray>
        <DataArray type="Float32" Name="pl" NumberOfComponents="1" format="ascii">
          110628 110301 109974 109647 109320 108993 108666 108339 108012 107685 107358 107031
          106704 106377 106050 105723 105396 105070 104743 104416 104089 103762 103435 103108
          102781 102454 102127 101800 101473 101149
        </DataArray>
        <DataArray type="Float32" Name="pc" NumberOfComponents="1" format="ascii">
          -85939.7 -85939.7 -85939.7 -85939.7 -85939.7 -85939.7 -85939.7 -85939.7 -85939.7 -85939.7 -85939.7 -85939.7
          -85939.7 -85939.7 -85939.7 -85939.7 -85939.7 -85939.7 -85939.7 -85939.7 -85939.7 -85939.7 -85939.7 -85939.7
          -85939.7 -85939.7 -85939.7 -85939.7 -85939.7 -85939.7
        </DataArray>
        <DataArray type="Float32" Name="rhoL" NumberOfComponents="1" format="ascii">
          999.855 999.855 999.855 999.855 999.855 999.854 999.854 999.854 999.854 999.854 999.854 999.854
          999.853 999.853 999.853 999.853 999.853 999.853 999.852 999.852 999.852 999.852 999.852 999.852
          999.852 999.851 999.851 999.851 999.851 999.851
        </DataArray>
        <DataArray type="Float32" Name="rhoG" NumberOfComponents="1" format="ascii">
          0.30585 0.3018 0.29775 0.293699 0.289649 0.285598 0.281548 0.277498 0.273447 0.269397 0.265347 0.261296
          0.257246 0.253195 0.249145 0.245095 0.241044 0.236994 0.232944 0.228893 0.224843 0.220793 0.216742 0.212692
          0.208641 0.204591 0.200541 0.19649 0.19244 0.188428
        </DataArray>
        <DataArray type="Float32" Name="mobL" NumberOfComponents="1" format="ascii">
          722.171 722.17 722.17 722.17 722.17 722.17 722.169 722.169 722.169 722.169 722.169 722.169
          722.168 722.168 722.168 722.168 722.168 722.167 722.167 722.167 722.167 722.167 722.166 722.166
          722.166 722.166 722.166 722.166 722.165 722.165
        </DataArray>
        <DataArray type="Float32" Name="mobG" NumberOfComponents="1" format="ascii">
          0 0 0 0 0 0 0 0 0 0 0 0
          0 0 0 0 0 0 0 0 0 0 0 0
          0 0 0 0 0 0
        </DataArray>
        <DataArray type="Float32" Name="porosity" NumberOfComponents="1" format="ascii">
          0.298854 0.298854 0.298854 0.298854 0.298853 0.298853 0.298852 0.298851 0.29885 0.298848 0.298846 0.298843
          0.298838 0.298832 0.298824 0.298813 0.298798 0.298778 0.298751 0.298713 0.298662 0.29859 0.298486 0.29833
          0.297814 0.297389 0.296532 0.294252 0.282877 0.0448287
        </DataArray>
        <DataArray type="Float32" Name="temperature" NumberOfComponents="1" format="ascii">
          281.15 281.15 281.15 281.15 281.15 281.15 281.15 281.15 281.15 281.15 281.15 281.15
          281.15 281.15 281.15 281.15 281.15 281.15 281.15 281.15 281.15 281.15 281.15 281.15
          281.15 281.15 281.15 281.15 281.15 281.15
        </DataArray>
        <DataArray type="Float32" Name="phase presence" NumberOfComponents="1" format="ascii">
          1 1 1 1 1 1 1 1 1 1 1 1
          1 1 1 1 1 1 1 1 1 1 1 1
          1 1 1 1 1 1
        </DataArray>
        <DataArray type="Float32" Name="precipitateVolumeFraction_au" NumberOfComponents="1" format="ascii">
          5.52637e-10 5.5279e-10 5.52704e-10 5.5272e-10 5.52712e-10 5.52671e-10 5.52708e-10 5.52688e-10 5.52695e-10 5.52671e-10 5.52664e-10 5.52635e-10
          5.52605e-10 5.52643e-10 5.52618e-10 5.52556e-10 5.5255e-10 5.52497e-10 5.52462e-10 5.52429e-10 5.52353e-10 5.52317e-10 5.52286e-10 5.851e-10
          0.000269996 0.00026999 0.000269973 0.000269753 5.34964e-10 5.14831e-10
        </DataArray>
        <DataArray type="Float32" Name="precipitateVolumeFraction_nanoAu" NumberOfComponents="1" format="ascii">
          1.12928e-14 1.12959e-14 1.12938e-14 1.12934e-14 1.12922e-14 1.12897e-14 1.12881e-14 1.12843e-14 1.12798e-14 1.12729e-14 1.1264e-14 1.12516e-14
          1.1235e-14 1.12142e-14 1.11847e-14 1.11444e-14 1.10914e-14 1.10187e-14 1.09199e-14 1.07842e-14 1.05941e-14 1.03263e-14 1.00433e-14 3.89879e-13
          4.12175e-09 1.07209e-08 3.69319e-08 2.37435e-07 1.40085e-11 1.28747e-11
        </DataArray>
        <DataArray type="Float32" Name="precipitateVolumeFraction_d" NumberOfComponents="1" format="ascii">
          0.000572962 0.00057302 0.000573102 0.000573218 0.000573379 0.000573606 0.000573923 0.000574364 0.000574977 0.000575826 0.000576996 0.000578602
          0.000580798 0.000583792 0.000587858 0.000593367 0.000600821 0.00061091 0.000624601 0.000643291 0.00066907 0.000705218 0.000757202 0.000834861
          0.000957759 0.00117074 0.00159903 0.00273918 0.00856147 0.127586
        </DataArray>
        <DataArray type="Float32" Name="precipitateVolumeFraction_p" NumberOfComponents="1" format="ascii">
          0.000572962 0.00057302 0.000573102 0.000573218 0.000573379 0.000573606 0.000573923 0.000574364 0.000574977 0.000575826 0.000576996 0.000578602
          0.000580798 0.000583792 0.000587858 0.000593367 0.000600821 0.00061091 0.000624601 0.000643291 0.00066907 0.000705218 0.000757202 0.000834861
          0.000957759 0.00117074 0.00159903 0.00273918 0.00856147 0.127586
        </DataArray>
        <DataArray type="Float32" Name="K" NumberOfComponents="1" format="ascii">
          9.85356e-11 9.85354e-11 9.85352e-11 9.85349e-11 9.85345e-11 9.85339e-11 9.85331e-11 9.8532e-11 9.85304e-11 9.85283e-11 9.85253e-11 9.85212e-11
          9.85157e-11 9.85081e-11 9.84977e-11 9.84837e-11 9.84648e-11 9.84392e-11 9.84045e-11 9.8357e-11 9.82917e-11 9.82001e-11 9.80684e-11 9.78721e-11
          9.72223e-11 9.66884e-11 9.5622e-11 9.28302e-11 7.988e-11 1.792e-13
        </DataArray>
        <DataArray type="Float32" Name="X^w_H2O" NumberOfComponents="1" format="ascii">
          0.999858 0.999858 0.999858 0.999858 0.999858 0.999858 0.999858 0.999858 0.999858 0.999858 0.999858 0.999858
          0.999858 0.999858 0.999858 0.999858 0.999858 0.999858 0.999858 0.999858 0.999858 0.999858 0.999858 0.999858
          0.999858 0.999858 0.999858 0.999858 0.999839 0.99984
        </DataArray>
        <DataArray type="Float32" Name="X^w_Air" NumberOfComponents="1" format="ascii">
          0 0 0 0 0 0 0 0 0 0 0 0
          0 0 0 0 0 0 0 0 0 0 0 0
          0 0 0 0 0 0
        </DataArray>
        <DataArray type="Float32" Name="X^w_AuComplex" NumberOfComponents="1" format="ascii">
          3.01898e-18 3.01978e-18 3.01919e-18 3.01904e-18 3.0186e-18 3.01778e-18 3.01711e-18 3.01577e-18 3.01411e-18 3.01164e-18 3.00842e-18 3.00397e-18
          2.99802e-18 2.99045e-18 2.97987e-18 2.96551e-18 2.94659e-18 2.92078e-18 2.88591e-18 2.83825e-18 2.77218e-18 2.67993e-18 2.56262e-18 9.69931e-17
          1.00857e-12 3.74874e-12 2.81379e-11 9.42413e-10 1.58546e-12 1.44212e-12
        </DataArray>
        <DataArray type="Float32" Name="X^w_nanoAu" NumberOfComponents="1" format="ascii">
          4.91852e-20 4.91981e-20 4.91891e-20 4.91876e-20 4.91821e-20 4.91713e-20 4.91642e-20 4.91476e-20 4.91278e-20 4.90976e-20 4.90587e-20 4.90044e-20
          4.89318e-20 4.8841e-20 4.87118e-20 4.85354e-20 4.83037e-20 4.79852e-20 4.75533e-20 4.69616e-20 4.63769e-20 6.81339e-20 2.19063e-18 1.98929e-16
          1.82729e-14 4.80117e-14 1.7007e-13 1.022e-12 6.08e-17 5.46945e-17
        </DataArray>
        <DataArray type="Float32" Name="X^w_cyanide" NumberOfComponents="1" format="ascii">
          1.51055e-08 1.51053e-08 1.51049e-08 1.5104e-08 1.51025e-08 1.51002e-08 1.50969e-08 1.50922e-08 1.50857e-08 1.50769e-08 1.50648e-08 1.50485e-08
          1.50265e-08 1.4997e-08 1.49573e-08 1.49039e-08 1.48319e-08 1.47343e-08 1.46014e-08 1.44185e-08 1.41639e-08 1.38031e-08 1.32799e-08 1.24958e-08
          1.12647e-08 2.92869e-08 1.00068e-07 6.50809e-07 1.94043e-05 1.92101e-05
        </DataArray>
        <DataArray type="Float32" Name="X^w_citrate" NumberOfComponents="1" format="ascii">
          0.000141799 0.000141799 0.000141799 0.000141799 0.000141799 0.000141799 0.000141798 0.000141798 0.000141798 0.000141798 0.000141798 0.000141798
          0.000141798 0.000141798 0.000141797 0.000141797 0.000141796 0.000141796 0.000141795 0.000141793 0.000141792 0.000141789 0.000141785 0.000141779
          0.000141771 0.000141756 0.000141727 0.000141664 0.000141458 0.000139817
        </DataArray>
        <DataArray type="Float32" Name="X^w_substrate" NumberOfComponents="1" format="ascii">
          1.64486e-11 2.17751e-11 2.88248e-11 3.8155e-11 5.05036e-11 6.6848e-11 8.8483e-11 1.17126e-10 1.55058e-10 2.0531e-10 2.71924e-10 3.603e-10
          4.77683e-10 6.33844e-10 8.4205e-10 1.12047e-09 1.49429e-09 1.99889e-09 2.68496e-09 3.62679e-09 4.93653e-09 6.78993e-09 9.4758e-09 1.34987e-08
          1.98147e-08 3.04464e-08 5.04074e-08 9.5526e-08 2.41913e-07 1.39899e-06
        </DataArray>
        <DataArray type="Float32" Name="m^w_H2O" NumberOfComponents="1" format="ascii">
          55492.8 55492.8 55492.8 55492.8 55492.8 55492.8 55492.8 55492.8 55492.8 55492.8 55492.8 55492.7
          55492.7 55492.7 55492.7 55492.7 55492.7 55492.7 55492.7 55492.7 55492.7 55492.7 55492.6 55492.6
          55492.6 55492.6 55492.6 55492.6 55491.5 55491.6
        </DataArray>
        <DataArray type="Float32" Name="m^w_Air" NumberOfComponents="1" format="ascii">
          0 0 0 0 0 0 0 0 0 0 0 0
          0 0 0 0 0 0 0 0 0 0 0 0
          0 0 0 0 0 0
        </DataArray>
        <DataArray type="Float32" Name="m^w_AuComplex" NumberOfComponents="1" format="ascii">
          1.53249e-14 1.5329e-14 1.5326e-14 1.53252e-14 1.5323e-14 1.53188e-14 1.53154e-14 1.53086e-14 1.53001e-14 1.52876e-14 1.52713e-14 1.52487e-14
          1.52185e-14 1.518e-14 1.51263e-14 1.50534e-14 1.49574e-14 1.48264e-14 1.46493e-14 1.44074e-14 1.4072e-14 1.36037e-14 1.30083e-14 4.92353e-13
          5.11965e-09 1.90292e-08 1.42832e-07 4.78384e-06 8.04805e-09 7.32041e-09
        </DataArray>
        <DataArray type="Float32" Name="m^w_nanoAu" NumberOfComponents="1" format="ascii">
          2.49673e-16 2.49738e-16 2.49692e-16 2.49685e-16 2.49657e-16 2.49602e-16 2.49566e-16 2.49482e-16 2.49381e-16 2.49228e-16 2.4903e-16 2.48755e-16
          2.48386e-16 2.47925e-16 2.47269e-16 2.46374e-16 2.45197e-16 2.43581e-16 2.41388e-16 2.38385e-16 2.35417e-16 3.45859e-16 1.112e-14 1.0098e-12
          9.27564e-11 2.43715e-10 8.63302e-10 5.18782e-09 3.0863e-13 2.77638e-13
        </DataArray>
        <DataArray type="Float32" Name="m^w_cyanide" NumberOfComponents="1" format="ascii">
          0.000580449 0.000580444 0.000580426 0.000580391 0.000580333 0.000580246 0.000580119 0.000579939 0.00057969 0.000579349 0.000578885 0.000578258
          0.000577414 0.000576278 0.000574753 0.000572701 0.000569934 0.000566186 0.000561077 0.000554051 0.000544266 0.000530403 0.000510298 0.000480167
          0.000432862 0.00112538 0.00384524 0.0250081 0.745634 0.738172
        </DataArray>
        <DataArray type="Float32" Name="m^w_citrate" NumberOfComponents="1" format="ascii">
          0.749756 0.749756 0.749755 0.749755 0.749755 0.749755 0.749754 0.749754 0.749754 0.749753 0.749753 0.749752
          0.749751 0.74975 0.749748 0.749746 0.749743 0.749739 0.749734 0.749726 0.749716 0.749702 0.749682 0.749652
          0.749604 0.749525 0.749376 0.749041 0.747953 0.739277
        </DataArray>
        <DataArray type="Float32" Name="m^w_substrate" NumberOfComponents="1" format="ascii">
          9.12869e-08 1.20848e-07 1.59972e-07 2.11753e-07 2.80286e-07 3.70994e-07 4.91064e-07 6.50028e-07 8.60541e-07 1.13943e-06 1.50913e-06 1.9996e-06
          2.65105e-06 3.51771e-06 4.67321e-06 6.2184e-06 8.29301e-06 1.10934e-05 1.4901e-05 2.01279e-05 2.73967e-05 3.76828e-05 5.25888e-05 7.49153e-05
          0.000109968 0.000168971 0.000279751 0.00053015 0.00134257 0.0077641
        </DataArray>
        <DataArray type="Float32" Name="process rank" NumberOfComponents="1" format="ascii">
          0 0 0 0 0 0 0 0 0 0 0 0
          0 0 0 0 0 0 0 0 0 0 0 0
          0 0 0 0 0 0
        </DataArray>
      </CellData>
      <Points>
        <DataArray type="Float32" Name="Coordinates" NumberOfComponents="3" format="ascii">
          0 0 0 0.5 0 0 0 0.0333333 0 0.5 0.0333333 0
          0 0.0666667 0 0.5 0.0666667 0 0 0.1 0 0.5 0.1 0
          0 0.133333 0 0.5 0.133333 0 0 0.166667 0 0.5 0.166667 0
          0 0.2 0 0.5 0.2 0 0 0.233333 0 0.5 0.233333 0
          0 0.266667 0 0.5 0.266667 0 0 0.3 0 0.5 0.3 0
          0 0.333333 0 0.5 0.333333 0 0 0.366667 0 0.5 0.366667 0
          0 0.4 0 0.5 0.4 0 0 0.433333 0 0.5 0.433333 0
          0 0.466667 0 0.5 0.466667 0 0 0.5 0 0.5 0.5 0
          0 0.533333 0 0.5 0.533333 0 0 0.566667 0 0.5 0.566667 0
          0 0.6 0 0.5 0.6 0 0 0.633333 0 0.5 0.633333 0
          0 0.666667 0 0.5 0.666667 0 0 0.7 0 0.5 0.7 0
          0 0.733333 0 0.5 0.733333 0 0 0.766667 0 0.5 0.766667 0
          0 0.8 0 0.5 0.8 0 0 0.833333 0 0.5 0.833333 0
          0 0.866667 0 0.5 0.866667 0 0 0.9 0 0.5 0.9 0
          0 0.933333 0 0.5 0.933333 0 0 0.966667 0 0.5 0.966667 0
          0 1 0 0.5 1 0
        </DataArray>
      </Points>
      <Cells>
        <DataArray type="Int32" Name="connectivity" NumberOfComponents="1" format="ascii">
          0 1 3 2 2 3 5 4 4 5 7 6
          6 7 9 8 8 9 11 10 10 11 13 12
          12 13 15 14 14 15 17 16 16 17 19 18
          18 19 21 20 20 21 23 22 22 23 25 24
          24 25 27 26 26 27 29 28 28 29 31 30
          30 31 33 32 32 33 35 34 34 35 37 36
          36 37 39 38 38 39 41 40 40 41 43 42
          42 43 45 44 44 45 47 46 46 47 49 48
          48 49 51 50 50 51 53 52 52 53 55 54
          54 55 57 56 56 57 59 58 58 59 61 60
        </DataArray>
        <DataArray type="Int32" Name="offsets" NumberOfComponents="1" format="ascii">
          4 8 12 16 20 24 28 32 36 40 44 48
          52 56 60 64 68 72 76 80 84 88 92 96
          100 104 108 112 116 120
        </DataArray>
        <DataArray type="UInt8" Name="types" NumberOfComponents="1" format="ascii">
          9 9 9 9 9 9 9 9 9 9 9 9
          9 9 9 9 9 9 9 9 9 9 9 9
          9 9 9 9 9 9
        </DataArray>
      </Cells>
    </Piece>
  </UnstructuredGrid>
</VTKFile>
