<?xml version="1.0"?>
<VTKFile type="UnstructuredGrid" version="0.1" byte_order="LittleEndian">
  <UnstructuredGrid>
    <Piece NumberOfCells="30" NumberOfPoints="62">
      <CellData Scalars="Sg">
        <DataArray type="Float32" Name="Sg" NumberOfComponents="1" format="ascii">
          0 0 0 0 0 0 0 0 0 0 0 0
          0 0 0 0 0 0 0 0 0 0 0 0
          0 0 0 0 0 0
        </DataArray>
        <DataArray type="Float32" Name="Sl" NumberOfComponents="1" format="ascii">
          1 1 1 1 1 1 1 1 1 1 1 1
          1 1 1 1 1 1 1 1 1 1 1 1
          1 1 1 1 1 1
        </DataArray>
        <DataArray type="Float32" Name="pg" NumberOfComponents="1" format="ascii">
          24687.8 24360.9 24034 23707 23380.1 23053.1 22726.2 22399.3 22072.3 21745.4 21418.4 21091.5
          20764.6 20437.6 20110.7 19783.7 19456.8 19129.8 18802.9 18476 18149 17822.1 17495.1 17168.2
          16841.3 16514.3 16187.4 15860.4 15533.5 15209.2
        </DataArray>
        <DataArray type="Float32" Name="pl" NumberOfComponents="1" format="ascii">
          110628 110301 109974 109647 109320 108993 108666 108339 108012 107685 107358 107031
          106704 106377 106050 105723 105396 105070 104743 104416 104089 103762 103435 103108
          102781 102454 102127 101800 101473 101149
        </DataArray>
        <DataArray type="Float32" Name="pc" NumberOfComponents="1" format="ascii">
          -85939.7 -85939.7 -85939.7 -85939.7 -85939.7 -85939.7 -85939.7 -85939.7 -85939.7 -85939.7 -85939.7 -85939.7
          -85939.7 -85939.7 -85939.7 -85939.7 -85939.7 -85939.7 -85939.7 -85939.7 -85939.7 -85939.7 -85939.7 -85939.7
          -85939.7 -85939.7 -85939.7 -85939.7 -85939.7 -85939.7
        </DataArray>
        <DataArray type="Float32" Name="rhoL" NumberOfComponents="1" format="ascii">
          999.855 999.855 999.855 999.855 999.855 999.854 999.854 999.854 999.854 999.854 999.854 999.854
          999.853 999.853 999.853 999.853 999.853 999.853 999.852 999.852 999.852 999.852 999.852 999.852
          999.852 999.851 999.851 999.851 999.851 999.851
        </DataArray>
        <DataArray type="Float32" Name="rhoG" NumberOfComponents="1" format="ascii">
          0.30585 0.3018 0.29775 0.293699 0.289649 0.285598 0.281548 0.277498 0.273447 0.269397 0.265347 0.261296
          0.257246 0.253195 0.249145 0.245095 0.241044 0.236994 0.232944 0.228893 0.224843 0.220793 0.216742 0.212692
          0.208641 0.204591 0.200541 0.19649 0.19244 0.188422
        </DataArray>
        <DataArray type="Float32" Name="mobL" NumberOfComponents="1" format="ascii">
          722.171 722.17 722.17 722.17 722.17 722.17 722.169 722.169 722.169 722.169 722.169 722.169
          722.168 722.168 722.168 722.168 722.168 722.167 722.167 722.167 722.167 722.167 722.166 722.166
          722.166 722.166 722.166 722.166 722.165 722.165
        </DataArray>
        <DataArray type="Float32" Name="mobG" NumberOfComponents="1" format="ascii">
          0 0 0 0 0 0 0 0 0 0 0 0
          0 0 0 0 0 0 0 0 0 0 0 0
          0 0 0 0 0 0
        </DataArray>
        <DataArray type="Float32" Name="porosity" NumberOfComponents="1" format="ascii">
          0.298756 0.298756 0.298755 0.298755 0.298755 0.298754 0.298754 0.298753 0.298751 0.29875 0.298747 0.298744
          0.298739 0.298733 0.298724 0.298712 0.298696 0.298675 0.298646 0.298606 0.298551 0.298474 0.298365 0.298201
          0.297675 0.297234 0.296364 0.294119 0.283698 0.0471871
        </DataArray>
        <DataArray type="Float32" Name="temperature" NumberOfComponents="1" format="ascii">
          281.15 281.15 281.15 281.15 281.15 281.15 281.15 281.15 281.15 281.15 281.15 281.15
          281.15 281.15 281.15 281.15 281.15 281.15 281.15 281.15 281.15 281.15 281.15 281.15
          281.15 281.15 281.15 281.15 281.15 281.15
        </DataArray>
        <DataArray type="Float32" Name="phase presence" NumberOfComponents="1" format="ascii">
          1 1 1 1 1 1 1 1 1 1 1 1
          1 1 1 1 1 1 1 1 1 1 1 1
          1 1 1 1 1 1
        </DataArray>
        <DataArray type="Float32" Name="precipitateVolumeFraction_au" NumberOfComponents="1" format="ascii">
          5.52637e-10 5.5279e-10 5.52704e-10 5.5272e-10 5.52712e-10 5.52671e-10 5.52708e-10 5.52688e-10 5.52695e-10 5.52671e-10 5.52664e-10 5.52635e-10
          5.52605e-10 5.52643e-10 5.52618e-10 5.52556e-10 5.5255e-10 5.52497e-10 5.52462e-10 5.52429e-10 5.52353e-10 5.52317e-10 5.52285e-10 5.8214e-10
          0.000269996 0.00026999 0.00026997 0.000269756 5.3535e-10 5.18897e-10
        </DataArray>
        <DataArray type="Float32" Name="precipitateVolumeFraction_nanoAu" NumberOfComponents="1" format="ascii">
          1.12461e-14 1.12485e-14 1.12458e-14 1.12451e-14 1.12435e-14 1.12409e-14 1.12393e-14 1.12358e-14 1.12319e-14 1.1226e-14 1.12186e-14 1.12082e-14
          1.11943e-14 1.1177e-14 1.1152e-14 1.11172e-14 1.10711e-14 1.10066e-14 1.09176e-14 1.07929e-14 1.06149e-14 1.03592e-14 1.00866e-14 3.91724e-13
          4.13668e-09 1.07422e-08 3.69541e-08 2.37443e-07 1.40201e-11 1.29741e-11
        </DataArray>
        <DataArray type="Float32" Name="precipitateVolumeFraction_d" NumberOfComponents="1" format="ascii">
          0.000622167 0.000622229 0.000622316 0.000622438 0.00062261 0.00062285 0.000623187 0.000623657 0.00062431 0.000625214 0.000626462 0.000628176
          0.000630521 0.000633717 0.000638058 0.000643938 0.000651891 0.000662649 0.000677233 0.000697117 0.000724492 0.000762785 0.000817675 0.000899298
          0.00102762 0.00124777 0.00168306 0.00280565 0.00815098 0.126406
        </DataArray>
        <DataArray type="Float32" Name="precipitateVolumeFraction_p" NumberOfComponents="1" format="ascii">
          0.000622167 0.000622229 0.000622316 0.000622438 0.00062261 0.00062285 0.000623187 0.000623657 0.00062431 0.000625214 0.000626462 0.000628176
          0.000630521 0.000633717 0.000638058 0.000643938 0.000651891 0.000662649 0.000677233 0.000697117 0.000724492 0.000762785 0.000817675 0.000899298
          0.00102762 0.00124777 0.00168306 0.00280565 0.00815098 0.126406
        </DataArray>
        <DataArray type="Float32" Name="K" NumberOfComponents="1" format="ascii">
          9.84106e-11 9.84105e-11 9.84103e-11 9.84099e-11 9.84095e-11 9.84089e-11 9.8408e-11 9.84069e-11 9.84052e-11 9.84029e-11 9.83997e-11 9.83954e-11
          9.83894e-11 9.83813e-11 9.83703e-11 9.83554e-11 9.83352e-11 9.83079e-11 9.8271e-11 9.82206e-11 9.81512e-11 9.80543e-11 9.79155e-11 9.77094e-11
          9.70469e-11 9.64959e-11 9.54139e-11 9.26695e-11 8.07624e-11 2.10032e-13
        </DataArray>
        <DataArray type="Float32" Name="X^w_H2O" NumberOfComponents="1" format="ascii">
          0.999858 0.999858 0.999858 0.999858 0.999858 0.999858 0.999858 0.999858 0.999858 0.999858 0.999858 0.999858
          0.999858 0.999858 0.999858 0.999858 0.999858 0.999858 0.999858 0.999858 0.999858 0.999858 0.999858 0.999858
          0.999858 0.999858 0.999858 0.999858 0.999839 0.99984
        </DataArray>
        <DataArray type="Float32" Name="X^w_Air" NumberOfComponents="1" format="ascii">
          0 0 0 0 0 0 0 0 0 0 0 0
          0 0 0 0 0 0 0 0 0 0 0 0
          0 0 0 0 0 0
        </DataArray>
        <DataArray type="Float32" Name="X^w_AuComplex" NumberOfComponents="1" format="ascii">
          2.99647e-18 2.9971e-18 2.99638e-18 2.99613e-18 2.99565e-18 2.99483e-18 2.99425e-18 2.99309e-18 2.99171e-18 2.98967e-18 2.98705e-18 2.98341e-18
          2.97851e-18 2.97229e-18 2.96341e-18 2.95116e-18 2.9348e-18 2.91206e-18 2.88077e-18 2.83719e-18 2.77552e-18 2.68765e-18 2.57405e-18 9.75216e-17
          1.01276e-12 3.75909e-12 2.81663e-11 9.42452e-10 1.58656e-12 1.45304e-12
        </DataArray>
        <DataArray type="Float32" Name="X^w_nanoAu" NumberOfComponents="1" format="ascii">
          4.89815e-20 4.89919e-20 4.89803e-20 4.8977e-20 4.89701e-20 4.89587e-20 4.89518e-20 4.89366e-20 4.89194e-20 4.88936e-20 4.8861e-20 4.88155e-20
          4.87548e-20 4.86793e-20 4.85697e-20 4.84177e-20 4.82159e-20 4.79335e-20 4.75439e-20 4.70006e-20 4.64694e-20 6.83673e-20 2.19891e-18 1.99661e-16
          1.83384e-14 4.81048e-14 1.70166e-13 1.02199e-12 6.08467e-17 5.51092e-17
        </DataArray>
        <DataArray type="Float32" Name="X^w_cyanide" NumberOfComponents="1" format="ascii">
          1.50133e-08 1.50126e-08 1.50117e-08 1.50105e-08 1.50089e-08 1.50067e-08 1.50038e-08 1.49999e-08 1.49946e-08 1.49874e-08 1.49776e-08 1.49644e-08
          1.49465e-08 1.49221e-08 1.48889e-08 1.48435e-08 1.47813e-08 1.46955e-08 1.45764e-08 1.44094e-08 1.41722e-08 1.38293e-08 1.33217e-08 1.25451e-08
          1.13006e-08 2.93393e-08 1.00123e-07 6.50816e-07 1.94016e-05 1.92073e-05
        </DataArray>
        <DataArray type="Float32" Name="X^w_citrate" NumberOfComponents="1" format="ascii">
          0.000141799 0.000141799 0.000141799 0.000141799 0.000141799 0.000141799 0.000141799 0.000141798 0.000141798 0.000141798 0.000141798 0.000141798
          0.000141798 0.000141798 0.000141798 0.000141797 0.000141797 0.000141796 0.000141795 0.000141794 0.000141792 0.00014179 0.000141786 0.000141781
          0.000141772 0.000141756 0.000141727 0.000141659 0.000141441 0.000139799
        </DataArray>
        <DataArray type="Float32" Name="X^w_substrate" NumberOfComponents="1" format="ascii">
          9.51033e-12 1.28518e-11 1.73663e-11 2.34655e-11 3.17057e-11 4.28391e-11 5.78827e-11 7.82134e-11 1.05697e-10 1.42864e-10 1.93157e-10 2.61267e-10
          3.53615e-10 4.79028e-10 6.49722e-10 8.82744e-10 1.20214e-09 1.64232e-09 2.25338e-09 3.10992e-09 4.3263e-09 6.0842e-09 8.68607e-09 1.26664e-08
          1.90476e-08 3.0009e-08 5.09709e-08 9.89789e-08 2.54302e-07 1.41203e-06
        </DataArray>
        <DataArray type="Float32" Name="m^w_H2O" NumberOfComponents="1" format="ascii">
          55492.8 55492.8 55492.8 55492.8 55492.8 55492.8 55492.8 55492.8 55492.8 55492.8 55492.8 55492.7
          55492.7 55492.7 55492.7 55492.7 55492.7 55492.7 55492.7 55492.7 55492.7 55492.7 55492.6 55492.6
          55492.6 55492.6 55492.6 55492.6 55491.5 55491.6
        </DataArray>
        <DataArray type="Float32" Name="m^w_Air" NumberOfComponents="1" format="ascii">
          0 0 0 0 0 0 0 0 0 0 0 0
          0 0 0 0 0 0 0 0 0 0 0 0
          0 0 0 0 0 0
        </DataArray>
        <DataArray type="Float32" Name="m^w_AuComplex" NumberOfComponents="1" format="ascii">
          1.52106e-14 1.52138e-14 1.52102e-14 1.52089e-14 1.52064e-14 1.52023e-14 1.51994e-14 1.51934e-14 1.51864e-14 1.51761e-14 1.51628e-14 1.51443e-14
          1.51194e-14 1.50879e-14 1.50428e-14 1.49806e-14 1.48975e-14 1.47821e-14 1.46233e-14 1.4402e-14 1.4089e-14 1.3643e-14 1.30663e-14 4.95035e-13
          5.14092e-09 1.90817e-08 1.42977e-07 4.78403e-06 8.05361e-09 7.37585e-09
        </DataArray>
        <DataArray type="Float32" Name="m^w_nanoAu" NumberOfComponents="1" format="ascii">
          2.48639e-16 2.48691e-16 2.48633e-16 2.48616e-16 2.48581e-16 2.48523e-16 2.48488e-16 2.48411e-16 2.48324e-16 2.48192e-16 2.48027e-16 2.47796e-16
          2.47488e-16 2.47104e-16 2.46548e-16 2.45776e-16 2.44752e-16 2.43318e-16 2.41341e-16 2.38583e-16 2.35886e-16 3.47044e-16 1.1162e-14 1.01351e-12
          9.30887e-11 2.44187e-10 8.63788e-10 5.1878e-09 3.08868e-13 2.79743e-13
        </DataArray>
        <DataArray type="Float32" Name="m^w_cyanide" NumberOfComponents="1" format="ascii">
          0.000576906 0.00057688 0.000576845 0.000576799 0.000576738 0.000576655 0.000576543 0.000576392 0.000576187 0.00057591 0.000575536 0.000575028
          0.000574338 0.000573401 0.000572125 0.000570382 0.000567991 0.000564695 0.000560118 0.000553701 0.000544585 0.000531409 0.000511904 0.000482063
          0.000434239 0.0011274 0.00384737 0.0250084 0.745532 0.738066
        </DataArray>
        <DataArray type="Float32" Name="m^w_citrate" NumberOfComponents="1" format="ascii">
          0.749756 0.749756 0.749755 0.749755 0.749755 0.749755 0.749755 0.749754 0.749754 0.749754 0.749753 0.749753
          0.749752 0.749751 0.749749 0.749747 0.749745 0.749741 0.749737 0.74973 0.749721 0.749708 0.749688 0.749658
          0.74961 0.749528 0.749372 0.749015 0.74786 0.739179
        </DataArray>
        <DataArray type="Float32" Name="m^w_substrate" NumberOfComponents="1" format="ascii">
          5.27806e-08 7.13252e-08 9.63799e-08 1.30229e-07 1.75961e-07 2.37749e-07 3.21238e-07 4.3407e-07 5.86597e-07 7.92868e-07 1.07198e-06 1.44998e-06
          1.96249e-06 2.65851e-06 3.60583e-06 4.89906e-06 6.67167e-06 9.11458e-06 1.25058e-05 1.72595e-05 2.40101e-05 3.37661e-05 4.82059e-05 7.02958e-05
          0.00010571 0.000166544 0.000282878 0.000549312 0.00141133 0.0078365
        </DataArray>
        <DataArray type="Float32" Name="process rank" NumberOfComponents="1" format="ascii">
          0 0 0 0 0 0 0 0 0 0 0 0
          0 0 0 0 0 0 0 0 0 0 0 0
          0 0 0 0 0 0
        </DataArray>
      </CellData>
      <Points>
        <DataArray type="Float32" Name="Coordinates" NumberOfComponents="3" format="ascii">
          0 0 0 0.5 0 0 0 0.0333333 0 0.5 0.0333333 0
          0 0.0666667 0 0.5 0.0666667 0 0 0.1 0 0.5 0.1 0
          0 0.133333 0 0.5 0.133333 0 0 0.166667 0 0.5 0.166667 0
          0 0.2 0 0.5 0.2 0 0 0.233333 0 0.5 0.233333 0
          0 0.266667 0 0.5 0.266667 0 0 0.3 0 0.5 0.3 0
          0 0.333333 0 0.5 0.333333 0 0 0.366667 0 0.5 0.366667 0
          0 0.4 0 0.5 0.4 0 0 0.433333 0 0.5 0.433333 0
          0 0.466667 0 0.5 0.466667 0 0 0.5 0 0.5 0.5 0
          0 0.533333 0 0.5 0.533333 0 0 0.566667 0 0.5 0.566667 0
          0 0.6 0 0.5 0.6 0 0 0.633333 0 0.5 0.633333 0
          0 0.666667 0 0.5 0.666667 0 0 0.7 0 0.5 0.7 0
          0 0.733333 0 0.5 0.733333 0 0 0.766667 0 0.5 0.766667 0
          0 0.8 0 0.5 0.8 0 0 0.833333 0 0.5 0.833333 0
          0 0.866667 0 0.5 0.866667 0 0 0.9 0 0.5 0.9 0
          0 0.933333 0 0.5 0.933333 0 0 0.966667 0 0.5 0.966667 0
          0 1 0 0.5 1 0
        </DataArray>
      </Points>
      <Cells>
        <DataArray type="Int32" Name="connectivity" NumberOfComponents="1" format="ascii">
          0 1 3 2 2 3 5 4 4 5 7 6
          6 7 9 8 8 9 11 10 10 11 13 12
          12 13 15 14 14 15 17 16 16 17 19 18
          18 19 21 20 20 21 23 22 22 23 25 24
          24 25 27 26 26 27 29 28 28 29 31 30
          30 31 33 32 32 33 35 34 34 35 37 36
          36 37 39 38 38 39 41 40 40 41 43 42
          42 43 45 44 44 45 47 46 46 47 49 48
          48 49 51 50 50 51 53 52 52 53 55 54
          54 55 57 56 56 57 59 58 58 59 61 60
        </DataArray>
        <DataArray type="Int32" Name="offsets" NumberOfComponents="1" format="ascii">
          4 8 12 16 20 24 28 32 36 40 44 48
          52 56 60 64 68 72 76 80 84 88 92 96
          100 104 108 112 116 120
        </DataArray>
        <DataArray type="UInt8" Name="types" NumberOfComponents="1" format="ascii">
          9 9 9 9 9 9 9 9 9 9 9 9
          9 9 9 9 9 9 9 9 9 9 9 9
          9 9 9 9 9 9
        </DataArray>
      </Cells>
    </Piece>
  </UnstructuredGrid>
</VTKFile>
