<?xml version="1.0"?>
<VTKFile type="UnstructuredGrid" version="0.1" byte_order="LittleEndian">
  <UnstructuredGrid>
    <Piece NumberOfCells="30" NumberOfPoints="62">
      <CellData Scalars="Sg">
        <DataArray type="Float32" Name="Sg" NumberOfComponents="1" format="ascii">
          0 0 0 0 0 0 0 0 0 0 0 0
          0 0 0 0 0 0 0 0 0 0 0 0
          0 0 0 0 0 0
        </DataArray>
        <DataArray type="Float32" Name="Sl" NumberOfComponents="1" format="ascii">
          1 1 1 1 1 1 1 1 1 1 1 1
          1 1 1 1 1 1 1 1 1 1 1 1
          1 1 1 1 1 1
        </DataArray>
        <DataArray type="Float32" Name="pg" NumberOfComponents="1" format="ascii">
          24687.8 24360.9 24034 23707 23380.1 23053.1 22726.2 22399.3 22072.3 21745.4 21418.4 21091.5
          20764.6 20437.6 20110.7 19783.7 19456.8 19129.8 18802.9 18476 18149 17822.1 17495.1 17168.2
          16841.3 16514.3 16187.4 15860.4 15533.5 15209.1
        </DataArray>
        <DataArray type="Float32" Name="pl" NumberOfComponents="1" format="ascii">
          110628 110301 109974 109647 109320 108993 108666 108339 108012 107685 107358 107031
          106704 106377 106050 105723 105396 105070 104743 104416 104089 103762 103435 103108
          102781 102454 102127 101800 101473 101149
        </DataArray>
        <DataArray type="Float32" Name="pc" NumberOfComponents="1" format="ascii">
          -85939.7 -85939.7 -85939.7 -85939.7 -85939.7 -85939.7 -85939.7 -85939.7 -85939.7 -85939.7 -85939.7 -85939.7
          -85939.7 -85939.7 -85939.7 -85939.7 -85939.7 -85939.7 -85939.7 -85939.7 -85939.7 -85939.7 -85939.7 -85939.7
          -85939.7 -85939.7 -85939.7 -85939.7 -85939.7 -85939.7
        </DataArray>
        <DataArray type="Float32" Name="rhoL" NumberOfComponents="1" format="ascii">
          999.855 999.855 999.855 999.855 999.855 999.854 999.854 999.854 999.854 999.854 999.854 999.854
          999.853 999.853 999.853 999.853 999.853 999.853 999.852 999.852 999.852 999.852 999.852 999.852
          999.852 999.851 999.851 999.851 999.851 999.851
        </DataArray>
        <DataArray type="Float32" Name="rhoG" NumberOfComponents="1" format="ascii">
          0.30585 0.3018 0.29775 0.293699 0.289649 0.285598 0.281548 0.277498 0.273447 0.269397 0.265347 0.261296
          0.257246 0.253195 0.249145 0.245095 0.241044 0.236994 0.232944 0.228893 0.224843 0.220793 0.216742 0.212692
          0.208641 0.204591 0.200541 0.19649 0.19244 0.188421
        </DataArray>
        <DataArray type="Float32" Name="mobL" NumberOfComponents="1" format="ascii">
          722.171 722.17 722.17 722.17 722.17 722.17 722.169 722.169 722.169 722.169 722.169 722.169
          722.168 722.168 722.168 722.168 722.168 722.167 722.167 722.167 722.167 722.167 722.166 722.166
          722.166 722.166 722.166 722.166 722.165 722.165
        </DataArray>
        <DataArray type="Float32" Name="mobG" NumberOfComponents="1" format="ascii">
          0 0 0 0 0 0 0 0 0 0 0 0
          0 0 0 0 0 0 0 0 0 0 0 0
          0 0 0 0 0 0
        </DataArray>
        <DataArray type="Float32" Name="porosity" NumberOfComponents="1" format="ascii">
          0.298744 0.298744 0.298744 0.298744 0.298743 0.298743 0.298742 0.298741 0.29874 0.298738 0.298736 0.298732
          0.298727 0.298721 0.298712 0.2987 0.298684 0.298663 0.298633 0.298593 0.298538 0.298461 0.298351 0.298186
          0.297659 0.297217 0.296345 0.294105 0.283801 0.0478747
        </DataArray>
        <DataArray type="Float32" Name="temperature" NumberOfComponents="1" format="ascii">
          281.15 281.15 281.15 281.15 281.15 281.15 281.15 281.15 281.15 281.15 281.15 281.15
          281.15 281.15 281.15 281.15 281.15 281.15 281.15 281.15 281.15 281.15 281.15 281.15
          281.15 281.15 281.15 281.15 281.15 281.15
        </DataArray>
        <DataArray type="Float32" Name="phase presence" NumberOfComponents="1" format="ascii">
          1 1 1 1 1 1 1 1 1 1 1 1
          1 1 1 1 1 1 1 1 1 1 1 1
          1 1 1 1 1 1
        </DataArray>
        <DataArray type="Float32" Name="precipitateVolumeFraction_au" NumberOfComponents="1" format="ascii">
          5.52637e-10 5.5279e-10 5.52704e-10 5.5272e-10 5.52712e-10 5.52671e-10 5.52708e-10 5.52688e-10 5.52695e-10 5.52671e-10 5.52664e-10 5.52635e-10
          5.52605e-10 5.52643e-10 5.52618e-10 5.52556e-10 5.5255e-10 5.52497e-10 5.52462e-10 5.52428e-10 5.52353e-10 5.52317e-10 5.52285e-10 5.8181e-10
          0.000269996 0.00026999 0.00026997 0.000269756 5.35392e-10 5.19351e-10
        </DataArray>
        <DataArray type="Float32" Name="precipitateVolumeFraction_nanoAu" NumberOfComponents="1" format="ascii">
          1.1256e-14 1.12583e-14 1.12553e-14 1.12544e-14 1.12526e-14 1.12498e-14 1.12481e-14 1.12445e-14 1.12405e-14 1.12345e-14 1.12271e-14 1.12167e-14
          1.12029e-14 1.11858e-14 1.1161e-14 1.11266e-14 1.1081e-14 1.10171e-14 1.09287e-14 1.08047e-14 1.06274e-14 1.03722e-14 1.00995e-14 3.92095e-13
          4.13954e-09 1.07459e-08 3.69581e-08 2.37445e-07 1.40212e-11 1.29847e-11
        </DataArray>
        <DataArray type="Float32" Name="precipitateVolumeFraction_d" NumberOfComponents="1" format="ascii">
          0.000627904 0.000627967 0.000628054 0.000628177 0.00062835 0.000628592 0.000628931 0.000629405 0.000630063 0.000630974 0.000632231 0.000633958
          0.000636321 0.000639541 0.000643915 0.00064984 0.000657852 0.000668689 0.00068338 0.000703404 0.000730966 0.000769511 0.000824739 0.000906819
          0.00103576 0.00125669 0.00169267 0.00281266 0.00809948 0.126063
        </DataArray>
        <DataArray type="Float32" Name="precipitateVolumeFraction_p" NumberOfComponents="1" format="ascii">
          0.000627904 0.000627967 0.000628054 0.000628177 0.00062835 0.000628592 0.000628931 0.000629405 0.000630063 0.000630974 0.000632231 0.000633958
          0.000636321 0.000639541 0.000643915 0.00064984 0.000657852 0.000668689 0.00068338 0.000703404 0.000730966 0.000769511 0.000824739 0.000906819
          0.00103576 0.00125669 0.00169267 0.00281266 0.00809948 0.126063
        </DataArray>
        <DataArray type="Float32" Name="K" NumberOfComponents="1" format="ascii">
          9.83961e-11 9.83959e-11 9.83957e-11 9.83954e-11 9.83949e-11 9.83943e-11 9.83935e-11 9.83923e-11 9.83906e-11 9.83883e-11 9.83851e-11 9.83807e-11
          9.83747e-11 9.83666e-11 9.83555e-11 9.83404e-11 9.83201e-11 9.82926e-11 9.82554e-11 9.82047e-11 9.81348e-11 9.80373e-11 9.78977e-11 9.76904e-11
          9.70265e-11 9.64736e-11 9.53902e-11 9.26526e-11 8.08736e-11 2.19666e-13
        </DataArray>
        <DataArray type="Float32" Name="X^w_H2O" NumberOfComponents="1" format="ascii">
          0.999858 0.999858 0.999858 0.999858 0.999858 0.999858 0.999858 0.999858 0.999858 0.999858 0.999858 0.999858
          0.999858 0.999858 0.999858 0.999858 0.999858 0.999858 0.999858 0.999858 0.999858 0.999858 0.999858 0.999858
          0.999858 0.999858 0.999858 0.999858 0.999839 0.99984
        </DataArray>
        <DataArray type="Float32" Name="X^w_Air" NumberOfComponents="1" format="ascii">
          0 0 0 0 0 0 0 0 0 0 0 0
          0 0 0 0 0 0 0 0 0 0 0 0
          0 0 0 0 0 0
        </DataArray>
        <DataArray type="Float32" Name="X^w_AuComplex" NumberOfComponents="1" format="ascii">
          2.99819e-18 2.99877e-18 2.99798e-18 2.99768e-18 2.99715e-18 2.99629e-18 2.99568e-18 2.99448e-18 2.99309e-18 2.99104e-18 2.98843e-18 2.98482e-18
          2.97998e-18 2.97384e-18 2.96507e-18 2.95296e-18 2.93679e-18 2.91428e-18 2.88326e-18 2.83996e-18 2.77858e-18 2.69093e-18 2.57737e-18 9.7627e-17
          1.01353e-12 3.76085e-12 2.81713e-11 9.42468e-10 1.58665e-12 1.45418e-12
        </DataArray>
        <DataArray type="Float32" Name="X^w_nanoAu" NumberOfComponents="1" format="ascii">
          4.90246e-20 4.90344e-20 4.90218e-20 4.90176e-20 4.90099e-20 4.89977e-20 4.89902e-20 4.89744e-20 4.89568e-20 4.89307e-20 4.8898e-20 4.88527e-20
          4.87924e-20 4.87176e-20 4.86091e-20 4.84587e-20 4.82589e-20 4.7979e-20 4.75923e-20 4.70521e-20 4.65241e-20 6.84416e-20 2.20055e-18 1.99803e-16
          1.83509e-14 4.81212e-14 1.70183e-13 1.022e-12 6.08507e-17 5.51525e-17
        </DataArray>
        <DataArray type="Float32" Name="X^w_cyanide" NumberOfComponents="1" format="ascii">
          1.50176e-08 1.50167e-08 1.50156e-08 1.50142e-08 1.50124e-08 1.50101e-08 1.50071e-08 1.50031e-08 1.49977e-08 1.49905e-08 1.49808e-08 1.49678e-08
          1.49501e-08 1.4926e-08 1.48933e-08 1.48485e-08 1.47871e-08 1.47023e-08 1.45842e-08 1.44185e-08 1.41825e-08 1.38408e-08 1.33337e-08 1.25561e-08
          1.13071e-08 2.9348e-08 1.00133e-07 6.5082e-07 1.94012e-05 1.92066e-05
        </DataArray>
        <DataArray type="Float32" Name="X^w_citrate" NumberOfComponents="1" format="ascii">
          0.000141799 0.000141799 0.000141799 0.000141799 0.000141799 0.000141799 0.000141799 0.000141798 0.000141798 0.000141798 0.000141798 0.000141798
          0.000141798 0.000141798 0.000141798 0.000141797 0.000141797 0.000141796 0.000141795 0.000141794 0.000141793 0.00014179 0.000141786 0.000141781
          0.000141772 0.000141756 0.000141726 0.000141658 0.000141438 0.000139793
        </DataArray>
        <DataArray type="Float32" Name="X^w_substrate" NumberOfComponents="1" format="ascii">
          8.95569e-12 1.21307e-11 1.64305e-11 2.22532e-11 3.01383e-11 4.0817e-11 5.52801e-11 7.48723e-11 1.0142e-10 1.37405e-10 1.86214e-10 2.5247e-10
          3.42516e-10 4.6509e-10 6.32315e-10 8.61141e-10 1.17553e-09 1.60984e-09 2.21418e-09 3.06334e-09 4.27214e-09 6.02332e-09 8.62154e-09 1.2606e-08
          1.90092e-08 3.00341e-08 5.11618e-08 9.96211e-08 2.56335e-07 1.41588e-06
        </DataArray>
        <DataArray type="Float32" Name="m^w_H2O" NumberOfComponents="1" format="ascii">
          55492.8 55492.8 55492.8 55492.8 55492.8 55492.8 55492.8 55492.8 55492.8 55492.8 55492.8 55492.7
          55492.7 55492.7 55492.7 55492.7 55492.7 55492.7 55492.7 55492.7 55492.7 55492.7 55492.6 55492.6
          55492.6 55492.6 55492.6 55492.6 55491.5 55491.6
        </DataArray>
        <DataArray type="Float32" Name="m^w_Air" NumberOfComponents="1" format="ascii">
          0 0 0 0 0 0 0 0 0 0 0 0
          0 0 0 0 0 0 0 0 0 0 0 0
          0 0 0 0 0 0
        </DataArray>
        <DataArray type="Float32" Name="m^w_AuComplex" NumberOfComponents="1" format="ascii">
          1.52194e-14 1.52223e-14 1.52183e-14 1.52168e-14 1.52141e-14 1.52097e-14 1.52066e-14 1.52005e-14 1.51934e-14 1.51831e-14 1.51698e-14 1.51515e-14
          1.51269e-14 1.50957e-14 1.50512e-14 1.49897e-14 1.49077e-14 1.47934e-14 1.46359e-14 1.44161e-14 1.41045e-14 1.36596e-14 1.30832e-14 4.95571e-13
          5.14483e-09 1.90907e-08 1.43002e-07 4.78412e-06 8.05407e-09 7.38164e-09
        </DataArray>
        <DataArray type="Float32" Name="m^w_nanoAu" NumberOfComponents="1" format="ascii">
          2.48858e-16 2.48907e-16 2.48843e-16 2.48822e-16 2.48783e-16 2.48721e-16 2.48683e-16 2.48603e-16 2.48513e-16 2.48381e-16 2.48215e-16 2.47985e-16
          2.47678e-16 2.47299e-16 2.46748e-16 2.45984e-16 2.4497e-16 2.43549e-16 2.41586e-16 2.38844e-16 2.36164e-16 3.47421e-16 1.11704e-14 1.01423e-12
          9.31523e-11 2.44271e-10 8.63875e-10 5.18783e-09 3.08888e-13 2.79963e-13
        </DataArray>
        <DataArray type="Float32" Name="m^w_cyanide" NumberOfComponents="1" format="ascii">
          0.000577071 0.000577037 0.000576995 0.000576941 0.000576873 0.000576785 0.000576668 0.000576514 0.000576308 0.000576031 0.000575659 0.000575157
          0.000574476 0.000573552 0.000572294 0.000570574 0.000568213 0.000564953 0.000560419 0.000554049 0.000544982 0.000531849 0.000512364 0.000482484
          0.000434488 0.00112774 0.00384773 0.0250086 0.745516 0.738036
        </DataArray>
        <DataArray type="Float32" Name="m^w_citrate" NumberOfComponents="1" format="ascii">
          0.749756 0.749756 0.749755 0.749755 0.749755 0.749755 0.749755 0.749754 0.749754 0.749754 0.749753 0.749753
          0.749752 0.749751 0.749749 0.749748 0.749745 0.749742 0.749737 0.749731 0.749721 0.749708 0.749689 0.749659
          0.74961 0.749528 0.749371 0.74901 0.747845 0.73915
        </DataArray>
        <DataArray type="Float32" Name="m^w_substrate" NumberOfComponents="1" format="ascii">
          4.97025e-08 6.73234e-08 9.11862e-08 1.23501e-07 1.67262e-07 2.26527e-07 3.06794e-07 4.15527e-07 5.6286e-07 7.62574e-07 1.03345e-06 1.40116e-06
          1.9009e-06 2.58116e-06 3.50923e-06 4.77916e-06 6.52397e-06 8.93429e-06 1.22883e-05 1.70009e-05 2.37095e-05 3.34282e-05 4.78478e-05 6.99605e-05
          0.000105497 0.000166683 0.000283937 0.000552877 0.0014226 0.00785787
        </DataArray>
        <DataArray type="Float32" Name="process rank" NumberOfComponents="1" format="ascii">
          0 0 0 0 0 0 0 0 0 0 0 0
          0 0 0 0 0 0 0 0 0 0 0 0
          0 0 0 0 0 0
        </DataArray>
      </CellData>
      <Points>
        <DataArray type="Float32" Name="Coordinates" NumberOfComponents="3" format="ascii">
          0 0 0 0.5 0 0 0 0.0333333 0 0.5 0.0333333 0
          0 0.0666667 0 0.5 0.0666667 0 0 0.1 0 0.5 0.1 0
          0 0.133333 0 0.5 0.133333 0 0 0.166667 0 0.5 0.166667 0
          0 0.2 0 0.5 0.2 0 0 0.233333 0 0.5 0.233333 0
          0 0.266667 0 0.5 0.266667 0 0 0.3 0 0.5 0.3 0
          0 0.333333 0 0.5 0.333333 0 0 0.366667 0 0.5 0.366667 0
          0 0.4 0 0.5 0.4 0 0 0.433333 0 0.5 0.433333 0
          0 0.466667 0 0.5 0.466667 0 0 0.5 0 0.5 0.5 0
          0 0.533333 0 0.5 0.533333 0 0 0.566667 0 0.5 0.566667 0
          0 0.6 0 0.5 0.6 0 0 0.633333 0 0.5 0.633333 0
          0 0.666667 0 0.5 0.666667 0 0 0.7 0 0.5 0.7 0
          0 0.733333 0 0.5 0.733333 0 0 0.766667 0 0.5 0.766667 0
          0 0.8 0 0.5 0.8 0 0 0.833333 0 0.5 0.833333 0
          0 0.866667 0 0.5 0.866667 0 0 0.9 0 0.5 0.9 0
          0 0.933333 0 0.5 0.933333 0 0 0.966667 0 0.5 0.966667 0
          0 1 0 0.5 1 0
        </DataArray>
      </Points>
      <Cells>
        <DataArray type="Int32" Name="connectivity" NumberOfComponents="1" format="ascii">
          0 1 3 2 2 3 5 4 4 5 7 6
          6 7 9 8 8 9 11 10 10 11 13 12
          12 13 15 14 14 15 17 16 16 17 19 18
          18 19 21 20 20 21 23 22 22 23 25 24
          24 25 27 26 26 27 29 28 28 29 31 30
          30 31 33 32 32 33 35 34 34 35 37 36
          36 37 39 38 38 39 41 40 40 41 43 42
          42 43 45 44 44 45 47 46 46 47 49 48
          48 49 51 50 50 51 53 52 52 53 55 54
          54 55 57 56 56 57 59 58 58 59 61 60
        </DataArray>
        <DataArray type="Int32" Name="offsets" NumberOfComponents="1" format="ascii">
          4 8 12 16 20 24 28 32 36 40 44 48
          52 56 60 64 68 72 76 80 84 88 92 96
          100 104 108 112 116 120
        </DataArray>
        <DataArray type="UInt8" Name="types" NumberOfComponents="1" format="ascii">
          9 9 9 9 9 9 9 9 9 9 9 9
          9 9 9 9 9 9 9 9 9 9 9 9
          9 9 9 9 9 9
        </DataArray>
      </Cells>
    </Piece>
  </UnstructuredGrid>
</VTKFile>
