<?xml version="1.0"?>
<VTKFile type="UnstructuredGrid" version="0.1" byte_order="LittleEndian">
  <UnstructuredGrid>
    <Piece NumberOfCells="30" NumberOfPoints="62">
      <CellData Scalars="Sg">
        <DataArray type="Float32" Name="Sg" NumberOfComponents="1" format="ascii">
          0 0 0 0 0 0 0 0 0 0 0 0
          0 0 0 0 0 0 0 0 0 0 0 0
          0 0 0 0 0 0
        </DataArray>
        <DataArray type="Float32" Name="Sl" NumberOfComponents="1" format="ascii">
          1 1 1 1 1 1 1 1 1 1 1 1
          1 1 1 1 1 1 1 1 1 1 1 1
          1 1 1 1 1 1
        </DataArray>
        <DataArray type="Float32" Name="pg" NumberOfComponents="1" format="ascii">
          24687.8 24360.9 24034 23707 23380.1 23053.1 22726.2 22399.3 22072.3 21745.4 21418.4 21091.5
          20764.6 20437.6 20110.7 19783.7 19456.8 19129.8 18802.9 18476 18149 17822.1 17495.1 17168.2
          16841.3 16514.3 16187.4 15860.4 15533.5 15208.2
        </DataArray>
        <DataArray type="Float32" Name="pl" NumberOfComponents="1" format="ascii">
          110628 110301 109974 109647 109320 108993 108666 108339 108012 107685 107358 107031
          106704 106377 106050 105723 105396 105070 104743 104416 104089 103762 103435 103108
          102781 102454 102127 101800 101473 101148
        </DataArray>
        <DataArray type="Float32" Name="pc" NumberOfComponents="1" format="ascii">
          -85939.7 -85939.7 -85939.7 -85939.7 -85939.7 -85939.7 -85939.7 -85939.7 -85939.7 -85939.7 -85939.7 -85939.7
          -85939.7 -85939.7 -85939.7 -85939.7 -85939.7 -85939.7 -85939.7 -85939.7 -85939.7 -85939.7 -85939.7 -85939.7
          -85939.7 -85939.7 -85939.7 -85939.7 -85939.7 -85939.7
        </DataArray>
        <DataArray type="Float32" Name="rhoL" NumberOfComponents="1" format="ascii">
          999.855 999.855 999.855 999.855 999.855 999.854 999.854 999.854 999.854 999.854 999.854 999.854
          999.853 999.853 999.853 999.853 999.853 999.853 999.852 999.852 999.852 999.852 999.852 999.852
          999.852 999.851 999.851 999.851 999.851 999.851
        </DataArray>
        <DataArray type="Float32" Name="rhoG" NumberOfComponents="1" format="ascii">
          0.30585 0.3018 0.29775 0.293699 0.289649 0.285598 0.281548 0.277498 0.273447 0.269397 0.265347 0.261296
          0.257246 0.253195 0.249145 0.245095 0.241044 0.236994 0.232944 0.228893 0.224843 0.220793 0.216742 0.212692
          0.208641 0.204591 0.200541 0.19649 0.19244 0.18841
        </DataArray>
        <DataArray type="Float32" Name="mobL" NumberOfComponents="1" format="ascii">
          722.171 722.17 722.17 722.17 722.17 722.17 722.169 722.169 722.169 722.169 722.169 722.169
          722.168 722.168 722.168 722.168 722.168 722.167 722.167 722.167 722.167 722.167 722.166 722.166
          722.166 722.166 722.166 722.166 722.165 722.165
        </DataArray>
        <DataArray type="Float32" Name="mobG" NumberOfComponents="1" format="ascii">
          0 0 0 0 0 0 0 0 0 0 0 0
          0 0 0 0 0 0 0 0 0 0 0 0
          0 0 0 0 0 0
        </DataArray>
        <DataArray type="Float32" Name="porosity" NumberOfComponents="1" format="ascii">
          0.298685 0.298685 0.298685 0.298684 0.298684 0.298684 0.298683 0.298682 0.298681 0.298679 0.298676 0.298672
          0.298668 0.298661 0.298652 0.298639 0.298623 0.2986 0.29857 0.298528 0.298471 0.298392 0.298278 0.298109
          0.297575 0.297125 0.296248 0.29404 0.28437 0.0549272
        </DataArray>
        <DataArray type="Float32" Name="temperature" NumberOfComponents="1" format="ascii">
          281.15 281.15 281.15 281.15 281.15 281.15 281.15 281.15 281.15 281.15 281.15 281.15
          281.15 281.15 281.15 281.15 281.15 281.15 281.15 281.15 281.15 281.15 281.15 281.15
          281.15 281.15 281.15 281.15 281.15 281.15
        </DataArray>
        <DataArray type="Float32" Name="phase presence" NumberOfComponents="1" format="ascii">
          1 1 1 1 1 1 1 1 1 1 1 1
          1 1 1 1 1 1 1 1 1 1 1 1
          1 1 1 1 1 1
        </DataArray>
        <DataArray type="Float32" Name="precipitateVolumeFraction_au" NumberOfComponents="1" format="ascii">
          5.5264e-10 5.52764e-10 5.52784e-10 5.52764e-10 5.52741e-10 5.52762e-10 5.52773e-10 5.5275e-10 5.52737e-10 5.52749e-10 5.52751e-10 5.52718e-10
          5.52733e-10 5.52778e-10 5.52747e-10 5.52755e-10 5.52724e-10 5.52726e-10 5.52728e-10 5.52789e-10 5.52748e-10 5.52762e-10 5.52915e-10 9.29871e-10
          0.00026994 0.000269924 0.000269899 0.000269853 5.52238e-10 5.5121e-10
        </DataArray>
        <DataArray type="Float32" Name="precipitateVolumeFraction_nanoAu" NumberOfComponents="1" format="ascii">
          1.23791e-13 1.23828e-13 1.23833e-13 1.23827e-13 1.2382e-13 1.23825e-13 1.23827e-13 1.2382e-13 1.23817e-13 1.23819e-13 1.23818e-13 1.2381e-13
          1.23812e-13 1.23822e-13 1.23814e-13 1.23814e-13 1.23805e-13 1.23803e-13 1.238e-13 1.23809e-13 1.23794e-13 1.23794e-13 1.34786e-13 2.5706e-11
          6.03837e-08 7.67084e-08 1.02172e-07 1.45585e-07 4.74214e-13 4.6699e-13
        </DataArray>
        <DataArray type="Float32" Name="precipitateVolumeFraction_d" NumberOfComponents="1" format="ascii">
          0.000657475 0.000657539 0.00065763 0.000657757 0.000657936 0.000658188 0.00065854 0.000659032 0.000659715 0.000660662 0.000661968 0.000663763
          0.000666218 0.000669564 0.000674108 0.000680262 0.000688582 0.000699828 0.000715063 0.000735812 0.000764338 0.000804169 0.000861118 0.00094551
          0.00107752 0.00130227 0.00174099 0.00284495 0.00781479 0.122536
        </DataArray>
        <DataArray type="Float32" Name="precipitateVolumeFraction_p" NumberOfComponents="1" format="ascii">
          0.000657475 0.000657539 0.00065763 0.000657757 0.000657936 0.000658188 0.00065854 0.000659032 0.000659715 0.000660662 0.000661968 0.000663763
          0.000666218 0.000669564 0.000674108 0.000680262 0.000688582 0.000699828 0.000715063 0.000735812 0.000764338 0.000804169 0.000861118 0.00094551
          0.00107752 0.00130227 0.00174099 0.00284495 0.00781479 0.122536
        </DataArray>
        <DataArray type="Float32" Name="K" NumberOfComponents="1" format="ascii">
          9.83211e-11 9.83209e-11 9.83207e-11 9.83204e-11 9.83199e-11 9.83193e-11 9.83184e-11 9.83171e-11 9.83154e-11 9.8313e-11 9.83097e-11 9.83051e-11
          9.82989e-11 9.82904e-11 9.82789e-11 9.82633e-11 9.82422e-11 9.82137e-11 9.81751e-11 9.81226e-11 9.80504e-11 9.79496e-11 9.78058e-11 9.75929e-11
          9.69218e-11 9.63599e-11 9.52707e-11 9.25746e-11 8.14909e-11 3.36717e-13
        </DataArray>
        <DataArray type="Float32" Name="X^w_H2O" NumberOfComponents="1" format="ascii">
          0.999971 0.999971 0.999971 0.999971 0.999971 0.999971 0.999971 0.999971 0.999971 0.999971 0.999971 0.999971
          0.999971 0.999971 0.999971 0.999971 0.999971 0.999971 0.999971 0.999971 0.999971 0.999971 0.999971 0.999971
          0.999971 0.99997 0.999968 0.999964 0.999957 0.999956
        </DataArray>
        <DataArray type="Float32" Name="X^w_Air" NumberOfComponents="1" format="ascii">
          0 0 0 0 0 0 0 0 0 0 0 0
          0 0 0 0 0 0 0 0 0 0 0 0
          0 0 0 0 0 0
        </DataArray>
        <DataArray type="Float32" Name="X^w_AuComplex" NumberOfComponents="1" format="ascii">
          1.41261e-16 1.41301e-16 1.41307e-16 1.41299e-16 1.41291e-16 1.41296e-16 1.41298e-16 1.4129e-16 1.41286e-16 1.41287e-16 1.41286e-16 1.41276e-16
          1.41278e-16 1.41288e-16 1.41278e-16 1.41277e-16 1.41265e-16 1.4126e-16 1.41254e-16 1.4126e-16 1.41237e-16 1.41229e-16 1.53725e-16 2.93213e-14
          6.88735e-11 1.07427e-10 1.84482e-10 3.64086e-10 1.83552e-15 1.78653e-15
        </DataArray>
        <DataArray type="Float32" Name="X^w_nanoAu" NumberOfComponents="1" format="ascii">
          8.98696e-20 8.98964e-20 8.98999e-20 8.98952e-20 8.98905e-20 8.98938e-20 8.98953e-20 8.98906e-20 8.98879e-20 8.98894e-20 8.98891e-20 8.9883e-20
          8.98847e-20 8.98913e-20 8.98853e-20 8.98851e-20 8.98783e-20 8.98765e-20 8.98741e-20 8.98866e-20 9.04891e-20 1.47428e-19 5.42096e-18 4.93099e-16
          4.39588e-14 5.58747e-14 7.44632e-14 1.04443e-13 3.43208e-19 3.30491e-19
        </DataArray>
        <DataArray type="Float32" Name="X^w_cyanide" NumberOfComponents="1" format="ascii">
          5.0722e-06 5.07218e-06 5.07216e-06 5.07215e-06 5.07213e-06 5.07211e-06 5.07209e-06 5.07207e-06 5.07205e-06 5.07203e-06 5.072e-06 5.07197e-06
          5.07194e-06 5.0719e-06 5.07186e-06 5.0718e-06 5.07173e-06 5.07163e-06 5.07151e-06 5.07133e-06 5.07108e-06 5.07073e-06 5.0702e-06 5.06939e-06
          5.06857e-06 6.43846e-06 8.57429e-06 1.22394e-05 1.94611e-05 1.92298e-05
        </DataArray>
        <DataArray type="Float32" Name="X^w_citrate" NumberOfComponents="1" format="ascii">
          2.36355e-05 2.36355e-05 2.36355e-05 2.36355e-05 2.36355e-05 2.36355e-05 2.36355e-05 2.36355e-05 2.36354e-05 2.36354e-05 2.36354e-05 2.36354e-05
          2.36354e-05 2.36354e-05 2.36353e-05 2.36353e-05 2.36352e-05 2.36351e-05 2.3635e-05 2.36348e-05 2.36345e-05 2.36341e-05 2.36335e-05 2.36325e-05
          2.36309e-05 2.36284e-05 2.36233e-05 2.36113e-05 2.35722e-05 2.3292e-05
        </DataArray>
        <DataArray type="Float32" Name="X^w_substrate" NumberOfComponents="1" format="ascii">
          6.73822e-12 9.23571e-12 1.26582e-11 1.73481e-11 2.37748e-11 3.25821e-11 4.4653e-11 6.11994e-11 8.3887e-11 1.15008e-10 1.57722e-10 2.16396e-10
          2.97092e-10 4.08253e-10 5.61724e-10 7.74252e-10 1.06977e-09 1.48293e-09 2.06482e-09 2.89241e-09 4.08495e-09 5.83388e-09 8.46093e-09 1.25395e-08
          1.91748e-08 3.07348e-08 5.31239e-08 1.04849e-07 2.71608e-07 1.45662e-06
        </DataArray>
        <DataArray type="Float32" Name="m^w_H2O" NumberOfComponents="1" format="ascii">
          55499.1 55499.1 55499.1 55499.1 55499.1 55499.1 55499.1 55499.1 55499 55499 55499 55499
          55499 55499 55499 55499 55499 55499 55499 55498.9 55498.9 55498.9 55498.9 55498.9
          55498.9 55498.8 55498.7 55498.5 55498.1 55498
        </DataArray>
        <DataArray type="Float32" Name="m^w_Air" NumberOfComponents="1" format="ascii">
          0 0 0 0 0 0 0 0 0 0 0 0
          0 0 0 0 0 0 0 0 0 0 0 0
          0 0 0 0 0 0
        </DataArray>
        <DataArray type="Float32" Name="m^w_AuComplex" NumberOfComponents="1" format="ascii">
          7.17067e-13 7.17272e-13 7.17297e-13 7.17259e-13 7.17219e-13 7.17243e-13 7.17253e-13 7.17214e-13 7.1719e-13 7.17199e-13 7.17195e-13 7.17143e-13
          7.17153e-13 7.17203e-13 7.1715e-13 7.17144e-13 7.17083e-13 7.1706e-13 7.17029e-13 7.17061e-13 7.16942e-13 7.16902e-13 7.80334e-13 1.4884e-10
          3.49613e-07 5.45315e-07 9.36458e-07 1.84816e-06 9.31738e-12 9.06872e-12
        </DataArray>
        <DataArray type="Float32" Name="m^w_nanoAu" NumberOfComponents="1" format="ascii">
          4.56194e-16 4.5633e-16 4.56348e-16 4.56324e-16 4.563e-16 4.56317e-16 4.56324e-16 4.563e-16 4.56287e-16 4.56294e-16 4.56292e-16 4.56262e-16
          4.5627e-16 4.56304e-16 4.56273e-16 4.56272e-16 4.56237e-16 4.56228e-16 4.56216e-16 4.56279e-16 4.59338e-16 7.4837e-16 2.75177e-14 2.50305e-12
          2.23142e-10 2.83629e-10 3.77987e-10 5.3017e-10 1.74218e-15 1.67763e-15
        </DataArray>
        <DataArray type="Float32" Name="m^w_cyanide" NumberOfComponents="1" format="ascii">
          0.194907 0.194906 0.194905 0.194904 0.194904 0.194903 0.194902 0.194901 0.1949 0.194899 0.194898 0.194897
          0.194896 0.194895 0.194893 0.194891 0.194888 0.194884 0.194879 0.194872 0.194863 0.194849 0.194829 0.194798
          0.194766 0.247406 0.329478 0.470315 0.747816 0.738931
        </DataArray>
        <DataArray type="Float32" Name="m^w_citrate" NumberOfComponents="1" format="ascii">
          0.124972 0.124972 0.124972 0.124972 0.124972 0.124972 0.124972 0.124972 0.124972 0.124972 0.124971 0.124971
          0.124971 0.124971 0.124971 0.124971 0.12497 0.12497 0.124969 0.124968 0.124966 0.124964 0.124961 0.124956
          0.124947 0.124934 0.124907 0.124843 0.124636 0.123155
        </DataArray>
        <DataArray type="Float32" Name="m^w_substrate" NumberOfComponents="1" format="ascii">
          3.73959e-08 5.12565e-08 7.02505e-08 9.62785e-08 1.31946e-07 1.80825e-07 2.47816e-07 3.39645e-07 4.65557e-07 6.38271e-07 8.75324e-07 1.20096e-06
          1.6488e-06 2.26573e-06 3.11746e-06 4.29695e-06 5.937e-06 8.22997e-06 1.14594e-05 1.60523e-05 2.26707e-05 3.23769e-05 4.69565e-05 6.95919e-05
          0.000106416 0.000170572 0.000294827 0.000581888 0.00150737 0.00808392
        </DataArray>
        <DataArray type="Float32" Name="process rank" NumberOfComponents="1" format="ascii">
          0 0 0 0 0 0 0 0 0 0 0 0
          0 0 0 0 0 0 0 0 0 0 0 0
          0 0 0 0 0 0
        </DataArray>
      </CellData>
      <Points>
        <DataArray type="Float32" Name="Coordinates" NumberOfComponents="3" format="ascii">
          0 0 0 0.5 0 0 0 0.0333333 0 0.5 0.0333333 0
          0 0.0666667 0 0.5 0.0666667 0 0 0.1 0 0.5 0.1 0
          0 0.133333 0 0.5 0.133333 0 0 0.166667 0 0.5 0.166667 0
          0 0.2 0 0.5 0.2 0 0 0.233333 0 0.5 0.233333 0
          0 0.266667 0 0.5 0.266667 0 0 0.3 0 0.5 0.3 0
          0 0.333333 0 0.5 0.333333 0 0 0.366667 0 0.5 0.366667 0
          0 0.4 0 0.5 0.4 0 0 0.433333 0 0.5 0.433333 0
          0 0.466667 0 0.5 0.466667 0 0 0.5 0 0.5 0.5 0
          0 0.533333 0 0.5 0.533333 0 0 0.566667 0 0.5 0.566667 0
          0 0.6 0 0.5 0.6 0 0 0.633333 0 0.5 0.633333 0
          0 0.666667 0 0.5 0.666667 0 0 0.7 0 0.5 0.7 0
          0 0.733333 0 0.5 0.733333 0 0 0.766667 0 0.5 0.766667 0
          0 0.8 0 0.5 0.8 0 0 0.833333 0 0.5 0.833333 0
          0 0.866667 0 0.5 0.866667 0 0 0.9 0 0.5 0.9 0
          0 0.933333 0 0.5 0.933333 0 0 0.966667 0 0.5 0.966667 0
          0 1 0 0.5 1 0
        </DataArray>
      </Points>
      <Cells>
        <DataArray type="Int32" Name="connectivity" NumberOfComponents="1" format="ascii">
          0 1 3 2 2 3 5 4 4 5 7 6
          6 7 9 8 8 9 11 10 10 11 13 12
          12 13 15 14 14 15 17 16 16 17 19 18
          18 19 21 20 20 21 23 22 22 23 25 24
          24 25 27 26 26 27 29 28 28 29 31 30
          30 31 33 32 32 33 35 34 34 35 37 36
          36 37 39 38 38 39 41 40 40 41 43 42
          42 43 45 44 44 45 47 46 46 47 49 48
          48 49 51 50 50 51 53 52 52 53 55 54
          54 55 57 56 56 57 59 58 58 59 61 60
        </DataArray>
        <DataArray type="Int32" Name="offsets" NumberOfComponents="1" format="ascii">
          4 8 12 16 20 24 28 32 36 40 44 48
          52 56 60 64 68 72 76 80 84 88 92 96
          100 104 108 112 116 120
        </DataArray>
        <DataArray type="UInt8" Name="types" NumberOfComponents="1" format="ascii">
          9 9 9 9 9 9 9 9 9 9 9 9
          9 9 9 9 9 9 9 9 9 9 9 9
          9 9 9 9 9 9
        </DataArray>
      </Cells>
    </Piece>
  </UnstructuredGrid>
</VTKFile>
