<?xml version="1.0"?>
<VTKFile type="UnstructuredGrid" version="0.1" byte_order="LittleEndian">
  <UnstructuredGrid>
    <Piece NumberOfCells="30" NumberOfPoints="62">
      <CellData Scalars="Sg">
        <DataArray type="Float32" Name="Sg" NumberOfComponents="1" format="ascii">
          0 0 0 0 0 0 0 0 0 0 0 0
          0 0 0 0 0 0 0 0 0 0 0 0
          0 0 0 0 0 0
        </DataArray>
        <DataArray type="Float32" Name="Sl" NumberOfComponents="1" format="ascii">
          1 1 1 1 1 1 1 1 1 1 1 1
          1 1 1 1 1 1 1 1 1 1 1 1
          1 1 1 1 1 1
        </DataArray>
        <DataArray type="Float32" Name="pg" NumberOfComponents="1" format="ascii">
          24687.8 24360.9 24034 23707 23380.1 23053.1 22726.2 22399.3 22072.3 21745.4 21418.4 21091.5
          20764.6 20437.6 20110.7 19783.7 19456.8 19129.8 18802.9 18476 18149 17822.1 17495.1 17168.2
          16841.3 16514.3 16187.4 15860.4 15533.5 15209.7
        </DataArray>
        <DataArray type="Float32" Name="pl" NumberOfComponents="1" format="ascii">
          110628 110301 109974 109647 109320 108993 108666 108339 108012 107685 107358 107031
          106704 106377 106050 105723 105396 105070 104743 104416 104089 103762 103435 103108
          102781 102454 102127 101800 101473 101149
        </DataArray>
        <DataArray type="Float32" Name="pc" NumberOfComponents="1" format="ascii">
          -85939.7 -85939.7 -85939.7 -85939.7 -85939.7 -85939.7 -85939.7 -85939.7 -85939.7 -85939.7 -85939.7 -85939.7
          -85939.7 -85939.7 -85939.7 -85939.7 -85939.7 -85939.7 -85939.7 -85939.7 -85939.7 -85939.7 -85939.7 -85939.7
          -85939.7 -85939.7 -85939.7 -85939.7 -85939.7 -85939.7
        </DataArray>
        <DataArray type="Float32" Name="rhoL" NumberOfComponents="1" format="ascii">
          999.855 999.855 999.855 999.855 999.855 999.854 999.854 999.854 999.854 999.854 999.854 999.854
          999.853 999.853 999.853 999.853 999.853 999.853 999.852 999.852 999.852 999.852 999.852 999.852
          999.852 999.851 999.851 999.851 999.851 999.851
        </DataArray>
        <DataArray type="Float32" Name="rhoG" NumberOfComponents="1" format="ascii">
          0.30585 0.3018 0.29775 0.293699 0.289649 0.285598 0.281548 0.277498 0.273447 0.269397 0.265347 0.261296
          0.257246 0.253195 0.249145 0.245095 0.241044 0.236994 0.232944 0.228893 0.224843 0.220793 0.216742 0.212692
          0.208641 0.204591 0.200541 0.19649 0.19244 0.188428
        </DataArray>
        <DataArray type="Float32" Name="mobL" NumberOfComponents="1" format="ascii">
          722.171 722.17 722.17 722.17 722.17 722.17 722.169 722.169 722.169 722.169 722.169 722.169
          722.168 722.168 722.168 722.168 722.168 722.167 722.167 722.167 722.167 722.167 722.166 722.166
          722.166 722.166 722.166 722.166 722.165 722.165
        </DataArray>
        <DataArray type="Float32" Name="mobG" NumberOfComponents="1" format="ascii">
          0 0 0 0 0 0 0 0 0 0 0 0
          0 0 0 0 0 0 0 0 0 0 0 0
          0 0 0 0 0 0
        </DataArray>
        <DataArray type="Float32" Name="porosity" NumberOfComponents="1" format="ascii">
          0.298885 0.298885 0.298885 0.298884 0.298884 0.298884 0.298883 0.298882 0.298881 0.298879 0.298877 0.298874
          0.29887 0.298864 0.298856 0.298845 0.29883 0.298811 0.298784 0.298747 0.298697 0.298626 0.298524 0.298371
          0.297858 0.297437 0.296586 0.294298 0.282639 0.0446547
        </DataArray>
        <DataArray type="Float32" Name="temperature" NumberOfComponents="1" format="ascii">
          281.15 281.15 281.15 281.15 281.15 281.15 281.15 281.15 281.15 281.15 281.15 281.15
          281.15 281.15 281.15 281.15 281.15 281.15 281.15 281.15 281.15 281.15 281.15 281.15
          281.15 281.15 281.15 281.15 281.15 281.15
        </DataArray>
        <DataArray type="Float32" Name="phase presence" NumberOfComponents="1" format="ascii">
          1 1 1 1 1 1 1 1 1 1 1 1
          1 1 1 1 1 1 1 1 1 1 1 1
          1 1 1 1 1 1
        </DataArray>
        <DataArray type="Float32" Name="precipitateVolumeFraction_au" NumberOfComponents="1" format="ascii">
          5.5264e-10 5.52764e-10 5.52784e-10 5.52764e-10 5.52741e-10 5.52762e-10 5.52773e-10 5.5275e-10 5.52737e-10 5.52749e-10 5.52751e-10 5.52718e-10
          5.52733e-10 5.52778e-10 5.52748e-10 5.52755e-10 5.52724e-10 5.52726e-10 5.52728e-10 5.52789e-10 5.52748e-10 5.52762e-10 5.53085e-10 1.32602e-09
          0.000269941 0.000269925 0.0002699 0.000269851 5.52238e-10 5.512e-10
        </DataArray>
        <DataArray type="Float32" Name="precipitateVolumeFraction_nanoAu" NumberOfComponents="1" format="ascii">
          1.23625e-13 1.23652e-13 1.23657e-13 1.23652e-13 1.23647e-13 1.23652e-13 1.23654e-13 1.23649e-13 1.23646e-13 1.23648e-13 1.23649e-13 1.23641e-13
          1.23644e-13 1.23653e-13 1.23645e-13 1.23646e-13 1.23637e-13 1.23635e-13 1.23632e-13 1.23641e-13 1.23626e-13 1.23626e-13 1.34666e-13 2.57603e-11
          6.03595e-08 7.66819e-08 1.02147e-07 1.45578e-07 4.74283e-13 4.67251e-13
        </DataArray>
        <DataArray type="Float32" Name="precipitateVolumeFraction_d" NumberOfComponents="1" format="ascii">
          0.000557514 0.000557572 0.000557652 0.000557766 0.000557925 0.000558147 0.000558458 0.000558891 0.000559492 0.000560324 0.00056147 0.000563043
          0.000565195 0.000568126 0.000572108 0.000577502 0.000584802 0.000594684 0.000608099 0.000626417 0.000651698 0.000687172 0.00073824 0.000814636
          0.000935782 0.00114638 0.00157205 0.00271623 0.00868065 0.127673
        </DataArray>
        <DataArray type="Float32" Name="precipitateVolumeFraction_p" NumberOfComponents="1" format="ascii">
          0.000557514 0.000557572 0.000557652 0.000557766 0.000557925 0.000558147 0.000558458 0.000558891 0.000559492 0.000560324 0.00056147 0.000563043
          0.000565195 0.000568126 0.000572108 0.000577502 0.000584802 0.000594684 0.000608099 0.000626417 0.000651698 0.000687172 0.00073824 0.000814636
          0.000935782 0.00114638 0.00157205 0.00271623 0.00868065 0.127673
        </DataArray>
        <DataArray type="Float32" Name="K" NumberOfComponents="1" format="ascii">
          9.85748e-11 9.85747e-11 9.85745e-11 9.85742e-11 9.85738e-11 9.85732e-11 9.85724e-11 9.85713e-11 9.85698e-11 9.85677e-11 9.85648e-11 9.85608e-11
          9.85553e-11 9.85479e-11 9.85377e-11 9.8524e-11 9.85055e-11 9.84804e-11 9.84463e-11 9.83999e-11 9.83357e-11 9.82458e-11 9.81164e-11 9.79232e-11
          9.72776e-11 9.67494e-11 9.56889e-11 9.28857e-11 7.96253e-11 1.77057e-13
        </DataArray>
        <DataArray type="Float32" Name="X^w_H2O" NumberOfComponents="1" format="ascii">
          0.999971 0.999971 0.999971 0.999971 0.999971 0.999971 0.999971 0.999971 0.999971 0.999971 0.999971 0.999971
          0.999971 0.999971 0.999971 0.999971 0.999971 0.999971 0.999971 0.999971 0.999971 0.999971 0.999971 0.999971
          0.999971 0.99997 0.999968 0.999964 0.999957 0.999956
        </DataArray>
        <DataArray type="Float32" Name="X^w_Air" NumberOfComponents="1" format="ascii">
          0 0 0 0 0 0 0 0 0 0 0 0
          0 0 0 0 0 0 0 0 0 0 0 0
          0 0 0 0 0 0
        </DataArray>
        <DataArray type="Float32" Name="X^w_AuComplex" NumberOfComponents="1" format="ascii">
          1.4105e-16 1.41081e-16 1.41087e-16 1.41081e-16 1.41076e-16 1.41081e-16 1.41084e-16 1.41077e-16 1.41074e-16 1.41077e-16 1.41076e-16 1.41067e-16
          1.4107e-16 1.4108e-16 1.4107e-16 1.41069e-16 1.41057e-16 1.41053e-16 1.41046e-16 1.41052e-16 1.41029e-16 1.41021e-16 1.53569e-16 2.93764e-14
          6.88285e-11 1.07365e-10 1.84406e-10 3.64061e-10 1.83637e-15 1.78852e-15
        </DataArray>
        <DataArray type="Float32" Name="X^w_nanoAu" NumberOfComponents="1" format="ascii">
          8.97488e-20 8.97688e-20 8.9772e-20 8.97687e-20 8.97651e-20 8.97683e-20 8.977e-20 8.97662e-20 8.9764e-20 8.97657e-20 8.97657e-20 8.97601e-20
          8.9762e-20 8.97685e-20 8.97628e-20 8.97627e-20 8.9756e-20 8.97542e-20 8.97516e-20 8.97637e-20 9.03651e-20 1.47224e-19 5.41527e-18 4.92765e-16
          4.39407e-14 5.58554e-14 7.44474e-14 1.04449e-13 3.43372e-19 3.30873e-19
        </DataArray>
        <DataArray type="Float32" Name="X^w_cyanide" NumberOfComponents="1" format="ascii">
          5.07034e-06 5.07034e-06 5.07035e-06 5.07035e-06 5.07035e-06 5.07035e-06 5.07034e-06 5.07034e-06 5.07034e-06 5.07033e-06 5.07032e-06 5.0703e-06
          5.07028e-06 5.07025e-06 5.07021e-06 5.07015e-06 5.07008e-06 5.06998e-06 5.06984e-06 5.06966e-06 5.0694e-06 5.06903e-06 5.0685e-06 5.06771e-06
          5.06698e-06 6.4367e-06 8.57264e-06 1.22391e-05 1.94674e-05 1.92413e-05
        </DataArray>
        <DataArray type="Float32" Name="X^w_citrate" NumberOfComponents="1" format="ascii">
          2.36355e-05 2.36355e-05 2.36355e-05 2.36355e-05 2.36355e-05 2.36354e-05 2.36354e-05 2.36354e-05 2.36354e-05 2.36354e-05 2.36354e-05 2.36354e-05
          2.36353e-05 2.36353e-05 2.36353e-05 2.36352e-05 2.36351e-05 2.3635e-05 2.36348e-05 2.36346e-05 2.36342e-05 2.36338e-05 2.36332e-05 2.36322e-05
          2.36307e-05 2.36284e-05 2.36239e-05 2.36136e-05 2.35799e-05 2.33059e-05
        </DataArray>
        <DataArray type="Float32" Name="X^w_substrate" NumberOfComponents="1" format="ascii">
          1.96682e-11 2.5867e-11 3.40176e-11 4.47344e-11 5.88254e-11 7.7354e-11 1.0172e-10 1.33768e-10 1.75932e-10 2.31427e-10 3.04509e-10 4.00833e-10
          5.27937e-10 6.95926e-10 9.18437e-10 1.21404e-09 1.60833e-09 2.13707e-09 2.85122e-09 3.82513e-09 5.17052e-09 7.06173e-09 9.78412e-09 1.38346e-08
          2.0152e-08 3.07182e-08 5.04411e-08 9.48343e-08 2.38966e-07 1.39804e-06
        </DataArray>
        <DataArray type="Float32" Name="m^w_H2O" NumberOfComponents="1" format="ascii">
          55499.1 55499.1 55499.1 55499.1 55499.1 55499.1 55499.1 55499.1 55499 55499 55499 55499
          55499 55499 55499 55499 55499 55499 55499 55498.9 55498.9 55498.9 55498.9 55498.9
          55498.9 55498.8 55498.7 55498.5 55498.1 55498
        </DataArray>
        <DataArray type="Float32" Name="m^w_Air" NumberOfComponents="1" format="ascii">
          0 0 0 0 0 0 0 0 0 0 0 0
          0 0 0 0 0 0 0 0 0 0 0 0
          0 0 0 0 0 0
        </DataArray>
        <DataArray type="Float32" Name="m^w_AuComplex" NumberOfComponents="1" format="ascii">
          7.15994e-13 7.16154e-13 7.16181e-13 7.16154e-13 7.16125e-13 7.16151e-13 7.16165e-13 7.16134e-13 7.16116e-13 7.16129e-13 7.16128e-13 7.16082e-13
          7.16095e-13 7.16145e-13 7.16095e-13 7.16091e-13 7.16031e-13 7.16008e-13 7.15975e-13 7.16005e-13 7.15884e-13 7.15843e-13 7.79542e-13 1.49119e-10
          3.49385e-07 5.45002e-07 9.36076e-07 1.84803e-06 9.32169e-12 9.07882e-12
        </DataArray>
        <DataArray type="Float32" Name="m^w_nanoAu" NumberOfComponents="1" format="ascii">
          4.55581e-16 4.55683e-16 4.55699e-16 4.55682e-16 4.55663e-16 4.5568e-16 4.55689e-16 4.55669e-16 4.55658e-16 4.55666e-16 4.55666e-16 4.55638e-16
          4.55647e-16 4.5568e-16 4.55651e-16 4.55651e-16 4.55616e-16 4.55607e-16 4.55594e-16 4.55656e-16 4.58708e-16 7.47331e-16 2.74888e-14 2.50135e-12
          2.2305e-10 2.83531e-10 3.77907e-10 5.30199e-10 1.74301e-15 1.67956e-15
        </DataArray>
        <DataArray type="Float32" Name="m^w_cyanide" NumberOfComponents="1" format="ascii">
          0.194835 0.194835 0.194835 0.194835 0.194835 0.194835 0.194835 0.194835 0.194835 0.194834 0.194834 0.194833
          0.194832 0.194831 0.194829 0.194827 0.194824 0.194821 0.194815 0.194808 0.194798 0.194784 0.194764 0.194733
          0.194705 0.247338 0.329414 0.470304 0.748061 0.73937
        </DataArray>
        <DataArray type="Float32" Name="m^w_citrate" NumberOfComponents="1" format="ascii">
          0.124972 0.124972 0.124972 0.124972 0.124972 0.124972 0.124972 0.124972 0.124971 0.124971 0.124971 0.124971
          0.124971 0.124971 0.12497 0.12497 0.124969 0.124969 0.124968 0.124967 0.124965 0.124963 0.124959 0.124954
          0.124946 0.124934 0.12491 0.124856 0.124677 0.123229
        </DataArray>
        <DataArray type="Float32" Name="m^w_substrate" NumberOfComponents="1" format="ascii">
          1.09155e-07 1.43557e-07 1.88792e-07 2.48268e-07 3.2647e-07 4.293e-07 5.64528e-07 7.42389e-07 9.7639e-07 1.28437e-06 1.68997e-06 2.22454e-06
          2.92995e-06 3.86225e-06 5.09715e-06 6.7377e-06 8.9259e-06 1.18603e-05 1.58237e-05 2.12287e-05 2.86954e-05 3.91912e-05 5.42999e-05 7.67794e-05
          0.00011184 0.00017048 0.000279938 0.000526311 0.00132621 0.00775882
        </DataArray>
        <DataArray type="Float32" Name="process rank" NumberOfComponents="1" format="ascii">
          0 0 0 0 0 0 0 0 0 0 0 0
          0 0 0 0 0 0 0 0 0 0 0 0
          0 0 0 0 0 0
        </DataArray>
      </CellData>
      <Points>
        <DataArray type="Float32" Name="Coordinates" NumberOfComponents="3" format="ascii">
          0 0 0 0.5 0 0 0 0.0333333 0 0.5 0.0333333 0
          0 0.0666667 0 0.5 0.0666667 0 0 0.1 0 0.5 0.1 0
          0 0.133333 0 0.5 0.133333 0 0 0.166667 0 0.5 0.166667 0
          0 0.2 0 0.5 0.2 0 0 0.233333 0 0.5 0.233333 0
          0 0.266667 0 0.5 0.266667 0 0 0.3 0 0.5 0.3 0
          0 0.333333 0 0.5 0.333333 0 0 0.366667 0 0.5 0.366667 0
          0 0.4 0 0.5 0.4 0 0 0.433333 0 0.5 0.433333 0
          0 0.466667 0 0.5 0.466667 0 0 0.5 0 0.5 0.5 0
          0 0.533333 0 0.5 0.533333 0 0 0.566667 0 0.5 0.566667 0
          0 0.6 0 0.5 0.6 0 0 0.633333 0 0.5 0.633333 0
          0 0.666667 0 0.5 0.666667 0 0 0.7 0 0.5 0.7 0
          0 0.733333 0 0.5 0.733333 0 0 0.766667 0 0.5 0.766667 0
          0 0.8 0 0.5 0.8 0 0 0.833333 0 0.5 0.833333 0
          0 0.866667 0 0.5 0.866667 0 0 0.9 0 0.5 0.9 0
          0 0.933333 0 0.5 0.933333 0 0 0.966667 0 0.5 0.966667 0
          0 1 0 0.5 1 0
        </DataArray>
      </Points>
      <Cells>
        <DataArray type="Int32" Name="connectivity" NumberOfComponents="1" format="ascii">
          0 1 3 2 2 3 5 4 4 5 7 6
          6 7 9 8 8 9 11 10 10 11 13 12
          12 13 15 14 14 15 17 16 16 17 19 18
          18 19 21 20 20 21 23 22 22 23 25 24
          24 25 27 26 26 27 29 28 28 29 31 30
          30 31 33 32 32 33 35 34 34 35 37 36
          36 37 39 38 38 39 41 40 40 41 43 42
          42 43 45 44 44 45 47 46 46 47 49 48
          48 49 51 50 50 51 53 52 52 53 55 54
          54 55 57 56 56 57 59 58 58 59 61 60
        </DataArray>
        <DataArray type="Int32" Name="offsets" NumberOfComponents="1" format="ascii">
          4 8 12 16 20 24 28 32 36 40 44 48
          52 56 60 64 68 72 76 80 84 88 92 96
          100 104 108 112 116 120
        </DataArray>
        <DataArray type="UInt8" Name="types" NumberOfComponents="1" format="ascii">
          9 9 9 9 9 9 9 9 9 9 9 9
          9 9 9 9 9 9 9 9 9 9 9 9
          9 9 9 9 9 9
        </DataArray>
      </Cells>
    </Piece>
  </UnstructuredGrid>
</VTKFile>
