<?xml version="1.0"?>
<VTKFile type="UnstructuredGrid" version="0.1" byte_order="LittleEndian">
  <UnstructuredGrid>
    <Piece NumberOfCells="30" NumberOfPoints="62">
      <CellData Scalars="Sg">
        <DataArray type="Float32" Name="Sg" NumberOfComponents="1" format="ascii">
          0 0 0 0 0 0 0 0 0 0 0 0
          0 0 0 0 0 0 0 0 0 0 0 0
          0 0 0 0 0 0
        </DataArray>
        <DataArray type="Float32" Name="Sl" NumberOfComponents="1" format="ascii">
          1 1 1 1 1 1 1 1 1 1 1 1
          1 1 1 1 1 1 1 1 1 1 1 1
          1 1 1 1 1 1
        </DataArray>
        <DataArray type="Float32" Name="pg" NumberOfComponents="1" format="ascii">
          24687.8 24360.9 24034 23707 23380.1 23053.1 22726.2 22399.3 22072.3 21745.4 21418.4 21091.5
          20764.6 20437.6 20110.7 19783.7 19456.8 19129.8 18802.9 18476 18149 17822.1 17495.1 17168.2
          16841.3 16514.3 16187.4 15860.4 15533.5 15207.5
        </DataArray>
        <DataArray type="Float32" Name="pl" NumberOfComponents="1" format="ascii">
          110628 110301 109974 109647 109320 108993 108666 108339 108012 107685 107358 107031
          106704 106377 106050 105723 105396 105070 104743 104416 104089 103762 103435 103108
          102781 102454 102127 101800 101473 101147
        </DataArray>
        <DataArray type="Float32" Name="pc" NumberOfComponents="1" format="ascii">
          -85939.7 -85939.7 -85939.7 -85939.7 -85939.7 -85939.7 -85939.7 -85939.7 -85939.7 -85939.7 -85939.7 -85939.7
          -85939.7 -85939.7 -85939.7 -85939.7 -85939.7 -85939.7 -85939.7 -85939.7 -85939.7 -85939.7 -85939.7 -85939.7
          -85939.7 -85939.7 -85939.7 -85939.7 -85939.7 -85939.7
        </DataArray>
        <DataArray type="Float32" Name="rhoL" NumberOfComponents="1" format="ascii">
          999.855 999.855 999.855 999.855 999.855 999.854 999.854 999.854 999.854 999.854 999.854 999.854
          999.853 999.853 999.853 999.853 999.853 999.853 999.852 999.852 999.852 999.852 999.852 999.852
          999.852 999.851 999.851 999.851 999.851 999.851
        </DataArray>
        <DataArray type="Float32" Name="rhoG" NumberOfComponents="1" format="ascii">
          0.30585 0.3018 0.29775 0.293699 0.289649 0.285598 0.281548 0.277498 0.273447 0.269397 0.265347 0.261296
          0.257246 0.253195 0.249145 0.245095 0.241044 0.236994 0.232944 0.228893 0.224843 0.220793 0.216742 0.212692
          0.208641 0.204591 0.200541 0.19649 0.19244 0.188402
        </DataArray>
        <DataArray type="Float32" Name="mobL" NumberOfComponents="1" format="ascii">
          722.171 722.17 722.17 722.17 722.17 722.17 722.169 722.169 722.169 722.169 722.169 722.169
          722.168 722.168 722.168 722.168 722.168 722.167 722.167 722.167 722.167 722.167 722.166 722.166
          722.166 722.166 722.166 722.166 722.165 722.165
        </DataArray>
        <DataArray type="Float32" Name="mobG" NumberOfComponents="1" format="ascii">
          0 0 0 0 0 0 0 0 0 0 0 0
          0 0 0 0 0 0 0 0 0 0 0 0
          0 0 0 0 0 0
        </DataArray>
        <DataArray type="Float32" Name="porosity" NumberOfComponents="1" format="ascii">
          0.298648 0.298648 0.298648 0.298648 0.298647 0.298647 0.298646 0.298645 0.298644 0.298642 0.298639 0.298635
          0.29863 0.298623 0.298614 0.298602 0.298584 0.298561 0.29853 0.298488 0.29843 0.298348 0.298232 0.298061
          0.297523 0.29707 0.296191 0.294009 0.284776 0.0647554
        </DataArray>
        <DataArray type="Float32" Name="temperature" NumberOfComponents="1" format="ascii">
          281.15 281.15 281.15 281.15 281.15 281.15 281.15 281.15 281.15 281.15 281.15 281.15
          281.15 281.15 281.15 281.15 281.15 281.15 281.15 281.15 281.15 281.15 281.15 281.15
          281.15 281.15 281.15 281.15 281.15 281.15
        </DataArray>
        <DataArray type="Float32" Name="phase presence" NumberOfComponents="1" format="ascii">
          1 1 1 1 1 1 1 1 1 1 1 1
          1 1 1 1 1 1 1 1 1 1 1 1
          1 1 1 1 1 1
        </DataArray>
        <DataArray type="Float32" Name="precipitateVolumeFraction_au" NumberOfComponents="1" format="ascii">
          5.52639e-10 5.52763e-10 5.52782e-10 5.52762e-10 5.5274e-10 5.5276e-10 5.52771e-10 5.52748e-10 5.52736e-10 5.52747e-10 5.52749e-10 5.52717e-10
          5.52731e-10 5.52776e-10 5.52746e-10 5.52754e-10 5.52722e-10 5.52725e-10 5.52727e-10 5.52788e-10 5.52746e-10 5.5276e-10 5.52885e-10 8.63745e-10
          0.00026994 0.000269924 0.000269899 0.000269853 5.52237e-10 5.51211e-10
        </DataArray>
        <DataArray type="Float32" Name="precipitateVolumeFraction_nanoAu" NumberOfComponents="1" format="ascii">
          1.25128e-13 1.25289e-13 1.25307e-13 1.25285e-13 1.25266e-13 1.25279e-13 1.25283e-13 1.25269e-13 1.25262e-13 1.25266e-13 1.25265e-13 1.25253e-13
          1.25256e-13 1.25269e-13 1.25258e-13 1.25258e-13 1.25247e-13 1.25245e-13 1.25241e-13 1.25252e-13 1.25234e-13 1.25234e-13 1.36236e-13 2.57215e-11
          6.04035e-08 7.67298e-08 1.02192e-07 1.45593e-07 4.75482e-13 4.67943e-13
        </DataArray>
        <DataArray type="Float32" Name="precipitateVolumeFraction_d" NumberOfComponents="1" format="ascii">
          0.000675904 0.00067597 0.000676063 0.000676193 0.000676377 0.000676634 0.000676995 0.000677498 0.000678198 0.000679168 0.000680506 0.000682344
          0.000684858 0.000688284 0.000692937 0.000699236 0.000707749 0.000719253 0.000734829 0.00075603 0.000785154 0.000825776 0.000883777 0.000969559
          0.00110337 0.0013302 0.00176975 0.00286041 0.00761176 0.117622
        </DataArray>
        <DataArray type="Float32" Name="precipitateVolumeFraction_p" NumberOfComponents="1" format="ascii">
          0.000675904 0.00067597 0.000676063 0.000676193 0.000676377 0.000676634 0.000676995 0.000677498 0.000678198 0.000679168 0.000680506 0.000682344
          0.000684858 0.000688284 0.000692937 0.000699236 0.000707749 0.000719253 0.000734829 0.00075603 0.000785154 0.000825776 0.000883777 0.000969559
          0.00110337 0.0013302 0.00176975 0.00286041 0.00761176 0.117622
        </DataArray>
        <DataArray type="Float32" Name="K" NumberOfComponents="1" format="ascii">
          9.82743e-11 9.82742e-11 9.82739e-11 9.82736e-11 9.82731e-11 9.82725e-11 9.82716e-11 9.82703e-11 9.82685e-11 9.82661e-11 9.82627e-11 9.8258e-11
          9.82516e-11 9.8243e-11 9.82312e-11 9.82152e-11 9.81936e-11 9.81645e-11 9.81251e-11 9.80714e-11 9.79977e-11 9.7895e-11 9.77486e-11 9.75323e-11
          9.68571e-11 9.62903e-11 9.51997e-11 9.25373e-11 8.19334e-11 5.6339e-13
        </DataArray>
        <DataArray type="Float32" Name="X^w_H2O" NumberOfComponents="1" format="ascii">
          0.999971 0.999971 0.999971 0.999971 0.999971 0.999971 0.999971 0.999971 0.999971 0.999971 0.999971 0.999971
          0.999971 0.999971 0.999971 0.999971 0.999971 0.999971 0.999971 0.999971 0.999971 0.999971 0.999971 0.999971
          0.999971 0.99997 0.999968 0.999964 0.999957 0.999956
        </DataArray>
        <DataArray type="Float32" Name="X^w_Air" NumberOfComponents="1" format="ascii">
          0 0 0 0 0 0 0 0 0 0 0 0
          0 0 0 0 0 0 0 0 0 0 0 0
          0 0 0 0 0 0
        </DataArray>
        <DataArray type="Float32" Name="X^w_AuComplex" NumberOfComponents="1" format="ascii">
          1.42599e-16 1.42757e-16 1.42774e-16 1.42752e-16 1.42732e-16 1.42744e-16 1.42747e-16 1.42731e-16 1.42723e-16 1.42726e-16 1.42725e-16 1.4271e-16
          1.42713e-16 1.42726e-16 1.42712e-16 1.4271e-16 1.42696e-16 1.4269e-16 1.42683e-16 1.4269e-16 1.42664e-16 1.42655e-16 1.55163e-16 2.93442e-14
          6.891e-11 1.07476e-10 1.84543e-10 3.64122e-10 1.83987e-15 1.78893e-15
        </DataArray>
        <DataArray type="Float32" Name="X^w_nanoAu" NumberOfComponents="1" format="ascii">
          9.08419e-20 9.09573e-20 9.09701e-20 9.09542e-20 9.09409e-20 9.09502e-20 9.0953e-20 9.09427e-20 9.09377e-20 9.09404e-20 9.09401e-20 9.09308e-20
          9.09337e-20 9.09427e-20 9.09347e-20 9.09342e-20 9.09259e-20 9.09239e-20 9.09212e-20 9.09343e-20 9.15365e-20 1.48551e-19 5.42733e-18 4.93425e-16
          4.3973e-14 5.58895e-14 7.44757e-14 1.04442e-13 3.44061e-19 3.30961e-19
        </DataArray>
        <DataArray type="Float32" Name="X^w_cyanide" NumberOfComponents="1" format="ascii">
          5.07402e-06 5.07398e-06 5.07394e-06 5.07391e-06 5.07387e-06 5.07383e-06 5.0738e-06 5.07376e-06 5.07372e-06 5.07368e-06 5.07364e-06 5.0736e-06
          5.07355e-06 5.0735e-06 5.07343e-06 5.07336e-06 5.07327e-06 5.07316e-06 5.07302e-06 5.07282e-06 5.07256e-06 5.07218e-06 5.07162e-06 5.07076e-06
          5.06986e-06 6.43985e-06 8.57561e-06 1.224e-05 1.94576e-05 1.9218e-05
        </DataArray>
        <DataArray type="Float32" Name="X^w_citrate" NumberOfComponents="1" format="ascii">
          2.36355e-05 2.36355e-05 2.36355e-05 2.36355e-05 2.36355e-05 2.36355e-05 2.36355e-05 2.36355e-05 2.36354e-05 2.36354e-05 2.36354e-05 2.36354e-05
          2.36354e-05 2.36354e-05 2.36353e-05 2.36353e-05 2.36352e-05 2.36351e-05 2.3635e-05 2.36348e-05 2.36345e-05 2.36341e-05 2.36334e-05 2.36324e-05
          2.36308e-05 2.3628e-05 2.36226e-05 2.36097e-05 2.3568e-05 2.32777e-05
        </DataArray>
        <DataArray type="Float32" Name="X^w_substrate" NumberOfComponents="1" format="ascii">
          5.87047e-12 8.1024e-12 1.11823e-11 1.54323e-11 2.1297e-11 2.93903e-11 4.05601e-11 5.59788e-11 7.72683e-11 1.06676e-10 1.47323e-10 2.0355e-10
          2.81424e-10 3.89455e-10 5.3966e-10 7.4914e-10 1.04249e-09 1.45555e-09 2.04149e-09 2.88086e-09 4.09916e-09 5.89899e-09 8.62243e-09 1.28819e-08
          1.98621e-08 3.21084e-08 5.59737e-08 1.11323e-07 2.8921e-07 1.51745e-06
        </DataArray>
        <DataArray type="Float32" Name="m^w_H2O" NumberOfComponents="1" format="ascii">
          55499.1 55499.1 55499.1 55499.1 55499.1 55499.1 55499.1 55499.1 55499 55499 55499 55499
          55499 55499 55499 55499 55499 55499 55499 55498.9 55498.9 55498.9 55498.9 55498.9
          55498.9 55498.8 55498.7 55498.5 55498.1 55498
        </DataArray>
        <DataArray type="Float32" Name="m^w_Air" NumberOfComponents="1" format="ascii">
          0 0 0 0 0 0 0 0 0 0 0 0
          0 0 0 0 0 0 0 0 0 0 0 0
          0 0 0 0 0 0
        </DataArray>
        <DataArray type="Float32" Name="m^w_AuComplex" NumberOfComponents="1" format="ascii">
          7.23858e-13 7.24662e-13 7.24749e-13 7.24632e-13 7.24531e-13 7.24593e-13 7.2461e-13 7.2453e-13 7.24488e-13 7.24503e-13 7.24496e-13 7.2442e-13
          7.24435e-13 7.245e-13 7.24431e-13 7.24421e-13 7.24347e-13 7.2432e-13 7.24285e-13 7.24319e-13 7.24187e-13 7.2414e-13 7.87633e-13 1.48956e-10
          3.49798e-07 5.45565e-07 9.36769e-07 1.84834e-06 9.33949e-12 9.08087e-12
        </DataArray>
        <DataArray type="Float32" Name="m^w_nanoAu" NumberOfComponents="1" format="ascii">
          4.6113e-16 4.61716e-16 4.61781e-16 4.617e-16 4.61632e-16 4.61679e-16 4.61693e-16 4.61641e-16 4.61616e-16 4.61629e-16 4.61628e-16 4.61581e-16
          4.61595e-16 4.61641e-16 4.616e-16 4.61597e-16 4.61555e-16 4.61545e-16 4.61531e-16 4.61598e-16 4.64654e-16 7.5407e-16 2.755e-14 2.5047e-12
          2.23214e-10 2.83704e-10 3.7805e-10 5.30163e-10 1.74651e-15 1.68001e-15
        </DataArray>
        <DataArray type="Float32" Name="m^w_cyanide" NumberOfComponents="1" format="ascii">
          0.194976 0.194975 0.194973 0.194972 0.194971 0.194969 0.194968 0.194966 0.194965 0.194963 0.194962 0.19496
          0.194958 0.194956 0.194953 0.194951 0.194947 0.194943 0.194937 0.19493 0.19492 0.194905 0.194883 0.19485
          0.194816 0.247459 0.329529 0.470336 0.747684 0.738474
        </DataArray>
        <DataArray type="Float32" Name="m^w_citrate" NumberOfComponents="1" format="ascii">
          0.124972 0.124972 0.124972 0.124972 0.124972 0.124972 0.124972 0.124972 0.124972 0.124972 0.124971 0.124971
          0.124971 0.124971 0.124971 0.124971 0.12497 0.12497 0.124969 0.124968 0.124966 0.124964 0.124961 0.124955
          0.124947 0.124932 0.124903 0.124835 0.124614 0.123079
        </DataArray>
        <DataArray type="Float32" Name="m^w_substrate" NumberOfComponents="1" format="ascii">
          3.258e-08 4.49668e-08 6.20598e-08 8.56465e-08 1.18195e-07 1.63111e-07 2.25101e-07 3.10672e-07 4.28825e-07 5.92033e-07 8.17612e-07 1.12966e-06
          1.56185e-06 2.1614e-06 2.99501e-06 4.15758e-06 5.78561e-06 8.07804e-06 1.13299e-05 1.59882e-05 2.27495e-05 3.27382e-05 4.78527e-05 7.14921e-05
          0.000110231 0.000178195 0.000310643 0.000617818 0.00160505 0.00842151
        </DataArray>
        <DataArray type="Float32" Name="process rank" NumberOfComponents="1" format="ascii">
          0 0 0 0 0 0 0 0 0 0 0 0
          0 0 0 0 0 0 0 0 0 0 0 0
          0 0 0 0 0 0
        </DataArray>
      </CellData>
      <Points>
        <DataArray type="Float32" Name="Coordinates" NumberOfComponents="3" format="ascii">
          0 0 0 0.5 0 0 0 0.0333333 0 0.5 0.0333333 0
          0 0.0666667 0 0.5 0.0666667 0 0 0.1 0 0.5 0.1 0
          0 0.133333 0 0.5 0.133333 0 0 0.166667 0 0.5 0.166667 0
          0 0.2 0 0.5 0.2 0 0 0.233333 0 0.5 0.233333 0
          0 0.266667 0 0.5 0.266667 0 0 0.3 0 0.5 0.3 0
          0 0.333333 0 0.5 0.333333 0 0 0.366667 0 0.5 0.366667 0
          0 0.4 0 0.5 0.4 0 0 0.433333 0 0.5 0.433333 0
          0 0.466667 0 0.5 0.466667 0 0 0.5 0 0.5 0.5 0
          0 0.533333 0 0.5 0.533333 0 0 0.566667 0 0.5 0.566667 0
          0 0.6 0 0.5 0.6 0 0 0.633333 0 0.5 0.633333 0
          0 0.666667 0 0.5 0.666667 0 0 0.7 0 0.5 0.7 0
          0 0.733333 0 0.5 0.733333 0 0 0.766667 0 0.5 0.766667 0
          0 0.8 0 0.5 0.8 0 0 0.833333 0 0.5 0.833333 0
          0 0.866667 0 0.5 0.866667 0 0 0.9 0 0.5 0.9 0
          0 0.933333 0 0.5 0.933333 0 0 0.966667 0 0.5 0.966667 0
          0 1 0 0.5 1 0
        </DataArray>
      </Points>
      <Cells>
        <DataArray type="Int32" Name="connectivity" NumberOfComponents="1" format="ascii">
          0 1 3 2 2 3 5 4 4 5 7 6
          6 7 9 8 8 9 11 10 10 11 13 12
          12 13 15 14 14 15 17 16 16 17 19 18
          18 19 21 20 20 21 23 22 22 23 25 24
          24 25 27 26 26 27 29 28 28 29 31 30
          30 31 33 32 32 33 35 34 34 35 37 36
          36 37 39 38 38 39 41 40 40 41 43 42
          42 43 45 44 44 45 47 46 46 47 49 48
          48 49 51 50 50 51 53 52 52 53 55 54
          54 55 57 56 56 57 59 58 58 59 61 60
        </DataArray>
        <DataArray type="Int32" Name="offsets" NumberOfComponents="1" format="ascii">
          4 8 12 16 20 24 28 32 36 40 44 48
          52 56 60 64 68 72 76 80 84 88 92 96
          100 104 108 112 116 120
        </DataArray>
        <DataArray type="UInt8" Name="types" NumberOfComponents="1" format="ascii">
          9 9 9 9 9 9 9 9 9 9 9 9
          9 9 9 9 9 9 9 9 9 9 9 9
          9 9 9 9 9 9
        </DataArray>
      </Cells>
    </Piece>
  </UnstructuredGrid>
</VTKFile>
