<?xml version="1.0"?>
<VTKFile type="UnstructuredGrid" version="0.1" byte_order="LittleEndian">
  <UnstructuredGrid>
    <Piece NumberOfCells="30" NumberOfPoints="62">
      <CellData Scalars="Sg">
        <DataArray type="Float32" Name="Sg" NumberOfComponents="1" format="ascii">
          0.0987927 0.0987866 0.0987805 0.0987743 0.0987682 0.098762 0.0987557 0.0987495 0.0987433 0.0987371 0.098731 0.0987251
          0.0987194 0.098714 0.098709 0.0987046 0.098701 0.0986985 0.0986975 0.0986981 0.0986996 0.0986939 0.0986329 0.0982706
          0.0964714 0.0885413 0.0580691 0 0 0
        </DataArray>
        <DataArray type="Float32" Name="Sl" NumberOfComponents="1" format="ascii">
          0.901207 0.901213 0.901219 0.901226 0.901232 0.901238 0.901244 0.90125 0.901257 0.901263 0.901269 0.901275
          0.901281 0.901286 0.901291 0.901295 0.901299 0.901301 0.901303 0.901302 0.9013 0.901306 0.901367 0.901729
          0.903529 0.911459 0.941931 1 1 1
        </DataArray>
        <DataArray type="Float32" Name="pg" NumberOfComponents="1" format="ascii">
          52988.5 52659.9 52331.2 52002.5 51673.8 51345 51016.3 50687.6 50358.9 50030.2 49701.5 49372.8
          49044.3 48715.8 48387.4 48059.2 47731.2 47403.6 47076.3 46749.6 46423.1 46094.5 45750.1 45319.3
          44477 41878.4 32822.2 15860.4 15533.5 15206.6
        </DataArray>
        <DataArray type="Float32" Name="pl" NumberOfComponents="1" format="ascii">
          110628 110301 109974 109647 109320 108993 108666 108339 108012 107685 107358 107031
          106704 106377 106050 105723 105396 105070 104743 104416 104089 103762 103435 103108
          102781 102454 102127 101800 101473 101146
        </DataArray>
        <DataArray type="Float32" Name="pc" NumberOfComponents="1" format="ascii">
          -57639 -57640.7 -57642.5 -57644.2 -57646 -57647.8 -57649.6 -57651.3 -57653.1 -57654.9 -57656.6 -57658.3
          -57660 -57661.5 -57663 -57664.2 -57665.2 -57665.9 -57666.2 -57666.1 -57665.6 -57667.3 -57684.7 -57788.5
          -58304 -60575.6 -69304.9 -85939.7 -85939.7 -85939.7
        </DataArray>
        <DataArray type="Float32" Name="rhoL" NumberOfComponents="1" format="ascii">
          999.855 999.855 999.855 999.855 999.855 999.854 999.854 999.854 999.854 999.854 999.854 999.854
          999.853 999.853 999.853 999.853 999.853 999.853 999.852 999.852 999.852 999.852 999.852 999.852
          999.852 999.851 999.851 999.851 999.851 999.851
        </DataArray>
        <DataArray type="Float32" Name="rhoG" NumberOfComponents="1" format="ascii">
          0.656459 0.652387 0.648315 0.644243 0.640171 0.636098 0.632026 0.627953 0.623881 0.619809 0.615737 0.611665
          0.607595 0.603525 0.599457 0.595391 0.591328 0.587269 0.583215 0.579167 0.575122 0.571051 0.566784 0.561448
          0.551012 0.518818 0.406624 0.19649 0.19244 0.18839
        </DataArray>
        <DataArray type="Float32" Name="mobL" NumberOfComponents="1" format="ascii">
          722.171 722.17 722.17 722.17 722.17 722.17 722.169 722.169 722.169 722.169 722.169 722.169
          722.168 722.168 722.168 722.168 722.168 722.167 722.167 722.167 722.167 722.167 722.166 722.166
          722.166 722.166 722.166 722.166 722.165 722.165
        </DataArray>
        <DataArray type="Float32" Name="mobG" NumberOfComponents="1" format="ascii">
          0 0 0 0 0 0 0 0 0 0 0 0
          0 0 0 0 0 0 0 0 0 0 0 0
          0 0 0 0 0 0
        </DataArray>
        <DataArray type="Float32" Name="porosity" NumberOfComponents="1" format="ascii">
          0.298478 0.298478 0.298478 0.298478 0.298478 0.298478 0.298477 0.298477 0.298476 0.298475 0.298473 0.29847
          0.298466 0.29846 0.298453 0.298442 0.298428 0.298408 0.298382 0.298346 0.298298 0.298234 0.298146 0.298024
          0.297582 0.297331 0.296949 0.296339 0.295579 0.293685
        </DataArray>
        <DataArray type="Float32" Name="temperature" NumberOfComponents="1" format="ascii">
          281.15 281.15 281.15 281.15 281.15 281.15 281.15 281.15 281.15 281.15 281.15 281.15
          281.15 281.15 281.15 281.15 281.15 281.15 281.15 281.15 281.15 281.15 281.15 281.15
          281.15 281.15 281.15 281.15 281.15 281.15
        </DataArray>
        <DataArray type="Float32" Name="phase presence" NumberOfComponents="1" format="ascii">
          3 3 3 3 3 3 3 3 3 3 3 3
          3 3 3 3 3 3 3 3 3 3 3 3
          3 3 3 1 1 1
        </DataArray>
        <DataArray type="Float32" Name="precipitateVolumeFraction_au" NumberOfComponents="1" format="ascii">
          2.9569e-10 2.95687e-10 2.95687e-10 2.95687e-10 2.95687e-10 2.95687e-10 2.95687e-10 2.95688e-10 2.95688e-10 2.95688e-10 2.95688e-10 2.95688e-10
          2.95689e-10 2.95689e-10 2.9569e-10 2.95691e-10 2.95692e-10 2.95693e-10 2.95695e-10 2.95697e-10 2.95699e-10 2.95701e-10 2.95704e-10 2.98241e-10
          0.000269952 0.000269951 0.00026995 0.000269952 2.95674e-10 2.9527e-10
        </DataArray>
        <DataArray type="Float32" Name="precipitateVolumeFraction_nanoAu" NumberOfComponents="1" format="ascii">
          2.57181e-10 2.57179e-10 2.57179e-10 2.57179e-10 2.57179e-10 2.57179e-10 2.57179e-10 2.57178e-10 2.57178e-10 2.57178e-10 2.57177e-10 2.57177e-10
          2.57176e-10 2.57175e-10 2.57174e-10 2.57173e-10 2.57172e-10 2.5717e-10 2.57168e-10 2.57166e-10 2.57163e-10 2.57159e-10 2.57157e-10 2.6841e-10
          4.87798e-08 4.97542e-08 5.00885e-08 4.89669e-08 2.57066e-10 2.56699e-10
        </DataArray>
        <DataArray type="Float32" Name="precipitateVolumeFraction_d" NumberOfComponents="1" format="ascii">
          0.000760753 0.000760774 0.000760806 0.000760858 0.00076094 0.000761068 0.000761264 0.000761562 0.000762009 0.00076267 0.000763634 0.000765022
          0.000766994 0.000769765 0.000773617 0.000778916 0.000786145 0.000795939 0.000809143 0.0008269 0.000850791 0.000883072 0.000927076 0.000987942
          0.00107399 0.00119964 0.00139054 0.00169542 0.00221026 0.00315773
        </DataArray>
        <DataArray type="Float32" Name="precipitateVolumeFraction_p" NumberOfComponents="1" format="ascii">
          0.000760753 0.000760774 0.000760806 0.000760858 0.00076094 0.000761068 0.000761264 0.000761562 0.000762009 0.00076267 0.000763634 0.000765022
          0.000766994 0.000769765 0.000773617 0.000778916 0.000786145 0.000795939 0.000809143 0.0008269 0.000850791 0.000883072 0.000927076 0.000987942
          0.00107399 0.00119964 0.00139054 0.00169542 0.00221026 0.00315773
        </DataArray>
        <DataArray type="Float32" Name="K" NumberOfComponents="1" format="ascii">
          9.80595e-11 9.80594e-11 9.80593e-11 9.80592e-11 9.8059e-11 9.80587e-11 9.80582e-11 9.80574e-11 9.80563e-11 9.80546e-11 9.80522e-11 9.80487e-11
          9.80437e-11 9.80366e-11 9.80269e-11 9.80135e-11 9.79952e-11 9.79705e-11 9.79371e-11 9.78922e-11 9.78318e-11 9.77503e-11 9.76393e-11 9.7486e-11
          9.69306e-11 9.66161e-11 9.61399e-11 9.53834e-11 9.44477e-11 9.21463e-11
        </DataArray>
        <DataArray type="Float32" Name="X^w_H2O" NumberOfComponents="1" format="ascii">
          0.99994 0.99994 0.999941 0.999941 0.999941 0.999941 0.999941 0.999941 0.999942 0.999942 0.999942 0.999942
          0.999943 0.999943 0.999944 0.999944 0.999945 0.999945 0.999946 0.999946 0.999947 0.999948 0.999948 0.999948
          0.999949 0.999947 0.999946 0.999948 0.999942 0.99993
        </DataArray>
        <DataArray type="Float32" Name="X^w_Air" NumberOfComponents="1" format="ascii">
          1.60941e-05 1.59922e-05 1.58903e-05 1.57884e-05 1.56865e-05 1.55846e-05 1.54827e-05 1.53808e-05 1.52789e-05 1.5177e-05 1.50751e-05 1.49732e-05
          1.48714e-05 1.47695e-05 1.46677e-05 1.4566e-05 1.44643e-05 1.43627e-05 1.42613e-05 1.416e-05 1.40588e-05 1.39569e-05 1.38502e-05 1.37166e-05
          1.34555e-05 1.26499e-05 9.8424e-06 2.10192e-06 2.0171e-08 1.44759e-10
        </DataArray>
        <DataArray type="Float32" Name="X^w_AuComplex" NumberOfComponents="1" format="ascii">
          9.25368e-13 9.25189e-13 9.2201e-13 9.20528e-13 9.16996e-13 9.13532e-13 9.12037e-13 9.06539e-13 8.98603e-13 8.90358e-13 8.81483e-13 8.69761e-13
          8.57074e-13 8.3978e-13 8.18801e-13 8.00264e-13 7.76848e-13 7.45669e-13 7.15485e-13 6.79504e-13 6.43708e-13 6.02158e-13 5.613e-13 5.48802e-13
          1.10387e-10 1.26109e-10 1.42518e-10 1.55114e-10 7.02851e-13 4.98892e-13
        </DataArray>
        <DataArray type="Float32" Name="X^w_nanoAu" NumberOfComponents="1" format="ascii">
          1.6459e-15 2.52782e-16 7.14653e-16 1.66038e-15 5.56276e-16 7.33768e-16 1.66642e-15 -1.90272e-16 -8.43193e-16 -5.91893e-16 2.44355e-16 6.60089e-16
          1.11648e-16 -1.88846e-16 6.80408e-16 3.50669e-16 -1.21644e-15 3.78488e-16 1.75318e-15 -2.40188e-16 3.79044e-16 9.86458e-17 1.72525e-15 1.36559e-15
          3.25987e-14 3.2624e-14 5.65424e-15 2.9449e-14 1.37593e-16 9.6838e-17
        </DataArray>
        <DataArray type="Float32" Name="X^w_cyanide" NumberOfComponents="1" format="ascii">
          1.89409e-05 1.89219e-05 1.88956e-05 1.886e-05 1.88125e-05 1.87501e-05 1.86694e-05 1.85666e-05 1.84376e-05 1.82777e-05 1.8082e-05 1.78452e-05
          1.7562e-05 1.7227e-05 1.68353e-05 1.63826e-05 1.58659e-05 1.52842e-05 1.46385e-05 1.39321e-05 1.31708e-05 1.23614e-05 1.1511e-05 1.06236e-05
          9.69414e-06 1.08982e-05 1.22514e-05 1.3581e-05 1.44132e-05 1.02458e-05
        </DataArray>
        <DataArray type="Float32" Name="X^w_citrate" NumberOfComponents="1" format="ascii">
          2.33532e-05 2.33524e-05 2.33513e-05 2.33498e-05 2.33477e-05 2.33448e-05 2.3341e-05 2.3336e-05 2.33296e-05 2.33214e-05 2.33112e-05 2.32988e-05
          2.32835e-05 2.32652e-05 2.32431e-05 2.32166e-05 2.31846e-05 2.31456e-05 2.30974e-05 2.30368e-05 2.2959e-05 2.28562e-05 2.27164e-05 2.25193e-05
          2.22301e-05 2.17849e-05 2.10622e-05 1.98223e-05 1.7485e-05 1.24216e-05
        </DataArray>
        <DataArray type="Float32" Name="X^w_substrate" NumberOfComponents="1" format="ascii">
          1.27964e-06 1.28144e-06 1.28416e-06 1.28817e-06 1.29399e-06 1.30225e-06 1.31378e-06 1.32954e-06 1.35069e-06 1.37854e-06 1.41458e-06 1.46048e-06
          1.51809e-06 1.58956e-06 1.67747e-06 1.78512e-06 1.91694e-06 2.0792e-06 2.28102e-06 2.53594e-06 2.86454e-06 3.29879e-06 3.88995e-06 4.72322e-06
          5.94651e-06 7.83036e-06 1.0888e-05 1.61344e-05 2.60222e-05 4.74424e-05
        </DataArray>
        <DataArray type="Float32" Name="m^w_H2O" NumberOfComponents="1" format="ascii">
          55497.4 55497.4 55497.4 55497.4 55497.4 55497.4 55497.4 55497.4 55497.4 55497.4 55497.4 55497.4
          55497.4 55497.4 55497.5 55497.5 55497.5 55497.5 55497.5 55497.6 55497.6 55497.6 55497.6 55497.6
          55497.6 55497.5 55497.5 55497.6 55497.2 55496.6
        </DataArray>
        <DataArray type="Float32" Name="m^w_Air" NumberOfComponents="1" format="ascii">
          0.555655 0.552137 0.548619 0.545101 0.541583 0.538064 0.534546 0.531027 0.527509 0.523991 0.520473 0.516955
          0.513438 0.509923 0.506408 0.502895 0.499385 0.495878 0.492376 0.488878 0.485383 0.481867 0.47818 0.47357
          0.464554 0.43674 0.339811 0.0725693 0.000696409 4.99785e-06
        </DataArray>
        <DataArray type="Float32" Name="m^w_AuComplex" NumberOfComponents="1" format="ascii">
          4.69734e-09 4.69643e-09 4.68029e-09 4.67276e-09 4.65483e-09 4.63725e-09 4.62966e-09 4.60175e-09 4.56147e-09 4.51961e-09 4.47456e-09 4.41506e-09
          4.35066e-09 4.26287e-09 4.15637e-09 4.06227e-09 3.94341e-09 3.78514e-09 3.63192e-09 3.44927e-09 3.26757e-09 3.05665e-09 2.84925e-09 2.78581e-09
          5.6034e-07 6.4015e-07 7.23446e-07 7.87382e-07 3.56778e-09 2.53246e-09
        </DataArray>
        <DataArray type="Float32" Name="m^w_nanoAu" NumberOfComponents="1" format="ascii">
          8.35487e-12 1.28317e-12 3.62771e-12 8.42839e-12 2.82375e-12 3.72473e-12 8.45904e-12 -9.65853e-13 -4.2802e-12 -3.00455e-12 1.24039e-12 3.35073e-12
          5.66744e-13 -9.58613e-13 3.45386e-12 1.78005e-12 -6.17485e-12 1.92127e-12 8.89942e-12 -1.21923e-12 1.92409e-12 5.00742e-13 8.75763e-12 6.93198e-12
          1.65476e-10 1.65605e-10 2.87018e-11 1.49488e-10 6.98442e-13 4.91565e-13
        </DataArray>
        <DataArray type="Float32" Name="m^w_cyanide" NumberOfComponents="1" format="ascii">
          0.72783 0.727099 0.726091 0.724722 0.722896 0.720497 0.717397 0.713449 0.70849 0.702346 0.694824 0.685726
          0.674844 0.661972 0.646919 0.629523 0.60967 0.587316 0.562502 0.53536 0.506104 0.475003 0.442325 0.408225
          0.37251 0.418777 0.470775 0.521866 0.553844 0.393708
        </DataArray>
        <DataArray type="Float32" Name="m^w_citrate" NumberOfComponents="1" format="ascii">
          0.123479 0.123475 0.123469 0.123461 0.12345 0.123435 0.123415 0.123388 0.123354 0.123311 0.123257 0.123191
          0.123111 0.123014 0.122897 0.122757 0.122587 0.122381 0.122126 0.121806 0.121394 0.120851 0.120112 0.11907
          0.117541 0.115186 0.111365 0.104809 0.0924512 0.0656784
        </DataArray>
        <DataArray type="Float32" Name="m^w_substrate" NumberOfComponents="1" format="ascii">
          0.00710176 0.00711178 0.00712686 0.00714912 0.00718139 0.00722726 0.00729123 0.0073787 0.00749606 0.00765064 0.00785068 0.00810539
          0.00842512 0.00882176 0.00930964 0.00990705 0.0106386 0.0115392 0.0126592 0.014074 0.0158976 0.0183076 0.0215884 0.0262129
          0.0330019 0.0434569 0.0604262 0.0895425 0.144418 0.263296
        </DataArray>
        <DataArray type="Float32" Name="process rank" NumberOfComponents="1" format="ascii">
          0 0 0 0 0 0 0 0 0 0 0 0
          0 0 0 0 0 0 0 0 0 0 0 0
          0 0 0 0 0 0
        </DataArray>
      </CellData>
      <Points>
        <DataArray type="Float32" Name="Coordinates" NumberOfComponents="3" format="ascii">
          0 0 0 0.5 0 0 0 0.0333333 0 0.5 0.0333333 0
          0 0.0666667 0 0.5 0.0666667 0 0 0.1 0 0.5 0.1 0
          0 0.133333 0 0.5 0.133333 0 0 0.166667 0 0.5 0.166667 0
          0 0.2 0 0.5 0.2 0 0 0.233333 0 0.5 0.233333 0
          0 0.266667 0 0.5 0.266667 0 0 0.3 0 0.5 0.3 0
          0 0.333333 0 0.5 0.333333 0 0 0.366667 0 0.5 0.366667 0
          0 0.4 0 0.5 0.4 0 0 0.433333 0 0.5 0.433333 0
          0 0.466667 0 0.5 0.466667 0 0 0.5 0 0.5 0.5 0
          0 0.533333 0 0.5 0.533333 0 0 0.566667 0 0.5 0.566667 0
          0 0.6 0 0.5 0.6 0 0 0.633333 0 0.5 0.633333 0
          0 0.666667 0 0.5 0.666667 0 0 0.7 0 0.5 0.7 0
          0 0.733333 0 0.5 0.733333 0 0 0.766667 0 0.5 0.766667 0
          0 0.8 0 0.5 0.8 0 0 0.833333 0 0.5 0.833333 0
          0 0.866667 0 0.5 0.866667 0 0 0.9 0 0.5 0.9 0
          0 0.933333 0 0.5 0.933333 0 0 0.966667 0 0.5 0.966667 0
          0 1 0 0.5 1 0
        </DataArray>
      </Points>
      <Cells>
        <DataArray type="Int32" Name="connectivity" NumberOfComponents="1" format="ascii">
          0 1 3 2 2 3 5 4 4 5 7 6
          6 7 9 8 8 9 11 10 10 11 13 12
          12 13 15 14 14 15 17 16 16 17 19 18
          18 19 21 20 20 21 23 22 22 23 25 24
          24 25 27 26 26 27 29 28 28 29 31 30
          30 31 33 32 32 33 35 34 34 35 37 36
          36 37 39 38 38 39 41 40 40 41 43 42
          42 43 45 44 44 45 47 46 46 47 49 48
          48 49 51 50 50 51 53 52 52 53 55 54
          54 55 57 56 56 57 59 58 58 59 61 60
        </DataArray>
        <DataArray type="Int32" Name="offsets" NumberOfComponents="1" format="ascii">
          4 8 12 16 20 24 28 32 36 40 44 48
          52 56 60 64 68 72 76 80 84 88 92 96
          100 104 108 112 116 120
        </DataArray>
        <DataArray type="UInt8" Name="types" NumberOfComponents="1" format="ascii">
          9 9 9 9 9 9 9 9 9 9 9 9
          9 9 9 9 9 9 9 9 9 9 9 9
          9 9 9 9 9 9
        </DataArray>
      </Cells>
    </Piece>
  </UnstructuredGrid>
</VTKFile>
