<?xml version="1.0"?>
<VTKFile type="UnstructuredGrid" version="0.1" byte_order="LittleEndian">
  <UnstructuredGrid>
    <Piece NumberOfCells="30" NumberOfPoints="62">
      <CellData Scalars="Sg">
        <DataArray type="Float32" Name="Sg" NumberOfComponents="1" format="ascii">
          0 0 0 0 0 0 0 0 0 0 0 0
          0 0 0 0 0 0 0 0 0 0 0 0
          0 0 0 0 0 0
        </DataArray>
        <DataArray type="Float32" Name="Sl" NumberOfComponents="1" format="ascii">
          1 1 1 1 1 1 1 1 1 1 1 1
          1 1 1 1 1 1 1 1 1 1 1 1
          1 1 1 1 1 1
        </DataArray>
        <DataArray type="Float32" Name="pg" NumberOfComponents="1" format="ascii">
          24687.8 24360.9 24034 23707 23380.1 23053.1 22726.2 22399.3 22072.3 21745.4 21418.4 21091.5
          20764.6 20437.6 20110.7 19783.7 19456.8 19129.8 18802.9 18476 18149 17822.1 17495.1 17168.2
          16841.3 16514.3 16187.4 15860.4 15533.5 15209.6
        </DataArray>
        <DataArray type="Float32" Name="pl" NumberOfComponents="1" format="ascii">
          110628 110301 109974 109647 109320 108993 108666 108339 108012 107685 107358 107031
          106704 106377 106050 105723 105396 105070 104743 104416 104089 103762 103435 103108
          102781 102454 102127 101800 101473 101149
        </DataArray>
        <DataArray type="Float32" Name="pc" NumberOfComponents="1" format="ascii">
          -85939.7 -85939.7 -85939.7 -85939.7 -85939.7 -85939.7 -85939.7 -85939.7 -85939.7 -85939.7 -85939.7 -85939.7
          -85939.7 -85939.7 -85939.7 -85939.7 -85939.7 -85939.7 -85939.7 -85939.7 -85939.7 -85939.7 -85939.7 -85939.7
          -85939.7 -85939.7 -85939.7 -85939.7 -85939.7 -85939.7
        </DataArray>
        <DataArray type="Float32" Name="rhoL" NumberOfComponents="1" format="ascii">
          999.855 999.855 999.855 999.855 999.855 999.854 999.854 999.854 999.854 999.854 999.854 999.854
          999.853 999.853 999.853 999.853 999.853 999.853 999.852 999.852 999.852 999.852 999.852 999.852
          999.852 999.851 999.851 999.851 999.851 999.851
        </DataArray>
        <DataArray type="Float32" Name="rhoG" NumberOfComponents="1" format="ascii">
          0.30585 0.3018 0.29775 0.293699 0.289649 0.285598 0.281548 0.277498 0.273447 0.269397 0.265347 0.261296
          0.257246 0.253195 0.249145 0.245095 0.241044 0.236994 0.232944 0.228893 0.224843 0.220793 0.216742 0.212692
          0.208641 0.204591 0.200541 0.19649 0.19244 0.188427
        </DataArray>
        <DataArray type="Float32" Name="mobL" NumberOfComponents="1" format="ascii">
          722.171 722.17 722.17 722.17 722.17 722.17 722.169 722.169 722.169 722.169 722.169 722.169
          722.168 722.168 722.168 722.168 722.168 722.167 722.167 722.167 722.167 722.167 722.166 722.166
          722.166 722.166 722.166 722.166 722.165 722.165
        </DataArray>
        <DataArray type="Float32" Name="mobG" NumberOfComponents="1" format="ascii">
          0 0 0 0 0 0 0 0 0 0 0 0
          0 0 0 0 0 0 0 0 0 0 0 0
          0 0 0 0 0 0
        </DataArray>
        <DataArray type="Float32" Name="porosity" NumberOfComponents="1" format="ascii">
          0.298833 0.298833 0.298833 0.298832 0.298832 0.298832 0.298831 0.29883 0.298829 0.298827 0.298825 0.298821
          0.298817 0.298811 0.298803 0.298792 0.298776 0.298756 0.298728 0.29869 0.298638 0.298565 0.29846 0.298303
          0.297785 0.297355 0.296496 0.294222 0.283046 0.0450307
        </DataArray>
        <DataArray type="Float32" Name="temperature" NumberOfComponents="1" format="ascii">
          281.15 281.15 281.15 281.15 281.15 281.15 281.15 281.15 281.15 281.15 281.15 281.15
          281.15 281.15 281.15 281.15 281.15 281.15 281.15 281.15 281.15 281.15 281.15 281.15
          281.15 281.15 281.15 281.15 281.15 281.15
        </DataArray>
        <DataArray type="Float32" Name="phase presence" NumberOfComponents="1" format="ascii">
          1 1 1 1 1 1 1 1 1 1 1 1
          1 1 1 1 1 1 1 1 1 1 1 1
          1 1 1 1 1 1
        </DataArray>
        <DataArray type="Float32" Name="precipitateVolumeFraction_au" NumberOfComponents="1" format="ascii">
          5.5264e-10 5.52764e-10 5.52784e-10 5.52764e-10 5.52741e-10 5.52762e-10 5.52773e-10 5.5275e-10 5.52737e-10 5.52749e-10 5.52751e-10 5.52718e-10
          5.52733e-10 5.52778e-10 5.52748e-10 5.52755e-10 5.52724e-10 5.52726e-10 5.52728e-10 5.52789e-10 5.52748e-10 5.52762e-10 5.53038e-10 1.21601e-09
          0.000269941 0.000269925 0.0002699 0.000269852 5.52238e-10 5.51203e-10
        </DataArray>
        <DataArray type="Float32" Name="precipitateVolumeFraction_nanoAu" NumberOfComponents="1" format="ascii">
          1.23626e-13 1.23654e-13 1.23658e-13 1.23654e-13 1.23649e-13 1.23653e-13 1.23656e-13 1.23651e-13 1.23648e-13 1.2365e-13 1.2365e-13 1.23643e-13
          1.23645e-13 1.23655e-13 1.23647e-13 1.23648e-13 1.23639e-13 1.23637e-13 1.23634e-13 1.23644e-13 1.23628e-13 1.2363e-13 1.3465e-13 2.57376e-11
          6.03611e-08 7.66838e-08 1.02149e-07 1.45577e-07 4.74257e-13 4.6724e-13
        </DataArray>
        <DataArray type="Float32" Name="precipitateVolumeFraction_d" NumberOfComponents="1" format="ascii">
          0.000583557 0.000583616 0.000583699 0.000583816 0.000583979 0.000584209 0.000584529 0.000584976 0.000585597 0.000586457 0.000587642 0.00058927
          0.000591497 0.000594532 0.000598654 0.00060424 0.000611798 0.000622026 0.000635905 0.000654847 0.000680963 0.000717566 0.000770169 0.000848677
          0.000972745 0.0011873 0.00161722 0.0027541 0.00847681 0.127485
        </DataArray>
        <DataArray type="Float32" Name="precipitateVolumeFraction_p" NumberOfComponents="1" format="ascii">
          0.000583557 0.000583616 0.000583699 0.000583816 0.000583979 0.000584209 0.000584529 0.000584976 0.000585597 0.000586457 0.000587642 0.00058927
          0.000591497 0.000594532 0.000598654 0.00060424 0.000611798 0.000622026 0.000635905 0.000654847 0.000680963 0.000717566 0.000770169 0.000848677
          0.000972745 0.0011873 0.00161722 0.0027541 0.00847681 0.127485
        </DataArray>
        <DataArray type="Float32" Name="K" NumberOfComponents="1" format="ascii">
          9.85087e-11 9.85085e-11 9.85083e-11 9.8508e-11 9.85076e-11 9.8507e-11 9.85062e-11 9.85051e-11 9.85035e-11 9.85013e-11 9.84983e-11 9.84942e-11
          9.84885e-11 9.84808e-11 9.84703e-11 9.84561e-11 9.8437e-11 9.8411e-11 9.83758e-11 9.83277e-11 9.82615e-11 9.81688e-11 9.80356e-11 9.78372e-11
          9.71847e-11 9.6647e-11 9.5577e-11 9.27941e-11 8.00614e-11 1.8171e-13
        </DataArray>
        <DataArray type="Float32" Name="X^w_H2O" NumberOfComponents="1" format="ascii">
          0.999971 0.999971 0.999971 0.999971 0.999971 0.999971 0.999971 0.999971 0.999971 0.999971 0.999971 0.999971
          0.999971 0.999971 0.999971 0.999971 0.999971 0.999971 0.999971 0.999971 0.999971 0.999971 0.999971 0.999971
          0.999971 0.99997 0.999968 0.999964 0.999957 0.999956
        </DataArray>
        <DataArray type="Float32" Name="X^w_Air" NumberOfComponents="1" format="ascii">
          0 0 0 0 0 0 0 0 0 0 0 0
          0 0 0 0 0 0 0 0 0 0 0 0
          0 0 0 0 0 0
        </DataArray>
        <DataArray type="Float32" Name="X^w_AuComplex" NumberOfComponents="1" format="ascii">
          1.41052e-16 1.41084e-16 1.41089e-16 1.41084e-16 1.41078e-16 1.41083e-16 1.41086e-16 1.4108e-16 1.41076e-16 1.41079e-16 1.41079e-16 1.4107e-16
          1.41073e-16 1.41083e-16 1.41073e-16 1.41072e-16 1.41061e-16 1.41057e-16 1.41051e-16 1.41057e-16 1.41034e-16 1.41026e-16 1.53554e-16 2.93511e-14
          6.88318e-11 1.0737e-10 1.84412e-10 3.64058e-10 1.83618e-15 1.78845e-15
        </DataArray>
        <DataArray type="Float32" Name="X^w_nanoAu" NumberOfComponents="1" format="ascii">
          8.975e-20 8.977e-20 8.97731e-20 8.97698e-20 8.97662e-20 8.97694e-20 8.97712e-20 8.97673e-20 8.97652e-20 8.97669e-20 8.97668e-20 8.97613e-20
          8.97633e-20 8.97698e-20 8.97642e-20 8.97642e-20 8.97576e-20 8.97559e-20 8.97536e-20 8.97659e-20 9.03675e-20 1.47229e-19 5.41541e-18 4.92771e-16
          4.39422e-14 5.5857e-14 7.44485e-14 1.04447e-13 3.43336e-19 3.30858e-19
        </DataArray>
        <DataArray type="Float32" Name="X^w_cyanide" NumberOfComponents="1" format="ascii">
          5.07038e-06 5.07038e-06 5.07038e-06 5.07038e-06 5.07038e-06 5.07038e-06 5.07038e-06 5.07038e-06 5.07037e-06 5.07036e-06 5.07035e-06 5.07034e-06
          5.07032e-06 5.07029e-06 5.07026e-06 5.07021e-06 5.07014e-06 5.07004e-06 5.06992e-06 5.06974e-06 5.06949e-06 5.06914e-06 5.06862e-06 5.06784e-06
          5.0671e-06 6.43684e-06 8.57277e-06 1.22391e-05 1.94664e-05 1.92409e-05
        </DataArray>
        <DataArray type="Float32" Name="X^w_citrate" NumberOfComponents="1" format="ascii">
          2.36355e-05 2.36355e-05 2.36355e-05 2.36355e-05 2.36355e-05 2.36355e-05 2.36354e-05 2.36354e-05 2.36354e-05 2.36354e-05 2.36354e-05 2.36354e-05
          2.36354e-05 2.36353e-05 2.36353e-05 2.36352e-05 2.36351e-05 2.3635e-05 2.36349e-05 2.36346e-05 2.36343e-05 2.36339e-05 2.36333e-05 2.36323e-05
          2.36308e-05 2.36285e-05 2.36239e-05 2.36134e-05 2.35787e-05 2.33054e-05
        </DataArray>
        <DataArray type="Float32" Name="X^w_substrate" NumberOfComponents="1" format="ascii">
          1.45558e-11 1.93566e-11 2.57392e-11 3.42248e-11 4.55064e-11 6.0506e-11 8.04507e-11 1.06975e-10 1.42261e-10 1.89218e-10 2.51746e-10 3.35075e-10
          4.46256e-10 5.94834e-10 7.93826e-10 1.06113e-09 1.42165e-09 1.91051e-09 2.57821e-09 3.499e-09 4.78534e-09 6.61401e-09 9.27625e-09 1.32821e-08
          1.96001e-08 3.02818e-08 5.04171e-08 9.60612e-08 2.44085e-07 1.4001e-06
        </DataArray>
        <DataArray type="Float32" Name="m^w_H2O" NumberOfComponents="1" format="ascii">
          55499.1 55499.1 55499.1 55499.1 55499.1 55499.1 55499.1 55499.1 55499 55499 55499 55499
          55499 55499 55499 55499 55499 55499 55499 55498.9 55498.9 55498.9 55498.9 55498.9
          55498.9 55498.8 55498.7 55498.5 55498.1 55498
        </DataArray>
        <DataArray type="Float32" Name="m^w_Air" NumberOfComponents="1" format="ascii">
          0 0 0 0 0 0 0 0 0 0 0 0
          0 0 0 0 0 0 0 0 0 0 0 0
          0 0 0 0 0 0
        </DataArray>
        <DataArray type="Float32" Name="m^w_AuComplex" NumberOfComponents="1" format="ascii">
          7.16007e-13 7.16167e-13 7.16193e-13 7.16167e-13 7.16137e-13 7.16163e-13 7.16177e-13 7.16146e-13 7.16128e-13 7.16141e-13 7.16141e-13 7.16095e-13
          7.16108e-13 7.1616e-13 7.16111e-13 7.16107e-13 7.16049e-13 7.16028e-13 7.15997e-13 7.1603e-13 7.15911e-13 7.15873e-13 7.79463e-13 1.48991e-10
          3.49401e-07 5.45026e-07 9.36103e-07 1.84801e-06 9.32074e-12 9.07844e-12
        </DataArray>
        <DataArray type="Float32" Name="m^w_nanoAu" NumberOfComponents="1" format="ascii">
          4.55587e-16 4.55688e-16 4.55704e-16 4.55688e-16 4.55669e-16 4.55686e-16 4.55694e-16 4.55674e-16 4.55664e-16 4.55672e-16 4.55672e-16 4.55644e-16
          4.55654e-16 4.55687e-16 4.55658e-16 4.55658e-16 4.55625e-16 4.55616e-16 4.55604e-16 4.55667e-16 4.5872e-16 7.47356e-16 2.74895e-14 2.50139e-12
          2.23058e-10 2.83539e-10 3.77913e-10 5.30191e-10 1.74283e-15 1.67949e-15
        </DataArray>
        <DataArray type="Float32" Name="m^w_cyanide" NumberOfComponents="1" format="ascii">
          0.194837 0.194837 0.194837 0.194837 0.194836 0.194836 0.194836 0.194836 0.194836 0.194836 0.194835 0.194835
          0.194834 0.194833 0.194831 0.194829 0.194827 0.194823 0.194818 0.194811 0.194802 0.194788 0.194768 0.194738
          0.19471 0.247344 0.329419 0.470301 0.748023 0.739354
        </DataArray>
        <DataArray type="Float32" Name="m^w_citrate" NumberOfComponents="1" format="ascii">
          0.124972 0.124972 0.124972 0.124972 0.124972 0.124972 0.124972 0.124972 0.124971 0.124971 0.124971 0.124971
          0.124971 0.124971 0.124971 0.12497 0.12497 0.124969 0.124968 0.124967 0.124965 0.124963 0.12496 0.124955
          0.124947 0.124934 0.12491 0.124854 0.124671 0.123226
        </DataArray>
        <DataArray type="Float32" Name="m^w_substrate" NumberOfComponents="1" format="ascii">
          8.07823e-08 1.07426e-07 1.42848e-07 1.89941e-07 2.52552e-07 3.35797e-07 4.46486e-07 5.93694e-07 7.89519e-07 1.05012e-06 1.39714e-06 1.8596e-06
          2.47663e-06 3.30121e-06 4.40558e-06 5.88908e-06 7.88989e-06 1.0603e-05 1.43085e-05 1.94187e-05 2.65577e-05 3.67065e-05 5.14813e-05 7.37132e-05
          0.000108776 0.000168058 0.000279805 0.00053312 0.00135462 0.00777026
        </DataArray>
        <DataArray type="Float32" Name="process rank" NumberOfComponents="1" format="ascii">
          0 0 0 0 0 0 0 0 0 0 0 0
          0 0 0 0 0 0 0 0 0 0 0 0
          0 0 0 0 0 0
        </DataArray>
      </CellData>
      <Points>
        <DataArray type="Float32" Name="Coordinates" NumberOfComponents="3" format="ascii">
          0 0 0 0.5 0 0 0 0.0333333 0 0.5 0.0333333 0
          0 0.0666667 0 0.5 0.0666667 0 0 0.1 0 0.5 0.1 0
          0 0.133333 0 0.5 0.133333 0 0 0.166667 0 0.5 0.166667 0
          0 0.2 0 0.5 0.2 0 0 0.233333 0 0.5 0.233333 0
          0 0.266667 0 0.5 0.266667 0 0 0.3 0 0.5 0.3 0
          0 0.333333 0 0.5 0.333333 0 0 0.366667 0 0.5 0.366667 0
          0 0.4 0 0.5 0.4 0 0 0.433333 0 0.5 0.433333 0
          0 0.466667 0 0.5 0.466667 0 0 0.5 0 0.5 0.5 0
          0 0.533333 0 0.5 0.533333 0 0 0.566667 0 0.5 0.566667 0
          0 0.6 0 0.5 0.6 0 0 0.633333 0 0.5 0.633333 0
          0 0.666667 0 0.5 0.666667 0 0 0.7 0 0.5 0.7 0
          0 0.733333 0 0.5 0.733333 0 0 0.766667 0 0.5 0.766667 0
          0 0.8 0 0.5 0.8 0 0 0.833333 0 0.5 0.833333 0
          0 0.866667 0 0.5 0.866667 0 0 0.9 0 0.5 0.9 0
          0 0.933333 0 0.5 0.933333 0 0 0.966667 0 0.5 0.966667 0
          0 1 0 0.5 1 0
        </DataArray>
      </Points>
      <Cells>
        <DataArray type="Int32" Name="connectivity" NumberOfComponents="1" format="ascii">
          0 1 3 2 2 3 5 4 4 5 7 6
          6 7 9 8 8 9 11 10 10 11 13 12
          12 13 15 14 14 15 17 16 16 17 19 18
          18 19 21 20 20 21 23 22 22 23 25 24
          24 25 27 26 26 27 29 28 28 29 31 30
          30 31 33 32 32 33 35 34 34 35 37 36
          36 37 39 38 38 39 41 40 40 41 43 42
          42 43 45 44 44 45 47 46 46 47 49 48
          48 49 51 50 50 51 53 52 52 53 55 54
          54 55 57 56 56 57 59 58 58 59 61 60
        </DataArray>
        <DataArray type="Int32" Name="offsets" NumberOfComponents="1" format="ascii">
          4 8 12 16 20 24 28 32 36 40 44 48
          52 56 60 64 68 72 76 80 84 88 92 96
          100 104 108 112 116 120
        </DataArray>
        <DataArray type="UInt8" Name="types" NumberOfComponents="1" format="ascii">
          9 9 9 9 9 9 9 9 9 9 9 9
          9 9 9 9 9 9 9 9 9 9 9 9
          9 9 9 9 9 9
        </DataArray>
      </Cells>
    </Piece>
  </UnstructuredGrid>
</VTKFile>
