<?xml version="1.0"?>
<VTKFile type="UnstructuredGrid" version="0.1" byte_order="LittleEndian">
  <UnstructuredGrid>
    <Piece NumberOfCells="30" NumberOfPoints="62">
      <CellData Scalars="Sg">
        <DataArray type="Float32" Name="Sg" NumberOfComponents="1" format="ascii">
          0 0 0 0 0 0 0 0 0 0 0 0
          0 0 0 0 0 0 0 0 0 0 0 0
          0 0 0 0 0 0
        </DataArray>
        <DataArray type="Float32" Name="Sl" NumberOfComponents="1" format="ascii">
          1 1 1 1 1 1 1 1 1 1 1 1
          1 1 1 1 1 1 1 1 1 1 1 1
          1 1 1 1 1 1
        </DataArray>
        <DataArray type="Float32" Name="pg" NumberOfComponents="1" format="ascii">
          24687.8 24360.9 24034 23707 23380.1 23053.1 22726.2 22399.3 22072.3 21745.4 21418.4 21091.5
          20764.6 20437.6 20110.7 19783.7 19456.8 19129.9 18802.9 18476 18149 17822.1 17495.1 17168.2
          16841.3 16514.3 16187.4 15860.4 15533.5 15206.9
        </DataArray>
        <DataArray type="Float32" Name="pl" NumberOfComponents="1" format="ascii">
          110628 110301 109974 109647 109320 108993 108666 108339 108012 107685 107358 107031
          106704 106377 106050 105723 105396 105070 104743 104416 104089 103762 103435 103108
          102781 102454 102127 101800 101473 101147
        </DataArray>
        <DataArray type="Float32" Name="pc" NumberOfComponents="1" format="ascii">
          -85939.7 -85939.7 -85939.7 -85939.7 -85939.7 -85939.7 -85939.7 -85939.7 -85939.7 -85939.7 -85939.7 -85939.7
          -85939.7 -85939.7 -85939.7 -85939.7 -85939.7 -85939.7 -85939.7 -85939.7 -85939.7 -85939.7 -85939.7 -85939.7
          -85939.7 -85939.7 -85939.7 -85939.7 -85939.7 -85939.7
        </DataArray>
        <DataArray type="Float32" Name="rhoL" NumberOfComponents="1" format="ascii">
          999.855 999.855 999.855 999.855 999.855 999.854 999.854 999.854 999.854 999.854 999.854 999.854
          999.853 999.853 999.853 999.853 999.853 999.853 999.852 999.852 999.852 999.852 999.852 999.852
          999.852 999.851 999.851 999.851 999.851 999.851
        </DataArray>
        <DataArray type="Float32" Name="rhoG" NumberOfComponents="1" format="ascii">
          0.30585 0.3018 0.29775 0.293699 0.289649 0.285598 0.281548 0.277498 0.273447 0.269397 0.265347 0.261296
          0.257246 0.253195 0.249145 0.245095 0.241044 0.236994 0.232944 0.228893 0.224843 0.220793 0.216742 0.212692
          0.208641 0.204591 0.200541 0.19649 0.19244 0.188394
        </DataArray>
        <DataArray type="Float32" Name="mobL" NumberOfComponents="1" format="ascii">
          722.171 722.17 722.17 722.17 722.17 722.17 722.169 722.169 722.169 722.169 722.169 722.169
          722.168 722.168 722.168 722.168 722.168 722.167 722.167 722.167 722.167 722.167 722.166 722.166
          722.166 722.166 722.166 722.166 722.165 722.165
        </DataArray>
        <DataArray type="Float32" Name="mobG" NumberOfComponents="1" format="ascii">
          0 0 0 0 0 0 0 0 0 0 0 0
          0 0 0 0 0 0 0 0 0 0 0 0
          0 0 0 0 0 0
        </DataArray>
        <DataArray type="Float32" Name="porosity" NumberOfComponents="1" format="ascii">
          0.298597 0.298597 0.298597 0.298597 0.298596 0.298596 0.298595 0.298594 0.298593 0.298591 0.298588 0.298584
          0.298579 0.298572 0.298562 0.298549 0.298532 0.298508 0.298476 0.298432 0.298372 0.298289 0.29817 0.297995
          0.297453 0.296996 0.296119 0.29399 0.285471 0.0920901
        </DataArray>
        <DataArray type="Float32" Name="temperature" NumberOfComponents="1" format="ascii">
          281.15 281.15 281.15 281.15 281.15 281.15 281.15 281.15 281.15 281.15 281.15 281.15
          281.15 281.15 281.15 281.15 281.15 281.15 281.15 281.15 281.15 281.15 281.15 281.15
          281.15 281.15 281.15 281.15 281.15 281.15
        </DataArray>
        <DataArray type="Float32" Name="phase presence" NumberOfComponents="1" format="ascii">
          1 1 1 1 1 1 1 1 1 1 1 1
          1 1 1 1 1 1 1 1 1 1 1 1
          1 1 1 1 1 1
        </DataArray>
        <DataArray type="Float32" Name="precipitateVolumeFraction_au" NumberOfComponents="1" format="ascii">
          5.53752e-10 5.52763e-10 5.52739e-10 5.52713e-10 5.52759e-10 5.5276e-10 5.52752e-10 5.52672e-10 5.52641e-10 5.52734e-10 5.52702e-10 5.52729e-10
          5.52698e-10 5.52714e-10 5.52657e-10 5.52743e-10 5.52695e-10 5.52732e-10 5.52713e-10 5.52722e-10 5.52683e-10 5.52714e-10 5.52783e-10 7.78974e-10
          0.000269941 0.000269926 0.000269902 0.000269859 5.52268e-10 5.50968e-10
        </DataArray>
        <DataArray type="Float32" Name="precipitateVolumeFraction_nanoAu" NumberOfComponents="1" format="ascii">
          1.81493e-13 1.51848e-13 1.51318e-13 1.50874e-13 1.51498e-13 1.51435e-13 1.51283e-13 1.50636e-13 1.50575e-13 1.51054e-13 1.50925e-13 1.51022e-13
          1.50931e-13 1.50972e-13 1.50872e-13 1.51015e-13 1.50939e-13 1.50982e-13 1.50956e-13 1.50956e-13 1.50919e-13 1.50943e-13 1.62256e-13 2.49506e-11
          5.92545e-08 7.49909e-08 9.93438e-08 1.40401e-07 4.80412e-13 4.71725e-13
        </DataArray>
        <DataArray type="Float32" Name="precipitateVolumeFraction_d" NumberOfComponents="1" format="ascii">
          0.000701301 0.000701369 0.000701465 0.0007016 0.000701789 0.000702056 0.000702428 0.000702949 0.000703672 0.000704674 0.000706056 0.000707955
          0.000710552 0.000714089 0.000718891 0.00072539 0.00073417 0.000746026 0.000762067 0.000783878 0.000813803 0.000855474 0.000914841 0.00100238
          0.00113832 0.00136722 0.00180571 0.00286978 0.00726471 0.103955
        </DataArray>
        <DataArray type="Float32" Name="precipitateVolumeFraction_p" NumberOfComponents="1" format="ascii">
          0.000701301 0.000701369 0.000701465 0.0007016 0.000701789 0.000702056 0.000702428 0.000702949 0.000703672 0.000704674 0.000706056 0.000707955
          0.000710552 0.000714089 0.000718891 0.00072539 0.00073417 0.000746026 0.000762067 0.000783878 0.000813803 0.000855474 0.000914841 0.00100238
          0.00113832 0.00136722 0.00180571 0.00286978 0.00726471 0.103955
        </DataArray>
        <DataArray type="Float32" Name="K" NumberOfComponents="1" format="ascii">
          9.821e-11 9.82098e-11 9.82096e-11 9.82092e-11 9.82087e-11 9.82081e-11 9.82071e-11 9.82058e-11 9.8204e-11 9.82014e-11 9.81979e-11 9.81931e-11
          9.81865e-11 9.81776e-11 9.81654e-11 9.8149e-11 9.81267e-11 9.80967e-11 9.80561e-11 9.8001e-11 9.79253e-11 9.782e-11 9.76702e-11 9.74496e-11
          9.67695e-11 9.6198e-11 9.51109e-11 9.25147e-11 8.26944e-11 1.71944e-12
        </DataArray>
        <DataArray type="Float32" Name="X^w_H2O" NumberOfComponents="1" format="ascii">
          0.999853 0.999853 0.999853 0.999853 0.999853 0.999853 0.999853 0.999853 0.999853 0.999853 0.999853 0.999853
          0.999853 0.999853 0.999853 0.999853 0.999853 0.999853 0.999853 0.999853 0.999853 0.999853 0.999853 0.999853
          0.999853 0.999852 0.999849 0.999846 0.999839 0.99984
        </DataArray>
        <DataArray type="Float32" Name="X^w_Air" NumberOfComponents="1" format="ascii">
          2.08375e-37 0 0 0 0 0 0 0 0 0 0 0
          0 0 0 0 0 0 0 0 0 0 0 0
          0 0 0 0 0 0
        </DataArray>
        <DataArray type="Float32" Name="X^w_AuComplex" NumberOfComponents="1" format="ascii">
          2.02829e-16 1.73394e-16 1.72865e-16 1.72421e-16 1.73039e-16 1.72974e-16 1.7282e-16 1.72173e-16 1.72108e-16 1.72584e-16 1.72452e-16 1.72546e-16
          1.72452e-16 1.7249e-16 1.72385e-16 1.72527e-16 1.72445e-16 1.72484e-16 1.72451e-16 1.72443e-16 1.72393e-16 1.72404e-16 1.85532e-16 2.93839e-14
          6.98302e-11 1.08098e-10 1.83628e-10 3.56478e-10 1.85691e-15 1.79888e-15
        </DataArray>
        <DataArray type="Float32" Name="X^w_nanoAu" NumberOfComponents="1" format="ascii">
          7.89194e-19 6.61391e-19 6.59084e-19 6.57199e-19 6.59886e-19 6.59609e-19 6.58922e-19 6.56133e-19 6.55891e-19 6.57947e-19 6.57397e-19 6.57809e-19
          6.57421e-19 6.5759e-19 6.57163e-19 6.57777e-19 6.57449e-19 6.57632e-19 6.57514e-19 6.57547e-19 6.61015e-19 9.97485e-19 3.211e-17 2.90524e-15
          2.58769e-13 3.27658e-13 4.34258e-13 6.04108e-13 2.08443e-18 1.99754e-18
        </DataArray>
        <DataArray type="Float32" Name="X^w_cyanide" NumberOfComponents="1" format="ascii">
          5.227e-06 5.22692e-06 5.22684e-06 5.22676e-06 5.22668e-06 5.2266e-06 5.22652e-06 5.22644e-06 5.22635e-06 5.22627e-06 5.22619e-06 5.2261e-06
          5.22601e-06 5.22592e-06 5.22581e-06 5.22569e-06 5.22556e-06 5.2254e-06 5.2252e-06 5.22495e-06 5.22461e-06 5.22415e-06 5.22347e-06 5.22245e-06
          5.22128e-06 6.60775e-06 8.75286e-06 1.23933e-05 1.94454e-05 1.91768e-05
        </DataArray>
        <DataArray type="Float32" Name="X^w_citrate" NumberOfComponents="1" format="ascii">
          0.000141796 0.000141796 0.000141796 0.000141796 0.000141796 0.000141796 0.000141796 0.000141796 0.000141796 0.000141796 0.000141796 0.000141796
          0.000141796 0.000141796 0.000141795 0.000141795 0.000141795 0.000141794 0.000141793 0.000141792 0.00014179 0.000141787 0.000141783 0.000141776
          0.000141764 0.000141745 0.000141706 0.000141614 0.000141319 0.000139367
        </DataArray>
        <DataArray type="Float32" Name="X^w_substrate" NumberOfComponents="1" format="ascii">
          5.4064e-12 7.52559e-12 1.0475e-11 1.458e-11 2.02934e-11 2.82458e-11 3.9316e-11 5.47294e-11 7.6196e-11 1.06106e-10 1.47806e-10 2.05994e-10
          2.87288e-10 4.01054e-10 5.60624e-10 7.85132e-10 1.10232e-09 1.55295e-09 2.19794e-09 3.13029e-09 4.49596e-09 6.53218e-09 9.64202e-09 1.45512e-08
          2.267e-08 3.70378e-08 6.52425e-08 1.30889e-07 3.40267e-07 1.71685e-06
        </DataArray>
        <DataArray type="Float32" Name="m^w_H2O" NumberOfComponents="1" format="ascii">
          55492.6 55492.5 55492.5 55492.5 55492.5 55492.5 55492.5 55492.5 55492.5 55492.5 55492.5 55492.5
          55492.4 55492.4 55492.4 55492.4 55492.4 55492.4 55492.4 55492.4 55492.4 55492.4 55492.4 55492.3
          55492.3 55492.3 55492.1 55491.9 55491.5 55491.6
        </DataArray>
        <DataArray type="Float32" Name="m^w_Air" NumberOfComponents="1" format="ascii">
          7.19424e-33 1.27329e-34 2.21571e-36 3.79009e-38 0 0 0 0 0 0 0 0
          0 0 0 0 0 0 0 0 0 0 0 0
          0 0 0 0 0 0
        </DataArray>
        <DataArray type="Float32" Name="m^w_AuComplex" NumberOfComponents="1" format="ascii">
          1.0296e-12 8.8018e-13 8.77492e-13 8.75238e-13 8.78374e-13 8.78046e-13 8.77264e-13 8.7398e-13 8.73653e-13 8.76066e-13 8.75398e-13 8.75875e-13
          8.75398e-13 8.75589e-13 8.75055e-13 8.75775e-13 8.7536e-13 8.75559e-13 8.75389e-13 8.7535e-13 8.75097e-13 8.75149e-13 9.4179e-13 1.49157e-10
          3.54469e-07 5.48725e-07 9.32125e-07 1.80954e-06 9.42595e-12 9.13138e-12
        </DataArray>
        <DataArray type="Float32" Name="m^w_nanoAu" NumberOfComponents="1" format="ascii">
          4.00609e-15 3.35734e-15 3.34563e-15 3.33606e-15 3.3497e-15 3.34829e-15 3.3448e-15 3.33064e-15 3.32942e-15 3.33985e-15 3.33706e-15 3.33915e-15
          3.33718e-15 3.33804e-15 3.33587e-15 3.33899e-15 3.33732e-15 3.33825e-15 3.33765e-15 3.33782e-15 3.35542e-15 5.0634e-15 1.62995e-13 1.47475e-11
          1.31355e-09 1.66324e-09 2.20436e-09 3.06655e-09 1.05809e-14 1.01399e-14
        </DataArray>
        <DataArray type="Float32" Name="m^w_cyanide" NumberOfComponents="1" format="ascii">
          0.200855 0.200852 0.200849 0.200845 0.200842 0.200839 0.200836 0.200833 0.20083 0.200827 0.200823 0.20082
          0.200816 0.200813 0.200809 0.200804 0.200799 0.200793 0.200785 0.200776 0.200763 0.200745 0.200719 0.200679
          0.200634 0.253911 0.33634 0.476227 0.747213 0.736892
        </DataArray>
        <DataArray type="Float32" Name="m^w_citrate" NumberOfComponents="1" format="ascii">
          0.749743 0.749743 0.749743 0.749743 0.749743 0.749743 0.749742 0.749742 0.749742 0.749742 0.749741 0.749741
          0.74974 0.749739 0.749738 0.749736 0.749733 0.74973 0.749725 0.749718 0.749707 0.749692 0.749668 0.749632
          0.749571 0.749468 0.749262 0.748777 0.747216 0.736893
        </DataArray>
        <DataArray type="Float32" Name="m^w_substrate" NumberOfComponents="1" format="ascii">
          3.00045e-08 4.17657e-08 5.81346e-08 8.09164e-08 1.12624e-07 1.56759e-07 2.18196e-07 3.03738e-07 4.22873e-07 5.88868e-07 8.20296e-07 1.14323e-06
          1.5944e-06 2.22577e-06 3.11135e-06 4.35733e-06 6.11767e-06 8.61858e-06 1.21981e-05 1.73725e-05 2.49517e-05 3.62523e-05 5.35113e-05 8.07563e-05
          0.000125814 0.000205552 0.000362082 0.00072641 0.00188841 0.00952817
        </DataArray>
        <DataArray type="Float32" Name="process rank" NumberOfComponents="1" format="ascii">
          0 0 0 0 0 0 0 0 0 0 0 0
          0 0 0 0 0 0 0 0 0 0 0 0
          0 0 0 0 0 0
        </DataArray>
      </CellData>
      <Points>
        <DataArray type="Float32" Name="Coordinates" NumberOfComponents="3" format="ascii">
          0 0 0 0.5 0 0 0 0.0333333 0 0.5 0.0333333 0
          0 0.0666667 0 0.5 0.0666667 0 0 0.1 0 0.5 0.1 0
          0 0.133333 0 0.5 0.133333 0 0 0.166667 0 0.5 0.166667 0
          0 0.2 0 0.5 0.2 0 0 0.233333 0 0.5 0.233333 0
          0 0.266667 0 0.5 0.266667 0 0 0.3 0 0.5 0.3 0
          0 0.333333 0 0.5 0.333333 0 0 0.366667 0 0.5 0.366667 0
          0 0.4 0 0.5 0.4 0 0 0.433333 0 0.5 0.433333 0
          0 0.466667 0 0.5 0.466667 0 0 0.5 0 0.5 0.5 0
          0 0.533333 0 0.5 0.533333 0 0 0.566667 0 0.5 0.566667 0
          0 0.6 0 0.5 0.6 0 0 0.633333 0 0.5 0.633333 0
          0 0.666667 0 0.5 0.666667 0 0 0.7 0 0.5 0.7 0
          0 0.733333 0 0.5 0.733333 0 0 0.766667 0 0.5 0.766667 0
          0 0.8 0 0.5 0.8 0 0 0.833333 0 0.5 0.833333 0
          0 0.866667 0 0.5 0.866667 0 0 0.9 0 0.5 0.9 0
          0 0.933333 0 0.5 0.933333 0 0 0.966667 0 0.5 0.966667 0
          0 1 0 0.5 1 0
        </DataArray>
      </Points>
      <Cells>
        <DataArray type="Int32" Name="connectivity" NumberOfComponents="1" format="ascii">
          0 1 3 2 2 3 5 4 4 5 7 6
          6 7 9 8 8 9 11 10 10 11 13 12
          12 13 15 14 14 15 17 16 16 17 19 18
          18 19 21 20 20 21 23 22 22 23 25 24
          24 25 27 26 26 27 29 28 28 29 31 30
          30 31 33 32 32 33 35 34 34 35 37 36
          36 37 39 38 38 39 41 40 40 41 43 42
          42 43 45 44 44 45 47 46 46 47 49 48
          48 49 51 50 50 51 53 52 52 53 55 54
          54 55 57 56 56 57 59 58 58 59 61 60
        </DataArray>
        <DataArray type="Int32" Name="offsets" NumberOfComponents="1" format="ascii">
          4 8 12 16 20 24 28 32 36 40 44 48
          52 56 60 64 68 72 76 80 84 88 92 96
          100 104 108 112 116 120
        </DataArray>
        <DataArray type="UInt8" Name="types" NumberOfComponents="1" format="ascii">
          9 9 9 9 9 9 9 9 9 9 9 9
          9 9 9 9 9 9 9 9 9 9 9 9
          9 9 9 9 9 9
        </DataArray>
      </Cells>
    </Piece>
  </UnstructuredGrid>
</VTKFile>
