<?xml version="1.0"?>
<VTKFile type="UnstructuredGrid" version="0.1" byte_order="LittleEndian">
  <UnstructuredGrid>
    <Piece NumberOfCells="30" NumberOfPoints="62">
      <CellData Scalars="Sg">
        <DataArray type="Float32" Name="Sg" NumberOfComponents="1" format="ascii">
          0 0 0 0 0 0 0 0 0 0 0 0
          0 0 0 0 0 0 0 0 0 0 0 0
          0 0 0 0 0 0
        </DataArray>
        <DataArray type="Float32" Name="Sl" NumberOfComponents="1" format="ascii">
          1 1 1 1 1 1 1 1 1 1 1 1
          1 1 1 1 1 1 1 1 1 1 1 1
          1 1 1 1 1 1
        </DataArray>
        <DataArray type="Float32" Name="pg" NumberOfComponents="1" format="ascii">
          24687.8 24360.9 24034 23707 23380.1 23053.1 22726.2 22399.3 22072.3 21745.4 21418.4 21091.5
          20764.6 20437.6 20110.7 19783.7 19456.8 19129.8 18802.9 18476 18149 17822.1 17495.1 17168.2
          16841.3 16514.3 16187.4 15860.4 15533.5 15208.4
        </DataArray>
        <DataArray type="Float32" Name="pl" NumberOfComponents="1" format="ascii">
          110628 110301 109974 109647 109320 108993 108666 108339 108012 107685 107358 107031
          106704 106377 106050 105723 105396 105070 104743 104416 104089 103762 103435 103108
          102781 102454 102127 101800 101473 101148
        </DataArray>
        <DataArray type="Float32" Name="pc" NumberOfComponents="1" format="ascii">
          -85939.7 -85939.7 -85939.7 -85939.7 -85939.7 -85939.7 -85939.7 -85939.7 -85939.7 -85939.7 -85939.7 -85939.7
          -85939.7 -85939.7 -85939.7 -85939.7 -85939.7 -85939.7 -85939.7 -85939.7 -85939.7 -85939.7 -85939.7 -85939.7
          -85939.7 -85939.7 -85939.7 -85939.7 -85939.7 -85939.7
        </DataArray>
        <DataArray type="Float32" Name="rhoL" NumberOfComponents="1" format="ascii">
          999.855 999.855 999.855 999.855 999.855 999.854 999.854 999.854 999.854 999.854 999.854 999.854
          999.853 999.853 999.853 999.853 999.853 999.853 999.852 999.852 999.852 999.852 999.852 999.852
          999.852 999.851 999.851 999.851 999.851 999.851
        </DataArray>
        <DataArray type="Float32" Name="rhoG" NumberOfComponents="1" format="ascii">
          0.30585 0.3018 0.29775 0.293699 0.289649 0.285598 0.281548 0.277498 0.273447 0.269397 0.265347 0.261296
          0.257246 0.253195 0.249145 0.245095 0.241044 0.236994 0.232944 0.228893 0.224843 0.220793 0.216742 0.212692
          0.208641 0.204591 0.200541 0.19649 0.19244 0.188412
        </DataArray>
        <DataArray type="Float32" Name="mobL" NumberOfComponents="1" format="ascii">
          722.171 722.17 722.17 722.17 722.17 722.17 722.169 722.169 722.169 722.169 722.169 722.169
          722.168 722.168 722.168 722.168 722.168 722.167 722.167 722.167 722.167 722.167 722.166 722.166
          722.166 722.166 722.166 722.166 722.165 722.165
        </DataArray>
        <DataArray type="Float32" Name="mobG" NumberOfComponents="1" format="ascii">
          0 0 0 0 0 0 0 0 0 0 0 0
          0 0 0 0 0 0 0 0 0 0 0 0
          0 0 0 0 0 0
        </DataArray>
        <DataArray type="Float32" Name="porosity" NumberOfComponents="1" format="ascii">
          0.298697 0.298697 0.298697 0.298697 0.298696 0.298696 0.298695 0.298694 0.298693 0.298691 0.298688 0.298685
          0.29868 0.298673 0.298664 0.298652 0.298635 0.298613 0.298583 0.298542 0.298485 0.298406 0.298293 0.298125
          0.297592 0.297144 0.296267 0.294052 0.284247 0.0528356
        </DataArray>
        <DataArray type="Float32" Name="temperature" NumberOfComponents="1" format="ascii">
          281.15 281.15 281.15 281.15 281.15 281.15 281.15 281.15 281.15 281.15 281.15 281.15
          281.15 281.15 281.15 281.15 281.15 281.15 281.15 281.15 281.15 281.15 281.15 281.15
          281.15 281.15 281.15 281.15 281.15 281.15
        </DataArray>
        <DataArray type="Float32" Name="phase presence" NumberOfComponents="1" format="ascii">
          1 1 1 1 1 1 1 1 1 1 1 1
          1 1 1 1 1 1 1 1 1 1 1 1
          1 1 1 1 1 1
        </DataArray>
        <DataArray type="Float32" Name="precipitateVolumeFraction_au" NumberOfComponents="1" format="ascii">
          5.53812e-10 5.52793e-10 5.52769e-10 5.52743e-10 5.52789e-10 5.5279e-10 5.52782e-10 5.52701e-10 5.5267e-10 5.52764e-10 5.52732e-10 5.52759e-10
          5.52728e-10 5.52744e-10 5.52687e-10 5.52772e-10 5.52724e-10 5.52762e-10 5.52743e-10 5.52752e-10 5.52712e-10 5.52744e-10 5.52895e-10 9.58157e-10
          0.000269942 0.000269926 0.000269902 0.000269858 5.52297e-10 5.50991e-10
        </DataArray>
        <DataArray type="Float32" Name="precipitateVolumeFraction_nanoAu" NumberOfComponents="1" format="ascii">
          1.21519e-13 1.21273e-13 1.21267e-13 1.21261e-13 1.21271e-13 1.2127e-13 1.21268e-13 1.21249e-13 1.21242e-13 1.21262e-13 1.21255e-13 1.2126e-13
          1.21252e-13 1.21255e-13 1.21241e-13 1.21259e-13 1.21246e-13 1.21252e-13 1.21245e-13 1.21243e-13 1.21228e-13 1.21243e-13 1.32516e-13 2.48556e-11
          5.91816e-08 7.49126e-08 9.92711e-08 1.4038e-07 4.51567e-13 4.44548e-13
        </DataArray>
        <DataArray type="Float32" Name="precipitateVolumeFraction_d" NumberOfComponents="1" format="ascii">
          0.000651419 0.000651482 0.000651572 0.000651699 0.000651877 0.000652127 0.000652477 0.000652965 0.000653643 0.000654583 0.00065588 0.000657661
          0.000660098 0.000663419 0.000667929 0.000674038 0.000682296 0.00069346 0.000708586 0.000729189 0.000757522 0.000797094 0.000853699 0.000937632
          0.00106904 0.00129306 0.00173136 0.00283907 0.00787642 0.123582
        </DataArray>
        <DataArray type="Float32" Name="precipitateVolumeFraction_p" NumberOfComponents="1" format="ascii">
          0.000651419 0.000651482 0.000651572 0.000651699 0.000651877 0.000652127 0.000652477 0.000652965 0.000653643 0.000654583 0.00065588 0.000657661
          0.000660098 0.000663419 0.000667929 0.000674038 0.000682296 0.00069346 0.000708586 0.000729189 0.000757522 0.000797094 0.000853699 0.000937632
          0.00106904 0.00129306 0.00173136 0.00283907 0.00787642 0.123582
        </DataArray>
        <DataArray type="Float32" Name="K" NumberOfComponents="1" format="ascii">
          9.83364e-11 9.83363e-11 9.8336e-11 9.83357e-11 9.83353e-11 9.83346e-11 9.83337e-11 9.83325e-11 9.83308e-11 9.83284e-11 9.83251e-11 9.83206e-11
          9.83144e-11 9.8306e-11 9.82946e-11 9.82791e-11 9.82581e-11 9.82298e-11 9.81915e-11 9.81394e-11 9.80676e-11 9.79675e-11 9.78245e-11 9.76127e-11
          9.69431e-11 9.63829e-11 9.52945e-11 9.25888e-11 8.13569e-11 2.98374e-13
        </DataArray>
        <DataArray type="Float32" Name="X^w_H2O" NumberOfComponents="1" format="ascii">
          0.999853 0.999853 0.999853 0.999853 0.999853 0.999853 0.999853 0.999853 0.999853 0.999853 0.999853 0.999853
          0.999853 0.999853 0.999853 0.999853 0.999853 0.999853 0.999853 0.999853 0.999853 0.999853 0.999853 0.999853
          0.999853 0.999852 0.999849 0.999846 0.999839 0.99984
        </DataArray>
        <DataArray type="Float32" Name="X^w_Air" NumberOfComponents="1" format="ascii">
          0 0 0 0 0 0 0 0 0 0 0 0
          0 0 0 0 0 0 0 0 0 0 0 0
          0 0 0 0 0 0
        </DataArray>
        <DataArray type="Float32" Name="X^w_AuComplex" NumberOfComponents="1" format="ascii">
          1.43168e-16 1.42883e-16 1.42875e-16 1.42867e-16 1.42879e-16 1.42878e-16 1.42875e-16 1.42852e-16 1.42844e-16 1.42867e-16 1.42857e-16 1.42863e-16
          1.42853e-16 1.42856e-16 1.42839e-16 1.42858e-16 1.42842e-16 1.42847e-16 1.42835e-16 1.42829e-16 1.42806e-16 1.42813e-16 1.55891e-16 2.9256e-14
          6.96897e-11 1.07911e-10 1.83401e-10 3.56373e-10 1.75179e-15 1.70468e-15
        </DataArray>
        <DataArray type="Float32" Name="X^w_nanoAu" NumberOfComponents="1" format="ascii">
          5.29245e-19 5.28188e-19 5.28161e-19 5.28133e-19 5.28176e-19 5.28175e-19 5.28163e-19 5.28083e-19 5.28052e-19 5.28139e-19 5.28106e-19 5.28128e-19
          5.28094e-19 5.28104e-19 5.28046e-19 5.28119e-19 5.28065e-19 5.28088e-19 5.28054e-19 5.28078e-19 5.31625e-19 8.66357e-19 3.18616e-17 2.89788e-15
          2.58459e-13 3.27338e-13 4.33998e-13 6.04192e-13 1.96074e-18 1.88767e-18
        </DataArray>
        <DataArray type="Float32" Name="X^w_cyanide" NumberOfComponents="1" format="ascii">
          5.21971e-06 5.2197e-06 5.21968e-06 5.21967e-06 5.21965e-06 5.21964e-06 5.21962e-06 5.2196e-06 5.21959e-06 5.21957e-06 5.21955e-06 5.21952e-06
          5.21949e-06 5.21946e-06 5.21942e-06 5.21936e-06 5.21929e-06 5.2192e-06 5.21907e-06 5.2189e-06 5.21866e-06 5.2183e-06 5.21778e-06 5.21698e-06
          5.21618e-06 6.6023e-06 8.74776e-06 1.23914e-05 1.94596e-05 1.923e-05
        </DataArray>
        <DataArray type="Float32" Name="X^w_citrate" NumberOfComponents="1" format="ascii">
          0.000141796 0.000141796 0.000141796 0.000141796 0.000141796 0.000141796 0.000141796 0.000141796 0.000141796 0.000141796 0.000141796 0.000141796
          0.000141796 0.000141796 0.000141795 0.000141795 0.000141795 0.000141794 0.000141793 0.000141792 0.00014179 0.000141788 0.000141784 0.000141779
          0.000141769 0.000141754 0.000141724 0.000141653 0.000141422 0.000139753
        </DataArray>
        <DataArray type="Float32" Name="X^w_substrate" NumberOfComponents="1" format="ascii">
          7.11438e-12 9.72795e-12 1.33009e-11 1.81852e-11 2.48624e-11 3.39909e-11 4.6472e-11 6.35396e-11 8.68857e-11 1.18833e-10 1.62575e-10 2.22519e-10
          3.0476e-10 4.17778e-10 5.73436e-10 7.8847e-10 1.08675e-09 1.50275e-09 2.08722e-09 2.91643e-09 4.10834e-09 5.85202e-09 8.46463e-09 1.25107e-08
          1.90767e-08 3.04887e-08 5.25441e-08 1.03425e-07 2.67588e-07 1.44429e-06
        </DataArray>
        <DataArray type="Float32" Name="m^w_H2O" NumberOfComponents="1" format="ascii">
          55492.6 55492.5 55492.5 55492.5 55492.5 55492.5 55492.5 55492.5 55492.5 55492.5 55492.5 55492.5
          55492.4 55492.4 55492.4 55492.4 55492.4 55492.4 55492.4 55492.4 55492.4 55492.4 55492.4 55492.3
          55492.3 55492.3 55492.1 55491.9 55491.5 55491.6
        </DataArray>
        <DataArray type="Float32" Name="m^w_Air" NumberOfComponents="1" format="ascii">
          0 0 0 0 0 0 0 0 0 0 0 0
          0 0 0 0 0 0 0 0 0 0 0 0
          0 0 0 0 0 0
        </DataArray>
        <DataArray type="Float32" Name="m^w_AuComplex" NumberOfComponents="1" format="ascii">
          7.26746e-13 7.25298e-13 7.25259e-13 7.25219e-13 7.25277e-13 7.25274e-13 7.25257e-13 7.25144e-13 7.25098e-13 7.25217e-13 7.25169e-13 7.25197e-13
          7.25148e-13 7.2516e-13 7.25073e-13 7.25171e-13 7.25089e-13 7.25114e-13 7.25056e-13 7.25023e-13 7.24909e-13 7.24941e-13 7.91331e-13 1.48508e-10
          3.53756e-07 5.47775e-07 9.3097e-07 1.80901e-06 8.89234e-12 8.65321e-12
        </DataArray>
        <DataArray type="Float32" Name="m^w_nanoAu" NumberOfComponents="1" format="ascii">
          2.68654e-15 2.68118e-15 2.68104e-15 2.6809e-15 2.68112e-15 2.68111e-15 2.68105e-15 2.68064e-15 2.68048e-15 2.68092e-15 2.68076e-15 2.68087e-15
          2.6807e-15 2.68075e-15 2.68045e-15 2.68082e-15 2.68054e-15 2.68066e-15 2.68049e-15 2.68061e-15 2.69862e-15 4.39777e-15 1.61735e-13 1.47101e-11
          1.31198e-09 1.66162e-09 2.20304e-09 3.06697e-09 9.95304e-15 9.58209e-15
        </DataArray>
        <DataArray type="Float32" Name="m^w_cyanide" NumberOfComponents="1" format="ascii">
          0.200575 0.200574 0.200574 0.200573 0.200572 0.200572 0.200571 0.20057 0.20057 0.200569 0.200568 0.200567
          0.200566 0.200565 0.200563 0.200561 0.200558 0.200555 0.20055 0.200543 0.200534 0.20052 0.2005 0.200469
          0.200438 0.253702 0.336144 0.476154 0.747758 0.738936
        </DataArray>
        <DataArray type="Float32" Name="m^w_citrate" NumberOfComponents="1" format="ascii">
          0.749743 0.749743 0.749743 0.749743 0.749743 0.749743 0.749742 0.749742 0.749742 0.749741 0.749741 0.74974
          0.74974 0.749739 0.749737 0.749736 0.749733 0.74973 0.749726 0.749719 0.74971 0.749697 0.749677 0.749647
          0.749597 0.749517 0.749357 0.748983 0.747761 0.738937
        </DataArray>
        <DataArray type="Float32" Name="m^w_substrate" NumberOfComponents="1" format="ascii">
          3.94835e-08 5.39883e-08 7.38174e-08 1.00925e-07 1.37982e-07 1.88643e-07 2.57911e-07 3.52633e-07 4.82199e-07 6.59499e-07 9.02261e-07 1.23494e-06
          1.69136e-06 2.31859e-06 3.18246e-06 4.37586e-06 6.03122e-06 8.33998e-06 1.15837e-05 1.61856e-05 2.28005e-05 3.24775e-05 4.6977e-05 6.94318e-05
          0.000105872 0.000169206 0.000291609 0.000573989 0.00148506 0.00801552
        </DataArray>
        <DataArray type="Float32" Name="process rank" NumberOfComponents="1" format="ascii">
          0 0 0 0 0 0 0 0 0 0 0 0
          0 0 0 0 0 0 0 0 0 0 0 0
          0 0 0 0 0 0
        </DataArray>
      </CellData>
      <Points>
        <DataArray type="Float32" Name="Coordinates" NumberOfComponents="3" format="ascii">
          0 0 0 0.5 0 0 0 0.0333333 0 0.5 0.0333333 0
          0 0.0666667 0 0.5 0.0666667 0 0 0.1 0 0.5 0.1 0
          0 0.133333 0 0.5 0.133333 0 0 0.166667 0 0.5 0.166667 0
          0 0.2 0 0.5 0.2 0 0 0.233333 0 0.5 0.233333 0
          0 0.266667 0 0.5 0.266667 0 0 0.3 0 0.5 0.3 0
          0 0.333333 0 0.5 0.333333 0 0 0.366667 0 0.5 0.366667 0
          0 0.4 0 0.5 0.4 0 0 0.433333 0 0.5 0.433333 0
          0 0.466667 0 0.5 0.466667 0 0 0.5 0 0.5 0.5 0
          0 0.533333 0 0.5 0.533333 0 0 0.566667 0 0.5 0.566667 0
          0 0.6 0 0.5 0.6 0 0 0.633333 0 0.5 0.633333 0
          0 0.666667 0 0.5 0.666667 0 0 0.7 0 0.5 0.7 0
          0 0.733333 0 0.5 0.733333 0 0 0.766667 0 0.5 0.766667 0
          0 0.8 0 0.5 0.8 0 0 0.833333 0 0.5 0.833333 0
          0 0.866667 0 0.5 0.866667 0 0 0.9 0 0.5 0.9 0
          0 0.933333 0 0.5 0.933333 0 0 0.966667 0 0.5 0.966667 0
          0 1 0 0.5 1 0
        </DataArray>
      </Points>
      <Cells>
        <DataArray type="Int32" Name="connectivity" NumberOfComponents="1" format="ascii">
          0 1 3 2 2 3 5 4 4 5 7 6
          6 7 9 8 8 9 11 10 10 11 13 12
          12 13 15 14 14 15 17 16 16 17 19 18
          18 19 21 20 20 21 23 22 22 23 25 24
          24 25 27 26 26 27 29 28 28 29 31 30
          30 31 33 32 32 33 35 34 34 35 37 36
          36 37 39 38 38 39 41 40 40 41 43 42
          42 43 45 44 44 45 47 46 46 47 49 48
          48 49 51 50 50 51 53 52 52 53 55 54
          54 55 57 56 56 57 59 58 58 59 61 60
        </DataArray>
        <DataArray type="Int32" Name="offsets" NumberOfComponents="1" format="ascii">
          4 8 12 16 20 24 28 32 36 40 44 48
          52 56 60 64 68 72 76 80 84 88 92 96
          100 104 108 112 116 120
        </DataArray>
        <DataArray type="UInt8" Name="types" NumberOfComponents="1" format="ascii">
          9 9 9 9 9 9 9 9 9 9 9 9
          9 9 9 9 9 9 9 9 9 9 9 9
          9 9 9 9 9 9
        </DataArray>
      </Cells>
    </Piece>
  </UnstructuredGrid>
</VTKFile>
