<?xml version="1.0"?>
<VTKFile type="UnstructuredGrid" version="0.1" byte_order="LittleEndian">
  <UnstructuredGrid>
    <Piece NumberOfCells="30" NumberOfPoints="62">
      <CellData Scalars="Sg">
        <DataArray type="Float32" Name="Sg" NumberOfComponents="1" format="ascii">
          0 0 0 0 0 0 0 0 0 0 0 0
          0 0 0 0 0 0 0 0 0 0 0 0
          0 0 0 0 0 0
        </DataArray>
        <DataArray type="Float32" Name="Sl" NumberOfComponents="1" format="ascii">
          1 1 1 1 1 1 1 1 1 1 1 1
          1 1 1 1 1 1 1 1 1 1 1 1
          1 1 1 1 1 1
        </DataArray>
        <DataArray type="Float32" Name="pg" NumberOfComponents="1" format="ascii">
          24687.8 24360.9 24034 23707 23380.1 23053.1 22726.2 22399.3 22072.3 21745.4 21418.4 21091.5
          20764.6 20437.6 20110.7 19783.7 19456.8 19129.8 18802.9 18476 18149 17822.1 17495.1 17168.2
          16841.3 16514.3 16187.4 15860.4 15533.5 15209.2
        </DataArray>
        <DataArray type="Float32" Name="pl" NumberOfComponents="1" format="ascii">
          110628 110301 109974 109647 109320 108993 108666 108339 108012 107685 107358 107031
          106704 106377 106050 105723 105396 105070 104743 104416 104089 103762 103435 103108
          102781 102454 102127 101800 101473 101149
        </DataArray>
        <DataArray type="Float32" Name="pc" NumberOfComponents="1" format="ascii">
          -85939.7 -85939.7 -85939.7 -85939.7 -85939.7 -85939.7 -85939.7 -85939.7 -85939.7 -85939.7 -85939.7 -85939.7
          -85939.7 -85939.7 -85939.7 -85939.7 -85939.7 -85939.7 -85939.7 -85939.7 -85939.7 -85939.7 -85939.7 -85939.7
          -85939.7 -85939.7 -85939.7 -85939.7 -85939.7 -85939.7
        </DataArray>
        <DataArray type="Float32" Name="rhoL" NumberOfComponents="1" format="ascii">
          999.855 999.855 999.855 999.855 999.855 999.854 999.854 999.854 999.854 999.854 999.854 999.854
          999.853 999.853 999.853 999.853 999.853 999.853 999.852 999.852 999.852 999.852 999.852 999.852
          999.852 999.851 999.851 999.851 999.851 999.851
        </DataArray>
        <DataArray type="Float32" Name="rhoG" NumberOfComponents="1" format="ascii">
          0.30585 0.3018 0.29775 0.293699 0.289649 0.285598 0.281548 0.277498 0.273447 0.269397 0.265347 0.261296
          0.257246 0.253195 0.249145 0.245095 0.241044 0.236994 0.232944 0.228893 0.224843 0.220793 0.216742 0.212692
          0.208641 0.204591 0.200541 0.19649 0.19244 0.188422
        </DataArray>
        <DataArray type="Float32" Name="mobL" NumberOfComponents="1" format="ascii">
          722.171 722.17 722.17 722.17 722.17 722.17 722.169 722.169 722.169 722.169 722.169 722.169
          722.168 722.168 722.168 722.168 722.168 722.167 722.167 722.167 722.167 722.167 722.166 722.166
          722.166 722.166 722.166 722.166 722.165 722.165
        </DataArray>
        <DataArray type="Float32" Name="mobG" NumberOfComponents="1" format="ascii">
          0 0 0 0 0 0 0 0 0 0 0 0
          0 0 0 0 0 0 0 0 0 0 0 0
          0 0 0 0 0 0
        </DataArray>
        <DataArray type="Float32" Name="porosity" NumberOfComponents="1" format="ascii">
          0.298756 0.298756 0.298755 0.298755 0.298755 0.298754 0.298754 0.298753 0.298751 0.29875 0.298747 0.298744
          0.298739 0.298733 0.298724 0.298712 0.298696 0.298675 0.298646 0.298606 0.298551 0.298474 0.298365 0.298201
          0.297675 0.297234 0.296364 0.294119 0.283698 0.0471871
        </DataArray>
        <DataArray type="Float32" Name="temperature" NumberOfComponents="1" format="ascii">
          281.15 281.15 281.15 281.15 281.15 281.15 281.15 281.15 281.15 281.15 281.15 281.15
          281.15 281.15 281.15 281.15 281.15 281.15 281.15 281.15 281.15 281.15 281.15 281.15
          281.15 281.15 281.15 281.15 281.15 281.15
        </DataArray>
        <DataArray type="Float32" Name="phase presence" NumberOfComponents="1" format="ascii">
          1 1 1 1 1 1 1 1 1 1 1 1
          1 1 1 1 1 1 1 1 1 1 1 1
          1 1 1 1 1 1
        </DataArray>
        <DataArray type="Float32" Name="precipitateVolumeFraction_au" NumberOfComponents="1" format="ascii">
          5.52642e-10 5.52774e-10 5.52769e-10 5.52756e-10 5.52749e-10 5.52775e-10 5.52771e-10 5.52736e-10 5.52714e-10 5.52752e-10 5.52751e-10 5.5278e-10
          5.52711e-10 5.5274e-10 5.5275e-10 5.52726e-10 5.52766e-10 5.52733e-10 5.52758e-10 5.52687e-10 5.5276e-10 5.52793e-10 5.52967e-10 1.06354e-09
          0.00026994 0.000269924 0.0002699 0.000269852 5.52493e-10 5.51139e-10
        </DataArray>
        <DataArray type="Float32" Name="precipitateVolumeFraction_nanoAu" NumberOfComponents="1" format="ascii">
          1.23644e-13 1.23674e-13 1.23672e-13 1.23669e-13 1.23667e-13 1.23673e-13 1.23672e-13 1.23664e-13 1.23659e-13 1.23667e-13 1.23666e-13 1.23672e-13
          1.23656e-13 1.23662e-13 1.23664e-13 1.23657e-13 1.23664e-13 1.23655e-13 1.23658e-13 1.23637e-13 1.23648e-13 1.23663e-13 1.35521e-13 2.57914e-11
          6.03688e-08 7.66911e-08 1.02153e-07 1.4557e-07 4.74366e-13 4.67054e-13
        </DataArray>
        <DataArray type="Float32" Name="precipitateVolumeFraction_d" NumberOfComponents="1" format="ascii">
          0.000622166 0.000622228 0.000622315 0.000622437 0.000622609 0.000622849 0.000623186 0.000623656 0.000624309 0.000625213 0.000626461 0.000628175
          0.00063052 0.000633716 0.000638057 0.000643937 0.000651891 0.000662648 0.000677233 0.000697116 0.000724492 0.000762785 0.000817675 0.000899298
          0.00102762 0.00124777 0.00168306 0.00280563 0.00815098 0.126406
        </DataArray>
        <DataArray type="Float32" Name="precipitateVolumeFraction_p" NumberOfComponents="1" format="ascii">
          0.000622166 0.000622228 0.000622315 0.000622437 0.000622609 0.000622849 0.000623186 0.000623656 0.000624309 0.000625213 0.000626461 0.000628175
          0.00063052 0.000633716 0.000638057 0.000643937 0.000651891 0.000662648 0.000677233 0.000697116 0.000724492 0.000762785 0.000817675 0.000899298
          0.00102762 0.00124777 0.00168306 0.00280563 0.00815098 0.126406
        </DataArray>
        <DataArray type="Float32" Name="K" NumberOfComponents="1" format="ascii">
          9.84106e-11 9.84105e-11 9.84103e-11 9.84099e-11 9.84095e-11 9.84089e-11 9.8408e-11 9.84069e-11 9.84052e-11 9.84029e-11 9.83997e-11 9.83954e-11
          9.83894e-11 9.83813e-11 9.83703e-11 9.83554e-11 9.83352e-11 9.83079e-11 9.8271e-11 9.82206e-11 9.81512e-11 9.80543e-11 9.79155e-11 9.77094e-11
          9.70469e-11 9.64959e-11 9.5414e-11 9.26696e-11 8.07624e-11 2.10032e-13
        </DataArray>
        <DataArray type="Float32" Name="X^w_H2O" NumberOfComponents="1" format="ascii">
          0.999853 0.999853 0.999853 0.999853 0.999853 0.999853 0.999853 0.999853 0.999853 0.999853 0.999853 0.999853
          0.999853 0.999853 0.999853 0.999853 0.999853 0.999853 0.999853 0.999853 0.999853 0.999853 0.999853 0.999853
          0.999853 0.999852 0.99985 0.999846 0.999839 0.99984
        </DataArray>
        <DataArray type="Float32" Name="X^w_Air" NumberOfComponents="1" format="ascii">
          0 0 0 0 0 0 0 0 0 0 0 0
          0 0 0 0 0 0 0 0 0 0 0 0
          0 0 0 0 0 0
        </DataArray>
        <DataArray type="Float32" Name="X^w_AuComplex" NumberOfComponents="1" format="ascii">
          1.41084e-16 1.41118e-16 1.41116e-16 1.41113e-16 1.41111e-16 1.41117e-16 1.41116e-16 1.41106e-16 1.411e-16 1.41109e-16 1.41109e-16 1.41115e-16
          1.41096e-16 1.41102e-16 1.41103e-16 1.41095e-16 1.41101e-16 1.41088e-16 1.41089e-16 1.41062e-16 1.41068e-16 1.41075e-16 1.54408e-16 2.94014e-14
          6.88466e-11 1.07387e-10 1.84424e-10 3.6402e-10 1.83622e-15 1.78734e-15
        </DataArray>
        <DataArray type="Float32" Name="X^w_nanoAu" NumberOfComponents="1" format="ascii">
          5.1159e-19 5.1171e-19 5.11705e-19 5.11691e-19 5.11685e-19 5.11708e-19 5.11703e-19 5.1167e-19 5.11649e-19 5.11682e-19 5.1168e-19 5.11704e-19
          5.11638e-19 5.11661e-19 5.11666e-19 5.11638e-19 5.11666e-19 5.11624e-19 5.11632e-19 5.11583e-19 5.15123e-19 8.39542e-19 3.08858e-17 2.80959e-15
          2.50475e-13 3.18379e-13 4.24322e-13 5.95231e-13 1.95702e-18 1.88469e-18
        </DataArray>
        <DataArray type="Float32" Name="X^w_cyanide" NumberOfComponents="1" format="ascii">
          5.07092e-06 5.07091e-06 5.07091e-06 5.07091e-06 5.0709e-06 5.0709e-06 5.07089e-06 5.07089e-06 5.07088e-06 5.07087e-06 5.07086e-06 5.07084e-06
          5.07082e-06 5.0708e-06 5.07076e-06 5.07071e-06 5.07065e-06 5.07056e-06 5.07044e-06 5.07027e-06 5.07003e-06 5.06969e-06 5.06918e-06 5.0684e-06
          5.06765e-06 6.43735e-06 8.57303e-06 1.22384e-05 1.94622e-05 1.92363e-05
        </DataArray>
        <DataArray type="Float32" Name="X^w_citrate" NumberOfComponents="1" format="ascii">
          0.000141796 0.000141796 0.000141796 0.000141796 0.000141796 0.000141796 0.000141796 0.000141796 0.000141796 0.000141796 0.000141796 0.000141796
          0.000141796 0.000141796 0.000141796 0.000141795 0.000141795 0.000141794 0.000141793 0.000141792 0.00014179 0.000141788 0.000141784 0.000141778
          0.000141769 0.000141755 0.000141726 0.000141659 0.000141441 0.000139799
        </DataArray>
        <DataArray type="Float32" Name="X^w_substrate" NumberOfComponents="1" format="ascii">
          9.51087e-12 1.28525e-11 1.73673e-11 2.34667e-11 3.17073e-11 4.28411e-11 5.78854e-11 7.82169e-11 1.05701e-10 1.4287e-10 1.93164e-10 2.61277e-10
          3.53628e-10 4.79044e-10 6.49743e-10 8.82772e-10 1.20218e-09 1.64237e-09 2.25344e-09 3.11e-09 4.3264e-09 6.08434e-09 8.68624e-09 1.26666e-08
          1.9048e-08 3.00094e-08 5.09713e-08 9.89789e-08 2.54302e-07 1.41203e-06
        </DataArray>
        <DataArray type="Float32" Name="m^w_H2O" NumberOfComponents="1" format="ascii">
          55492.6 55492.6 55492.5 55492.5 55492.5 55492.5 55492.5 55492.5 55492.5 55492.5 55492.5 55492.5
          55492.5 55492.4 55492.4 55492.4 55492.4 55492.4 55492.4 55492.4 55492.4 55492.4 55492.4 55492.4
          55492.3 55492.3 55492.1 55491.9 55491.5 55491.6
        </DataArray>
        <DataArray type="Float32" Name="m^w_Air" NumberOfComponents="1" format="ascii">
          0 0 0 0 0 0 0 0 0 0 0 0
          0 0 0 0 0 0 0 0 0 0 0 0
          0 0 0 0 0 0
        </DataArray>
        <DataArray type="Float32" Name="m^w_AuComplex" NumberOfComponents="1" format="ascii">
          7.1617e-13 7.1634e-13 7.16332e-13 7.16313e-13 7.16303e-13 7.16335e-13 7.16328e-13 7.16281e-13 7.16249e-13 7.16296e-13 7.16291e-13 7.16325e-13
          7.16229e-13 7.1626e-13 7.16264e-13 7.1622e-13 7.16254e-13 7.16188e-13 7.1619e-13 7.16053e-13 7.16085e-13 7.1612e-13 7.83803e-13 1.49246e-10
          3.49477e-07 5.45114e-07 9.36167e-07 1.84783e-06 9.32093e-12 9.0728e-12
        </DataArray>
        <DataArray type="Float32" Name="m^w_nanoAu" NumberOfComponents="1" format="ascii">
          2.59692e-15 2.59753e-15 2.5975e-15 2.59744e-15 2.59741e-15 2.59752e-15 2.5975e-15 2.59733e-15 2.59722e-15 2.59739e-15 2.59738e-15 2.5975e-15
          2.59716e-15 2.59728e-15 2.5973e-15 2.59716e-15 2.5973e-15 2.59709e-15 2.59713e-15 2.59688e-15 2.61485e-15 4.26165e-15 1.56782e-13 1.42619e-11
          1.27145e-09 1.61614e-09 2.15393e-09 3.02149e-09 9.93414e-15 9.56698e-15
        </DataArray>
        <DataArray type="Float32" Name="m^w_cyanide" NumberOfComponents="1" format="ascii">
          0.194857 0.194857 0.194857 0.194857 0.194857 0.194856 0.194856 0.194856 0.194855 0.194855 0.194855 0.194854
          0.194853 0.194852 0.194851 0.194849 0.194846 0.194843 0.194838 0.194832 0.194823 0.194809 0.19479 0.19476
          0.194731 0.247363 0.32943 0.470275 0.747858 0.739178
        </DataArray>
        <DataArray type="Float32" Name="m^w_citrate" NumberOfComponents="1" format="ascii">
          0.749744 0.749744 0.749744 0.749744 0.749744 0.749743 0.749743 0.749743 0.749743 0.749742 0.749742 0.749741
          0.74974 0.749739 0.749738 0.749736 0.749733 0.74973 0.749725 0.749719 0.749709 0.749696 0.749677 0.749647
          0.749599 0.749521 0.74937 0.749017 0.74786 0.739179
        </DataArray>
        <DataArray type="Float32" Name="m^w_substrate" NumberOfComponents="1" format="ascii">
          5.27836e-08 7.13292e-08 9.63851e-08 1.30236e-07 1.7597e-07 2.3776e-07 3.21253e-07 4.34089e-07 5.86622e-07 7.929e-07 1.07203e-06 1.45004e-06
          1.96257e-06 2.6586e-06 3.60595e-06 4.89921e-06 6.67186e-06 9.11483e-06 1.25061e-05 1.72599e-05 2.40107e-05 3.37668e-05 4.82069e-05 7.02971e-05
          0.000105712 0.000166546 0.00028288 0.000549312 0.00141133 0.0078365
        </DataArray>
        <DataArray type="Float32" Name="process rank" NumberOfComponents="1" format="ascii">
          0 0 0 0 0 0 0 0 0 0 0 0
          0 0 0 0 0 0 0 0 0 0 0 0
          0 0 0 0 0 0
        </DataArray>
      </CellData>
      <Points>
        <DataArray type="Float32" Name="Coordinates" NumberOfComponents="3" format="ascii">
          0 0 0 0.5 0 0 0 0.0333333 0 0.5 0.0333333 0
          0 0.0666667 0 0.5 0.0666667 0 0 0.1 0 0.5 0.1 0
          0 0.133333 0 0.5 0.133333 0 0 0.166667 0 0.5 0.166667 0
          0 0.2 0 0.5 0.2 0 0 0.233333 0 0.5 0.233333 0
          0 0.266667 0 0.5 0.266667 0 0 0.3 0 0.5 0.3 0
          0 0.333333 0 0.5 0.333333 0 0 0.366667 0 0.5 0.366667 0
          0 0.4 0 0.5 0.4 0 0 0.433333 0 0.5 0.433333 0
          0 0.466667 0 0.5 0.466667 0 0 0.5 0 0.5 0.5 0
          0 0.533333 0 0.5 0.533333 0 0 0.566667 0 0.5 0.566667 0
          0 0.6 0 0.5 0.6 0 0 0.633333 0 0.5 0.633333 0
          0 0.666667 0 0.5 0.666667 0 0 0.7 0 0.5 0.7 0
          0 0.733333 0 0.5 0.733333 0 0 0.766667 0 0.5 0.766667 0
          0 0.8 0 0.5 0.8 0 0 0.833333 0 0.5 0.833333 0
          0 0.866667 0 0.5 0.866667 0 0 0.9 0 0.5 0.9 0
          0 0.933333 0 0.5 0.933333 0 0 0.966667 0 0.5 0.966667 0
          0 1 0 0.5 1 0
        </DataArray>
      </Points>
      <Cells>
        <DataArray type="Int32" Name="connectivity" NumberOfComponents="1" format="ascii">
          0 1 3 2 2 3 5 4 4 5 7 6
          6 7 9 8 8 9 11 10 10 11 13 12
          12 13 15 14 14 15 17 16 16 17 19 18
          18 19 21 20 20 21 23 22 22 23 25 24
          24 25 27 26 26 27 29 28 28 29 31 30
          30 31 33 32 32 33 35 34 34 35 37 36
          36 37 39 38 38 39 41 40 40 41 43 42
          42 43 45 44 44 45 47 46 46 47 49 48
          48 49 51 50 50 51 53 52 52 53 55 54
          54 55 57 56 56 57 59 58 58 59 61 60
        </DataArray>
        <DataArray type="Int32" Name="offsets" NumberOfComponents="1" format="ascii">
          4 8 12 16 20 24 28 32 36 40 44 48
          52 56 60 64 68 72 76 80 84 88 92 96
          100 104 108 112 116 120
        </DataArray>
        <DataArray type="UInt8" Name="types" NumberOfComponents="1" format="ascii">
          9 9 9 9 9 9 9 9 9 9 9 9
          9 9 9 9 9 9 9 9 9 9 9 9
          9 9 9 9 9 9
        </DataArray>
      </Cells>
    </Piece>
  </UnstructuredGrid>
</VTKFile>
