<?xml version="1.0"?>
<VTKFile type="UnstructuredGrid" version="0.1" byte_order="LittleEndian">
  <UnstructuredGrid>
    <Piece NumberOfCells="30" NumberOfPoints="62">
      <CellData Scalars="Sg">
        <DataArray type="Float32" Name="Sg" NumberOfComponents="1" format="ascii">
          0 0 0 0 0 0 0 0 0 0 0 0
          0 0 0 0 0 0 0 0 0 0 0 0
          0 0 0 0 0 0
        </DataArray>
        <DataArray type="Float32" Name="Sl" NumberOfComponents="1" format="ascii">
          1 1 1 1 1 1 1 1 1 1 1 1
          1 1 1 1 1 1 1 1 1 1 1 1
          1 1 1 1 1 1
        </DataArray>
        <DataArray type="Float32" Name="pg" NumberOfComponents="1" format="ascii">
          24687.8 24360.9 24034 23707 23380.1 23053.1 22726.2 22399.3 22072.3 21745.4 21418.4 21091.5
          20764.6 20437.6 20110.7 19783.7 19456.8 19129.8 18802.9 18476 18149 17822.1 17495.1 17168.2
          16841.3 16514.3 16187.4 15860.4 15533.5 15208
        </DataArray>
        <DataArray type="Float32" Name="pl" NumberOfComponents="1" format="ascii">
          110628 110301 109974 109647 109320 108993 108666 108339 108012 107685 107358 107031
          106704 106377 106050 105723 105396 105070 104743 104416 104089 103762 103435 103108
          102781 102454 102127 101800 101473 101148
        </DataArray>
        <DataArray type="Float32" Name="pc" NumberOfComponents="1" format="ascii">
          -85939.7 -85939.7 -85939.7 -85939.7 -85939.7 -85939.7 -85939.7 -85939.7 -85939.7 -85939.7 -85939.7 -85939.7
          -85939.7 -85939.7 -85939.7 -85939.7 -85939.7 -85939.7 -85939.7 -85939.7 -85939.7 -85939.7 -85939.7 -85939.7
          -85939.7 -85939.7 -85939.7 -85939.7 -85939.7 -85939.7
        </DataArray>
        <DataArray type="Float32" Name="rhoL" NumberOfComponents="1" format="ascii">
          999.855 999.855 999.855 999.855 999.855 999.854 999.854 999.854 999.854 999.854 999.854 999.854
          999.853 999.853 999.853 999.853 999.853 999.853 999.852 999.852 999.852 999.852 999.852 999.852
          999.852 999.851 999.851 999.851 999.851 999.851
        </DataArray>
        <DataArray type="Float32" Name="rhoG" NumberOfComponents="1" format="ascii">
          0.30585 0.3018 0.29775 0.293699 0.289649 0.285598 0.281548 0.277498 0.273447 0.269397 0.265347 0.261296
          0.257246 0.253195 0.249145 0.245095 0.241044 0.236994 0.232944 0.228893 0.224843 0.220793 0.216742 0.212692
          0.208641 0.204591 0.200541 0.19649 0.19244 0.188407
        </DataArray>
        <DataArray type="Float32" Name="mobL" NumberOfComponents="1" format="ascii">
          722.171 722.17 722.17 722.17 722.17 722.17 722.169 722.169 722.169 722.169 722.169 722.169
          722.168 722.168 722.168 722.168 722.168 722.167 722.167 722.167 722.167 722.167 722.166 722.166
          722.166 722.166 722.166 722.166 722.165 722.165
        </DataArray>
        <DataArray type="Float32" Name="mobG" NumberOfComponents="1" format="ascii">
          0 0 0 0 0 0 0 0 0 0 0 0
          0 0 0 0 0 0 0 0 0 0 0 0
          0 0 0 0 0 0
        </DataArray>
        <DataArray type="Float32" Name="porosity" NumberOfComponents="1" format="ascii">
          0.298673 0.298673 0.298673 0.298672 0.298672 0.298672 0.298671 0.29867 0.298668 0.298667 0.298664 0.29866
          0.298655 0.298649 0.298639 0.298627 0.29861 0.298588 0.298557 0.298515 0.298458 0.298377 0.298263 0.298093
          0.297558 0.297107 0.296229 0.294029 0.284498 0.0575298
        </DataArray>
        <DataArray type="Float32" Name="temperature" NumberOfComponents="1" format="ascii">
          281.15 281.15 281.15 281.15 281.15 281.15 281.15 281.15 281.15 281.15 281.15 281.15
          281.15 281.15 281.15 281.15 281.15 281.15 281.15 281.15 281.15 281.15 281.15 281.15
          281.15 281.15 281.15 281.15 281.15 281.15
        </DataArray>
        <DataArray type="Float32" Name="phase presence" NumberOfComponents="1" format="ascii">
          1 1 1 1 1 1 1 1 1 1 1 1
          1 1 1 1 1 1 1 1 1 1 1 1
          1 1 1 1 1 1
        </DataArray>
        <DataArray type="Float32" Name="precipitateVolumeFraction_au" NumberOfComponents="1" format="ascii">
          5.52642e-10 5.52774e-10 5.52769e-10 5.52755e-10 5.52749e-10 5.52775e-10 5.52771e-10 5.52736e-10 5.52714e-10 5.52752e-10 5.52751e-10 5.5278e-10
          5.5271e-10 5.5274e-10 5.5275e-10 5.52726e-10 5.52766e-10 5.52732e-10 5.52758e-10 5.52687e-10 5.5276e-10 5.52792e-10 5.52895e-10 9.08918e-10
          0.00026994 0.000269924 0.000269899 0.000269853 5.52493e-10 5.51143e-10
        </DataArray>
        <DataArray type="Float32" Name="precipitateVolumeFraction_nanoAu" NumberOfComponents="1" format="ascii">
          1.23954e-13 1.24008e-13 1.24005e-13 1.23999e-13 1.23997e-13 1.24004e-13 1.24001e-13 1.23991e-13 1.23984e-13 1.23993e-13 1.23992e-13 1.23998e-13
          1.2398e-13 1.23986e-13 1.23987e-13 1.2398e-13 1.23987e-13 1.23977e-13 1.23979e-13 1.23958e-13 1.23968e-13 1.23983e-13 1.35837e-13 2.57894e-11
          6.0391e-08 7.67151e-08 1.02176e-07 1.45579e-07 4.74501e-13 4.66925e-13
        </DataArray>
        <DataArray type="Float32" Name="precipitateVolumeFraction_d" NumberOfComponents="1" format="ascii">
          0.000663525 0.00066359 0.000663681 0.00066381 0.000663991 0.000664244 0.0006646 0.000665095 0.000665785 0.000666739 0.000668057 0.000669866
          0.000672342 0.000675716 0.000680297 0.0006865 0.000694885 0.000706219 0.00072157 0.00074247 0.000771198 0.000811296 0.0008686 0.000953465
          0.00108609 0.00131158 0.0017507 0.00285071 0.00775111 0.121235
        </DataArray>
        <DataArray type="Float32" Name="precipitateVolumeFraction_p" NumberOfComponents="1" format="ascii">
          0.000663525 0.00066359 0.000663681 0.00066381 0.000663991 0.000664244 0.0006646 0.000665095 0.000665785 0.000666739 0.000668057 0.000669866
          0.000672342 0.000675716 0.000680297 0.0006865 0.000694885 0.000706219 0.00072157 0.00074247 0.000771198 0.000811296 0.0008686 0.000953465
          0.00108609 0.00131158 0.0017507 0.00285071 0.00775111 0.121235
        </DataArray>
        <DataArray type="Float32" Name="K" NumberOfComponents="1" format="ascii">
          9.83057e-11 9.83056e-11 9.83053e-11 9.8305e-11 9.83045e-11 9.83039e-11 9.8303e-11 9.83017e-11 9.83e-11 9.82976e-11 9.82942e-11 9.82896e-11
          9.82834e-11 9.82748e-11 9.82632e-11 9.82475e-11 9.82262e-11 9.81975e-11 9.81586e-11 9.81057e-11 9.8033e-11 9.79316e-11 9.77869e-11 9.75728e-11
          9.69003e-11 9.63367e-11 9.52467e-11 9.25607e-11 8.16295e-11 3.89024e-13
        </DataArray>
        <DataArray type="Float32" Name="X^w_H2O" NumberOfComponents="1" format="ascii">
          0.999853 0.999853 0.999853 0.999853 0.999853 0.999853 0.999853 0.999853 0.999853 0.999853 0.999853 0.999853
          0.999853 0.999853 0.999853 0.999853 0.999853 0.999853 0.999853 0.999853 0.999853 0.999853 0.999853 0.999853
          0.999853 0.999852 0.99985 0.999846 0.999839 0.99984
        </DataArray>
        <DataArray type="Float32" Name="X^w_Air" NumberOfComponents="1" format="ascii">
          0 0 0 0 0 0 0 0 0 0 0 0
          0 0 0 0 0 0 0 0 0 0 0 0
          0 0 0 0 0 0
        </DataArray>
        <DataArray type="Float32" Name="X^w_AuComplex" NumberOfComponents="1" format="ascii">
          1.41436e-16 1.41492e-16 1.41489e-16 1.41482e-16 1.41479e-16 1.41486e-16 1.41483e-16 1.4147e-16 1.41462e-16 1.41472e-16 1.4147e-16 1.41476e-16
          1.41455e-16 1.41461e-16 1.41461e-16 1.41451e-16 1.41458e-16 1.41443e-16 1.41443e-16 1.41415e-16 1.41421e-16 1.41427e-16 1.54757e-16 2.94051e-14
          6.88873e-11 1.07442e-10 1.84493e-10 3.64057e-10 1.83631e-15 1.7858e-15
        </DataArray>
        <DataArray type="Float32" Name="X^w_nanoAu" NumberOfComponents="1" format="ascii">
          5.12873e-19 5.13094e-19 5.13082e-19 5.13059e-19 5.13048e-19 5.13076e-19 5.13066e-19 5.13022e-19 5.12995e-19 5.13032e-19 5.13028e-19 5.13052e-19
          5.12978e-19 5.13002e-19 5.13005e-19 5.12974e-19 5.13002e-19 5.12957e-19 5.12964e-19 5.12912e-19 5.16457e-19 8.41341e-19 3.09198e-17 2.81157e-15
          2.50566e-13 3.18475e-13 4.24404e-13 5.9522e-13 1.95712e-18 1.88302e-18
        </DataArray>
        <DataArray type="Float32" Name="X^w_cyanide" NumberOfComponents="1" format="ascii">
          5.07284e-06 5.07282e-06 5.07279e-06 5.07277e-06 5.07275e-06 5.07272e-06 5.0727e-06 5.07267e-06 5.07265e-06 5.07262e-06 5.07259e-06 5.07256e-06
          5.07252e-06 5.07248e-06 5.07243e-06 5.07237e-06 5.0723e-06 5.0722e-06 5.07206e-06 5.07188e-06 5.07163e-06 5.07127e-06 5.07073e-06 5.06991e-06
          5.06907e-06 6.43891e-06 8.57451e-06 1.22389e-05 1.94578e-05 1.92245e-05
        </DataArray>
        <DataArray type="Float32" Name="X^w_citrate" NumberOfComponents="1" format="ascii">
          0.000141796 0.000141796 0.000141796 0.000141796 0.000141796 0.000141796 0.000141796 0.000141796 0.000141796 0.000141796 0.000141796 0.000141796
          0.000141796 0.000141796 0.000141796 0.000141795 0.000141795 0.000141794 0.000141794 0.000141792 0.000141791 0.000141788 0.000141784 0.000141779
          0.000141769 0.000141753 0.000141722 0.000141649 0.000141409 0.000139714
        </DataArray>
        <DataArray type="Float32" Name="X^w_substrate" NumberOfComponents="1" format="ascii">
          6.41696e-12 8.81557e-12 1.21101e-11 1.6635e-11 2.28501e-11 3.13868e-11 4.31138e-11 5.92259e-11 8.13691e-11 1.11813e-10 1.53695e-10 2.11359e-10
          2.90849e-10 4.00604e-10 5.52487e-10 7.63306e-10 1.05713e-09 1.4689e-09 2.0502e-09 2.87892e-09 4.07593e-09 5.83569e-09 8.48541e-09 1.26092e-08
          1.93343e-08 3.10778e-08 5.38694e-08 1.06593e-07 2.76418e-07 1.47224e-06
        </DataArray>
        <DataArray type="Float32" Name="m^w_H2O" NumberOfComponents="1" format="ascii">
          55492.6 55492.6 55492.5 55492.5 55492.5 55492.5 55492.5 55492.5 55492.5 55492.5 55492.5 55492.5
          55492.5 55492.4 55492.4 55492.4 55492.4 55492.4 55492.4 55492.4 55492.4 55492.4 55492.4 55492.4
          55492.3 55492.3 55492.1 55491.9 55491.5 55491.6
        </DataArray>
        <DataArray type="Float32" Name="m^w_Air" NumberOfComponents="1" format="ascii">
          0 0 0 0 0 0 0 0 0 0 0 0
          0 0 0 0 0 0 0 0 0 0 0 0
          0 0 0 0 0 0
        </DataArray>
        <DataArray type="Float32" Name="m^w_AuComplex" NumberOfComponents="1" format="ascii">
          7.17954e-13 7.18241e-13 7.18223e-13 7.18189e-13 7.18171e-13 7.18207e-13 7.18191e-13 7.18128e-13 7.18088e-13 7.18136e-13 7.18127e-13 7.18158e-13
          7.1805e-13 7.18079e-13 7.1808e-13 7.1803e-13 7.18062e-13 7.17991e-13 7.17989e-13 7.17846e-13 7.17876e-13 7.17905e-13 7.85571e-13 1.49265e-10
          3.49683e-07 5.45395e-07 9.36515e-07 1.84801e-06 9.3214e-12 9.06499e-12
        </DataArray>
        <DataArray type="Float32" Name="m^w_nanoAu" NumberOfComponents="1" format="ascii">
          2.60343e-15 2.60455e-15 2.6045e-15 2.60438e-15 2.60432e-15 2.60447e-15 2.60441e-15 2.60419e-15 2.60405e-15 2.60424e-15 2.60422e-15 2.60434e-15
          2.60396e-15 2.60408e-15 2.6041e-15 2.60394e-15 2.60408e-15 2.60386e-15 2.60389e-15 2.60363e-15 2.62162e-15 4.27078e-15 1.56954e-13 1.4272e-11
          1.27191e-09 1.61663e-09 2.15434e-09 3.02143e-09 9.93467e-15 9.55849e-15
        </DataArray>
        <DataArray type="Float32" Name="m^w_cyanide" NumberOfComponents="1" format="ascii">
          0.194931 0.19493 0.194929 0.194928 0.194927 0.194926 0.194925 0.194924 0.194923 0.194922 0.194921 0.19492
          0.194919 0.194917 0.194915 0.194913 0.19491 0.194906 0.194901 0.194894 0.194884 0.19487 0.194849 0.194818
          0.194786 0.247423 0.329486 0.470295 0.747692 0.738726
        </DataArray>
        <DataArray type="Float32" Name="m^w_citrate" NumberOfComponents="1" format="ascii">
          0.749744 0.749744 0.749744 0.749744 0.749744 0.749743 0.749743 0.749743 0.749743 0.749742 0.749742 0.749741
          0.749741 0.74974 0.749739 0.749737 0.749735 0.749731 0.749727 0.74972 0.749711 0.749698 0.749678 0.749647
          0.749596 0.749513 0.749348 0.748959 0.747694 0.738728
        </DataArray>
        <DataArray type="Float32" Name="m^w_substrate" NumberOfComponents="1" format="ascii">
          3.5613e-08 4.89248e-08 6.72087e-08 9.23214e-08 1.26814e-07 1.74191e-07 2.39273e-07 3.28693e-07 4.51583e-07 6.20541e-07 8.52976e-07 1.173e-06
          1.61416e-06 2.22328e-06 3.0662e-06 4.2362e-06 5.86687e-06 8.1521e-06 1.13782e-05 1.59774e-05 2.26206e-05 3.23869e-05 4.70923e-05 6.99787e-05
          0.000107301 0.000172476 0.000298964 0.000591572 0.00153406 0.00817064
        </DataArray>
        <DataArray type="Float32" Name="process rank" NumberOfComponents="1" format="ascii">
          0 0 0 0 0 0 0 0 0 0 0 0
          0 0 0 0 0 0 0 0 0 0 0 0
          0 0 0 0 0 0
        </DataArray>
      </CellData>
      <Points>
        <DataArray type="Float32" Name="Coordinates" NumberOfComponents="3" format="ascii">
          0 0 0 0.5 0 0 0 0.0333333 0 0.5 0.0333333 0
          0 0.0666667 0 0.5 0.0666667 0 0 0.1 0 0.5 0.1 0
          0 0.133333 0 0.5 0.133333 0 0 0.166667 0 0.5 0.166667 0
          0 0.2 0 0.5 0.2 0 0 0.233333 0 0.5 0.233333 0
          0 0.266667 0 0.5 0.266667 0 0 0.3 0 0.5 0.3 0
          0 0.333333 0 0.5 0.333333 0 0 0.366667 0 0.5 0.366667 0
          0 0.4 0 0.5 0.4 0 0 0.433333 0 0.5 0.433333 0
          0 0.466667 0 0.5 0.466667 0 0 0.5 0 0.5 0.5 0
          0 0.533333 0 0.5 0.533333 0 0 0.566667 0 0.5 0.566667 0
          0 0.6 0 0.5 0.6 0 0 0.633333 0 0.5 0.633333 0
          0 0.666667 0 0.5 0.666667 0 0 0.7 0 0.5 0.7 0
          0 0.733333 0 0.5 0.733333 0 0 0.766667 0 0.5 0.766667 0
          0 0.8 0 0.5 0.8 0 0 0.833333 0 0.5 0.833333 0
          0 0.866667 0 0.5 0.866667 0 0 0.9 0 0.5 0.9 0
          0 0.933333 0 0.5 0.933333 0 0 0.966667 0 0.5 0.966667 0
          0 1 0 0.5 1 0
        </DataArray>
      </Points>
      <Cells>
        <DataArray type="Int32" Name="connectivity" NumberOfComponents="1" format="ascii">
          0 1 3 2 2 3 5 4 4 5 7 6
          6 7 9 8 8 9 11 10 10 11 13 12
          12 13 15 14 14 15 17 16 16 17 19 18
          18 19 21 20 20 21 23 22 22 23 25 24
          24 25 27 26 26 27 29 28 28 29 31 30
          30 31 33 32 32 33 35 34 34 35 37 36
          36 37 39 38 38 39 41 40 40 41 43 42
          42 43 45 44 44 45 47 46 46 47 49 48
          48 49 51 50 50 51 53 52 52 53 55 54
          54 55 57 56 56 57 59 58 58 59 61 60
        </DataArray>
        <DataArray type="Int32" Name="offsets" NumberOfComponents="1" format="ascii">
          4 8 12 16 20 24 28 32 36 40 44 48
          52 56 60 64 68 72 76 80 84 88 92 96
          100 104 108 112 116 120
        </DataArray>
        <DataArray type="UInt8" Name="types" NumberOfComponents="1" format="ascii">
          9 9 9 9 9 9 9 9 9 9 9 9
          9 9 9 9 9 9 9 9 9 9 9 9
          9 9 9 9 9 9
        </DataArray>
      </Cells>
    </Piece>
  </UnstructuredGrid>
</VTKFile>
