<?xml version="1.0"?>
<VTKFile type="UnstructuredGrid" version="0.1" byte_order="LittleEndian">
  <UnstructuredGrid>
    <Piece NumberOfCells="30" NumberOfPoints="62">
      <CellData Scalars="Sg">
        <DataArray type="Float32" Name="Sg" NumberOfComponents="1" format="ascii">
          0 0 0 0 0 0 0 0 0 0 0 0
          0 0 0 0 0 0 0 0 0 0 0 0
          0 0 0 0 0 0
        </DataArray>
        <DataArray type="Float32" Name="Sl" NumberOfComponents="1" format="ascii">
          1 1 1 1 1 1 1 1 1 1 1 1
          1 1 1 1 1 1 1 1 1 1 1 1
          1 1 1 1 1 1
        </DataArray>
        <DataArray type="Float32" Name="pg" NumberOfComponents="1" format="ascii">
          24687.8 24360.9 24034 23707 23380.1 23053.1 22726.2 22399.3 22072.3 21745.4 21418.4 21091.5
          20764.6 20437.6 20110.7 19783.7 19456.8 19129.8 18802.9 18476 18149 17822.1 17495.1 17168.2
          16841.3 16514.3 16187.4 15860.4 15533.5 15209.4
        </DataArray>
        <DataArray type="Float32" Name="pl" NumberOfComponents="1" format="ascii">
          110628 110301 109974 109647 109320 108993 108666 108339 108012 107685 107358 107031
          106704 106377 106050 105723 105396 105070 104743 104416 104089 103762 103435 103108
          102781 102454 102127 101800 101473 101149
        </DataArray>
        <DataArray type="Float32" Name="pc" NumberOfComponents="1" format="ascii">
          -85939.7 -85939.7 -85939.7 -85939.7 -85939.7 -85939.7 -85939.7 -85939.7 -85939.7 -85939.7 -85939.7 -85939.7
          -85939.7 -85939.7 -85939.7 -85939.7 -85939.7 -85939.7 -85939.7 -85939.7 -85939.7 -85939.7 -85939.7 -85939.7
          -85939.7 -85939.7 -85939.7 -85939.7 -85939.7 -85939.7
        </DataArray>
        <DataArray type="Float32" Name="rhoL" NumberOfComponents="1" format="ascii">
          999.855 999.855 999.855 999.855 999.855 999.854 999.854 999.854 999.854 999.854 999.854 999.854
          999.853 999.853 999.853 999.853 999.853 999.853 999.852 999.852 999.852 999.852 999.852 999.852
          999.852 999.851 999.851 999.851 999.851 999.851
        </DataArray>
        <DataArray type="Float32" Name="rhoG" NumberOfComponents="1" format="ascii">
          0.30585 0.3018 0.29775 0.293699 0.289649 0.285598 0.281548 0.277498 0.273447 0.269397 0.265347 0.261296
          0.257246 0.253195 0.249145 0.245095 0.241044 0.236994 0.232944 0.228893 0.224843 0.220793 0.216742 0.212692
          0.208641 0.204591 0.200541 0.19649 0.19244 0.188424
        </DataArray>
        <DataArray type="Float32" Name="mobL" NumberOfComponents="1" format="ascii">
          722.171 722.17 722.17 722.17 722.17 722.17 722.169 722.169 722.169 722.169 722.169 722.169
          722.168 722.168 722.168 722.168 722.168 722.167 722.167 722.167 722.167 722.167 722.166 722.166
          722.166 722.166 722.166 722.166 722.165 722.165
        </DataArray>
        <DataArray type="Float32" Name="mobG" NumberOfComponents="1" format="ascii">
          0 0 0 0 0 0 0 0 0 0 0 0
          0 0 0 0 0 0 0 0 0 0 0 0
          0 0 0 0 0 0
        </DataArray>
        <DataArray type="Float32" Name="porosity" NumberOfComponents="1" format="ascii">
          0.298778 0.298778 0.298778 0.298778 0.298777 0.298777 0.298776 0.298775 0.298774 0.298772 0.29877 0.298766
          0.298762 0.298756 0.298747 0.298735 0.29872 0.298699 0.29867 0.298631 0.298577 0.298501 0.298392 0.298231
          0.297707 0.29727 0.296402 0.294147 0.2835 0.0461999
        </DataArray>
        <DataArray type="Float32" Name="temperature" NumberOfComponents="1" format="ascii">
          281.15 281.15 281.15 281.15 281.15 281.15 281.15 281.15 281.15 281.15 281.15 281.15
          281.15 281.15 281.15 281.15 281.15 281.15 281.15 281.15 281.15 281.15 281.15 281.15
          281.15 281.15 281.15 281.15 281.15 281.15
        </DataArray>
        <DataArray type="Float32" Name="phase presence" NumberOfComponents="1" format="ascii">
          1 1 1 1 1 1 1 1 1 1 1 1
          1 1 1 1 1 1 1 1 1 1 1 1
          1 1 1 1 1 1
        </DataArray>
        <DataArray type="Float32" Name="precipitateVolumeFraction_au" NumberOfComponents="1" format="ascii">
          5.52642e-10 5.52774e-10 5.52769e-10 5.52756e-10 5.52749e-10 5.52775e-10 5.52771e-10 5.52736e-10 5.52714e-10 5.52752e-10 5.52751e-10 5.5278e-10
          5.52711e-10 5.5274e-10 5.5275e-10 5.52726e-10 5.52766e-10 5.52733e-10 5.52759e-10 5.52687e-10 5.5276e-10 5.52793e-10 5.52988e-10 1.10769e-09
          0.000269941 0.000269924 0.0002699 0.000269852 5.52493e-10 5.51138e-10
        </DataArray>
        <DataArray type="Float32" Name="precipitateVolumeFraction_nanoAu" NumberOfComponents="1" format="ascii">
          1.23638e-13 1.23667e-13 1.23666e-13 1.23663e-13 1.23661e-13 1.23667e-13 1.23666e-13 1.23658e-13 1.23653e-13 1.23661e-13 1.2366e-13 1.23667e-13
          1.2365e-13 1.23656e-13 1.23658e-13 1.23651e-13 1.23659e-13 1.23649e-13 1.23652e-13 1.23632e-13 1.23642e-13 1.23657e-13 1.35521e-13 2.57978e-11
          6.03664e-08 7.66885e-08 1.0215e-07 1.4557e-07 4.74385e-13 4.67088e-13
        </DataArray>
        <DataArray type="Float32" Name="precipitateVolumeFraction_d" NumberOfComponents="1" format="ascii">
          0.000610858 0.000610919 0.000611005 0.000611125 0.000611294 0.000611532 0.000611864 0.000612327 0.00061297 0.000613861 0.000615091 0.000616779
          0.000619089 0.000622238 0.000626514 0.000632308 0.000640144 0.000650746 0.000665124 0.00068473 0.000711737 0.000749535 0.000803757 0.000884475
          0.00101157 0.00123013 0.00166399 0.00279128 0.00824989 0.1269
        </DataArray>
        <DataArray type="Float32" Name="precipitateVolumeFraction_p" NumberOfComponents="1" format="ascii">
          0.000610858 0.000610919 0.000611005 0.000611125 0.000611294 0.000611532 0.000611864 0.000612327 0.00061297 0.000613861 0.000615091 0.000616779
          0.000619089 0.000622238 0.000626514 0.000632308 0.000640144 0.000650746 0.000665124 0.00068473 0.000711737 0.000749535 0.000803757 0.000884475
          0.00101157 0.00123013 0.00166399 0.00279128 0.00824989 0.1269
        </DataArray>
        <DataArray type="Float32" Name="K" NumberOfComponents="1" format="ascii">
          9.84393e-11 9.84392e-11 9.8439e-11 9.84387e-11 9.84382e-11 9.84376e-11 9.84368e-11 9.84356e-11 9.8434e-11 9.84317e-11 9.84286e-11 9.84243e-11
          9.84184e-11 9.84105e-11 9.83996e-11 9.83849e-11 9.8365e-11 9.83381e-11 9.83017e-11 9.8252e-11 9.81835e-11 9.80878e-11 9.79507e-11 9.77468e-11
          9.70872e-11 9.654e-11 9.54611e-11 9.27042e-11 8.0549e-11 1.96716e-13
        </DataArray>
        <DataArray type="Float32" Name="X^w_H2O" NumberOfComponents="1" format="ascii">
          0.999853 0.999853 0.999853 0.999853 0.999853 0.999853 0.999853 0.999853 0.999853 0.999853 0.999853 0.999853
          0.999853 0.999853 0.999853 0.999853 0.999853 0.999853 0.999853 0.999853 0.999853 0.999853 0.999853 0.999853
          0.999853 0.999852 0.99985 0.999846 0.999839 0.99984
        </DataArray>
        <DataArray type="Float32" Name="X^w_Air" NumberOfComponents="1" format="ascii">
          0 0 0 0 0 0 0 0 0 0 0 0
          0 0 0 0 0 0 0 0 0 0 0 0
          0 0 0 0 0 0
        </DataArray>
        <DataArray type="Float32" Name="X^w_AuComplex" NumberOfComponents="1" format="ascii">
          1.41073e-16 1.41107e-16 1.41105e-16 1.41102e-16 1.411e-16 1.41106e-16 1.41105e-16 1.41096e-16 1.4109e-16 1.41099e-16 1.41098e-16 1.41105e-16
          1.41086e-16 1.41092e-16 1.41093e-16 1.41085e-16 1.41091e-16 1.41078e-16 1.41079e-16 1.41052e-16 1.41058e-16 1.41065e-16 1.54405e-16 2.94081e-14
          6.88422e-11 1.07381e-10 1.84417e-10 3.64018e-10 1.83635e-15 1.78756e-15
        </DataArray>
        <DataArray type="Float32" Name="X^w_nanoAu" NumberOfComponents="1" format="ascii">
          5.11563e-19 5.11683e-19 5.11678e-19 5.11665e-19 5.11659e-19 5.11682e-19 5.11678e-19 5.11644e-19 5.11623e-19 5.11657e-19 5.11655e-19 5.11679e-19
          5.11613e-19 5.11637e-19 5.11641e-19 5.11614e-19 5.11641e-19 5.116e-19 5.11607e-19 5.11559e-19 5.15097e-19 8.39472e-19 3.08827e-17 2.8094e-15
          2.50465e-13 3.18368e-13 4.24313e-13 5.95235e-13 1.95717e-18 1.88493e-18
        </DataArray>
        <DataArray type="Float32" Name="X^w_cyanide" NumberOfComponents="1" format="ascii">
          5.07074e-06 5.07074e-06 5.07073e-06 5.07073e-06 5.07073e-06 5.07073e-06 5.07072e-06 5.07072e-06 5.07071e-06 5.0707e-06 5.07069e-06 5.07068e-06
          5.07066e-06 5.07063e-06 5.0706e-06 5.07055e-06 5.07049e-06 5.0704e-06 5.07028e-06 5.07011e-06 5.06987e-06 5.06952e-06 5.06901e-06 5.06823e-06
          5.06749e-06 6.43718e-06 8.57287e-06 1.22384e-05 1.94628e-05 1.92373e-05
        </DataArray>
        <DataArray type="Float32" Name="X^w_citrate" NumberOfComponents="1" format="ascii">
          0.000141796 0.000141796 0.000141796 0.000141796 0.000141796 0.000141796 0.000141796 0.000141796 0.000141796 0.000141796 0.000141796 0.000141796
          0.000141796 0.000141796 0.000141795 0.000141795 0.000141795 0.000141794 0.000141793 0.000141792 0.00014179 0.000141788 0.000141784 0.000141778
          0.000141769 0.000141755 0.000141727 0.000141661 0.000141446 0.000139807
        </DataArray>
        <DataArray type="Float32" Name="X^w_substrate" NumberOfComponents="1" format="ascii">
          1.07392e-11 1.44449e-11 1.94282e-11 2.61293e-11 3.51405e-11 4.72589e-11 6.35572e-11 8.54811e-11 1.1498e-10 1.54687e-10 2.08167e-10 2.80255e-10
          3.77541e-10 5.09043e-10 6.87188e-10 9.29245e-10 1.25947e-09 1.71243e-09 2.33826e-09 3.21136e-09 4.44534e-09 6.22016e-09 8.83443e-09 1.28145e-08
          1.91649e-08 3.0023e-08 5.07005e-08 9.79167e-08 2.50801e-07 1.40654e-06
        </DataArray>
        <DataArray type="Float32" Name="m^w_H2O" NumberOfComponents="1" format="ascii">
          55492.6 55492.6 55492.5 55492.5 55492.5 55492.5 55492.5 55492.5 55492.5 55492.5 55492.5 55492.5
          55492.5 55492.4 55492.4 55492.4 55492.4 55492.4 55492.4 55492.4 55492.4 55492.4 55492.4 55492.4
          55492.3 55492.3 55492.1 55491.9 55491.5 55491.6
        </DataArray>
        <DataArray type="Float32" Name="m^w_Air" NumberOfComponents="1" format="ascii">
          0 0 0 0 0 0 0 0 0 0 0 0
          0 0 0 0 0 0 0 0 0 0 0 0
          0 0 0 0 0 0
        </DataArray>
        <DataArray type="Float32" Name="m^w_AuComplex" NumberOfComponents="1" format="ascii">
          7.16112e-13 7.16283e-13 7.16276e-13 7.16257e-13 7.16248e-13 7.16281e-13 7.16274e-13 7.16227e-13 7.16196e-13 7.16243e-13 7.16239e-13 7.16273e-13
          7.16177e-13 7.16208e-13 7.16212e-13 7.16169e-13 7.16203e-13 7.16137e-13 7.16138e-13 7.16001e-13 7.16033e-13 7.16068e-13 7.83783e-13 1.4928e-10
          3.49454e-07 5.45083e-07 9.36129e-07 1.84781e-06 9.32161e-12 9.07392e-12
        </DataArray>
        <DataArray type="Float32" Name="m^w_nanoAu" NumberOfComponents="1" format="ascii">
          2.59678e-15 2.5974e-15 2.59737e-15 2.5973e-15 2.59727e-15 2.59739e-15 2.59737e-15 2.5972e-15 2.59709e-15 2.59726e-15 2.59725e-15 2.59737e-15
          2.59704e-15 2.59716e-15 2.59718e-15 2.59704e-15 2.59718e-15 2.59697e-15 2.597e-15 2.59676e-15 2.61472e-15 4.2613e-15 1.56766e-13 1.4261e-11
          1.2714e-09 1.61609e-09 2.15388e-09 3.02151e-09 9.93489e-15 9.5682e-15
        </DataArray>
        <DataArray type="Float32" Name="m^w_cyanide" NumberOfComponents="1" format="ascii">
          0.19485 0.19485 0.19485 0.19485 0.19485 0.19485 0.19485 0.194849 0.194849 0.194849 0.194848 0.194848
          0.194847 0.194846 0.194845 0.194843 0.19484 0.194837 0.194832 0.194825 0.194816 0.194803 0.194783 0.194753
          0.194725 0.247357 0.329423 0.470274 0.747884 0.739219
        </DataArray>
        <DataArray type="Float32" Name="m^w_citrate" NumberOfComponents="1" format="ascii">
          0.749744 0.749744 0.749744 0.749744 0.749744 0.749743 0.749743 0.749743 0.749743 0.749742 0.749742 0.749741
          0.74974 0.749739 0.749738 0.749736 0.749733 0.749729 0.749725 0.749718 0.749709 0.749695 0.749675 0.749645
          0.749598 0.749521 0.749372 0.749025 0.747887 0.73922
        </DataArray>
        <DataArray type="Float32" Name="m^w_substrate" NumberOfComponents="1" format="ascii">
          5.96007e-08 8.01666e-08 1.07823e-07 1.45013e-07 1.95023e-07 2.62278e-07 3.52731e-07 4.74404e-07 6.38118e-07 8.58485e-07 1.15529e-06 1.55536e-06
          2.09528e-06 2.82509e-06 3.81376e-06 5.15713e-06 6.98982e-06 9.50367e-06 1.29769e-05 1.78224e-05 2.46708e-05 3.45206e-05 4.90293e-05 7.11178e-05
          0.000106361 0.000166622 0.000281377 0.000543418 0.00139189 0.00780603
        </DataArray>
        <DataArray type="Float32" Name="process rank" NumberOfComponents="1" format="ascii">
          0 0 0 0 0 0 0 0 0 0 0 0
          0 0 0 0 0 0 0 0 0 0 0 0
          0 0 0 0 0 0
        </DataArray>
      </CellData>
      <Points>
        <DataArray type="Float32" Name="Coordinates" NumberOfComponents="3" format="ascii">
          0 0 0 0.5 0 0 0 0.0333333 0 0.5 0.0333333 0
          0 0.0666667 0 0.5 0.0666667 0 0 0.1 0 0.5 0.1 0
          0 0.133333 0 0.5 0.133333 0 0 0.166667 0 0.5 0.166667 0
          0 0.2 0 0.5 0.2 0 0 0.233333 0 0.5 0.233333 0
          0 0.266667 0 0.5 0.266667 0 0 0.3 0 0.5 0.3 0
          0 0.333333 0 0.5 0.333333 0 0 0.366667 0 0.5 0.366667 0
          0 0.4 0 0.5 0.4 0 0 0.433333 0 0.5 0.433333 0
          0 0.466667 0 0.5 0.466667 0 0 0.5 0 0.5 0.5 0
          0 0.533333 0 0.5 0.533333 0 0 0.566667 0 0.5 0.566667 0
          0 0.6 0 0.5 0.6 0 0 0.633333 0 0.5 0.633333 0
          0 0.666667 0 0.5 0.666667 0 0 0.7 0 0.5 0.7 0
          0 0.733333 0 0.5 0.733333 0 0 0.766667 0 0.5 0.766667 0
          0 0.8 0 0.5 0.8 0 0 0.833333 0 0.5 0.833333 0
          0 0.866667 0 0.5 0.866667 0 0 0.9 0 0.5 0.9 0
          0 0.933333 0 0.5 0.933333 0 0 0.966667 0 0.5 0.966667 0
          0 1 0 0.5 1 0
        </DataArray>
      </Points>
      <Cells>
        <DataArray type="Int32" Name="connectivity" NumberOfComponents="1" format="ascii">
          0 1 3 2 2 3 5 4 4 5 7 6
          6 7 9 8 8 9 11 10 10 11 13 12
          12 13 15 14 14 15 17 16 16 17 19 18
          18 19 21 20 20 21 23 22 22 23 25 24
          24 25 27 26 26 27 29 28 28 29 31 30
          30 31 33 32 32 33 35 34 34 35 37 36
          36 37 39 38 38 39 41 40 40 41 43 42
          42 43 45 44 44 45 47 46 46 47 49 48
          48 49 51 50 50 51 53 52 52 53 55 54
          54 55 57 56 56 57 59 58 58 59 61 60
        </DataArray>
        <DataArray type="Int32" Name="offsets" NumberOfComponents="1" format="ascii">
          4 8 12 16 20 24 28 32 36 40 44 48
          52 56 60 64 68 72 76 80 84 88 92 96
          100 104 108 112 116 120
        </DataArray>
        <DataArray type="UInt8" Name="types" NumberOfComponents="1" format="ascii">
          9 9 9 9 9 9 9 9 9 9 9 9
          9 9 9 9 9 9 9 9 9 9 9 9
          9 9 9 9 9 9
        </DataArray>
      </Cells>
    </Piece>
  </UnstructuredGrid>
</VTKFile>
