<?xml version="1.0"?>
<VTKFile type="UnstructuredGrid" version="0.1" byte_order="LittleEndian">
  <UnstructuredGrid>
    <Piece NumberOfCells="30" NumberOfPoints="62">
      <CellData Scalars="Sg">
        <DataArray type="Float32" Name="Sg" NumberOfComponents="1" format="ascii">
          0 0 0 0 0 0 0 0 0 0 0 0
          0 0 0 0 0 0 0 0 0 0 0 0
          0 0 0 0 0 0
        </DataArray>
        <DataArray type="Float32" Name="Sl" NumberOfComponents="1" format="ascii">
          1 1 1 1 1 1 1 1 1 1 1 1
          1 1 1 1 1 1 1 1 1 1 1 1
          1 1 1 1 1 1
        </DataArray>
        <DataArray type="Float32" Name="pg" NumberOfComponents="1" format="ascii">
          24687.8 24360.9 24034 23707 23380.1 23053.1 22726.2 22399.3 22072.3 21745.4 21418.4 21091.5
          20764.6 20437.6 20110.7 19783.7 19456.8 19129.8 18802.9 18476 18149 17822.1 17495.1 17168.2
          16841.3 16514.3 16187.4 15860.4 15533.5 15209.7
        </DataArray>
        <DataArray type="Float32" Name="pl" NumberOfComponents="1" format="ascii">
          110628 110301 109974 109647 109320 108993 108666 108339 108012 107685 107358 107031
          106704 106377 106050 105723 105396 105070 104743 104416 104089 103762 103435 103108
          102781 102454 102127 101800 101473 101149
        </DataArray>
        <DataArray type="Float32" Name="pc" NumberOfComponents="1" format="ascii">
          -85939.7 -85939.7 -85939.7 -85939.7 -85939.7 -85939.7 -85939.7 -85939.7 -85939.7 -85939.7 -85939.7 -85939.7
          -85939.7 -85939.7 -85939.7 -85939.7 -85939.7 -85939.7 -85939.7 -85939.7 -85939.7 -85939.7 -85939.7 -85939.7
          -85939.7 -85939.7 -85939.7 -85939.7 -85939.7 -85939.7
        </DataArray>
        <DataArray type="Float32" Name="rhoL" NumberOfComponents="1" format="ascii">
          999.855 999.855 999.855 999.855 999.855 999.854 999.854 999.854 999.854 999.854 999.854 999.854
          999.853 999.853 999.853 999.853 999.853 999.853 999.852 999.852 999.852 999.852 999.852 999.852
          999.852 999.851 999.851 999.851 999.851 999.851
        </DataArray>
        <DataArray type="Float32" Name="rhoG" NumberOfComponents="1" format="ascii">
          0.30585 0.3018 0.29775 0.293699 0.289649 0.285598 0.281548 0.277498 0.273447 0.269397 0.265347 0.261296
          0.257246 0.253195 0.249145 0.245095 0.241044 0.236994 0.232944 0.228893 0.224843 0.220793 0.216742 0.212692
          0.208641 0.204591 0.200541 0.19649 0.19244 0.188428
        </DataArray>
        <DataArray type="Float32" Name="mobL" NumberOfComponents="1" format="ascii">
          722.171 722.17 722.17 722.17 722.17 722.17 722.169 722.169 722.169 722.169 722.169 722.169
          722.168 722.168 722.168 722.168 722.168 722.167 722.167 722.167 722.167 722.167 722.166 722.166
          722.166 722.166 722.166 722.166 722.165 722.165
        </DataArray>
        <DataArray type="Float32" Name="mobG" NumberOfComponents="1" format="ascii">
          0 0 0 0 0 0 0 0 0 0 0 0
          0 0 0 0 0 0 0 0 0 0 0 0
          0 0 0 0 0 0
        </DataArray>
        <DataArray type="Float32" Name="porosity" NumberOfComponents="1" format="ascii">
          0.298891 0.298891 0.298891 0.298891 0.29889 0.29889 0.298889 0.298888 0.298887 0.298886 0.298883 0.29888
          0.298876 0.29887 0.298862 0.298851 0.298837 0.298817 0.29879 0.298754 0.298704 0.298633 0.298531 0.298379
          0.297867 0.297447 0.296597 0.294307 0.282591 0.0446319
        </DataArray>
        <DataArray type="Float32" Name="temperature" NumberOfComponents="1" format="ascii">
          281.15 281.15 281.15 281.15 281.15 281.15 281.15 281.15 281.15 281.15 281.15 281.15
          281.15 281.15 281.15 281.15 281.15 281.15 281.15 281.15 281.15 281.15 281.15 281.15
          281.15 281.15 281.15 281.15 281.15 281.15
        </DataArray>
        <DataArray type="Float32" Name="phase presence" NumberOfComponents="1" format="ascii">
          1 1 1 1 1 1 1 1 1 1 1 1
          1 1 1 1 1 1 1 1 1 1 1 1
          1 1 1 1 1 1
        </DataArray>
        <DataArray type="Float32" Name="precipitateVolumeFraction_au" NumberOfComponents="1" format="ascii">
          5.52638e-10 5.52783e-10 5.52721e-10 5.52769e-10 5.52739e-10 5.52766e-10 5.52761e-10 5.52768e-10 5.52733e-10 5.52765e-10 5.5273e-10 5.528e-10
          5.52724e-10 5.52771e-10 5.52724e-10 5.52726e-10 5.52736e-10 5.5274e-10 5.52792e-10 5.52742e-10 5.52709e-10 5.52769e-10 5.53117e-10 1.34241e-09
          0.000269941 0.000269925 0.0002699 0.000269851 5.5231e-10 5.51219e-10
        </DataArray>
        <DataArray type="Float32" Name="precipitateVolumeFraction_nanoAu" NumberOfComponents="1" format="ascii">
          1.23628e-13 1.23661e-13 1.23646e-13 1.23657e-13 1.23651e-13 1.23657e-13 1.23655e-13 1.23657e-13 1.23649e-13 1.23656e-13 1.23648e-13 1.23663e-13
          1.23646e-13 1.23655e-13 1.23644e-13 1.23643e-13 1.23643e-13 1.23642e-13 1.2365e-13 1.23634e-13 1.23621e-13 1.23642e-13 1.35622e-13 2.58603e-11
          6.03612e-08 7.66826e-08 1.02145e-07 1.4557e-07 4.74292e-13 4.67212e-13
        </DataArray>
        <DataArray type="Float32" Name="precipitateVolumeFraction_d" NumberOfComponents="1" format="ascii">
          0.000554394 0.000554452 0.000554532 0.000554645 0.000554804 0.000555026 0.000555336 0.000555768 0.000556367 0.000557196 0.000558338 0.000559906
          0.000562049 0.00056497 0.000568936 0.00057431 0.000581581 0.000591424 0.000604786 0.000623034 0.000648219 0.000683564 0.000734454 0.000810606
          0.000931412 0.00114155 0.00156672 0.00271174 0.00870464 0.127684
        </DataArray>
        <DataArray type="Float32" Name="precipitateVolumeFraction_p" NumberOfComponents="1" format="ascii">
          0.000554394 0.000554452 0.000554532 0.000554645 0.000554804 0.000555026 0.000555336 0.000555768 0.000556367 0.000557196 0.000558338 0.000559906
          0.000562049 0.00056497 0.000568936 0.00057431 0.000581581 0.000591424 0.000604786 0.000623034 0.000648219 0.000683564 0.000734454 0.000810606
          0.000931412 0.00114155 0.00156672 0.00271174 0.00870464 0.127684
        </DataArray>
        <DataArray type="Float32" Name="K" NumberOfComponents="1" format="ascii">
          9.85827e-11 9.85826e-11 9.85824e-11 9.85821e-11 9.85817e-11 9.85811e-11 9.85804e-11 9.85793e-11 9.85777e-11 9.85756e-11 9.85727e-11 9.85687e-11
          9.85633e-11 9.85559e-11 9.85458e-11 9.85321e-11 9.85137e-11 9.84887e-11 9.84548e-11 9.84084e-11 9.83445e-11 9.82549e-11 9.8126e-11 9.79334e-11
          9.72885e-11 9.67614e-11 9.57021e-11 9.28966e-11 7.95742e-11 1.76777e-13
        </DataArray>
        <DataArray type="Float32" Name="X^w_H2O" NumberOfComponents="1" format="ascii">
          0.999853 0.999853 0.999853 0.999853 0.999853 0.999853 0.999853 0.999853 0.999853 0.999853 0.999853 0.999853
          0.999853 0.999853 0.999853 0.999853 0.999853 0.999853 0.999853 0.999853 0.999853 0.999853 0.999853 0.999853
          0.999853 0.999852 0.99985 0.999846 0.999839 0.99984
        </DataArray>
        <DataArray type="Float32" Name="X^w_Air" NumberOfComponents="1" format="ascii">
          0 0 0 0 0 0 0 0 0 0 0 0
          0 0 0 0 0 0 0 0 0 0 0 0
          0 0 0 0 0 0
        </DataArray>
        <DataArray type="Float32" Name="X^w_AuComplex" NumberOfComponents="1" format="ascii">
          1.41122e-16 1.4116e-16 1.41144e-16 1.41156e-16 1.41148e-16 1.41155e-16 1.41154e-16 1.41155e-16 1.41146e-16 1.41154e-16 1.41144e-16 1.41161e-16
          1.41141e-16 1.41151e-16 1.41137e-16 1.41135e-16 1.41134e-16 1.41129e-16 1.41136e-16 1.41113e-16 1.41092e-16 1.41105e-16 1.54573e-16 2.94905e-14
          6.88641e-11 1.07417e-10 1.84486e-10 3.6419e-10 1.83706e-15 1.789e-15
        </DataArray>
        <DataArray type="Float32" Name="X^w_nanoAu" NumberOfComponents="1" format="ascii">
          5.38444e-19 5.38584e-19 5.38524e-19 5.3857e-19 5.38541e-19 5.38566e-19 5.38562e-19 5.38567e-19 5.38533e-19 5.38562e-19 5.38527e-19 5.38592e-19
          5.38517e-19 5.38557e-19 5.38506e-19 5.385e-19 5.385e-19 5.38491e-19 5.38522e-19 5.38489e-19 5.42109e-19 8.83525e-19 3.25047e-17 2.95708e-15
          2.63621e-13 3.35096e-13 4.46624e-13 6.26584e-13 2.06004e-18 1.98484e-18
        </DataArray>
        <DataArray type="Float32" Name="X^w_cyanide" NumberOfComponents="1" format="ascii">
          5.0705e-06 5.0705e-06 5.0705e-06 5.0705e-06 5.0705e-06 5.0705e-06 5.0705e-06 5.0705e-06 5.07049e-06 5.07048e-06 5.07047e-06 5.07046e-06
          5.07043e-06 5.0704e-06 5.07036e-06 5.07031e-06 5.07023e-06 5.07013e-06 5.06999e-06 5.0698e-06 5.06954e-06 5.06918e-06 5.06865e-06 5.06786e-06
          5.06712e-06 6.43676e-06 8.5725e-06 1.22385e-05 1.94653e-05 1.9239e-05
        </DataArray>
        <DataArray type="Float32" Name="X^w_citrate" NumberOfComponents="1" format="ascii">
          0.000141796 0.000141796 0.000141796 0.000141796 0.000141796 0.000141796 0.000141796 0.000141796 0.000141796 0.000141796 0.000141796 0.000141795
          0.000141795 0.000141795 0.000141795 0.000141794 0.000141794 0.000141793 0.000141792 0.000141791 0.000141789 0.000141786 0.000141782 0.000141776
          0.000141767 0.000141753 0.000141727 0.000141665 0.000141463 0.000139819
        </DataArray>
        <DataArray type="Float32" Name="X^w_substrate" NumberOfComponents="1" format="ascii">
          2.04164e-11 2.68145e-11 3.52155e-11 4.62465e-11 6.07309e-11 7.97509e-11 1.04729e-10 1.37538e-10 1.80643e-10 2.37299e-10 3.1181e-10 4.09884e-10
          5.39121e-10 7.09697e-10 9.35327e-10 1.23467e-09 1.6334e-09 2.16736e-09 2.8876e-09 3.86846e-09 5.2216e-09 7.12109e-09 9.85166e-09 1.39088e-08
          2.02279e-08 3.07832e-08 5.04623e-08 9.47184e-08 2.38419e-07 1.39791e-06
        </DataArray>
        <DataArray type="Float32" Name="m^w_H2O" NumberOfComponents="1" format="ascii">
          55492.6 55492.6 55492.5 55492.5 55492.5 55492.5 55492.5 55492.5 55492.5 55492.5 55492.5 55492.5
          55492.5 55492.4 55492.4 55492.4 55492.4 55492.4 55492.4 55492.4 55492.4 55492.4 55492.4 55492.4
          55492.3 55492.3 55492.1 55491.9 55491.5 55491.6
        </DataArray>
        <DataArray type="Float32" Name="m^w_Air" NumberOfComponents="1" format="ascii">
          0 0 0 0 0 0 0 0 0 0 0 0
          0 0 0 0 0 0 0 0 0 0 0 0
          0 0 0 0 0 0
        </DataArray>
        <DataArray type="Float32" Name="m^w_AuComplex" NumberOfComponents="1" format="ascii">
          7.16363e-13 7.16552e-13 7.1647e-13 7.16533e-13 7.16494e-13 7.16528e-13 7.16521e-13 7.16529e-13 7.16483e-13 7.16521e-13 7.16473e-13 7.16559e-13
          7.16456e-13 7.16508e-13 7.16436e-13 7.16424e-13 7.16418e-13 7.16397e-13 7.16428e-13 7.16314e-13 7.16205e-13 7.16272e-13 7.84635e-13 1.49699e-10
          3.49565e-07 5.45264e-07 9.3648e-07 1.84869e-06 9.32518e-12 9.08126e-12
        </DataArray>
        <DataArray type="Float32" Name="m^w_nanoAu" NumberOfComponents="1" format="ascii">
          2.73324e-15 2.73395e-15 2.73364e-15 2.73388e-15 2.73373e-15 2.73386e-15 2.73383e-15 2.73386e-15 2.73369e-15 2.73383e-15 2.73366e-15 2.73398e-15
          2.7336e-15 2.73381e-15 2.73355e-15 2.73352e-15 2.73352e-15 2.73347e-15 2.73363e-15 2.73346e-15 2.75183e-15 4.48492e-15 1.64999e-13 1.50106e-11
          1.33818e-09 1.701e-09 2.26714e-09 3.18064e-09 1.04571e-14 1.00754e-14
        </DataArray>
        <DataArray type="Float32" Name="m^w_cyanide" NumberOfComponents="1" format="ascii">
          0.194841 0.194841 0.194841 0.194841 0.194841 0.194841 0.194841 0.194841 0.194841 0.19484 0.19484 0.194839
          0.194838 0.194837 0.194835 0.194833 0.19483 0.194826 0.194821 0.194814 0.194804 0.19479 0.194769 0.194739
          0.194711 0.24734 0.329409 0.470278 0.747977 0.739284
        </DataArray>
        <DataArray type="Float32" Name="m^w_citrate" NumberOfComponents="1" format="ascii">
          0.749742 0.749742 0.749742 0.749742 0.749741 0.749741 0.749741 0.74974 0.74974 0.74974 0.749739 0.749738
          0.749737 0.749735 0.749734 0.749731 0.749728 0.749724 0.749719 0.749711 0.749701 0.749686 0.749666 0.749635
          0.749588 0.749514 0.749372 0.749048 0.747979 0.739285
        </DataArray>
        <DataArray type="Float32" Name="m^w_substrate" NumberOfComponents="1" format="ascii">
          1.13307e-07 1.48815e-07 1.9544e-07 2.5666e-07 3.37045e-07 4.42602e-07 5.81227e-07 7.63308e-07 1.00253e-06 1.31697e-06 1.73049e-06 2.27478e-06
          2.99202e-06 3.93868e-06 5.19089e-06 6.85217e-06 9.06503e-06 1.20284e-05 1.60256e-05 2.14692e-05 2.89788e-05 3.95206e-05 5.46747e-05 7.71909e-05
          0.000112261 0.00017084 0.000280055 0.000525668 0.00132318 0.00775812
        </DataArray>
        <DataArray type="Float32" Name="process rank" NumberOfComponents="1" format="ascii">
          0 0 0 0 0 0 0 0 0 0 0 0
          0 0 0 0 0 0 0 0 0 0 0 0
          0 0 0 0 0 0
        </DataArray>
      </CellData>
      <Points>
        <DataArray type="Float32" Name="Coordinates" NumberOfComponents="3" format="ascii">
          0 0 0 0.5 0 0 0 0.0333333 0 0.5 0.0333333 0
          0 0.0666667 0 0.5 0.0666667 0 0 0.1 0 0.5 0.1 0
          0 0.133333 0 0.5 0.133333 0 0 0.166667 0 0.5 0.166667 0
          0 0.2 0 0.5 0.2 0 0 0.233333 0 0.5 0.233333 0
          0 0.266667 0 0.5 0.266667 0 0 0.3 0 0.5 0.3 0
          0 0.333333 0 0.5 0.333333 0 0 0.366667 0 0.5 0.366667 0
          0 0.4 0 0.5 0.4 0 0 0.433333 0 0.5 0.433333 0
          0 0.466667 0 0.5 0.466667 0 0 0.5 0 0.5 0.5 0
          0 0.533333 0 0.5 0.533333 0 0 0.566667 0 0.5 0.566667 0
          0 0.6 0 0.5 0.6 0 0 0.633333 0 0.5 0.633333 0
          0 0.666667 0 0.5 0.666667 0 0 0.7 0 0.5 0.7 0
          0 0.733333 0 0.5 0.733333 0 0 0.766667 0 0.5 0.766667 0
          0 0.8 0 0.5 0.8 0 0 0.833333 0 0.5 0.833333 0
          0 0.866667 0 0.5 0.866667 0 0 0.9 0 0.5 0.9 0
          0 0.933333 0 0.5 0.933333 0 0 0.966667 0 0.5 0.966667 0
          0 1 0 0.5 1 0
        </DataArray>
      </Points>
      <Cells>
        <DataArray type="Int32" Name="connectivity" NumberOfComponents="1" format="ascii">
          0 1 3 2 2 3 5 4 4 5 7 6
          6 7 9 8 8 9 11 10 10 11 13 12
          12 13 15 14 14 15 17 16 16 17 19 18
          18 19 21 20 20 21 23 22 22 23 25 24
          24 25 27 26 26 27 29 28 28 29 31 30
          30 31 33 32 32 33 35 34 34 35 37 36
          36 37 39 38 38 39 41 40 40 41 43 42
          42 43 45 44 44 45 47 46 46 47 49 48
          48 49 51 50 50 51 53 52 52 53 55 54
          54 55 57 56 56 57 59 58 58 59 61 60
        </DataArray>
        <DataArray type="Int32" Name="offsets" NumberOfComponents="1" format="ascii">
          4 8 12 16 20 24 28 32 36 40 44 48
          52 56 60 64 68 72 76 80 84 88 92 96
          100 104 108 112 116 120
        </DataArray>
        <DataArray type="UInt8" Name="types" NumberOfComponents="1" format="ascii">
          9 9 9 9 9 9 9 9 9 9 9 9
          9 9 9 9 9 9 9 9 9 9 9 9
          9 9 9 9 9 9
        </DataArray>
      </Cells>
    </Piece>
  </UnstructuredGrid>
</VTKFile>
