<?xml version="1.0"?>
<VTKFile type="UnstructuredGrid" version="0.1" byte_order="LittleEndian">
  <UnstructuredGrid>
    <Piece NumberOfCells="30" NumberOfPoints="62">
      <CellData Scalars="Sg">
        <DataArray type="Float32" Name="Sg" NumberOfComponents="1" format="ascii">
          0.100227 0.100228 0.100228 0.100228 0.100229 0.100229 0.10023 0.10023 0.10023 0.100231 0.100231 0.100232
          0.100233 0.100233 0.100234 0.100234 0.100235 0.100236 0.100236 0.100237 0.100238 0.100238 0.100239 0.10024
          0.100241 0.100242 0.100242 0.100243 0.100244 0.100242
        </DataArray>
        <DataArray type="Float32" Name="Sl" NumberOfComponents="1" format="ascii">
          0.899773 0.899772 0.899772 0.899772 0.899771 0.899771 0.89977 0.89977 0.89977 0.899769 0.899769 0.899768
          0.899767 0.899767 0.899766 0.899766 0.899765 0.899764 0.899764 0.899763 0.899762 0.899762 0.899761 0.89976
          0.899759 0.899758 0.899758 0.899757 0.899756 0.899758
        </DataArray>
        <DataArray type="Float32" Name="pg" NumberOfComponents="1" format="ascii">
          53399.6 53073.1 52746.6 52420.1 52093.5 51767 51440.4 51113.8 50787.3 50460.7 50134.1 49807.6
          49481 49154.4 48827.8 48501.2 48174.6 47848 47521.4 47194.7 46868.1 46541.5 46214.9 45888.2
          45561.6 45234.9 44908.3 44581.6 44255 43927.4
        </DataArray>
        <DataArray type="Float32" Name="pl" NumberOfComponents="1" format="ascii">
          110628 110301 109974 109648 109321 108994 108668 108341 108014 107688 107361 107034
          106707 106381 106054 105727 105400 105074 104747 104420 104093 103766 103439 103113
          102786 102459 102132 101805 101478 101151
        </DataArray>
        <DataArray type="Float32" Name="pc" NumberOfComponents="1" format="ascii">
          -57228 -57227.9 -57227.8 -57227.7 -57227.6 -57227.5 -57227.4 -57227.2 -57227.1 -57227 -57226.8 -57226.7
          -57226.5 -57226.3 -57226.2 -57226 -57225.8 -57225.6 -57225.4 -57225.2 -57225 -57224.8 -57224.6 -57224.4
          -57224.1 -57223.9 -57223.7 -57223.4 -57223.1 -57223.8
        </DataArray>
        <DataArray type="Float32" Name="rhoL" NumberOfComponents="1" format="ascii">
          999.855 999.855 999.855 999.855 999.855 999.854 999.854 999.854 999.854 999.854 999.854 999.854
          999.853 999.853 999.853 999.853 999.853 999.853 999.852 999.852 999.852 999.852 999.852 999.852
          999.852 999.851 999.851 999.851 999.851 999.851
        </DataArray>
        <DataArray type="Float32" Name="rhoG" NumberOfComponents="1" format="ascii">
          0.661552 0.657507 0.653462 0.649416 0.645371 0.641325 0.63728 0.633234 0.629188 0.625143 0.621097 0.617051
          0.613005 0.608959 0.604913 0.600867 0.59682 0.592774 0.588728 0.584682 0.580635 0.576589 0.572542 0.568495
          0.564449 0.560402 0.556355 0.552308 0.548262 0.544203
        </DataArray>
        <DataArray type="Float32" Name="mobL" NumberOfComponents="1" format="ascii">
          722.171 722.17 722.17 722.17 722.17 722.17 722.169 722.169 722.169 722.169 722.169 722.169
          722.168 722.168 722.168 722.168 722.168 722.167 722.167 722.167 722.167 722.167 722.166 722.166
          722.166 722.166 722.166 722.166 722.165 722.165
        </DataArray>
        <DataArray type="Float32" Name="mobG" NumberOfComponents="1" format="ascii">
          0 0 0 0 0 0 0 0 0 0 0 0
          0 0 0 0 0 0 0 0 0 0 0 0
          0 0 0 0 0 0
        </DataArray>
        <DataArray type="Float32" Name="porosity" NumberOfComponents="1" format="ascii">
          0.2998 0.2998 0.2998 0.2998 0.2998 0.2998 0.2998 0.2998 0.2998 0.2998 0.2998 0.2998
          0.2998 0.2998 0.2998 0.2998 0.2998 0.2998 0.2998 0.2998 0.2998 0.2998 0.2998 0.2998
          0.29953 0.29953 0.29953 0.29953 0.2998 0.2998
        </DataArray>
        <DataArray type="Float32" Name="temperature" NumberOfComponents="1" format="ascii">
          281.15 281.15 281.15 281.15 281.15 281.15 281.15 281.15 281.15 281.15 281.15 281.15
          281.15 281.15 281.15 281.15 281.15 281.15 281.15 281.15 281.15 281.15 281.15 281.15
          281.15 281.15 281.15 281.15 281.15 281.15
        </DataArray>
        <DataArray type="Float32" Name="phase presence" NumberOfComponents="1" format="ascii">
          3 3 3 3 3 3 3 3 3 3 3 3
          3 3 3 3 3 3 3 3 3 3 3 3
          3 3 3 3 3 3
        </DataArray>
        <DataArray type="Float32" Name="precipitateVolumeFraction_au" NumberOfComponents="1" format="ascii">
          4.57064e-15 4.57064e-15 4.57064e-15 4.57064e-15 4.57064e-15 4.57064e-15 4.57064e-15 4.57064e-15 4.57064e-15 4.57064e-15 4.57064e-15 4.57064e-15
          4.57064e-15 4.57064e-15 4.57064e-15 4.57064e-15 4.57064e-15 4.57064e-15 4.57064e-15 4.57064e-15 4.57064e-15 4.57064e-15 4.57064e-15 4.57064e-15
          0.00027 0.00027 0.00027 0.00027 4.57064e-15 4.5706e-15
        </DataArray>
        <DataArray type="Float32" Name="precipitateVolumeFraction_nanoAu" NumberOfComponents="1" format="ascii">
          4.57064e-10 4.57064e-10 4.57064e-10 4.57064e-10 4.57064e-10 4.57064e-10 4.57064e-10 4.57064e-10 4.57064e-10 4.57064e-10 4.57064e-10 4.57064e-10
          4.57064e-10 4.57064e-10 4.57064e-10 4.57064e-10 4.57064e-10 4.57064e-10 4.57064e-10 4.57064e-10 4.57064e-10 4.57064e-10 4.57064e-10 4.57064e-10
          4.57017e-10 4.57017e-10 4.57017e-10 4.57017e-10 4.57064e-10 4.5706e-10
        </DataArray>
        <DataArray type="Float32" Name="precipitateVolumeFraction_d" NumberOfComponents="1" format="ascii">
          0.000100005 0.000100005 0.000100005 0.000100005 0.000100005 0.000100005 0.000100005 0.000100005 0.000100005 0.000100005 0.000100005 0.000100005
          0.000100005 0.000100005 0.000100005 0.000100005 0.000100005 0.000100005 0.000100005 0.000100005 0.000100005 0.000100005 0.000100005 0.000100005
          0.000100005 0.000100005 0.000100005 0.000100005 0.000100005 0.000100005
        </DataArray>
        <DataArray type="Float32" Name="precipitateVolumeFraction_p" NumberOfComponents="1" format="ascii">
          0.000100005 0.000100005 0.000100005 0.000100005 0.000100005 0.000100005 0.000100005 0.000100005 0.000100005 0.000100005 0.000100005 0.000100005
          0.000100005 0.000100005 0.000100005 0.000100005 0.000100005 0.000100005 0.000100005 0.000100005 0.000100005 0.000100005 0.000100005 0.000100005
          0.000100005 0.000100005 0.000100005 0.000100005 0.000100005 0.000100005
        </DataArray>
        <DataArray type="Float32" Name="K" NumberOfComponents="1" format="ascii">
          9.97431e-11 9.97431e-11 9.97431e-11 9.97431e-11 9.97431e-11 9.97431e-11 9.97431e-11 9.97431e-11 9.97431e-11 9.97431e-11 9.97431e-11 9.97431e-11
          9.97431e-11 9.97431e-11 9.97431e-11 9.97431e-11 9.97431e-11 9.97431e-11 9.97431e-11 9.97431e-11 9.97431e-11 9.97431e-11 9.97431e-11 9.97431e-11
          9.93972e-11 9.93972e-11 9.93972e-11 9.93972e-11 9.97431e-11 9.97431e-11
        </DataArray>
        <DataArray type="Float32" Name="X^w_H2O" NumberOfComponents="1" format="ascii">
          0.999884 0.999884 0.999884 0.999884 0.999884 0.999884 0.999884 0.999884 0.999885 0.999885 0.999885 0.999885
          0.999885 0.999885 0.999885 0.999885 0.999885 0.999885 0.999886 0.999886 0.999886 0.999886 0.999886 0.999886
          0.999886 0.999886 0.999886 0.999887 0.999887 0.999887
        </DataArray>
        <DataArray type="Float32" Name="X^w_Air" NumberOfComponents="1" format="ascii">
          1.62205e-05 1.61193e-05 1.60181e-05 1.59169e-05 1.58156e-05 1.57144e-05 1.56132e-05 1.5512e-05 1.54107e-05 1.53095e-05 1.52083e-05 1.5107e-05
          1.50058e-05 1.49046e-05 1.48033e-05 1.47021e-05 1.46008e-05 1.44996e-05 1.43984e-05 1.42971e-05 1.41959e-05 1.40946e-05 1.39934e-05 1.38921e-05
          1.37909e-05 1.36896e-05 1.35883e-05 1.34871e-05 1.33858e-05 1.32843e-05
        </DataArray>
        <DataArray type="Float32" Name="X^w_AuComplex" NumberOfComponents="1" format="ascii">
          1.16711e-09 1.16697e-09 1.16697e-09 1.16697e-09 1.16697e-09 1.16697e-09 1.16697e-09 1.16697e-09 1.16697e-09 1.16697e-09 1.16697e-09 1.16697e-09
          1.16697e-09 1.16697e-09 1.16697e-09 1.16697e-09 1.16697e-09 1.16697e-09 1.16697e-09 1.16697e-09 1.16697e-09 1.16697e-09 1.16697e-09 1.16697e-09
          1.16613e-09 1.16613e-09 1.16613e-09 1.16613e-09 1.16697e-09 1.16691e-09
        </DataArray>
        <DataArray type="Float32" Name="X^w_nanoAu" NumberOfComponents="1" format="ascii">
          5.68917e-09 5.68903e-09 5.68903e-09 5.68903e-09 5.68903e-09 5.68903e-09 5.68903e-09 5.68903e-09 5.68903e-09 5.68903e-09 5.68903e-09 5.68903e-09
          5.68903e-09 5.68903e-09 5.68903e-09 5.68903e-09 5.68903e-09 5.68903e-09 5.68903e-09 5.68903e-09 5.68903e-09 5.68903e-09 5.68903e-09 5.68903e-09
          5.68891e-09 5.68891e-09 5.68891e-09 5.68891e-09 5.68903e-09 5.68756e-09
        </DataArray>
        <DataArray type="Float32" Name="X^w_cyanide" NumberOfComponents="1" format="ascii">
          2.89104e-10 2.89085e-10 2.89085e-10 2.89085e-10 2.89085e-10 2.89085e-10 2.89085e-10 2.89086e-10 2.89085e-10 2.89085e-10 2.89086e-10 2.89085e-10
          2.89085e-10 2.89086e-10 2.89085e-10 2.89086e-10 2.89085e-10 2.89085e-10 2.89086e-10 2.89086e-10 2.89086e-10 2.89086e-10 2.89086e-10 2.89086e-10
          2.89213e-10 2.89213e-10 2.89213e-10 2.89213e-10 2.89086e-10 2.89009e-10
        </DataArray>
        <DataArray type="Float32" Name="X^w_citrate" NumberOfComponents="1" format="ascii">
          1.99962e-08 1.99961e-08 1.99961e-08 1.99961e-08 1.99961e-08 1.99961e-08 1.99961e-08 1.99961e-08 1.99961e-08 1.99961e-08 1.99961e-08 1.99961e-08
          1.99961e-08 1.99961e-08 1.99961e-08 1.99961e-08 1.99961e-08 1.99961e-08 1.99961e-08 1.99961e-08 1.99961e-08 1.99961e-08 1.99961e-08 1.99961e-08
          1.99971e-08 1.99971e-08 1.99971e-08 1.99971e-08 1.99961e-08 1.99908e-08
        </DataArray>
        <DataArray type="Float32" Name="X^w_substrate" NumberOfComponents="1" format="ascii">
          9.99942e-05 9.99942e-05 9.99942e-05 9.99942e-05 9.99942e-05 9.99942e-05 9.99942e-05 9.99942e-05 9.99942e-05 9.99942e-05 9.99942e-05 9.99942e-05
          9.99942e-05 9.99942e-05 9.99942e-05 9.99943e-05 9.99943e-05 9.99943e-05 9.99943e-05 9.99943e-05 9.99943e-05 9.99943e-05 9.99943e-05 9.99943e-05
          9.99943e-05 9.99943e-05 9.99943e-05 9.99943e-05 9.99943e-05 9.99943e-05
        </DataArray>
        <DataArray type="Float32" Name="m^w_H2O" NumberOfComponents="1" format="ascii">
          55494.3 55494.3 55494.2 55494.2 55494.2 55494.2 55494.2 55494.2 55494.2 55494.2 55494.2 55494.2
          55494.2 55494.2 55494.2 55494.2 55494.2 55494.2 55494.2 55494.2 55494.2 55494.2 55494.2 55494.2
          55494.2 55494.2 55494.2 55494.2 55494.2 55494.2
        </DataArray>
        <DataArray type="Float32" Name="m^w_Air" NumberOfComponents="1" format="ascii">
          0.56002 0.556526 0.553031 0.549536 0.546041 0.542546 0.539051 0.535556 0.532061 0.528566 0.525071 0.521576
          0.51808 0.514585 0.51109 0.507594 0.504099 0.500603 0.497107 0.493612 0.490116 0.48662 0.483124 0.479629
          0.476133 0.472637 0.469141 0.465645 0.462149 0.458643
        </DataArray>
        <DataArray type="Float32" Name="m^w_AuComplex" NumberOfComponents="1" format="ascii">
          5.92446e-06 5.92372e-06 5.92373e-06 5.92372e-06 5.92373e-06 5.92373e-06 5.92373e-06 5.92372e-06 5.92373e-06 5.92372e-06 5.92373e-06 5.92372e-06
          5.92372e-06 5.92372e-06 5.92372e-06 5.92372e-06 5.92371e-06 5.92372e-06 5.92372e-06 5.92372e-06 5.92372e-06 5.92372e-06 5.92372e-06 5.92371e-06
          5.91945e-06 5.91945e-06 5.91945e-06 5.91945e-06 5.92371e-06 5.9234e-06
        </DataArray>
        <DataArray type="Float32" Name="m^w_nanoAu" NumberOfComponents="1" format="ascii">
          2.88793e-05 2.88785e-05 2.88785e-05 2.88785e-05 2.88785e-05 2.88785e-05 2.88785e-05 2.88785e-05 2.88785e-05 2.88785e-05 2.88785e-05 2.88785e-05
          2.88785e-05 2.88785e-05 2.88785e-05 2.88785e-05 2.88785e-05 2.88785e-05 2.88785e-05 2.88785e-05 2.88785e-05 2.88785e-05 2.88785e-05 2.88784e-05
          2.88778e-05 2.88778e-05 2.88778e-05 2.88778e-05 2.88784e-05 2.8871e-05
        </DataArray>
        <DataArray type="Float32" Name="m^w_cyanide" NumberOfComponents="1" format="ascii">
          1.11092e-05 1.11085e-05 1.11085e-05 1.11085e-05 1.11085e-05 1.11085e-05 1.11085e-05 1.11085e-05 1.11085e-05 1.11085e-05 1.11085e-05 1.11085e-05
          1.11085e-05 1.11085e-05 1.11085e-05 1.11085e-05 1.11085e-05 1.11085e-05 1.11085e-05 1.11085e-05 1.11085e-05 1.11085e-05 1.11085e-05 1.11085e-05
          1.11134e-05 1.11134e-05 1.11134e-05 1.11134e-05 1.11085e-05 1.11055e-05
        </DataArray>
        <DataArray type="Float32" Name="m^w_citrate" NumberOfComponents="1" format="ascii">
          0.000105729 0.000105729 0.000105729 0.000105729 0.000105729 0.000105729 0.000105729 0.000105729 0.000105729 0.000105728 0.000105728 0.000105728
          0.000105728 0.000105728 0.000105728 0.000105728 0.000105728 0.000105728 0.000105728 0.000105728 0.000105728 0.000105728 0.000105728 0.000105728
          0.000105734 0.000105734 0.000105734 0.000105734 0.000105728 0.0001057
        </DataArray>
        <DataArray type="Float32" Name="m^w_substrate" NumberOfComponents="1" format="ascii">
          0.55495 0.55495 0.554949 0.554949 0.554949 0.554949 0.554949 0.554949 0.554949 0.554949 0.554949 0.554949
          0.554949 0.554949 0.554949 0.554949 0.554949 0.554949 0.554948 0.554948 0.554948 0.554948 0.554948 0.554948
          0.554948 0.554948 0.554948 0.554948 0.554948 0.554948
        </DataArray>
        <DataArray type="Float32" Name="process rank" NumberOfComponents="1" format="ascii">
          0 0 0 0 0 0 0 0 0 0 0 0
          0 0 0 0 0 0 0 0 0 0 0 0
          0 0 0 0 0 0
        </DataArray>
      </CellData>
      <Points>
        <DataArray type="Float32" Name="Coordinates" NumberOfComponents="3" format="ascii">
          0 0 0 0.5 0 0 0 0.0333333 0 0.5 0.0333333 0
          0 0.0666667 0 0.5 0.0666667 0 0 0.1 0 0.5 0.1 0
          0 0.133333 0 0.5 0.133333 0 0 0.166667 0 0.5 0.166667 0
          0 0.2 0 0.5 0.2 0 0 0.233333 0 0.5 0.233333 0
          0 0.266667 0 0.5 0.266667 0 0 0.3 0 0.5 0.3 0
          0 0.333333 0 0.5 0.333333 0 0 0.366667 0 0.5 0.366667 0
          0 0.4 0 0.5 0.4 0 0 0.433333 0 0.5 0.433333 0
          0 0.466667 0 0.5 0.466667 0 0 0.5 0 0.5 0.5 0
          0 0.533333 0 0.5 0.533333 0 0 0.566667 0 0.5 0.566667 0
          0 0.6 0 0.5 0.6 0 0 0.633333 0 0.5 0.633333 0
          0 0.666667 0 0.5 0.666667 0 0 0.7 0 0.5 0.7 0
          0 0.733333 0 0.5 0.733333 0 0 0.766667 0 0.5 0.766667 0
          0 0.8 0 0.5 0.8 0 0 0.833333 0 0.5 0.833333 0
          0 0.866667 0 0.5 0.866667 0 0 0.9 0 0.5 0.9 0
          0 0.933333 0 0.5 0.933333 0 0 0.966667 0 0.5 0.966667 0
          0 1 0 0.5 1 0
        </DataArray>
      </Points>
      <Cells>
        <DataArray type="Int32" Name="connectivity" NumberOfComponents="1" format="ascii">
          0 1 3 2 2 3 5 4 4 5 7 6
          6 7 9 8 8 9 11 10 10 11 13 12
          12 13 15 14 14 15 17 16 16 17 19 18
          18 19 21 20 20 21 23 22 22 23 25 24
          24 25 27 26 26 27 29 28 28 29 31 30
          30 31 33 32 32 33 35 34 34 35 37 36
          36 37 39 38 38 39 41 40 40 41 43 42
          42 43 45 44 44 45 47 46 46 47 49 48
          48 49 51 50 50 51 53 52 52 53 55 54
          54 55 57 56 56 57 59 58 58 59 61 60
        </DataArray>
        <DataArray type="Int32" Name="offsets" NumberOfComponents="1" format="ascii">
          4 8 12 16 20 24 28 32 36 40 44 48
          52 56 60 64 68 72 76 80 84 88 92 96
          100 104 108 112 116 120
        </DataArray>
        <DataArray type="UInt8" Name="types" NumberOfComponents="1" format="ascii">
          9 9 9 9 9 9 9 9 9 9 9 9
          9 9 9 9 9 9 9 9 9 9 9 9
          9 9 9 9 9 9
        </DataArray>
      </Cells>
    </Piece>
  </UnstructuredGrid>
</VTKFile>
