<?xml version="1.0"?>
<VTKFile type="UnstructuredGrid" version="0.1" byte_order="LittleEndian">
  <UnstructuredGrid>
    <Piece NumberOfCells="30" NumberOfPoints="62">
      <CellData Scalars="Sg">
        <DataArray type="Float32" Name="Sg" NumberOfComponents="1" format="ascii">
          0.0928554 0.0928247 0.0927938 0.0927628 0.0927317 0.0927005 0.0926686 0.0926343 0.0925883 0.0924901 0.092161 0.0908214
          0.085149 0.0622209 0 0 0 0 0 0 0 0 0 0
          0 0 0 0 0 0
        </DataArray>
        <DataArray type="Float32" Name="Sl" NumberOfComponents="1" format="ascii">
          0.907145 0.907175 0.907206 0.907237 0.907268 0.9073 0.907331 0.907366 0.907412 0.90751 0.907839 0.909179
          0.914851 0.937779 1 1 1 1 1 1 1 1 1 1
          1 1 1 1 1 1
        </DataArray>
        <DataArray type="Float32" Name="pg" NumberOfComponents="1" format="ascii">
          51287.7 50952 50616.2 50280.4 49944.5 49608.6 49272.6 48935.8 48595.7 48240.6 47819.4 47108.7
          45156.8 38261.8 20110.7 19783.7 19456.8 19129.8 18802.9 18476 18149 17822.1 17495.1 17168.2
          16841.3 16514.3 16187.4 15860.4 15533.5 15206.6
        </DataArray>
        <DataArray type="Float32" Name="pl" NumberOfComponents="1" format="ascii">
          110628 110301 109974 109647 109320 108993 108666 108339 108012 107685 107358 107031
          106704 106377 106050 105723 105396 105070 104743 104416 104089 103762 103435 103108
          102781 102454 102127 101800 101473 101146
        </DataArray>
        <DataArray type="Float32" Name="pc" NumberOfComponents="1" format="ascii">
          -59339.8 -59348.6 -59357.4 -59366.3 -59375.2 -59384.2 -59393.3 -59403.1 -59416.3 -59444.5 -59538.7 -59922.5
          -61547.4 -68115.5 -85939.7 -85939.7 -85939.7 -85939.7 -85939.7 -85939.7 -85939.7 -85939.7 -85939.7 -85939.7
          -85939.7 -85939.7 -85939.7 -85939.7 -85939.7 -85939.7
        </DataArray>
        <DataArray type="Float32" Name="rhoL" NumberOfComponents="1" format="ascii">
          999.855 999.855 999.855 999.855 999.855 999.854 999.854 999.854 999.854 999.854 999.854 999.854
          999.853 999.853 999.853 999.853 999.853 999.853 999.852 999.852 999.852 999.852 999.852 999.852
          999.852 999.851 999.851 999.851 999.851 999.851
        </DataArray>
        <DataArray type="Float32" Name="rhoG" NumberOfComponents="1" format="ascii">
          0.635388 0.631229 0.627069 0.622909 0.618748 0.614587 0.610423 0.606251 0.602037 0.597638 0.59242 0.583616
          0.559434 0.474014 0.249145 0.245095 0.241044 0.236994 0.232944 0.228893 0.224843 0.220793 0.216742 0.212692
          0.208641 0.204591 0.200541 0.19649 0.19244 0.18839
        </DataArray>
        <DataArray type="Float32" Name="mobL" NumberOfComponents="1" format="ascii">
          722.171 722.17 722.17 722.17 722.17 722.17 722.169 722.169 722.169 722.169 722.169 722.169
          722.168 722.168 722.168 722.168 722.168 722.167 722.167 722.167 722.167 722.167 722.166 722.166
          722.166 722.166 722.166 722.166 722.165 722.165
        </DataArray>
        <DataArray type="Float32" Name="mobG" NumberOfComponents="1" format="ascii">
          0 0 0 0 0 0 0 0 0 0 0 0
          0 0 0 0 0 0 0 0 0 0 0 0
          0 0 0 0 0 0
        </DataArray>
        <DataArray type="Float32" Name="porosity" NumberOfComponents="1" format="ascii">
          0.298503 0.298503 0.298503 0.298503 0.298502 0.298502 0.298501 0.2985 0.298498 0.298496 0.298493 0.298489
          0.298484 0.298477 0.298466 0.298453 0.298434 0.29841 0.298376 0.298331 0.298269 0.298184 0.298062 0.297886
          0.297345 0.2969 0.296082 0.294246 0.288269 0.216126
        </DataArray>
        <DataArray type="Float32" Name="temperature" NumberOfComponents="1" format="ascii">
          281.15 281.15 281.15 281.15 281.15 281.15 281.15 281.15 281.15 281.15 281.15 281.15
          281.15 281.15 281.15 281.15 281.15 281.15 281.15 281.15 281.15 281.15 281.15 281.15
          281.15 281.15 281.15 281.15 281.15 281.15
        </DataArray>
        <DataArray type="Float32" Name="phase presence" NumberOfComponents="1" format="ascii">
          3 3 3 3 3 3 3 3 3 3 3 3
          3 3 1 1 1 1 1 1 1 1 1 1
          1 1 1 1 1 1
        </DataArray>
        <DataArray type="Float32" Name="precipitateVolumeFraction_au" NumberOfComponents="1" format="ascii">
          5.33268e-10 5.33266e-10 5.33268e-10 5.33269e-10 5.33271e-10 5.33273e-10 5.33274e-10 5.33276e-10 5.33277e-10 5.33278e-10 5.3328e-10 5.3328e-10
          5.33282e-10 5.33282e-10 5.33284e-10 5.33279e-10 5.33284e-10 5.33289e-10 5.33284e-10 5.33294e-10 5.33307e-10 5.33312e-10 5.33342e-10 5.9915e-10
          0.000269938 0.000269922 0.000269898 0.000269858 5.32906e-10 5.31975e-10
        </DataArray>
        <DataArray type="Float32" Name="precipitateVolumeFraction_nanoAu" NumberOfComponents="1" format="ascii">
          1.96113e-11 1.96088e-11 1.96067e-11 1.96046e-11 1.96027e-11 1.96007e-11 1.95987e-11 1.95975e-11 1.95957e-11 1.95939e-11 1.95926e-11 1.95907e-11
          1.95899e-11 1.95995e-11 1.95978e-11 1.95697e-11 1.95846e-11 1.95895e-11 1.9583e-11 1.95869e-11 1.95895e-11 1.95878e-11 1.95989e-11 4.65918e-11
          6.24315e-08 7.85545e-08 1.0289e-07 1.4223e-07 1.98497e-11 1.97439e-11
        </DataArray>
        <DataArray type="Float32" Name="precipitateVolumeFraction_d" NumberOfComponents="1" format="ascii">
          0.000748289 0.00074836 0.000748461 0.000748603 0.000748803 0.000749083 0.000749475 0.000750023 0.000750784 0.000751839 0.000753293 0.000755289
          0.000758017 0.000761732 0.000766769 0.000773577 0.00078276 0.000795136 0.000811838 0.000834476 0.000865407 0.000908244 0.00096882 0.00105722
          0.00119245 0.00141484 0.00182405 0.00274177 0.00586559 0.041937
        </DataArray>
        <DataArray type="Float32" Name="precipitateVolumeFraction_p" NumberOfComponents="1" format="ascii">
          0.000748289 0.00074836 0.000748461 0.000748603 0.000748803 0.000749083 0.000749475 0.000750023 0.000750784 0.000751839 0.000753293 0.000755289
          0.000758017 0.000761732 0.000766769 0.000773577 0.00078276 0.000795136 0.000811838 0.000834476 0.000865407 0.000908244 0.00096882 0.00105722
          0.00119245 0.00141484 0.00182405 0.00274177 0.00586559 0.041937
        </DataArray>
        <DataArray type="Float32" Name="K" NumberOfComponents="1" format="ascii">
          9.8091e-11 9.80908e-11 9.80906e-11 9.80902e-11 9.80897e-11 9.8089e-11 9.8088e-11 9.80866e-11 9.80847e-11 9.8082e-11 9.80783e-11 9.80733e-11
          9.80664e-11 9.8057e-11 9.80442e-11 9.8027e-11 9.80038e-11 9.79725e-11 9.79303e-11 9.78731e-11 9.77949e-11 9.76868e-11 9.75341e-11 9.73116e-11
          9.66341e-11 9.60794e-11 9.50656e-11 9.28239e-11 8.5821e-11 2.98168e-11
        </DataArray>
        <DataArray type="Float32" Name="X^w_H2O" NumberOfComponents="1" format="ascii">
          0.99983 0.99983 0.999831 0.999831 0.999831 0.999831 0.999831 0.999831 0.999831 0.999831 0.999831 0.999832
          0.999832 0.999834 0.999842 0.999846 0.999846 0.999846 0.999846 0.999846 0.999846 0.999846 0.999846 0.999846
          0.999846 0.999845 0.999843 0.999839 0.999832 0.999835
        </DataArray>
        <DataArray type="Float32" Name="X^w_Air" NumberOfComponents="1" format="ascii">
          1.55652e-05 1.54611e-05 1.5357e-05 1.52529e-05 1.51488e-05 1.50447e-05 1.49405e-05 1.48361e-05 1.47307e-05 1.46206e-05 1.44901e-05 1.42698e-05
          1.36648e-05 1.15275e-05 4.4571e-06 6.37466e-08 8.94049e-10 1.23277e-11 1.66437e-13 2.19861e-15 2.84054e-17 3.58377e-19 4.38344e-21 5.14638e-23
          5.64792e-25 5.94208e-27 5.53973e-29 4.02847e-31 1.4998e-33 0
        </DataArray>
        <DataArray type="Float32" Name="X^w_AuComplex" NumberOfComponents="1" format="ascii">
          1.92548e-14 1.87847e-14 1.8059e-14 1.97674e-14 1.81388e-14 1.84257e-14 1.9401e-14 1.98824e-14 2.08904e-14 1.98416e-14 1.80929e-14 1.85874e-14
          1.93453e-14 2.00718e-14 1.90205e-14 1.89819e-14 1.89857e-14 1.89807e-14 1.89651e-14 1.89599e-14 1.89533e-14 1.89418e-14 1.89429e-14 4.96876e-14
          7.09953e-11 1.1036e-10 1.87248e-10 3.58628e-10 7.2797e-14 7.00304e-14
        </DataArray>
        <DataArray type="Float32" Name="X^w_nanoAu" NumberOfComponents="1" format="ascii">
          1.04932e-15 5.79272e-16 -1.4649e-16 3.48278e-16 -6.66888e-17 2.20271e-16 -1.81862e-17 4.63303e-16 2.57533e-16 4.22486e-16 -1.12506e-16 3.81929e-16
          -7.38745e-17 2.12855e-14 6.41989e-16 8.9533e-17 8.95998e-17 8.96208e-17 8.95896e-17 8.96051e-17 8.96172e-17 8.9979e-17 1.24582e-16 3.31257e-15
          2.86121e-13 3.60053e-13 4.7144e-13 6.40801e-13 8.98546e-17 8.55487e-17
        </DataArray>
        <DataArray type="Float32" Name="X^w_cyanide" NumberOfComponents="1" format="ascii">
          5.19306e-06 5.18313e-06 5.17404e-06 5.16574e-06 5.15815e-06 5.15122e-06 5.14489e-06 5.13911e-06 5.13384e-06 5.12903e-06 5.12465e-06 5.12066e-06
          5.11701e-06 5.11368e-06 5.1106e-06 5.10757e-06 5.10471e-06 5.10207e-06 5.09958e-06 5.09716e-06 5.09471e-06 5.09205e-06 5.08892e-06 5.08486e-06
          5.07951e-06 6.47828e-06 8.6481e-06 1.23194e-05 1.93122e-05 1.86807e-05
        </DataArray>
        <DataArray type="Float32" Name="X^w_citrate" NumberOfComponents="1" format="ascii">
          0.000148883 0.000148883 0.000148883 0.000148883 0.000148883 0.000148883 0.000148883 0.000148882 0.000148882 0.000148882 0.000148882 0.000148882
          0.000148882 0.000148881 0.000148882 0.000148881 0.00014888 0.000148878 0.000148875 0.000148871 0.000148865 0.000148856 0.000148842 0.000148819
          0.000148782 0.000148716 0.000148587 0.00014829 0.000147391 0.00014256
        </DataArray>
        <DataArray type="Float32" Name="X^w_substrate" NumberOfComponents="1" format="ascii">
          1.34467e-11 1.88936e-11 2.65472e-11 3.73113e-11 5.24529e-11 7.3753e-11 1.03733e-10 1.45933e-10 2.05374e-10 2.89149e-10 4.07341e-10 5.74322e-10
          8.10578e-10 1.14496e-09 1.61363e-09 2.26895e-09 3.19996e-09 4.53007e-09 6.44523e-09 9.23132e-09 1.33399e-08 1.95093e-08 2.90007e-08 4.40926e-08
          6.92148e-08 1.13869e-07 2.01427e-07 4.02099e-07 1.00703e-06 4.25131e-06
        </DataArray>
        <DataArray type="Float32" Name="m^w_H2O" NumberOfComponents="1" format="ascii">
          55491.3 55491.3 55491.3 55491.3 55491.3 55491.3 55491.3 55491.3 55491.3 55491.3 55491.3 55491.3
          55491.3 55491.4 55491.8 55492 55492 55492 55492 55492 55492 55492 55492 55492
          55492 55491.9 55491.7 55491.5 55491.2 55491.3
        </DataArray>
        <DataArray type="Float32" Name="m^w_Air" NumberOfComponents="1" format="ascii">
          0.537393 0.5338 0.530206 0.526612 0.523018 0.519423 0.515827 0.512222 0.508583 0.504782 0.500275 0.492669
          0.47178 0.39799 0.153883 0.00220087 3.08673e-05 4.25616e-07 5.74628e-09 7.59077e-11 9.80703e-13 1.23731e-14 1.51339e-16 1.7768e-18
          1.94996e-20 2.05152e-22 1.9126e-24 1.39084e-26 5.1781e-29 2.41533e-34
        </DataArray>
        <DataArray type="Float32" Name="m^w_AuComplex" NumberOfComponents="1" format="ascii">
          9.77406e-11 9.53546e-11 9.16705e-11 1.00343e-10 9.20755e-11 9.35322e-11 9.84827e-11 1.00927e-10 1.06043e-10 1.0072e-10 9.18429e-11 9.43527e-11
          9.81999e-11 1.01888e-10 9.65512e-11 9.63554e-11 9.63747e-11 9.63492e-11 9.62701e-11 9.62438e-11 9.62102e-11 9.61514e-11 9.61571e-11 2.52222e-10
          3.60383e-07 5.60203e-07 9.505e-07 1.82046e-06 3.69529e-10 3.55485e-10
        </DataArray>
        <DataArray type="Float32" Name="m^w_nanoAu" NumberOfComponents="1" format="ascii">
          5.32652e-12 2.94049e-12 -7.43607e-13 1.76792e-12 -3.38524e-13 1.11814e-12 -9.23163e-14 2.35181e-12 1.30728e-12 2.14461e-12 -5.71101e-13 1.93873e-12
          -3.74999e-13 1.08049e-10 3.25885e-12 4.54485e-13 4.54823e-13 4.5493e-13 4.54772e-13 4.5485e-13 4.54912e-13 4.56748e-13 6.32398e-13 1.68151e-11
          1.4524e-09 1.82769e-09 2.3931e-09 3.25281e-09 4.56116e-13 4.34258e-13
        </DataArray>
        <DataArray type="Float32" Name="m^w_cyanide" NumberOfComponents="1" format="ascii">
          0.19955 0.199169 0.19882 0.198501 0.198209 0.197943 0.197699 0.197477 0.197275 0.19709 0.196922 0.196768
          0.196628 0.1965 0.196382 0.196265 0.196155 0.196054 0.195958 0.195865 0.195771 0.195668 0.195548 0.195392
          0.195187 0.248936 0.332314 0.47339 0.742095 0.717829
        </DataArray>
        <DataArray type="Float32" Name="m^w_citrate" NumberOfComponents="1" format="ascii">
          0.787212 0.787212 0.787212 0.787212 0.787212 0.787211 0.787211 0.787211 0.78721 0.787209 0.787208 0.787207
          0.787206 0.787204 0.787206 0.787204 0.787197 0.787186 0.787171 0.787149 0.787117 0.787068 0.786993 0.786874
          0.786676 0.78633 0.785647 0.784075 0.779321 0.753778
        </DataArray>
        <DataArray type="Float32" Name="m^w_substrate" NumberOfComponents="1" format="ascii">
          7.46266e-08 1.04856e-07 1.47332e-07 2.07071e-07 2.91104e-07 4.09315e-07 5.75696e-07 8.099e-07 1.13979e-06 1.60472e-06 2.26067e-06 3.18738e-06
          4.49855e-06 6.3543e-06 8.95533e-06 1.25922e-05 1.77592e-05 2.5141e-05 3.57698e-05 5.1232e-05 7.40339e-05 0.000108273 0.000160948 0.000244705
          0.000384128 0.00063195 0.00111788 0.00223157 0.00558883 0.0235939
        </DataArray>
        <DataArray type="Float32" Name="process rank" NumberOfComponents="1" format="ascii">
          0 0 0 0 0 0 0 0 0 0 0 0
          0 0 0 0 0 0 0 0 0 0 0 0
          0 0 0 0 0 0
        </DataArray>
      </CellData>
      <Points>
        <DataArray type="Float32" Name="Coordinates" NumberOfComponents="3" format="ascii">
          0 0 0 0.5 0 0 0 0.0333333 0 0.5 0.0333333 0
          0 0.0666667 0 0.5 0.0666667 0 0 0.1 0 0.5 0.1 0
          0 0.133333 0 0.5 0.133333 0 0 0.166667 0 0.5 0.166667 0
          0 0.2 0 0.5 0.2 0 0 0.233333 0 0.5 0.233333 0
          0 0.266667 0 0.5 0.266667 0 0 0.3 0 0.5 0.3 0
          0 0.333333 0 0.5 0.333333 0 0 0.366667 0 0.5 0.366667 0
          0 0.4 0 0.5 0.4 0 0 0.433333 0 0.5 0.433333 0
          0 0.466667 0 0.5 0.466667 0 0 0.5 0 0.5 0.5 0
          0 0.533333 0 0.5 0.533333 0 0 0.566667 0 0.5 0.566667 0
          0 0.6 0 0.5 0.6 0 0 0.633333 0 0.5 0.633333 0
          0 0.666667 0 0.5 0.666667 0 0 0.7 0 0.5 0.7 0
          0 0.733333 0 0.5 0.733333 0 0 0.766667 0 0.5 0.766667 0
          0 0.8 0 0.5 0.8 0 0 0.833333 0 0.5 0.833333 0
          0 0.866667 0 0.5 0.866667 0 0 0.9 0 0.5 0.9 0
          0 0.933333 0 0.5 0.933333 0 0 0.966667 0 0.5 0.966667 0
          0 1 0 0.5 1 0
        </DataArray>
      </Points>
      <Cells>
        <DataArray type="Int32" Name="connectivity" NumberOfComponents="1" format="ascii">
          0 1 3 2 2 3 5 4 4 5 7 6
          6 7 9 8 8 9 11 10 10 11 13 12
          12 13 15 14 14 15 17 16 16 17 19 18
          18 19 21 20 20 21 23 22 22 23 25 24
          24 25 27 26 26 27 29 28 28 29 31 30
          30 31 33 32 32 33 35 34 34 35 37 36
          36 37 39 38 38 39 41 40 40 41 43 42
          42 43 45 44 44 45 47 46 46 47 49 48
          48 49 51 50 50 51 53 52 52 53 55 54
          54 55 57 56 56 57 59 58 58 59 61 60
        </DataArray>
        <DataArray type="Int32" Name="offsets" NumberOfComponents="1" format="ascii">
          4 8 12 16 20 24 28 32 36 40 44 48
          52 56 60 64 68 72 76 80 84 88 92 96
          100 104 108 112 116 120
        </DataArray>
        <DataArray type="UInt8" Name="types" NumberOfComponents="1" format="ascii">
          9 9 9 9 9 9 9 9 9 9 9 9
          9 9 9 9 9 9 9 9 9 9 9 9
          9 9 9 9 9 9
        </DataArray>
      </Cells>
    </Piece>
  </UnstructuredGrid>
</VTKFile>
