<?xml version="1.0"?>
<VTKFile type="UnstructuredGrid" version="0.1" byte_order="LittleEndian">
  <UnstructuredGrid>
    <Piece NumberOfCells="30" NumberOfPoints="62">
      <CellData Scalars="Sg">
        <DataArray type="Float32" Name="Sg" NumberOfComponents="1" format="ascii">
          0 0 0 0 0 0 0 0 0 0 0 0
          0 0 0 0 0 0 0 0 0 0 0 0
          0 0 0 0 0 0
        </DataArray>
        <DataArray type="Float32" Name="Sl" NumberOfComponents="1" format="ascii">
          1 1 1 1 1 1 1 1 1 1 1 1
          1 1 1 1 1 1 1 1 1 1 1 1
          1 1 1 1 1 1
        </DataArray>
        <DataArray type="Float32" Name="pg" NumberOfComponents="1" format="ascii">
          24687.8 24360.9 24034 23707 23380.1 23053.1 22726.2 22399.3 22072.3 21745.4 21418.4 21091.5
          20764.6 20437.6 20110.7 19783.7 19456.8 19129.8 18802.9 18476 18149 17822.1 17495.1 17168.2
          16841.3 16514.3 16187.4 15860.4 15533.5 15209.7
        </DataArray>
        <DataArray type="Float32" Name="pl" NumberOfComponents="1" format="ascii">
          110628 110301 109974 109647 109320 108993 108666 108339 108012 107685 107358 107031
          106704 106377 106050 105723 105396 105070 104743 104416 104089 103762 103435 103108
          102781 102454 102127 101800 101473 101149
        </DataArray>
        <DataArray type="Float32" Name="pc" NumberOfComponents="1" format="ascii">
          -85939.7 -85939.7 -85939.7 -85939.7 -85939.7 -85939.7 -85939.7 -85939.7 -85939.7 -85939.7 -85939.7 -85939.7
          -85939.7 -85939.7 -85939.7 -85939.7 -85939.7 -85939.7 -85939.7 -85939.7 -85939.7 -85939.7 -85939.7 -85939.7
          -85939.7 -85939.7 -85939.7 -85939.7 -85939.7 -85939.7
        </DataArray>
        <DataArray type="Float32" Name="rhoL" NumberOfComponents="1" format="ascii">
          999.855 999.855 999.855 999.855 999.855 999.854 999.854 999.854 999.854 999.854 999.854 999.854
          999.853 999.853 999.853 999.853 999.853 999.853 999.852 999.852 999.852 999.852 999.852 999.852
          999.852 999.851 999.851 999.851 999.851 999.851
        </DataArray>
        <DataArray type="Float32" Name="rhoG" NumberOfComponents="1" format="ascii">
          0.30585 0.3018 0.29775 0.293699 0.289649 0.285598 0.281548 0.277498 0.273447 0.269397 0.265347 0.261296
          0.257246 0.253195 0.249145 0.245095 0.241044 0.236994 0.232944 0.228893 0.224843 0.220793 0.216742 0.212692
          0.208641 0.204591 0.200541 0.19649 0.19244 0.188428
        </DataArray>
        <DataArray type="Float32" Name="mobL" NumberOfComponents="1" format="ascii">
          722.171 722.17 722.17 722.17 722.17 722.17 722.169 722.169 722.169 722.169 722.169 722.169
          722.168 722.168 722.168 722.168 722.168 722.167 722.167 722.167 722.167 722.167 722.166 722.166
          722.166 722.166 722.166 722.166 722.165 722.165
        </DataArray>
        <DataArray type="Float32" Name="mobG" NumberOfComponents="1" format="ascii">
          0 0 0 0 0 0 0 0 0 0 0 0
          0 0 0 0 0 0 0 0 0 0 0 0
          0 0 0 0 0 0
        </DataArray>
        <DataArray type="Float32" Name="porosity" NumberOfComponents="1" format="ascii">
          0.298885 0.298885 0.298885 0.298885 0.298884 0.298884 0.298883 0.298882 0.298881 0.298879 0.298877 0.298874
          0.29887 0.298864 0.298856 0.298845 0.29883 0.298811 0.298784 0.298747 0.298697 0.298626 0.298524 0.298371
          0.297858 0.297437 0.296586 0.294297 0.282638 0.0446549
        </DataArray>
        <DataArray type="Float32" Name="temperature" NumberOfComponents="1" format="ascii">
          281.15 281.15 281.15 281.15 281.15 281.15 281.15 281.15 281.15 281.15 281.15 281.15
          281.15 281.15 281.15 281.15 281.15 281.15 281.15 281.15 281.15 281.15 281.15 281.15
          281.15 281.15 281.15 281.15 281.15 281.15
        </DataArray>
        <DataArray type="Float32" Name="phase presence" NumberOfComponents="1" format="ascii">
          1 1 1 1 1 1 1 1 1 1 1 1
          1 1 1 1 1 1 1 1 1 1 1 1
          1 1 1 1 1 1
        </DataArray>
        <DataArray type="Float32" Name="precipitateVolumeFraction_au" NumberOfComponents="1" format="ascii">
          5.52643e-10 5.52784e-10 5.52753e-10 5.52763e-10 5.52748e-10 5.52787e-10 5.52707e-10 5.52773e-10 5.52786e-10 5.52739e-10 5.52744e-10 5.52796e-10
          5.52781e-10 5.52701e-10 5.52759e-10 5.52725e-10 5.52745e-10 5.52755e-10 5.52744e-10 5.52758e-10 5.52773e-10 5.52777e-10 5.53138e-10 1.32867e-09
          0.000269941 0.000269925 0.0002699 0.000269851 5.52281e-10 5.51209e-10
        </DataArray>
        <DataArray type="Float32" Name="precipitateVolumeFraction_nanoAu" NumberOfComponents="1" format="ascii">
          1.23629e-13 1.23661e-13 1.23654e-13 1.23656e-13 1.23653e-13 1.23662e-13 1.23644e-13 1.23658e-13 1.23661e-13 1.2365e-13 1.23651e-13 1.23662e-13
          1.23658e-13 1.2364e-13 1.23652e-13 1.23643e-13 1.23646e-13 1.23645e-13 1.2364e-13 1.23638e-13 1.23635e-13 1.23645e-13 1.35672e-13 2.58507e-11
          6.03615e-08 7.66828e-08 1.02145e-07 1.45569e-07 4.7426e-13 4.67199e-13
        </DataArray>
        <DataArray type="Float32" Name="precipitateVolumeFraction_d" NumberOfComponents="1" format="ascii">
          0.000557485 0.000557543 0.000557623 0.000557737 0.000557896 0.000558119 0.00055843 0.000558863 0.000559465 0.000560297 0.000561444 0.000563018
          0.00056517 0.000568103 0.000572085 0.000577481 0.000584783 0.000594667 0.000608084 0.000626405 0.000651689 0.000687167 0.00073824 0.000814644
          0.0009358 0.00114642 0.00157212 0.00271639 0.00868123 0.127673
        </DataArray>
        <DataArray type="Float32" Name="precipitateVolumeFraction_p" NumberOfComponents="1" format="ascii">
          0.000557485 0.000557543 0.000557623 0.000557737 0.000557896 0.000558119 0.00055843 0.000558863 0.000559465 0.000560297 0.000561444 0.000563018
          0.00056517 0.000568103 0.000572085 0.000577481 0.000584783 0.000594667 0.000608084 0.000626405 0.000651689 0.000687167 0.00073824 0.000814644
          0.0009358 0.00114642 0.00157212 0.00271639 0.00868123 0.127673
        </DataArray>
        <DataArray type="Float32" Name="K" NumberOfComponents="1" format="ascii">
          9.85749e-11 9.85747e-11 9.85745e-11 9.85743e-11 9.85739e-11 9.85733e-11 9.85725e-11 9.85714e-11 9.85699e-11 9.85678e-11 9.85648e-11 9.85608e-11
          9.85554e-11 9.85479e-11 9.85378e-11 9.85241e-11 9.85055e-11 9.84804e-11 9.84464e-11 9.83999e-11 9.83357e-11 9.82458e-11 9.81164e-11 9.79232e-11
          9.72775e-11 9.67493e-11 9.56887e-11 9.28853e-11 7.96241e-11 1.7706e-13
        </DataArray>
        <DataArray type="Float32" Name="X^w_H2O" NumberOfComponents="1" format="ascii">
          0.999846 0.999846 0.999846 0.999846 0.999846 0.999846 0.999846 0.999846 0.999846 0.999846 0.999846 0.999846
          0.999846 0.999846 0.999846 0.999846 0.999846 0.999846 0.999846 0.999846 0.999846 0.999846 0.999846 0.999846
          0.999846 0.999845 0.999843 0.999839 0.999832 0.999833
        </DataArray>
        <DataArray type="Float32" Name="X^w_Air" NumberOfComponents="1" format="ascii">
          0 0 0 0 0 0 0 0 0 0 0 0
          0 0 0 0 0 0 0 0 0 0 0 0
          0 0 0 0 0 0
        </DataArray>
        <DataArray type="Float32" Name="X^w_AuComplex" NumberOfComponents="1" format="ascii">
          1.41059e-16 1.41095e-16 1.41087e-16 1.4109e-16 1.41086e-16 1.41096e-16 1.41075e-16 1.41092e-16 1.41095e-16 1.41082e-16 1.41083e-16 1.41095e-16
          1.41091e-16 1.41069e-16 1.41081e-16 1.4107e-16 1.41071e-16 1.41069e-16 1.41059e-16 1.41053e-16 1.41044e-16 1.41043e-16 1.54549e-16 2.94652e-14
          6.88327e-11 1.07367e-10 1.84401e-10 3.64019e-10 1.83606e-15 1.78811e-15
        </DataArray>
        <DataArray type="Float32" Name="X^w_nanoAu" NumberOfComponents="1" format="ascii">
          5.65368e-19 5.65511e-19 5.65479e-19 5.65489e-19 5.65474e-19 5.65513e-19 5.65433e-19 5.65498e-19 5.65511e-19 5.65461e-19 5.65466e-19 5.65515e-19
          5.65496e-19 5.65412e-19 5.65464e-19 5.65422e-19 5.65432e-19 5.65428e-19 5.65398e-19 5.65428e-19 5.69277e-19 9.27716e-19 3.41301e-17 3.10491e-15
          2.76801e-13 3.51849e-13 4.68952e-13 6.57905e-13 2.16287e-18 2.08401e-18
        </DataArray>
        <DataArray type="Float32" Name="X^w_cyanide" NumberOfComponents="1" format="ascii">
          5.07051e-06 5.07051e-06 5.07051e-06 5.07051e-06 5.07051e-06 5.07051e-06 5.07051e-06 5.07051e-06 5.0705e-06 5.07049e-06 5.07048e-06 5.07047e-06
          5.07044e-06 5.07041e-06 5.07037e-06 5.07032e-06 5.07024e-06 5.07014e-06 5.07001e-06 5.06982e-06 5.06956e-06 5.06919e-06 5.06867e-06 5.06788e-06
          5.06714e-06 6.43677e-06 8.5725e-06 1.22384e-05 1.9465e-05 1.92389e-05
        </DataArray>
        <DataArray type="Float32" Name="X^w_citrate" NumberOfComponents="1" format="ascii">
          0.000148885 0.000148885 0.000148885 0.000148885 0.000148885 0.000148885 0.000148885 0.000148885 0.000148885 0.000148884 0.000148884 0.000148884
          0.000148884 0.000148884 0.000148883 0.000148883 0.000148882 0.000148882 0.000148881 0.000148879 0.000148877 0.000148874 0.00014887 0.000148864
          0.000148855 0.00014884 0.000148812 0.000148747 0.000148535 0.000146809
        </DataArray>
        <DataArray type="Float32" Name="X^w_substrate" NumberOfComponents="1" format="ascii">
          1.96911e-11 2.58961e-11 3.40544e-11 4.47808e-11 5.8884e-11 7.74277e-11 1.01813e-10 1.33885e-10 1.76077e-10 2.31608e-10 3.04735e-10 4.01113e-10
          5.28285e-10 6.96356e-10 9.18968e-10 1.21469e-09 1.60913e-09 2.13805e-09 2.85242e-09 3.82659e-09 5.1723e-09 7.06389e-09 9.78676e-09 1.38379e-08
          2.0156e-08 3.07231e-08 5.04473e-08 9.48424e-08 2.38977e-07 1.39804e-06
        </DataArray>
        <DataArray type="Float32" Name="m^w_H2O" NumberOfComponents="1" format="ascii">
          55492.2 55492.2 55492.1 55492.1 55492.1 55492.1 55492.1 55492.1 55492.1 55492.1 55492.1 55492.1
          55492.1 55492.1 55492 55492 55492 55492 55492 55492 55492 55492 55492 55492
          55492 55491.9 55491.7 55491.5 55491.1 55491.2
        </DataArray>
        <DataArray type="Float32" Name="m^w_Air" NumberOfComponents="1" format="ascii">
          0 0 0 0 0 0 0 0 0 0 0 0
          0 0 0 0 0 0 0 0 0 0 0 0
          0 0 0 0 0 0
        </DataArray>
        <DataArray type="Float32" Name="m^w_AuComplex" NumberOfComponents="1" format="ascii">
          7.1604e-13 7.16223e-13 7.16183e-13 7.16196e-13 7.16176e-13 7.16227e-13 7.16123e-13 7.16207e-13 7.16223e-13 7.16159e-13 7.16163e-13 7.16225e-13
          7.162e-13 7.16089e-13 7.16152e-13 7.16095e-13 7.16102e-13 7.16088e-13 7.16038e-13 7.16008e-13 7.1596e-13 7.15959e-13 7.84515e-13 1.4957e-10
          3.49406e-07 5.45014e-07 9.36047e-07 1.84782e-06 9.32014e-12 9.07673e-12
        </DataArray>
        <DataArray type="Float32" Name="m^w_nanoAu" NumberOfComponents="1" format="ascii">
          2.86991e-15 2.87064e-15 2.87047e-15 2.87052e-15 2.87045e-15 2.87064e-15 2.87024e-15 2.87057e-15 2.87063e-15 2.87038e-15 2.8704e-15 2.87065e-15
          2.87056e-15 2.87013e-15 2.87039e-15 2.87018e-15 2.87023e-15 2.87021e-15 2.87006e-15 2.87021e-15 2.88974e-15 4.70924e-15 1.7325e-13 1.5761e-11
          1.40509e-09 1.78604e-09 2.38048e-09 3.33963e-09 1.09791e-14 1.05787e-14
        </DataArray>
        <DataArray type="Float32" Name="m^w_cyanide" NumberOfComponents="1" format="ascii">
          0.194841 0.194841 0.194842 0.194842 0.194841 0.194841 0.194841 0.194841 0.194841 0.194841 0.19484 0.194839
          0.194839 0.194837 0.194836 0.194834 0.194831 0.194827 0.194822 0.194814 0.194804 0.19479 0.19477 0.19474
          0.194711 0.247341 0.329409 0.470276 0.747967 0.739277
        </DataArray>
        <DataArray type="Float32" Name="m^w_citrate" NumberOfComponents="1" format="ascii">
          0.787224 0.787224 0.787223 0.787223 0.787223 0.787223 0.787222 0.787222 0.787221 0.787221 0.78722 0.787219
          0.787218 0.787217 0.787215 0.787212 0.787209 0.787205 0.787199 0.787191 0.787181 0.787166 0.787144 0.787112
          0.787062 0.786984 0.786835 0.786494 0.785368 0.776243
        </DataArray>
        <DataArray type="Float32" Name="m^w_substrate" NumberOfComponents="1" format="ascii">
          1.09282e-07 1.43718e-07 1.88996e-07 2.48525e-07 3.26795e-07 4.29709e-07 5.65042e-07 7.43034e-07 9.77197e-07 1.28538e-06 1.69122e-06 2.2261e-06
          2.93188e-06 3.86464e-06 5.10009e-06 6.74132e-06 8.93034e-06 1.18657e-05 1.58304e-05 2.12368e-05 2.87052e-05 3.92032e-05 5.43146e-05 7.67973e-05
          0.000111862 0.000170507 0.000279972 0.000526356 0.00132627 0.00775882
        </DataArray>
        <DataArray type="Float32" Name="process rank" NumberOfComponents="1" format="ascii">
          0 0 0 0 0 0 0 0 0 0 0 0
          0 0 0 0 0 0 0 0 0 0 0 0
          0 0 0 0 0 0
        </DataArray>
      </CellData>
      <Points>
        <DataArray type="Float32" Name="Coordinates" NumberOfComponents="3" format="ascii">
          0 0 0 0.5 0 0 0 0.0333333 0 0.5 0.0333333 0
          0 0.0666667 0 0.5 0.0666667 0 0 0.1 0 0.5 0.1 0
          0 0.133333 0 0.5 0.133333 0 0 0.166667 0 0.5 0.166667 0
          0 0.2 0 0.5 0.2 0 0 0.233333 0 0.5 0.233333 0
          0 0.266667 0 0.5 0.266667 0 0 0.3 0 0.5 0.3 0
          0 0.333333 0 0.5 0.333333 0 0 0.366667 0 0.5 0.366667 0
          0 0.4 0 0.5 0.4 0 0 0.433333 0 0.5 0.433333 0
          0 0.466667 0 0.5 0.466667 0 0 0.5 0 0.5 0.5 0
          0 0.533333 0 0.5 0.533333 0 0 0.566667 0 0.5 0.566667 0
          0 0.6 0 0.5 0.6 0 0 0.633333 0 0.5 0.633333 0
          0 0.666667 0 0.5 0.666667 0 0 0.7 0 0.5 0.7 0
          0 0.733333 0 0.5 0.733333 0 0 0.766667 0 0.5 0.766667 0
          0 0.8 0 0.5 0.8 0 0 0.833333 0 0.5 0.833333 0
          0 0.866667 0 0.5 0.866667 0 0 0.9 0 0.5 0.9 0
          0 0.933333 0 0.5 0.933333 0 0 0.966667 0 0.5 0.966667 0
          0 1 0 0.5 1 0
        </DataArray>
      </Points>
      <Cells>
        <DataArray type="Int32" Name="connectivity" NumberOfComponents="1" format="ascii">
          0 1 3 2 2 3 5 4 4 5 7 6
          6 7 9 8 8 9 11 10 10 11 13 12
          12 13 15 14 14 15 17 16 16 17 19 18
          18 19 21 20 20 21 23 22 22 23 25 24
          24 25 27 26 26 27 29 28 28 29 31 30
          30 31 33 32 32 33 35 34 34 35 37 36
          36 37 39 38 38 39 41 40 40 41 43 42
          42 43 45 44 44 45 47 46 46 47 49 48
          48 49 51 50 50 51 53 52 52 53 55 54
          54 55 57 56 56 57 59 58 58 59 61 60
        </DataArray>
        <DataArray type="Int32" Name="offsets" NumberOfComponents="1" format="ascii">
          4 8 12 16 20 24 28 32 36 40 44 48
          52 56 60 64 68 72 76 80 84 88 92 96
          100 104 108 112 116 120
        </DataArray>
        <DataArray type="UInt8" Name="types" NumberOfComponents="1" format="ascii">
          9 9 9 9 9 9 9 9 9 9 9 9
          9 9 9 9 9 9 9 9 9 9 9 9
          9 9 9 9 9 9
        </DataArray>
      </Cells>
    </Piece>
  </UnstructuredGrid>
</VTKFile>
