<?xml version="1.0"?>
<VTKFile type="UnstructuredGrid" version="0.1" byte_order="LittleEndian">
  <UnstructuredGrid>
    <Piece NumberOfCells="30" NumberOfPoints="62">
      <CellData Scalars="Sg">
        <DataArray type="Float32" Name="Sg" NumberOfComponents="1" format="ascii">
          0.0948756 0.0948536 0.0948314 0.0948092 0.0947868 0.0947644 0.0947419 0.0947196 0.0946973 0.0946752 0.0946531 0.0946297
          0.094599 0.0945339 0.0943171 0.0934477 0.0898175 0.0750075 0.0235476 0 0 0 0 0
          0 0 0 0 0 0
        </DataArray>
        <DataArray type="Float32" Name="Sl" NumberOfComponents="1" format="ascii">
          0.905124 0.905146 0.905169 0.905191 0.905213 0.905236 0.905258 0.90528 0.905303 0.905325 0.905347 0.90537
          0.905401 0.905466 0.905683 0.906552 0.910182 0.924992 0.976452 1 1 1 1 1
          1 1 1 1 1 1
        </DataArray>
        <DataArray type="Float32" Name="pg" NumberOfComponents="1" format="ascii">
          51866.4 51533.2 51199.9 50866.6 50533.2 50199.9 49866.5 49533.2 49199.8 48866.6 48533.3 48199.6
          47863.9 47518.3 47129.3 46553.3 45186.4 40616.9 25548.5 18476 18149 17822.1 17495.1 17168.2
          16841.3 16514.3 16187.4 15860.4 15533.5 15206.6
        </DataArray>
        <DataArray type="Float32" Name="pl" NumberOfComponents="1" format="ascii">
          110628 110301 109974 109647 109320 108993 108666 108339 108012 107685 107358 107031
          106704 106377 106050 105723 105396 105070 104743 104416 104089 103762 103435 103108
          102781 102454 102127 101800 101473 101146
        </DataArray>
        <DataArray type="Float32" Name="pc" NumberOfComponents="1" format="ascii">
          -58761.1 -58767.4 -58773.7 -58780.1 -58786.5 -58792.9 -58799.4 -58805.8 -58812.2 -58818.5 -58824.8 -58831.5
          -58840.3 -58859 -58921.1 -59170.1 -60210.1 -64452.6 -79194.1 -85939.7 -85939.7 -85939.7 -85939.7 -85939.7
          -85939.7 -85939.7 -85939.7 -85939.7 -85939.7 -85939.7
        </DataArray>
        <DataArray type="Float32" Name="rhoL" NumberOfComponents="1" format="ascii">
          999.855 999.855 999.855 999.855 999.855 999.854 999.854 999.854 999.854 999.854 999.854 999.854
          999.853 999.853 999.853 999.853 999.853 999.853 999.852 999.852 999.852 999.852 999.852 999.852
          999.852 999.851 999.851 999.851 999.851 999.851
        </DataArray>
        <DataArray type="Float32" Name="rhoG" NumberOfComponents="1" format="ascii">
          0.642558 0.638429 0.6343 0.630171 0.626041 0.621911 0.617781 0.613652 0.609522 0.605393 0.601264 0.597131
          0.592972 0.58869 0.583871 0.576735 0.559801 0.503191 0.316513 0.228893 0.224843 0.220793 0.216742 0.212692
          0.208641 0.204591 0.200541 0.19649 0.19244 0.18839
        </DataArray>
        <DataArray type="Float32" Name="mobL" NumberOfComponents="1" format="ascii">
          722.171 722.17 722.17 722.17 722.17 722.17 722.169 722.169 722.169 722.169 722.169 722.169
          722.168 722.168 722.168 722.168 722.168 722.167 722.167 722.167 722.167 722.167 722.166 722.166
          722.166 722.166 722.166 722.166 722.165 722.165
        </DataArray>
        <DataArray type="Float32" Name="mobG" NumberOfComponents="1" format="ascii">
          0 0 0 0 0 0 0 0 0 0 0 0
          0 0 0 0 0 0 0 0 0 0 0 0
          0 0 0 0 0 0
        </DataArray>
        <DataArray type="Float32" Name="porosity" NumberOfComponents="1" format="ascii">
          0.298489 0.298489 0.298489 0.298489 0.298488 0.298488 0.298487 0.298486 0.298484 0.298482 0.298479 0.298475
          0.29847 0.298463 0.298452 0.298439 0.29842 0.298396 0.298362 0.298317 0.298255 0.29817 0.29805 0.297876
          0.29734 0.296908 0.296125 0.294422 0.289314 0.242616
        </DataArray>
        <DataArray type="Float32" Name="temperature" NumberOfComponents="1" format="ascii">
          281.15 281.15 281.15 281.15 281.15 281.15 281.15 281.15 281.15 281.15 281.15 281.15
          281.15 281.15 281.15 281.15 281.15 281.15 281.15 281.15 281.15 281.15 281.15 281.15
          281.15 281.15 281.15 281.15 281.15 281.15
        </DataArray>
        <DataArray type="Float32" Name="phase presence" NumberOfComponents="1" format="ascii">
          3 3 3 3 3 3 3 3 3 3 3 3
          3 3 3 3 3 3 3 1 1 1 1 1
          1 1 1 1 1 1
        </DataArray>
        <DataArray type="Float32" Name="precipitateVolumeFraction_au" NumberOfComponents="1" format="ascii">
          5.06691e-10 5.06692e-10 5.06696e-10 5.06699e-10 5.06703e-10 5.06707e-10 5.0671e-10 5.06714e-10 5.06717e-10 5.0672e-10 5.06723e-10 5.06725e-10
          5.06728e-10 5.0673e-10 5.06732e-10 5.06734e-10 5.06736e-10 5.06738e-10 5.06739e-10 5.06743e-10 5.06751e-10 5.06759e-10 5.0678e-10 5.49152e-10
          0.000269936 0.000269921 0.000269899 0.000269865 5.06441e-10 5.05614e-10
        </DataArray>
        <DataArray type="Float32" Name="precipitateVolumeFraction_nanoAu" NumberOfComponents="1" format="ascii">
          4.61879e-11 4.61826e-11 4.61785e-11 4.61742e-11 4.61703e-11 4.61664e-11 4.61625e-11 4.61591e-11 4.61555e-11 4.61522e-11 4.61492e-11 4.61461e-11
          4.6143e-11 4.61401e-11 4.61374e-11 4.61351e-11 4.61324e-11 4.61301e-11 4.61188e-11 4.6138e-11 4.61444e-11 4.61405e-11 4.61495e-11 7.32859e-11
          6.47319e-08 7.9822e-08 1.01766e-07 1.35385e-07 4.63147e-11 4.61386e-11
        </DataArray>
        <DataArray type="Float32" Name="precipitateVolumeFraction_d" NumberOfComponents="1" format="ascii">
          0.000755271 0.000755342 0.000755444 0.000755586 0.000755786 0.000756068 0.000756462 0.000757011 0.000757775 0.000758832 0.000760291 0.000762293
          0.000765028 0.000768751 0.000773797 0.000780615 0.000789804 0.00080218 0.000818868 0.000841458 0.000872276 0.000914863 0.000974915 0.00106219
          0.00119491 0.00141114 0.00180273 0.00265405 0.00534297 0.0286918
        </DataArray>
        <DataArray type="Float32" Name="precipitateVolumeFraction_p" NumberOfComponents="1" format="ascii">
          0.000755271 0.000755342 0.000755444 0.000755586 0.000755786 0.000756068 0.000756462 0.000757011 0.000757775 0.000758832 0.000760291 0.000762293
          0.000765028 0.000768751 0.000773797 0.000780615 0.000789804 0.00080218 0.000818868 0.000841458 0.000872276 0.000914863 0.000974915 0.00106219
          0.00119491 0.00141114 0.00180273 0.00265405 0.00534297 0.0286918
        </DataArray>
        <DataArray type="Float32" Name="K" NumberOfComponents="1" format="ascii">
          9.80733e-11 9.80731e-11 9.80729e-11 9.80725e-11 9.8072e-11 9.80713e-11 9.80703e-11 9.80689e-11 9.8067e-11 9.80643e-11 9.80606e-11 9.80556e-11
          9.80486e-11 9.80392e-11 9.80265e-11 9.80092e-11 9.7986e-11 9.79547e-11 9.79125e-11 9.78554e-11 9.77776e-11 9.76701e-11 9.75188e-11 9.72991e-11
          9.6628e-11 9.60886e-11 9.51183e-11 9.30363e-11 8.70133e-11 4.51816e-11
        </DataArray>
        <DataArray type="Float32" Name="X^w_H2O" NumberOfComponents="1" format="ascii">
          0.999829 0.99983 0.99983 0.99983 0.99983 0.99983 0.99983 0.999831 0.999831 0.999831 0.999831 0.999831
          0.999831 0.999831 0.999832 0.999832 0.999832 0.999834 0.999838 0.999846 0.999846 0.999846 0.999846 0.999846
          0.999846 0.999845 0.999842 0.999839 0.999833 0.999836
        </DataArray>
        <DataArray type="Float32" Name="X^w_Air" NumberOfComponents="1" format="ascii">
          1.57445e-05 1.56412e-05 1.55379e-05 1.54346e-05 1.53313e-05 1.52279e-05 1.51246e-05 1.50213e-05 1.4918e-05 1.48147e-05 1.47114e-05 1.46079e-05
          1.45039e-05 1.43967e-05 1.42762e-05 1.40976e-05 1.36739e-05 1.22575e-05 7.58674e-06 2.77861e-07 3.6206e-09 4.61948e-11 5.73397e-13 6.88117e-15
          7.84691e-17 8.62334e-19 8.68845e-21 7.41799e-23 4.16283e-25 1.58617e-28
        </DataArray>
        <DataArray type="Float32" Name="X^w_AuComplex" NumberOfComponents="1" format="ascii">
          5.1024e-14 5.25882e-14 5.05294e-14 5.02908e-14 4.86107e-14 4.8234e-14 4.87579e-14 4.98464e-14 4.84311e-14 4.88194e-14 4.7814e-14 4.67999e-14
          4.78916e-14 4.65688e-14 4.68108e-14 4.65967e-14 4.67882e-14 4.52751e-14 6.97191e-14 4.57859e-14 4.56621e-14 4.55332e-14 4.54198e-14 7.68472e-14
          7.4287e-11 1.14094e-10 1.89223e-10 3.47639e-10 1.68711e-13 1.60192e-13
        </DataArray>
        <DataArray type="Float32" Name="X^w_nanoAu" NumberOfComponents="1" format="ascii">
          1.26246e-15 1.61296e-15 -4.45858e-16 5.29251e-16 1.27653e-15 8.99883e-16 1.42376e-15 1.29859e-15 -1.16766e-16 1.48519e-15 1.69356e-15 -5.3427e-16
          5.57457e-16 4.48303e-16 -1.73702e-15 4.7623e-16 -1.75973e-15 -2.05908e-15 2.23848e-14 2.11056e-16 2.11074e-16 2.11423e-16 2.47206e-16 3.54616e-15
          2.96447e-13 3.65446e-13 4.65413e-13 6.08415e-13 2.08396e-16 1.9584e-16
        </DataArray>
        <DataArray type="Float32" Name="X^w_cyanide" NumberOfComponents="1" format="ascii">
          5.8797e-06 5.8086e-06 5.74459e-06 5.68685e-06 5.63465e-06 5.58736e-06 5.54444e-06 5.50541e-06 5.46988e-06 5.43748e-06 5.40789e-06 5.38085e-06
          5.3561e-06 5.33342e-06 5.31261e-06 5.29348e-06 5.27583e-06 5.25947e-06 5.24409e-06 5.22907e-06 5.21421e-06 5.19993e-06 5.18573e-06 5.17078e-06
          5.15412e-06 6.60428e-06 8.82634e-06 1.24995e-05 1.91948e-05 1.82974e-05
        </DataArray>
        <DataArray type="Float32" Name="X^w_citrate" NumberOfComponents="1" format="ascii">
          0.000148883 0.000148883 0.000148883 0.000148883 0.000148883 0.000148883 0.000148883 0.000148883 0.000148883 0.000148882 0.000148882 0.000148882
          0.000148881 0.00014888 0.000148879 0.000148877 0.000148875 0.000148872 0.000148867 0.000148861 0.000148851 0.000148836 0.000148812 0.000148775
          0.000148713 0.000148606 0.000148396 0.00014792 0.000146525 0.00013965
        </DataArray>
        <DataArray type="Float32" Name="X^w_substrate" NumberOfComponents="1" format="ascii">
          2.71046e-11 3.75001e-11 5.19352e-11 7.19993e-11 9.99105e-11 1.38761e-10 1.92889e-10 2.68369e-10 3.7372e-10 5.20927e-10 7.26873e-10 1.01542e-09
          1.42042e-09 1.99009e-09 2.79352e-09 3.93052e-09 5.54662e-09 7.85523e-09 1.11633e-08 1.58836e-08 2.27875e-08 3.30972e-08 4.88749e-08 7.38338e-08
          1.1516e-07 1.88168e-07 3.30123e-07 6.50874e-07 1.58882e-06 6.20575e-06
        </DataArray>
        <DataArray type="Float32" Name="m^w_H2O" NumberOfComponents="1" format="ascii">
          55491.2 55491.2 55491.2 55491.2 55491.2 55491.2 55491.2 55491.2 55491.2 55491.2 55491.2 55491.2
          55491.2 55491.2 55491.2 55491.2 55491.3 55491.3 55491.6 55492 55492 55492 55492 55492
          55492 55491.9 55491.7 55491.5 55491.2 55491.3
        </DataArray>
        <DataArray type="Float32" Name="m^w_Air" NumberOfComponents="1" format="ascii">
          0.543586 0.54002 0.536453 0.532886 0.529318 0.525751 0.522183 0.518615 0.515048 0.511481 0.507914 0.504344
          0.500751 0.497052 0.492889 0.486725 0.472097 0.423195 0.261935 0.00959324 0.000125002 1.59489e-06 1.97967e-08 2.37574e-10
          2.70917e-12 2.97723e-14 2.99971e-16 2.56108e-18 1.43723e-20 5.4763e-24
        </DataArray>
        <DataArray type="Float32" Name="m^w_AuComplex" NumberOfComponents="1" format="ascii">
          2.59007e-10 2.66947e-10 2.56496e-10 2.55285e-10 2.46756e-10 2.44844e-10 2.47504e-10 2.53029e-10 2.45845e-10 2.47815e-10 2.42712e-10 2.37564e-10
          2.43106e-10 2.36391e-10 2.3762e-10 2.36533e-10 2.37504e-10 2.29824e-10 3.53906e-10 2.32417e-10 2.31788e-10 2.31134e-10 2.30558e-10 3.90089e-10
          3.77093e-07 5.79158e-07 9.60527e-07 1.76467e-06 8.56401e-10 8.1316e-10
        </DataArray>
        <DataArray type="Float32" Name="m^w_nanoAu" NumberOfComponents="1" format="ascii">
          6.40846e-12 8.18767e-12 -2.26325e-12 2.68657e-12 6.47991e-12 4.56796e-12 7.22727e-12 6.59187e-12 -5.92723e-13 7.5391e-12 8.59678e-12 -2.71205e-12
          2.82975e-12 2.27566e-12 -8.81742e-12 2.41742e-12 -8.93267e-12 -1.04522e-11 1.13629e-10 1.07135e-12 1.07145e-12 1.07322e-12 1.25486e-12 1.80009e-11
          1.50481e-09 1.85506e-09 2.36251e-09 3.08841e-09 1.05785e-12 9.94115e-13
        </DataArray>
        <DataArray type="Float32" Name="m^w_cyanide" NumberOfComponents="1" format="ascii">
          0.225936 0.223204 0.220744 0.218525 0.216519 0.214702 0.213053 0.211553 0.210188 0.208942 0.207806 0.206766
          0.205815 0.204944 0.204144 0.203409 0.202731 0.202102 0.201511 0.200934 0.200363 0.199814 0.199268 0.198694
          0.198053 0.253778 0.339163 0.480307 0.737583 0.703102
        </DataArray>
        <DataArray type="Float32" Name="m^w_citrate" NumberOfComponents="1" format="ascii">
          0.787217 0.787216 0.787216 0.787215 0.787214 0.787214 0.787213 0.787212 0.787211 0.78721 0.787208 0.787205
          0.787202 0.787197 0.787191 0.787182 0.787169 0.787152 0.787129 0.787098 0.787043 0.786962 0.786837 0.786641
          0.786315 0.785746 0.784635 0.782117 0.774741 0.73839
        </DataArray>
        <DataArray type="Float32" Name="m^w_substrate" NumberOfComponents="1" format="ascii">
          1.50426e-07 2.08119e-07 2.88231e-07 3.99583e-07 5.54485e-07 7.70097e-07 1.0705e-06 1.4894e-06 2.07408e-06 2.89104e-06 4.03401e-06 5.63538e-06
          7.88308e-06 1.10446e-05 1.55035e-05 2.18136e-05 3.07826e-05 4.3595e-05 6.19543e-05 8.8151e-05 0.000126466 0.000183683 0.000271246 0.000409763
          0.000639115 0.00104429 0.00183212 0.00361222 0.0088176 0.0344406
        </DataArray>
        <DataArray type="Float32" Name="process rank" NumberOfComponents="1" format="ascii">
          0 0 0 0 0 0 0 0 0 0 0 0
          0 0 0 0 0 0 0 0 0 0 0 0
          0 0 0 0 0 0
        </DataArray>
      </CellData>
      <Points>
        <DataArray type="Float32" Name="Coordinates" NumberOfComponents="3" format="ascii">
          0 0 0 0.5 0 0 0 0.0333333 0 0.5 0.0333333 0
          0 0.0666667 0 0.5 0.0666667 0 0 0.1 0 0.5 0.1 0
          0 0.133333 0 0.5 0.133333 0 0 0.166667 0 0.5 0.166667 0
          0 0.2 0 0.5 0.2 0 0 0.233333 0 0.5 0.233333 0
          0 0.266667 0 0.5 0.266667 0 0 0.3 0 0.5 0.3 0
          0 0.333333 0 0.5 0.333333 0 0 0.366667 0 0.5 0.366667 0
          0 0.4 0 0.5 0.4 0 0 0.433333 0 0.5 0.433333 0
          0 0.466667 0 0.5 0.466667 0 0 0.5 0 0.5 0.5 0
          0 0.533333 0 0.5 0.533333 0 0 0.566667 0 0.5 0.566667 0
          0 0.6 0 0.5 0.6 0 0 0.633333 0 0.5 0.633333 0
          0 0.666667 0 0.5 0.666667 0 0 0.7 0 0.5 0.7 0
          0 0.733333 0 0.5 0.733333 0 0 0.766667 0 0.5 0.766667 0
          0 0.8 0 0.5 0.8 0 0 0.833333 0 0.5 0.833333 0
          0 0.866667 0 0.5 0.866667 0 0 0.9 0 0.5 0.9 0
          0 0.933333 0 0.5 0.933333 0 0 0.966667 0 0.5 0.966667 0
          0 1 0 0.5 1 0
        </DataArray>
      </Points>
      <Cells>
        <DataArray type="Int32" Name="connectivity" NumberOfComponents="1" format="ascii">
          0 1 3 2 2 3 5 4 4 5 7 6
          6 7 9 8 8 9 11 10 10 11 13 12
          12 13 15 14 14 15 17 16 16 17 19 18
          18 19 21 20 20 21 23 22 22 23 25 24
          24 25 27 26 26 27 29 28 28 29 31 30
          30 31 33 32 32 33 35 34 34 35 37 36
          36 37 39 38 38 39 41 40 40 41 43 42
          42 43 45 44 44 45 47 46 46 47 49 48
          48 49 51 50 50 51 53 52 52 53 55 54
          54 55 57 56 56 57 59 58 58 59 61 60
        </DataArray>
        <DataArray type="Int32" Name="offsets" NumberOfComponents="1" format="ascii">
          4 8 12 16 20 24 28 32 36 40 44 48
          52 56 60 64 68 72 76 80 84 88 92 96
          100 104 108 112 116 120
        </DataArray>
        <DataArray type="UInt8" Name="types" NumberOfComponents="1" format="ascii">
          9 9 9 9 9 9 9 9 9 9 9 9
          9 9 9 9 9 9 9 9 9 9 9 9
          9 9 9 9 9 9
        </DataArray>
      </Cells>
    </Piece>
  </UnstructuredGrid>
</VTKFile>
