<?xml version="1.0"?>
<VTKFile type="UnstructuredGrid" version="0.1" byte_order="LittleEndian">
  <UnstructuredGrid>
    <Piece NumberOfCells="30" NumberOfPoints="62">
      <CellData Scalars="Sg">
        <DataArray type="Float32" Name="Sg" NumberOfComponents="1" format="ascii">
          0 0 0 0 0 0 0 0 0 0 0 0
          0 0 0 0 0 0 0 0 0 0 0 0
          0 0 0 0 0 0
        </DataArray>
        <DataArray type="Float32" Name="Sl" NumberOfComponents="1" format="ascii">
          1 1 1 1 1 1 1 1 1 1 1 1
          1 1 1 1 1 1 1 1 1 1 1 1
          1 1 1 1 1 1
        </DataArray>
        <DataArray type="Float32" Name="pg" NumberOfComponents="1" format="ascii">
          24687.8 24360.9 24034 23707 23380.1 23053.1 22726.2 22399.3 22072.3 21745.4 21418.4 21091.5
          20764.6 20437.6 20110.7 19783.7 19456.8 19129.9 18802.9 18476 18149 17822.1 17495.1 17168.2
          16841.3 16514.3 16187.4 15860.4 15533.5 15206.7
        </DataArray>
        <DataArray type="Float32" Name="pl" NumberOfComponents="1" format="ascii">
          110628 110301 109974 109647 109320 108993 108666 108339 108012 107685 107358 107031
          106704 106377 106050 105723 105396 105070 104743 104416 104089 103762 103435 103108
          102781 102454 102127 101800 101473 101146
        </DataArray>
        <DataArray type="Float32" Name="pc" NumberOfComponents="1" format="ascii">
          -85939.7 -85939.7 -85939.7 -85939.7 -85939.7 -85939.7 -85939.7 -85939.7 -85939.7 -85939.7 -85939.7 -85939.7
          -85939.7 -85939.7 -85939.7 -85939.7 -85939.7 -85939.7 -85939.7 -85939.7 -85939.7 -85939.7 -85939.7 -85939.7
          -85939.7 -85939.7 -85939.7 -85939.7 -85939.7 -85939.7
        </DataArray>
        <DataArray type="Float32" Name="rhoL" NumberOfComponents="1" format="ascii">
          999.855 999.855 999.855 999.855 999.855 999.854 999.854 999.854 999.854 999.854 999.854 999.854
          999.853 999.853 999.853 999.853 999.853 999.853 999.852 999.852 999.852 999.852 999.852 999.852
          999.852 999.851 999.851 999.851 999.851 999.851
        </DataArray>
        <DataArray type="Float32" Name="rhoG" NumberOfComponents="1" format="ascii">
          0.30585 0.3018 0.29775 0.293699 0.289649 0.285598 0.281548 0.277498 0.273447 0.269397 0.265347 0.261296
          0.257246 0.253195 0.249145 0.245095 0.241044 0.236994 0.232944 0.228893 0.224843 0.220793 0.216742 0.212692
          0.208641 0.204591 0.200541 0.19649 0.19244 0.188392
        </DataArray>
        <DataArray type="Float32" Name="mobL" NumberOfComponents="1" format="ascii">
          722.171 722.17 722.17 722.17 722.17 722.17 722.169 722.169 722.169 722.169 722.169 722.169
          722.168 722.168 722.168 722.168 722.168 722.167 722.167 722.167 722.167 722.167 722.166 722.166
          722.166 722.166 722.166 722.166 722.165 722.165
        </DataArray>
        <DataArray type="Float32" Name="mobG" NumberOfComponents="1" format="ascii">
          0 0 0 0 0 0 0 0 0 0 0 0
          0 0 0 0 0 0 0 0 0 0 0 0
          0 0 0 0 0 0
        </DataArray>
        <DataArray type="Float32" Name="porosity" NumberOfComponents="1" format="ascii">
          0.298571 0.298571 0.298571 0.298571 0.29857 0.29857 0.298569 0.298568 0.298566 0.298564 0.298562 0.298558
          0.298552 0.298545 0.298535 0.298522 0.298504 0.29848 0.298448 0.298404 0.298343 0.298259 0.298139 0.297962
          0.297419 0.29696 0.296088 0.294002 0.285944 0.115745
        </DataArray>
        <DataArray type="Float32" Name="temperature" NumberOfComponents="1" format="ascii">
          281.15 281.15 281.15 281.15 281.15 281.15 281.15 281.15 281.15 281.15 281.15 281.15
          281.15 281.15 281.15 281.15 281.15 281.15 281.15 281.15 281.15 281.15 281.15 281.15
          281.15 281.15 281.15 281.15 281.15 281.15
        </DataArray>
        <DataArray type="Float32" Name="phase presence" NumberOfComponents="1" format="ascii">
          1 1 1 1 1 1 1 1 1 1 1 1
          1 1 1 1 1 1 1 1 1 1 1 1
          1 1 1 1 1 1
        </DataArray>
        <DataArray type="Float32" Name="precipitateVolumeFraction_au" NumberOfComponents="1" format="ascii">
          5.524e-10 5.52515e-10 5.52488e-10 5.52497e-10 5.52484e-10 5.52521e-10 5.52446e-10 5.52508e-10 5.52521e-10 5.52475e-10 5.52481e-10 5.52531e-10
          5.52517e-10 5.52438e-10 5.52495e-10 5.52462e-10 5.52482e-10 5.52491e-10 5.5248e-10 5.52494e-10 5.52509e-10 5.52513e-10 5.52595e-10 7.31394e-10
          0.00026994 0.000269924 0.000269899 0.000269854 5.52021e-10 5.50969e-10
        </DataArray>
        <DataArray type="Float32" Name="precipitateVolumeFraction_nanoAu" NumberOfComponents="1" format="ascii">
          3.66153e-13 3.923e-13 3.87841e-13 3.88978e-13 3.87386e-13 3.90309e-13 3.84994e-13 3.88724e-13 3.89055e-13 3.87108e-13 3.87336e-13 3.88581e-13
          3.88087e-13 3.86658e-13 3.87566e-13 3.87176e-13 3.87379e-13 3.87444e-13 3.87348e-13 3.87398e-13 3.87427e-13 3.87408e-13 3.99486e-13 2.62003e-11
          6.05047e-08 7.68417e-08 1.02294e-07 1.45586e-07 7.34812e-13 7.22367e-13
        </DataArray>
        <DataArray type="Float32" Name="precipitateVolumeFraction_d" NumberOfComponents="1" format="ascii">
          0.000714395 0.000714464 0.000714561 0.000714698 0.000714891 0.000715161 0.00071554 0.000716069 0.000716804 0.000717822 0.000719226 0.000721155
          0.000723793 0.000727386 0.000732263 0.000738861 0.000747772 0.000759801 0.000776069 0.000798175 0.000828482 0.000870642 0.000930625 0.00101891
          0.00115563 0.00138487 0.00182085 0.00286407 0.00702786 0.0921273
        </DataArray>
        <DataArray type="Float32" Name="precipitateVolumeFraction_p" NumberOfComponents="1" format="ascii">
          0.000714395 0.000714464 0.000714561 0.000714698 0.000714891 0.000715161 0.00071554 0.000716069 0.000716804 0.000717822 0.000719226 0.000721155
          0.000723793 0.000727386 0.000732263 0.000738861 0.000747772 0.000759801 0.000776069 0.000798175 0.000828482 0.000870642 0.000930625 0.00101891
          0.00115563 0.00138487 0.00182085 0.00286407 0.00702786 0.0921273
        </DataArray>
        <DataArray type="Float32" Name="K" NumberOfComponents="1" format="ascii">
          9.81768e-11 9.81766e-11 9.81764e-11 9.8176e-11 9.81756e-11 9.81749e-11 9.81739e-11 9.81726e-11 9.81707e-11 9.81681e-11 9.81646e-11 9.81597e-11
          9.8153e-11 9.81439e-11 9.81316e-11 9.81149e-11 9.80923e-11 9.80619e-11 9.80207e-11 9.79648e-11 9.78882e-11 9.77817e-11 9.76304e-11 9.7408e-11
          9.67262e-11 9.61541e-11 9.50735e-11 9.25285e-11 8.32171e-11 3.59905e-12
        </DataArray>
        <DataArray type="Float32" Name="X^w_H2O" NumberOfComponents="1" format="ascii">
          0.999846 0.999846 0.999846 0.999846 0.999846 0.999846 0.999846 0.999846 0.999846 0.999846 0.999846 0.999846
          0.999846 0.999846 0.999846 0.999846 0.999846 0.999846 0.999846 0.999846 0.999846 0.999846 0.999846 0.999846
          0.999846 0.999845 0.999843 0.999839 0.999832 0.999833
        </DataArray>
        <DataArray type="Float32" Name="X^w_Air" NumberOfComponents="1" format="ascii">
          2.50541e-21 4.48023e-23 7.87896e-25 1.36089e-26 2.31215e-28 3.86512e-30 6.34916e-32 1.02505e-33 1.62698e-35 2.53699e-37 0 0
          0 0 0 0 0 0 0 0 0 0 0 0
          0 0 0 0 0 0
        </DataArray>
        <DataArray type="Float32" Name="X^w_AuComplex" NumberOfComponents="1" format="ascii">
          3.75199e-16 4.00405e-16 3.96101e-16 3.97192e-16 3.95651e-16 3.98465e-16 3.93333e-16 3.96924e-16 3.97239e-16 3.95353e-16 3.95567e-16 3.96763e-16
          3.96278e-16 3.9489e-16 3.95759e-16 3.95372e-16 3.95556e-16 3.95606e-16 3.95496e-16 3.95522e-16 3.9552e-16 3.95461e-16 4.08996e-16 2.98527e-14
          6.90917e-11 1.07722e-10 1.84838e-10 3.64146e-10 2.79369e-15 2.70431e-15
        </DataArray>
        <DataArray type="Float32" Name="X^w_nanoAu" NumberOfComponents="1" format="ascii">
          1.67624e-18 1.79436e-18 1.77423e-18 1.7793e-18 1.77224e-18 1.78521e-18 1.76134e-18 1.77823e-18 1.77964e-18 1.77083e-18 1.77193e-18 1.77754e-18
          1.77523e-18 1.7688e-18 1.77289e-18 1.77113e-18 1.77205e-18 1.77233e-18 1.77188e-18 1.77213e-18 1.77615e-18 2.13768e-18 3.55656e-17 3.12021e-15
          2.77442e-13 3.52535e-13 4.69508e-13 6.57586e-13 3.34619e-18 3.20479e-18
        </DataArray>
        <DataArray type="Float32" Name="X^w_cyanide" NumberOfComponents="1" format="ascii">
          5.08244e-06 5.08237e-06 5.08231e-06 5.08224e-06 5.08217e-06 5.0821e-06 5.08203e-06 5.08195e-06 5.08187e-06 5.08179e-06 5.08171e-06 5.08162e-06
          5.08153e-06 5.08143e-06 5.08132e-06 5.08119e-06 5.08104e-06 5.08087e-06 5.08064e-06 5.08036e-06 5.07997e-06 5.07944e-06 5.07866e-06 5.07748e-06
          5.07606e-06 6.44641e-06 8.58161e-06 1.22414e-05 1.94346e-05 1.91337e-05
        </DataArray>
        <DataArray type="Float32" Name="X^w_citrate" NumberOfComponents="1" format="ascii">
          0.000148885 0.000148885 0.000148885 0.000148885 0.000148885 0.000148885 0.000148885 0.000148885 0.000148885 0.000148885 0.000148885 0.000148884
          0.000148884 0.000148884 0.000148884 0.000148884 0.000148883 0.000148882 0.000148881 0.00014888 0.000148877 0.000148874 0.000148868 0.00014886
          0.000148846 0.000148822 0.000148774 0.000148662 0.000148303 0.000146006
        </DataArray>
        <DataArray type="Float32" Name="X^w_substrate" NumberOfComponents="1" format="ascii">
          5.66788e-12 7.91745e-12 1.10596e-11 1.54484e-11 2.1579e-11 3.0143e-11 4.21082e-11 5.88284e-11 8.22006e-11 1.14886e-10 1.60624e-10 2.24684e-10
          3.14517e-10 4.40704e-10 6.18368e-10 8.69289e-10 1.22516e-09 1.73271e-09 2.46203e-09 3.52047e-09 5.07711e-09 7.40752e-09 1.09813e-08 1.66461e-08
          2.6052e-08 4.27585e-08 7.56442e-08 1.52211e-07 3.94744e-07 1.93714e-06
        </DataArray>
        <DataArray type="Float32" Name="m^w_H2O" NumberOfComponents="1" format="ascii">
          55492.2 55492.2 55492.1 55492.1 55492.1 55492.1 55492.1 55492.1 55492.1 55492.1 55492.1 55492.1
          55492.1 55492.1 55492 55492 55492 55492 55492 55492 55492 55492 55492 55492
          55492 55491.9 55491.7 55491.5 55491.1 55491.2
        </DataArray>
        <DataArray type="Float32" Name="m^w_Air" NumberOfComponents="1" format="ascii">
          8.65003e-17 1.54682e-18 2.72024e-20 4.69852e-22 7.98277e-24 1.33445e-25 2.19207e-27 3.53904e-29 5.6172e-31 8.75903e-33 1.34051e-34 2.01461e-36
          2.97387e-38 0 0 0 0 0 0 0 0 0 0 0
          0 0 0 0 0 0
        </DataArray>
        <DataArray type="Float32" Name="m^w_AuComplex" NumberOfComponents="1" format="ascii">
          1.90458e-12 2.03253e-12 2.01068e-12 2.01622e-12 2.00839e-12 2.02268e-12 1.99663e-12 2.01486e-12 2.01645e-12 2.00688e-12 2.00797e-12 2.01403e-12
          2.01158e-12 2.00453e-12 2.00894e-12 2.00697e-12 2.00791e-12 2.00816e-12 2.0076e-12 2.00773e-12 2.00773e-12 2.00743e-12 2.07613e-12 1.51537e-10
          3.5072e-07 5.46816e-07 9.38268e-07 1.84846e-06 1.41812e-11 1.37275e-11
        </DataArray>
        <DataArray type="Float32" Name="m^w_nanoAu" NumberOfComponents="1" format="ascii">
          8.50891e-15 9.10848e-15 9.00633e-15 9.03206e-15 8.9962e-15 9.06204e-15 8.94086e-15 9.02661e-15 9.03375e-15 8.98907e-15 8.99461e-15 9.02308e-15
          9.01136e-15 8.97874e-15 8.9995e-15 8.99057e-15 8.9952e-15 8.99663e-15 8.99438e-15 8.99564e-15 9.01602e-15 1.08512e-14 1.80537e-13 1.58387e-11
          1.40834e-09 1.78952e-09 2.3833e-09 3.33801e-09 1.69858e-14 1.6268e-14
        </DataArray>
        <DataArray type="Float32" Name="m^w_cyanide" NumberOfComponents="1" format="ascii">
          0.1953 0.195297 0.195295 0.195292 0.195289 0.195287 0.195284 0.195281 0.195278 0.195275 0.195272 0.195268
          0.195265 0.195261 0.195256 0.195251 0.195246 0.195239 0.19523 0.195219 0.195205 0.195184 0.195154 0.195109
          0.195054 0.247711 0.329759 0.470391 0.746798 0.735234
        </DataArray>
        <DataArray type="Float32" Name="m^w_citrate" NumberOfComponents="1" format="ascii">
          0.787224 0.787224 0.787224 0.787223 0.787223 0.787223 0.787223 0.787223 0.787222 0.787222 0.787221 0.787221
          0.78722 0.787219 0.787217 0.787215 0.787212 0.787208 0.787202 0.787194 0.787181 0.787163 0.787135 0.78709
          0.787016 0.78689 0.786637 0.786042 0.784142 0.771998
        </DataArray>
        <DataArray type="Float32" Name="m^w_substrate" NumberOfComponents="1" format="ascii">
          3.14557e-08 4.39404e-08 6.13786e-08 8.5736e-08 1.19759e-07 1.67288e-07 2.33692e-07 3.26486e-07 4.56198e-07 6.37594e-07 8.91431e-07 1.24695e-06
          1.74551e-06 2.44582e-06 3.43183e-06 4.82439e-06 6.7994e-06 9.61622e-06 1.36638e-05 1.95379e-05 2.8177e-05 4.11103e-05 6.09441e-05 9.23826e-05
          0.000144583 0.000237301 0.00041981 0.000844738 0.00219075 0.0107507
        </DataArray>
        <DataArray type="Float32" Name="process rank" NumberOfComponents="1" format="ascii">
          0 0 0 0 0 0 0 0 0 0 0 0
          0 0 0 0 0 0 0 0 0 0 0 0
          0 0 0 0 0 0
        </DataArray>
      </CellData>
      <Points>
        <DataArray type="Float32" Name="Coordinates" NumberOfComponents="3" format="ascii">
          0 0 0 0.5 0 0 0 0.0333333 0 0.5 0.0333333 0
          0 0.0666667 0 0.5 0.0666667 0 0 0.1 0 0.5 0.1 0
          0 0.133333 0 0.5 0.133333 0 0 0.166667 0 0.5 0.166667 0
          0 0.2 0 0.5 0.2 0 0 0.233333 0 0.5 0.233333 0
          0 0.266667 0 0.5 0.266667 0 0 0.3 0 0.5 0.3 0
          0 0.333333 0 0.5 0.333333 0 0 0.366667 0 0.5 0.366667 0
          0 0.4 0 0.5 0.4 0 0 0.433333 0 0.5 0.433333 0
          0 0.466667 0 0.5 0.466667 0 0 0.5 0 0.5 0.5 0
          0 0.533333 0 0.5 0.533333 0 0 0.566667 0 0.5 0.566667 0
          0 0.6 0 0.5 0.6 0 0 0.633333 0 0.5 0.633333 0
          0 0.666667 0 0.5 0.666667 0 0 0.7 0 0.5 0.7 0
          0 0.733333 0 0.5 0.733333 0 0 0.766667 0 0.5 0.766667 0
          0 0.8 0 0.5 0.8 0 0 0.833333 0 0.5 0.833333 0
          0 0.866667 0 0.5 0.866667 0 0 0.9 0 0.5 0.9 0
          0 0.933333 0 0.5 0.933333 0 0 0.966667 0 0.5 0.966667 0
          0 1 0 0.5 1 0
        </DataArray>
      </Points>
      <Cells>
        <DataArray type="Int32" Name="connectivity" NumberOfComponents="1" format="ascii">
          0 1 3 2 2 3 5 4 4 5 7 6
          6 7 9 8 8 9 11 10 10 11 13 12
          12 13 15 14 14 15 17 16 16 17 19 18
          18 19 21 20 20 21 23 22 22 23 25 24
          24 25 27 26 26 27 29 28 28 29 31 30
          30 31 33 32 32 33 35 34 34 35 37 36
          36 37 39 38 38 39 41 40 40 41 43 42
          42 43 45 44 44 45 47 46 46 47 49 48
          48 49 51 50 50 51 53 52 52 53 55 54
          54 55 57 56 56 57 59 58 58 59 61 60
        </DataArray>
        <DataArray type="Int32" Name="offsets" NumberOfComponents="1" format="ascii">
          4 8 12 16 20 24 28 32 36 40 44 48
          52 56 60 64 68 72 76 80 84 88 92 96
          100 104 108 112 116 120
        </DataArray>
        <DataArray type="UInt8" Name="types" NumberOfComponents="1" format="ascii">
          9 9 9 9 9 9 9 9 9 9 9 9
          9 9 9 9 9 9 9 9 9 9 9 9
          9 9 9 9 9 9
        </DataArray>
      </Cells>
    </Piece>
  </UnstructuredGrid>
</VTKFile>
