<?xml version="1.0"?>
<VTKFile type="UnstructuredGrid" version="0.1" byte_order="LittleEndian">
  <UnstructuredGrid>
    <Piece NumberOfCells="30" NumberOfPoints="62">
      <CellData Scalars="Sg">
        <DataArray type="Float32" Name="Sg" NumberOfComponents="1" format="ascii">
          0 0 0 0 0 0 0 0 0 0 0 0
          0 0 0 0 0 0 0 0 0 0 0 0
          0 0 0 0 0 0
        </DataArray>
        <DataArray type="Float32" Name="Sl" NumberOfComponents="1" format="ascii">
          1 1 1 1 1 1 1 1 1 1 1 1
          1 1 1 1 1 1 1 1 1 1 1 1
          1 1 1 1 1 1
        </DataArray>
        <DataArray type="Float32" Name="pg" NumberOfComponents="1" format="ascii">
          24687.8 24360.9 24034 23707 23380.1 23053.1 22726.2 22399.3 22072.3 21745.4 21418.4 21091.5
          20764.6 20437.6 20110.7 19783.7 19456.8 19129.9 18802.9 18476 18149 17822.1 17495.1 17168.2
          16841.3 16514.3 16187.4 15860.4 15533.5 15207.2
        </DataArray>
        <DataArray type="Float32" Name="pl" NumberOfComponents="1" format="ascii">
          110628 110301 109974 109647 109320 108993 108666 108339 108012 107685 107358 107031
          106704 106377 106050 105723 105396 105070 104743 104416 104089 103762 103435 103108
          102781 102454 102127 101800 101473 101147
        </DataArray>
        <DataArray type="Float32" Name="pc" NumberOfComponents="1" format="ascii">
          -85939.7 -85939.7 -85939.7 -85939.7 -85939.7 -85939.7 -85939.7 -85939.7 -85939.7 -85939.7 -85939.7 -85939.7
          -85939.7 -85939.7 -85939.7 -85939.7 -85939.7 -85939.7 -85939.7 -85939.7 -85939.7 -85939.7 -85939.7 -85939.7
          -85939.7 -85939.7 -85939.7 -85939.7 -85939.7 -85939.7
        </DataArray>
        <DataArray type="Float32" Name="rhoL" NumberOfComponents="1" format="ascii">
          999.855 999.855 999.855 999.855 999.855 999.854 999.854 999.854 999.854 999.854 999.854 999.854
          999.853 999.853 999.853 999.853 999.853 999.853 999.852 999.852 999.852 999.852 999.852 999.852
          999.852 999.851 999.851 999.851 999.851 999.851
        </DataArray>
        <DataArray type="Float32" Name="rhoG" NumberOfComponents="1" format="ascii">
          0.30585 0.3018 0.29775 0.293699 0.289649 0.285598 0.281548 0.277498 0.273447 0.269397 0.265347 0.261296
          0.257246 0.253195 0.249145 0.245095 0.241044 0.236994 0.232944 0.228893 0.224843 0.220793 0.216742 0.212692
          0.208641 0.204591 0.200541 0.19649 0.19244 0.188397
        </DataArray>
        <DataArray type="Float32" Name="mobL" NumberOfComponents="1" format="ascii">
          722.171 722.17 722.17 722.17 722.17 722.17 722.169 722.169 722.169 722.169 722.169 722.169
          722.168 722.168 722.168 722.168 722.168 722.167 722.167 722.167 722.167 722.167 722.166 722.166
          722.166 722.166 722.166 722.166 722.165 722.165
        </DataArray>
        <DataArray type="Float32" Name="mobG" NumberOfComponents="1" format="ascii">
          0 0 0 0 0 0 0 0 0 0 0 0
          0 0 0 0 0 0 0 0 0 0 0 0
          0 0 0 0 0 0
        </DataArray>
        <DataArray type="Float32" Name="porosity" NumberOfComponents="1" format="ascii">
          0.298623 0.298623 0.298623 0.298622 0.298622 0.298622 0.298621 0.29862 0.298618 0.298616 0.298614 0.29861
          0.298605 0.298598 0.298588 0.298576 0.298558 0.298535 0.298503 0.29846 0.298401 0.298319 0.298202 0.298028
          0.297488 0.297032 0.296153 0.293995 0.285093 0.0757351
        </DataArray>
        <DataArray type="Float32" Name="temperature" NumberOfComponents="1" format="ascii">
          281.15 281.15 281.15 281.15 281.15 281.15 281.15 281.15 281.15 281.15 281.15 281.15
          281.15 281.15 281.15 281.15 281.15 281.15 281.15 281.15 281.15 281.15 281.15 281.15
          281.15 281.15 281.15 281.15 281.15 281.15
        </DataArray>
        <DataArray type="Float32" Name="phase presence" NumberOfComponents="1" format="ascii">
          1 1 1 1 1 1 1 1 1 1 1 1
          1 1 1 1 1 1 1 1 1 1 1 1
          1 1 1 1 1 1
        </DataArray>
        <DataArray type="Float32" Name="precipitateVolumeFraction_au" NumberOfComponents="1" format="ascii">
          5.5264e-10 5.52733e-10 5.52759e-10 5.52746e-10 5.52719e-10 5.52723e-10 5.52717e-10 5.52675e-10 5.52745e-10 5.52764e-10 5.52737e-10 5.52722e-10
          5.5272e-10 5.52762e-10 5.52709e-10 5.52695e-10 5.52726e-10 5.52666e-10 5.52727e-10 5.52708e-10 5.52737e-10 5.52707e-10 5.52826e-10 8.16836e-10
          0.000269939 0.000269922 0.000269896 0.000269848 5.52189e-10 5.51184e-10
        </DataArray>
        <DataArray type="Float32" Name="precipitateVolumeFraction_nanoAu" NumberOfComponents="1" format="ascii">
          1.40289e-13 1.41069e-13 1.41232e-13 1.41148e-13 1.41026e-13 1.41044e-13 1.41029e-13 1.40935e-13 1.41098e-13 1.41121e-13 1.41074e-13 1.4105e-13
          1.41046e-13 1.41086e-13 1.41034e-13 1.41024e-13 1.41044e-13 1.41004e-13 1.41035e-13 1.4102e-13 1.41024e-13 1.41017e-13 1.53672e-13 2.68496e-11
          6.16944e-08 7.86587e-08 1.05315e-07 1.51226e-07 5.13207e-13 5.04651e-13
        </DataArray>
        <DataArray type="Float32" Name="precipitateVolumeFraction_d" NumberOfComponents="1" format="ascii">
          0.000688461 0.000688528 0.000688622 0.000688755 0.000688941 0.000689203 0.00068957 0.000690082 0.000690794 0.00069178 0.00069314 0.000695008
          0.000697564 0.000701046 0.000705774 0.000712173 0.00072082 0.000732501 0.000748311 0.000769818 0.000799347 0.000840501 0.000899199 0.000985889
          0.00112083 0.00134885 0.00178833 0.00286749 0.00745342 0.112132
        </DataArray>
        <DataArray type="Float32" Name="precipitateVolumeFraction_p" NumberOfComponents="1" format="ascii">
          0.000688461 0.000688528 0.000688622 0.000688755 0.000688941 0.000689203 0.00068957 0.000690082 0.000690794 0.00069178 0.00069314 0.000695008
          0.000697564 0.000701046 0.000705774 0.000712173 0.00072082 0.000732501 0.000748311 0.000769818 0.000799347 0.000840501 0.000899199 0.000985889
          0.00112083 0.00134885 0.00178833 0.00286749 0.00745342 0.112132
        </DataArray>
        <DataArray type="Float32" Name="K" NumberOfComponents="1" format="ascii">
          9.82425e-11 9.82423e-11 9.82421e-11 9.82418e-11 9.82413e-11 9.82406e-11 9.82397e-11 9.82384e-11 9.82366e-11 9.82341e-11 9.82307e-11 9.82259e-11
          9.82194e-11 9.82106e-11 9.81987e-11 9.81824e-11 9.81605e-11 9.8131e-11 9.80909e-11 9.80365e-11 9.79618e-11 9.78578e-11 9.77097e-11 9.74911e-11
          9.68133e-11 9.62438e-11 9.51538e-11 9.25202e-11 8.22799e-11 9.2285e-13
        </DataArray>
        <DataArray type="Float32" Name="X^w_H2O" NumberOfComponents="1" format="ascii">
          0.999853 0.999853 0.999853 0.999853 0.999853 0.999853 0.999853 0.999853 0.999853 0.999853 0.999853 0.999853
          0.999853 0.999853 0.999853 0.999853 0.999853 0.999853 0.999853 0.999853 0.999853 0.999853 0.999853 0.999853
          0.999853 0.999852 0.99985 0.999846 0.999839 0.99984
        </DataArray>
        <DataArray type="Float32" Name="X^w_Air" NumberOfComponents="1" format="ascii">
          0 0 0 0 0 0 0 0 0 0 0 0
          0 0 0 0 0 0 0 0 0 0 0 0
          0 0 0 0 0 0
        </DataArray>
        <DataArray type="Float32" Name="X^w_AuComplex" NumberOfComponents="1" format="ascii">
          1.5253e-16 1.5326e-16 1.53411e-16 1.53331e-16 1.53214e-16 1.53229e-16 1.53214e-16 1.53123e-16 1.53276e-16 1.53296e-16 1.53249e-16 1.53225e-16
          1.53219e-16 1.53256e-16 1.53203e-16 1.5319e-16 1.53206e-16 1.53163e-16 1.53189e-16 1.53167e-16 1.53163e-16 1.53144e-16 1.66895e-16 2.96035e-14
          6.80614e-11 1.06954e-10 1.85631e-10 3.72223e-10 1.97848e-15 1.92104e-15
        </DataArray>
        <DataArray type="Float32" Name="X^w_nanoAu" NumberOfComponents="1" format="ascii">
          6.1107e-19 6.14438e-19 6.15135e-19 6.14771e-19 6.14244e-19 6.14321e-19 6.14254e-19 6.13857e-19 6.14557e-19 6.14654e-19 6.1445e-19 6.14348e-19
          6.14333e-19 6.145e-19 6.14277e-19 6.14232e-19 6.14313e-19 6.14142e-19 6.14271e-19 6.1424e-19 6.18034e-19 9.68219e-19 3.33777e-17 3.02747e-15
          2.69455e-13 3.43747e-13 4.60494e-13 6.50768e-13 2.22744e-18 2.13968e-18
        </DataArray>
        <DataArray type="Float32" Name="X^w_cyanide" NumberOfComponents="1" format="ascii">
          4.92354e-06 4.92348e-06 4.92343e-06 4.92338e-06 4.92332e-06 4.92327e-06 4.92322e-06 4.92316e-06 4.92311e-06 4.92305e-06 4.923e-06 4.92294e-06
          4.92287e-06 4.9228e-06 4.92273e-06 4.92264e-06 4.92253e-06 4.9224e-06 4.92224e-06 4.92203e-06 4.92173e-06 4.92132e-06 4.92072e-06 4.9198e-06
          4.91881e-06 6.27107e-06 8.39505e-06 1.20785e-05 1.94515e-05 1.92012e-05
        </DataArray>
        <DataArray type="Float32" Name="X^w_citrate" NumberOfComponents="1" format="ascii">
          0.000141796 0.000141796 0.000141796 0.000141796 0.000141796 0.000141796 0.000141796 0.000141796 0.000141796 0.000141796 0.000141796 0.000141796
          0.000141795 0.000141795 0.000141795 0.000141795 0.000141794 0.000141794 0.000141793 0.000141792 0.00014179 0.000141787 0.000141783 0.000141777
          0.000141766 0.000141749 0.000141714 0.000141631 0.000141364 0.000139544
        </DataArray>
        <DataArray type="Float32" Name="X^w_substrate" NumberOfComponents="1" format="ascii">
          5.52221e-12 7.65524e-12 1.06117e-11 1.47093e-11 2.03887e-11 2.82611e-11 3.91742e-11 5.43054e-11 7.52908e-11 1.04408e-10 1.44831e-10 2.01e-10
          2.79142e-10 3.88032e-10 5.40111e-10 7.53165e-10 1.05287e-09 1.47683e-09 2.08097e-09 2.95043e-09 4.21831e-09 6.10021e-09 8.96135e-09 1.34575e-08
          2.086e-08 3.39054e-08 5.94256e-08 1.18737e-07 3.08762e-07 1.5917e-06
        </DataArray>
        <DataArray type="Float32" Name="m^w_H2O" NumberOfComponents="1" format="ascii">
          55492.6 55492.6 55492.5 55492.5 55492.5 55492.5 55492.5 55492.5 55492.5 55492.5 55492.5 55492.5
          55492.5 55492.5 55492.4 55492.4 55492.4 55492.4 55492.4 55492.4 55492.4 55492.4 55492.4 55492.4
          55492.4 55492.3 55492.1 55491.9 55491.5 55491.6
        </DataArray>
        <DataArray type="Float32" Name="m^w_Air" NumberOfComponents="1" format="ascii">
          0 0 0 0 0 0 0 0 0 0 0 0
          0 0 0 0 0 0 0 0 0 0 0 0
          0 0 0 0 0 0
        </DataArray>
        <DataArray type="Float32" Name="m^w_AuComplex" NumberOfComponents="1" format="ascii">
          7.74268e-13 7.77974e-13 7.78742e-13 7.78337e-13 7.77741e-13 7.7782e-13 7.77741e-13 7.77279e-13 7.78053e-13 7.78158e-13 7.7792e-13 7.77795e-13
          7.77767e-13 7.77951e-13 7.77685e-13 7.77619e-13 7.77701e-13 7.77482e-13 7.77614e-13 7.77504e-13 7.77482e-13 7.77386e-13 8.47186e-13 1.50272e-10
          3.45491e-07 5.42915e-07 9.42293e-07 1.88946e-06 1.00431e-11 9.75152e-12
        </DataArray>
        <DataArray type="Float32" Name="m^w_nanoAu" NumberOfComponents="1" format="ascii">
          3.1019e-15 3.119e-15 3.12254e-15 3.12069e-15 3.11801e-15 3.1184e-15 3.11806e-15 3.11604e-15 3.1196e-15 3.12009e-15 3.11905e-15 3.11853e-15
          3.11846e-15 3.11931e-15 3.11817e-15 3.11794e-15 3.11835e-15 3.11749e-15 3.11814e-15 3.11798e-15 3.13724e-15 4.91484e-15 1.69431e-13 1.53679e-11
          1.3678e-09 1.74491e-09 2.33754e-09 3.3034e-09 1.13069e-14 1.08614e-14
        </DataArray>
        <DataArray type="Float32" Name="m^w_cyanide" NumberOfComponents="1" format="ascii">
          0.189194 0.189192 0.18919 0.189188 0.189186 0.189183 0.189181 0.189179 0.189177 0.189175 0.189173 0.18917
          0.189168 0.189165 0.189162 0.189159 0.189155 0.18915 0.189144 0.189135 0.189124 0.189108 0.189085 0.18905
          0.189011 0.240974 0.32259 0.464131 0.747449 0.73783
        </DataArray>
        <DataArray type="Float32" Name="m^w_citrate" NumberOfComponents="1" format="ascii">
          0.749741 0.749741 0.749741 0.749741 0.749741 0.74974 0.74974 0.74974 0.74974 0.749739 0.749739 0.749738
          0.749738 0.749737 0.749736 0.749734 0.749731 0.749728 0.749724 0.749717 0.749707 0.749693 0.749672 0.749638
          0.749582 0.749489 0.749304 0.748867 0.747452 0.737832
        </DataArray>
        <DataArray type="Float32" Name="m^w_substrate" NumberOfComponents="1" format="ascii">
          3.06473e-08 4.24852e-08 5.88928e-08 8.16339e-08 1.13154e-07 1.56844e-07 2.1741e-07 3.01385e-07 4.1785e-07 5.79443e-07 8.03786e-07 1.11551e-06
          1.54919e-06 2.1535e-06 2.99751e-06 4.17992e-06 5.84325e-06 8.19609e-06 1.1549e-05 1.63743e-05 2.34108e-05 3.38549e-05 4.97337e-05 7.46863e-05
          0.000115769 0.000188168 0.0003298 0.000658967 0.00171356 0.00883362
        </DataArray>
        <DataArray type="Float32" Name="process rank" NumberOfComponents="1" format="ascii">
          0 0 0 0 0 0 0 0 0 0 0 0
          0 0 0 0 0 0 0 0 0 0 0 0
          0 0 0 0 0 0
        </DataArray>
      </CellData>
      <Points>
        <DataArray type="Float32" Name="Coordinates" NumberOfComponents="3" format="ascii">
          0 0 0 0.5 0 0 0 0.0333333 0 0.5 0.0333333 0
          0 0.0666667 0 0.5 0.0666667 0 0 0.1 0 0.5 0.1 0
          0 0.133333 0 0.5 0.133333 0 0 0.166667 0 0.5 0.166667 0
          0 0.2 0 0.5 0.2 0 0 0.233333 0 0.5 0.233333 0
          0 0.266667 0 0.5 0.266667 0 0 0.3 0 0.5 0.3 0
          0 0.333333 0 0.5 0.333333 0 0 0.366667 0 0.5 0.366667 0
          0 0.4 0 0.5 0.4 0 0 0.433333 0 0.5 0.433333 0
          0 0.466667 0 0.5 0.466667 0 0 0.5 0 0.5 0.5 0
          0 0.533333 0 0.5 0.533333 0 0 0.566667 0 0.5 0.566667 0
          0 0.6 0 0.5 0.6 0 0 0.633333 0 0.5 0.633333 0
          0 0.666667 0 0.5 0.666667 0 0 0.7 0 0.5 0.7 0
          0 0.733333 0 0.5 0.733333 0 0 0.766667 0 0.5 0.766667 0
          0 0.8 0 0.5 0.8 0 0 0.833333 0 0.5 0.833333 0
          0 0.866667 0 0.5 0.866667 0 0 0.9 0 0.5 0.9 0
          0 0.933333 0 0.5 0.933333 0 0 0.966667 0 0.5 0.966667 0
          0 1 0 0.5 1 0
        </DataArray>
      </Points>
      <Cells>
        <DataArray type="Int32" Name="connectivity" NumberOfComponents="1" format="ascii">
          0 1 3 2 2 3 5 4 4 5 7 6
          6 7 9 8 8 9 11 10 10 11 13 12
          12 13 15 14 14 15 17 16 16 17 19 18
          18 19 21 20 20 21 23 22 22 23 25 24
          24 25 27 26 26 27 29 28 28 29 31 30
          30 31 33 32 32 33 35 34 34 35 37 36
          36 37 39 38 38 39 41 40 40 41 43 42
          42 43 45 44 44 45 47 46 46 47 49 48
          48 49 51 50 50 51 53 52 52 53 55 54
          54 55 57 56 56 57 59 58 58 59 61 60
        </DataArray>
        <DataArray type="Int32" Name="offsets" NumberOfComponents="1" format="ascii">
          4 8 12 16 20 24 28 32 36 40 44 48
          52 56 60 64 68 72 76 80 84 88 92 96
          100 104 108 112 116 120
        </DataArray>
        <DataArray type="UInt8" Name="types" NumberOfComponents="1" format="ascii">
          9 9 9 9 9 9 9 9 9 9 9 9
          9 9 9 9 9 9 9 9 9 9 9 9
          9 9 9 9 9 9
        </DataArray>
      </Cells>
    </Piece>
  </UnstructuredGrid>
</VTKFile>
