<?xml version="1.0"?>
<VTKFile type="UnstructuredGrid" version="0.1" byte_order="LittleEndian">
  <UnstructuredGrid>
    <Piece NumberOfCells="30" NumberOfPoints="62">
      <CellData Scalars="Sg">
        <DataArray type="Float32" Name="Sg" NumberOfComponents="1" format="ascii">
          0.0907902 0.0907501 0.0907089 0.0906633 0.0905983 0.0904457 0.0898967 0.08756 0.0773017 0.0356724 0 0
          0 0 0 0 0 0 0 0 0 0 0 0
          0 0 0 0 0 0
        </DataArray>
        <DataArray type="Float32" Name="Sl" NumberOfComponents="1" format="ascii">
          0.90921 0.90925 0.909291 0.909337 0.909402 0.909554 0.910103 0.91244 0.922698 0.964328 1 1
          1 1 1 1 1 1 1 1 1 1 1 1
          1 1 1 1 1 1
        </DataArray>
        <DataArray type="Float32" Name="pg" NumberOfComponents="1" format="ascii">
          50696.1 50357.7 50018.9 49678.9 49333.4 48962.7 48478.5 47482.2 44216.6 31964.3 21418.4 21091.5
          20764.6 20437.6 20110.7 19783.7 19456.8 19129.8 18802.9 18476 18149 17822.1 17495.1 17168.2
          16841.3 16514.3 16187.4 15860.4 15533.5 15206.6
        </DataArray>
        <DataArray type="Float32" Name="pl" NumberOfComponents="1" format="ascii">
          110628 110301 109974 109647 109320 108993 108666 108339 108012 107685 107358 107031
          106704 106377 106050 105723 105396 105070 104743 104416 104089 103762 103435 103108
          102781 102454 102127 101800 101473 101146
        </DataArray>
        <DataArray type="Float32" Name="pc" NumberOfComponents="1" format="ascii">
          -59931.4 -59942.9 -59954.7 -59967.8 -59986.4 -60030.1 -60187.4 -60856.8 -63795.4 -75720.8 -85939.7 -85939.7
          -85939.7 -85939.7 -85939.7 -85939.7 -85939.7 -85939.7 -85939.7 -85939.7 -85939.7 -85939.7 -85939.7 -85939.7
          -85939.7 -85939.7 -85939.7 -85939.7 -85939.7 -85939.7
        </DataArray>
        <DataArray type="Float32" Name="rhoL" NumberOfComponents="1" format="ascii">
          999.855 999.855 999.855 999.855 999.855 999.854 999.854 999.854 999.854 999.854 999.854 999.854
          999.853 999.853 999.853 999.853 999.853 999.853 999.852 999.852 999.852 999.852 999.852 999.852
          999.852 999.851 999.851 999.851 999.851 999.851
        </DataArray>
        <DataArray type="Float32" Name="rhoG" NumberOfComponents="1" format="ascii">
          0.628059 0.623866 0.61967 0.615457 0.611177 0.606585 0.600586 0.588243 0.547786 0.395996 0.265347 0.261296
          0.257246 0.253195 0.249145 0.245095 0.241044 0.236994 0.232944 0.228893 0.224843 0.220793 0.216742 0.212692
          0.208641 0.204591 0.200541 0.19649 0.19244 0.18839
        </DataArray>
        <DataArray type="Float32" Name="mobL" NumberOfComponents="1" format="ascii">
          722.171 722.17 722.17 722.17 722.17 722.17 722.169 722.169 722.169 722.169 722.169 722.169
          722.168 722.168 722.168 722.168 722.168 722.167 722.167 722.167 722.167 722.167 722.166 722.166
          722.166 722.166 722.166 722.166 722.165 722.165
        </DataArray>
        <DataArray type="Float32" Name="mobG" NumberOfComponents="1" format="ascii">
          0 0 0 0 0 0 0 0 0 0 0 0
          0 0 0 0 0 0 0 0 0 0 0 0
          0 0 0 0 0 0
        </DataArray>
        <DataArray type="Float32" Name="porosity" NumberOfComponents="1" format="ascii">
          0.298517 0.298517 0.298517 0.298517 0.298516 0.298516 0.298515 0.298514 0.298512 0.29851 0.298507 0.298503
          0.298498 0.29849 0.29848 0.298467 0.298449 0.298424 0.298391 0.298345 0.298284 0.298198 0.298077 0.297899
          0.297356 0.296905 0.296066 0.294146 0.287548 0.191303
        </DataArray>
        <DataArray type="Float32" Name="temperature" NumberOfComponents="1" format="ascii">
          281.15 281.15 281.15 281.15 281.15 281.15 281.15 281.15 281.15 281.15 281.15 281.15
          281.15 281.15 281.15 281.15 281.15 281.15 281.15 281.15 281.15 281.15 281.15 281.15
          281.15 281.15 281.15 281.15 281.15 281.15
        </DataArray>
        <DataArray type="Float32" Name="phase presence" NumberOfComponents="1" format="ascii">
          3 3 3 3 3 3 3 3 3 3 1 1
          1 1 1 1 1 1 1 1 1 1 1 1
          1 1 1 1 1 1
        </DataArray>
        <DataArray type="Float32" Name="precipitateVolumeFraction_au" NumberOfComponents="1" format="ascii">
          5.4259e-10 5.42586e-10 5.42587e-10 5.42588e-10 5.42589e-10 5.4259e-10 5.4259e-10 5.42591e-10 5.42591e-10 5.42593e-10 5.42593e-10 5.4259e-10
          5.42589e-10 5.42609e-10 5.42582e-10 5.42571e-10 5.42592e-10 5.42547e-10 5.42593e-10 5.42578e-10 5.42602e-10 5.42576e-10 5.42612e-10 6.30107e-10
          0.000269938 0.000269921 0.000269895 0.00026985 5.42107e-10 5.41183e-10
        </DataArray>
        <DataArray type="Float32" Name="precipitateVolumeFraction_nanoAu" NumberOfComponents="1" format="ascii">
          1.02889e-11 1.02876e-11 1.02868e-11 1.02855e-11 1.02848e-11 1.02838e-11 1.0283e-11 1.0282e-11 1.02817e-11 1.02995e-11 1.02854e-11 1.02727e-11
          1.02717e-11 1.02938e-11 1.0268e-11 1.02648e-11 1.02756e-11 1.02602e-11 1.02752e-11 1.02716e-11 1.02755e-11 1.02712e-11 1.02844e-11 3.79378e-11
          6.27207e-08 7.97048e-08 1.05943e-07 1.49827e-07 1.05953e-11 1.05239e-11
        </DataArray>
        <DataArray type="Float32" Name="precipitateVolumeFraction_d" NumberOfComponents="1" format="ascii">
          0.000741377 0.000741448 0.000741549 0.00074169 0.000741888 0.000742167 0.000742557 0.000743102 0.000743859 0.000744907 0.000746353 0.000748338
          0.000751053 0.000754748 0.000759761 0.000766539 0.000775684 0.000788015 0.000804668 0.000827256 0.000858152 0.000900999 0.000961704 0.00105053
          0.00118692 0.00141259 0.00183213 0.00279221 0.00622578 0.0543486
        </DataArray>
        <DataArray type="Float32" Name="precipitateVolumeFraction_p" NumberOfComponents="1" format="ascii">
          0.000741377 0.000741448 0.000741549 0.00074169 0.000741888 0.000742167 0.000742557 0.000743102 0.000743859 0.000744907 0.000746353 0.000748338
          0.000751053 0.000754748 0.000759761 0.000766539 0.000775684 0.000788015 0.000804668 0.000827256 0.000858152 0.000900999 0.000961704 0.00105053
          0.00118692 0.00141259 0.00183213 0.00279221 0.00622578 0.0543486
        </DataArray>
        <DataArray type="Float32" Name="K" NumberOfComponents="1" format="ascii">
          9.81085e-11 9.81083e-11 9.81081e-11 9.81077e-11 9.81072e-11 9.81065e-11 9.81055e-11 9.81041e-11 9.81022e-11 9.80996e-11 9.80959e-11 9.80909e-11
          9.8084e-11 9.80746e-11 9.8062e-11 9.80448e-11 9.80217e-11 9.79905e-11 9.79484e-11 9.78913e-11 9.78133e-11 9.77051e-11 9.75521e-11 9.73285e-11
          9.6648e-11 9.6085e-11 9.50457e-11 9.2702e-11 8.5007e-11 1.94278e-11
        </DataArray>
        <DataArray type="Float32" Name="X^w_H2O" NumberOfComponents="1" format="ascii">
          0.999838 0.999838 0.999838 0.999838 0.999838 0.999838 0.999839 0.999839 0.99984 0.999844 0.999853 0.999853
          0.999853 0.999853 0.999853 0.999853 0.999853 0.999853 0.999853 0.999853 0.999853 0.999853 0.999853 0.999853
          0.999853 0.999852 0.99985 0.999846 0.999839 0.999841
        </DataArray>
        <DataArray type="Float32" Name="X^w_Air" NumberOfComponents="1" format="ascii">
          1.53819e-05 1.5277e-05 1.5172e-05 1.50666e-05 1.49595e-05 1.48446e-05 1.46945e-05 1.43856e-05 1.33734e-05 9.57552e-06 7.38488e-07 1.13058e-08
          1.70517e-10 2.5185e-12 3.6597e-14 5.20535e-16 7.26216e-18 9.94935e-20 1.33389e-21 1.74849e-23 2.2386e-25 2.79079e-27 3.35871e-29 3.84734e-31
          4.05847e-33 4.06571e-35 3.47434e-37 0 0 0
        </DataArray>
        <DataArray type="Float32" Name="X^w_AuComplex" NumberOfComponents="1" format="ascii">
          8.9927e-15 8.14448e-15 9.73864e-15 9.58474e-15 8.72002e-15 1.01302e-14 9.13088e-15 1.00436e-14 1.13819e-14 8.4316e-14 9.6412e-15 9.62847e-15
          9.62684e-15 9.64689e-15 9.62226e-15 9.61878e-15 9.62836e-15 9.61356e-15 9.62701e-15 9.62289e-15 9.62547e-15 9.61996e-15 9.63191e-15 4.00474e-14
          6.90423e-11 1.08432e-10 1.8727e-10 3.70001e-10 3.90049e-14 3.77441e-14
        </DataArray>
        <DataArray type="Float32" Name="X^w_nanoAu" NumberOfComponents="1" format="ascii">
          -7.16933e-16 -3.51447e-16 1.24271e-15 -1.24897e-16 2.24088e-16 4.206e-16 -5.78758e-16 1.54771e-15 4.58584e-16 7.70337e-14 4.48148e-17 4.476e-17
          4.47567e-17 4.48507e-17 4.47393e-17 4.47257e-17 4.4771e-17 4.47052e-17 4.47691e-17 4.47527e-17 4.47718e-17 4.51107e-17 7.82481e-17 3.13111e-15
          2.7385e-13 3.48117e-13 4.62736e-13 6.43609e-13 4.58036e-17 4.38651e-17
        </DataArray>
        <DataArray type="Float32" Name="X^w_cyanide" NumberOfComponents="1" format="ascii">
          4.9394e-06 4.93797e-06 4.93669e-06 4.93556e-06 4.93455e-06 4.93367e-06 4.93289e-06 4.9322e-06 4.93161e-06 4.93111e-06 4.93068e-06 4.93025e-06
          4.92988e-06 4.92956e-06 4.92929e-06 4.92905e-06 4.92882e-06 4.92857e-06 4.92829e-06 4.92791e-06 4.92738e-06 4.92659e-06 4.92535e-06 4.92335e-06
          4.92046e-06 6.28459e-06 8.42379e-06 1.21107e-05 1.93659e-05 1.88706e-05
        </DataArray>
        <DataArray type="Float32" Name="X^w_citrate" NumberOfComponents="1" format="ascii">
          0.000141794 0.000141794 0.000141794 0.000141794 0.000141794 0.000141794 0.000141794 0.000141794 0.000141794 0.000141794 0.000141795 0.000141795
          0.000141795 0.000141795 0.000141794 0.000141794 0.000141793 0.000141791 0.000141789 0.000141787 0.000141782 0.000141776 0.000141766 0.000141751
          0.000141725 0.000141681 0.000141592 0.000141386 0.000140752 0.000137147
        </DataArray>
        <DataArray type="Float32" Name="X^w_substrate" NumberOfComponents="1" format="ascii">
          9.40653e-12 1.32712e-11 1.87289e-11 2.64497e-11 3.73769e-11 5.28256e-11 7.46264e-11 1.05254e-10 1.48082e-10 2.07947e-10 2.9096e-10 4.08076e-10
          5.72734e-10 8.04739e-10 1.13244e-09 1.59682e-09 2.25775e-09 3.20389e-09 4.5687e-09 6.55752e-09 9.49497e-09 1.39121e-08 2.07168e-08 3.15512e-08
          4.96139e-08 8.17874e-08 1.45099e-07 2.91275e-07 7.39899e-07 3.28203e-06
        </DataArray>
        <DataArray type="Float32" Name="m^w_H2O" NumberOfComponents="1" format="ascii">
          55491.7 55491.7 55491.7 55491.7 55491.7 55491.7 55491.7 55491.7 55491.8 55492 55492.4 55492.5
          55492.5 55492.5 55492.4 55492.4 55492.4 55492.4 55492.4 55492.4 55492.4 55492.4 55492.4 55492.4
          55492.4 55492.3 55492.1 55491.9 55491.5 55491.6
        </DataArray>
        <DataArray type="Float32" Name="m^w_Air" NumberOfComponents="1" format="ascii">
          0.531065 0.527443 0.523818 0.520179 0.516481 0.512514 0.507332 0.496669 0.461721 0.330598 0.0254966 0.000390335
          5.88717e-06 8.6952e-08 1.26352e-09 1.79716e-11 2.50728e-13 3.43504e-15 4.6053e-17 6.0367e-19 7.72882e-21 9.63528e-23 1.1596e-24 1.3283e-26
          1.4012e-28 1.4037e-30 1.19953e-32 7.33491e-35 1.77529e-37 0
        </DataArray>
        <DataArray type="Float32" Name="m^w_AuComplex" NumberOfComponents="1" format="ascii">
          4.56486e-11 4.13428e-11 4.94351e-11 4.86538e-11 4.42644e-11 5.14229e-11 4.63499e-11 5.09833e-11 5.77767e-11 4.28002e-10 4.89404e-11 4.88757e-11
          4.88675e-11 4.89692e-11 4.88442e-11 4.88265e-11 4.88752e-11 4.88e-11 4.88683e-11 4.88474e-11 4.88605e-11 4.88325e-11 4.88931e-11 2.03287e-10
          3.5047e-07 5.50416e-07 9.50611e-07 1.87818e-06 1.97995e-10 1.91595e-10
        </DataArray>
        <DataArray type="Float32" Name="m^w_nanoAu" NumberOfComponents="1" format="ascii">
          -3.63928e-12 -1.78401e-12 6.3082e-12 -6.33997e-13 1.13751e-12 2.13504e-12 -2.93788e-12 7.85643e-12 2.32785e-12 3.91037e-10 2.27488e-13 2.27209e-13
          2.27193e-13 2.2767e-13 2.27104e-13 2.27035e-13 2.27265e-13 2.26931e-13 2.27255e-13 2.27172e-13 2.27269e-13 2.28989e-13 3.972e-13 1.5894e-11
          1.39011e-09 1.7671e-09 2.34892e-09 3.26706e-09 2.32506e-13 2.22666e-13
        </DataArray>
        <DataArray type="Float32" Name="m^w_cyanide" NumberOfComponents="1" format="ascii">
          0.189803 0.189748 0.189699 0.189656 0.189617 0.189583 0.189553 0.189527 0.189504 0.189485 0.189468 0.189452
          0.189437 0.189425 0.189415 0.189405 0.189396 0.189387 0.189376 0.189361 0.189341 0.18931 0.189263 0.189186
          0.189075 0.241493 0.323695 0.465369 0.744157 0.725127
        </DataArray>
        <DataArray type="Float32" Name="m^w_citrate" NumberOfComponents="1" format="ascii">
          0.74973 0.74973 0.74973 0.749729 0.749729 0.749729 0.749729 0.749729 0.749729 0.749731 0.749737 0.749737
          0.749736 0.749734 0.749731 0.749728 0.749723 0.749715 0.749705 0.74969 0.749668 0.749635 0.749583 0.749502
          0.749366 0.74913 0.748662 0.747574 0.744219 0.725157
        </DataArray>
        <DataArray type="Float32" Name="m^w_substrate" NumberOfComponents="1" format="ascii">
          5.22045e-08 7.36527e-08 1.03942e-07 1.46791e-07 2.07435e-07 2.93172e-07 4.14163e-07 5.84142e-07 8.21827e-07 1.15407e-06 1.61477e-06 2.26474e-06
          3.17856e-06 4.46615e-06 6.28482e-06 8.86202e-06 1.25301e-05 1.77809e-05 2.53554e-05 3.6393e-05 5.26952e-05 7.72094e-05 0.000114974 0.000175103
          0.000275347 0.000453903 0.000805272 0.00161651 0.00410629 0.0182146
        </DataArray>
        <DataArray type="Float32" Name="process rank" NumberOfComponents="1" format="ascii">
          0 0 0 0 0 0 0 0 0 0 0 0
          0 0 0 0 0 0 0 0 0 0 0 0
          0 0 0 0 0 0
        </DataArray>
      </CellData>
      <Points>
        <DataArray type="Float32" Name="Coordinates" NumberOfComponents="3" format="ascii">
          0 0 0 0.5 0 0 0 0.0333333 0 0.5 0.0333333 0
          0 0.0666667 0 0.5 0.0666667 0 0 0.1 0 0.5 0.1 0
          0 0.133333 0 0.5 0.133333 0 0 0.166667 0 0.5 0.166667 0
          0 0.2 0 0.5 0.2 0 0 0.233333 0 0.5 0.233333 0
          0 0.266667 0 0.5 0.266667 0 0 0.3 0 0.5 0.3 0
          0 0.333333 0 0.5 0.333333 0 0 0.366667 0 0.5 0.366667 0
          0 0.4 0 0.5 0.4 0 0 0.433333 0 0.5 0.433333 0
          0 0.466667 0 0.5 0.466667 0 0 0.5 0 0.5 0.5 0
          0 0.533333 0 0.5 0.533333 0 0 0.566667 0 0.5 0.566667 0
          0 0.6 0 0.5 0.6 0 0 0.633333 0 0.5 0.633333 0
          0 0.666667 0 0.5 0.666667 0 0 0.7 0 0.5 0.7 0
          0 0.733333 0 0.5 0.733333 0 0 0.766667 0 0.5 0.766667 0
          0 0.8 0 0.5 0.8 0 0 0.833333 0 0.5 0.833333 0
          0 0.866667 0 0.5 0.866667 0 0 0.9 0 0.5 0.9 0
          0 0.933333 0 0.5 0.933333 0 0 0.966667 0 0.5 0.966667 0
          0 1 0 0.5 1 0
        </DataArray>
      </Points>
      <Cells>
        <DataArray type="Int32" Name="connectivity" NumberOfComponents="1" format="ascii">
          0 1 3 2 2 3 5 4 4 5 7 6
          6 7 9 8 8 9 11 10 10 11 13 12
          12 13 15 14 14 15 17 16 16 17 19 18
          18 19 21 20 20 21 23 22 22 23 25 24
          24 25 27 26 26 27 29 28 28 29 31 30
          30 31 33 32 32 33 35 34 34 35 37 36
          36 37 39 38 38 39 41 40 40 41 43 42
          42 43 45 44 44 45 47 46 46 47 49 48
          48 49 51 50 50 51 53 52 52 53 55 54
          54 55 57 56 56 57 59 58 58 59 61 60
        </DataArray>
        <DataArray type="Int32" Name="offsets" NumberOfComponents="1" format="ascii">
          4 8 12 16 20 24 28 32 36 40 44 48
          52 56 60 64 68 72 76 80 84 88 92 96
          100 104 108 112 116 120
        </DataArray>
        <DataArray type="UInt8" Name="types" NumberOfComponents="1" format="ascii">
          9 9 9 9 9 9 9 9 9 9 9 9
          9 9 9 9 9 9 9 9 9 9 9 9
          9 9 9 9 9 9
        </DataArray>
      </Cells>
    </Piece>
  </UnstructuredGrid>
</VTKFile>
