<?xml version="1.0"?>
<VTKFile type="UnstructuredGrid" version="0.1" byte_order="LittleEndian">
  <UnstructuredGrid>
    <Piece NumberOfCells="30" NumberOfPoints="62">
      <CellData Scalars="Sg">
        <DataArray type="Float32" Name="Sg" NumberOfComponents="1" format="ascii">
          0 0 0 0 0 0 0 0 0 0 0 0
          0 0 0 0 0 0 0 0 0 0 0 0
          0 0 0 0 0 0
        </DataArray>
        <DataArray type="Float32" Name="Sl" NumberOfComponents="1" format="ascii">
          1 1 1 1 1 1 1 1 1 1 1 1
          1 1 1 1 1 1 1 1 1 1 1 1
          1 1 1 1 1 1
        </DataArray>
        <DataArray type="Float32" Name="pg" NumberOfComponents="1" format="ascii">
          24687.8 24360.9 24034 23707 23380.1 23053.1 22726.2 22399.3 22072.3 21745.4 21418.4 21091.5
          20764.6 20437.6 20110.7 19783.7 19456.8 19129.8 18802.9 18476 18149 17822.1 17495.1 17168.2
          16841.3 16514.3 16187.4 15860.4 15533.5 15209.6
        </DataArray>
        <DataArray type="Float32" Name="pl" NumberOfComponents="1" format="ascii">
          110628 110301 109974 109647 109320 108993 108666 108339 108012 107685 107358 107031
          106704 106377 106050 105723 105396 105070 104743 104416 104089 103762 103435 103108
          102781 102454 102127 101800 101473 101149
        </DataArray>
        <DataArray type="Float32" Name="pc" NumberOfComponents="1" format="ascii">
          -85939.7 -85939.7 -85939.7 -85939.7 -85939.7 -85939.7 -85939.7 -85939.7 -85939.7 -85939.7 -85939.7 -85939.7
          -85939.7 -85939.7 -85939.7 -85939.7 -85939.7 -85939.7 -85939.7 -85939.7 -85939.7 -85939.7 -85939.7 -85939.7
          -85939.7 -85939.7 -85939.7 -85939.7 -85939.7 -85939.7
        </DataArray>
        <DataArray type="Float32" Name="rhoL" NumberOfComponents="1" format="ascii">
          999.855 999.855 999.855 999.855 999.855 999.854 999.854 999.854 999.854 999.854 999.854 999.854
          999.853 999.853 999.853 999.853 999.853 999.853 999.852 999.852 999.852 999.852 999.852 999.852
          999.852 999.851 999.851 999.851 999.851 999.851
        </DataArray>
        <DataArray type="Float32" Name="rhoG" NumberOfComponents="1" format="ascii">
          0.30585 0.3018 0.29775 0.293699 0.289649 0.285598 0.281548 0.277498 0.273447 0.269397 0.265347 0.261296
          0.257246 0.253195 0.249145 0.245095 0.241044 0.236994 0.232944 0.228893 0.224843 0.220793 0.216742 0.212692
          0.208641 0.204591 0.200541 0.19649 0.19244 0.188427
        </DataArray>
        <DataArray type="Float32" Name="mobL" NumberOfComponents="1" format="ascii">
          722.171 722.17 722.17 722.17 722.17 722.17 722.169 722.169 722.169 722.169 722.169 722.169
          722.168 722.168 722.168 722.168 722.168 722.167 722.167 722.167 722.167 722.167 722.166 722.166
          722.166 722.166 722.166 722.166 722.165 722.165
        </DataArray>
        <DataArray type="Float32" Name="mobG" NumberOfComponents="1" format="ascii">
          0 0 0 0 0 0 0 0 0 0 0 0
          0 0 0 0 0 0 0 0 0 0 0 0
          0 0 0 0 0 0
        </DataArray>
        <DataArray type="Float32" Name="porosity" NumberOfComponents="1" format="ascii">
          0.298833 0.298833 0.298833 0.298832 0.298832 0.298832 0.298831 0.29883 0.298829 0.298827 0.298825 0.298822
          0.298817 0.298811 0.298803 0.298792 0.298776 0.298756 0.298728 0.29869 0.298638 0.298565 0.29846 0.298303
          0.297784 0.297355 0.296495 0.294222 0.283045 0.0450309
        </DataArray>
        <DataArray type="Float32" Name="temperature" NumberOfComponents="1" format="ascii">
          281.15 281.15 281.15 281.15 281.15 281.15 281.15 281.15 281.15 281.15 281.15 281.15
          281.15 281.15 281.15 281.15 281.15 281.15 281.15 281.15 281.15 281.15 281.15 281.15
          281.15 281.15 281.15 281.15 281.15 281.15
        </DataArray>
        <DataArray type="Float32" Name="phase presence" NumberOfComponents="1" format="ascii">
          1 1 1 1 1 1 1 1 1 1 1 1
          1 1 1 1 1 1 1 1 1 1 1 1
          1 1 1 1 1 1
        </DataArray>
        <DataArray type="Float32" Name="precipitateVolumeFraction_au" NumberOfComponents="1" format="ascii">
          5.52654e-10 5.52748e-10 5.52774e-10 5.52761e-10 5.52733e-10 5.52738e-10 5.52732e-10 5.5269e-10 5.5276e-10 5.52779e-10 5.52752e-10 5.52737e-10
          5.52735e-10 5.52777e-10 5.52724e-10 5.5271e-10 5.52741e-10 5.52681e-10 5.52742e-10 5.52723e-10 5.52751e-10 5.52722e-10 5.53027e-10 1.20947e-09
          0.000269939 0.000269923 0.000269897 0.000269846 5.52203e-10 5.51186e-10
        </DataArray>
        <DataArray type="Float32" Name="precipitateVolumeFraction_nanoAu" NumberOfComponents="1" format="ascii">
          1.26226e-13 1.26248e-13 1.26254e-13 1.26251e-13 1.26245e-13 1.26246e-13 1.26244e-13 1.26234e-13 1.2625e-13 1.26254e-13 1.26248e-13 1.26244e-13
          1.26243e-13 1.26252e-13 1.26239e-13 1.26234e-13 1.2624e-13 1.26224e-13 1.26234e-13 1.26226e-13 1.26226e-13 1.26228e-13 1.3888e-13 2.68261e-11
          6.16283e-08 7.85866e-08 1.05246e-07 1.51201e-07 4.99126e-13 4.91723e-13
        </DataArray>
        <DataArray type="Float32" Name="precipitateVolumeFraction_d" NumberOfComponents="1" format="ascii">
          0.000583528 0.000583587 0.00058367 0.000583787 0.000583951 0.00058418 0.000584501 0.000584949 0.00058557 0.00058643 0.000587616 0.000589244
          0.000591472 0.000594508 0.000598632 0.000604219 0.000611779 0.000622009 0.00063589 0.000654834 0.000680954 0.00071756 0.000770168 0.000848683
          0.000972761 0.00118733 0.00161728 0.00275424 0.00847733 0.127485
        </DataArray>
        <DataArray type="Float32" Name="precipitateVolumeFraction_p" NumberOfComponents="1" format="ascii">
          0.000583528 0.000583587 0.00058367 0.000583787 0.000583951 0.00058418 0.000584501 0.000584949 0.00058557 0.00058643 0.000587616 0.000589244
          0.000591472 0.000594508 0.000598632 0.000604219 0.000611779 0.000622009 0.00063589 0.000654834 0.000680954 0.00071756 0.000770168 0.000848683
          0.000972761 0.00118733 0.00161728 0.00275424 0.00847733 0.127485
        </DataArray>
        <DataArray type="Float32" Name="K" NumberOfComponents="1" format="ascii">
          9.85087e-11 9.85086e-11 9.85084e-11 9.85081e-11 9.85077e-11 9.85071e-11 9.85063e-11 9.85051e-11 9.85035e-11 9.85014e-11 9.84983e-11 9.84942e-11
          9.84886e-11 9.84808e-11 9.84704e-11 9.84562e-11 9.8437e-11 9.8411e-11 9.83758e-11 9.83278e-11 9.82615e-11 9.81688e-11 9.80356e-11 9.78372e-11
          9.71846e-11 9.66469e-11 9.55768e-11 9.27938e-11 8.00603e-11 1.81713e-13
        </DataArray>
        <DataArray type="Float32" Name="X^w_H2O" NumberOfComponents="1" format="ascii">
          0.999853 0.999853 0.999853 0.999853 0.999853 0.999853 0.999853 0.999853 0.999853 0.999853 0.999853 0.999853
          0.999853 0.999853 0.999853 0.999853 0.999853 0.999853 0.999853 0.999853 0.999853 0.999853 0.999853 0.999853
          0.999853 0.999852 0.99985 0.999846 0.999839 0.99984
        </DataArray>
        <DataArray type="Float32" Name="X^w_Air" NumberOfComponents="1" format="ascii">
          0 0 0 0 0 0 0 0 0 0 0 0
          0 0 0 0 0 0 0 0 0 0 0 0
          0 0 0 0 0 0
        </DataArray>
        <DataArray type="Float32" Name="X^w_AuComplex" NumberOfComponents="1" format="ascii">
          1.39241e-16 1.39264e-16 1.39271e-16 1.39268e-16 1.39261e-16 1.39262e-16 1.3926e-16 1.3925e-16 1.39267e-16 1.39271e-16 1.39264e-16 1.39259e-16
          1.39258e-16 1.39267e-16 1.39252e-16 1.39246e-16 1.3925e-16 1.3923e-16 1.39238e-16 1.39224e-16 1.39219e-16 1.3921e-16 1.52955e-16 2.95623e-14
          6.7944e-11 1.06793e-10 1.85429e-10 3.72118e-10 1.92778e-15 1.87754e-15
        </DataArray>
        <DataArray type="Float32" Name="X^w_nanoAu" NumberOfComponents="1" format="ascii">
          5.4976e-19 5.49852e-19 5.49878e-19 5.49865e-19 5.49838e-19 5.49842e-19 5.49835e-19 5.49794e-19 5.49862e-19 5.4988e-19 5.49851e-19 5.49834e-19
          5.49829e-19 5.49867e-19 5.49809e-19 5.49788e-19 5.49809e-19 5.49737e-19 5.49779e-19 5.49777e-19 5.53536e-19 9.02301e-19 3.32113e-17 3.02119e-15
          2.6917e-13 3.43445e-13 4.60238e-13 6.50816e-13 2.16778e-18 2.08892e-18
        </DataArray>
        <DataArray type="Float32" Name="X^w_cyanide" NumberOfComponents="1" format="ascii">
          4.91805e-06 4.91805e-06 4.91805e-06 4.91805e-06 4.91805e-06 4.91805e-06 4.91805e-06 4.91804e-06 4.91804e-06 4.91803e-06 4.91802e-06 4.91801e-06
          4.91799e-06 4.91796e-06 4.91792e-06 4.91787e-06 4.91781e-06 4.91771e-06 4.91758e-06 4.91741e-06 4.91716e-06 4.9168e-06 4.91629e-06 4.91551e-06
          4.91477e-06 6.26666e-06 8.39084e-06 1.2077e-05 1.94641e-05 1.92386e-05
        </DataArray>
        <DataArray type="Float32" Name="X^w_citrate" NumberOfComponents="1" format="ascii">
          0.000141796 0.000141796 0.000141796 0.000141796 0.000141796 0.000141796 0.000141796 0.000141796 0.000141796 0.000141796 0.000141795 0.000141795
          0.000141795 0.000141795 0.000141795 0.000141794 0.000141794 0.000141793 0.000141792 0.000141791 0.000141789 0.000141786 0.000141783 0.000141777
          0.000141768 0.000141754 0.000141727 0.000141663 0.000141455 0.000139816
        </DataArray>
        <DataArray type="Float32" Name="X^w_substrate" NumberOfComponents="1" format="ascii">
          1.45724e-11 1.93779e-11 2.57664e-11 3.42596e-11 4.55507e-11 6.05624e-11 8.05224e-11 1.07066e-10 1.42376e-10 1.89363e-10 2.51929e-10 3.35305e-10
          4.46544e-10 5.95194e-10 7.94276e-10 1.06169e-09 1.42235e-09 1.91137e-09 2.57927e-09 3.50031e-09 4.78696e-09 6.61601e-09 9.27871e-09 1.32852e-08
          1.96038e-08 3.02866e-08 5.04232e-08 9.60692e-08 2.44096e-07 1.4001e-06
        </DataArray>
        <DataArray type="Float32" Name="m^w_H2O" NumberOfComponents="1" format="ascii">
          55492.6 55492.6 55492.6 55492.5 55492.5 55492.5 55492.5 55492.5 55492.5 55492.5 55492.5 55492.5
          55492.5 55492.5 55492.4 55492.4 55492.4 55492.4 55492.4 55492.4 55492.4 55492.4 55492.4 55492.4
          55492.4 55492.3 55492.1 55491.9 55491.5 55491.6
        </DataArray>
        <DataArray type="Float32" Name="m^w_Air" NumberOfComponents="1" format="ascii">
          0 0 0 0 0 0 0 0 0 0 0 0
          0 0 0 0 0 0 0 0 0 0 0 0
          0 0 0 0 0 0
        </DataArray>
        <DataArray type="Float32" Name="m^w_AuComplex" NumberOfComponents="1" format="ascii">
          7.06811e-13 7.06931e-13 7.06965e-13 7.06948e-13 7.06913e-13 7.06918e-13 7.06909e-13 7.06855e-13 7.06943e-13 7.06965e-13 7.06928e-13 7.06904e-13
          7.06896e-13 7.06943e-13 7.06865e-13 7.06834e-13 7.06856e-13 7.06754e-13 7.06798e-13 7.06727e-13 7.06697e-13 7.06654e-13 7.76425e-13 1.50063e-10
          3.44895e-07 5.42098e-07 9.41266e-07 1.88893e-06 9.78569e-12 9.5307e-12
        </DataArray>
        <DataArray type="Float32" Name="m^w_nanoAu" NumberOfComponents="1" format="ascii">
          2.79068e-15 2.79115e-15 2.79128e-15 2.79121e-15 2.79107e-15 2.79109e-15 2.79106e-15 2.79085e-15 2.7912e-15 2.79128e-15 2.79114e-15 2.79105e-15
          2.79103e-15 2.79122e-15 2.79092e-15 2.79082e-15 2.79092e-15 2.79056e-15 2.79077e-15 2.79076e-15 2.80984e-15 4.58023e-15 1.68586e-13 1.5336e-11
          1.36635e-09 1.74338e-09 2.33624e-09 3.30364e-09 1.1004e-14 1.06037e-14
        </DataArray>
        <DataArray type="Float32" Name="m^w_cyanide" NumberOfComponents="1" format="ascii">
          0.188983 0.188983 0.188983 0.188983 0.188983 0.188983 0.188983 0.188983 0.188982 0.188982 0.188982 0.188981
          0.18898 0.188979 0.188978 0.188976 0.188973 0.18897 0.188965 0.188958 0.188948 0.188934 0.188915 0.188885
          0.188856 0.240804 0.322428 0.464072 0.747934 0.739267
        </DataArray>
        <DataArray type="Float32" Name="m^w_citrate" NumberOfComponents="1" format="ascii">
          0.749741 0.749741 0.749741 0.749741 0.74974 0.74974 0.74974 0.74974 0.749739 0.749739 0.749738 0.749737
          0.749736 0.749735 0.749734 0.749732 0.749729 0.749725 0.74972 0.749713 0.749703 0.749689 0.749669 0.749639
          0.749591 0.749516 0.749372 0.749037 0.747937 0.739269
        </DataArray>
        <DataArray type="Float32" Name="m^w_substrate" NumberOfComponents="1" format="ascii">
          8.08744e-08 1.07544e-07 1.42999e-07 1.90134e-07 2.52798e-07 3.3611e-07 4.46884e-07 5.94198e-07 7.90158e-07 1.05093e-06 1.39816e-06 1.86088e-06
          2.47823e-06 3.30321e-06 4.40808e-06 5.89218e-06 7.89374e-06 1.06077e-05 1.43144e-05 1.9426e-05 2.65667e-05 3.67175e-05 5.1495e-05 7.37301e-05
          0.000108797 0.000168084 0.000279838 0.000533165 0.00135468 0.00777025
        </DataArray>
        <DataArray type="Float32" Name="process rank" NumberOfComponents="1" format="ascii">
          0 0 0 0 0 0 0 0 0 0 0 0
          0 0 0 0 0 0 0 0 0 0 0 0
          0 0 0 0 0 0
        </DataArray>
      </CellData>
      <Points>
        <DataArray type="Float32" Name="Coordinates" NumberOfComponents="3" format="ascii">
          0 0 0 0.5 0 0 0 0.0333333 0 0.5 0.0333333 0
          0 0.0666667 0 0.5 0.0666667 0 0 0.1 0 0.5 0.1 0
          0 0.133333 0 0.5 0.133333 0 0 0.166667 0 0.5 0.166667 0
          0 0.2 0 0.5 0.2 0 0 0.233333 0 0.5 0.233333 0
          0 0.266667 0 0.5 0.266667 0 0 0.3 0 0.5 0.3 0
          0 0.333333 0 0.5 0.333333 0 0 0.366667 0 0.5 0.366667 0
          0 0.4 0 0.5 0.4 0 0 0.433333 0 0.5 0.433333 0
          0 0.466667 0 0.5 0.466667 0 0 0.5 0 0.5 0.5 0
          0 0.533333 0 0.5 0.533333 0 0 0.566667 0 0.5 0.566667 0
          0 0.6 0 0.5 0.6 0 0 0.633333 0 0.5 0.633333 0
          0 0.666667 0 0.5 0.666667 0 0 0.7 0 0.5 0.7 0
          0 0.733333 0 0.5 0.733333 0 0 0.766667 0 0.5 0.766667 0
          0 0.8 0 0.5 0.8 0 0 0.833333 0 0.5 0.833333 0
          0 0.866667 0 0.5 0.866667 0 0 0.9 0 0.5 0.9 0
          0 0.933333 0 0.5 0.933333 0 0 0.966667 0 0.5 0.966667 0
          0 1 0 0.5 1 0
        </DataArray>
      </Points>
      <Cells>
        <DataArray type="Int32" Name="connectivity" NumberOfComponents="1" format="ascii">
          0 1 3 2 2 3 5 4 4 5 7 6
          6 7 9 8 8 9 11 10 10 11 13 12
          12 13 15 14 14 15 17 16 16 17 19 18
          18 19 21 20 20 21 23 22 22 23 25 24
          24 25 27 26 26 27 29 28 28 29 31 30
          30 31 33 32 32 33 35 34 34 35 37 36
          36 37 39 38 38 39 41 40 40 41 43 42
          42 43 45 44 44 45 47 46 46 47 49 48
          48 49 51 50 50 51 53 52 52 53 55 54
          54 55 57 56 56 57 59 58 58 59 61 60
        </DataArray>
        <DataArray type="Int32" Name="offsets" NumberOfComponents="1" format="ascii">
          4 8 12 16 20 24 28 32 36 40 44 48
          52 56 60 64 68 72 76 80 84 88 92 96
          100 104 108 112 116 120
        </DataArray>
        <DataArray type="UInt8" Name="types" NumberOfComponents="1" format="ascii">
          9 9 9 9 9 9 9 9 9 9 9 9
          9 9 9 9 9 9 9 9 9 9 9 9
          9 9 9 9 9 9
        </DataArray>
      </Cells>
    </Piece>
  </UnstructuredGrid>
</VTKFile>
