<?xml version="1.0"?>
<VTKFile type="UnstructuredGrid" version="0.1" byte_order="LittleEndian">
  <UnstructuredGrid>
    <Piece NumberOfCells="30" NumberOfPoints="62">
      <CellData Scalars="Sg">
        <DataArray type="Float32" Name="Sg" NumberOfComponents="1" format="ascii">
          0 0 0 0 0 0 0 0 0 0 0 0
          0 0 0 0 0 0 0 0 0 0 0 0
          0 0 0 0 0 0
        </DataArray>
        <DataArray type="Float32" Name="Sl" NumberOfComponents="1" format="ascii">
          1 1 1 1 1 1 1 1 1 1 1 1
          1 1 1 1 1 1 1 1 1 1 1 1
          1 1 1 1 1 1
        </DataArray>
        <DataArray type="Float32" Name="pg" NumberOfComponents="1" format="ascii">
          24687.8 24360.9 24034 23707 23380.1 23053.1 22726.2 22399.3 22072.3 21745.4 21418.4 21091.5
          20764.6 20437.6 20110.7 19783.7 19456.8 19129.8 18802.9 18476 18149 17822.1 17495.1 17168.2
          16841.3 16514.3 16187.4 15860.4 15533.5 15209.6
        </DataArray>
        <DataArray type="Float32" Name="pl" NumberOfComponents="1" format="ascii">
          110628 110301 109974 109647 109320 108993 108666 108339 108012 107685 107358 107031
          106704 106377 106050 105723 105396 105070 104743 104416 104089 103762 103435 103108
          102781 102454 102127 101800 101473 101149
        </DataArray>
        <DataArray type="Float32" Name="pc" NumberOfComponents="1" format="ascii">
          -85939.7 -85939.7 -85939.7 -85939.7 -85939.7 -85939.7 -85939.7 -85939.7 -85939.7 -85939.7 -85939.7 -85939.7
          -85939.7 -85939.7 -85939.7 -85939.7 -85939.7 -85939.7 -85939.7 -85939.7 -85939.7 -85939.7 -85939.7 -85939.7
          -85939.7 -85939.7 -85939.7 -85939.7 -85939.7 -85939.7
        </DataArray>
        <DataArray type="Float32" Name="rhoL" NumberOfComponents="1" format="ascii">
          999.855 999.855 999.855 999.855 999.855 999.854 999.854 999.854 999.854 999.854 999.854 999.854
          999.853 999.853 999.853 999.853 999.853 999.853 999.852 999.852 999.852 999.852 999.852 999.852
          999.852 999.851 999.851 999.851 999.851 999.851
        </DataArray>
        <DataArray type="Float32" Name="rhoG" NumberOfComponents="1" format="ascii">
          0.30585 0.3018 0.29775 0.293699 0.289649 0.285598 0.281548 0.277498 0.273447 0.269397 0.265347 0.261296
          0.257246 0.253195 0.249145 0.245095 0.241044 0.236994 0.232944 0.228893 0.224843 0.220793 0.216742 0.212692
          0.208641 0.204591 0.200541 0.19649 0.19244 0.188427
        </DataArray>
        <DataArray type="Float32" Name="mobL" NumberOfComponents="1" format="ascii">
          722.171 722.17 722.17 722.17 722.17 722.17 722.169 722.169 722.169 722.169 722.169 722.169
          722.168 722.168 722.168 722.168 722.168 722.167 722.167 722.167 722.167 722.167 722.166 722.166
          722.166 722.166 722.166 722.166 722.165 722.165
        </DataArray>
        <DataArray type="Float32" Name="mobG" NumberOfComponents="1" format="ascii">
          0 0 0 0 0 0 0 0 0 0 0 0
          0 0 0 0 0 0 0 0 0 0 0 0
          0 0 0 0 0 0
        </DataArray>
        <DataArray type="Float32" Name="porosity" NumberOfComponents="1" format="ascii">
          0.298833 0.298833 0.298833 0.298833 0.298833 0.298832 0.298832 0.298831 0.29883 0.298829 0.298827 0.298824
          0.298821 0.298816 0.298809 0.298799 0.298786 0.298768 0.298743 0.298708 0.298661 0.298593 0.298495 0.298347
          0.297843 0.297436 0.296616 0.294438 0.28364 0.0449312
        </DataArray>
        <DataArray type="Float32" Name="temperature" NumberOfComponents="1" format="ascii">
          281.15 281.15 281.15 281.15 281.15 281.15 281.15 281.15 281.15 281.15 281.15 281.15
          281.15 281.15 281.15 281.15 281.15 281.15 281.15 281.15 281.15 281.15 281.15 281.15
          281.15 281.15 281.15 281.15 281.15 281.15
        </DataArray>
        <DataArray type="Float32" Name="phase presence" NumberOfComponents="1" format="ascii">
          1 1 1 1 1 1 1 1 1 1 1 1
          1 1 1 1 1 1 1 1 1 1 1 1
          1 1 1 1 1 1
        </DataArray>
        <DataArray type="Float32" Name="precipitateVolumeFraction_au" NumberOfComponents="1" format="ascii">
          5.52669e-10 5.52505e-10 5.52744e-10 5.52783e-10 5.5277e-10 5.52721e-10 5.52756e-10 5.52723e-10 5.5279e-10 5.52774e-10 5.52783e-10 5.52757e-10
          5.52717e-10 5.52532e-10 5.52773e-10 5.52768e-10 5.52757e-10 5.52773e-10 5.52733e-10 5.52742e-10 5.52758e-10 5.52759e-10 5.53028e-10 1.2175e-09
          0.000269941 0.000269925 0.0002699 0.000269852 5.52189e-10 5.51645e-10
        </DataArray>
        <DataArray type="Float32" Name="precipitateVolumeFraction_nanoAu" NumberOfComponents="1" format="ascii">
          1.23625e-13 1.23588e-13 1.23642e-13 1.2365e-13 1.23647e-13 1.23636e-13 1.23644e-13 1.23637e-13 1.23652e-13 1.23648e-13 1.2365e-13 1.23643e-13
          1.23634e-13 1.23592e-13 1.23645e-13 1.23643e-13 1.23639e-13 1.23641e-13 1.23629e-13 1.23627e-13 1.23625e-13 1.23625e-13 1.34923e-13 2.57855e-11
          6.03609e-08 7.6683e-08 1.02147e-07 1.45576e-07 4.74229e-13 4.67878e-13
        </DataArray>
        <DataArray type="Float32" Name="precipitateVolumeFraction_d" NumberOfComponents="1" format="ascii">
          0.000583371 0.000583412 0.00058347 0.000583553 0.000583671 0.000583839 0.000584077 0.000584415 0.000584893 0.000585565 0.000586507 0.000587823
          0.000589653 0.000592187 0.000595683 0.000600491 0.000607092 0.000616148 0.000628591 0.000645771 0.000669708 0.000703568 0.000752618 0.000826319
          0.00094345 0.00114701 0.00155678 0.00264599 0.00817998 0.127534
        </DataArray>
        <DataArray type="Float32" Name="precipitateVolumeFraction_p" NumberOfComponents="1" format="ascii">
          0.000583371 0.000583412 0.00058347 0.000583553 0.000583671 0.000583839 0.000584077 0.000584415 0.000584893 0.000585565 0.000586507 0.000587823
          0.000589653 0.000592187 0.000595683 0.000600491 0.000607092 0.000616148 0.000628591 0.000645771 0.000669708 0.000703568 0.000752618 0.000826319
          0.00094345 0.00114701 0.00155678 0.00264599 0.00817998 0.127534
        </DataArray>
        <DataArray type="Float32" Name="K" NumberOfComponents="1" format="ascii">
          9.85091e-11 9.8509e-11 9.85089e-11 9.85087e-11 9.85084e-11 9.85079e-11 9.85073e-11 9.85065e-11 9.85053e-11 9.85036e-11 9.85012e-11 9.84978e-11
          9.84932e-11 9.84867e-11 9.84779e-11 9.84657e-11 9.84489e-11 9.84259e-11 9.83943e-11 9.83507e-11 9.829e-11 9.82042e-11 9.808e-11 9.78937e-11
          9.72583e-11 9.67478e-11 9.57268e-11 9.30558e-11 8.06998e-11 1.80471e-13
        </DataArray>
        <DataArray type="Float32" Name="X^w_H2O" NumberOfComponents="1" format="ascii">
          0.999853 0.999853 0.999853 0.999853 0.999853 0.999853 0.999853 0.999853 0.999853 0.999853 0.999853 0.999853
          0.999853 0.999853 0.999853 0.999853 0.999853 0.999853 0.999853 0.999853 0.999853 0.999853 0.999853 0.999853
          0.999853 0.999852 0.99985 0.999846 0.999839 0.999839
        </DataArray>
        <DataArray type="Float32" Name="X^w_Air" NumberOfComponents="1" format="ascii">
          0 0 0 0 0 0 0 0 0 0 0 0
          0 0 0 0 0 0 0 0 0 0 0 0
          0 0 0 0 0 0
        </DataArray>
        <DataArray type="Float32" Name="X^w_AuComplex" NumberOfComponents="1" format="ascii">
          1.41043e-16 1.41001e-16 1.41062e-16 1.41072e-16 1.41069e-16 1.41056e-16 1.41065e-16 1.41057e-16 1.41074e-16 1.41069e-16 1.41071e-16 1.41064e-16
          1.41053e-16 1.41004e-16 1.41064e-16 1.41061e-16 1.41055e-16 1.41055e-16 1.41039e-16 1.41033e-16 1.41025e-16 1.41017e-16 1.53814e-16 2.93973e-14
          6.88313e-11 1.07368e-10 1.84407e-10 3.6405e-10 1.83611e-15 1.79185e-15
        </DataArray>
        <DataArray type="Float32" Name="X^w_nanoAu" NumberOfComponents="1" format="ascii">
          3.3901e-19 3.38911e-19 3.39057e-19 3.3908e-19 3.39072e-19 3.39042e-19 3.39063e-19 3.39043e-19 3.39084e-19 3.39073e-19 3.39078e-19 3.39061e-19
          3.39034e-19 3.38921e-19 3.39065e-19 3.39058e-19 3.39046e-19 3.39049e-19 3.39015e-19 3.39009e-19 3.39381e-19 3.95143e-19 8.56754e-18 1.20166e-15
          1.65804e-13 2.10708e-13 2.80779e-13 3.96135e-13 1.29724e-18 1.25735e-18
        </DataArray>
        <DataArray type="Float32" Name="X^w_cyanide" NumberOfComponents="1" format="ascii">
          5.07006e-06 5.07006e-06 5.07006e-06 5.07006e-06 5.07006e-06 5.07006e-06 5.07006e-06 5.07006e-06 5.07005e-06 5.07005e-06 5.07004e-06 5.07003e-06
          5.07001e-06 5.06999e-06 5.06996e-06 5.06991e-06 5.06985e-06 5.06977e-06 5.06966e-06 5.06949e-06 5.06927e-06 5.06894e-06 5.06846e-06 5.06774e-06
          5.06708e-06 6.43678e-06 8.57265e-06 1.22389e-05 1.94669e-05 1.92517e-05
        </DataArray>
        <DataArray type="Float32" Name="X^w_citrate" NumberOfComponents="1" format="ascii">
          0.000141796 0.000141796 0.000141796 0.000141796 0.000141796 0.000141796 0.000141796 0.000141796 0.000141796 0.000141796 0.000141796 0.000141796
          0.000141796 0.000141795 0.000141795 0.000141795 0.000141794 0.000141794 0.000141793 0.000141792 0.00014179 0.000141788 0.000141784 0.000141779
          0.00014177 0.000141757 0.000141732 0.000141672 0.000141475 0.000139911
        </DataArray>
        <DataArray type="Float32" Name="X^w_substrate" NumberOfComponents="1" format="ascii">
          1.03158e-11 1.38861e-11 1.86909e-11 2.51567e-11 3.38576e-11 4.55664e-11 6.13237e-11 8.25316e-11 1.11081e-10 1.49525e-10 2.01315e-10 2.71133e-10
          3.65344e-10 4.92641e-10 6.6497e-10 8.9887e-10 1.21748e-09 1.65362e-09 2.25459e-09 3.09021e-09 4.26638e-09 5.94974e-09 8.41499e-09 1.21433e-08
          1.80479e-08 2.80635e-08 4.69901e-08 8.9986e-08 2.29858e-07 1.33293e-06
        </DataArray>
        <DataArray type="Float32" Name="m^w_H2O" NumberOfComponents="1" format="ascii">
          55492.6 55492.6 55492.5 55492.5 55492.5 55492.5 55492.5 55492.5 55492.5 55492.5 55492.5 55492.5
          55492.5 55492.4 55492.4 55492.4 55492.4 55492.4 55492.4 55492.4 55492.4 55492.4 55492.4 55492.4
          55492.3 55492.3 55492.1 55491.9 55491.5 55491.5
        </DataArray>
        <DataArray type="Float32" Name="m^w_Air" NumberOfComponents="1" format="ascii">
          0 0 0 0 0 0 0 0 0 0 0 0
          0 0 0 0 0 0 0 0 0 0 0 0
          0 0 0 0 0 0
        </DataArray>
        <DataArray type="Float32" Name="m^w_AuComplex" NumberOfComponents="1" format="ascii">
          7.1596e-13 7.15748e-13 7.16057e-13 7.16107e-13 7.1609e-13 7.16026e-13 7.16071e-13 7.16028e-13 7.16114e-13 7.16091e-13 7.16101e-13 7.16063e-13
          7.16007e-13 7.15762e-13 7.16065e-13 7.16048e-13 7.16017e-13 7.16017e-13 7.15935e-13 7.15904e-13 7.15866e-13 7.15825e-13 7.80787e-13 1.49225e-10
          3.49399e-07 5.45016e-07 9.36079e-07 1.84798e-06 9.3204e-12 9.0957e-12
        </DataArray>
        <DataArray type="Float32" Name="m^w_nanoAu" NumberOfComponents="1" format="ascii">
          1.72088e-15 1.72037e-15 1.72111e-15 1.72123e-15 1.72119e-15 1.72104e-15 1.72114e-15 1.72104e-15 1.72125e-15 1.72119e-15 1.72122e-15 1.72113e-15
          1.721e-15 1.72042e-15 1.72115e-15 1.72112e-15 1.72105e-15 1.72107e-15 1.7209e-15 1.72087e-15 1.72275e-15 2.00581e-15 4.34902e-14 6.09983e-12
          8.41646e-10 1.06959e-09 1.42528e-09 2.01084e-09 6.585e-15 6.38248e-15
        </DataArray>
        <DataArray type="Float32" Name="m^w_cyanide" NumberOfComponents="1" format="ascii">
          0.194824 0.194824 0.194824 0.194824 0.194824 0.194824 0.194824 0.194824 0.194824 0.194823 0.194823 0.194823
          0.194822 0.194821 0.19482 0.194818 0.194816 0.194813 0.194808 0.194802 0.194793 0.194781 0.194762 0.194734
          0.194709 0.247341 0.329415 0.470296 0.748041 0.739771
        </DataArray>
        <DataArray type="Float32" Name="m^w_citrate" NumberOfComponents="1" format="ascii">
          0.749742 0.749742 0.749742 0.749742 0.749742 0.749741 0.749741 0.749741 0.749741 0.74974 0.74974 0.749739
          0.749738 0.749737 0.749736 0.749734 0.749731 0.749728 0.749723 0.749717 0.749708 0.749695 0.749677 0.749649
          0.749604 0.749534 0.749398 0.749083 0.748044 0.739772
        </DataArray>
        <DataArray type="Float32" Name="m^w_substrate" NumberOfComponents="1" format="ascii">
          5.72509e-08 7.70655e-08 1.03731e-07 1.39615e-07 1.87904e-07 2.52885e-07 3.40335e-07 4.58035e-07 6.16478e-07 8.29834e-07 1.11726e-06 1.50474e-06
          2.02759e-06 2.73406e-06 3.69045e-06 4.98856e-06 6.75679e-06 9.17724e-06 1.25125e-05 1.71501e-05 2.36776e-05 3.30199e-05 4.67015e-05 6.73927e-05
          0.000100162 0.000155747 0.000260786 0.000499404 0.00127567 0.00739749
        </DataArray>
        <DataArray type="Float32" Name="process rank" NumberOfComponents="1" format="ascii">
          0 0 0 0 0 0 0 0 0 0 0 0
          0 0 0 0 0 0 0 0 0 0 0 0
          0 0 0 0 0 0
        </DataArray>
      </CellData>
      <Points>
        <DataArray type="Float32" Name="Coordinates" NumberOfComponents="3" format="ascii">
          0 0 0 0.5 0 0 0 0.0333333 0 0.5 0.0333333 0
          0 0.0666667 0 0.5 0.0666667 0 0 0.1 0 0.5 0.1 0
          0 0.133333 0 0.5 0.133333 0 0 0.166667 0 0.5 0.166667 0
          0 0.2 0 0.5 0.2 0 0 0.233333 0 0.5 0.233333 0
          0 0.266667 0 0.5 0.266667 0 0 0.3 0 0.5 0.3 0
          0 0.333333 0 0.5 0.333333 0 0 0.366667 0 0.5 0.366667 0
          0 0.4 0 0.5 0.4 0 0 0.433333 0 0.5 0.433333 0
          0 0.466667 0 0.5 0.466667 0 0 0.5 0 0.5 0.5 0
          0 0.533333 0 0.5 0.533333 0 0 0.566667 0 0.5 0.566667 0
          0 0.6 0 0.5 0.6 0 0 0.633333 0 0.5 0.633333 0
          0 0.666667 0 0.5 0.666667 0 0 0.7 0 0.5 0.7 0
          0 0.733333 0 0.5 0.733333 0 0 0.766667 0 0.5 0.766667 0
          0 0.8 0 0.5 0.8 0 0 0.833333 0 0.5 0.833333 0
          0 0.866667 0 0.5 0.866667 0 0 0.9 0 0.5 0.9 0
          0 0.933333 0 0.5 0.933333 0 0 0.966667 0 0.5 0.966667 0
          0 1 0 0.5 1 0
        </DataArray>
      </Points>
      <Cells>
        <DataArray type="Int32" Name="connectivity" NumberOfComponents="1" format="ascii">
          0 1 3 2 2 3 5 4 4 5 7 6
          6 7 9 8 8 9 11 10 10 11 13 12
          12 13 15 14 14 15 17 16 16 17 19 18
          18 19 21 20 20 21 23 22 22 23 25 24
          24 25 27 26 26 27 29 28 28 29 31 30
          30 31 33 32 32 33 35 34 34 35 37 36
          36 37 39 38 38 39 41 40 40 41 43 42
          42 43 45 44 44 45 47 46 46 47 49 48
          48 49 51 50 50 51 53 52 52 53 55 54
          54 55 57 56 56 57 59 58 58 59 61 60
        </DataArray>
        <DataArray type="Int32" Name="offsets" NumberOfComponents="1" format="ascii">
          4 8 12 16 20 24 28 32 36 40 44 48
          52 56 60 64 68 72 76 80 84 88 92 96
          100 104 108 112 116 120
        </DataArray>
        <DataArray type="UInt8" Name="types" NumberOfComponents="1" format="ascii">
          9 9 9 9 9 9 9 9 9 9 9 9
          9 9 9 9 9 9 9 9 9 9 9 9
          9 9 9 9 9 9
        </DataArray>
      </Cells>
    </Piece>
  </UnstructuredGrid>
</VTKFile>
