<?xml version="1.0"?>
<VTKFile type="UnstructuredGrid" version="0.1" byte_order="LittleEndian">
  <UnstructuredGrid>
    <Piece NumberOfCells="30" NumberOfPoints="62">
      <CellData Scalars="Sg">
        <DataArray type="Float32" Name="Sg" NumberOfComponents="1" format="ascii">
          0 0 0 0 0 0 0 0 0 0 0 0
          0 0 0 0 0 0 0 0 0 0 0 0
          0 0 0 0 0 0
        </DataArray>
        <DataArray type="Float32" Name="Sl" NumberOfComponents="1" format="ascii">
          1 1 1 1 1 1 1 1 1 1 1 1
          1 1 1 1 1 1 1 1 1 1 1 1
          1 1 1 1 1 1
        </DataArray>
        <DataArray type="Float32" Name="pg" NumberOfComponents="1" format="ascii">
          24687.8 24360.9 24034 23707 23380.1 23053.1 22726.2 22399.3 22072.3 21745.4 21418.4 21091.5
          20764.6 20437.6 20110.7 19783.7 19456.8 19129.8 18802.9 18476 18149 17822.1 17495.1 17168.2
          16841.3 16514.3 16187.4 15860.4 15533.5 15209.1
        </DataArray>
        <DataArray type="Float32" Name="pl" NumberOfComponents="1" format="ascii">
          110628 110301 109974 109647 109320 108993 108666 108339 108012 107685 107358 107031
          106704 106377 106050 105723 105396 105070 104743 104416 104089 103762 103435 103108
          102781 102454 102127 101800 101473 101149
        </DataArray>
        <DataArray type="Float32" Name="pc" NumberOfComponents="1" format="ascii">
          -85939.7 -85939.7 -85939.7 -85939.7 -85939.7 -85939.7 -85939.7 -85939.7 -85939.7 -85939.7 -85939.7 -85939.7
          -85939.7 -85939.7 -85939.7 -85939.7 -85939.7 -85939.7 -85939.7 -85939.7 -85939.7 -85939.7 -85939.7 -85939.7
          -85939.7 -85939.7 -85939.7 -85939.7 -85939.7 -85939.7
        </DataArray>
        <DataArray type="Float32" Name="rhoL" NumberOfComponents="1" format="ascii">
          999.855 999.855 999.855 999.855 999.855 999.854 999.854 999.854 999.854 999.854 999.854 999.854
          999.853 999.853 999.853 999.853 999.853 999.853 999.852 999.852 999.852 999.852 999.852 999.852
          999.852 999.851 999.851 999.851 999.851 999.851
        </DataArray>
        <DataArray type="Float32" Name="rhoG" NumberOfComponents="1" format="ascii">
          0.30585 0.3018 0.29775 0.293699 0.289649 0.285598 0.281548 0.277498 0.273447 0.269397 0.265347 0.261296
          0.257246 0.253195 0.249145 0.245095 0.241044 0.236994 0.232944 0.228893 0.224843 0.220793 0.216742 0.212692
          0.208641 0.204591 0.200541 0.19649 0.19244 0.188421
        </DataArray>
        <DataArray type="Float32" Name="mobL" NumberOfComponents="1" format="ascii">
          722.171 722.17 722.17 722.17 722.17 722.17 722.169 722.169 722.169 722.169 722.169 722.169
          722.168 722.168 722.168 722.168 722.168 722.167 722.167 722.167 722.167 722.167 722.166 722.166
          722.166 722.166 722.166 722.166 722.165 722.165
        </DataArray>
        <DataArray type="Float32" Name="mobG" NumberOfComponents="1" format="ascii">
          0 0 0 0 0 0 0 0 0 0 0 0
          0 0 0 0 0 0 0 0 0 0 0 0
          0 0 0 0 0 0
        </DataArray>
        <DataArray type="Float32" Name="porosity" NumberOfComponents="1" format="ascii">
          0.298745 0.298744 0.298744 0.298744 0.298744 0.298744 0.298743 0.298742 0.298741 0.29874 0.298738 0.298735
          0.298731 0.298726 0.298718 0.298708 0.298694 0.298675 0.298649 0.298613 0.298562 0.298491 0.298388 0.298234
          0.29772 0.297301 0.29647 0.294324 0.284371 0.0477302
        </DataArray>
        <DataArray type="Float32" Name="temperature" NumberOfComponents="1" format="ascii">
          281.15 281.15 281.15 281.15 281.15 281.15 281.15 281.15 281.15 281.15 281.15 281.15
          281.15 281.15 281.15 281.15 281.15 281.15 281.15 281.15 281.15 281.15 281.15 281.15
          281.15 281.15 281.15 281.15 281.15 281.15
        </DataArray>
        <DataArray type="Float32" Name="phase presence" NumberOfComponents="1" format="ascii">
          1 1 1 1 1 1 1 1 1 1 1 1
          1 1 1 1 1 1 1 1 1 1 1 1
          1 1 1 1 1 1
        </DataArray>
        <DataArray type="Float32" Name="precipitateVolumeFraction_au" NumberOfComponents="1" format="ascii">
          5.52669e-10 5.52505e-10 5.52744e-10 5.52783e-10 5.5277e-10 5.52721e-10 5.52756e-10 5.52723e-10 5.5279e-10 5.52774e-10 5.52783e-10 5.52757e-10
          5.52717e-10 5.52532e-10 5.52773e-10 5.52768e-10 5.52757e-10 5.52773e-10 5.52733e-10 5.52742e-10 5.52758e-10 5.52759e-10 5.5295e-10 1.04112e-09
          0.00026994 0.000269924 0.0002699 0.000269852 5.52189e-10 5.51649e-10
        </DataArray>
        <DataArray type="Float32" Name="precipitateVolumeFraction_nanoAu" NumberOfComponents="1" format="ascii">
          1.23643e-13 1.23606e-13 1.23659e-13 1.23668e-13 1.23665e-13 1.23654e-13 1.23661e-13 1.23654e-13 1.23668e-13 1.23664e-13 1.23666e-13 1.2366e-13
          1.2365e-13 1.23608e-13 1.23662e-13 1.23659e-13 1.23655e-13 1.23657e-13 1.23646e-13 1.23644e-13 1.23642e-13 1.23642e-13 1.34914e-13 2.5756e-11
          6.0368e-08 7.6691e-08 1.02154e-07 1.45578e-07 4.74169e-13 4.67788e-13
        </DataArray>
        <DataArray type="Float32" Name="precipitateVolumeFraction_d" NumberOfComponents="1" format="ascii">
          0.000627735 0.000627778 0.000627838 0.000627925 0.00062805 0.000628227 0.000628478 0.000628835 0.00062934 0.000630051 0.000631048 0.000632441
          0.000634379 0.000637063 0.000640767 0.000645861 0.000652851 0.000662434 0.000675593 0.00069374 0.000718984 0.000754617 0.000806085 0.000883105
          0.00100479 0.00121436 0.00162988 0.00270307 0.00781453 0.126135
        </DataArray>
        <DataArray type="Float32" Name="precipitateVolumeFraction_p" NumberOfComponents="1" format="ascii">
          0.000627735 0.000627778 0.000627838 0.000627925 0.00062805 0.000628227 0.000628478 0.000628835 0.00062934 0.000630051 0.000631048 0.000632441
          0.000634379 0.000637063 0.000640767 0.000645861 0.000652851 0.000662434 0.000675593 0.00069374 0.000718984 0.000754617 0.000806085 0.000883105
          0.00100479 0.00121436 0.00162988 0.00270307 0.00781453 0.126135
        </DataArray>
        <DataArray type="Float32" Name="K" NumberOfComponents="1" format="ascii">
          9.83965e-11 9.83964e-11 9.83962e-11 9.8396e-11 9.83957e-11 9.83953e-11 9.83946e-11 9.83937e-11 9.83924e-11 9.83906e-11 9.83881e-11 9.83846e-11
          9.83796e-11 9.83728e-11 9.83634e-11 9.83505e-11 9.83328e-11 9.83085e-11 9.82751e-11 9.82291e-11 9.81652e-11 9.8075e-11 9.79448e-11 9.77503e-11
          9.71042e-11 9.65794e-11 9.55456e-11 9.29176e-11 8.14914e-11 2.17616e-13
        </DataArray>
        <DataArray type="Float32" Name="X^w_H2O" NumberOfComponents="1" format="ascii">
          0.999853 0.999853 0.999853 0.999853 0.999853 0.999853 0.999853 0.999853 0.999853 0.999853 0.999853 0.999853
          0.999853 0.999853 0.999853 0.999853 0.999853 0.999853 0.999853 0.999853 0.999853 0.999853 0.999853 0.999853
          0.999853 0.999852 0.99985 0.999846 0.999839 0.999839
        </DataArray>
        <DataArray type="Float32" Name="X^w_Air" NumberOfComponents="1" format="ascii">
          0 0 0 0 0 0 0 0 0 0 0 0
          0 0 0 0 0 0 0 0 0 0 0 0
          0 0 0 0 0 0
        </DataArray>
        <DataArray type="Float32" Name="X^w_AuComplex" NumberOfComponents="1" format="ascii">
          1.41074e-16 1.41032e-16 1.41092e-16 1.41102e-16 1.41099e-16 1.41086e-16 1.41094e-16 1.41085e-16 1.41102e-16 1.41097e-16 1.41099e-16 1.41092e-16
          1.4108e-16 1.41032e-16 1.41092e-16 1.41089e-16 1.41083e-16 1.41083e-16 1.41067e-16 1.41061e-16 1.41054e-16 1.41047e-16 1.53816e-16 2.93656e-14
          6.88447e-11 1.07386e-10 1.84429e-10 3.64055e-10 1.83568e-15 1.79126e-15
        </DataArray>
        <DataArray type="Float32" Name="X^w_nanoAu" NumberOfComponents="1" format="ascii">
          3.39059e-19 3.3896e-19 3.39105e-19 3.39128e-19 3.3912e-19 3.39089e-19 3.3911e-19 3.3909e-19 3.3913e-19 3.39119e-19 3.39123e-19 3.39106e-19
          3.39079e-19 3.38966e-19 3.3911e-19 3.39103e-19 3.39091e-19 3.39094e-19 3.39061e-19 3.39056e-19 3.39428e-19 3.95211e-19 8.56959e-18 1.20184e-15
          1.65824e-13 2.10731e-13 2.80797e-13 3.96126e-13 1.29693e-18 1.25691e-18
        </DataArray>
        <DataArray type="Float32" Name="X^w_cyanide" NumberOfComponents="1" format="ascii">
          5.07055e-06 5.07054e-06 5.07054e-06 5.07053e-06 5.07053e-06 5.07052e-06 5.07052e-06 5.07051e-06 5.07051e-06 5.0705e-06 5.07049e-06 5.07047e-06
          5.07045e-06 5.07043e-06 5.0704e-06 5.07036e-06 5.0703e-06 5.07022e-06 5.07011e-06 5.06996e-06 5.06974e-06 5.06943e-06 5.06896e-06 5.06823e-06
          5.06756e-06 6.43731e-06 8.57315e-06 1.2239e-05 1.94647e-05 1.92488e-05
        </DataArray>
        <DataArray type="Float32" Name="X^w_citrate" NumberOfComponents="1" format="ascii">
          0.000141796 0.000141796 0.000141796 0.000141796 0.000141796 0.000141796 0.000141796 0.000141796 0.000141796 0.000141796 0.000141796 0.000141796
          0.000141796 0.000141796 0.000141795 0.000141795 0.000141795 0.000141794 0.000141793 0.000141792 0.000141791 0.000141788 0.000141785 0.00014178
          0.000141771 0.000141758 0.000141731 0.000141667 0.000141459 0.00013989
        </DataArray>
        <DataArray type="Float32" Name="X^w_substrate" NumberOfComponents="1" format="ascii">
          6.23942e-12 8.56118e-12 1.17461e-11 1.61149e-11 2.21074e-11 3.03275e-11 4.16034e-11 5.7073e-11 7.83e-11 1.07436e-10 1.47445e-10 2.02423e-10
          2.78042e-10 3.82194e-10 5.25918e-10 7.24771e-10 1.0009e-09 1.38621e-09 1.9275e-09 2.69482e-09 3.79603e-09 5.40308e-09 7.80294e-09 1.15038e-08
          1.7479e-08 2.78053e-08 4.76518e-08 9.32869e-08 2.41381e-07 1.34771e-06
        </DataArray>
        <DataArray type="Float32" Name="m^w_H2O" NumberOfComponents="1" format="ascii">
          55492.6 55492.6 55492.5 55492.5 55492.5 55492.5 55492.5 55492.5 55492.5 55492.5 55492.5 55492.5
          55492.5 55492.4 55492.4 55492.4 55492.4 55492.4 55492.4 55492.4 55492.4 55492.4 55492.4 55492.4
          55492.3 55492.3 55492.1 55491.9 55491.5 55491.5
        </DataArray>
        <DataArray type="Float32" Name="m^w_Air" NumberOfComponents="1" format="ascii">
          0 0 0 0 0 0 0 0 0 0 0 0
          0 0 0 0 0 0 0 0 0 0 0 0
          0 0 0 0 0 0
        </DataArray>
        <DataArray type="Float32" Name="m^w_AuComplex" NumberOfComponents="1" format="ascii">
          7.16117e-13 7.15903e-13 7.16211e-13 7.1626e-13 7.16241e-13 7.16176e-13 7.16219e-13 7.16175e-13 7.1626e-13 7.16235e-13 7.16244e-13 7.16206e-13
          7.16149e-13 7.15903e-13 7.16207e-13 7.16189e-13 7.16159e-13 7.1616e-13 7.1608e-13 7.16051e-13 7.16015e-13 7.15976e-13 7.80793e-13 1.49065e-10
          3.49467e-07 5.4511e-07 9.36192e-07 1.848e-06 9.31821e-12 9.09271e-12
        </DataArray>
        <DataArray type="Float32" Name="m^w_nanoAu" NumberOfComponents="1" format="ascii">
          1.72113e-15 1.72062e-15 1.72136e-15 1.72148e-15 1.72143e-15 1.72128e-15 1.72138e-15 1.72128e-15 1.72148e-15 1.72143e-15 1.72145e-15 1.72136e-15
          1.72122e-15 1.72065e-15 1.72138e-15 1.72134e-15 1.72128e-15 1.7213e-15 1.72113e-15 1.7211e-15 1.72299e-15 2.00615e-15 4.35007e-14 6.10073e-12
          8.4175e-10 1.0697e-09 1.42537e-09 2.0108e-09 6.5834e-15 6.3803e-15
        </DataArray>
        <DataArray type="Float32" Name="m^w_cyanide" NumberOfComponents="1" format="ascii">
          0.194843 0.194843 0.194843 0.194842 0.194842 0.194842 0.194842 0.194841 0.194841 0.194841 0.19484 0.19484
          0.194839 0.194838 0.194837 0.194835 0.194833 0.19483 0.194826 0.19482 0.194811 0.194799 0.194781 0.194753
          0.194727 0.247362 0.329434 0.470297 0.747954 0.73966
        </DataArray>
        <DataArray type="Float32" Name="m^w_citrate" NumberOfComponents="1" format="ascii">
          0.749742 0.749742 0.749742 0.749742 0.749742 0.749742 0.749741 0.749741 0.749741 0.74974 0.74974 0.74974
          0.749739 0.749738 0.749737 0.749735 0.749733 0.74973 0.749726 0.74972 0.749712 0.749699 0.749681 0.749653
          0.749608 0.749536 0.749393 0.749058 0.747957 0.739661
        </DataArray>
        <DataArray type="Float32" Name="m^w_substrate" NumberOfComponents="1" format="ascii">
          3.46277e-08 4.7513e-08 6.51886e-08 8.94345e-08 1.22692e-07 1.68312e-07 2.30891e-07 3.16744e-07 4.3455e-07 5.96248e-07 8.18292e-07 1.12341e-06
          1.54308e-06 2.12111e-06 2.91874e-06 4.02234e-06 5.55477e-06 7.69319e-06 1.06972e-05 1.49557e-05 2.10672e-05 2.9986e-05 4.33048e-05 6.38436e-05
          9.7005e-05 0.000154314 0.000264458 0.000517723 0.00133961 0.00747954
        </DataArray>
        <DataArray type="Float32" Name="process rank" NumberOfComponents="1" format="ascii">
          0 0 0 0 0 0 0 0 0 0 0 0
          0 0 0 0 0 0 0 0 0 0 0 0
          0 0 0 0 0 0
        </DataArray>
      </CellData>
      <Points>
        <DataArray type="Float32" Name="Coordinates" NumberOfComponents="3" format="ascii">
          0 0 0 0.5 0 0 0 0.0333333 0 0.5 0.0333333 0
          0 0.0666667 0 0.5 0.0666667 0 0 0.1 0 0.5 0.1 0
          0 0.133333 0 0.5 0.133333 0 0 0.166667 0 0.5 0.166667 0
          0 0.2 0 0.5 0.2 0 0 0.233333 0 0.5 0.233333 0
          0 0.266667 0 0.5 0.266667 0 0 0.3 0 0.5 0.3 0
          0 0.333333 0 0.5 0.333333 0 0 0.366667 0 0.5 0.366667 0
          0 0.4 0 0.5 0.4 0 0 0.433333 0 0.5 0.433333 0
          0 0.466667 0 0.5 0.466667 0 0 0.5 0 0.5 0.5 0
          0 0.533333 0 0.5 0.533333 0 0 0.566667 0 0.5 0.566667 0
          0 0.6 0 0.5 0.6 0 0 0.633333 0 0.5 0.633333 0
          0 0.666667 0 0.5 0.666667 0 0 0.7 0 0.5 0.7 0
          0 0.733333 0 0.5 0.733333 0 0 0.766667 0 0.5 0.766667 0
          0 0.8 0 0.5 0.8 0 0 0.833333 0 0.5 0.833333 0
          0 0.866667 0 0.5 0.866667 0 0 0.9 0 0.5 0.9 0
          0 0.933333 0 0.5 0.933333 0 0 0.966667 0 0.5 0.966667 0
          0 1 0 0.5 1 0
        </DataArray>
      </Points>
      <Cells>
        <DataArray type="Int32" Name="connectivity" NumberOfComponents="1" format="ascii">
          0 1 3 2 2 3 5 4 4 5 7 6
          6 7 9 8 8 9 11 10 10 11 13 12
          12 13 15 14 14 15 17 16 16 17 19 18
          18 19 21 20 20 21 23 22 22 23 25 24
          24 25 27 26 26 27 29 28 28 29 31 30
          30 31 33 32 32 33 35 34 34 35 37 36
          36 37 39 38 38 39 41 40 40 41 43 42
          42 43 45 44 44 45 47 46 46 47 49 48
          48 49 51 50 50 51 53 52 52 53 55 54
          54 55 57 56 56 57 59 58 58 59 61 60
        </DataArray>
        <DataArray type="Int32" Name="offsets" NumberOfComponents="1" format="ascii">
          4 8 12 16 20 24 28 32 36 40 44 48
          52 56 60 64 68 72 76 80 84 88 92 96
          100 104 108 112 116 120
        </DataArray>
        <DataArray type="UInt8" Name="types" NumberOfComponents="1" format="ascii">
          9 9 9 9 9 9 9 9 9 9 9 9
          9 9 9 9 9 9 9 9 9 9 9 9
          9 9 9 9 9 9
        </DataArray>
      </Cells>
    </Piece>
  </UnstructuredGrid>
</VTKFile>
