<?xml version="1.0"?>
<VTKFile type="UnstructuredGrid" version="0.1" byte_order="LittleEndian">
  <UnstructuredGrid>
    <Piece NumberOfCells="30" NumberOfPoints="62">
      <CellData Scalars="Sg">
        <DataArray type="Float32" Name="Sg" NumberOfComponents="1" format="ascii">
          0 0 0 0 0 0 0 0 0 0 0 0
          0 0 0 0 0 0 0 0 0 0 0 0
          0 0 0 0 0 0
        </DataArray>
        <DataArray type="Float32" Name="Sl" NumberOfComponents="1" format="ascii">
          1 1 1 1 1 1 1 1 1 1 1 1
          1 1 1 1 1 1 1 1 1 1 1 1
          1 1 1 1 1 1
        </DataArray>
        <DataArray type="Float32" Name="pg" NumberOfComponents="1" format="ascii">
          24687.8 24360.9 24034 23707 23380.1 23053.1 22726.2 22399.3 22072.3 21745.4 21418.4 21091.5
          20764.6 20437.6 20110.7 19783.7 19456.8 19129.8 18802.9 18476 18149 17822.1 17495.1 17168.2
          16841.3 16514.3 16187.4 15860.4 15533.5 15209.4
        </DataArray>
        <DataArray type="Float32" Name="pl" NumberOfComponents="1" format="ascii">
          110628 110301 109974 109647 109320 108993 108666 108339 108012 107685 107358 107031
          106704 106377 106050 105723 105396 105070 104743 104416 104089 103762 103435 103108
          102781 102454 102127 101800 101473 101149
        </DataArray>
        <DataArray type="Float32" Name="pc" NumberOfComponents="1" format="ascii">
          -85939.7 -85939.7 -85939.7 -85939.7 -85939.7 -85939.7 -85939.7 -85939.7 -85939.7 -85939.7 -85939.7 -85939.7
          -85939.7 -85939.7 -85939.7 -85939.7 -85939.7 -85939.7 -85939.7 -85939.7 -85939.7 -85939.7 -85939.7 -85939.7
          -85939.7 -85939.7 -85939.7 -85939.7 -85939.7 -85939.7
        </DataArray>
        <DataArray type="Float32" Name="rhoL" NumberOfComponents="1" format="ascii">
          999.855 999.855 999.855 999.855 999.855 999.854 999.854 999.854 999.854 999.854 999.854 999.854
          999.853 999.853 999.853 999.853 999.853 999.853 999.852 999.852 999.852 999.852 999.852 999.852
          999.852 999.851 999.851 999.851 999.851 999.851
        </DataArray>
        <DataArray type="Float32" Name="rhoG" NumberOfComponents="1" format="ascii">
          0.30585 0.3018 0.29775 0.293699 0.289649 0.285598 0.281548 0.277498 0.273447 0.269397 0.265347 0.261296
          0.257246 0.253195 0.249145 0.245095 0.241044 0.236994 0.232944 0.228893 0.224843 0.220793 0.216742 0.212692
          0.208641 0.204591 0.200541 0.19649 0.19244 0.188424
        </DataArray>
        <DataArray type="Float32" Name="mobL" NumberOfComponents="1" format="ascii">
          722.171 722.17 722.17 722.17 722.17 722.17 722.169 722.169 722.169 722.169 722.169 722.169
          722.168 722.168 722.168 722.168 722.168 722.167 722.167 722.167 722.167 722.167 722.166 722.166
          722.166 722.166 722.166 722.166 722.165 722.165
        </DataArray>
        <DataArray type="Float32" Name="mobG" NumberOfComponents="1" format="ascii">
          0 0 0 0 0 0 0 0 0 0 0 0
          0 0 0 0 0 0 0 0 0 0 0 0
          0 0 0 0 0 0
        </DataArray>
        <DataArray type="Float32" Name="porosity" NumberOfComponents="1" format="ascii">
          0.298779 0.298779 0.298778 0.298778 0.298778 0.298778 0.298777 0.298776 0.298775 0.298774 0.298772 0.298769
          0.298766 0.29876 0.298753 0.298743 0.298729 0.298711 0.298685 0.298649 0.2986 0.29853 0.298429 0.298277
          0.297768 0.297353 0.296526 0.294366 0.28408 0.0460813
        </DataArray>
        <DataArray type="Float32" Name="temperature" NumberOfComponents="1" format="ascii">
          281.15 281.15 281.15 281.15 281.15 281.15 281.15 281.15 281.15 281.15 281.15 281.15
          281.15 281.15 281.15 281.15 281.15 281.15 281.15 281.15 281.15 281.15 281.15 281.15
          281.15 281.15 281.15 281.15 281.15 281.15
        </DataArray>
        <DataArray type="Float32" Name="phase presence" NumberOfComponents="1" format="ascii">
          1 1 1 1 1 1 1 1 1 1 1 1
          1 1 1 1 1 1 1 1 1 1 1 1
          1 1 1 1 1 1
        </DataArray>
        <DataArray type="Float32" Name="precipitateVolumeFraction_au" NumberOfComponents="1" format="ascii">
          5.52669e-10 5.52505e-10 5.52744e-10 5.52783e-10 5.5277e-10 5.52721e-10 5.52756e-10 5.52723e-10 5.5279e-10 5.52774e-10 5.52783e-10 5.52757e-10
          5.52717e-10 5.52532e-10 5.52773e-10 5.52768e-10 5.52757e-10 5.52773e-10 5.52733e-10 5.52742e-10 5.52758e-10 5.52759e-10 5.52979e-10 1.10727e-09
          0.000269941 0.000269924 0.0002699 0.000269852 5.52189e-10 5.51648e-10
        </DataArray>
        <DataArray type="Float32" Name="precipitateVolumeFraction_nanoAu" NumberOfComponents="1" format="ascii">
          1.23632e-13 1.23595e-13 1.23648e-13 1.23657e-13 1.23654e-13 1.23643e-13 1.2365e-13 1.23643e-13 1.23658e-13 1.23654e-13 1.23656e-13 1.2365e-13
          1.2364e-13 1.23598e-13 1.23651e-13 1.23649e-13 1.23645e-13 1.23647e-13 1.23636e-13 1.23634e-13 1.23632e-13 1.23632e-13 1.34913e-13 2.57652e-11
          6.03641e-08 7.66867e-08 1.0215e-07 1.45576e-07 4.74196e-13 4.67842e-13
        </DataArray>
        <DataArray type="Float32" Name="precipitateVolumeFraction_d" NumberOfComponents="1" format="ascii">
          0.000610694 0.000610736 0.000610796 0.000610881 0.000611003 0.000611176 0.000611422 0.000611772 0.000612266 0.000612961 0.000613937 0.0006153
          0.000617196 0.000619821 0.000623444 0.000628427 0.000635265 0.000644644 0.000657526 0.000675299 0.000700039 0.000734989 0.000785529 0.00086128
          0.000981238 0.00118856 0.00160207 0.00268216 0.00795981 0.126959
        </DataArray>
        <DataArray type="Float32" Name="precipitateVolumeFraction_p" NumberOfComponents="1" format="ascii">
          0.000610694 0.000610736 0.000610796 0.000610881 0.000611003 0.000611176 0.000611422 0.000611772 0.000612266 0.000612961 0.000613937 0.0006153
          0.000617196 0.000619821 0.000623444 0.000628427 0.000635265 0.000644644 0.000657526 0.000675299 0.000700039 0.000734989 0.000785529 0.00086128
          0.000981238 0.00118856 0.00160207 0.00268216 0.00795981 0.126959
        </DataArray>
        <DataArray type="Float32" Name="K" NumberOfComponents="1" format="ascii">
          9.84398e-11 9.84396e-11 9.84395e-11 9.84393e-11 9.8439e-11 9.84385e-11 9.84379e-11 9.8437e-11 9.84358e-11 9.8434e-11 9.84315e-11 9.84281e-11
          9.84232e-11 9.84166e-11 9.84074e-11 9.83948e-11 9.83774e-11 9.83536e-11 9.83209e-11 9.82759e-11 9.82132e-11 9.81247e-11 9.79968e-11 9.78054e-11
          9.71634e-11 9.66438e-11 9.56145e-11 9.29682e-11 8.1176e-11 1.95157e-13
        </DataArray>
        <DataArray type="Float32" Name="X^w_H2O" NumberOfComponents="1" format="ascii">
          0.999853 0.999853 0.999853 0.999853 0.999853 0.999853 0.999853 0.999853 0.999853 0.999853 0.999853 0.999853
          0.999853 0.999853 0.999853 0.999853 0.999853 0.999853 0.999853 0.999853 0.999853 0.999853 0.999853 0.999853
          0.999853 0.999852 0.99985 0.999846 0.999839 0.999839
        </DataArray>
        <DataArray type="Float32" Name="X^w_Air" NumberOfComponents="1" format="ascii">
          0 0 0 0 0 0 0 0 0 0 0 0
          0 0 0 0 0 0 0 0 0 0 0 0
          0 0 0 0 0 0
        </DataArray>
        <DataArray type="Float32" Name="X^w_AuComplex" NumberOfComponents="1" format="ascii">
          1.41055e-16 1.41013e-16 1.41074e-16 1.41084e-16 1.4108e-16 1.41067e-16 1.41076e-16 1.41068e-16 1.41085e-16 1.4108e-16 1.41082e-16 1.41074e-16
          1.41063e-16 1.41015e-16 1.41075e-16 1.41072e-16 1.41066e-16 1.41066e-16 1.4105e-16 1.41044e-16 1.41037e-16 1.41029e-16 1.53807e-16 2.9375e-14
          6.88374e-11 1.07376e-10 1.84417e-10 3.64051e-10 1.83588e-15 1.79161e-15
        </DataArray>
        <DataArray type="Float32" Name="X^w_nanoAu" NumberOfComponents="1" format="ascii">
          3.39029e-19 3.3893e-19 3.39075e-19 3.39098e-19 3.3909e-19 3.3906e-19 3.39081e-19 3.39061e-19 3.39101e-19 3.3909e-19 3.39095e-19 3.39078e-19
          3.39051e-19 3.38938e-19 3.39082e-19 3.39075e-19 3.39064e-19 3.39067e-19 3.39033e-19 3.39028e-19 3.394e-19 3.95171e-19 8.56828e-18 1.20172e-15
          1.65813e-13 2.10719e-13 2.80787e-13 3.96129e-13 1.29707e-18 1.25717e-18
        </DataArray>
        <DataArray type="Float32" Name="X^w_cyanide" NumberOfComponents="1" format="ascii">
          5.07025e-06 5.07025e-06 5.07025e-06 5.07025e-06 5.07024e-06 5.07024e-06 5.07024e-06 5.07024e-06 5.07023e-06 5.07022e-06 5.07022e-06 5.0702e-06
          5.07019e-06 5.07017e-06 5.07014e-06 5.0701e-06 5.07004e-06 5.06996e-06 5.06985e-06 5.0697e-06 5.06948e-06 5.06916e-06 5.06869e-06 5.06797e-06
          5.0673e-06 6.43703e-06 8.57288e-06 1.22389e-05 1.94657e-05 1.92505e-05
        </DataArray>
        <DataArray type="Float32" Name="X^w_citrate" NumberOfComponents="1" format="ascii">
          0.000141796 0.000141796 0.000141796 0.000141796 0.000141796 0.000141796 0.000141796 0.000141796 0.000141796 0.000141796 0.000141796 0.000141796
          0.000141796 0.000141795 0.000141795 0.000141795 0.000141795 0.000141794 0.000141793 0.000141792 0.00014179 0.000141788 0.000141785 0.000141779
          0.000141771 0.000141758 0.000141731 0.00014167 0.000141466 0.000139903
        </DataArray>
        <DataArray type="Float32" Name="X^w_substrate" NumberOfComponents="1" format="ascii">
          7.52768e-12 1.0254e-11 1.39667e-11 1.90226e-11 2.59073e-11 3.52827e-11 4.80503e-11 6.54394e-11 8.91273e-11 1.21405e-10 1.65408e-10 2.25435e-10
          3.074e-10 4.19473e-10 5.73005e-10 7.83882e-10 1.07457e-09 1.47725e-09 2.03879e-09 2.82898e-09 3.95465e-09 5.58524e-09 8.00222e-09 1.17018e-08
          1.76312e-08 2.78056e-08 4.72346e-08 9.17057e-08 2.36183e-07 1.33897e-06
        </DataArray>
        <DataArray type="Float32" Name="m^w_H2O" NumberOfComponents="1" format="ascii">
          55492.6 55492.6 55492.5 55492.5 55492.5 55492.5 55492.5 55492.5 55492.5 55492.5 55492.5 55492.5
          55492.5 55492.4 55492.4 55492.4 55492.4 55492.4 55492.4 55492.4 55492.4 55492.4 55492.4 55492.4
          55492.3 55492.3 55492.1 55491.9 55491.5 55491.5
        </DataArray>
        <DataArray type="Float32" Name="m^w_Air" NumberOfComponents="1" format="ascii">
          0 0 0 0 0 0 0 0 0 0 0 0
          0 0 0 0 0 0 0 0 0 0 0 0
          0 0 0 0 0 0
        </DataArray>
        <DataArray type="Float32" Name="m^w_AuComplex" NumberOfComponents="1" format="ascii">
          7.1602e-13 7.15807e-13 7.16115e-13 7.16165e-13 7.16148e-13 7.16083e-13 7.16128e-13 7.16084e-13 7.1617e-13 7.16146e-13 7.16155e-13 7.16118e-13
          7.16061e-13 7.15817e-13 7.1612e-13 7.16103e-13 7.16073e-13 7.16074e-13 7.15994e-13 7.15965e-13 7.15928e-13 7.15889e-13 7.80752e-13 1.49113e-10
          3.4943e-07 5.4506e-07 9.36131e-07 1.84798e-06 9.3192e-12 9.09449e-12
        </DataArray>
        <DataArray type="Float32" Name="m^w_nanoAu" NumberOfComponents="1" format="ascii">
          1.72097e-15 1.72047e-15 1.7212e-15 1.72132e-15 1.72128e-15 1.72113e-15 1.72123e-15 1.72113e-15 1.72134e-15 1.72128e-15 1.7213e-15 1.72122e-15
          1.72108e-15 1.72051e-15 1.72124e-15 1.7212e-15 1.72114e-15 1.72116e-15 1.72099e-15 1.72096e-15 1.72285e-15 2.00595e-15 4.3494e-14 6.10013e-12
          8.41695e-10 1.06964e-09 1.42532e-09 2.01081e-09 6.58412e-15 6.3816e-15
        </DataArray>
        <DataArray type="Float32" Name="m^w_cyanide" NumberOfComponents="1" format="ascii">
          0.194832 0.194831 0.194831 0.194831 0.194831 0.194831 0.194831 0.194831 0.194831 0.19483 0.19483 0.194829
          0.194829 0.194828 0.194827 0.194825 0.194823 0.19482 0.194816 0.19481 0.194801 0.194789 0.194771 0.194743
          0.194717 0.247351 0.329424 0.470295 0.747993 0.739726
        </DataArray>
        <DataArray type="Float32" Name="m^w_citrate" NumberOfComponents="1" format="ascii">
          0.749742 0.749742 0.749742 0.749742 0.749742 0.749741 0.749741 0.749741 0.749741 0.74974 0.74974 0.749739
          0.749739 0.749738 0.749736 0.749735 0.749732 0.749729 0.749725 0.749719 0.74971 0.749698 0.74968 0.749652
          0.749607 0.749536 0.749396 0.74907 0.747996 0.739727
        </DataArray>
        <DataArray type="Float32" Name="m^w_substrate" NumberOfComponents="1" format="ascii">
          4.17773e-08 5.69077e-08 7.75126e-08 1.05572e-07 1.43781e-07 1.95812e-07 2.6667e-07 3.63176e-07 4.9464e-07 6.73776e-07 9.17983e-07 1.25112e-06
          1.70601e-06 2.328e-06 3.18006e-06 4.35039e-06 5.96366e-06 8.19844e-06 1.13149e-05 1.57003e-05 2.19475e-05 3.0997e-05 4.44107e-05 6.49426e-05
          9.78497e-05 0.000154315 0.000262142 0.000508948 0.00131077 0.00743098
        </DataArray>
        <DataArray type="Float32" Name="process rank" NumberOfComponents="1" format="ascii">
          0 0 0 0 0 0 0 0 0 0 0 0
          0 0 0 0 0 0 0 0 0 0 0 0
          0 0 0 0 0 0
        </DataArray>
      </CellData>
      <Points>
        <DataArray type="Float32" Name="Coordinates" NumberOfComponents="3" format="ascii">
          0 0 0 0.5 0 0 0 0.0333333 0 0.5 0.0333333 0
          0 0.0666667 0 0.5 0.0666667 0 0 0.1 0 0.5 0.1 0
          0 0.133333 0 0.5 0.133333 0 0 0.166667 0 0.5 0.166667 0
          0 0.2 0 0.5 0.2 0 0 0.233333 0 0.5 0.233333 0
          0 0.266667 0 0.5 0.266667 0 0 0.3 0 0.5 0.3 0
          0 0.333333 0 0.5 0.333333 0 0 0.366667 0 0.5 0.366667 0
          0 0.4 0 0.5 0.4 0 0 0.433333 0 0.5 0.433333 0
          0 0.466667 0 0.5 0.466667 0 0 0.5 0 0.5 0.5 0
          0 0.533333 0 0.5 0.533333 0 0 0.566667 0 0.5 0.566667 0
          0 0.6 0 0.5 0.6 0 0 0.633333 0 0.5 0.633333 0
          0 0.666667 0 0.5 0.666667 0 0 0.7 0 0.5 0.7 0
          0 0.733333 0 0.5 0.733333 0 0 0.766667 0 0.5 0.766667 0
          0 0.8 0 0.5 0.8 0 0 0.833333 0 0.5 0.833333 0
          0 0.866667 0 0.5 0.866667 0 0 0.9 0 0.5 0.9 0
          0 0.933333 0 0.5 0.933333 0 0 0.966667 0 0.5 0.966667 0
          0 1 0 0.5 1 0
        </DataArray>
      </Points>
      <Cells>
        <DataArray type="Int32" Name="connectivity" NumberOfComponents="1" format="ascii">
          0 1 3 2 2 3 5 4 4 5 7 6
          6 7 9 8 8 9 11 10 10 11 13 12
          12 13 15 14 14 15 17 16 16 17 19 18
          18 19 21 20 20 21 23 22 22 23 25 24
          24 25 27 26 26 27 29 28 28 29 31 30
          30 31 33 32 32 33 35 34 34 35 37 36
          36 37 39 38 38 39 41 40 40 41 43 42
          42 43 45 44 44 45 47 46 46 47 49 48
          48 49 51 50 50 51 53 52 52 53 55 54
          54 55 57 56 56 57 59 58 58 59 61 60
        </DataArray>
        <DataArray type="Int32" Name="offsets" NumberOfComponents="1" format="ascii">
          4 8 12 16 20 24 28 32 36 40 44 48
          52 56 60 64 68 72 76 80 84 88 92 96
          100 104 108 112 116 120
        </DataArray>
        <DataArray type="UInt8" Name="types" NumberOfComponents="1" format="ascii">
          9 9 9 9 9 9 9 9 9 9 9 9
          9 9 9 9 9 9 9 9 9 9 9 9
          9 9 9 9 9 9
        </DataArray>
      </Cells>
    </Piece>
  </UnstructuredGrid>
</VTKFile>
