<?xml version="1.0"?>
<VTKFile type="UnstructuredGrid" version="0.1" byte_order="LittleEndian">
  <UnstructuredGrid>
    <Piece NumberOfCells="30" NumberOfPoints="62">
      <CellData Scalars="Sg">
        <DataArray type="Float32" Name="Sg" NumberOfComponents="1" format="ascii">
          0 0 0 0 0 0 0 0 0 0 0 0
          0 0 0 0 0 0 0 0 0 0 0 0
          0 0 0 0 0 0
        </DataArray>
        <DataArray type="Float32" Name="Sl" NumberOfComponents="1" format="ascii">
          1 1 1 1 1 1 1 1 1 1 1 1
          1 1 1 1 1 1 1 1 1 1 1 1
          1 1 1 1 1 1
        </DataArray>
        <DataArray type="Float32" Name="pg" NumberOfComponents="1" format="ascii">
          24687.8 24360.9 24034 23707 23380.1 23053.1 22726.2 22399.3 22072.3 21745.4 21418.4 21091.5
          20764.6 20437.6 20110.7 19783.7 19456.8 19129.8 18802.9 18476 18149 17822.1 17495.1 17168.2
          16841.3 16514.3 16187.4 15860.4 15533.5 15209.7
        </DataArray>
        <DataArray type="Float32" Name="pl" NumberOfComponents="1" format="ascii">
          110628 110301 109974 109647 109320 108993 108666 108339 108012 107685 107358 107031
          106704 106377 106050 105723 105396 105070 104743 104416 104089 103762 103435 103108
          102781 102454 102127 101800 101473 101149
        </DataArray>
        <DataArray type="Float32" Name="pc" NumberOfComponents="1" format="ascii">
          -85939.7 -85939.7 -85939.7 -85939.7 -85939.7 -85939.7 -85939.7 -85939.7 -85939.7 -85939.7 -85939.7 -85939.7
          -85939.7 -85939.7 -85939.7 -85939.7 -85939.7 -85939.7 -85939.7 -85939.7 -85939.7 -85939.7 -85939.7 -85939.7
          -85939.7 -85939.7 -85939.7 -85939.7 -85939.7 -85939.7
        </DataArray>
        <DataArray type="Float32" Name="rhoL" NumberOfComponents="1" format="ascii">
          999.855 999.855 999.855 999.855 999.855 999.854 999.854 999.854 999.854 999.854 999.854 999.854
          999.853 999.853 999.853 999.853 999.853 999.853 999.852 999.852 999.852 999.852 999.852 999.852
          999.852 999.851 999.851 999.851 999.851 999.851
        </DataArray>
        <DataArray type="Float32" Name="rhoG" NumberOfComponents="1" format="ascii">
          0.30585 0.3018 0.29775 0.293699 0.289649 0.285598 0.281548 0.277498 0.273447 0.269397 0.265347 0.261296
          0.257246 0.253195 0.249145 0.245095 0.241044 0.236994 0.232944 0.228893 0.224843 0.220793 0.216742 0.212692
          0.208641 0.204591 0.200541 0.19649 0.19244 0.188428
        </DataArray>
        <DataArray type="Float32" Name="mobL" NumberOfComponents="1" format="ascii">
          722.171 722.17 722.17 722.17 722.17 722.17 722.169 722.169 722.169 722.169 722.169 722.169
          722.168 722.168 722.168 722.168 722.168 722.167 722.167 722.167 722.167 722.167 722.166 722.166
          722.166 722.166 722.166 722.166 722.165 722.165
        </DataArray>
        <DataArray type="Float32" Name="mobG" NumberOfComponents="1" format="ascii">
          0 0 0 0 0 0 0 0 0 0 0 0
          0 0 0 0 0 0 0 0 0 0 0 0
          0 0 0 0 0 0
        </DataArray>
        <DataArray type="Float32" Name="porosity" NumberOfComponents="1" format="ascii">
          0.298854 0.298854 0.298854 0.298854 0.298854 0.298853 0.298853 0.298852 0.298851 0.29885 0.298848 0.298846
          0.298842 0.298837 0.29883 0.298821 0.298808 0.29879 0.298765 0.298731 0.298684 0.298617 0.29852 0.298374
          0.297872 0.297468 0.296652 0.294467 0.283477 0.0447324
        </DataArray>
        <DataArray type="Float32" Name="temperature" NumberOfComponents="1" format="ascii">
          281.15 281.15 281.15 281.15 281.15 281.15 281.15 281.15 281.15 281.15 281.15 281.15
          281.15 281.15 281.15 281.15 281.15 281.15 281.15 281.15 281.15 281.15 281.15 281.15
          281.15 281.15 281.15 281.15 281.15 281.15
        </DataArray>
        <DataArray type="Float32" Name="phase presence" NumberOfComponents="1" format="ascii">
          1 1 1 1 1 1 1 1 1 1 1 1
          1 1 1 1 1 1 1 1 1 1 1 1
          1 1 1 1 1 1
        </DataArray>
        <DataArray type="Float32" Name="precipitateVolumeFraction_au" NumberOfComponents="1" format="ascii">
          5.52669e-10 5.52505e-10 5.52744e-10 5.52783e-10 5.5277e-10 5.52721e-10 5.52756e-10 5.52723e-10 5.5279e-10 5.52774e-10 5.52783e-10 5.52757e-10
          5.52717e-10 5.52532e-10 5.52773e-10 5.52768e-10 5.52757e-10 5.52773e-10 5.52733e-10 5.52742e-10 5.52758e-10 5.52759e-10 5.53047e-10 1.26158e-09
          0.000269941 0.000269925 0.0002699 0.000269851 5.52189e-10 5.51643e-10
        </DataArray>
        <DataArray type="Float32" Name="precipitateVolumeFraction_nanoAu" NumberOfComponents="1" format="ascii">
          1.23624e-13 1.23587e-13 1.23641e-13 1.23649e-13 1.23646e-13 1.23635e-13 1.23643e-13 1.23636e-13 1.23651e-13 1.23647e-13 1.23649e-13 1.23643e-13
          1.23633e-13 1.23591e-13 1.23644e-13 1.23642e-13 1.23638e-13 1.2364e-13 1.23628e-13 1.23626e-13 1.23624e-13 1.23624e-13 1.3493e-13 2.57945e-11
          6.03601e-08 7.66822e-08 1.02146e-07 1.45576e-07 4.74239e-13 4.67884e-13
        </DataArray>
        <DataArray type="Float32" Name="precipitateVolumeFraction_d" NumberOfComponents="1" format="ascii">
          0.000572806 0.000572847 0.000572904 0.000572986 0.000573103 0.000573269 0.000573504 0.000573838 0.00057431 0.000574973 0.000575903 0.000577202
          0.000579007 0.000581506 0.000584954 0.000589697 0.000596207 0.00060514 0.000617416 0.000634369 0.000657998 0.000691438 0.000739913 0.000812817
          0.000928842 0.0011309 0.00153908 0.00263127 0.00826159 0.127634
        </DataArray>
        <DataArray type="Float32" Name="precipitateVolumeFraction_p" NumberOfComponents="1" format="ascii">
          0.000572806 0.000572847 0.000572904 0.000572986 0.000573103 0.000573269 0.000573504 0.000573838 0.00057431 0.000574973 0.000575903 0.000577202
          0.000579007 0.000581506 0.000584954 0.000589697 0.000596207 0.00060514 0.000617416 0.000634369 0.000657998 0.000691438 0.000739913 0.000812817
          0.000928842 0.0011309 0.00153908 0.00263127 0.00826159 0.127634
        </DataArray>
        <DataArray type="Float32" Name="K" NumberOfComponents="1" format="ascii">
          9.8536e-11 9.85359e-11 9.85357e-11 9.85355e-11 9.85352e-11 9.85348e-11 9.85342e-11 9.85333e-11 9.85321e-11 9.85305e-11 9.85281e-11 9.85248e-11
          9.85202e-11 9.85139e-11 9.85051e-11 9.84931e-11 9.84765e-11 9.84539e-11 9.84227e-11 9.83797e-11 9.83197e-11 9.8235e-11 9.81122e-11 9.79278e-11
          9.7295e-11 9.67881e-11 9.57707e-11 9.30915e-11 8.05238e-11 1.78012e-13
        </DataArray>
        <DataArray type="Float32" Name="X^w_H2O" NumberOfComponents="1" format="ascii">
          0.999853 0.999853 0.999853 0.999853 0.999853 0.999853 0.999853 0.999853 0.999853 0.999853 0.999853 0.999853
          0.999853 0.999853 0.999853 0.999853 0.999853 0.999853 0.999853 0.999853 0.999853 0.999853 0.999853 0.999853
          0.999853 0.999852 0.99985 0.999846 0.999839 0.999839
        </DataArray>
        <DataArray type="Float32" Name="X^w_Air" NumberOfComponents="1" format="ascii">
          0 0 0 0 0 0 0 0 0 0 0 0
          0 0 0 0 0 0 0 0 0 0 0 0
          0 0 0 0 0 0
        </DataArray>
        <DataArray type="Float32" Name="X^w_AuComplex" NumberOfComponents="1" format="ascii">
          1.41041e-16 1.41e-16 1.41061e-16 1.41071e-16 1.41067e-16 1.41055e-16 1.41064e-16 1.41055e-16 1.41072e-16 1.41068e-16 1.41069e-16 1.41062e-16
          1.41051e-16 1.41003e-16 1.41062e-16 1.41059e-16 1.41053e-16 1.41053e-16 1.41036e-16 1.4103e-16 1.41023e-16 1.41014e-16 1.5382e-16 2.94072e-14
          6.88299e-11 1.07366e-10 1.84405e-10 3.64051e-10 1.83619e-15 1.79189e-15
        </DataArray>
        <DataArray type="Float32" Name="X^w_nanoAu" NumberOfComponents="1" format="ascii">
          3.39007e-19 3.38909e-19 3.39054e-19 3.39078e-19 3.3907e-19 3.3904e-19 3.39061e-19 3.39041e-19 3.39082e-19 3.39071e-19 3.39076e-19 3.39058e-19
          3.39032e-19 3.38918e-19 3.39062e-19 3.39055e-19 3.39043e-19 3.39046e-19 3.39011e-19 3.39005e-19 3.39377e-19 3.95138e-19 8.56749e-18 1.20166e-15
          1.65801e-13 2.10706e-13 2.80777e-13 3.96137e-13 1.2973e-18 1.25737e-18
        </DataArray>
        <DataArray type="Float32" Name="X^w_cyanide" NumberOfComponents="1" format="ascii">
          5.07003e-06 5.07003e-06 5.07003e-06 5.07004e-06 5.07004e-06 5.07004e-06 5.07003e-06 5.07003e-06 5.07003e-06 5.07002e-06 5.07002e-06 5.07e-06
          5.06999e-06 5.06996e-06 5.06993e-06 5.06988e-06 5.06982e-06 5.06974e-06 5.06962e-06 5.06946e-06 5.06922e-06 5.06889e-06 5.06841e-06 5.06768e-06
          5.06703e-06 6.43672e-06 8.5726e-06 1.2239e-05 1.94673e-05 1.92519e-05
        </DataArray>
        <DataArray type="Float32" Name="X^w_citrate" NumberOfComponents="1" format="ascii">
          0.000141796 0.000141796 0.000141796 0.000141796 0.000141796 0.000141796 0.000141796 0.000141796 0.000141796 0.000141796 0.000141796 0.000141796
          0.000141795 0.000141795 0.000141795 0.000141795 0.000141794 0.000141794 0.000141793 0.000141792 0.00014179 0.000141787 0.000141784 0.000141779
          0.00014177 0.000141757 0.000141732 0.000141673 0.000141478 0.000139913
        </DataArray>
        <DataArray type="Float32" Name="X^w_substrate" NumberOfComponents="1" format="ascii">
          1.16894e-11 1.56623e-11 2.0984e-11 2.81124e-11 3.76604e-11 5.04497e-11 6.75814e-11 9.05325e-11 1.21286e-10 1.62505e-10 2.17779e-10 2.91947e-10
          3.91565e-10 5.25546e-10 7.06084e-10 9.49993e-10 1.2807e-09 1.73128e-09 2.34929e-09 3.20459e-09 4.40283e-09 6.10976e-09 8.59781e-09 1.2343e-08
          1.82469e-08 2.82166e-08 4.69798e-08 8.94787e-08 2.27793e-07 1.33189e-06
        </DataArray>
        <DataArray type="Float32" Name="m^w_H2O" NumberOfComponents="1" format="ascii">
          55492.6 55492.6 55492.5 55492.5 55492.5 55492.5 55492.5 55492.5 55492.5 55492.5 55492.5 55492.5
          55492.5 55492.4 55492.4 55492.4 55492.4 55492.4 55492.4 55492.4 55492.4 55492.4 55492.4 55492.4
          55492.3 55492.3 55492.1 55491.9 55491.5 55491.5
        </DataArray>
        <DataArray type="Float32" Name="m^w_Air" NumberOfComponents="1" format="ascii">
          0 0 0 0 0 0 0 0 0 0 0 0
          0 0 0 0 0 0 0 0 0 0 0 0
          0 0 0 0 0 0
        </DataArray>
        <DataArray type="Float32" Name="m^w_AuComplex" NumberOfComponents="1" format="ascii">
          7.15952e-13 7.1574e-13 7.16048e-13 7.16099e-13 7.16082e-13 7.16019e-13 7.16063e-13 7.1602e-13 7.16106e-13 7.16083e-13 7.16093e-13 7.16056e-13
          7.15999e-13 7.15754e-13 7.16057e-13 7.16039e-13 7.16008e-13 7.16007e-13 7.15924e-13 7.15893e-13 7.15854e-13 7.15811e-13 7.80817e-13 1.49276e-10
          3.49392e-07 5.45005e-07 9.36067e-07 1.84798e-06 9.32079e-12 9.0959e-12
        </DataArray>
        <DataArray type="Float32" Name="m^w_nanoAu" NumberOfComponents="1" format="ascii">
          1.72086e-15 1.72036e-15 1.7211e-15 1.72122e-15 1.72118e-15 1.72103e-15 1.72113e-15 1.72103e-15 1.72124e-15 1.72118e-15 1.72121e-15 1.72112e-15
          1.72098e-15 1.72041e-15 1.72114e-15 1.7211e-15 1.72104e-15 1.72105e-15 1.72088e-15 1.72085e-15 1.72273e-15 2.00579e-15 4.349e-14 6.09982e-12
          8.41634e-10 1.06958e-09 1.42527e-09 2.01086e-09 6.58528e-15 6.38263e-15
        </DataArray>
        <DataArray type="Float32" Name="m^w_cyanide" NumberOfComponents="1" format="ascii">
          0.194823 0.194823 0.194823 0.194823 0.194823 0.194823 0.194823 0.194823 0.194823 0.194823 0.194822 0.194822
          0.194821 0.19482 0.194819 0.194817 0.194815 0.194811 0.194807 0.1948 0.194791 0.194779 0.19476 0.194732
          0.194707 0.247339 0.329413 0.470297 0.748056 0.739779
        </DataArray>
        <DataArray type="Float32" Name="m^w_citrate" NumberOfComponents="1" format="ascii">
          0.749742 0.749742 0.749742 0.749742 0.749742 0.749741 0.749741 0.749741 0.74974 0.74974 0.74974 0.749739
          0.749738 0.749737 0.749735 0.749733 0.749731 0.749727 0.749723 0.749716 0.749707 0.749694 0.749675 0.749647
          0.749603 0.749533 0.749398 0.749087 0.748059 0.73978
        </DataArray>
        <DataArray type="Float32" Name="m^w_substrate" NumberOfComponents="1" format="ascii">
          6.48741e-08 8.69228e-08 1.16458e-07 1.56018e-07 2.09008e-07 2.79986e-07 3.75064e-07 5.02438e-07 6.73112e-07 9.01873e-07 1.20863e-06 1.62025e-06
          2.17311e-06 2.91668e-06 3.91863e-06 5.27228e-06 7.10763e-06 9.60828e-06 1.30381e-05 1.77848e-05 2.44349e-05 3.3908e-05 4.77161e-05 6.85011e-05
          0.000101267 0.000156596 0.000260729 0.000496589 0.0012642 0.00739173
        </DataArray>
        <DataArray type="Float32" Name="process rank" NumberOfComponents="1" format="ascii">
          0 0 0 0 0 0 0 0 0 0 0 0
          0 0 0 0 0 0 0 0 0 0 0 0
          0 0 0 0 0 0
        </DataArray>
      </CellData>
      <Points>
        <DataArray type="Float32" Name="Coordinates" NumberOfComponents="3" format="ascii">
          0 0 0 0.5 0 0 0 0.0333333 0 0.5 0.0333333 0
          0 0.0666667 0 0.5 0.0666667 0 0 0.1 0 0.5 0.1 0
          0 0.133333 0 0.5 0.133333 0 0 0.166667 0 0.5 0.166667 0
          0 0.2 0 0.5 0.2 0 0 0.233333 0 0.5 0.233333 0
          0 0.266667 0 0.5 0.266667 0 0 0.3 0 0.5 0.3 0
          0 0.333333 0 0.5 0.333333 0 0 0.366667 0 0.5 0.366667 0
          0 0.4 0 0.5 0.4 0 0 0.433333 0 0.5 0.433333 0
          0 0.466667 0 0.5 0.466667 0 0 0.5 0 0.5 0.5 0
          0 0.533333 0 0.5 0.533333 0 0 0.566667 0 0.5 0.566667 0
          0 0.6 0 0.5 0.6 0 0 0.633333 0 0.5 0.633333 0
          0 0.666667 0 0.5 0.666667 0 0 0.7 0 0.5 0.7 0
          0 0.733333 0 0.5 0.733333 0 0 0.766667 0 0.5 0.766667 0
          0 0.8 0 0.5 0.8 0 0 0.833333 0 0.5 0.833333 0
          0 0.866667 0 0.5 0.866667 0 0 0.9 0 0.5 0.9 0
          0 0.933333 0 0.5 0.933333 0 0 0.966667 0 0.5 0.966667 0
          0 1 0 0.5 1 0
        </DataArray>
      </Points>
      <Cells>
        <DataArray type="Int32" Name="connectivity" NumberOfComponents="1" format="ascii">
          0 1 3 2 2 3 5 4 4 5 7 6
          6 7 9 8 8 9 11 10 10 11 13 12
          12 13 15 14 14 15 17 16 16 17 19 18
          18 19 21 20 20 21 23 22 22 23 25 24
          24 25 27 26 26 27 29 28 28 29 31 30
          30 31 33 32 32 33 35 34 34 35 37 36
          36 37 39 38 38 39 41 40 40 41 43 42
          42 43 45 44 44 45 47 46 46 47 49 48
          48 49 51 50 50 51 53 52 52 53 55 54
          54 55 57 56 56 57 59 58 58 59 61 60
        </DataArray>
        <DataArray type="Int32" Name="offsets" NumberOfComponents="1" format="ascii">
          4 8 12 16 20 24 28 32 36 40 44 48
          52 56 60 64 68 72 76 80 84 88 92 96
          100 104 108 112 116 120
        </DataArray>
        <DataArray type="UInt8" Name="types" NumberOfComponents="1" format="ascii">
          9 9 9 9 9 9 9 9 9 9 9 9
          9 9 9 9 9 9 9 9 9 9 9 9
          9 9 9 9 9 9
        </DataArray>
      </Cells>
    </Piece>
  </UnstructuredGrid>
</VTKFile>
