<?xml version="1.0"?>
<VTKFile type="UnstructuredGrid" version="0.1" byte_order="LittleEndian">
  <UnstructuredGrid>
    <Piece NumberOfCells="30" NumberOfPoints="62">
      <CellData Scalars="Sg">
        <DataArray type="Float32" Name="Sg" NumberOfComponents="1" format="ascii">
          0 0 0 0 0 0 0 0 0 0 0 0
          0 0 0 0 0 0 0 0 0 0 0 0
          0 0 0 0 0 0
        </DataArray>
        <DataArray type="Float32" Name="Sl" NumberOfComponents="1" format="ascii">
          1 1 1 1 1 1 1 1 1 1 1 1
          1 1 1 1 1 1 1 1 1 1 1 1
          1 1 1 1 1 1
        </DataArray>
        <DataArray type="Float32" Name="pg" NumberOfComponents="1" format="ascii">
          24687.8 24360.9 24034 23707 23380.1 23053.1 22726.2 22399.3 22072.3 21745.4 21418.4 21091.5
          20764.6 20437.6 20110.7 19783.7 19456.8 19129.8 18802.9 18476 18149 17822.1 17495.1 17168.2
          16841.3 16514.3 16187.4 15860.4 15533.5 15209.6
        </DataArray>
        <DataArray type="Float32" Name="pl" NumberOfComponents="1" format="ascii">
          110628 110301 109974 109647 109320 108993 108666 108339 108012 107685 107358 107031
          106704 106377 106050 105723 105396 105070 104743 104416 104089 103762 103435 103108
          102781 102454 102127 101800 101473 101149
        </DataArray>
        <DataArray type="Float32" Name="pc" NumberOfComponents="1" format="ascii">
          -85939.7 -85939.7 -85939.7 -85939.7 -85939.7 -85939.7 -85939.7 -85939.7 -85939.7 -85939.7 -85939.7 -85939.7
          -85939.7 -85939.7 -85939.7 -85939.7 -85939.7 -85939.7 -85939.7 -85939.7 -85939.7 -85939.7 -85939.7 -85939.7
          -85939.7 -85939.7 -85939.7 -85939.7 -85939.7 -85939.7
        </DataArray>
        <DataArray type="Float32" Name="rhoL" NumberOfComponents="1" format="ascii">
          999.855 999.855 999.855 999.855 999.855 999.854 999.854 999.854 999.854 999.854 999.854 999.854
          999.853 999.853 999.853 999.853 999.853 999.853 999.852 999.852 999.852 999.852 999.852 999.852
          999.852 999.851 999.851 999.851 999.851 999.851
        </DataArray>
        <DataArray type="Float32" Name="rhoG" NumberOfComponents="1" format="ascii">
          0.30585 0.3018 0.29775 0.293699 0.289649 0.285598 0.281548 0.277498 0.273447 0.269397 0.265347 0.261296
          0.257246 0.253195 0.249145 0.245095 0.241044 0.236994 0.232944 0.228893 0.224843 0.220793 0.216742 0.212692
          0.208641 0.204591 0.200541 0.19649 0.19244 0.188428
        </DataArray>
        <DataArray type="Float32" Name="mobL" NumberOfComponents="1" format="ascii">
          722.171 722.17 722.17 722.17 722.17 722.17 722.169 722.169 722.169 722.169 722.169 722.169
          722.168 722.168 722.168 722.168 722.168 722.167 722.167 722.167 722.167 722.167 722.166 722.166
          722.166 722.166 722.166 722.166 722.165 722.165
        </DataArray>
        <DataArray type="Float32" Name="mobG" NumberOfComponents="1" format="ascii">
          0 0 0 0 0 0 0 0 0 0 0 0
          0 0 0 0 0 0 0 0 0 0 0 0
          0 0 0 0 0 0
        </DataArray>
        <DataArray type="Float32" Name="porosity" NumberOfComponents="1" format="ascii">
          0.298854 0.298854 0.298854 0.298854 0.298853 0.298853 0.298852 0.298851 0.29885 0.298848 0.298846 0.298843
          0.298838 0.298832 0.298824 0.298813 0.298798 0.298778 0.298751 0.298713 0.298662 0.29859 0.298486 0.29833
          0.297814 0.297389 0.296532 0.294252 0.282877 0.0448287
        </DataArray>
        <DataArray type="Float32" Name="temperature" NumberOfComponents="1" format="ascii">
          281.15 281.15 281.15 281.15 281.15 281.15 281.15 281.15 281.15 281.15 281.15 281.15
          281.15 281.15 281.15 281.15 281.15 281.15 281.15 281.15 281.15 281.15 281.15 281.15
          281.15 281.15 281.15 281.15 281.15 281.15
        </DataArray>
        <DataArray type="Float32" Name="phase presence" NumberOfComponents="1" format="ascii">
          1 1 1 1 1 1 1 1 1 1 1 1
          1 1 1 1 1 1 1 1 1 1 1 1
          1 1 1 1 1 1
        </DataArray>
        <DataArray type="Float32" Name="precipitateVolumeFraction_au" NumberOfComponents="1" format="ascii">
          5.52637e-10 5.52776e-10 5.52759e-10 5.52737e-10 5.52735e-10 5.52793e-10 5.52731e-10 5.52815e-10 5.52733e-10 5.52756e-10 5.52752e-10 5.52744e-10
          5.52731e-10 5.52778e-10 5.52743e-10 5.52766e-10 5.52753e-10 5.52772e-10 5.52721e-10 5.52768e-10 5.52777e-10 5.52766e-10 5.5308e-10 1.26237e-09
          0.000269941 0.000269925 0.0002699 0.000269851 5.5252e-10 5.50976e-10
        </DataArray>
        <DataArray type="Float32" Name="precipitateVolumeFraction_nanoAu" NumberOfComponents="1" format="ascii">
          1.23628e-13 1.23659e-13 1.23656e-13 1.23651e-13 1.2365e-13 1.23663e-13 1.23649e-13 1.23668e-13 1.2365e-13 1.23655e-13 1.23653e-13 1.23651e-13
          1.23648e-13 1.23657e-13 1.23649e-13 1.23653e-13 1.23648e-13 1.2365e-13 1.23635e-13 1.23641e-13 1.23638e-13 1.23643e-13 1.35628e-13 2.58331e-11
          6.03622e-08 7.66838e-08 1.02146e-07 1.45569e-07 4.74453e-13 4.67e-13
        </DataArray>
        <DataArray type="Float32" Name="precipitateVolumeFraction_d" NumberOfComponents="1" format="ascii">
          0.000572961 0.000573019 0.000573101 0.000573217 0.000573379 0.000573605 0.000573922 0.000574364 0.000574977 0.000575825 0.000576995 0.000578601
          0.000580798 0.000583791 0.000587857 0.000593366 0.00060082 0.000610909 0.000624601 0.000643291 0.00066907 0.000705218 0.000757202 0.000834861
          0.000957758 0.00117074 0.00159902 0.00273916 0.00856147 0.127586
        </DataArray>
        <DataArray type="Float32" Name="precipitateVolumeFraction_p" NumberOfComponents="1" format="ascii">
          0.000572961 0.000573019 0.000573101 0.000573217 0.000573379 0.000573605 0.000573922 0.000574364 0.000574977 0.000575825 0.000576995 0.000578601
          0.000580798 0.000583791 0.000587857 0.000593366 0.00060082 0.000610909 0.000624601 0.000643291 0.00066907 0.000705218 0.000757202 0.000834861
          0.000957758 0.00117074 0.00159902 0.00273916 0.00856147 0.127586
        </DataArray>
        <DataArray type="Float32" Name="K" NumberOfComponents="1" format="ascii">
          9.85356e-11 9.85354e-11 9.85352e-11 9.85349e-11 9.85345e-11 9.85339e-11 9.85331e-11 9.8532e-11 9.85305e-11 9.85283e-11 9.85253e-11 9.85212e-11
          9.85157e-11 9.85081e-11 9.84977e-11 9.84837e-11 9.84648e-11 9.84392e-11 9.84045e-11 9.8357e-11 9.82917e-11 9.82001e-11 9.80684e-11 9.78721e-11
          9.72223e-11 9.66884e-11 9.56221e-11 9.28302e-11 7.988e-11 1.792e-13
        </DataArray>
        <DataArray type="Float32" Name="X^w_H2O" NumberOfComponents="1" format="ascii">
          0.999853 0.999853 0.999853 0.999853 0.999853 0.999853 0.999853 0.999853 0.999853 0.999853 0.999853 0.999853
          0.999853 0.999853 0.999853 0.999853 0.999853 0.999853 0.999853 0.999853 0.999853 0.999853 0.999853 0.999853
          0.999853 0.999852 0.99985 0.999846 0.999839 0.99984
        </DataArray>
        <DataArray type="Float32" Name="X^w_Air" NumberOfComponents="1" format="ascii">
          0 0 0 0 0 0 0 0 0 0 0 0
          0 0 0 0 0 0 0 0 0 0 0 0
          0 0 0 0 0 0
        </DataArray>
        <DataArray type="Float32" Name="X^w_AuComplex" NumberOfComponents="1" format="ascii">
          1.41058e-16 1.41093e-16 1.41089e-16 1.41083e-16 1.41083e-16 1.41098e-16 1.41082e-16 1.41103e-16 1.41082e-16 1.41087e-16 1.41086e-16 1.41083e-16
          1.41078e-16 1.41089e-16 1.41078e-16 1.41081e-16 1.41074e-16 1.41074e-16 1.41055e-16 1.41057e-16 1.41047e-16 1.41043e-16 1.54505e-16 2.9446e-14
          6.88343e-11 1.0737e-10 1.84404e-10 3.6402e-10 1.83677e-15 1.78734e-15
        </DataArray>
        <DataArray type="Float32" Name="X^w_nanoAu" NumberOfComponents="1" format="ascii">
          5.45816e-19 5.45951e-19 5.45935e-19 5.45913e-19 5.45911e-19 5.45967e-19 5.45907e-19 5.45988e-19 5.45907e-19 5.45929e-19 5.45923e-19 5.45913e-19
          5.45897e-19 5.45939e-19 5.459e-19 5.45915e-19 5.45893e-19 5.45898e-19 5.45832e-19 5.45896e-19 5.49811e-19 9.09843e-19 3.38159e-17 3.03668e-15
          2.67246e-13 3.39706e-13 4.52768e-13 6.3506e-13 2.08884e-18 2.01077e-18
        </DataArray>
        <DataArray type="Float32" Name="X^w_cyanide" NumberOfComponents="1" format="ascii">
          5.07051e-06 5.07051e-06 5.07051e-06 5.07051e-06 5.07051e-06 5.07051e-06 5.07051e-06 5.07051e-06 5.0705e-06 5.0705e-06 5.07048e-06 5.07047e-06
          5.07045e-06 5.07042e-06 5.07038e-06 5.07033e-06 5.07026e-06 5.07017e-06 5.07003e-06 5.06985e-06 5.0696e-06 5.06924e-06 5.06872e-06 5.06794e-06
          5.0672e-06 6.43685e-06 8.57258e-06 1.22384e-05 1.94646e-05 1.92388e-05
        </DataArray>
        <DataArray type="Float32" Name="X^w_citrate" NumberOfComponents="1" format="ascii">
          0.000141796 0.000141796 0.000141796 0.000141796 0.000141796 0.000141796 0.000141796 0.000141796 0.000141796 0.000141796 0.000141796 0.000141796
          0.000141795 0.000141795 0.000141795 0.000141794 0.000141794 0.000141793 0.000141792 0.000141791 0.000141789 0.000141786 0.000141783 0.000141777
          0.000141768 0.000141754 0.000141727 0.000141664 0.000141458 0.000139817
        </DataArray>
        <DataArray type="Float32" Name="X^w_substrate" NumberOfComponents="1" format="ascii">
          1.64495e-11 2.17762e-11 2.88262e-11 3.81569e-11 5.0506e-11 6.6851e-11 8.84868e-11 1.17131e-10 1.55064e-10 2.05318e-10 2.71934e-10 3.60313e-10
          4.77699e-10 6.33865e-10 8.42076e-10 1.12051e-09 1.49433e-09 1.99894e-09 2.68503e-09 3.62687e-09 4.93663e-09 6.79007e-09 9.47598e-09 1.3499e-08
          1.98151e-08 3.04468e-08 5.04078e-08 9.5526e-08 2.41913e-07 1.39899e-06
        </DataArray>
        <DataArray type="Float32" Name="m^w_H2O" NumberOfComponents="1" format="ascii">
          55492.6 55492.6 55492.5 55492.5 55492.5 55492.5 55492.5 55492.5 55492.5 55492.5 55492.5 55492.5
          55492.5 55492.4 55492.4 55492.4 55492.4 55492.4 55492.4 55492.4 55492.4 55492.4 55492.4 55492.4
          55492.3 55492.3 55492.1 55491.9 55491.5 55491.6
        </DataArray>
        <DataArray type="Float32" Name="m^w_Air" NumberOfComponents="1" format="ascii">
          0 0 0 0 0 0 0 0 0 0 0 0
          0 0 0 0 0 0 0 0 0 0 0 0
          0 0 0 0 0 0
        </DataArray>
        <DataArray type="Float32" Name="m^w_AuComplex" NumberOfComponents="1" format="ascii">
          7.16035e-13 7.16215e-13 7.16193e-13 7.16164e-13 7.16161e-13 7.16237e-13 7.16155e-13 7.16263e-13 7.16156e-13 7.16184e-13 7.16175e-13 7.16161e-13
          7.16138e-13 7.16191e-13 7.16137e-13 7.16153e-13 7.16117e-13 7.16116e-13 7.16017e-13 7.1603e-13 7.15977e-13 7.15957e-13 7.84293e-13 1.49472e-10
          3.49414e-07 5.45027e-07 9.36063e-07 1.84782e-06 9.32373e-12 9.07283e-12
        </DataArray>
        <DataArray type="Float32" Name="m^w_nanoAu" NumberOfComponents="1" format="ascii">
          2.77066e-15 2.77135e-15 2.77126e-15 2.77115e-15 2.77114e-15 2.77143e-15 2.77112e-15 2.77153e-15 2.77112e-15 2.77123e-15 2.7712e-15 2.77115e-15
          2.77107e-15 2.77128e-15 2.77108e-15 2.77116e-15 2.77104e-15 2.77107e-15 2.77073e-15 2.77106e-15 2.79093e-15 4.61851e-15 1.71655e-13 1.54147e-11
          1.35658e-09 1.7244e-09 2.29832e-09 3.22367e-09 1.06033e-14 1.0207e-14
        </DataArray>
        <DataArray type="Float32" Name="m^w_cyanide" NumberOfComponents="1" format="ascii">
          0.194842 0.194842 0.194842 0.194842 0.194842 0.194841 0.194841 0.194841 0.194841 0.194841 0.19484 0.19484
          0.194839 0.194838 0.194836 0.194834 0.194831 0.194828 0.194823 0.194816 0.194806 0.194792 0.194772 0.194742
          0.194714 0.247344 0.329412 0.470276 0.74795 0.739275
        </DataArray>
        <DataArray type="Float32" Name="m^w_citrate" NumberOfComponents="1" format="ascii">
          0.749742 0.749742 0.749742 0.749742 0.749741 0.749741 0.749741 0.749741 0.74974 0.74974 0.749739 0.749738
          0.749737 0.749736 0.749734 0.749732 0.749729 0.749725 0.74972 0.749713 0.749703 0.749689 0.749669 0.749638
          0.749591 0.749516 0.749373 0.749042 0.747953 0.739277
        </DataArray>
        <DataArray type="Float32" Name="m^w_substrate" NumberOfComponents="1" format="ascii">
          9.12918e-08 1.20854e-07 1.5998e-07 2.11764e-07 2.80299e-07 3.7101e-07 4.91085e-07 6.50055e-07 8.60576e-07 1.13948e-06 1.50918e-06 1.99967e-06
          2.65114e-06 3.51783e-06 4.67336e-06 6.21859e-06 8.29324e-06 1.10937e-05 1.49014e-05 2.01284e-05 2.73973e-05 3.76835e-05 5.25898e-05 7.49166e-05
          0.00010997 0.000168973 0.000279753 0.00053015 0.00134257 0.0077641
        </DataArray>
        <DataArray type="Float32" Name="process rank" NumberOfComponents="1" format="ascii">
          0 0 0 0 0 0 0 0 0 0 0 0
          0 0 0 0 0 0 0 0 0 0 0 0
          0 0 0 0 0 0
        </DataArray>
      </CellData>
      <Points>
        <DataArray type="Float32" Name="Coordinates" NumberOfComponents="3" format="ascii">
          0 0 0 0.5 0 0 0 0.0333333 0 0.5 0.0333333 0
          0 0.0666667 0 0.5 0.0666667 0 0 0.1 0 0.5 0.1 0
          0 0.133333 0 0.5 0.133333 0 0 0.166667 0 0.5 0.166667 0
          0 0.2 0 0.5 0.2 0 0 0.233333 0 0.5 0.233333 0
          0 0.266667 0 0.5 0.266667 0 0 0.3 0 0.5 0.3 0
          0 0.333333 0 0.5 0.333333 0 0 0.366667 0 0.5 0.366667 0
          0 0.4 0 0.5 0.4 0 0 0.433333 0 0.5 0.433333 0
          0 0.466667 0 0.5 0.466667 0 0 0.5 0 0.5 0.5 0
          0 0.533333 0 0.5 0.533333 0 0 0.566667 0 0.5 0.566667 0
          0 0.6 0 0.5 0.6 0 0 0.633333 0 0.5 0.633333 0
          0 0.666667 0 0.5 0.666667 0 0 0.7 0 0.5 0.7 0
          0 0.733333 0 0.5 0.733333 0 0 0.766667 0 0.5 0.766667 0
          0 0.8 0 0.5 0.8 0 0 0.833333 0 0.5 0.833333 0
          0 0.866667 0 0.5 0.866667 0 0 0.9 0 0.5 0.9 0
          0 0.933333 0 0.5 0.933333 0 0 0.966667 0 0.5 0.966667 0
          0 1 0 0.5 1 0
        </DataArray>
      </Points>
      <Cells>
        <DataArray type="Int32" Name="connectivity" NumberOfComponents="1" format="ascii">
          0 1 3 2 2 3 5 4 4 5 7 6
          6 7 9 8 8 9 11 10 10 11 13 12
          12 13 15 14 14 15 17 16 16 17 19 18
          18 19 21 20 20 21 23 22 22 23 25 24
          24 25 27 26 26 27 29 28 28 29 31 30
          30 31 33 32 32 33 35 34 34 35 37 36
          36 37 39 38 38 39 41 40 40 41 43 42
          42 43 45 44 44 45 47 46 46 47 49 48
          48 49 51 50 50 51 53 52 52 53 55 54
          54 55 57 56 56 57 59 58 58 59 61 60
        </DataArray>
        <DataArray type="Int32" Name="offsets" NumberOfComponents="1" format="ascii">
          4 8 12 16 20 24 28 32 36 40 44 48
          52 56 60 64 68 72 76 80 84 88 92 96
          100 104 108 112 116 120
        </DataArray>
        <DataArray type="UInt8" Name="types" NumberOfComponents="1" format="ascii">
          9 9 9 9 9 9 9 9 9 9 9 9
          9 9 9 9 9 9 9 9 9 9 9 9
          9 9 9 9 9 9
        </DataArray>
      </Cells>
    </Piece>
  </UnstructuredGrid>
</VTKFile>
