<?xml version="1.0"?>
<VTKFile type="UnstructuredGrid" version="0.1" byte_order="LittleEndian">
  <UnstructuredGrid>
    <Piece NumberOfCells="30" NumberOfPoints="62">
      <CellData Scalars="Sg">
        <DataArray type="Float32" Name="Sg" NumberOfComponents="1" format="ascii">
          0.0968548 0.096841 0.0968271 0.0968131 0.0967991 0.096785 0.0967709 0.0967568 0.0967427 0.0967288 0.0967151 0.0967016
          0.0966886 0.0966763 0.0966645 0.0966529 0.0966377 0.0966003 0.0964574 0.0958517 0.0932982 0.0828904 0.0443036 0
          0 0 0 0 0 0
        </DataArray>
        <DataArray type="Float32" Name="Sl" NumberOfComponents="1" format="ascii">
          0.903145 0.903159 0.903173 0.903187 0.903201 0.903215 0.903229 0.903243 0.903257 0.903271 0.903285 0.903298
          0.903311 0.903324 0.903335 0.903347 0.903362 0.9034 0.903543 0.904148 0.906702 0.91711 0.955696 1
          1 1 1 1 1 1
        </DataArray>
        <DataArray type="Float32" Name="pg" NumberOfComponents="1" format="ascii">
          52433.4 52102.5 51771.6 51440.6 51109.7 50778.7 50447.7 50116.7 49785.8 49454.8 49124 48793.2
          48462.5 48132 47801.7 47471.5 47140.2 46802.5 46434.6 45934.2 44875.8 41567.3 30186.6 17168.2
          16841.3 16514.3 16187.4 15860.4 15533.5 15206.6
        </DataArray>
        <DataArray type="Float32" Name="pl" NumberOfComponents="1" format="ascii">
          110628 110301 109974 109647 109320 108993 108666 108339 108012 107685 107358 107031
          106704 106377 106050 105723 105396 105070 104743 104416 104089 103762 103435 103108
          102781 102454 102127 101800 101473 101146
        </DataArray>
        <DataArray type="Float32" Name="pc" NumberOfComponents="1" format="ascii">
          -58194.1 -58198.1 -58202.1 -58206.1 -58210.1 -58214.1 -58218.2 -58222.2 -58226.2 -58230.2 -58234.1 -58238
          -58241.7 -58245.3 -58248.6 -58251.9 -58256.3 -58267 -58308 -58481.5 -59213 -62194.4 -73248.2 -85939.7
          -85939.7 -85939.7 -85939.7 -85939.7 -85939.7 -85939.7
        </DataArray>
        <DataArray type="Float32" Name="rhoL" NumberOfComponents="1" format="ascii">
          999.855 999.855 999.855 999.855 999.855 999.854 999.854 999.854 999.854 999.854 999.854 999.854
          999.853 999.853 999.853 999.853 999.853 999.853 999.852 999.852 999.852 999.852 999.852 999.852
          999.852 999.851 999.851 999.851 999.851 999.851
        </DataArray>
        <DataArray type="Float32" Name="rhoG" NumberOfComponents="1" format="ascii">
          0.649582 0.645482 0.641383 0.637283 0.633183 0.629082 0.624982 0.620881 0.616781 0.612681 0.608582 0.604484
          0.600388 0.596293 0.592201 0.58811 0.584005 0.579822 0.575265 0.569065 0.555952 0.514965 0.373973 0.212692
          0.208641 0.204591 0.200541 0.19649 0.19244 0.18839
        </DataArray>
        <DataArray type="Float32" Name="mobL" NumberOfComponents="1" format="ascii">
          722.171 722.17 722.17 722.17 722.17 722.17 722.169 722.169 722.169 722.169 722.169 722.169
          722.168 722.168 722.168 722.168 722.168 722.167 722.167 722.167 722.167 722.167 722.166 722.166
          722.166 722.166 722.166 722.166 722.165 722.165
        </DataArray>
        <DataArray type="Float32" Name="mobG" NumberOfComponents="1" format="ascii">
          0 0 0 0 0 0 0 0 0 0 0 0
          0 0 0 0 0 0 0 0 0 0 0 0
          0 0 0 0 0 0
        </DataArray>
        <DataArray type="Float32" Name="porosity" NumberOfComponents="1" format="ascii">
          0.298475 0.298475 0.298475 0.298475 0.298474 0.298474 0.298473 0.298472 0.29847 0.298468 0.298465 0.298461
          0.298456 0.298449 0.298439 0.298425 0.298407 0.298382 0.298349 0.298305 0.298245 0.298161 0.298045 0.297877
          0.297354 0.29695 0.296241 0.294792 0.291089 0.269714
        </DataArray>
        <DataArray type="Float32" Name="temperature" NumberOfComponents="1" format="ascii">
          281.15 281.15 281.15 281.15 281.15 281.15 281.15 281.15 281.15 281.15 281.15 281.15
          281.15 281.15 281.15 281.15 281.15 281.15 281.15 281.15 281.15 281.15 281.15 281.15
          281.15 281.15 281.15 281.15 281.15 281.15
        </DataArray>
        <DataArray type="Float32" Name="phase presence" NumberOfComponents="1" format="ascii">
          3 3 3 3 3 3 3 3 3 3 3 3
          3 3 3 3 3 3 3 3 3 3 3 1
          1 1 1 1 1 1
        </DataArray>
        <DataArray type="Float32" Name="precipitateVolumeFraction_au" NumberOfComponents="1" format="ascii">
          4.43916e-10 4.43916e-10 4.4392e-10 4.43924e-10 4.43928e-10 4.43933e-10 4.43937e-10 4.43942e-10 4.43947e-10 4.43951e-10 4.43956e-10 4.4396e-10
          4.43965e-10 4.43969e-10 4.43974e-10 4.43978e-10 4.43982e-10 4.43986e-10 4.43989e-10 4.43992e-10 4.43996e-10 4.43999e-10 4.44007e-10 4.63607e-10
          0.000269934 0.000269922 0.000269907 0.000269886 4.44006e-10 4.42985e-10
        </DataArray>
        <DataArray type="Float32" Name="precipitateVolumeFraction_nanoAu" NumberOfComponents="1" format="ascii">
          1.08962e-10 1.08957e-10 1.08953e-10 1.08948e-10 1.08944e-10 1.08939e-10 1.08934e-10 1.0893e-10 1.08925e-10 1.0892e-10 1.08915e-10 1.0891e-10
          1.08905e-10 1.089e-10 1.08895e-10 1.08891e-10 1.08886e-10 1.08882e-10 1.08877e-10 1.08873e-10 1.08868e-10 1.08864e-10 1.08868e-10 1.3368e-10
          6.6922e-08 7.83013e-08 9.34799e-08 1.14042e-07 1.08991e-10 1.08609e-10
        </DataArray>
        <DataArray type="Float32" Name="precipitateVolumeFraction_d" NumberOfComponents="1" format="ascii">
          0.00076232 0.000762391 0.000762492 0.000762633 0.000762832 0.000763111 0.000763502 0.000764047 0.000764806 0.000765857 0.000767305 0.000769294
          0.00077201 0.000775706 0.000780711 0.000787468 0.000796565 0.000808798 0.000825261 0.000847489 0.000877715 0.00091931 0.000977628 0.00106171
          0.00118804 0.00139007 0.00174443 0.0024691 0.00445565 0.0151431
        </DataArray>
        <DataArray type="Float32" Name="precipitateVolumeFraction_p" NumberOfComponents="1" format="ascii">
          0.00076232 0.000762391 0.000762492 0.000762633 0.000762832 0.000763111 0.000763502 0.000764047 0.000764806 0.000765857 0.000767305 0.000769294
          0.00077201 0.000775706 0.000780711 0.000787468 0.000796565 0.000808798 0.000825261 0.000847489 0.000877715 0.00091931 0.000977628 0.00106171
          0.00118804 0.00139007 0.00174443 0.0024691 0.00445565 0.0151431
        </DataArray>
        <DataArray type="Float32" Name="K" NumberOfComponents="1" format="ascii">
          9.80555e-11 9.80553e-11 9.80551e-11 9.80547e-11 9.80542e-11 9.80535e-11 9.80525e-11 9.80511e-11 9.80492e-11 9.80465e-11 9.80429e-11 9.80378e-11
          9.8031e-11 9.80216e-11 9.8009e-11 9.79919e-11 9.79689e-11 9.79379e-11 9.78963e-11 9.78402e-11 9.77639e-11 9.76589e-11 9.75119e-11 9.73004e-11
          9.66451e-11 9.61411e-11 9.52622e-11 9.34854e-11 8.90686e-11 6.6766e-11
        </DataArray>
        <DataArray type="Float32" Name="X^w_H2O" NumberOfComponents="1" format="ascii">
          0.99983 0.999831 0.999832 0.999832 0.999833 0.999833 0.999834 0.999834 0.999835 0.999835 0.999836 0.999836
          0.999836 0.999837 0.999837 0.999837 0.999838 0.999838 0.999838 0.999838 0.999839 0.99984 0.999843 0.999852
          0.999853 0.999851 0.999849 0.999846 0.999841 0.999846
        </DataArray>
        <DataArray type="Float32" Name="X^w_Air" NumberOfComponents="1" format="ascii">
          1.59204e-05 1.58178e-05 1.57152e-05 1.56126e-05 1.551e-05 1.54075e-05 1.53049e-05 1.52023e-05 1.50997e-05 1.49971e-05 1.48945e-05 1.4792e-05
          1.46895e-05 1.45871e-05 1.44847e-05 1.43823e-05 1.42796e-05 1.4175e-05 1.40609e-05 1.39058e-05 1.35777e-05 1.25522e-05 9.02448e-06 9.17784e-07
          1.08669e-08 1.24008e-10 1.33348e-12 1.30085e-14 1.03707e-16 3.76575e-19
        </DataArray>
        <DataArray type="Float32" Name="X^w_AuComplex" NumberOfComponents="1" format="ascii">
          2.46292e-13 2.34133e-13 2.24242e-13 2.12435e-13 2.03052e-13 1.92538e-13 1.83323e-13 1.75441e-13 1.684e-13 1.61864e-13 1.5675e-13 1.49907e-13
          1.45638e-13 1.41234e-13 1.39806e-13 1.35483e-13 1.33709e-13 1.29362e-13 1.28131e-13 1.25651e-13 1.23308e-13 1.22197e-13 1.88952e-14 1.51461e-13
          8.40617e-11 1.23026e-10 1.89684e-10 3.11152e-10 3.89058e-13 3.54875e-13
        </DataArray>
        <DataArray type="Float32" Name="X^w_nanoAu" NumberOfComponents="1" format="ascii">
          -8.95794e-17 -1.11433e-16 9.20832e-16 -1.17609e-15 1.57717e-15 7.72787e-16 -1.15987e-15 6.67744e-16 -3.04426e-16 4.41323e-16 1.39646e-15 -5.91962e-16
          -6.72263e-18 4.4462e-16 1.44375e-15 -4.51639e-16 2.01901e-16 -5.04309e-16 -5.21495e-16 -5.74517e-16 -4.90067e-16 8.26311e-16 -1.03689e-13 3.82739e-15
          2.95142e-13 3.44794e-13 4.10269e-13 4.90322e-13 4.64109e-16 4.18991e-16
        </DataArray>
        <DataArray type="Float32" Name="X^w_cyanide" NumberOfComponents="1" format="ascii">
          1.19303e-05 1.13728e-05 1.08294e-05 1.03068e-05 9.81068e-06 9.34558e-06 8.91482e-06 8.52035e-06 8.16282e-06 7.84166e-06 7.5553e-06 7.30142e-06
          7.07715e-06 6.87935e-06 6.70482e-06 6.55048e-06 6.41347e-06 6.29126e-06 6.18161e-06 6.08254e-06 5.99224e-06 5.90881e-06 5.82989e-06 5.75167e-06
          5.66893e-06 7.2423e-06 9.54796e-06 1.30933e-05 1.88152e-05 1.7224e-05
        </DataArray>
        <DataArray type="Float32" Name="X^w_citrate" NumberOfComponents="1" format="ascii">
          0.000141798 0.000141798 0.000141797 0.000141797 0.000141796 0.000141796 0.000141795 0.000141795 0.000141794 0.000141793 0.000141792 0.000141791
          0.000141789 0.000141786 0.000141783 0.000141778 0.000141771 0.000141762 0.00014175 0.000141732 0.000141706 0.000141667 0.00014161 0.000141523
          0.00014138 0.000141134 0.000140667 0.000139646 0.000136852 0.000125228
        </DataArray>
        <DataArray type="Float32" Name="X^w_substrate" NumberOfComponents="1" format="ascii">
          3.35094e-10 3.92133e-10 4.65691e-10 5.61225e-10 6.8609e-10 8.50248e-10 1.0672e-09 1.35532e-09 1.73961e-09 2.25433e-09 2.94652e-09 3.88105e-09
          5.14798e-09 6.87313e-09 9.23374e-09 1.24822e-08 1.69826e-08 2.32679e-08 3.21326e-08 4.47859e-08 6.31126e-08 9.01327e-08 1.30788e-07 1.93096e-07
          2.93654e-07 4.67803e-07 7.98363e-07 1.51919e-06 3.49034e-06 1.16868e-05
        </DataArray>
        <DataArray type="Float32" Name="m^w_H2O" NumberOfComponents="1" format="ascii">
          55491.3 55491.3 55491.3 55491.4 55491.4 55491.4 55491.4 55491.5 55491.5 55491.5 55491.5 55491.5
          55491.5 55491.5 55491.5 55491.5 55491.6 55491.6 55491.6 55491.6 55491.6 55491.6 55491.8 55492.3
          55492.3 55492.2 55492.1 55491.9 55491.6 55491.9
        </DataArray>
        <DataArray type="Float32" Name="m^w_Air" NumberOfComponents="1" format="ascii">
          0.549656 0.546115 0.542574 0.539032 0.53549 0.531948 0.528406 0.524864 0.521322 0.51778 0.514239 0.510699
          0.50716 0.503623 0.500088 0.496554 0.493008 0.489394 0.485457 0.480102 0.468774 0.433368 0.311573 0.0316867
          0.000375181 4.28141e-06 4.60388e-08 4.49123e-10 3.5805e-12 1.30014e-14
        </DataArray>
        <DataArray type="Float32" Name="m^w_AuComplex" NumberOfComponents="1" format="ascii">
          1.25022e-09 1.1885e-09 1.13829e-09 1.07836e-09 1.03073e-09 9.77356e-10 9.30579e-10 8.90569e-10 8.54829e-10 8.21649e-10 7.95692e-10 7.60955e-10
          7.39282e-10 7.16929e-10 7.09679e-10 6.87736e-10 6.78731e-10 6.56663e-10 6.50415e-10 6.37824e-10 6.25931e-10 6.20291e-10 9.59153e-11 7.6884e-10
          4.26711e-07 6.24499e-07 9.62867e-07 1.57946e-06 1.97492e-09 1.8014e-09
        </DataArray>
        <DataArray type="Float32" Name="m^w_nanoAu" NumberOfComponents="1" format="ascii">
          -4.54721e-13 -5.65651e-13 4.67431e-12 -5.97004e-12 8.00599e-12 3.9228e-12 -5.88768e-12 3.38959e-12 -1.54532e-12 2.24023e-12 7.08865e-12 -3.0049e-12
          -3.41252e-14 2.25697e-12 7.32874e-12 -2.29259e-12 1.02488e-12 -2.55996e-12 -2.6472e-12 -2.91634e-12 -2.48766e-12 4.19449e-12 -5.26343e-10 1.94284e-11
          1.49819e-09 1.75023e-09 2.08259e-09 2.48895e-09 2.35589e-12 2.12686e-12
        </DataArray>
        <DataArray type="Float32" Name="m^w_cyanide" NumberOfComponents="1" format="ascii">
          0.458438 0.437015 0.416136 0.396054 0.376989 0.359117 0.342564 0.327406 0.313667 0.301326 0.290323 0.280567
          0.271949 0.264348 0.257642 0.251711 0.246446 0.24175 0.237536 0.23373 0.230259 0.227054 0.224021 0.221015
          0.217836 0.278295 0.366892 0.503128 0.722996 0.661854
        </DataArray>
        <DataArray type="Float32" Name="m^w_citrate" NumberOfComponents="1" format="ascii">
          0.749753 0.749751 0.749748 0.749746 0.749744 0.749741 0.749738 0.749735 0.749731 0.749726 0.74972 0.749712
          0.749702 0.749688 0.74967 0.749645 0.74961 0.749563 0.749496 0.7494 0.749262 0.74906 0.748757 0.748296
          0.747542 0.746241 0.743768 0.738369 0.723595 0.662135
        </DataArray>
        <DataArray type="Float32" Name="m^w_substrate" NumberOfComponents="1" format="ascii">
          1.85971e-06 2.17627e-06 2.5845e-06 3.1147e-06 3.80767e-06 4.71872e-06 5.92278e-06 7.52174e-06 9.65449e-06 1.25111e-05 1.63526e-05 2.15391e-05
          2.85703e-05 3.81445e-05 5.12454e-05 6.92738e-05 9.42499e-05 0.000129132 0.00017833 0.000248553 0.000350262 0.000500218 0.000725846 0.00107164
          0.00162972 0.00259621 0.00443075 0.00843117 0.0193707 0.0648593
        </DataArray>
        <DataArray type="Float32" Name="process rank" NumberOfComponents="1" format="ascii">
          0 0 0 0 0 0 0 0 0 0 0 0
          0 0 0 0 0 0 0 0 0 0 0 0
          0 0 0 0 0 0
        </DataArray>
      </CellData>
      <Points>
        <DataArray type="Float32" Name="Coordinates" NumberOfComponents="3" format="ascii">
          0 0 0 0.5 0 0 0 0.0333333 0 0.5 0.0333333 0
          0 0.0666667 0 0.5 0.0666667 0 0 0.1 0 0.5 0.1 0
          0 0.133333 0 0.5 0.133333 0 0 0.166667 0 0.5 0.166667 0
          0 0.2 0 0.5 0.2 0 0 0.233333 0 0.5 0.233333 0
          0 0.266667 0 0.5 0.266667 0 0 0.3 0 0.5 0.3 0
          0 0.333333 0 0.5 0.333333 0 0 0.366667 0 0.5 0.366667 0
          0 0.4 0 0.5 0.4 0 0 0.433333 0 0.5 0.433333 0
          0 0.466667 0 0.5 0.466667 0 0 0.5 0 0.5 0.5 0
          0 0.533333 0 0.5 0.533333 0 0 0.566667 0 0.5 0.566667 0
          0 0.6 0 0.5 0.6 0 0 0.633333 0 0.5 0.633333 0
          0 0.666667 0 0.5 0.666667 0 0 0.7 0 0.5 0.7 0
          0 0.733333 0 0.5 0.733333 0 0 0.766667 0 0.5 0.766667 0
          0 0.8 0 0.5 0.8 0 0 0.833333 0 0.5 0.833333 0
          0 0.866667 0 0.5 0.866667 0 0 0.9 0 0.5 0.9 0
          0 0.933333 0 0.5 0.933333 0 0 0.966667 0 0.5 0.966667 0
          0 1 0 0.5 1 0
        </DataArray>
      </Points>
      <Cells>
        <DataArray type="Int32" Name="connectivity" NumberOfComponents="1" format="ascii">
          0 1 3 2 2 3 5 4 4 5 7 6
          6 7 9 8 8 9 11 10 10 11 13 12
          12 13 15 14 14 15 17 16 16 17 19 18
          18 19 21 20 20 21 23 22 22 23 25 24
          24 25 27 26 26 27 29 28 28 29 31 30
          30 31 33 32 32 33 35 34 34 35 37 36
          36 37 39 38 38 39 41 40 40 41 43 42
          42 43 45 44 44 45 47 46 46 47 49 48
          48 49 51 50 50 51 53 52 52 53 55 54
          54 55 57 56 56 57 59 58 58 59 61 60
        </DataArray>
        <DataArray type="Int32" Name="offsets" NumberOfComponents="1" format="ascii">
          4 8 12 16 20 24 28 32 36 40 44 48
          52 56 60 64 68 72 76 80 84 88 92 96
          100 104 108 112 116 120
        </DataArray>
        <DataArray type="UInt8" Name="types" NumberOfComponents="1" format="ascii">
          9 9 9 9 9 9 9 9 9 9 9 9
          9 9 9 9 9 9 9 9 9 9 9 9
          9 9 9 9 9 9
        </DataArray>
      </Cells>
    </Piece>
  </UnstructuredGrid>
</VTKFile>
