<?xml version="1.0"?>
<VTKFile type="UnstructuredGrid" version="0.1" byte_order="LittleEndian">
  <UnstructuredGrid>
    <Piece NumberOfCells="30" NumberOfPoints="62">
      <CellData Scalars="Sg">
        <DataArray type="Float32" Name="Sg" NumberOfComponents="1" format="ascii">
          0 0 0 0 0 0 0 0 0 0 0 0
          0 0 0 0 0 0 0 0 0 0 0 0
          0 0 0 0 0 0
        </DataArray>
        <DataArray type="Float32" Name="Sl" NumberOfComponents="1" format="ascii">
          1 1 1 1 1 1 1 1 1 1 1 1
          1 1 1 1 1 1 1 1 1 1 1 1
          1 1 1 1 1 1
        </DataArray>
        <DataArray type="Float32" Name="pg" NumberOfComponents="1" format="ascii">
          24687.8 24360.9 24034 23707 23380.1 23053.1 22726.2 22399.3 22072.3 21745.4 21418.4 21091.5
          20764.6 20437.6 20110.7 19783.7 19456.8 19129.8 18802.9 18476 18149 17822.1 17495.1 17168.2
          16841.3 16514.3 16187.4 15860.4 15533.5 15207.7
        </DataArray>
        <DataArray type="Float32" Name="pl" NumberOfComponents="1" format="ascii">
          110628 110301 109974 109647 109320 108993 108666 108339 108012 107685 107358 107031
          106704 106377 106050 105723 105396 105070 104743 104416 104089 103762 103435 103108
          102781 102454 102127 101800 101473 101147
        </DataArray>
        <DataArray type="Float32" Name="pc" NumberOfComponents="1" format="ascii">
          -85939.7 -85939.7 -85939.7 -85939.7 -85939.7 -85939.7 -85939.7 -85939.7 -85939.7 -85939.7 -85939.7 -85939.7
          -85939.7 -85939.7 -85939.7 -85939.7 -85939.7 -85939.7 -85939.7 -85939.7 -85939.7 -85939.7 -85939.7 -85939.7
          -85939.7 -85939.7 -85939.7 -85939.7 -85939.7 -85939.7
        </DataArray>
        <DataArray type="Float32" Name="rhoL" NumberOfComponents="1" format="ascii">
          999.855 999.855 999.855 999.855 999.855 999.854 999.854 999.854 999.854 999.854 999.854 999.854
          999.853 999.853 999.853 999.853 999.853 999.853 999.852 999.852 999.852 999.852 999.852 999.852
          999.852 999.851 999.851 999.851 999.851 999.851
        </DataArray>
        <DataArray type="Float32" Name="rhoG" NumberOfComponents="1" format="ascii">
          0.30585 0.3018 0.29775 0.293699 0.289649 0.285598 0.281548 0.277498 0.273447 0.269397 0.265347 0.261296
          0.257246 0.253195 0.249145 0.245095 0.241044 0.236994 0.232944 0.228893 0.224843 0.220793 0.216742 0.212692
          0.208641 0.204591 0.200541 0.19649 0.19244 0.188403
        </DataArray>
        <DataArray type="Float32" Name="mobL" NumberOfComponents="1" format="ascii">
          722.171 722.17 722.17 722.17 722.17 722.17 722.169 722.169 722.169 722.169 722.169 722.169
          722.168 722.168 722.168 722.168 722.168 722.167 722.167 722.167 722.167 722.167 722.166 722.166
          722.166 722.166 722.166 722.166 722.165 722.165
        </DataArray>
        <DataArray type="Float32" Name="mobG" NumberOfComponents="1" format="ascii">
          0 0 0 0 0 0 0 0 0 0 0 0
          0 0 0 0 0 0 0 0 0 0 0 0
          0 0 0 0 0 0
        </DataArray>
        <DataArray type="Float32" Name="porosity" NumberOfComponents="1" format="ascii">
          0.298641 0.298641 0.298641 0.298641 0.298641 0.298641 0.298641 0.298641 0.298641 0.298641 0.298641 0.298641
          0.298641 0.298641 0.298641 0.298641 0.298641 0.298641 0.298641 0.298641 0.298641 0.298641 0.298641 0.298641
          0.29837 0.298364 0.298331 0.298147 0.296897 0.0623758
        </DataArray>
        <DataArray type="Float32" Name="temperature" NumberOfComponents="1" format="ascii">
          281.15 281.15 281.15 281.15 281.15 281.15 281.15 281.15 281.15 281.15 281.15 281.15
          281.15 281.15 281.15 281.15 281.15 281.15 281.15 281.15 281.15 281.15 281.15 281.15
          281.15 281.15 281.15 281.15 281.15 281.15
        </DataArray>
        <DataArray type="Float32" Name="phase presence" NumberOfComponents="1" format="ascii">
          1 1 1 1 1 1 1 1 1 1 1 1
          1 1 1 1 1 1 1 1 1 1 1 1
          1 1 1 1 1 1
        </DataArray>
        <DataArray type="Float32" Name="precipitateVolumeFraction_au" NumberOfComponents="1" format="ascii">
          5.52585e-10 5.52791e-10 5.52747e-10 5.52725e-10 5.52709e-10 5.52771e-10 5.52712e-10 5.52727e-10 5.52766e-10 5.52674e-10 5.52721e-10 5.52738e-10
          5.52758e-10 5.52811e-10 5.52754e-10 5.52754e-10 5.5271e-10 5.52748e-10 5.52685e-10 5.52755e-10 5.52758e-10 5.52741e-10 5.52864e-10 8.45406e-10
          0.00026994 0.000269924 0.000269899 0.000269853 5.52386e-10 5.51082e-10
        </DataArray>
        <DataArray type="Float32" Name="precipitateVolumeFraction_nanoAu" NumberOfComponents="1" format="ascii">
          1.26733e-13 1.27207e-13 1.27129e-13 1.27085e-13 1.27112e-13 1.27165e-13 1.27113e-13 1.27113e-13 1.27154e-13 1.27092e-13 1.27111e-13 1.27122e-13
          1.27135e-13 1.27154e-13 1.27129e-13 1.27131e-13 1.27112e-13 1.27125e-13 1.27106e-13 1.27126e-13 1.27125e-13 1.27128e-13 1.38394e-13 2.57311e-11
          6.03596e-08 7.66916e-08 1.02184e-07 1.45704e-07 4.7897e-13 4.76457e-13
        </DataArray>
        <DataArray type="Float32" Name="precipitateVolumeFraction_d" NumberOfComponents="1" format="ascii">
          0.000679722 0.000679721 0.000679721 0.00067972 0.00067972 0.000679719 0.000679719 0.000679719 0.000679719 0.000679718 0.000679718 0.000679717
          0.000679717 0.000679717 0.000679716 0.000679716 0.000679716 0.000679715 0.000679715 0.000679714 0.000679713 0.000679712 0.00067971 0.000679732
          0.000679963 0.000683158 0.000699702 0.000791631 0.00155168 0.118812
        </DataArray>
        <DataArray type="Float32" Name="precipitateVolumeFraction_p" NumberOfComponents="1" format="ascii">
          0.000679722 0.000679721 0.000679721 0.00067972 0.00067972 0.000679719 0.000679719 0.000679719 0.000679719 0.000679718 0.000679718 0.000679717
          0.000679717 0.000679717 0.000679716 0.000679716 0.000679716 0.000679715 0.000679715 0.000679714 0.000679713 0.000679712 0.00067971 0.000679732
          0.000679963 0.000683158 0.000699702 0.000791631 0.00155168 0.118812
        </DataArray>
        <DataArray type="Float32" Name="K" NumberOfComponents="1" format="ascii">
          9.82647e-11 9.82647e-11 9.82647e-11 9.82647e-11 9.82647e-11 9.82647e-11 9.82647e-11 9.82647e-11 9.82647e-11 9.82647e-11 9.82647e-11 9.82647e-11
          9.82647e-11 9.82647e-11 9.82647e-11 9.82647e-11 9.82647e-11 9.82647e-11 9.82647e-11 9.82647e-11 9.82647e-11 9.82647e-11 9.82647e-11 9.82646e-11
          9.79224e-11 9.79143e-11 9.78725e-11 9.76405e-11 9.60749e-11 5.00983e-13
        </DataArray>
        <DataArray type="Float32" Name="X^w_H2O" NumberOfComponents="1" format="ascii">
          0.999853 0.999853 0.999853 0.999853 0.999853 0.999853 0.999853 0.999853 0.999853 0.999853 0.999853 0.999853
          0.999853 0.999853 0.999853 0.999853 0.999853 0.999853 0.999853 0.999853 0.999853 0.999853 0.999853 0.999853
          0.999853 0.999852 0.99985 0.999846 0.999839 0.999839
        </DataArray>
        <DataArray type="Float32" Name="X^w_Air" NumberOfComponents="1" format="ascii">
          0 0 0 0 0 0 0 0 0 0 0 0
          0 0 0 0 0 0 0 0 0 0 0 0
          0 0 0 0 0 0
        </DataArray>
        <DataArray type="Float32" Name="X^w_AuComplex" NumberOfComponents="1" format="ascii">
          1.43925e-16 1.44387e-16 1.4431e-16 1.44267e-16 1.44291e-16 1.44343e-16 1.44291e-16 1.44291e-16 1.44331e-16 1.44267e-16 1.44287e-16 1.44297e-16
          1.4431e-16 1.44329e-16 1.44302e-16 1.44303e-16 1.44283e-16 1.44296e-16 1.44275e-16 1.44297e-16 1.44295e-16 1.44298e-16 1.57062e-16 2.93233e-14
          6.882e-11 1.07379e-10 1.84519e-10 3.64649e-10 1.85767e-15 1.84498e-15
        </DataArray>
        <DataArray type="Float32" Name="X^w_nanoAu" NumberOfComponents="1" format="ascii">
          3.47545e-19 3.48834e-19 3.48622e-19 3.48504e-19 3.48577e-19 3.4872e-19 3.4858e-19 3.48581e-19 3.4869e-19 3.48521e-19 3.48574e-19 3.48603e-19
          3.48641e-19 3.48691e-19 3.48622e-19 3.48627e-19 3.48576e-19 3.4861e-19 3.48561e-19 3.48618e-19 3.48996e-19 4.04883e-19 8.58802e-18 1.20247e-15
          1.65831e-13 2.10792e-13 2.81014e-13 3.96828e-13 1.31319e-18 1.29575e-18
        </DataArray>
        <DataArray type="Float32" Name="X^w_cyanide" NumberOfComponents="1" format="ascii">
          5.06638e-06 5.06636e-06 5.06633e-06 5.06631e-06 5.06628e-06 5.06626e-06 5.06624e-06 5.06621e-06 5.06619e-06 5.06617e-06 5.06614e-06 5.06612e-06
          5.0661e-06 5.06608e-06 5.06605e-06 5.06603e-06 5.06601e-06 5.06599e-06 5.06597e-06 5.06595e-06 5.06593e-06 5.06591e-06 5.06589e-06 5.06587e-06
          5.06633e-06 6.43679e-06 8.57502e-06 1.2249e-05 1.95088e-05 1.94825e-05
        </DataArray>
        <DataArray type="Float32" Name="X^w_citrate" NumberOfComponents="1" format="ascii">
          0.000141796 0.000141796 0.000141796 0.000141796 0.000141796 0.000141796 0.000141796 0.000141796 0.000141796 0.000141796 0.000141796 0.000141796
          0.000141796 0.000141796 0.000141796 0.000141796 0.000141796 0.000141796 0.000141796 0.000141796 0.000141796 0.000141796 0.000141796 0.000141796
          0.000141796 0.000141797 0.000141797 0.000141796 0.000141779 0.000141588
        </DataArray>
        <DataArray type="Float32" Name="X^w_substrate" NumberOfComponents="1" format="ascii">
          1.07297e-27 5.16407e-27 2.48522e-26 1.19593e-25 5.75459e-25 2.7688e-24 1.3321e-23 6.40838e-23 3.08268e-22 1.48278e-21 7.13172e-21 3.42988e-20
          1.64942e-19 7.93144e-19 3.81365e-18 1.83357e-17 8.81497e-17 4.23753e-16 2.03692e-15 9.79042e-15 4.7054e-14 2.26131e-13 1.08665e-12 5.22142e-12
          2.5088e-11 1.20567e-10 5.81524e-10 2.85847e-09 1.552e-08 1.50259e-07
        </DataArray>
        <DataArray type="Float32" Name="m^w_H2O" NumberOfComponents="1" format="ascii">
          55492.6 55492.6 55492.5 55492.5 55492.5 55492.5 55492.5 55492.5 55492.5 55492.5 55492.5 55492.5
          55492.5 55492.4 55492.4 55492.4 55492.4 55492.4 55492.4 55492.4 55492.4 55492.4 55492.4 55492.4
          55492.3 55492.3 55492.1 55491.9 55491.5 55491.5
        </DataArray>
        <DataArray type="Float32" Name="m^w_Air" NumberOfComponents="1" format="ascii">
          0 0 0 0 0 0 0 0 0 0 0 0
          0 0 0 0 0 0 0 0 0 0 0 0
          0 0 0 0 0 0
        </DataArray>
        <DataArray type="Float32" Name="m^w_AuComplex" NumberOfComponents="1" format="ascii">
          7.30587e-13 7.32936e-13 7.32545e-13 7.32324e-13 7.32445e-13 7.32713e-13 7.32447e-13 7.32446e-13 7.32648e-13 7.32322e-13 7.32423e-13 7.32474e-13
          7.32543e-13 7.32641e-13 7.32502e-13 7.32509e-13 7.32405e-13 7.32471e-13 7.32366e-13 7.32475e-13 7.32467e-13 7.32478e-13 7.97273e-13 1.4885e-10
          3.49341e-07 5.45071e-07 9.36646e-07 1.85101e-06 9.42983e-12 9.3654e-12
        </DataArray>
        <DataArray type="Float32" Name="m^w_nanoAu" NumberOfComponents="1" format="ascii">
          1.7642e-15 1.77075e-15 1.76967e-15 1.76907e-15 1.76944e-15 1.77016e-15 1.76945e-15 1.76946e-15 1.77001e-15 1.76915e-15 1.76942e-15 1.76957e-15
          1.76976e-15 1.77001e-15 1.76966e-15 1.76969e-15 1.76943e-15 1.7696e-15 1.76935e-15 1.76964e-15 1.77156e-15 2.05525e-15 4.35942e-14 6.10391e-12
          8.41783e-10 1.07001e-09 1.42647e-09 2.01436e-09 6.66595e-15 6.57743e-15
        </DataArray>
        <DataArray type="Float32" Name="m^w_cyanide" NumberOfComponents="1" format="ascii">
          0.194683 0.194682 0.194681 0.19468 0.194679 0.194678 0.194677 0.194676 0.194675 0.194674 0.194673 0.194672
          0.194672 0.194671 0.19467 0.194669 0.194668 0.194667 0.194666 0.194666 0.194665 0.194664 0.194663 0.194662
          0.19468 0.247342 0.329506 0.470681 0.749648 0.748639
        </DataArray>
        <DataArray type="Float32" Name="m^w_citrate" NumberOfComponents="1" format="ascii">
          0.749742 0.749742 0.749742 0.749742 0.749742 0.749742 0.749742 0.749741 0.749741 0.749741 0.749741 0.749741
          0.749741 0.749741 0.749741 0.749741 0.74974 0.74974 0.74974 0.74974 0.74974 0.74974 0.74974 0.74974
          0.749739 0.749744 0.749746 0.749737 0.749651 0.74864
        </DataArray>
        <DataArray type="Float32" Name="m^w_substrate" NumberOfComponents="1" format="ascii">
          5.95479e-24 2.86597e-23 1.37925e-22 6.63719e-22 3.19369e-21 1.53663e-20 7.39288e-20 3.55653e-19 1.71083e-18 8.22916e-18 3.95797e-17 1.90352e-16
          9.15397e-16 4.40179e-15 2.1165e-14 1.01759e-13 4.89214e-13 2.35175e-12 1.13045e-11 5.43349e-11 2.61141e-10 1.25498e-09 6.03071e-09 2.89778e-08
          1.39233e-07 6.6912e-07 3.22734e-06 1.58639e-05 8.61328e-05 0.000833908
        </DataArray>
        <DataArray type="Float32" Name="process rank" NumberOfComponents="1" format="ascii">
          0 0 0 0 0 0 0 0 0 0 0 0
          0 0 0 0 0 0 0 0 0 0 0 0
          0 0 0 0 0 0
        </DataArray>
      </CellData>
      <Points>
        <DataArray type="Float32" Name="Coordinates" NumberOfComponents="3" format="ascii">
          0 0 0 0.5 0 0 0 0.0333333 0 0.5 0.0333333 0
          0 0.0666667 0 0.5 0.0666667 0 0 0.1 0 0.5 0.1 0
          0 0.133333 0 0.5 0.133333 0 0 0.166667 0 0.5 0.166667 0
          0 0.2 0 0.5 0.2 0 0 0.233333 0 0.5 0.233333 0
          0 0.266667 0 0.5 0.266667 0 0 0.3 0 0.5 0.3 0
          0 0.333333 0 0.5 0.333333 0 0 0.366667 0 0.5 0.366667 0
          0 0.4 0 0.5 0.4 0 0 0.433333 0 0.5 0.433333 0
          0 0.466667 0 0.5 0.466667 0 0 0.5 0 0.5 0.5 0
          0 0.533333 0 0.5 0.533333 0 0 0.566667 0 0.5 0.566667 0
          0 0.6 0 0.5 0.6 0 0 0.633333 0 0.5 0.633333 0
          0 0.666667 0 0.5 0.666667 0 0 0.7 0 0.5 0.7 0
          0 0.733333 0 0.5 0.733333 0 0 0.766667 0 0.5 0.766667 0
          0 0.8 0 0.5 0.8 0 0 0.833333 0 0.5 0.833333 0
          0 0.866667 0 0.5 0.866667 0 0 0.9 0 0.5 0.9 0
          0 0.933333 0 0.5 0.933333 0 0 0.966667 0 0.5 0.966667 0
          0 1 0 0.5 1 0
        </DataArray>
      </Points>
      <Cells>
        <DataArray type="Int32" Name="connectivity" NumberOfComponents="1" format="ascii">
          0 1 3 2 2 3 5 4 4 5 7 6
          6 7 9 8 8 9 11 10 10 11 13 12
          12 13 15 14 14 15 17 16 16 17 19 18
          18 19 21 20 20 21 23 22 22 23 25 24
          24 25 27 26 26 27 29 28 28 29 31 30
          30 31 33 32 32 33 35 34 34 35 37 36
          36 37 39 38 38 39 41 40 40 41 43 42
          42 43 45 44 44 45 47 46 46 47 49 48
          48 49 51 50 50 51 53 52 52 53 55 54
          54 55 57 56 56 57 59 58 58 59 61 60
        </DataArray>
        <DataArray type="Int32" Name="offsets" NumberOfComponents="1" format="ascii">
          4 8 12 16 20 24 28 32 36 40 44 48
          52 56 60 64 68 72 76 80 84 88 92 96
          100 104 108 112 116 120
        </DataArray>
        <DataArray type="UInt8" Name="types" NumberOfComponents="1" format="ascii">
          9 9 9 9 9 9 9 9 9 9 9 9
          9 9 9 9 9 9 9 9 9 9 9 9
          9 9 9 9 9 9
        </DataArray>
      </Cells>
    </Piece>
  </UnstructuredGrid>
</VTKFile>
