<?xml version="1.0"?>
<VTKFile type="UnstructuredGrid" version="0.1" byte_order="LittleEndian">
  <UnstructuredGrid>
    <Piece NumberOfCells="30" NumberOfPoints="62">
      <CellData Scalars="Sg">
        <DataArray type="Float32" Name="Sg" NumberOfComponents="1" format="ascii">
          0 0 0 0 0 0 0 0 0 0 0 0
          0 0 0 0 0 0 0 0 0 0 0 0
          0 0 0 0 0 0
        </DataArray>
        <DataArray type="Float32" Name="Sl" NumberOfComponents="1" format="ascii">
          1 1 1 1 1 1 1 1 1 1 1 1
          1 1 1 1 1 1 1 1 1 1 1 1
          1 1 1 1 1 1
        </DataArray>
        <DataArray type="Float32" Name="pg" NumberOfComponents="1" format="ascii">
          24687.8 24360.9 24034 23707 23380.1 23053.1 22726.2 22399.3 22072.3 21745.4 21418.4 21091.5
          20764.6 20437.6 20110.7 19783.7 19456.8 19129.8 18802.9 18476 18149 17822.1 17495.1 17168.2
          16841.3 16514.3 16187.4 15860.4 15533.5 15208.4
        </DataArray>
        <DataArray type="Float32" Name="pl" NumberOfComponents="1" format="ascii">
          110628 110301 109974 109647 109320 108993 108666 108339 108012 107685 107358 107031
          106704 106377 106050 105723 105396 105070 104743 104416 104089 103762 103435 103108
          102781 102454 102127 101800 101473 101148
        </DataArray>
        <DataArray type="Float32" Name="pc" NumberOfComponents="1" format="ascii">
          -85939.7 -85939.7 -85939.7 -85939.7 -85939.7 -85939.7 -85939.7 -85939.7 -85939.7 -85939.7 -85939.7 -85939.7
          -85939.7 -85939.7 -85939.7 -85939.7 -85939.7 -85939.7 -85939.7 -85939.7 -85939.7 -85939.7 -85939.7 -85939.7
          -85939.7 -85939.7 -85939.7 -85939.7 -85939.7 -85939.7
        </DataArray>
        <DataArray type="Float32" Name="rhoL" NumberOfComponents="1" format="ascii">
          999.855 999.855 999.855 999.855 999.855 999.854 999.854 999.854 999.854 999.854 999.854 999.854
          999.853 999.853 999.853 999.853 999.853 999.853 999.852 999.852 999.852 999.852 999.852 999.852
          999.852 999.851 999.851 999.851 999.851 999.851
        </DataArray>
        <DataArray type="Float32" Name="rhoG" NumberOfComponents="1" format="ascii">
          0.30585 0.3018 0.29775 0.293699 0.289649 0.285598 0.281548 0.277498 0.273447 0.269397 0.265347 0.261296
          0.257246 0.253195 0.249145 0.245095 0.241044 0.236994 0.232944 0.228893 0.224843 0.220793 0.216742 0.212692
          0.208641 0.204591 0.200541 0.19649 0.19244 0.188412
        </DataArray>
        <DataArray type="Float32" Name="mobL" NumberOfComponents="1" format="ascii">
          722.171 722.17 722.17 722.17 722.17 722.17 722.169 722.169 722.169 722.169 722.169 722.169
          722.168 722.168 722.168 722.168 722.168 722.167 722.167 722.167 722.167 722.167 722.166 722.166
          722.166 722.166 722.166 722.166 722.165 722.165
        </DataArray>
        <DataArray type="Float32" Name="mobG" NumberOfComponents="1" format="ascii">
          0 0 0 0 0 0 0 0 0 0 0 0
          0 0 0 0 0 0 0 0 0 0 0 0
          0 0 0 0 0 0
        </DataArray>
        <DataArray type="Float32" Name="porosity" NumberOfComponents="1" format="ascii">
          0.298697 0.298697 0.298697 0.298697 0.298696 0.298696 0.298695 0.298694 0.298693 0.298691 0.298688 0.298685
          0.29868 0.298673 0.298664 0.298652 0.298635 0.298613 0.298583 0.298542 0.298485 0.298406 0.298293 0.298125
          0.297592 0.297144 0.296267 0.294052 0.284247 0.0528356
        </DataArray>
        <DataArray type="Float32" Name="temperature" NumberOfComponents="1" format="ascii">
          281.15 281.15 281.15 281.15 281.15 281.15 281.15 281.15 281.15 281.15 281.15 281.15
          281.15 281.15 281.15 281.15 281.15 281.15 281.15 281.15 281.15 281.15 281.15 281.15
          281.15 281.15 281.15 281.15 281.15 281.15
        </DataArray>
        <DataArray type="Float32" Name="phase presence" NumberOfComponents="1" format="ascii">
          1 1 1 1 1 1 1 1 1 1 1 1
          1 1 1 1 1 1 1 1 1 1 1 1
          1 1 1 1 1 1
        </DataArray>
        <DataArray type="Float32" Name="precipitateVolumeFraction_au" NumberOfComponents="1" format="ascii">
          5.52652e-10 5.5278e-10 5.5272e-10 5.52719e-10 5.52742e-10 5.52766e-10 5.52786e-10 5.52778e-10 5.52766e-10 5.52767e-10 5.52712e-10 5.52757e-10
          5.52758e-10 5.52771e-10 5.5276e-10 5.52782e-10 5.52739e-10 5.52756e-10 5.52687e-10 5.52782e-10 5.52736e-10 5.52687e-10 5.52902e-10 9.53097e-10
          0.00026994 0.000269924 0.000269899 0.000269853 5.52471e-10 5.50888e-10
        </DataArray>
        <DataArray type="Float32" Name="precipitateVolumeFraction_nanoAu" NumberOfComponents="1" format="ascii">
          1.23724e-13 1.23757e-13 1.23741e-13 1.23741e-13 1.23746e-13 1.23751e-13 1.23755e-13 1.23753e-13 1.23749e-13 1.23749e-13 1.23736e-13 1.23745e-13
          1.23745e-13 1.23747e-13 1.23743e-13 1.23747e-13 1.23735e-13 1.23737e-13 1.23718e-13 1.23735e-13 1.23719e-13 1.23715e-13 1.35586e-13 2.57846e-11
          6.03811e-08 7.67046e-08 1.02166e-07 1.45575e-07 4.7432e-13 4.66681e-13
        </DataArray>
        <DataArray type="Float32" Name="precipitateVolumeFraction_d" NumberOfComponents="1" format="ascii">
          0.00065142 0.000651484 0.000651574 0.000651701 0.000651879 0.000652129 0.000652479 0.000652967 0.000653645 0.000654585 0.000655881 0.000657663
          0.0006601 0.000663421 0.000667931 0.000674039 0.000682297 0.000693461 0.000708587 0.00072919 0.000757522 0.000797094 0.000853699 0.000937631
          0.00106904 0.00129306 0.00173135 0.00283907 0.00787639 0.123582
        </DataArray>
        <DataArray type="Float32" Name="precipitateVolumeFraction_p" NumberOfComponents="1" format="ascii">
          0.00065142 0.000651484 0.000651574 0.000651701 0.000651879 0.000652129 0.000652479 0.000652967 0.000653645 0.000654585 0.000655881 0.000657663
          0.0006601 0.000663421 0.000667931 0.000674039 0.000682297 0.000693461 0.000708587 0.00072919 0.000757522 0.000797094 0.000853699 0.000937631
          0.00106904 0.00129306 0.00173135 0.00283907 0.00787639 0.123582
        </DataArray>
        <DataArray type="Float32" Name="K" NumberOfComponents="1" format="ascii">
          9.83364e-11 9.83363e-11 9.8336e-11 9.83357e-11 9.83353e-11 9.83346e-11 9.83337e-11 9.83325e-11 9.83308e-11 9.83284e-11 9.83251e-11 9.83206e-11
          9.83144e-11 9.8306e-11 9.82946e-11 9.82791e-11 9.82581e-11 9.82298e-11 9.81915e-11 9.81393e-11 9.80676e-11 9.79675e-11 9.78245e-11 9.76127e-11
          9.69431e-11 9.63829e-11 9.52945e-11 9.25888e-11 8.1357e-11 2.98374e-13
        </DataArray>
        <DataArray type="Float32" Name="X^w_H2O" NumberOfComponents="1" format="ascii">
          0.99986 0.99986 0.99986 0.99986 0.99986 0.99986 0.99986 0.99986 0.99986 0.99986 0.99986 0.99986
          0.99986 0.99986 0.99986 0.99986 0.99986 0.99986 0.99986 0.99986 0.99986 0.99986 0.99986 0.99986
          0.99986 0.999859 0.999857 0.999853 0.999846 0.999847
        </DataArray>
        <DataArray type="Float32" Name="X^w_Air" NumberOfComponents="1" format="ascii">
          0 0 0 0 0 0 0 0 0 0 0 0
          0 0 0 0 0 0 0 0 0 0 0 0
          0 0 0 0 0 0
        </DataArray>
        <DataArray type="Float32" Name="X^w_AuComplex" NumberOfComponents="1" format="ascii">
          1.41191e-16 1.41227e-16 1.41209e-16 1.41208e-16 1.41214e-16 1.41219e-16 1.41224e-16 1.41221e-16 1.41216e-16 1.41215e-16 1.412e-16 1.4121e-16
          1.41209e-16 1.4121e-16 1.41205e-16 1.41208e-16 1.41193e-16 1.41193e-16 1.41168e-16 1.41184e-16 1.4116e-16 1.41145e-16 1.54495e-16 2.93969e-14
          6.88692e-11 1.07418e-10 1.84463e-10 3.64042e-10 1.83581e-15 1.78538e-15
        </DataArray>
        <DataArray type="Float32" Name="X^w_nanoAu" NumberOfComponents="1" format="ascii">
          5.11924e-19 5.12056e-19 5.11993e-19 5.11992e-19 5.12013e-19 5.12034e-19 5.12051e-19 5.12041e-19 5.12026e-19 5.12024e-19 5.1197e-19 5.12008e-19
          5.12006e-19 5.12013e-19 5.11998e-19 5.12011e-19 5.11962e-19 5.11965e-19 5.11886e-19 5.11989e-19 5.15421e-19 8.40015e-19 3.09037e-17 2.81066e-15
          2.50527e-13 3.18435e-13 4.24371e-13 5.95229e-13 1.95656e-18 1.88258e-18
        </DataArray>
        <DataArray type="Float32" Name="X^w_cyanide" NumberOfComponents="1" format="ascii">
          5.07196e-06 5.07194e-06 5.07193e-06 5.07192e-06 5.0719e-06 5.07189e-06 5.07187e-06 5.07185e-06 5.07184e-06 5.07182e-06 5.0718e-06 5.07177e-06
          5.07174e-06 5.07171e-06 5.07167e-06 5.07161e-06 5.07154e-06 5.07145e-06 5.07133e-06 5.07115e-06 5.07091e-06 5.07056e-06 5.07004e-06 5.06924e-06
          5.06844e-06 6.43822e-06 8.57387e-06 1.22387e-05 1.94597e-05 1.92301e-05
        </DataArray>
        <DataArray type="Float32" Name="X^w_citrate" NumberOfComponents="1" format="ascii">
          0.000134707 0.000134707 0.000134707 0.000134707 0.000134707 0.000134707 0.000134707 0.000134707 0.000134707 0.000134707 0.000134707 0.000134707
          0.000134707 0.000134707 0.000134706 0.000134706 0.000134706 0.000134705 0.000134704 0.000134703 0.000134702 0.000134699 0.000134696 0.00013469
          0.000134682 0.000134667 0.000134638 0.000134571 0.000134352 0.000132766
        </DataArray>
        <DataArray type="Float32" Name="X^w_substrate" NumberOfComponents="1" format="ascii">
          7.11384e-12 9.72723e-12 1.32999e-11 1.8184e-11 2.48608e-11 3.39888e-11 4.64692e-11 6.3536e-11 8.6881e-11 1.18827e-10 1.62567e-10 2.22508e-10
          3.04747e-10 4.17761e-10 5.73414e-10 7.88442e-10 1.08671e-09 1.50271e-09 2.08716e-09 2.91635e-09 4.10825e-09 5.8519e-09 8.46448e-09 1.25105e-08
          1.90764e-08 3.04884e-08 5.25436e-08 1.03425e-07 2.67587e-07 1.44429e-06
        </DataArray>
        <DataArray type="Float32" Name="m^w_H2O" NumberOfComponents="1" format="ascii">
          55493 55492.9 55492.9 55492.9 55492.9 55492.9 55492.9 55492.9 55492.9 55492.9 55492.9 55492.9
          55492.8 55492.8 55492.8 55492.8 55492.8 55492.8 55492.8 55492.8 55492.8 55492.8 55492.8 55492.8
          55492.7 55492.7 55492.5 55492.3 55491.9 55491.9
        </DataArray>
        <DataArray type="Float32" Name="m^w_Air" NumberOfComponents="1" format="ascii">
          0 0 0 0 0 0 0 0 0 0 0 0
          0 0 0 0 0 0 0 0 0 0 0 0
          0 0 0 0 0 0
        </DataArray>
        <DataArray type="Float32" Name="m^w_AuComplex" NumberOfComponents="1" format="ascii">
          7.16711e-13 7.16893e-13 7.16804e-13 7.16799e-13 7.16827e-13 7.16854e-13 7.16877e-13 7.16861e-13 7.16838e-13 7.16834e-13 7.16755e-13 7.16807e-13
          7.168e-13 7.16807e-13 7.16781e-13 7.16796e-13 7.16721e-13 7.16718e-13 7.16595e-13 7.16672e-13 7.16549e-13 7.16475e-13 7.8424e-13 1.49223e-10
          3.49591e-07 5.45271e-07 9.36364e-07 1.84793e-06 9.31888e-12 9.06286e-12
        </DataArray>
        <DataArray type="Float32" Name="m^w_nanoAu" NumberOfComponents="1" format="ascii">
          2.59862e-15 2.59929e-15 2.59897e-15 2.59896e-15 2.59907e-15 2.59917e-15 2.59926e-15 2.59921e-15 2.59913e-15 2.59912e-15 2.59885e-15 2.59904e-15
          2.59903e-15 2.59907e-15 2.59899e-15 2.59905e-15 2.59881e-15 2.59882e-15 2.59842e-15 2.59894e-15 2.61636e-15 4.26406e-15 1.56872e-13 1.42673e-11
          1.27172e-09 1.61643e-09 2.15417e-09 3.02148e-09 9.93183e-15 9.55627e-15
        </DataArray>
        <DataArray type="Float32" Name="m^w_cyanide" NumberOfComponents="1" format="ascii">
          0.194897 0.194897 0.194896 0.194895 0.194895 0.194894 0.194894 0.194893 0.194892 0.194891 0.194891 0.19489
          0.194889 0.194887 0.194886 0.194883 0.194881 0.194877 0.194872 0.194866 0.194856 0.194843 0.194823 0.194792
          0.194761 0.247397 0.329462 0.470286 0.747763 0.738941
        </DataArray>
        <DataArray type="Float32" Name="m^w_citrate" NumberOfComponents="1" format="ascii">
          0.71226 0.71226 0.71226 0.71226 0.71226 0.712259 0.712259 0.712259 0.712259 0.712258 0.712258 0.712257
          0.712257 0.712256 0.712255 0.712253 0.712251 0.712248 0.712243 0.712237 0.712229 0.712216 0.712198 0.712169
          0.712122 0.712045 0.711894 0.711538 0.710378 0.701995
        </DataArray>
        <DataArray type="Float32" Name="m^w_substrate" NumberOfComponents="1" format="ascii">
          3.94805e-08 5.39844e-08 7.38122e-08 1.00918e-07 1.37973e-07 1.88632e-07 2.57895e-07 3.52613e-07 4.82173e-07 6.59465e-07 9.02217e-07 1.23488e-06
          1.69129e-06 2.31849e-06 3.18234e-06 4.3757e-06 6.03103e-06 8.33973e-06 1.15833e-05 1.61852e-05 2.27999e-05 3.24769e-05 4.69761e-05 6.94307e-05
          0.00010587 0.000169204 0.000291606 0.000573985 0.00148505 0.00801552
        </DataArray>
        <DataArray type="Float32" Name="process rank" NumberOfComponents="1" format="ascii">
          0 0 0 0 0 0 0 0 0 0 0 0
          0 0 0 0 0 0 0 0 0 0 0 0
          0 0 0 0 0 0
        </DataArray>
      </CellData>
      <Points>
        <DataArray type="Float32" Name="Coordinates" NumberOfComponents="3" format="ascii">
          0 0 0 0.5 0 0 0 0.0333333 0 0.5 0.0333333 0
          0 0.0666667 0 0.5 0.0666667 0 0 0.1 0 0.5 0.1 0
          0 0.133333 0 0.5 0.133333 0 0 0.166667 0 0.5 0.166667 0
          0 0.2 0 0.5 0.2 0 0 0.233333 0 0.5 0.233333 0
          0 0.266667 0 0.5 0.266667 0 0 0.3 0 0.5 0.3 0
          0 0.333333 0 0.5 0.333333 0 0 0.366667 0 0.5 0.366667 0
          0 0.4 0 0.5 0.4 0 0 0.433333 0 0.5 0.433333 0
          0 0.466667 0 0.5 0.466667 0 0 0.5 0 0.5 0.5 0
          0 0.533333 0 0.5 0.533333 0 0 0.566667 0 0.5 0.566667 0
          0 0.6 0 0.5 0.6 0 0 0.633333 0 0.5 0.633333 0
          0 0.666667 0 0.5 0.666667 0 0 0.7 0 0.5 0.7 0
          0 0.733333 0 0.5 0.733333 0 0 0.766667 0 0.5 0.766667 0
          0 0.8 0 0.5 0.8 0 0 0.833333 0 0.5 0.833333 0
          0 0.866667 0 0.5 0.866667 0 0 0.9 0 0.5 0.9 0
          0 0.933333 0 0.5 0.933333 0 0 0.966667 0 0.5 0.966667 0
          0 1 0 0.5 1 0
        </DataArray>
      </Points>
      <Cells>
        <DataArray type="Int32" Name="connectivity" NumberOfComponents="1" format="ascii">
          0 1 3 2 2 3 5 4 4 5 7 6
          6 7 9 8 8 9 11 10 10 11 13 12
          12 13 15 14 14 15 17 16 16 17 19 18
          18 19 21 20 20 21 23 22 22 23 25 24
          24 25 27 26 26 27 29 28 28 29 31 30
          30 31 33 32 32 33 35 34 34 35 37 36
          36 37 39 38 38 39 41 40 40 41 43 42
          42 43 45 44 44 45 47 46 46 47 49 48
          48 49 51 50 50 51 53 52 52 53 55 54
          54 55 57 56 56 57 59 58 58 59 61 60
        </DataArray>
        <DataArray type="Int32" Name="offsets" NumberOfComponents="1" format="ascii">
          4 8 12 16 20 24 28 32 36 40 44 48
          52 56 60 64 68 72 76 80 84 88 92 96
          100 104 108 112 116 120
        </DataArray>
        <DataArray type="UInt8" Name="types" NumberOfComponents="1" format="ascii">
          9 9 9 9 9 9 9 9 9 9 9 9
          9 9 9 9 9 9 9 9 9 9 9 9
          9 9 9 9 9 9
        </DataArray>
      </Cells>
    </Piece>
  </UnstructuredGrid>
</VTKFile>
