<?xml version="1.0"?>
<VTKFile type="UnstructuredGrid" version="0.1" byte_order="LittleEndian">
  <UnstructuredGrid>
    <Piece NumberOfCells="30" NumberOfPoints="62">
      <CellData Scalars="Sg">
        <DataArray type="Float32" Name="Sg" NumberOfComponents="1" format="ascii">
          0 0 0 0 0 0 0 0 0 0 0 0
          0 0 0 0 0 0 0 0 0 0 0 0
          0 0 0 0 0 0
        </DataArray>
        <DataArray type="Float32" Name="Sl" NumberOfComponents="1" format="ascii">
          1 1 1 1 1 1 1 1 1 1 1 1
          1 1 1 1 1 1 1 1 1 1 1 1
          1 1 1 1 1 1
        </DataArray>
        <DataArray type="Float32" Name="pg" NumberOfComponents="1" format="ascii">
          24687.8 24360.9 24034 23707 23380.1 23053.1 22726.2 22399.3 22072.3 21745.4 21418.4 21091.5
          20764.6 20437.6 20110.7 19783.7 19456.8 19129.8 18802.9 18476 18149 17822.1 17495.1 17168.2
          16841.3 16514.3 16187.4 15860.4 15533.5 15208
        </DataArray>
        <DataArray type="Float32" Name="pl" NumberOfComponents="1" format="ascii">
          110628 110301 109974 109647 109320 108993 108666 108339 108012 107685 107358 107031
          106704 106377 106050 105723 105396 105070 104743 104416 104089 103762 103435 103108
          102781 102454 102127 101800 101473 101148
        </DataArray>
        <DataArray type="Float32" Name="pc" NumberOfComponents="1" format="ascii">
          -85939.7 -85939.7 -85939.7 -85939.7 -85939.7 -85939.7 -85939.7 -85939.7 -85939.7 -85939.7 -85939.7 -85939.7
          -85939.7 -85939.7 -85939.7 -85939.7 -85939.7 -85939.7 -85939.7 -85939.7 -85939.7 -85939.7 -85939.7 -85939.7
          -85939.7 -85939.7 -85939.7 -85939.7 -85939.7 -85939.7
        </DataArray>
        <DataArray type="Float32" Name="rhoL" NumberOfComponents="1" format="ascii">
          999.855 999.855 999.855 999.855 999.855 999.854 999.854 999.854 999.854 999.854 999.854 999.854
          999.853 999.853 999.853 999.853 999.853 999.853 999.852 999.852 999.852 999.852 999.852 999.852
          999.852 999.851 999.851 999.851 999.851 999.851
        </DataArray>
        <DataArray type="Float32" Name="rhoG" NumberOfComponents="1" format="ascii">
          0.30585 0.3018 0.29775 0.293699 0.289649 0.285598 0.281548 0.277498 0.273447 0.269397 0.265347 0.261296
          0.257246 0.253195 0.249145 0.245095 0.241044 0.236994 0.232944 0.228893 0.224843 0.220793 0.216742 0.212692
          0.208641 0.204591 0.200541 0.19649 0.19244 0.188407
        </DataArray>
        <DataArray type="Float32" Name="mobL" NumberOfComponents="1" format="ascii">
          722.171 722.17 722.17 722.17 722.17 722.17 722.169 722.169 722.169 722.169 722.169 722.169
          722.168 722.168 722.168 722.168 722.168 722.167 722.167 722.167 722.167 722.167 722.166 722.166
          722.166 722.166 722.166 722.166 722.165 722.165
        </DataArray>
        <DataArray type="Float32" Name="mobG" NumberOfComponents="1" format="ascii">
          0 0 0 0 0 0 0 0 0 0 0 0
          0 0 0 0 0 0 0 0 0 0 0 0
          0 0 0 0 0 0
        </DataArray>
        <DataArray type="Float32" Name="porosity" NumberOfComponents="1" format="ascii">
          0.298673 0.298673 0.298673 0.298672 0.298672 0.298672 0.298671 0.29867 0.298668 0.298667 0.298664 0.29866
          0.298655 0.298649 0.298639 0.298627 0.29861 0.298588 0.298557 0.298515 0.298458 0.298377 0.298263 0.298093
          0.297558 0.297107 0.296229 0.294029 0.284498 0.0575298
        </DataArray>
        <DataArray type="Float32" Name="temperature" NumberOfComponents="1" format="ascii">
          281.15 281.15 281.15 281.15 281.15 281.15 281.15 281.15 281.15 281.15 281.15 281.15
          281.15 281.15 281.15 281.15 281.15 281.15 281.15 281.15 281.15 281.15 281.15 281.15
          281.15 281.15 281.15 281.15 281.15 281.15
        </DataArray>
        <DataArray type="Float32" Name="phase presence" NumberOfComponents="1" format="ascii">
          1 1 1 1 1 1 1 1 1 1 1 1
          1 1 1 1 1 1 1 1 1 1 1 1
          1 1 1 1 1 1
        </DataArray>
        <DataArray type="Float32" Name="precipitateVolumeFraction_au" NumberOfComponents="1" format="ascii">
          5.52651e-10 5.52779e-10 5.52719e-10 5.52719e-10 5.52742e-10 5.52766e-10 5.52786e-10 5.52778e-10 5.52765e-10 5.52767e-10 5.52712e-10 5.52756e-10
          5.52757e-10 5.5277e-10 5.5276e-10 5.52782e-10 5.52739e-10 5.52756e-10 5.52687e-10 5.52782e-10 5.52736e-10 5.52687e-10 5.52882e-10 9.08898e-10
          0.00026994 0.000269924 0.000269899 0.000269853 5.5247e-10 5.50889e-10
        </DataArray>
        <DataArray type="Float32" Name="precipitateVolumeFraction_nanoAu" NumberOfComponents="1" format="ascii">
          1.23957e-13 1.24009e-13 1.23987e-13 1.23987e-13 1.23994e-13 1.24001e-13 1.24005e-13 1.24002e-13 1.23997e-13 1.23997e-13 1.23982e-13 1.23992e-13
          1.23991e-13 1.23993e-13 1.23989e-13 1.23993e-13 1.23981e-13 1.23982e-13 1.23962e-13 1.2398e-13 1.23963e-13 1.23958e-13 1.35833e-13 2.57891e-11
          6.03908e-08 7.67151e-08 1.02176e-07 1.4558e-07 4.74485e-13 4.66713e-13
        </DataArray>
        <DataArray type="Float32" Name="precipitateVolumeFraction_d" NumberOfComponents="1" format="ascii">
          0.000663527 0.000663592 0.000663683 0.000663812 0.000663992 0.000664246 0.000664602 0.000665097 0.000665787 0.000666741 0.000668058 0.000669868
          0.000672344 0.000675717 0.000680298 0.000686502 0.000694887 0.00070622 0.000721571 0.000742471 0.000771199 0.000811296 0.0008686 0.000953465
          0.00108609 0.00131158 0.0017507 0.0028507 0.00775109 0.121235
        </DataArray>
        <DataArray type="Float32" Name="precipitateVolumeFraction_p" NumberOfComponents="1" format="ascii">
          0.000663527 0.000663592 0.000663683 0.000663812 0.000663992 0.000664246 0.000664602 0.000665097 0.000665787 0.000666741 0.000668058 0.000669868
          0.000672344 0.000675717 0.000680298 0.000686502 0.000694887 0.00070622 0.000721571 0.000742471 0.000771199 0.000811296 0.0008686 0.000953465
          0.00108609 0.00131158 0.0017507 0.0028507 0.00775109 0.121235
        </DataArray>
        <DataArray type="Float32" Name="K" NumberOfComponents="1" format="ascii">
          9.83057e-11 9.83056e-11 9.83053e-11 9.8305e-11 9.83045e-11 9.83039e-11 9.8303e-11 9.83017e-11 9.83e-11 9.82976e-11 9.82942e-11 9.82896e-11
          9.82834e-11 9.82748e-11 9.82632e-11 9.82475e-11 9.82262e-11 9.81975e-11 9.81586e-11 9.81057e-11 9.8033e-11 9.79316e-11 9.77869e-11 9.75728e-11
          9.69003e-11 9.63367e-11 9.52467e-11 9.25607e-11 8.16295e-11 3.89024e-13
        </DataArray>
        <DataArray type="Float32" Name="X^w_H2O" NumberOfComponents="1" format="ascii">
          0.99986 0.99986 0.99986 0.99986 0.99986 0.99986 0.99986 0.99986 0.99986 0.99986 0.99986 0.99986
          0.99986 0.99986 0.99986 0.99986 0.99986 0.99986 0.99986 0.99986 0.99986 0.99986 0.99986 0.99986
          0.99986 0.999859 0.999857 0.999853 0.999846 0.999847
        </DataArray>
        <DataArray type="Float32" Name="X^w_Air" NumberOfComponents="1" format="ascii">
          0 0 0 0 0 0 0 0 0 0 0 0
          0 0 0 0 0 0 0 0 0 0 0 0
          0 0 0 0 0 0
        </DataArray>
        <DataArray type="Float32" Name="X^w_AuComplex" NumberOfComponents="1" format="ascii">
          1.4144e-16 1.41494e-16 1.41469e-16 1.41469e-16 1.41476e-16 1.41482e-16 1.41487e-16 1.41483e-16 1.41477e-16 1.41476e-16 1.41459e-16 1.41469e-16
          1.41468e-16 1.41469e-16 1.41463e-16 1.41466e-16 1.4145e-16 1.41449e-16 1.41424e-16 1.41439e-16 1.41414e-16 1.41399e-16 1.54753e-16 2.94047e-14
          6.88871e-11 1.07442e-10 1.84493e-10 3.64059e-10 1.83626e-15 1.785e-15
        </DataArray>
        <DataArray type="Float32" Name="X^w_nanoAu" NumberOfComponents="1" format="ascii">
          5.1289e-19 5.13102e-19 5.1301e-19 5.13011e-19 5.1304e-19 5.13066e-19 5.13086e-19 5.13072e-19 5.13053e-19 5.13049e-19 5.12989e-19 5.1303e-19
          5.13027e-19 5.13033e-19 5.13016e-19 5.13029e-19 5.12978e-19 5.1298e-19 5.12899e-19 5.13002e-19 5.16436e-19 8.41238e-19 3.09194e-17 2.81155e-15
          2.50567e-13 3.18477e-13 4.24406e-13 5.95226e-13 1.95706e-18 1.88217e-18
        </DataArray>
        <DataArray type="Float32" Name="X^w_cyanide" NumberOfComponents="1" format="ascii">
          5.07283e-06 5.07281e-06 5.07278e-06 5.07276e-06 5.07274e-06 5.07271e-06 5.07269e-06 5.07266e-06 5.07264e-06 5.07261e-06 5.07258e-06 5.07255e-06
          5.07251e-06 5.07247e-06 5.07242e-06 5.07236e-06 5.07229e-06 5.07219e-06 5.07205e-06 5.07187e-06 5.07162e-06 5.07126e-06 5.07073e-06 5.0699e-06
          5.06907e-06 6.4389e-06 8.57452e-06 1.22389e-05 1.9458e-05 1.92247e-05
        </DataArray>
        <DataArray type="Float32" Name="X^w_citrate" NumberOfComponents="1" format="ascii">
          0.000134707 0.000134707 0.000134707 0.000134707 0.000134707 0.000134707 0.000134707 0.000134707 0.000134707 0.000134707 0.000134707 0.000134707
          0.000134707 0.000134707 0.000134706 0.000134706 0.000134706 0.000134705 0.000134704 0.000134703 0.000134702 0.000134699 0.000134696 0.00013469
          0.000134681 0.000134666 0.000134637 0.000134567 0.00013434 0.000132729
        </DataArray>
        <DataArray type="Float32" Name="X^w_substrate" NumberOfComponents="1" format="ascii">
          6.41647e-12 8.81493e-12 1.21092e-11 1.66339e-11 2.28486e-11 3.13849e-11 4.31112e-11 5.92226e-11 8.13647e-11 1.11807e-10 1.53687e-10 2.1135e-10
          2.90837e-10 4.00588e-10 5.52466e-10 7.63279e-10 1.0571e-09 1.46885e-09 2.05014e-09 2.87884e-09 4.07584e-09 5.83557e-09 8.48526e-09 1.2609e-08
          1.9334e-08 3.10775e-08 5.38689e-08 1.06593e-07 2.76417e-07 1.47224e-06
        </DataArray>
        <DataArray type="Float32" Name="m^w_H2O" NumberOfComponents="1" format="ascii">
          55493 55492.9 55492.9 55492.9 55492.9 55492.9 55492.9 55492.9 55492.9 55492.9 55492.9 55492.9
          55492.8 55492.8 55492.8 55492.8 55492.8 55492.8 55492.8 55492.8 55492.8 55492.8 55492.8 55492.8
          55492.7 55492.7 55492.5 55492.3 55491.9 55491.9
        </DataArray>
        <DataArray type="Float32" Name="m^w_Air" NumberOfComponents="1" format="ascii">
          0 0 0 0 0 0 0 0 0 0 0 0
          0 0 0 0 0 0 0 0 0 0 0 0
          0 0 0 0 0 0
        </DataArray>
        <DataArray type="Float32" Name="m^w_AuComplex" NumberOfComponents="1" format="ascii">
          7.17973e-13 7.18249e-13 7.18124e-13 7.18121e-13 7.18156e-13 7.18189e-13 7.18213e-13 7.18191e-13 7.18163e-13 7.18156e-13 7.18068e-13 7.18122e-13
          7.18113e-13 7.18119e-13 7.1809e-13 7.18103e-13 7.18024e-13 7.1802e-13 7.17892e-13 7.1797e-13 7.17843e-13 7.17764e-13 7.85549e-13 1.49263e-10
          3.49682e-07 5.45394e-07 9.36517e-07 1.84802e-06 9.32114e-12 9.06094e-12
        </DataArray>
        <DataArray type="Float32" Name="m^w_nanoAu" NumberOfComponents="1" format="ascii">
          2.60352e-15 2.6046e-15 2.60413e-15 2.60414e-15 2.60428e-15 2.60441e-15 2.60451e-15 2.60444e-15 2.60435e-15 2.60433e-15 2.60402e-15 2.60423e-15
          2.60421e-15 2.60424e-15 2.60416e-15 2.60422e-15 2.60396e-15 2.60397e-15 2.60356e-15 2.60408e-15 2.62151e-15 4.27026e-15 1.56952e-13 1.42719e-11
          1.27192e-09 1.61664e-09 2.15435e-09 3.02146e-09 9.93435e-15 9.55421e-15
        </DataArray>
        <DataArray type="Float32" Name="m^w_cyanide" NumberOfComponents="1" format="ascii">
          0.194931 0.19493 0.194929 0.194928 0.194927 0.194926 0.194925 0.194924 0.194923 0.194922 0.194921 0.19492
          0.194918 0.194917 0.194915 0.194912 0.194909 0.194905 0.1949 0.194893 0.194884 0.19487 0.194849 0.194817
          0.194785 0.247423 0.329487 0.470296 0.747697 0.738731
        </DataArray>
        <DataArray type="Float32" Name="m^w_citrate" NumberOfComponents="1" format="ascii">
          0.71226 0.71226 0.71226 0.71226 0.71226 0.71226 0.712259 0.712259 0.712259 0.712259 0.712258 0.712258
          0.712257 0.712256 0.712255 0.712253 0.712251 0.712248 0.712244 0.712238 0.712229 0.712216 0.712197 0.712168
          0.71212 0.712041 0.711884 0.711516 0.710315 0.701796
        </DataArray>
        <DataArray type="Float32" Name="m^w_substrate" NumberOfComponents="1" format="ascii">
          3.56103e-08 4.89212e-08 6.7204e-08 9.23152e-08 1.26805e-07 1.7418e-07 2.39259e-07 3.28674e-07 4.51558e-07 6.20509e-07 8.52934e-07 1.17295e-06
          1.61409e-06 2.22319e-06 3.06608e-06 4.23605e-06 5.86668e-06 8.15185e-06 1.13779e-05 1.5977e-05 2.26201e-05 3.23862e-05 4.70915e-05 6.99777e-05
          0.0001073 0.000172474 0.000298962 0.000591568 0.00153406 0.00817064
        </DataArray>
        <DataArray type="Float32" Name="process rank" NumberOfComponents="1" format="ascii">
          0 0 0 0 0 0 0 0 0 0 0 0
          0 0 0 0 0 0 0 0 0 0 0 0
          0 0 0 0 0 0
        </DataArray>
      </CellData>
      <Points>
        <DataArray type="Float32" Name="Coordinates" NumberOfComponents="3" format="ascii">
          0 0 0 0.5 0 0 0 0.0333333 0 0.5 0.0333333 0
          0 0.0666667 0 0.5 0.0666667 0 0 0.1 0 0.5 0.1 0
          0 0.133333 0 0.5 0.133333 0 0 0.166667 0 0.5 0.166667 0
          0 0.2 0 0.5 0.2 0 0 0.233333 0 0.5 0.233333 0
          0 0.266667 0 0.5 0.266667 0 0 0.3 0 0.5 0.3 0
          0 0.333333 0 0.5 0.333333 0 0 0.366667 0 0.5 0.366667 0
          0 0.4 0 0.5 0.4 0 0 0.433333 0 0.5 0.433333 0
          0 0.466667 0 0.5 0.466667 0 0 0.5 0 0.5 0.5 0
          0 0.533333 0 0.5 0.533333 0 0 0.566667 0 0.5 0.566667 0
          0 0.6 0 0.5 0.6 0 0 0.633333 0 0.5 0.633333 0
          0 0.666667 0 0.5 0.666667 0 0 0.7 0 0.5 0.7 0
          0 0.733333 0 0.5 0.733333 0 0 0.766667 0 0.5 0.766667 0
          0 0.8 0 0.5 0.8 0 0 0.833333 0 0.5 0.833333 0
          0 0.866667 0 0.5 0.866667 0 0 0.9 0 0.5 0.9 0
          0 0.933333 0 0.5 0.933333 0 0 0.966667 0 0.5 0.966667 0
          0 1 0 0.5 1 0
        </DataArray>
      </Points>
      <Cells>
        <DataArray type="Int32" Name="connectivity" NumberOfComponents="1" format="ascii">
          0 1 3 2 2 3 5 4 4 5 7 6
          6 7 9 8 8 9 11 10 10 11 13 12
          12 13 15 14 14 15 17 16 16 17 19 18
          18 19 21 20 20 21 23 22 22 23 25 24
          24 25 27 26 26 27 29 28 28 29 31 30
          30 31 33 32 32 33 35 34 34 35 37 36
          36 37 39 38 38 39 41 40 40 41 43 42
          42 43 45 44 44 45 47 46 46 47 49 48
          48 49 51 50 50 51 53 52 52 53 55 54
          54 55 57 56 56 57 59 58 58 59 61 60
        </DataArray>
        <DataArray type="Int32" Name="offsets" NumberOfComponents="1" format="ascii">
          4 8 12 16 20 24 28 32 36 40 44 48
          52 56 60 64 68 72 76 80 84 88 92 96
          100 104 108 112 116 120
        </DataArray>
        <DataArray type="UInt8" Name="types" NumberOfComponents="1" format="ascii">
          9 9 9 9 9 9 9 9 9 9 9 9
          9 9 9 9 9 9 9 9 9 9 9 9
          9 9 9 9 9 9
        </DataArray>
      </Cells>
    </Piece>
  </UnstructuredGrid>
</VTKFile>
