<?xml version="1.0"?>
<VTKFile type="UnstructuredGrid" version="0.1" byte_order="LittleEndian">
  <UnstructuredGrid>
    <Piece NumberOfCells="30" NumberOfPoints="62">
      <CellData Scalars="Sg">
        <DataArray type="Float32" Name="Sg" NumberOfComponents="1" format="ascii">
          0 0 0 0 0 0 0 0 0 0 0 0
          0 0 0 0 0 0 0 0 0 0 0 0
          0 0 0 0 0 0
        </DataArray>
        <DataArray type="Float32" Name="Sl" NumberOfComponents="1" format="ascii">
          1 1 1 1 1 1 1 1 1 1 1 1
          1 1 1 1 1 1 1 1 1 1 1 1
          1 1 1 1 1 1
        </DataArray>
        <DataArray type="Float32" Name="pg" NumberOfComponents="1" format="ascii">
          24687.8 24360.9 24034 23707 23380.1 23053.1 22726.2 22399.3 22072.3 21745.4 21418.4 21091.5
          20764.6 20437.6 20110.7 19783.7 19456.8 19129.8 18802.9 18476 18149 17822.1 17495.1 17168.2
          16841.3 16514.3 16187.4 15860.4 15533.5 15209.5
        </DataArray>
        <DataArray type="Float32" Name="pl" NumberOfComponents="1" format="ascii">
          110628 110301 109974 109647 109320 108993 108666 108339 108012 107685 107358 107031
          106704 106377 106050 105723 105396 105070 104743 104416 104089 103762 103435 103108
          102781 102454 102127 101800 101473 101149
        </DataArray>
        <DataArray type="Float32" Name="pc" NumberOfComponents="1" format="ascii">
          -85939.7 -85939.7 -85939.7 -85939.7 -85939.7 -85939.7 -85939.7 -85939.7 -85939.7 -85939.7 -85939.7 -85939.7
          -85939.7 -85939.7 -85939.7 -85939.7 -85939.7 -85939.7 -85939.7 -85939.7 -85939.7 -85939.7 -85939.7 -85939.7
          -85939.7 -85939.7 -85939.7 -85939.7 -85939.7 -85939.7
        </DataArray>
        <DataArray type="Float32" Name="rhoL" NumberOfComponents="1" format="ascii">
          999.855 999.855 999.855 999.855 999.855 999.854 999.854 999.854 999.854 999.854 999.854 999.854
          999.853 999.853 999.853 999.853 999.853 999.853 999.852 999.852 999.852 999.852 999.852 999.852
          999.852 999.851 999.851 999.851 999.851 999.851
        </DataArray>
        <DataArray type="Float32" Name="rhoG" NumberOfComponents="1" format="ascii">
          0.30585 0.3018 0.29775 0.293699 0.289649 0.285598 0.281548 0.277498 0.273447 0.269397 0.265347 0.261296
          0.257246 0.253195 0.249145 0.245095 0.241044 0.236994 0.232944 0.228893 0.224843 0.220793 0.216742 0.212692
          0.208641 0.204591 0.200541 0.19649 0.19244 0.188426
        </DataArray>
        <DataArray type="Float32" Name="mobL" NumberOfComponents="1" format="ascii">
          722.171 722.17 722.17 722.17 722.17 722.17 722.169 722.169 722.169 722.169 722.169 722.169
          722.168 722.168 722.168 722.168 722.168 722.167 722.167 722.167 722.167 722.167 722.166 722.166
          722.166 722.166 722.166 722.166 722.165 722.165
        </DataArray>
        <DataArray type="Float32" Name="mobG" NumberOfComponents="1" format="ascii">
          0 0 0 0 0 0 0 0 0 0 0 0
          0 0 0 0 0 0 0 0 0 0 0 0
          0 0 0 0 0 0
        </DataArray>
        <DataArray type="Float32" Name="porosity" NumberOfComponents="1" format="ascii">
          0.2988 0.2988 0.2988 0.2988 0.2988 0.298799 0.298798 0.298798 0.298796 0.298795 0.298792 0.298789
          0.298784 0.298778 0.29877 0.298758 0.298743 0.298722 0.298693 0.298655 0.298602 0.298527 0.29842 0.29826
          0.297738 0.297304 0.29644 0.294177 0.283312 0.0455715
        </DataArray>
        <DataArray type="Float32" Name="temperature" NumberOfComponents="1" format="ascii">
          281.15 281.15 281.15 281.15 281.15 281.15 281.15 281.15 281.15 281.15 281.15 281.15
          281.15 281.15 281.15 281.15 281.15 281.15 281.15 281.15 281.15 281.15 281.15 281.15
          281.15 281.15 281.15 281.15 281.15 281.15
        </DataArray>
        <DataArray type="Float32" Name="phase presence" NumberOfComponents="1" format="ascii">
          1 1 1 1 1 1 1 1 1 1 1 1
          1 1 1 1 1 1 1 1 1 1 1 1
          1 1 1 1 1 1
        </DataArray>
        <DataArray type="Float32" Name="precipitateVolumeFraction_au" NumberOfComponents="1" format="ascii">
          5.52652e-10 5.5278e-10 5.5272e-10 5.52719e-10 5.52742e-10 5.52766e-10 5.52787e-10 5.52779e-10 5.52766e-10 5.52767e-10 5.52712e-10 5.52757e-10
          5.52758e-10 5.52771e-10 5.5276e-10 5.52783e-10 5.52739e-10 5.52756e-10 5.52687e-10 5.52782e-10 5.52737e-10 5.52687e-10 5.52995e-10 1.15182e-09
          0.000269941 0.000269925 0.0002699 0.000269852 5.5247e-10 5.50882e-10
        </DataArray>
        <DataArray type="Float32" Name="precipitateVolumeFraction_nanoAu" NumberOfComponents="1" format="ascii">
          1.23636e-13 1.23664e-13 1.23651e-13 1.23651e-13 1.23656e-13 1.23661e-13 1.23665e-13 1.23663e-13 1.2366e-13 1.23661e-13 1.23648e-13 1.23658e-13
          1.23657e-13 1.2366e-13 1.23656e-13 1.2366e-13 1.23649e-13 1.2365e-13 1.23632e-13 1.23649e-13 1.23633e-13 1.23629e-13 1.35521e-13 2.58051e-11
          6.03646e-08 7.66865e-08 1.02149e-07 1.4557e-07 4.74384e-13 4.66897e-13
        </DataArray>
        <DataArray type="Float32" Name="precipitateVolumeFraction_d" NumberOfComponents="1" format="ascii">
          0.000599769 0.000599829 0.000599914 0.000600033 0.0006002 0.000600434 0.000600761 0.000601217 0.000601852 0.00060273 0.000603941 0.000605605
          0.000607882 0.000610984 0.000615198 0.000620907 0.00062863 0.000639081 0.000653255 0.000672592 0.000699237 0.000736551 0.000790118 0.000869943
          0.000995819 0.00121278 0.00164513 0.00277661 0.00834398 0.127214
        </DataArray>
        <DataArray type="Float32" Name="precipitateVolumeFraction_p" NumberOfComponents="1" format="ascii">
          0.000599769 0.000599829 0.000599914 0.000600033 0.0006002 0.000600434 0.000600761 0.000601217 0.000601852 0.00060273 0.000603941 0.000605605
          0.000607882 0.000610984 0.000615198 0.000620907 0.00062863 0.000639081 0.000653255 0.000672592 0.000699237 0.000736551 0.000790118 0.000869943
          0.000995819 0.00121278 0.00164513 0.00277661 0.00834398 0.127214
        </DataArray>
        <DataArray type="Float32" Name="K" NumberOfComponents="1" format="ascii">
          9.84675e-11 9.84673e-11 9.84671e-11 9.84668e-11 9.84664e-11 9.84658e-11 9.8465e-11 9.84638e-11 9.84622e-11 9.846e-11 9.84569e-11 9.84527e-11
          9.84469e-11 9.8439e-11 9.84283e-11 9.84138e-11 9.83942e-11 9.83677e-11 9.83318e-11 9.82827e-11 9.82152e-11 9.81207e-11 9.79852e-11 9.77835e-11
          9.71267e-11 9.65833e-11 9.55078e-11 9.27397e-11 8.03465e-11 1.8855e-13
        </DataArray>
        <DataArray type="Float32" Name="X^w_H2O" NumberOfComponents="1" format="ascii">
          0.99986 0.99986 0.99986 0.99986 0.99986 0.99986 0.99986 0.99986 0.99986 0.99986 0.99986 0.99986
          0.99986 0.99986 0.99986 0.99986 0.99986 0.99986 0.99986 0.99986 0.99986 0.99986 0.99986 0.99986
          0.99986 0.999859 0.999857 0.999853 0.999846 0.999847
        </DataArray>
        <DataArray type="Float32" Name="X^w_Air" NumberOfComponents="1" format="ascii">
          0 0 0 0 0 0 0 0 0 0 0 0
          0 0 0 0 0 0 0 0 0 0 0 0
          0 0 0 0 0 0
        </DataArray>
        <DataArray type="Float32" Name="X^w_AuComplex" NumberOfComponents="1" format="ascii">
          1.41068e-16 1.41101e-16 1.41085e-16 1.41085e-16 1.41091e-16 1.41097e-16 1.41102e-16 1.411e-16 1.41096e-16 1.41096e-16 1.41082e-16 1.41092e-16
          1.41091e-16 1.41093e-16 1.41089e-16 1.41092e-16 1.41078e-16 1.41077e-16 1.41053e-16 1.41069e-16 1.41045e-16 1.41031e-16 1.54401e-16 2.94159e-14
          6.88388e-11 1.07376e-10 1.84412e-10 3.6402e-10 1.83641e-15 1.7869e-15
        </DataArray>
        <DataArray type="Float32" Name="X^w_nanoAu" NumberOfComponents="1" format="ascii">
          5.11557e-19 5.11673e-19 5.11618e-19 5.11617e-19 5.11639e-19 5.1166e-19 5.11678e-19 5.1167e-19 5.11658e-19 5.11657e-19 5.11606e-19 5.11645e-19
          5.11643e-19 5.11652e-19 5.11637e-19 5.11652e-19 5.11604e-19 5.11607e-19 5.11529e-19 5.11631e-19 5.1506e-19 8.39326e-19 3.08805e-17 2.80928e-15
          2.50458e-13 3.18362e-13 4.2431e-13 5.95245e-13 1.95723e-18 1.88424e-18
        </DataArray>
        <DataArray type="Float32" Name="X^w_cyanide" NumberOfComponents="1" format="ascii">
          5.07062e-06 5.07062e-06 5.07062e-06 5.07061e-06 5.07061e-06 5.07061e-06 5.07061e-06 5.07061e-06 5.0706e-06 5.07059e-06 5.07058e-06 5.07057e-06
          5.07055e-06 5.07052e-06 5.07049e-06 5.07044e-06 5.07037e-06 5.07028e-06 5.07016e-06 5.06999e-06 5.06974e-06 5.0694e-06 5.06888e-06 5.06811e-06
          5.06736e-06 6.43704e-06 8.57276e-06 1.22384e-05 1.94636e-05 1.92382e-05
        </DataArray>
        <DataArray type="Float32" Name="X^w_citrate" NumberOfComponents="1" format="ascii">
          0.000134707 0.000134707 0.000134707 0.000134707 0.000134707 0.000134707 0.000134707 0.000134707 0.000134707 0.000134707 0.000134707 0.000134707
          0.000134707 0.000134706 0.000134706 0.000134706 0.000134705 0.000134705 0.000134704 0.000134703 0.000134701 0.000134699 0.000134695 0.00013469
          0.000134681 0.000134668 0.000134641 0.00013458 0.000134378 0.000132822
        </DataArray>
        <DataArray type="Float32" Name="X^w_substrate" NumberOfComponents="1" format="ascii">
          1.21343e-11 1.62462e-11 2.17503e-11 2.91177e-11 3.89793e-11 5.21802e-11 6.98527e-11 9.35155e-11 1.25208e-10 1.67671e-10 2.24598e-10 3.00981e-10
          4.03587e-10 5.41642e-10 7.27801e-10 9.79576e-10 1.32147e-09 1.78826e-09 2.43019e-09 3.32156e-09 4.57544e-09 6.37038e-09 9.00176e-09 1.29889e-08
          1.93207e-08 3.00978e-08 5.05364e-08 9.70698e-08 2.47845e-07 1.40307e-06
        </DataArray>
        <DataArray type="Float32" Name="m^w_H2O" NumberOfComponents="1" format="ascii">
          55493 55492.9 55492.9 55492.9 55492.9 55492.9 55492.9 55492.9 55492.9 55492.9 55492.9 55492.9
          55492.8 55492.8 55492.8 55492.8 55492.8 55492.8 55492.8 55492.8 55492.8 55492.8 55492.8 55492.8
          55492.7 55492.7 55492.5 55492.3 55491.9 55491.9
        </DataArray>
        <DataArray type="Float32" Name="m^w_Air" NumberOfComponents="1" format="ascii">
          0 0 0 0 0 0 0 0 0 0 0 0
          0 0 0 0 0 0 0 0 0 0 0 0
          0 0 0 0 0 0
        </DataArray>
        <DataArray type="Float32" Name="m^w_AuComplex" NumberOfComponents="1" format="ascii">
          7.16088e-13 7.16253e-13 7.16175e-13 7.16174e-13 7.16203e-13 7.16233e-13 7.16259e-13 7.16247e-13 7.16229e-13 7.16229e-13 7.16154e-13 7.16208e-13
          7.16204e-13 7.16214e-13 7.16191e-13 7.16208e-13 7.16134e-13 7.16133e-13 7.16011e-13 7.16089e-13 7.15967e-13 7.15894e-13 7.83766e-13 1.4932e-10
          3.49437e-07 5.4506e-07 9.36104e-07 1.84782e-06 9.32191e-12 9.07056e-12
        </DataArray>
        <DataArray type="Float32" Name="m^w_nanoAu" NumberOfComponents="1" format="ascii">
          2.59675e-15 2.59734e-15 2.59706e-15 2.59706e-15 2.59717e-15 2.59728e-15 2.59737e-15 2.59733e-15 2.59726e-15 2.59726e-15 2.597e-15 2.5972e-15
          2.59719e-15 2.59723e-15 2.59716e-15 2.59723e-15 2.59699e-15 2.597e-15 2.59661e-15 2.59713e-15 2.61453e-15 4.26056e-15 1.56754e-13 1.42603e-11
          1.27136e-09 1.61605e-09 2.15386e-09 3.02156e-09 9.93519e-15 9.5647e-15
        </DataArray>
        <DataArray type="Float32" Name="m^w_cyanide" NumberOfComponents="1" format="ascii">
          0.194846 0.194846 0.194845 0.194845 0.194845 0.194845 0.194845 0.194845 0.194845 0.194844 0.194844 0.194843
          0.194843 0.194842 0.19484 0.194838 0.194836 0.194832 0.194828 0.194821 0.194811 0.194798 0.194778 0.194748
          0.19472 0.247352 0.329419 0.470276 0.747911 0.73925
        </DataArray>
        <DataArray type="Float32" Name="m^w_citrate" NumberOfComponents="1" format="ascii">
          0.71226 0.71226 0.71226 0.71226 0.71226 0.712259 0.712259 0.712259 0.712259 0.712258 0.712258 0.712257
          0.712256 0.712255 0.712254 0.712252 0.712249 0.712246 0.712241 0.712234 0.712225 0.712213 0.712194 0.712165
          0.71212 0.712048 0.711908 0.711584 0.710518 0.702289
        </DataArray>
        <DataArray type="Float32" Name="m^w_substrate" NumberOfComponents="1" format="ascii">
          6.73432e-08 9.01637e-08 1.2071e-07 1.61598e-07 2.16328e-07 2.8959e-07 3.87669e-07 5.18993e-07 6.94879e-07 9.3054e-07 1.24648e-06 1.67039e-06
          2.23983e-06 3.00601e-06 4.03915e-06 5.43645e-06 7.3339e-06 9.92448e-06 1.34871e-05 1.8434e-05 2.53928e-05 3.53543e-05 4.9958e-05 7.20857e-05
          0.000107226 0.000167037 0.000280466 0.000538717 0.00137549 0.00778676
        </DataArray>
        <DataArray type="Float32" Name="process rank" NumberOfComponents="1" format="ascii">
          0 0 0 0 0 0 0 0 0 0 0 0
          0 0 0 0 0 0 0 0 0 0 0 0
          0 0 0 0 0 0
        </DataArray>
      </CellData>
      <Points>
        <DataArray type="Float32" Name="Coordinates" NumberOfComponents="3" format="ascii">
          0 0 0 0.5 0 0 0 0.0333333 0 0.5 0.0333333 0
          0 0.0666667 0 0.5 0.0666667 0 0 0.1 0 0.5 0.1 0
          0 0.133333 0 0.5 0.133333 0 0 0.166667 0 0.5 0.166667 0
          0 0.2 0 0.5 0.2 0 0 0.233333 0 0.5 0.233333 0
          0 0.266667 0 0.5 0.266667 0 0 0.3 0 0.5 0.3 0
          0 0.333333 0 0.5 0.333333 0 0 0.366667 0 0.5 0.366667 0
          0 0.4 0 0.5 0.4 0 0 0.433333 0 0.5 0.433333 0
          0 0.466667 0 0.5 0.466667 0 0 0.5 0 0.5 0.5 0
          0 0.533333 0 0.5 0.533333 0 0 0.566667 0 0.5 0.566667 0
          0 0.6 0 0.5 0.6 0 0 0.633333 0 0.5 0.633333 0
          0 0.666667 0 0.5 0.666667 0 0 0.7 0 0.5 0.7 0
          0 0.733333 0 0.5 0.733333 0 0 0.766667 0 0.5 0.766667 0
          0 0.8 0 0.5 0.8 0 0 0.833333 0 0.5 0.833333 0
          0 0.866667 0 0.5 0.866667 0 0 0.9 0 0.5 0.9 0
          0 0.933333 0 0.5 0.933333 0 0 0.966667 0 0.5 0.966667 0
          0 1 0 0.5 1 0
        </DataArray>
      </Points>
      <Cells>
        <DataArray type="Int32" Name="connectivity" NumberOfComponents="1" format="ascii">
          0 1 3 2 2 3 5 4 4 5 7 6
          6 7 9 8 8 9 11 10 10 11 13 12
          12 13 15 14 14 15 17 16 16 17 19 18
          18 19 21 20 20 21 23 22 22 23 25 24
          24 25 27 26 26 27 29 28 28 29 31 30
          30 31 33 32 32 33 35 34 34 35 37 36
          36 37 39 38 38 39 41 40 40 41 43 42
          42 43 45 44 44 45 47 46 46 47 49 48
          48 49 51 50 50 51 53 52 52 53 55 54
          54 55 57 56 56 57 59 58 58 59 61 60
        </DataArray>
        <DataArray type="Int32" Name="offsets" NumberOfComponents="1" format="ascii">
          4 8 12 16 20 24 28 32 36 40 44 48
          52 56 60 64 68 72 76 80 84 88 92 96
          100 104 108 112 116 120
        </DataArray>
        <DataArray type="UInt8" Name="types" NumberOfComponents="1" format="ascii">
          9 9 9 9 9 9 9 9 9 9 9 9
          9 9 9 9 9 9 9 9 9 9 9 9
          9 9 9 9 9 9
        </DataArray>
      </Cells>
    </Piece>
  </UnstructuredGrid>
</VTKFile>
