<?xml version="1.0"?>
<VTKFile type="UnstructuredGrid" version="0.1" byte_order="LittleEndian">
  <UnstructuredGrid>
    <Piece NumberOfCells="30" NumberOfPoints="62">
      <CellData Scalars="Sg">
        <DataArray type="Float32" Name="Sg" NumberOfComponents="1" format="ascii">
          0 0 0 0 0 0 0 0 0 0 0 0
          0 0 0 0 0 0 0 0 0 0 0 0
          0 0 0 0 0 0
        </DataArray>
        <DataArray type="Float32" Name="Sl" NumberOfComponents="1" format="ascii">
          1 1 1 1 1 1 1 1 1 1 1 1
          1 1 1 1 1 1 1 1 1 1 1 1
          1 1 1 1 1 1
        </DataArray>
        <DataArray type="Float32" Name="pg" NumberOfComponents="1" format="ascii">
          24687.8 24360.9 24034 23707 23380.1 23053.1 22726.2 22399.3 22072.3 21745.4 21418.4 21091.5
          20764.6 20437.6 20110.7 19783.7 19456.8 19129.8 18802.9 18476 18149 17822.1 17495.1 17168.2
          16841.3 16514.3 16187.4 15860.4 15533.5 15209.6
        </DataArray>
        <DataArray type="Float32" Name="pl" NumberOfComponents="1" format="ascii">
          110628 110301 109974 109647 109320 108993 108666 108339 108012 107685 107358 107031
          106704 106377 106050 105723 105396 105070 104743 104416 104089 103762 103435 103108
          102781 102454 102127 101800 101473 101149
        </DataArray>
        <DataArray type="Float32" Name="pc" NumberOfComponents="1" format="ascii">
          -85939.7 -85939.7 -85939.7 -85939.7 -85939.7 -85939.7 -85939.7 -85939.7 -85939.7 -85939.7 -85939.7 -85939.7
          -85939.7 -85939.7 -85939.7 -85939.7 -85939.7 -85939.7 -85939.7 -85939.7 -85939.7 -85939.7 -85939.7 -85939.7
          -85939.7 -85939.7 -85939.7 -85939.7 -85939.7 -85939.7
        </DataArray>
        <DataArray type="Float32" Name="rhoL" NumberOfComponents="1" format="ascii">
          999.855 999.855 999.855 999.855 999.855 999.854 999.854 999.854 999.854 999.854 999.854 999.854
          999.853 999.853 999.853 999.853 999.853 999.853 999.852 999.852 999.852 999.852 999.852 999.852
          999.852 999.851 999.851 999.851 999.851 999.851
        </DataArray>
        <DataArray type="Float32" Name="rhoG" NumberOfComponents="1" format="ascii">
          0.30585 0.3018 0.29775 0.293699 0.289649 0.285598 0.281548 0.277498 0.273447 0.269397 0.265347 0.261296
          0.257246 0.253195 0.249145 0.245095 0.241044 0.236994 0.232944 0.228893 0.224843 0.220793 0.216742 0.212692
          0.208641 0.204591 0.200541 0.19649 0.19244 0.188427
        </DataArray>
        <DataArray type="Float32" Name="mobL" NumberOfComponents="1" format="ascii">
          722.171 722.17 722.17 722.17 722.17 722.17 722.169 722.169 722.169 722.169 722.169 722.169
          722.168 722.168 722.168 722.168 722.168 722.167 722.167 722.167 722.167 722.167 722.166 722.166
          722.166 722.166 722.166 722.166 722.165 722.165
        </DataArray>
        <DataArray type="Float32" Name="mobG" NumberOfComponents="1" format="ascii">
          0 0 0 0 0 0 0 0 0 0 0 0
          0 0 0 0 0 0 0 0 0 0 0 0
          0 0 0 0 0 0
        </DataArray>
        <DataArray type="Float32" Name="porosity" NumberOfComponents="1" format="ascii">
          0.298822 0.298822 0.298822 0.298822 0.298821 0.298821 0.29882 0.298819 0.298818 0.298816 0.298814 0.298811
          0.298806 0.2988 0.298792 0.298781 0.298765 0.298745 0.298717 0.298679 0.298626 0.298552 0.298447 0.298289
          0.297769 0.297339 0.296477 0.294207 0.283132 0.0451721
        </DataArray>
        <DataArray type="Float32" Name="temperature" NumberOfComponents="1" format="ascii">
          281.15 281.15 281.15 281.15 281.15 281.15 281.15 281.15 281.15 281.15 281.15 281.15
          281.15 281.15 281.15 281.15 281.15 281.15 281.15 281.15 281.15 281.15 281.15 281.15
          281.15 281.15 281.15 281.15 281.15 281.15
        </DataArray>
        <DataArray type="Float32" Name="phase presence" NumberOfComponents="1" format="ascii">
          1 1 1 1 1 1 1 1 1 1 1 1
          1 1 1 1 1 1 1 1 1 1 1 1
          1 1 1 1 1 1
        </DataArray>
        <DataArray type="Float32" Name="precipitateVolumeFraction_au" NumberOfComponents="1" format="ascii">
          5.52677e-10 5.52713e-10 5.52706e-10 5.52747e-10 5.52751e-10 5.52724e-10 5.52701e-10 5.5272e-10 5.52767e-10 5.52757e-10 5.52739e-10 5.52793e-10
          5.52782e-10 5.52787e-10 5.52775e-10 5.52738e-10 5.52727e-10 5.5269e-10 5.52748e-10 5.52749e-10 5.52746e-10 5.52771e-10 5.53086e-10 1.19563e-09
          0.000269941 0.000269925 0.0002699 0.000269852 5.52279e-10 5.50996e-10
        </DataArray>
        <DataArray type="Float32" Name="precipitateVolumeFraction_nanoAu" NumberOfComponents="1" format="ascii">
          1.23639e-13 1.23647e-13 1.23646e-13 1.23655e-13 1.23656e-13 1.23649e-13 1.23644e-13 1.23648e-13 1.23659e-13 1.23656e-13 1.23652e-13 1.23664e-13
          1.23661e-13 1.23661e-13 1.23658e-13 1.23648e-13 1.23644e-13 1.23634e-13 1.23644e-13 1.23639e-13 1.23633e-13 1.23645e-13 1.35486e-13 2.58088e-11
          6.03635e-08 7.66852e-08 1.02148e-07 1.45569e-07 4.7423e-13 4.67005e-13
        </DataArray>
        <DataArray type="Float32" Name="precipitateVolumeFraction_d" NumberOfComponents="1" format="ascii">
          0.000588889 0.000588949 0.000589032 0.000589149 0.000589314 0.000589545 0.000589868 0.000590318 0.000590944 0.00059181 0.000593004 0.000594644
          0.000596888 0.000599946 0.000604099 0.000609727 0.00061734 0.000627643 0.000641621 0.000660694 0.000686986 0.000723826 0.000776751 0.000855699
          0.000980373 0.00119574 0.0016265 0.00276174 0.00843387 0.127414
        </DataArray>
        <DataArray type="Float32" Name="precipitateVolumeFraction_p" NumberOfComponents="1" format="ascii">
          0.000588889 0.000588949 0.000589032 0.000589149 0.000589314 0.000589545 0.000589868 0.000590318 0.000590944 0.00059181 0.000593004 0.000594644
          0.000596888 0.000599946 0.000604099 0.000609727 0.00061734 0.000627643 0.000641621 0.000660694 0.000686986 0.000723826 0.000776751 0.000855699
          0.000980373 0.00119574 0.0016265 0.00276174 0.00843387 0.127414
        </DataArray>
        <DataArray type="Float32" Name="K" NumberOfComponents="1" format="ascii">
          9.84951e-11 9.8495e-11 9.84948e-11 9.84945e-11 9.8494e-11 9.84934e-11 9.84926e-11 9.84915e-11 9.84899e-11 9.84877e-11 9.84847e-11 9.84805e-11
          9.84748e-11 9.8467e-11 9.84565e-11 9.84422e-11 9.84229e-11 9.83967e-11 9.83613e-11 9.83129e-11 9.82463e-11 9.81529e-11 9.8019e-11 9.78195e-11
          9.71655e-11 9.66259e-11 9.5554e-11 9.27756e-11 8.01535e-11 1.83482e-13
        </DataArray>
        <DataArray type="Float32" Name="X^w_H2O" NumberOfComponents="1" format="ascii">
          0.999853 0.999853 0.999853 0.999853 0.999853 0.999853 0.999853 0.999853 0.999853 0.999853 0.999853 0.999853
          0.999853 0.999853 0.999853 0.999853 0.999853 0.999853 0.999853 0.999853 0.999853 0.999853 0.999853 0.999853
          0.999853 0.999852 0.99985 0.999846 0.999839 0.99984
        </DataArray>
        <DataArray type="Float32" Name="X^w_Air" NumberOfComponents="1" format="ascii">
          0 0 0 0 0 0 0 0 0 0 0 0
          0 0 0 0 0 0 0 0 0 0 0 0
          0 0 0 0 0 0
        </DataArray>
        <DataArray type="Float32" Name="X^w_AuComplex" NumberOfComponents="1" format="ascii">
          1.41071e-16 1.4108e-16 1.41078e-16 1.41089e-16 1.4109e-16 1.41083e-16 1.41077e-16 1.41082e-16 1.41093e-16 1.4109e-16 1.41085e-16 1.41098e-16
          1.41094e-16 1.41094e-16 1.41089e-16 1.41077e-16 1.41071e-16 1.41057e-16 1.41065e-16 1.41057e-16 1.41043e-16 1.41047e-16 1.5437e-16 2.94206e-14
          6.88367e-11 1.07373e-10 1.84408e-10 3.64018e-10 1.83585e-15 1.78733e-15
        </DataArray>
        <DataArray type="Float32" Name="X^w_nanoAu" NumberOfComponents="1" format="ascii">
          4.84645e-19 4.84676e-19 4.8467e-19 4.84706e-19 4.84709e-19 4.84685e-19 4.84664e-19 4.84681e-19 4.8472e-19 4.84711e-19 4.84694e-19 4.84739e-19
          4.84727e-19 4.84728e-19 4.84713e-19 4.84675e-19 4.84657e-19 4.84615e-19 4.8465e-19 4.84665e-19 4.87951e-19 7.95198e-19 2.92541e-17 2.66136e-15
          2.37271e-13 3.016e-13 4.01972e-13 5.63915e-13 1.85366e-18 1.78551e-18
        </DataArray>
        <DataArray type="Float32" Name="X^w_cyanide" NumberOfComponents="1" format="ascii">
          5.07056e-06 5.07056e-06 5.07056e-06 5.07056e-06 5.07056e-06 5.07056e-06 5.07056e-06 5.07055e-06 5.07055e-06 5.07054e-06 5.07053e-06 5.07052e-06
          5.0705e-06 5.07047e-06 5.07043e-06 5.07039e-06 5.07032e-06 5.07023e-06 5.0701e-06 5.06992e-06 5.06968e-06 5.06932e-06 5.06881e-06 5.06803e-06
          5.06729e-06 6.43695e-06 8.57267e-06 1.22384e-05 1.94639e-05 1.92385e-05
        </DataArray>
        <DataArray type="Float32" Name="X^w_citrate" NumberOfComponents="1" format="ascii">
          0.000141797 0.000141797 0.000141797 0.000141797 0.000141797 0.000141797 0.000141797 0.000141797 0.000141797 0.000141797 0.000141796 0.000141796
          0.000141796 0.000141796 0.000141796 0.000141795 0.000141795 0.000141794 0.000141793 0.000141792 0.00014179 0.000141788 0.000141784 0.000141778
          0.000141769 0.000141755 0.000141727 0.000141663 0.000141454 0.000139815
        </DataArray>
        <DataArray type="Float32" Name="X^w_substrate" NumberOfComponents="1" format="ascii">
          1.37117e-11 1.82746e-11 2.43544e-11 3.24553e-11 4.32494e-11 5.76327e-11 7.68005e-11 1.02349e-10 1.3641e-10 1.81839e-10 2.42467e-10 3.23443e-10
          4.31724e-10 5.7675e-10 7.71417e-10 1.0335e-09 1.38775e-09 1.8692e-09 2.52825e-09 3.43917e-09 4.71461e-09 6.53189e-09 9.18361e-09 1.31828e-08
          1.95044e-08 3.02158e-08 5.04471e-08 9.63744e-08 2.45273e-07 1.40087e-06
        </DataArray>
        <DataArray type="Float32" Name="m^w_H2O" NumberOfComponents="1" format="ascii">
          55492.6 55492.6 55492.5 55492.5 55492.5 55492.5 55492.5 55492.5 55492.5 55492.5 55492.5 55492.5
          55492.5 55492.4 55492.4 55492.4 55492.4 55492.4 55492.4 55492.4 55492.4 55492.4 55492.4 55492.4
          55492.3 55492.3 55492.1 55491.9 55491.5 55491.6
        </DataArray>
        <DataArray type="Float32" Name="m^w_Air" NumberOfComponents="1" format="ascii">
          0 0 0 0 0 0 0 0 0 0 0 0
          0 0 0 0 0 0 0 0 0 0 0 0
          0 0 0 0 0 0
        </DataArray>
        <DataArray type="Float32" Name="m^w_AuComplex" NumberOfComponents="1" format="ascii">
          7.16102e-13 7.16149e-13 7.16139e-13 7.16192e-13 7.16198e-13 7.16162e-13 7.16131e-13 7.16154e-13 7.16213e-13 7.16198e-13 7.16172e-13 7.16239e-13
          7.16219e-13 7.16218e-13 7.16193e-13 7.16132e-13 7.16101e-13 7.16029e-13 7.16071e-13 7.16026e-13 7.15959e-13 7.15979e-13 7.83605e-13 1.49344e-10
          3.49426e-07 5.45044e-07 9.36083e-07 1.84781e-06 9.31906e-12 9.07277e-12
        </DataArray>
        <DataArray type="Float32" Name="m^w_nanoAu" NumberOfComponents="1" format="ascii">
          2.46015e-15 2.4603e-15 2.46027e-15 2.46045e-15 2.46047e-15 2.46035e-15 2.46024e-15 2.46032e-15 2.46053e-15 2.46048e-15 2.46039e-15 2.46062e-15
          2.46056e-15 2.46056e-15 2.46049e-15 2.46029e-15 2.4602e-15 2.45998e-15 2.46016e-15 2.46024e-15 2.47692e-15 4.03655e-15 1.48499e-13 1.35095e-11
          1.20442e-09 1.53097e-09 2.04047e-09 2.86252e-09 9.40947e-15 9.06352e-15
        </DataArray>
        <DataArray type="Float32" Name="m^w_cyanide" NumberOfComponents="1" format="ascii">
          0.194843 0.194843 0.194843 0.194843 0.194843 0.194843 0.194843 0.194843 0.194843 0.194842 0.194842 0.194841
          0.194841 0.19484 0.194838 0.194836 0.194834 0.19483 0.194825 0.194818 0.194809 0.194795 0.194775 0.194745
          0.194717 0.247348 0.329416 0.470275 0.747925 0.739261
        </DataArray>
        <DataArray type="Float32" Name="m^w_citrate" NumberOfComponents="1" format="ascii">
          0.749746 0.749746 0.749746 0.749746 0.749745 0.749745 0.749745 0.749745 0.749744 0.749744 0.749743 0.749743
          0.749742 0.74974 0.749739 0.749737 0.749734 0.74973 0.749725 0.749718 0.749709 0.749695 0.749675 0.749645
          0.749597 0.749521 0.749375 0.749037 0.747928 0.739263
        </DataArray>
        <DataArray type="Float32" Name="m^w_substrate" NumberOfComponents="1" format="ascii">
          7.60976e-08 1.0142e-07 1.35162e-07 1.80121e-07 2.40026e-07 3.19851e-07 4.26228e-07 5.68015e-07 7.57049e-07 1.00917e-06 1.34564e-06 1.79505e-06
          2.39599e-06 3.20085e-06 4.28121e-06 5.7357e-06 7.70177e-06 1.03737e-05 1.40313e-05 1.90867e-05 2.61651e-05 3.62507e-05 5.09672e-05 7.31618e-05
          0.000108245 0.000167691 0.000279971 0.000534858 0.00136121 0.00777456
        </DataArray>
        <DataArray type="Float32" Name="process rank" NumberOfComponents="1" format="ascii">
          0 0 0 0 0 0 0 0 0 0 0 0
          0 0 0 0 0 0 0 0 0 0 0 0
          0 0 0 0 0 0
        </DataArray>
      </CellData>
      <Points>
        <DataArray type="Float32" Name="Coordinates" NumberOfComponents="3" format="ascii">
          0 0 0 0.5 0 0 0 0.0333333 0 0.5 0.0333333 0
          0 0.0666667 0 0.5 0.0666667 0 0 0.1 0 0.5 0.1 0
          0 0.133333 0 0.5 0.133333 0 0 0.166667 0 0.5 0.166667 0
          0 0.2 0 0.5 0.2 0 0 0.233333 0 0.5 0.233333 0
          0 0.266667 0 0.5 0.266667 0 0 0.3 0 0.5 0.3 0
          0 0.333333 0 0.5 0.333333 0 0 0.366667 0 0.5 0.366667 0
          0 0.4 0 0.5 0.4 0 0 0.433333 0 0.5 0.433333 0
          0 0.466667 0 0.5 0.466667 0 0 0.5 0 0.5 0.5 0
          0 0.533333 0 0.5 0.533333 0 0 0.566667 0 0.5 0.566667 0
          0 0.6 0 0.5 0.6 0 0 0.633333 0 0.5 0.633333 0
          0 0.666667 0 0.5 0.666667 0 0 0.7 0 0.5 0.7 0
          0 0.733333 0 0.5 0.733333 0 0 0.766667 0 0.5 0.766667 0
          0 0.8 0 0.5 0.8 0 0 0.833333 0 0.5 0.833333 0
          0 0.866667 0 0.5 0.866667 0 0 0.9 0 0.5 0.9 0
          0 0.933333 0 0.5 0.933333 0 0 0.966667 0 0.5 0.966667 0
          0 1 0 0.5 1 0
        </DataArray>
      </Points>
      <Cells>
        <DataArray type="Int32" Name="connectivity" NumberOfComponents="1" format="ascii">
          0 1 3 2 2 3 5 4 4 5 7 6
          6 7 9 8 8 9 11 10 10 11 13 12
          12 13 15 14 14 15 17 16 16 17 19 18
          18 19 21 20 20 21 23 22 22 23 25 24
          24 25 27 26 26 27 29 28 28 29 31 30
          30 31 33 32 32 33 35 34 34 35 37 36
          36 37 39 38 38 39 41 40 40 41 43 42
          42 43 45 44 44 45 47 46 46 47 49 48
          48 49 51 50 50 51 53 52 52 53 55 54
          54 55 57 56 56 57 59 58 58 59 61 60
        </DataArray>
        <DataArray type="Int32" Name="offsets" NumberOfComponents="1" format="ascii">
          4 8 12 16 20 24 28 32 36 40 44 48
          52 56 60 64 68 72 76 80 84 88 92 96
          100 104 108 112 116 120
        </DataArray>
        <DataArray type="UInt8" Name="types" NumberOfComponents="1" format="ascii">
          9 9 9 9 9 9 9 9 9 9 9 9
          9 9 9 9 9 9 9 9 9 9 9 9
          9 9 9 9 9 9
        </DataArray>
      </Cells>
    </Piece>
  </UnstructuredGrid>
</VTKFile>
