<?xml version="1.0"?>
<VTKFile type="UnstructuredGrid" version="0.1" byte_order="LittleEndian">
  <UnstructuredGrid>
    <Piece NumberOfCells="30" NumberOfPoints="62">
      <CellData Scalars="Sg">
        <DataArray type="Float32" Name="Sg" NumberOfComponents="1" format="ascii">
          0 0 0 0 0 0 0 0 0 0 0 0
          0 0 0 0 0 0 0 0 0 0 0 0
          0 0 0 0 0 0
        </DataArray>
        <DataArray type="Float32" Name="Sl" NumberOfComponents="1" format="ascii">
          1 1 1 1 1 1 1 1 1 1 1 1
          1 1 1 1 1 1 1 1 1 1 1 1
          1 1 1 1 1 1
        </DataArray>
        <DataArray type="Float32" Name="pg" NumberOfComponents="1" format="ascii">
          24687.8 24360.9 24034 23707 23380.1 23053.1 22726.2 22399.3 22072.3 21745.4 21418.4 21091.5
          20764.6 20437.6 20110.7 19783.7 19456.8 19129.8 18802.9 18476 18149 17822.1 17495.1 17168.2
          16841.3 16514.3 16187.4 15860.4 15533.5 15209.6
        </DataArray>
        <DataArray type="Float32" Name="pl" NumberOfComponents="1" format="ascii">
          110628 110301 109974 109647 109320 108993 108666 108339 108012 107685 107358 107031
          106704 106377 106050 105723 105396 105070 104743 104416 104089 103762 103435 103108
          102781 102454 102127 101800 101473 101149
        </DataArray>
        <DataArray type="Float32" Name="pc" NumberOfComponents="1" format="ascii">
          -85939.7 -85939.7 -85939.7 -85939.7 -85939.7 -85939.7 -85939.7 -85939.7 -85939.7 -85939.7 -85939.7 -85939.7
          -85939.7 -85939.7 -85939.7 -85939.7 -85939.7 -85939.7 -85939.7 -85939.7 -85939.7 -85939.7 -85939.7 -85939.7
          -85939.7 -85939.7 -85939.7 -85939.7 -85939.7 -85939.7
        </DataArray>
        <DataArray type="Float32" Name="rhoL" NumberOfComponents="1" format="ascii">
          999.855 999.855 999.855 999.855 999.855 999.854 999.854 999.854 999.854 999.854 999.854 999.854
          999.853 999.853 999.853 999.853 999.853 999.853 999.852 999.852 999.852 999.852 999.852 999.852
          999.852 999.851 999.851 999.851 999.851 999.851
        </DataArray>
        <DataArray type="Float32" Name="rhoG" NumberOfComponents="1" format="ascii">
          0.30585 0.3018 0.29775 0.293699 0.289649 0.285598 0.281548 0.277498 0.273447 0.269397 0.265347 0.261296
          0.257246 0.253195 0.249145 0.245095 0.241044 0.236994 0.232944 0.228893 0.224843 0.220793 0.216742 0.212692
          0.208641 0.204591 0.200541 0.19649 0.19244 0.188428
        </DataArray>
        <DataArray type="Float32" Name="mobL" NumberOfComponents="1" format="ascii">
          722.171 722.17 722.17 722.17 722.17 722.17 722.169 722.169 722.169 722.169 722.169 722.169
          722.168 722.168 722.168 722.168 722.168 722.167 722.167 722.167 722.167 722.167 722.166 722.166
          722.166 722.166 722.166 722.166 722.165 722.165
        </DataArray>
        <DataArray type="Float32" Name="mobG" NumberOfComponents="1" format="ascii">
          0 0 0 0 0 0 0 0 0 0 0 0
          0 0 0 0 0 0 0 0 0 0 0 0
          0 0 0 0 0 0
        </DataArray>
        <DataArray type="Float32" Name="porosity" NumberOfComponents="1" format="ascii">
          0.298854 0.298854 0.298854 0.298854 0.298853 0.298853 0.298852 0.298851 0.29885 0.298848 0.298846 0.298843
          0.298838 0.298832 0.298824 0.298813 0.298798 0.298778 0.298751 0.298713 0.298662 0.29859 0.298486 0.29833
          0.297814 0.297389 0.296532 0.294252 0.282877 0.0448287
        </DataArray>
        <DataArray type="Float32" Name="temperature" NumberOfComponents="1" format="ascii">
          281.15 281.15 281.15 281.15 281.15 281.15 281.15 281.15 281.15 281.15 281.15 281.15
          281.15 281.15 281.15 281.15 281.15 281.15 281.15 281.15 281.15 281.15 281.15 281.15
          281.15 281.15 281.15 281.15 281.15 281.15
        </DataArray>
        <DataArray type="Float32" Name="phase presence" NumberOfComponents="1" format="ascii">
          1 1 1 1 1 1 1 1 1 1 1 1
          1 1 1 1 1 1 1 1 1 1 1 1
          1 1 1 1 1 1
        </DataArray>
        <DataArray type="Float32" Name="precipitateVolumeFraction_au" NumberOfComponents="1" format="ascii">
          5.52677e-10 5.52713e-10 5.52706e-10 5.52747e-10 5.52751e-10 5.52724e-10 5.52701e-10 5.5272e-10 5.52767e-10 5.52757e-10 5.52739e-10 5.52793e-10
          5.52782e-10 5.52787e-10 5.52775e-10 5.52738e-10 5.52727e-10 5.5269e-10 5.52748e-10 5.52749e-10 5.52746e-10 5.52771e-10 5.53117e-10 1.26183e-09
          0.000269941 0.000269925 0.0002699 0.000269851 5.52279e-10 5.50995e-10
        </DataArray>
        <DataArray type="Float32" Name="precipitateVolumeFraction_nanoAu" NumberOfComponents="1" format="ascii">
          1.23637e-13 1.23645e-13 1.23644e-13 1.23653e-13 1.23654e-13 1.23648e-13 1.23643e-13 1.23647e-13 1.23657e-13 1.23655e-13 1.2365e-13 1.23662e-13
          1.23659e-13 1.23659e-13 1.23656e-13 1.23646e-13 1.23642e-13 1.23632e-13 1.23641e-13 1.23637e-13 1.23631e-13 1.23643e-13 1.35495e-13 2.58221e-11
          6.03622e-08 7.66838e-08 1.02146e-07 1.45569e-07 4.74247e-13 4.67015e-13
        </DataArray>
        <DataArray type="Float32" Name="precipitateVolumeFraction_d" NumberOfComponents="1" format="ascii">
          0.000572961 0.000573019 0.000573101 0.000573217 0.000573379 0.000573605 0.000573922 0.000574364 0.000574977 0.000575825 0.000576995 0.000578601
          0.000580798 0.000583791 0.000587857 0.000593366 0.00060082 0.000610909 0.000624601 0.000643291 0.00066907 0.000705218 0.000757202 0.000834861
          0.000957758 0.00117074 0.00159902 0.00273916 0.00856147 0.127586
        </DataArray>
        <DataArray type="Float32" Name="precipitateVolumeFraction_p" NumberOfComponents="1" format="ascii">
          0.000572961 0.000573019 0.000573101 0.000573217 0.000573379 0.000573605 0.000573922 0.000574364 0.000574977 0.000575825 0.000576995 0.000578601
          0.000580798 0.000583791 0.000587857 0.000593366 0.00060082 0.000610909 0.000624601 0.000643291 0.00066907 0.000705218 0.000757202 0.000834861
          0.000957758 0.00117074 0.00159902 0.00273916 0.00856147 0.127586
        </DataArray>
        <DataArray type="Float32" Name="K" NumberOfComponents="1" format="ascii">
          9.85356e-11 9.85354e-11 9.85352e-11 9.85349e-11 9.85345e-11 9.85339e-11 9.85331e-11 9.8532e-11 9.85305e-11 9.85283e-11 9.85253e-11 9.85212e-11
          9.85157e-11 9.85081e-11 9.84977e-11 9.84837e-11 9.84648e-11 9.84392e-11 9.84045e-11 9.8357e-11 9.82917e-11 9.82001e-11 9.80684e-11 9.78721e-11
          9.72223e-11 9.66884e-11 9.56221e-11 9.28302e-11 7.988e-11 1.792e-13
        </DataArray>
        <DataArray type="Float32" Name="X^w_H2O" NumberOfComponents="1" format="ascii">
          0.999853 0.999853 0.999853 0.999853 0.999853 0.999853 0.999853 0.999853 0.999853 0.999853 0.999853 0.999853
          0.999853 0.999853 0.999853 0.999853 0.999853 0.999853 0.999853 0.999853 0.999853 0.999853 0.999853 0.999853
          0.999853 0.999852 0.99985 0.999846 0.999839 0.99984
        </DataArray>
        <DataArray type="Float32" Name="X^w_Air" NumberOfComponents="1" format="ascii">
          0 0 0 0 0 0 0 0 0 0 0 0
          0 0 0 0 0 0 0 0 0 0 0 0
          0 0 0 0 0 0
        </DataArray>
        <DataArray type="Float32" Name="X^w_AuComplex" NumberOfComponents="1" format="ascii">
          1.41068e-16 1.41077e-16 1.41075e-16 1.41086e-16 1.41087e-16 1.4108e-16 1.41074e-16 1.41079e-16 1.4109e-16 1.41087e-16 1.41082e-16 1.41095e-16
          1.41091e-16 1.41091e-16 1.41086e-16 1.41074e-16 1.41068e-16 1.41053e-16 1.41062e-16 1.41052e-16 1.41039e-16 1.41043e-16 1.54378e-16 2.94353e-14
          6.88343e-11 1.0737e-10 1.84404e-10 3.6402e-10 1.83597e-15 1.7874e-15
        </DataArray>
        <DataArray type="Float32" Name="X^w_nanoAu" NumberOfComponents="1" format="ascii">
          4.84638e-19 4.84669e-19 4.84663e-19 4.84699e-19 4.84702e-19 4.84678e-19 4.84658e-19 4.84674e-19 4.84714e-19 4.84704e-19 4.84688e-19 4.84733e-19
          4.8472e-19 4.84721e-19 4.84706e-19 4.84667e-19 4.84649e-19 4.84606e-19 4.84641e-19 4.84656e-19 4.8794e-19 7.95174e-19 2.92533e-17 2.66131e-15
          2.37265e-13 3.01593e-13 4.01967e-13 5.63921e-13 1.85379e-18 1.78558e-18
        </DataArray>
        <DataArray type="Float32" Name="X^w_cyanide" NumberOfComponents="1" format="ascii">
          5.07051e-06 5.07051e-06 5.07051e-06 5.07051e-06 5.07051e-06 5.07051e-06 5.07051e-06 5.07051e-06 5.0705e-06 5.0705e-06 5.07048e-06 5.07047e-06
          5.07045e-06 5.07042e-06 5.07038e-06 5.07033e-06 5.07026e-06 5.07017e-06 5.07003e-06 5.06985e-06 5.0696e-06 5.06924e-06 5.06872e-06 5.06794e-06
          5.0672e-06 6.43685e-06 8.57258e-06 1.22384e-05 1.94646e-05 1.92388e-05
        </DataArray>
        <DataArray type="Float32" Name="X^w_citrate" NumberOfComponents="1" format="ascii">
          0.000141797 0.000141797 0.000141797 0.000141797 0.000141797 0.000141797 0.000141797 0.000141797 0.000141797 0.000141796 0.000141796 0.000141796
          0.000141796 0.000141796 0.000141796 0.000141795 0.000141795 0.000141794 0.000141793 0.000141792 0.00014179 0.000141787 0.000141783 0.000141778
          0.000141769 0.000141754 0.000141727 0.000141664 0.000141458 0.000139817
        </DataArray>
        <DataArray type="Float32" Name="X^w_substrate" NumberOfComponents="1" format="ascii">
          1.64495e-11 2.17762e-11 2.88262e-11 3.81569e-11 5.0506e-11 6.6851e-11 8.84868e-11 1.17131e-10 1.55064e-10 2.05318e-10 2.71934e-10 3.60313e-10
          4.77699e-10 6.33865e-10 8.42076e-10 1.12051e-09 1.49433e-09 1.99894e-09 2.68503e-09 3.62687e-09 4.93663e-09 6.79007e-09 9.47599e-09 1.3499e-08
          1.98151e-08 3.04468e-08 5.04078e-08 9.5526e-08 2.41913e-07 1.39899e-06
        </DataArray>
        <DataArray type="Float32" Name="m^w_H2O" NumberOfComponents="1" format="ascii">
          55492.6 55492.6 55492.5 55492.5 55492.5 55492.5 55492.5 55492.5 55492.5 55492.5 55492.5 55492.5
          55492.5 55492.4 55492.4 55492.4 55492.4 55492.4 55492.4 55492.4 55492.4 55492.4 55492.4 55492.4
          55492.3 55492.3 55492.1 55491.9 55491.5 55491.6
        </DataArray>
        <DataArray type="Float32" Name="m^w_Air" NumberOfComponents="1" format="ascii">
          0 0 0 0 0 0 0 0 0 0 0 0
          0 0 0 0 0 0 0 0 0 0 0 0
          0 0 0 0 0 0
        </DataArray>
        <DataArray type="Float32" Name="m^w_AuComplex" NumberOfComponents="1" format="ascii">
          7.16087e-13 7.16134e-13 7.16124e-13 7.16177e-13 7.16183e-13 7.16147e-13 7.16116e-13 7.1614e-13 7.16199e-13 7.16184e-13 7.16158e-13 7.16224e-13
          7.16204e-13 7.16203e-13 7.16178e-13 7.16116e-13 7.16083e-13 7.16011e-13 7.16052e-13 7.16006e-13 7.15937e-13 7.15955e-13 7.83648e-13 1.49418e-10
          3.49414e-07 5.45027e-07 9.36063e-07 1.84782e-06 9.31968e-12 9.07314e-12
        </DataArray>
        <DataArray type="Float32" Name="m^w_nanoAu" NumberOfComponents="1" format="ascii">
          2.46011e-15 2.46027e-15 2.46024e-15 2.46042e-15 2.46043e-15 2.46031e-15 2.46021e-15 2.46029e-15 2.46049e-15 2.46044e-15 2.46036e-15 2.46059e-15
          2.46052e-15 2.46053e-15 2.46045e-15 2.46025e-15 2.46016e-15 2.45994e-15 2.46012e-15 2.46019e-15 2.47686e-15 4.03643e-15 1.48495e-13 1.35093e-11
          1.2044e-09 1.53094e-09 2.04045e-09 2.86255e-09 9.41012e-15 9.0639e-15
        </DataArray>
        <DataArray type="Float32" Name="m^w_cyanide" NumberOfComponents="1" format="ascii">
          0.194842 0.194842 0.194842 0.194842 0.194842 0.194841 0.194841 0.194841 0.194841 0.194841 0.19484 0.19484
          0.194839 0.194838 0.194836 0.194834 0.194831 0.194828 0.194823 0.194816 0.194806 0.194792 0.194772 0.194742
          0.194714 0.247344 0.329412 0.470276 0.74795 0.739275
        </DataArray>
        <DataArray type="Float32" Name="m^w_citrate" NumberOfComponents="1" format="ascii">
          0.749746 0.749746 0.749746 0.749746 0.749745 0.749745 0.749745 0.749745 0.749744 0.749744 0.749743 0.749742
          0.749741 0.74974 0.749738 0.749736 0.749733 0.749729 0.749724 0.749717 0.749707 0.749693 0.749673 0.749642
          0.749595 0.749519 0.749375 0.749043 0.747953 0.739277
        </DataArray>
        <DataArray type="Float32" Name="m^w_substrate" NumberOfComponents="1" format="ascii">
          9.12918e-08 1.20854e-07 1.5998e-07 2.11764e-07 2.80299e-07 3.7101e-07 4.91085e-07 6.50055e-07 8.60576e-07 1.13948e-06 1.50918e-06 1.99967e-06
          2.65114e-06 3.51783e-06 4.67336e-06 6.21859e-06 8.29324e-06 1.10937e-05 1.49014e-05 2.01284e-05 2.73973e-05 3.76835e-05 5.25898e-05 7.49166e-05
          0.00010997 0.000168973 0.000279753 0.00053015 0.00134257 0.0077641
        </DataArray>
        <DataArray type="Float32" Name="process rank" NumberOfComponents="1" format="ascii">
          0 0 0 0 0 0 0 0 0 0 0 0
          0 0 0 0 0 0 0 0 0 0 0 0
          0 0 0 0 0 0
        </DataArray>
      </CellData>
      <Points>
        <DataArray type="Float32" Name="Coordinates" NumberOfComponents="3" format="ascii">
          0 0 0 0.5 0 0 0 0.0333333 0 0.5 0.0333333 0
          0 0.0666667 0 0.5 0.0666667 0 0 0.1 0 0.5 0.1 0
          0 0.133333 0 0.5 0.133333 0 0 0.166667 0 0.5 0.166667 0
          0 0.2 0 0.5 0.2 0 0 0.233333 0 0.5 0.233333 0
          0 0.266667 0 0.5 0.266667 0 0 0.3 0 0.5 0.3 0
          0 0.333333 0 0.5 0.333333 0 0 0.366667 0 0.5 0.366667 0
          0 0.4 0 0.5 0.4 0 0 0.433333 0 0.5 0.433333 0
          0 0.466667 0 0.5 0.466667 0 0 0.5 0 0.5 0.5 0
          0 0.533333 0 0.5 0.533333 0 0 0.566667 0 0.5 0.566667 0
          0 0.6 0 0.5 0.6 0 0 0.633333 0 0.5 0.633333 0
          0 0.666667 0 0.5 0.666667 0 0 0.7 0 0.5 0.7 0
          0 0.733333 0 0.5 0.733333 0 0 0.766667 0 0.5 0.766667 0
          0 0.8 0 0.5 0.8 0 0 0.833333 0 0.5 0.833333 0
          0 0.866667 0 0.5 0.866667 0 0 0.9 0 0.5 0.9 0
          0 0.933333 0 0.5 0.933333 0 0 0.966667 0 0.5 0.966667 0
          0 1 0 0.5 1 0
        </DataArray>
      </Points>
      <Cells>
        <DataArray type="Int32" Name="connectivity" NumberOfComponents="1" format="ascii">
          0 1 3 2 2 3 5 4 4 5 7 6
          6 7 9 8 8 9 11 10 10 11 13 12
          12 13 15 14 14 15 17 16 16 17 19 18
          18 19 21 20 20 21 23 22 22 23 25 24
          24 25 27 26 26 27 29 28 28 29 31 30
          30 31 33 32 32 33 35 34 34 35 37 36
          36 37 39 38 38 39 41 40 40 41 43 42
          42 43 45 44 44 45 47 46 46 47 49 48
          48 49 51 50 50 51 53 52 52 53 55 54
          54 55 57 56 56 57 59 58 58 59 61 60
        </DataArray>
        <DataArray type="Int32" Name="offsets" NumberOfComponents="1" format="ascii">
          4 8 12 16 20 24 28 32 36 40 44 48
          52 56 60 64 68 72 76 80 84 88 92 96
          100 104 108 112 116 120
        </DataArray>
        <DataArray type="UInt8" Name="types" NumberOfComponents="1" format="ascii">
          9 9 9 9 9 9 9 9 9 9 9 9
          9 9 9 9 9 9 9 9 9 9 9 9
          9 9 9 9 9 9
        </DataArray>
      </Cells>
    </Piece>
  </UnstructuredGrid>
</VTKFile>
