<?xml version="1.0"?>
<VTKFile type="UnstructuredGrid" version="0.1" byte_order="LittleEndian">
  <UnstructuredGrid>
    <Piece NumberOfCells="30" NumberOfPoints="62">
      <CellData Scalars="Sg">
        <DataArray type="Float32" Name="Sg" NumberOfComponents="1" format="ascii">
          0.0928554 0.0928247 0.0927939 0.0927629 0.0927318 0.0927005 0.0926687 0.0926343 0.0925883 0.0924901 0.0921611 0.0908215
          0.0851493 0.0622224 0 0 0 0 0 0 0 0 0 0
          0 0 0 0 0 0
        </DataArray>
        <DataArray type="Float32" Name="Sl" NumberOfComponents="1" format="ascii">
          0.907145 0.907175 0.907206 0.907237 0.907268 0.9073 0.907331 0.907366 0.907412 0.90751 0.907839 0.909178
          0.914851 0.937778 1 1 1 1 1 1 1 1 1 1
          1 1 1 1 1 1
        </DataArray>
        <DataArray type="Float32" Name="pg" NumberOfComponents="1" format="ascii">
          51287.7 50952 50616.2 50280.4 49944.5 49608.6 49272.6 48935.8 48595.7 48240.6 47819.4 47108.7
          45156.9 38262.2 20110.7 19783.7 19456.8 19129.8 18802.9 18476 18149 17822.1 17495.1 17168.2
          16841.3 16514.3 16187.4 15860.4 15533.5 15206.6
        </DataArray>
        <DataArray type="Float32" Name="pl" NumberOfComponents="1" format="ascii">
          110628 110301 109974 109647 109320 108993 108666 108339 108012 107685 107358 107031
          106704 106377 106050 105723 105396 105070 104743 104416 104089 103762 103435 103108
          102781 102454 102127 101800 101473 101146
        </DataArray>
        <DataArray type="Float32" Name="pc" NumberOfComponents="1" format="ascii">
          -59339.8 -59348.6 -59357.4 -59366.3 -59375.2 -59384.2 -59393.3 -59403.1 -59416.3 -59444.4 -59538.7 -59922.4
          -61547.3 -68115.1 -85939.7 -85939.7 -85939.7 -85939.7 -85939.7 -85939.7 -85939.7 -85939.7 -85939.7 -85939.7
          -85939.7 -85939.7 -85939.7 -85939.7 -85939.7 -85939.7
        </DataArray>
        <DataArray type="Float32" Name="rhoL" NumberOfComponents="1" format="ascii">
          999.855 999.855 999.855 999.855 999.855 999.854 999.854 999.854 999.854 999.854 999.854 999.854
          999.853 999.853 999.853 999.853 999.853 999.853 999.852 999.852 999.852 999.852 999.852 999.852
          999.852 999.851 999.851 999.851 999.851 999.851
        </DataArray>
        <DataArray type="Float32" Name="rhoG" NumberOfComponents="1" format="ascii">
          0.635388 0.631229 0.627069 0.622909 0.618748 0.614587 0.610423 0.606251 0.602037 0.597639 0.59242 0.583616
          0.559435 0.474019 0.249145 0.245095 0.241044 0.236994 0.232944 0.228893 0.224843 0.220793 0.216742 0.212692
          0.208641 0.204591 0.200541 0.19649 0.19244 0.18839
        </DataArray>
        <DataArray type="Float32" Name="mobL" NumberOfComponents="1" format="ascii">
          722.171 722.17 722.17 722.17 722.17 722.17 722.169 722.169 722.169 722.169 722.169 722.169
          722.168 722.168 722.168 722.168 722.168 722.167 722.167 722.167 722.167 722.167 722.166 722.166
          722.166 722.166 722.166 722.166 722.165 722.165
        </DataArray>
        <DataArray type="Float32" Name="mobG" NumberOfComponents="1" format="ascii">
          0 0 0 0 0 0 0 0 0 0 0 0
          0 0 0 0 0 0 0 0 0 0 0 0
          0 0 0 0 0 0
        </DataArray>
        <DataArray type="Float32" Name="porosity" NumberOfComponents="1" format="ascii">
          0.298503 0.298503 0.298503 0.298503 0.298502 0.298502 0.298501 0.2985 0.298498 0.298496 0.298493 0.298489
          0.298484 0.298477 0.298466 0.298453 0.298434 0.29841 0.298376 0.298331 0.298269 0.298184 0.298062 0.297886
          0.297345 0.2969 0.296082 0.294246 0.288269 0.216126
        </DataArray>
        <DataArray type="Float32" Name="temperature" NumberOfComponents="1" format="ascii">
          281.15 281.15 281.15 281.15 281.15 281.15 281.15 281.15 281.15 281.15 281.15 281.15
          281.15 281.15 281.15 281.15 281.15 281.15 281.15 281.15 281.15 281.15 281.15 281.15
          281.15 281.15 281.15 281.15 281.15 281.15
        </DataArray>
        <DataArray type="Float32" Name="phase presence" NumberOfComponents="1" format="ascii">
          3 3 3 3 3 3 3 3 3 3 3 3
          3 3 1 1 1 1 1 1 1 1 1 1
          1 1 1 1 1 1
        </DataArray>
        <DataArray type="Float32" Name="precipitateVolumeFraction_au" NumberOfComponents="1" format="ascii">
          5.33268e-10 5.33266e-10 5.33268e-10 5.3327e-10 5.33271e-10 5.33273e-10 5.33275e-10 5.33276e-10 5.33277e-10 5.33278e-10 5.3328e-10 5.33281e-10
          5.33281e-10 5.33283e-10 5.33285e-10 5.33282e-10 5.33277e-10 5.3326e-10 5.33287e-10 5.33289e-10 5.33288e-10 5.33308e-10 5.33354e-10 5.98945e-10
          0.000269938 0.000269922 0.000269898 0.000269858 5.32904e-10 5.31767e-10
        </DataArray>
        <DataArray type="Float32" Name="precipitateVolumeFraction_nanoAu" NumberOfComponents="1" format="ascii">
          1.96112e-11 1.96087e-11 1.96065e-11 1.96047e-11 1.96029e-11 1.96006e-11 1.9599e-11 1.95972e-11 1.95956e-11 1.95938e-11 1.95926e-11 1.9591e-11
          1.95895e-11 1.95997e-11 1.96137e-11 1.95792e-11 1.95728e-11 1.9554e-11 1.95844e-11 1.95837e-11 1.9582e-11 1.95866e-11 1.96011e-11 4.65508e-11
          6.24314e-08 7.85545e-08 1.0289e-07 1.42231e-07 1.98496e-11 1.97359e-11
        </DataArray>
        <DataArray type="Float32" Name="precipitateVolumeFraction_d" NumberOfComponents="1" format="ascii">
          0.000748291 0.000748362 0.000748463 0.000748605 0.000748805 0.000749085 0.000749478 0.000750025 0.000750787 0.000751841 0.000753295 0.000755291
          0.000758019 0.000761734 0.00076677 0.000773579 0.000782761 0.000795137 0.00081184 0.000834477 0.000865408 0.000908244 0.000968821 0.00105722
          0.00119245 0.00141484 0.00182405 0.00274176 0.00586558 0.041937
        </DataArray>
        <DataArray type="Float32" Name="precipitateVolumeFraction_p" NumberOfComponents="1" format="ascii">
          0.000748291 0.000748362 0.000748463 0.000748605 0.000748805 0.000749085 0.000749478 0.000750025 0.000750787 0.000751841 0.000753295 0.000755291
          0.000758019 0.000761734 0.00076677 0.000773579 0.000782761 0.000795137 0.00081184 0.000834477 0.000865408 0.000908244 0.000968821 0.00105722
          0.00119245 0.00141484 0.00182405 0.00274176 0.00586558 0.041937
        </DataArray>
        <DataArray type="Float32" Name="K" NumberOfComponents="1" format="ascii">
          9.8091e-11 9.80908e-11 9.80906e-11 9.80902e-11 9.80897e-11 9.8089e-11 9.8088e-11 9.80866e-11 9.80847e-11 9.8082e-11 9.80783e-11 9.80733e-11
          9.80664e-11 9.8057e-11 9.80442e-11 9.8027e-11 9.80038e-11 9.79725e-11 9.79303e-11 9.78731e-11 9.77949e-11 9.76868e-11 9.75341e-11 9.73116e-11
          9.66341e-11 9.60794e-11 9.50657e-11 9.28239e-11 8.5821e-11 2.98168e-11
        </DataArray>
        <DataArray type="Float32" Name="X^w_H2O" NumberOfComponents="1" format="ascii">
          0.999837 0.999838 0.999838 0.999838 0.999838 0.999838 0.999838 0.999838 0.999838 0.999838 0.999839 0.999839
          0.999839 0.999842 0.999849 0.999853 0.999853 0.999853 0.999853 0.999853 0.999853 0.999853 0.999853 0.999853
          0.999853 0.999852 0.99985 0.999846 0.999839 0.999841
        </DataArray>
        <DataArray type="Float32" Name="X^w_Air" NumberOfComponents="1" format="ascii">
          1.55653e-05 1.54612e-05 1.53571e-05 1.5253e-05 1.51489e-05 1.50448e-05 1.49406e-05 1.48362e-05 1.47308e-05 1.46207e-05 1.44902e-05 1.42699e-05
          1.36649e-05 1.15277e-05 4.45776e-06 6.3757e-08 8.94212e-10 1.23303e-11 1.66475e-13 2.19916e-15 2.84128e-17 3.58479e-19 4.38478e-21 5.14805e-23
          5.64987e-25 5.94424e-27 5.54182e-29 4.03004e-31 1.50039e-33 0
        </DataArray>
        <DataArray type="Float32" Name="X^w_AuComplex" NumberOfComponents="1" format="ascii">
          1.78057e-14 1.96017e-14 1.86558e-14 1.82956e-14 1.87265e-14 1.78596e-14 1.9235e-14 1.92296e-14 1.76806e-14 1.93395e-14 1.91572e-14 1.99437e-14
          1.95778e-14 2.15952e-14 1.90359e-14 1.89911e-14 1.89743e-14 1.89463e-14 1.89665e-14 1.89567e-14 1.8946e-14 1.89405e-14 1.89449e-14 4.96479e-14
          7.0995e-11 1.10359e-10 1.87248e-10 3.58631e-10 7.27972e-14 7.00025e-14
        </DataArray>
        <DataArray type="Float32" Name="X^w_nanoAu" NumberOfComponents="1" format="ascii">
          8.13828e-16 1.824e-16 4.50231e-16 9.00055e-17 5.20958e-16 -3.45947e-16 -1.84308e-16 -1.89697e-16 6.88709e-16 1.13392e-15 -2.62053e-16 5.24477e-16
          1.58491e-16 2.03814e-14 6.26966e-16 7.67801e-17 7.67537e-17 7.66811e-17 7.67975e-17 7.67923e-17 7.67864e-17 7.7121e-17 1.06792e-16 2.8392e-15
          2.45249e-13 3.0862e-13 4.04096e-13 5.49265e-13 7.70182e-17 7.32982e-17
        </DataArray>
        <DataArray type="Float32" Name="X^w_cyanide" NumberOfComponents="1" format="ascii">
          5.19305e-06 5.18312e-06 5.17404e-06 5.16573e-06 5.15814e-06 5.15121e-06 5.14488e-06 5.1391e-06 5.13383e-06 5.12902e-06 5.12464e-06 5.12065e-06
          5.11701e-06 5.11367e-06 5.11059e-06 5.10756e-06 5.1047e-06 5.10206e-06 5.09957e-06 5.09715e-06 5.0947e-06 5.09204e-06 5.08891e-06 5.08485e-06
          5.0795e-06 6.47828e-06 8.64811e-06 1.23195e-05 1.93123e-05 1.86808e-05
        </DataArray>
        <DataArray type="Float32" Name="X^w_citrate" NumberOfComponents="1" format="ascii">
          0.000141795 0.000141795 0.000141795 0.000141795 0.000141795 0.000141795 0.000141795 0.000141795 0.000141794 0.000141794 0.000141794 0.000141794
          0.000141794 0.000141794 0.000141794 0.000141794 0.000141792 0.00014179 0.000141788 0.000141784 0.000141778 0.000141769 0.000141756 0.000141734
          0.000141699 0.000141636 0.000141513 0.00014123 0.000140373 0.000135772
        </DataArray>
        <DataArray type="Float32" Name="X^w_substrate" NumberOfComponents="1" format="ascii">
          1.34454e-11 1.889e-11 2.65423e-11 3.73069e-11 5.24449e-11 7.37485e-11 1.0372e-10 1.45919e-10 2.05351e-10 2.89122e-10 4.07316e-10 5.74315e-10
          8.10582e-10 1.14494e-09 1.6134e-09 2.26885e-09 3.19984e-09 4.52991e-09 6.44503e-09 9.23105e-09 1.33396e-08 1.95089e-08 2.90001e-08 4.40918e-08
          6.92136e-08 1.13867e-07 2.01425e-07 4.02096e-07 1.00703e-06 4.25131e-06
        </DataArray>
        <DataArray type="Float32" Name="m^w_H2O" NumberOfComponents="1" format="ascii">
          55491.7 55491.7 55491.7 55491.7 55491.7 55491.7 55491.7 55491.7 55491.7 55491.7 55491.7 55491.7
          55491.7 55491.8 55492.2 55492.4 55492.4 55492.4 55492.4 55492.4 55492.4 55492.4 55492.4 55492.4
          55492.3 55492.3 55492.1 55491.9 55491.5 55491.6
        </DataArray>
        <DataArray type="Float32" Name="m^w_Air" NumberOfComponents="1" format="ascii">
          0.537396 0.533803 0.53021 0.526616 0.523021 0.519427 0.51583 0.512226 0.508586 0.504786 0.500278 0.492672
          0.471784 0.397997 0.153905 0.00220123 3.0873e-05 4.25707e-07 5.74761e-09 7.59266e-11 9.80961e-13 1.23766e-14 1.51386e-16 1.77738e-18
          1.95063e-20 2.05226e-22 1.91333e-24 1.39138e-26 5.18012e-29 2.41625e-34
        </DataArray>
        <DataArray type="Float32" Name="m^w_AuComplex" NumberOfComponents="1" format="ascii">
          9.03849e-11 9.95016e-11 9.47001e-11 9.28716e-11 9.50591e-11 9.06586e-11 9.764e-11 9.76127e-11 8.97496e-11 9.81706e-11 9.72453e-11 1.01238e-10
          9.93801e-11 1.09621e-10 9.66293e-11 9.64022e-11 9.63168e-11 9.61747e-11 9.6277e-11 9.62275e-11 9.61731e-11 9.61451e-11 9.61675e-11 2.52021e-10
          3.60382e-07 5.60203e-07 9.50502e-07 1.82047e-06 3.6953e-10 3.55344e-10
        </DataArray>
        <DataArray type="Float32" Name="m^w_nanoAu" NumberOfComponents="1" format="ascii">
          4.13114e-12 9.25895e-13 2.28545e-12 4.56884e-13 2.64447e-12 -1.75609e-12 -9.35578e-13 -9.62934e-13 3.49601e-12 5.75598e-12 -1.33023e-12 2.66233e-12
          8.04529e-13 1.0346e-10 3.18258e-12 3.89749e-13 3.89615e-13 3.89246e-13 3.89837e-13 3.8981e-13 3.89781e-13 3.91479e-13 5.42093e-13 1.44122e-11
          1.24492e-09 1.56661e-09 2.05126e-09 2.78816e-09 3.90956e-13 3.72073e-13
        </DataArray>
        <DataArray type="Float32" Name="m^w_cyanide" NumberOfComponents="1" format="ascii">
          0.19955 0.199169 0.19882 0.1985 0.198209 0.197942 0.197699 0.197477 0.197274 0.19709 0.196921 0.196768
          0.196628 0.1965 0.196381 0.196265 0.196155 0.196053 0.195958 0.195865 0.19577 0.195668 0.195548 0.195392
          0.195186 0.248936 0.332314 0.473392 0.742101 0.717834
        </DataArray>
        <DataArray type="Float32" Name="m^w_citrate" NumberOfComponents="1" format="ascii">
          0.749735 0.749735 0.749735 0.749735 0.749735 0.749734 0.749734 0.749734 0.749733 0.749732 0.749731 0.74973
          0.749729 0.749728 0.749729 0.749728 0.749721 0.749711 0.749696 0.749675 0.749644 0.749598 0.749526 0.749413
          0.749225 0.748894 0.748243 0.746745 0.742216 0.717889
        </DataArray>
        <DataArray type="Float32" Name="m^w_substrate" NumberOfComponents="1" format="ascii">
          7.46198e-08 1.04836e-07 1.47305e-07 2.07046e-07 2.9106e-07 4.0929e-07 5.75625e-07 8.09822e-07 1.13966e-06 1.60457e-06 2.26053e-06 3.18734e-06
          4.49858e-06 6.35418e-06 8.95405e-06 1.25917e-05 1.77585e-05 2.51401e-05 3.57686e-05 5.12305e-05 7.40319e-05 0.00010827 0.000160945 0.000244701
          0.000384122 0.000631941 0.00111787 0.00223155 0.00558881 0.0235939
        </DataArray>
        <DataArray type="Float32" Name="process rank" NumberOfComponents="1" format="ascii">
          0 0 0 0 0 0 0 0 0 0 0 0
          0 0 0 0 0 0 0 0 0 0 0 0
          0 0 0 0 0 0
        </DataArray>
      </CellData>
      <Points>
        <DataArray type="Float32" Name="Coordinates" NumberOfComponents="3" format="ascii">
          0 0 0 0.5 0 0 0 0.0333333 0 0.5 0.0333333 0
          0 0.0666667 0 0.5 0.0666667 0 0 0.1 0 0.5 0.1 0
          0 0.133333 0 0.5 0.133333 0 0 0.166667 0 0.5 0.166667 0
          0 0.2 0 0.5 0.2 0 0 0.233333 0 0.5 0.233333 0
          0 0.266667 0 0.5 0.266667 0 0 0.3 0 0.5 0.3 0
          0 0.333333 0 0.5 0.333333 0 0 0.366667 0 0.5 0.366667 0
          0 0.4 0 0.5 0.4 0 0 0.433333 0 0.5 0.433333 0
          0 0.466667 0 0.5 0.466667 0 0 0.5 0 0.5 0.5 0
          0 0.533333 0 0.5 0.533333 0 0 0.566667 0 0.5 0.566667 0
          0 0.6 0 0.5 0.6 0 0 0.633333 0 0.5 0.633333 0
          0 0.666667 0 0.5 0.666667 0 0 0.7 0 0.5 0.7 0
          0 0.733333 0 0.5 0.733333 0 0 0.766667 0 0.5 0.766667 0
          0 0.8 0 0.5 0.8 0 0 0.833333 0 0.5 0.833333 0
          0 0.866667 0 0.5 0.866667 0 0 0.9 0 0.5 0.9 0
          0 0.933333 0 0.5 0.933333 0 0 0.966667 0 0.5 0.966667 0
          0 1 0 0.5 1 0
        </DataArray>
      </Points>
      <Cells>
        <DataArray type="Int32" Name="connectivity" NumberOfComponents="1" format="ascii">
          0 1 3 2 2 3 5 4 4 5 7 6
          6 7 9 8 8 9 11 10 10 11 13 12
          12 13 15 14 14 15 17 16 16 17 19 18
          18 19 21 20 20 21 23 22 22 23 25 24
          24 25 27 26 26 27 29 28 28 29 31 30
          30 31 33 32 32 33 35 34 34 35 37 36
          36 37 39 38 38 39 41 40 40 41 43 42
          42 43 45 44 44 45 47 46 46 47 49 48
          48 49 51 50 50 51 53 52 52 53 55 54
          54 55 57 56 56 57 59 58 58 59 61 60
        </DataArray>
        <DataArray type="Int32" Name="offsets" NumberOfComponents="1" format="ascii">
          4 8 12 16 20 24 28 32 36 40 44 48
          52 56 60 64 68 72 76 80 84 88 92 96
          100 104 108 112 116 120
        </DataArray>
        <DataArray type="UInt8" Name="types" NumberOfComponents="1" format="ascii">
          9 9 9 9 9 9 9 9 9 9 9 9
          9 9 9 9 9 9 9 9 9 9 9 9
          9 9 9 9 9 9
        </DataArray>
      </Cells>
    </Piece>
  </UnstructuredGrid>
</VTKFile>
