<?xml version="1.0"?>
<VTKFile type="UnstructuredGrid" version="0.1" byte_order="LittleEndian">
  <UnstructuredGrid>
    <Piece NumberOfCells="30" NumberOfPoints="62">
      <CellData Scalars="Sg">
        <DataArray type="Float32" Name="Sg" NumberOfComponents="1" format="ascii">
          0 0 0 0 0 0 0 0 0 0 0 0
          0 0 0 0 0 0 0 0 0 0 0 0
          0 0 0 0 0 0
        </DataArray>
        <DataArray type="Float32" Name="Sl" NumberOfComponents="1" format="ascii">
          1 1 1 1 1 1 1 1 1 1 1 1
          1 1 1 1 1 1 1 1 1 1 1 1
          1 1 1 1 1 1
        </DataArray>
        <DataArray type="Float32" Name="pg" NumberOfComponents="1" format="ascii">
          24687.8 24360.9 24034 23707 23380.1 23053.1 22726.2 22399.3 22072.3 21745.4 21418.4 21091.5
          20764.6 20437.6 20110.7 19783.7 19456.8 19129.9 18802.9 18476 18149 17822.1 17495.1 17168.2
          16841.3 16514.3 16187.4 15860.4 15533.5 15206.7
        </DataArray>
        <DataArray type="Float32" Name="pl" NumberOfComponents="1" format="ascii">
          110628 110301 109974 109647 109320 108993 108666 108339 108012 107685 107358 107031
          106704 106377 106050 105723 105396 105070 104743 104416 104089 103762 103435 103108
          102781 102454 102127 101800 101473 101146
        </DataArray>
        <DataArray type="Float32" Name="pc" NumberOfComponents="1" format="ascii">
          -85939.7 -85939.7 -85939.7 -85939.7 -85939.7 -85939.7 -85939.7 -85939.7 -85939.7 -85939.7 -85939.7 -85939.7
          -85939.7 -85939.7 -85939.7 -85939.7 -85939.7 -85939.7 -85939.7 -85939.7 -85939.7 -85939.7 -85939.7 -85939.7
          -85939.7 -85939.7 -85939.7 -85939.7 -85939.7 -85939.7
        </DataArray>
        <DataArray type="Float32" Name="rhoL" NumberOfComponents="1" format="ascii">
          999.855 999.855 999.855 999.855 999.855 999.854 999.854 999.854 999.854 999.854 999.854 999.854
          999.853 999.853 999.853 999.853 999.853 999.853 999.852 999.852 999.852 999.852 999.852 999.852
          999.852 999.851 999.851 999.851 999.851 999.851
        </DataArray>
        <DataArray type="Float32" Name="rhoG" NumberOfComponents="1" format="ascii">
          0.30585 0.3018 0.29775 0.293699 0.289649 0.285598 0.281548 0.277498 0.273447 0.269397 0.265347 0.261296
          0.257246 0.253195 0.249145 0.245095 0.241044 0.236994 0.232944 0.228893 0.224843 0.220793 0.216742 0.212692
          0.208641 0.204591 0.200541 0.19649 0.19244 0.188391
        </DataArray>
        <DataArray type="Float32" Name="mobL" NumberOfComponents="1" format="ascii">
          722.171 722.17 722.17 722.17 722.17 722.17 722.169 722.169 722.169 722.169 722.169 722.169
          722.168 722.168 722.168 722.168 722.168 722.167 722.167 722.167 722.167 722.167 722.166 722.166
          722.166 722.166 722.166 722.166 722.165 722.165
        </DataArray>
        <DataArray type="Float32" Name="mobG" NumberOfComponents="1" format="ascii">
          0 0 0 0 0 0 0 0 0 0 0 0
          0 0 0 0 0 0 0 0 0 0 0 0
          0 0 0 0 0 0
        </DataArray>
        <DataArray type="Float32" Name="porosity" NumberOfComponents="1" format="ascii">
          0.298558 0.298558 0.298558 0.298557 0.298557 0.298556 0.298556 0.298555 0.298553 0.298551 0.298548 0.298544
          0.298539 0.298532 0.298522 0.298509 0.298491 0.298466 0.298434 0.298389 0.298328 0.298243 0.298123 0.297946
          0.297402 0.296944 0.296076 0.294017 0.286237 0.130905
        </DataArray>
        <DataArray type="Float32" Name="temperature" NumberOfComponents="1" format="ascii">
          281.15 281.15 281.15 281.15 281.15 281.15 281.15 281.15 281.15 281.15 281.15 281.15
          281.15 281.15 281.15 281.15 281.15 281.15 281.15 281.15 281.15 281.15 281.15 281.15
          281.15 281.15 281.15 281.15 281.15 281.15
        </DataArray>
        <DataArray type="Float32" Name="phase presence" NumberOfComponents="1" format="ascii">
          1 1 1 1 1 1 1 1 1 1 1 1
          1 1 1 1 1 1 1 1 1 1 1 1
          1 1 1 1 1 1
        </DataArray>
        <DataArray type="Float32" Name="precipitateVolumeFraction_au" NumberOfComponents="1" format="ascii">
          5.52065e-10 5.52161e-10 5.52119e-10 5.52152e-10 5.52125e-10 5.52131e-10 5.52124e-10 5.52116e-10 5.5214e-10 5.52165e-10 5.52145e-10 5.52154e-10
          5.52102e-10 5.52081e-10 5.52071e-10 5.52142e-10 5.52115e-10 5.52064e-10 5.52118e-10 5.52141e-10 5.52095e-10 5.52104e-10 5.52188e-10 7.19583e-10
          0.00026994 0.000269924 0.000269899 0.000269854 5.51572e-10 5.50675e-10
        </DataArray>
        <DataArray type="Float32" Name="precipitateVolumeFraction_nanoAu" NumberOfComponents="1" format="ascii">
          6.9427e-13 7.65362e-13 7.44206e-13 7.56118e-13 7.46998e-13 7.48585e-13 7.47054e-13 7.45943e-13 7.48862e-13 7.50376e-13 7.48571e-13 7.48708e-13
          7.45972e-13 7.4519e-13 7.45188e-13 7.47341e-13 7.46679e-13 7.45749e-13 7.46718e-13 7.46944e-13 7.46423e-13 7.46491e-13 7.60239e-13 2.84112e-11
          6.05472e-08 7.68939e-08 1.02344e-07 1.45548e-07 1.09148e-12 1.07519e-12
        </DataArray>
        <DataArray type="Float32" Name="precipitateVolumeFraction_d" NumberOfComponents="1" format="ascii">
          0.000721042 0.000721112 0.00072121 0.000721348 0.000721542 0.000721815 0.000722197 0.000722729 0.00072347 0.000724496 0.000725911 0.000727855
          0.000730514 0.000734134 0.000739047 0.000745694 0.000754668 0.000766781 0.000783158 0.000805404 0.000835889 0.000878273 0.000938526 0.00102711
          0.00116407 0.00139314 0.00182695 0.00285634 0.00688153 0.0845475
        </DataArray>
        <DataArray type="Float32" Name="precipitateVolumeFraction_p" NumberOfComponents="1" format="ascii">
          0.000721042 0.000721112 0.00072121 0.000721348 0.000721542 0.000721815 0.000722197 0.000722729 0.00072347 0.000724496 0.000725911 0.000727855
          0.000730514 0.000734134 0.000739047 0.000745694 0.000754668 0.000766781 0.000783158 0.000805404 0.000835889 0.000878273 0.000938526 0.00102711
          0.00116407 0.00139314 0.00182695 0.00285634 0.00688153 0.0845475
        </DataArray>
        <DataArray type="Float32" Name="K" NumberOfComponents="1" format="ascii">
          9.816e-11 9.81598e-11 9.81595e-11 9.81592e-11 9.81587e-11 9.8158e-11 9.81571e-11 9.81557e-11 9.81538e-11 9.81512e-11 9.81476e-11 9.81427e-11
          9.8136e-11 9.81268e-11 9.81144e-11 9.80976e-11 9.80748e-11 9.80442e-11 9.80028e-11 9.79465e-11 9.78695e-11 9.77625e-11 9.76105e-11 9.73874e-11
          9.67051e-11 9.61334e-11 9.50585e-11 9.25471e-11 8.35413e-11 5.38971e-12
        </DataArray>
        <DataArray type="Float32" Name="X^w_H2O" NumberOfComponents="1" format="ascii">
          0.999853 0.999853 0.999853 0.999853 0.999853 0.999853 0.999853 0.999853 0.999853 0.999853 0.999853 0.999853
          0.999853 0.999853 0.999853 0.999853 0.999853 0.999853 0.999853 0.999853 0.999853 0.999853 0.999853 0.999853
          0.999853 0.999852 0.99985 0.999846 0.999839 0.99984
        </DataArray>
        <DataArray type="Float32" Name="X^w_Air" NumberOfComponents="1" format="ascii">
          2.77147e-13 4.98148e-15 8.80926e-17 1.52916e-18 2.61042e-20 4.38612e-22 7.24104e-24 1.17467e-25 1.87363e-27 2.9368e-29 4.51704e-31 6.82151e-33
          1.01224e-34 1.47323e-36 2.1042e-38 0 0 0 0 0 0 0 0 0
          0 0 0 0 0 0
        </DataArray>
        <DataArray type="Float32" Name="X^w_AuComplex" NumberOfComponents="1" format="ascii">
          7.39717e-16 8.1303e-16 7.9121e-16 8.03493e-16 7.94084e-16 7.95717e-16 7.94133e-16 7.92982e-16 7.95988e-16 7.97543e-16 7.95673e-16 7.95807e-16
          7.92973e-16 7.92154e-16 7.92139e-16 7.94345e-16 7.93641e-16 7.92654e-16 7.93622e-16 7.9381e-16 7.93209e-16 7.93192e-16 8.09633e-16 3.4559e-14
          7.39543e-11 1.15302e-10 1.97807e-10 3.89379e-10 4.39206e-15 4.25375e-15
        </DataArray>
        <DataArray type="Float32" Name="X^w_nanoAu" NumberOfComponents="1" format="ascii">
          3.02826e-18 3.3337e-18 3.24306e-18 3.29398e-18 3.25475e-18 3.26151e-18 3.25487e-18 3.25021e-18 3.26286e-18 3.2693e-18 3.26153e-18 3.26199e-18
          3.25016e-18 3.24678e-18 3.24687e-18 3.25611e-18 3.2532e-18 3.24922e-18 3.25338e-18 3.25433e-18 3.25577e-18 3.60204e-18 3.55751e-17 2.9842e-15
          2.64411e-13 3.35962e-13 4.4733e-13 6.26003e-13 4.73216e-18 4.53517e-18
        </DataArray>
        <DataArray type="Float32" Name="X^w_cyanide" NumberOfComponents="1" format="ascii">
          5.08342e-06 5.08341e-06 5.0834e-06 5.08338e-06 5.08337e-06 5.08334e-06 5.08331e-06 5.08328e-06 5.08324e-06 5.0832e-06 5.08315e-06 5.0831e-06
          5.08303e-06 5.08296e-06 5.08287e-06 5.08277e-06 5.08264e-06 5.08247e-06 5.08226e-06 5.08197e-06 5.08157e-06 5.08101e-06 5.08017e-06 5.07888e-06
          5.0773e-06 6.44791e-06 8.58331e-06 1.22423e-05 1.94263e-05 1.90999e-05
        </DataArray>
        <DataArray type="Float32" Name="X^w_citrate" NumberOfComponents="1" format="ascii">
          0.000141796 0.000141796 0.000141796 0.000141796 0.000141796 0.000141796 0.000141796 0.000141796 0.000141796 0.000141796 0.000141796 0.000141796
          0.000141796 0.000141795 0.000141795 0.000141795 0.000141794 0.000141793 0.000141792 0.000141791 0.000141788 0.000141785 0.000141779 0.00014177
          0.000141755 0.00014173 0.000141679 0.00014156 0.000141181 0.000138808
        </DataArray>
        <DataArray type="Float32" Name="X^w_substrate" NumberOfComponents="1" format="ascii">
          6.03914e-12 8.44773e-12 1.18168e-11 1.65294e-11 2.31217e-11 3.23443e-11 4.52484e-11 6.33076e-11 8.85894e-11 1.23999e-10 1.73624e-10 2.43235e-10
          3.41004e-10 4.78555e-10 6.72524e-10 9.46914e-10 1.3367e-09 1.89355e-09 2.69504e-09 3.86022e-09 5.57681e-09 8.15124e-09 1.21063e-08 1.83866e-08
          2.88321e-08 4.7413e-08 8.40222e-08 1.69211e-07 4.37751e-07 2.11069e-06
        </DataArray>
        <DataArray type="Float32" Name="m^w_H2O" NumberOfComponents="1" format="ascii">
          55492.6 55492.5 55492.5 55492.5 55492.5 55492.5 55492.5 55492.5 55492.5 55492.5 55492.5 55492.5
          55492.5 55492.4 55492.4 55492.4 55492.4 55492.4 55492.4 55492.4 55492.4 55492.4 55492.4 55492.4
          55492.3 55492.3 55492.1 55491.9 55491.5 55491.6
        </DataArray>
        <DataArray type="Float32" Name="m^w_Air" NumberOfComponents="1" format="ascii">
          9.5686e-09 1.71988e-10 3.04143e-12 5.27947e-14 9.01257e-16 1.51433e-17 2.5e-19 4.05558e-21 6.46876e-23 1.01394e-24 1.55952e-26 2.35515e-28
          3.49479e-30 5.08639e-32 7.26482e-34 1.01641e-35 1.39395e-37 0 0 0 0 0 0 0
          0 0 0 0 0 0
        </DataArray>
        <DataArray type="Float32" Name="m^w_AuComplex" NumberOfComponents="1" format="ascii">
          3.75494e-12 4.12708e-12 4.01633e-12 4.07867e-12 4.03091e-12 4.0392e-12 4.03116e-12 4.02532e-12 4.04057e-12 4.04846e-12 4.03897e-12 4.03965e-12
          4.02527e-12 4.02111e-12 4.02103e-12 4.03223e-12 4.02865e-12 4.02365e-12 4.02856e-12 4.02951e-12 4.02646e-12 4.02637e-12 4.10983e-12 1.75427e-10
          3.75404e-07 5.85293e-07 1.0041e-06 1.97655e-06 2.22948e-11 2.15927e-11
        </DataArray>
        <DataArray type="Float32" Name="m^w_nanoAu" NumberOfComponents="1" format="ascii">
          1.5372e-14 1.69225e-14 1.64624e-14 1.67209e-14 1.65217e-14 1.6556e-14 1.65223e-14 1.64987e-14 1.65629e-14 1.65955e-14 1.65561e-14 1.65584e-14
          1.64983e-14 1.64812e-14 1.64817e-14 1.65285e-14 1.65138e-14 1.64936e-14 1.65147e-14 1.65195e-14 1.65268e-14 1.82845e-14 1.80585e-13 1.51483e-11
          1.34219e-09 1.7054e-09 2.27072e-09 3.17769e-09 2.40212e-14 2.30212e-14
        </DataArray>
        <DataArray type="Float32" Name="m^w_cyanide" NumberOfComponents="1" format="ascii">
          0.195338 0.195337 0.195337 0.195336 0.195335 0.195334 0.195333 0.195332 0.195331 0.195329 0.195327 0.195325
          0.195322 0.19532 0.195316 0.195312 0.195307 0.195301 0.195292 0.195281 0.195266 0.195244 0.195212 0.195162
          0.195102 0.247769 0.329824 0.470425 0.746478 0.733937
        </DataArray>
        <DataArray type="Float32" Name="m^w_citrate" NumberOfComponents="1" format="ascii">
          0.749742 0.749742 0.749742 0.749742 0.749742 0.749742 0.749741 0.749741 0.749741 0.74974 0.74974 0.749739
          0.749738 0.749737 0.749736 0.749734 0.749731 0.749726 0.74972 0.749711 0.749698 0.749679 0.749649 0.749602
          0.749523 0.749389 0.749121 0.748489 0.746485 0.73394
        </DataArray>
        <DataArray type="Float32" Name="m^w_substrate" NumberOfComponents="1" format="ascii">
          3.35161e-08 4.68833e-08 6.55809e-08 9.1735e-08 1.28321e-07 1.79505e-07 2.5112e-07 3.51346e-07 4.91655e-07 6.88168e-07 9.63578e-07 1.34991e-06
          1.89251e-06 2.65589e-06 3.73238e-06 5.25519e-06 7.41844e-06 1.05088e-05 1.49569e-05 2.14235e-05 3.09502e-05 4.52377e-05 6.71875e-05 0.000102042
          0.000160012 0.000263132 0.000466306 0.000939088 0.00242943 0.0117139
        </DataArray>
        <DataArray type="Float32" Name="process rank" NumberOfComponents="1" format="ascii">
          0 0 0 0 0 0 0 0 0 0 0 0
          0 0 0 0 0 0 0 0 0 0 0 0
          0 0 0 0 0 0
        </DataArray>
      </CellData>
      <Points>
        <DataArray type="Float32" Name="Coordinates" NumberOfComponents="3" format="ascii">
          0 0 0 0.5 0 0 0 0.0333333 0 0.5 0.0333333 0
          0 0.0666667 0 0.5 0.0666667 0 0 0.1 0 0.5 0.1 0
          0 0.133333 0 0.5 0.133333 0 0 0.166667 0 0.5 0.166667 0
          0 0.2 0 0.5 0.2 0 0 0.233333 0 0.5 0.233333 0
          0 0.266667 0 0.5 0.266667 0 0 0.3 0 0.5 0.3 0
          0 0.333333 0 0.5 0.333333 0 0 0.366667 0 0.5 0.366667 0
          0 0.4 0 0.5 0.4 0 0 0.433333 0 0.5 0.433333 0
          0 0.466667 0 0.5 0.466667 0 0 0.5 0 0.5 0.5 0
          0 0.533333 0 0.5 0.533333 0 0 0.566667 0 0.5 0.566667 0
          0 0.6 0 0.5 0.6 0 0 0.633333 0 0.5 0.633333 0
          0 0.666667 0 0.5 0.666667 0 0 0.7 0 0.5 0.7 0
          0 0.733333 0 0.5 0.733333 0 0 0.766667 0 0.5 0.766667 0
          0 0.8 0 0.5 0.8 0 0 0.833333 0 0.5 0.833333 0
          0 0.866667 0 0.5 0.866667 0 0 0.9 0 0.5 0.9 0
          0 0.933333 0 0.5 0.933333 0 0 0.966667 0 0.5 0.966667 0
          0 1 0 0.5 1 0
        </DataArray>
      </Points>
      <Cells>
        <DataArray type="Int32" Name="connectivity" NumberOfComponents="1" format="ascii">
          0 1 3 2 2 3 5 4 4 5 7 6
          6 7 9 8 8 9 11 10 10 11 13 12
          12 13 15 14 14 15 17 16 16 17 19 18
          18 19 21 20 20 21 23 22 22 23 25 24
          24 25 27 26 26 27 29 28 28 29 31 30
          30 31 33 32 32 33 35 34 34 35 37 36
          36 37 39 38 38 39 41 40 40 41 43 42
          42 43 45 44 44 45 47 46 46 47 49 48
          48 49 51 50 50 51 53 52 52 53 55 54
          54 55 57 56 56 57 59 58 58 59 61 60
        </DataArray>
        <DataArray type="Int32" Name="offsets" NumberOfComponents="1" format="ascii">
          4 8 12 16 20 24 28 32 36 40 44 48
          52 56 60 64 68 72 76 80 84 88 92 96
          100 104 108 112 116 120
        </DataArray>
        <DataArray type="UInt8" Name="types" NumberOfComponents="1" format="ascii">
          9 9 9 9 9 9 9 9 9 9 9 9
          9 9 9 9 9 9 9 9 9 9 9 9
          9 9 9 9 9 9
        </DataArray>
      </Cells>
    </Piece>
  </UnstructuredGrid>
</VTKFile>
