<?xml version="1.0"?>
<VTKFile type="UnstructuredGrid" version="0.1" byte_order="LittleEndian">
  <UnstructuredGrid>
    <Piece NumberOfCells="30" NumberOfPoints="62">
      <CellData Scalars="Sg">
        <DataArray type="Float32" Name="Sg" NumberOfComponents="1" format="ascii">
          0 0 0 0 0 0 0 0 0 0 0 0
          0 0 0 0 0 0 0 0 0 0 0 0
          0 0 0 0 0 0
        </DataArray>
        <DataArray type="Float32" Name="Sl" NumberOfComponents="1" format="ascii">
          1 1 1 1 1 1 1 1 1 1 1 1
          1 1 1 1 1 1 1 1 1 1 1 1
          1 1 1 1 1 1
        </DataArray>
        <DataArray type="Float32" Name="pg" NumberOfComponents="1" format="ascii">
          24687.8 24360.9 24034 23707 23380.1 23053.1 22726.2 22399.3 22072.3 21745.4 21418.4 21091.5
          20764.6 20437.6 20110.7 19783.7 19456.8 19129.8 18802.9 18476 18149 17822.1 17495.1 17168.2
          16841.3 16514.3 16187.4 15860.4 15533.5 15209.1
        </DataArray>
        <DataArray type="Float32" Name="pl" NumberOfComponents="1" format="ascii">
          110628 110301 109974 109647 109320 108993 108666 108339 108012 107685 107358 107031
          106704 106377 106050 105723 105396 105070 104743 104416 104089 103762 103435 103108
          102781 102454 102127 101800 101473 101149
        </DataArray>
        <DataArray type="Float32" Name="pc" NumberOfComponents="1" format="ascii">
          -85939.7 -85939.7 -85939.7 -85939.7 -85939.7 -85939.7 -85939.7 -85939.7 -85939.7 -85939.7 -85939.7 -85939.7
          -85939.7 -85939.7 -85939.7 -85939.7 -85939.7 -85939.7 -85939.7 -85939.7 -85939.7 -85939.7 -85939.7 -85939.7
          -85939.7 -85939.7 -85939.7 -85939.7 -85939.7 -85939.7
        </DataArray>
        <DataArray type="Float32" Name="rhoL" NumberOfComponents="1" format="ascii">
          999.855 999.855 999.855 999.855 999.855 999.854 999.854 999.854 999.854 999.854 999.854 999.854
          999.853 999.853 999.853 999.853 999.853 999.853 999.852 999.852 999.852 999.852 999.852 999.852
          999.852 999.851 999.851 999.851 999.851 999.851
        </DataArray>
        <DataArray type="Float32" Name="rhoG" NumberOfComponents="1" format="ascii">
          0.30585 0.3018 0.29775 0.293699 0.289649 0.285598 0.281548 0.277498 0.273447 0.269397 0.265347 0.261296
          0.257246 0.253195 0.249145 0.245095 0.241044 0.236994 0.232944 0.228893 0.224843 0.220793 0.216742 0.212692
          0.208641 0.204591 0.200541 0.19649 0.19244 0.188421
        </DataArray>
        <DataArray type="Float32" Name="mobL" NumberOfComponents="1" format="ascii">
          722.171 722.17 722.17 722.17 722.17 722.17 722.169 722.169 722.169 722.169 722.169 722.169
          722.168 722.168 722.168 722.168 722.168 722.167 722.167 722.167 722.167 722.167 722.166 722.166
          722.166 722.166 722.166 722.166 722.165 722.165
        </DataArray>
        <DataArray type="Float32" Name="mobG" NumberOfComponents="1" format="ascii">
          0 0 0 0 0 0 0 0 0 0 0 0
          0 0 0 0 0 0 0 0 0 0 0 0
          0 0 0 0 0 0
        </DataArray>
        <DataArray type="Float32" Name="porosity" NumberOfComponents="1" format="ascii">
          0.298744 0.298744 0.298744 0.298744 0.298743 0.298743 0.298742 0.298741 0.29874 0.298738 0.298736 0.298732
          0.298727 0.298721 0.298712 0.2987 0.298684 0.298663 0.298633 0.298593 0.298538 0.298461 0.298351 0.298186
          0.297659 0.297217 0.296345 0.294105 0.283801 0.0478747
        </DataArray>
        <DataArray type="Float32" Name="temperature" NumberOfComponents="1" format="ascii">
          281.15 281.15 281.15 281.15 281.15 281.15 281.15 281.15 281.15 281.15 281.15 281.15
          281.15 281.15 281.15 281.15 281.15 281.15 281.15 281.15 281.15 281.15 281.15 281.15
          281.15 281.15 281.15 281.15 281.15 281.15
        </DataArray>
        <DataArray type="Float32" Name="phase presence" NumberOfComponents="1" format="ascii">
          1 1 1 1 1 1 1 1 1 1 1 1
          1 1 1 1 1 1 1 1 1 1 1 1
          1 1 1 1 1 1
        </DataArray>
        <DataArray type="Float32" Name="precipitateVolumeFraction_au" NumberOfComponents="1" format="ascii">
          5.52636e-10 5.52803e-10 5.5274e-10 5.52785e-10 5.52748e-10 5.52756e-10 5.52747e-10 5.52738e-10 5.52766e-10 5.52792e-10 5.5277e-10 5.52779e-10
          5.52724e-10 5.52703e-10 5.52692e-10 5.52765e-10 5.52738e-10 5.52686e-10 5.52741e-10 5.52764e-10 5.52717e-10 5.52727e-10 5.52986e-10 1.07537e-09
          0.00026994 0.000269924 0.0002699 0.000269852 5.52189e-10 5.51273e-10
        </DataArray>
        <DataArray type="Float32" Name="precipitateVolumeFraction_nanoAu" NumberOfComponents="1" format="ascii">
          1.23646e-13 1.23684e-13 1.23669e-13 1.23679e-13 1.23671e-13 1.23672e-13 1.2367e-13 1.23668e-13 1.23674e-13 1.23679e-13 1.23674e-13 1.23676e-13
          1.23663e-13 1.23657e-13 1.23654e-13 1.23669e-13 1.23661e-13 1.23647e-13 1.23657e-13 1.23658e-13 1.23642e-13 1.23653e-13 1.3714e-13 2.75699e-11
          6.03712e-08 7.66947e-08 1.02159e-07 1.45564e-07 4.74094e-13 4.67098e-13
        </DataArray>
        <DataArray type="Float32" Name="precipitateVolumeFraction_d" NumberOfComponents="1" format="ascii">
          0.000627903 0.000627965 0.000628053 0.000628176 0.000628349 0.000628591 0.000628931 0.000629404 0.000630062 0.000630973 0.00063223 0.000633957
          0.00063632 0.00063954 0.000643914 0.000649839 0.000657852 0.000668688 0.000683379 0.000703403 0.000730966 0.000769511 0.000824738 0.000906819
          0.00103575 0.00125669 0.00169266 0.00281264 0.00809948 0.126063
        </DataArray>
        <DataArray type="Float32" Name="precipitateVolumeFraction_p" NumberOfComponents="1" format="ascii">
          0.000627903 0.000627965 0.000628053 0.000628176 0.000628349 0.000628591 0.000628931 0.000629404 0.000630062 0.000630973 0.00063223 0.000633957
          0.00063632 0.00063954 0.000643914 0.000649839 0.000657852 0.000668688 0.000683379 0.000703403 0.000730966 0.000769511 0.000824738 0.000906819
          0.00103575 0.00125669 0.00169266 0.00281264 0.00809948 0.126063
        </DataArray>
        <DataArray type="Float32" Name="K" NumberOfComponents="1" format="ascii">
          9.83961e-11 9.83959e-11 9.83957e-11 9.83954e-11 9.83949e-11 9.83943e-11 9.83935e-11 9.83923e-11 9.83906e-11 9.83883e-11 9.83851e-11 9.83807e-11
          9.83747e-11 9.83666e-11 9.83555e-11 9.83404e-11 9.83201e-11 9.82926e-11 9.82554e-11 9.82047e-11 9.81348e-11 9.80373e-11 9.78977e-11 9.76904e-11
          9.70265e-11 9.64736e-11 9.53902e-11 9.26526e-11 8.08736e-11 2.19666e-13
        </DataArray>
        <DataArray type="Float32" Name="X^w_H2O" NumberOfComponents="1" format="ascii">
          0.999853 0.999853 0.999853 0.999853 0.999853 0.999853 0.999853 0.999853 0.999853 0.999853 0.999853 0.999853
          0.999853 0.999853 0.999853 0.999853 0.999853 0.999853 0.999853 0.999853 0.999853 0.999853 0.999853 0.999853
          0.999853 0.999852 0.99985 0.999846 0.999839 0.99984
        </DataArray>
        <DataArray type="Float32" Name="X^w_Air" NumberOfComponents="1" format="ascii">
          0 0 0 0 0 0 0 0 0 0 0 0
          0 0 0 0 0 0 0 0 0 0 0 0
          0 0 0 0 0 0
        </DataArray>
        <DataArray type="Float32" Name="X^w_AuComplex" NumberOfComponents="1" format="ascii">
          1.50891e-16 1.50937e-16 1.50919e-16 1.50931e-16 1.50921e-16 1.50922e-16 1.50919e-16 1.50917e-16 1.50923e-16 1.5093e-16 1.50923e-16 1.50925e-16
          1.50909e-16 1.50901e-16 1.50896e-16 1.50914e-16 1.50903e-16 1.50883e-16 1.50892e-16 1.50889e-16 1.50863e-16 1.50866e-16 1.67102e-16 3.36129e-14
          7.3634e-11 1.14855e-10 1.97254e-10 3.89302e-10 1.96263e-15 1.91159e-15
        </DataArray>
        <DataArray type="Float32" Name="X^w_nanoAu" NumberOfComponents="1" format="ascii">
          5.38524e-19 5.38685e-19 5.38623e-19 5.38665e-19 5.38629e-19 5.38636e-19 5.38625e-19 5.38616e-19 5.38641e-19 5.38665e-19 5.38642e-19 5.38648e-19
          5.38592e-19 5.38567e-19 5.38553e-19 5.38616e-19 5.38581e-19 5.38519e-19 5.38557e-19 5.38596e-19 5.42217e-19 8.84691e-19 3.26038e-17 2.9653e-15
          2.63668e-13 3.35151e-13 4.46682e-13 6.26526e-13 2.05881e-18 1.98399e-18
        </DataArray>
        <DataArray type="Float32" Name="X^w_cyanide" NumberOfComponents="1" format="ascii">
          5.07099e-06 5.07099e-06 5.07098e-06 5.07098e-06 5.07097e-06 5.07097e-06 5.07096e-06 5.07095e-06 5.07094e-06 5.07093e-06 5.07092e-06 5.0709e-06
          5.07088e-06 5.07085e-06 5.07082e-06 5.07077e-06 5.07071e-06 5.07062e-06 5.0705e-06 5.07033e-06 5.07009e-06 5.06975e-06 5.06924e-06 5.06846e-06
          5.06773e-06 6.43746e-06 8.57317e-06 1.22386e-05 1.94618e-05 1.92355e-05
        </DataArray>
        <DataArray type="Float32" Name="X^w_citrate" NumberOfComponents="1" format="ascii">
          0.000141796 0.000141796 0.000141796 0.000141796 0.000141796 0.000141796 0.000141796 0.000141796 0.000141796 0.000141796 0.000141796 0.000141796
          0.000141796 0.000141795 0.000141795 0.000141795 0.000141794 0.000141794 0.000141793 0.000141792 0.00014179 0.000141788 0.000141784 0.000141778
          0.000141769 0.000141754 0.000141726 0.000141658 0.000141438 0.000139793
        </DataArray>
        <DataArray type="Float32" Name="X^w_substrate" NumberOfComponents="1" format="ascii">
          8.95621e-12 1.21314e-11 1.64314e-11 2.22543e-11 3.01398e-11 4.08189e-11 5.52827e-11 7.48757e-11 1.01424e-10 1.37411e-10 1.86222e-10 2.5248e-10
          3.42528e-10 4.65107e-10 6.32336e-10 8.61168e-10 1.17557e-09 1.60988e-09 2.21424e-09 3.06342e-09 4.27224e-09 6.02346e-09 8.62172e-09 1.26062e-08
          1.90095e-08 3.00345e-08 5.11622e-08 9.96211e-08 2.56335e-07 1.41588e-06
        </DataArray>
        <DataArray type="Float32" Name="m^w_H2O" NumberOfComponents="1" format="ascii">
          55492.6 55492.6 55492.5 55492.5 55492.5 55492.5 55492.5 55492.5 55492.5 55492.5 55492.5 55492.5
          55492.5 55492.4 55492.4 55492.4 55492.4 55492.4 55492.4 55492.4 55492.4 55492.4 55492.4 55492.4
          55492.3 55492.3 55492.1 55491.9 55491.5 55491.6
        </DataArray>
        <DataArray type="Float32" Name="m^w_Air" NumberOfComponents="1" format="ascii">
          0 0 0 0 0 0 0 0 0 0 0 0
          0 0 0 0 0 0 0 0 0 0 0 0
          0 0 0 0 0 0
        </DataArray>
        <DataArray type="Float32" Name="m^w_AuComplex" NumberOfComponents="1" format="ascii">
          7.65951e-13 7.66182e-13 7.66092e-13 7.66152e-13 7.66099e-13 7.66109e-13 7.66093e-13 7.66079e-13 7.66114e-13 7.66147e-13 7.66112e-13 7.6612e-13
          7.66038e-13 7.66e-13 7.65975e-13 7.66063e-13 7.66007e-13 7.65909e-13 7.65952e-13 7.65937e-13 7.65806e-13 7.6582e-13 8.48236e-13 1.70625e-10
          3.73778e-07 5.83024e-07 1.00129e-06 1.97616e-06 9.96262e-12 9.70351e-12
        </DataArray>
        <DataArray type="Float32" Name="m^w_nanoAu" NumberOfComponents="1" format="ascii">
          2.73365e-15 2.73446e-15 2.73415e-15 2.73436e-15 2.73417e-15 2.73421e-15 2.73416e-15 2.73411e-15 2.73424e-15 2.73436e-15 2.73424e-15 2.73427e-15
          2.73398e-15 2.73386e-15 2.73379e-15 2.73411e-15 2.73393e-15 2.73361e-15 2.7338e-15 2.734e-15 2.75238e-15 4.49084e-15 1.65502e-13 1.50523e-11
          1.33842e-09 1.70128e-09 2.26743e-09 3.18035e-09 1.04508e-14 1.0071e-14
        </DataArray>
        <DataArray type="Float32" Name="m^w_cyanide" NumberOfComponents="1" format="ascii">
          0.19486 0.19486 0.19486 0.194859 0.194859 0.194859 0.194859 0.194858 0.194858 0.194857 0.194857 0.194856
          0.194855 0.194854 0.194853 0.194851 0.194849 0.194845 0.19484 0.194834 0.194825 0.194812 0.194792 0.194762
          0.194734 0.247367 0.329435 0.470283 0.747842 0.739149
        </DataArray>
        <DataArray type="Float32" Name="m^w_citrate" NumberOfComponents="1" format="ascii">
          0.749742 0.749742 0.749742 0.749742 0.749742 0.749741 0.749741 0.749741 0.749741 0.74974 0.74974 0.749739
          0.749738 0.749737 0.749736 0.749734 0.749732 0.749728 0.749724 0.749717 0.749708 0.749695 0.749675 0.749645
          0.749597 0.749519 0.749367 0.749011 0.747845 0.73915
        </DataArray>
        <DataArray type="Float32" Name="m^w_substrate" NumberOfComponents="1" format="ascii">
          4.97053e-08 6.73272e-08 9.11911e-08 1.23507e-07 1.67271e-07 2.26538e-07 3.06809e-07 4.15546e-07 5.62884e-07 7.62606e-07 1.03349e-06 1.40122e-06
          1.90097e-06 2.58125e-06 3.50934e-06 4.77932e-06 6.52417e-06 8.93454e-06 1.22886e-05 1.70014e-05 2.37101e-05 3.3429e-05 4.78488e-05 6.99618e-05
          0.000105499 0.000166685 0.00028394 0.000552877 0.0014226 0.00785787
        </DataArray>
        <DataArray type="Float32" Name="process rank" NumberOfComponents="1" format="ascii">
          0 0 0 0 0 0 0 0 0 0 0 0
          0 0 0 0 0 0 0 0 0 0 0 0
          0 0 0 0 0 0
        </DataArray>
      </CellData>
      <Points>
        <DataArray type="Float32" Name="Coordinates" NumberOfComponents="3" format="ascii">
          0 0 0 0.5 0 0 0 0.0333333 0 0.5 0.0333333 0
          0 0.0666667 0 0.5 0.0666667 0 0 0.1 0 0.5 0.1 0
          0 0.133333 0 0.5 0.133333 0 0 0.166667 0 0.5 0.166667 0
          0 0.2 0 0.5 0.2 0 0 0.233333 0 0.5 0.233333 0
          0 0.266667 0 0.5 0.266667 0 0 0.3 0 0.5 0.3 0
          0 0.333333 0 0.5 0.333333 0 0 0.366667 0 0.5 0.366667 0
          0 0.4 0 0.5 0.4 0 0 0.433333 0 0.5 0.433333 0
          0 0.466667 0 0.5 0.466667 0 0 0.5 0 0.5 0.5 0
          0 0.533333 0 0.5 0.533333 0 0 0.566667 0 0.5 0.566667 0
          0 0.6 0 0.5 0.6 0 0 0.633333 0 0.5 0.633333 0
          0 0.666667 0 0.5 0.666667 0 0 0.7 0 0.5 0.7 0
          0 0.733333 0 0.5 0.733333 0 0 0.766667 0 0.5 0.766667 0
          0 0.8 0 0.5 0.8 0 0 0.833333 0 0.5 0.833333 0
          0 0.866667 0 0.5 0.866667 0 0 0.9 0 0.5 0.9 0
          0 0.933333 0 0.5 0.933333 0 0 0.966667 0 0.5 0.966667 0
          0 1 0 0.5 1 0
        </DataArray>
      </Points>
      <Cells>
        <DataArray type="Int32" Name="connectivity" NumberOfComponents="1" format="ascii">
          0 1 3 2 2 3 5 4 4 5 7 6
          6 7 9 8 8 9 11 10 10 11 13 12
          12 13 15 14 14 15 17 16 16 17 19 18
          18 19 21 20 20 21 23 22 22 23 25 24
          24 25 27 26 26 27 29 28 28 29 31 30
          30 31 33 32 32 33 35 34 34 35 37 36
          36 37 39 38 38 39 41 40 40 41 43 42
          42 43 45 44 44 45 47 46 46 47 49 48
          48 49 51 50 50 51 53 52 52 53 55 54
          54 55 57 56 56 57 59 58 58 59 61 60
        </DataArray>
        <DataArray type="Int32" Name="offsets" NumberOfComponents="1" format="ascii">
          4 8 12 16 20 24 28 32 36 40 44 48
          52 56 60 64 68 72 76 80 84 88 92 96
          100 104 108 112 116 120
        </DataArray>
        <DataArray type="UInt8" Name="types" NumberOfComponents="1" format="ascii">
          9 9 9 9 9 9 9 9 9 9 9 9
          9 9 9 9 9 9 9 9 9 9 9 9
          9 9 9 9 9 9
        </DataArray>
      </Cells>
    </Piece>
  </UnstructuredGrid>
</VTKFile>
