<?xml version="1.0"?>
<VTKFile type="UnstructuredGrid" version="0.1" byte_order="LittleEndian">
  <UnstructuredGrid>
    <Piece NumberOfCells="30" NumberOfPoints="62">
      <CellData Scalars="Sg">
        <DataArray type="Float32" Name="Sg" NumberOfComponents="1" format="ascii">
          0 0 0 0 0 0 0 0 0 0 0 0
          0 0 0 0 0 0 0 0 0 0 0 0
          0 0 0 0 0 0
        </DataArray>
        <DataArray type="Float32" Name="Sl" NumberOfComponents="1" format="ascii">
          1 1 1 1 1 1 1 1 1 1 1 1
          1 1 1 1 1 1 1 1 1 1 1 1
          1 1 1 1 1 1
        </DataArray>
        <DataArray type="Float32" Name="pg" NumberOfComponents="1" format="ascii">
          24687.8 24360.9 24034 23707 23380.1 23053.1 22726.2 22399.3 22072.3 21745.4 21418.4 21091.5
          20764.6 20437.6 20110.7 19783.7 19456.8 19129.8 18802.9 18476 18149 17822.1 17495.1 17168.2
          16841.3 16514.3 16187.4 15860.4 15533.5 15208.2
        </DataArray>
        <DataArray type="Float32" Name="pl" NumberOfComponents="1" format="ascii">
          110628 110301 109974 109647 109320 108993 108666 108339 108012 107685 107358 107031
          106704 106377 106050 105723 105396 105070 104743 104416 104089 103762 103435 103108
          102781 102454 102127 101800 101473 101148
        </DataArray>
        <DataArray type="Float32" Name="pc" NumberOfComponents="1" format="ascii">
          -85939.7 -85939.7 -85939.7 -85939.7 -85939.7 -85939.7 -85939.7 -85939.7 -85939.7 -85939.7 -85939.7 -85939.7
          -85939.7 -85939.7 -85939.7 -85939.7 -85939.7 -85939.7 -85939.7 -85939.7 -85939.7 -85939.7 -85939.7 -85939.7
          -85939.7 -85939.7 -85939.7 -85939.7 -85939.7 -85939.7
        </DataArray>
        <DataArray type="Float32" Name="rhoL" NumberOfComponents="1" format="ascii">
          999.855 999.855 999.855 999.855 999.855 999.854 999.854 999.854 999.854 999.854 999.854 999.854
          999.853 999.853 999.853 999.853 999.853 999.853 999.852 999.852 999.852 999.852 999.852 999.852
          999.852 999.851 999.851 999.851 999.851 999.851
        </DataArray>
        <DataArray type="Float32" Name="rhoG" NumberOfComponents="1" format="ascii">
          0.30585 0.3018 0.29775 0.293699 0.289649 0.285598 0.281548 0.277498 0.273447 0.269397 0.265347 0.261296
          0.257246 0.253195 0.249145 0.245095 0.241044 0.236994 0.232944 0.228893 0.224843 0.220793 0.216742 0.212692
          0.208641 0.204591 0.200541 0.19649 0.19244 0.18841
        </DataArray>
        <DataArray type="Float32" Name="mobL" NumberOfComponents="1" format="ascii">
          722.171 722.17 722.17 722.17 722.17 722.17 722.169 722.169 722.169 722.169 722.169 722.169
          722.168 722.168 722.168 722.168 722.168 722.167 722.167 722.167 722.167 722.167 722.166 722.166
          722.166 722.166 722.166 722.166 722.165 722.165
        </DataArray>
        <DataArray type="Float32" Name="mobG" NumberOfComponents="1" format="ascii">
          0 0 0 0 0 0 0 0 0 0 0 0
          0 0 0 0 0 0 0 0 0 0 0 0
          0 0 0 0 0 0
        </DataArray>
        <DataArray type="Float32" Name="porosity" NumberOfComponents="1" format="ascii">
          0.298685 0.298685 0.298685 0.298685 0.298684 0.298684 0.298683 0.298682 0.298681 0.298679 0.298676 0.298673
          0.298668 0.298661 0.298652 0.29864 0.298623 0.2986 0.29857 0.298528 0.298471 0.298392 0.298278 0.298109
          0.297575 0.297125 0.296248 0.29404 0.28437 0.0549276
        </DataArray>
        <DataArray type="Float32" Name="temperature" NumberOfComponents="1" format="ascii">
          281.15 281.15 281.15 281.15 281.15 281.15 281.15 281.15 281.15 281.15 281.15 281.15
          281.15 281.15 281.15 281.15 281.15 281.15 281.15 281.15 281.15 281.15 281.15 281.15
          281.15 281.15 281.15 281.15 281.15 281.15
        </DataArray>
        <DataArray type="Float32" Name="phase presence" NumberOfComponents="1" format="ascii">
          1 1 1 1 1 1 1 1 1 1 1 1
          1 1 1 1 1 1 1 1 1 1 1 1
          1 1 1 1 1 1
        </DataArray>
        <DataArray type="Float32" Name="precipitateVolumeFraction_au" NumberOfComponents="1" format="ascii">
          5.52659e-10 5.5274e-10 5.52753e-10 5.52768e-10 5.52742e-10 5.5264e-10 5.52673e-10 5.52762e-10 5.52734e-10 5.52782e-10 5.52761e-10 5.52754e-10
          5.52764e-10 5.52784e-10 5.52754e-10 5.52694e-10 5.52768e-10 5.52729e-10 5.52747e-10 5.52757e-10 5.52724e-10 5.52756e-10 5.52937e-10 9.31155e-10
          0.00026994 0.000269924 0.000269899 0.000269853 5.52518e-10 5.51203e-10
        </DataArray>
        <DataArray type="Float32" Name="precipitateVolumeFraction_nanoAu" NumberOfComponents="1" format="ascii">
          1.238e-13 1.23825e-13 1.23828e-13 1.23832e-13 1.23824e-13 1.23797e-13 1.23806e-13 1.23827e-13 1.2382e-13 1.2383e-13 1.23825e-13 1.23822e-13
          1.23823e-13 1.23827e-13 1.23819e-13 1.23803e-13 1.23819e-13 1.23807e-13 1.23808e-13 1.23806e-13 1.23792e-13 1.23808e-13 1.35785e-13 2.5796e-11
          6.03856e-08 7.67093e-08 1.0217e-07 1.45577e-07 4.74398e-13 4.66927e-13
        </DataArray>
        <DataArray type="Float32" Name="precipitateVolumeFraction_d" NumberOfComponents="1" format="ascii">
          0.000657442 0.000657506 0.000657597 0.000657725 0.000657904 0.000658156 0.000658509 0.000659 0.000659684 0.000660631 0.000661938 0.000663734
          0.00066619 0.000669537 0.000674083 0.000680238 0.000688559 0.000699808 0.000715046 0.000735797 0.000764327 0.000804161 0.000861115 0.000945514
          0.00107753 0.0013023 0.00174104 0.00284507 0.0078152 0.122536
        </DataArray>
        <DataArray type="Float32" Name="precipitateVolumeFraction_p" NumberOfComponents="1" format="ascii">
          0.000657442 0.000657506 0.000657597 0.000657725 0.000657904 0.000658156 0.000658509 0.000659 0.000659684 0.000660631 0.000661938 0.000663734
          0.00066619 0.000669537 0.000674083 0.000680238 0.000688559 0.000699808 0.000715046 0.000735797 0.000764327 0.000804161 0.000861115 0.000945514
          0.00107753 0.0013023 0.00174104 0.00284507 0.0078152 0.122536
        </DataArray>
        <DataArray type="Float32" Name="K" NumberOfComponents="1" format="ascii">
          9.83211e-11 9.8321e-11 9.83208e-11 9.83204e-11 9.832e-11 9.83193e-11 9.83184e-11 9.83172e-11 9.83155e-11 9.83131e-11 9.83097e-11 9.83052e-11
          9.8299e-11 9.82905e-11 9.8279e-11 9.82634e-11 9.82423e-11 9.82138e-11 9.81752e-11 9.81226e-11 9.80504e-11 9.79497e-11 9.78058e-11 9.75929e-11
          9.69218e-11 9.63598e-11 9.52706e-11 9.25743e-11 8.149e-11 3.36724e-13
        </DataArray>
        <DataArray type="Float32" Name="X^w_H2O" NumberOfComponents="1" format="ascii">
          0.999853 0.999853 0.999853 0.999853 0.999853 0.999853 0.999853 0.999853 0.999853 0.999853 0.999853 0.999853
          0.999853 0.999853 0.999853 0.999853 0.999853 0.999853 0.999853 0.999853 0.999853 0.999853 0.999853 0.999853
          0.999853 0.999852 0.99985 0.999846 0.999839 0.99984
        </DataArray>
        <DataArray type="Float32" Name="X^w_Air" NumberOfComponents="1" format="ascii">
          0 0 0 0 0 0 0 0 0 0 0 0
          0 0 0 0 0 0 0 0 0 0 0 0
          0 0 0 0 0 0
        </DataArray>
        <DataArray type="Float32" Name="X^w_AuComplex" NumberOfComponents="1" format="ascii">
          1.41275e-16 1.41302e-16 1.41305e-16 1.41309e-16 1.413e-16 1.41269e-16 1.41278e-16 1.41302e-16 1.41293e-16 1.41304e-16 1.41297e-16 1.41294e-16
          1.41295e-16 1.41298e-16 1.41287e-16 1.41269e-16 1.41284e-16 1.41269e-16 1.41267e-16 1.4126e-16 1.41239e-16 1.41246e-16 1.54698e-16 2.94095e-14
          6.88775e-11 1.07429e-10 1.84476e-10 3.64047e-10 1.83602e-15 1.78609e-15
        </DataArray>
        <DataArray type="Float32" Name="X^w_nanoAu" NumberOfComponents="1" format="ascii">
          5.66153e-19 5.66264e-19 5.6628e-19 5.66295e-19 5.66259e-19 5.66139e-19 5.66177e-19 5.66273e-19 5.6624e-19 5.66288e-19 5.66261e-19 5.6625e-19
          5.66256e-19 5.66271e-19 5.66232e-19 5.66162e-19 5.66228e-19 5.66175e-19 5.66175e-19 5.66201e-19 5.7001e-19 9.28978e-19 3.41655e-17 3.107e-15
          2.76916e-13 3.51972e-13 4.69055e-13 6.57875e-13 2.16278e-18 2.08157e-18
        </DataArray>
        <DataArray type="Float32" Name="X^w_cyanide" NumberOfComponents="1" format="ascii">
          5.07236e-06 5.07234e-06 5.07232e-06 5.0723e-06 5.07228e-06 5.07226e-06 5.07224e-06 5.07222e-06 5.0722e-06 5.07218e-06 5.07216e-06 5.07213e-06
          5.0721e-06 5.07206e-06 5.07201e-06 5.07196e-06 5.07188e-06 5.07179e-06 5.07166e-06 5.07149e-06 5.07124e-06 5.07088e-06 5.07036e-06 5.06955e-06
          5.06873e-06 6.43853e-06 8.57415e-06 1.22388e-05 1.94588e-05 1.92276e-05
        </DataArray>
        <DataArray type="Float32" Name="X^w_citrate" NumberOfComponents="1" format="ascii">
          0.000141796 0.000141796 0.000141796 0.000141796 0.000141796 0.000141796 0.000141796 0.000141796 0.000141796 0.000141796 0.000141795 0.000141795
          0.000141795 0.000141795 0.000141795 0.000141795 0.000141794 0.000141794 0.000141793 0.000141792 0.00014179 0.000141787 0.000141784 0.000141778
          0.000141768 0.000141753 0.000141723 0.000141651 0.000141416 0.000139736
        </DataArray>
        <DataArray type="Float32" Name="X^w_substrate" NumberOfComponents="1" format="ascii">
          6.74669e-12 9.2469e-12 1.26729e-11 1.73675e-11 2.38004e-11 3.26157e-11 4.46969e-11 6.12569e-11 8.3962e-11 1.15105e-10 1.57848e-10 2.16561e-10
          2.97305e-10 4.08527e-10 5.62077e-10 7.74706e-10 1.07035e-09 1.48367e-09 2.06577e-09 2.89363e-09 4.08649e-09 5.83586e-09 8.46345e-09 1.25428e-08
          1.9179e-08 3.07403e-08 5.31313e-08 1.04859e-07 2.71622e-07 1.45662e-06
        </DataArray>
        <DataArray type="Float32" Name="m^w_H2O" NumberOfComponents="1" format="ascii">
          55492.6 55492.6 55492.5 55492.5 55492.5 55492.5 55492.5 55492.5 55492.5 55492.5 55492.5 55492.5
          55492.5 55492.4 55492.4 55492.4 55492.4 55492.4 55492.4 55492.4 55492.4 55492.4 55492.4 55492.4
          55492.3 55492.3 55492.1 55491.9 55491.5 55491.6
        </DataArray>
        <DataArray type="Float32" Name="m^w_Air" NumberOfComponents="1" format="ascii">
          0 0 0 0 0 0 0 0 0 0 0 0
          0 0 0 0 0 0 0 0 0 0 0 0
          0 0 0 0 0 0
        </DataArray>
        <DataArray type="Float32" Name="m^w_AuComplex" NumberOfComponents="1" format="ascii">
          7.17139e-13 7.17273e-13 7.1729e-13 7.17307e-13 7.17261e-13 7.17108e-13 7.17152e-13 7.17272e-13 7.17226e-13 7.17285e-13 7.17249e-13 7.17232e-13
          7.17236e-13 7.17252e-13 7.17199e-13 7.17104e-13 7.17182e-13 7.17105e-13 7.17094e-13 7.1706e-13 7.16953e-13 7.16988e-13 7.85272e-13 1.49287e-10
          3.49633e-07 5.45327e-07 9.36431e-07 1.84796e-06 9.31994e-12 9.06649e-12
        </DataArray>
        <DataArray type="Float32" Name="m^w_nanoAu" NumberOfComponents="1" format="ascii">
          2.87389e-15 2.87446e-15 2.87454e-15 2.87461e-15 2.87443e-15 2.87382e-15 2.87401e-15 2.8745e-15 2.87433e-15 2.87457e-15 2.87444e-15 2.87438e-15
          2.87441e-15 2.87449e-15 2.87429e-15 2.87393e-15 2.87427e-15 2.874e-15 2.874e-15 2.87413e-15 2.89346e-15 4.71565e-15 1.7343e-13 1.57716e-11
          1.40567e-09 1.78667e-09 2.381e-09 3.33948e-09 1.09786e-14 1.05664e-14
        </DataArray>
        <DataArray type="Float32" Name="m^w_cyanide" NumberOfComponents="1" format="ascii">
          0.194913 0.194912 0.194911 0.19491 0.19491 0.194909 0.194908 0.194907 0.194906 0.194905 0.194904 0.194903
          0.194902 0.194901 0.194899 0.194897 0.194894 0.19489 0.194885 0.194878 0.194869 0.194855 0.194835 0.194804
          0.194772 0.247409 0.329473 0.470289 0.747728 0.738843
        </DataArray>
        <DataArray type="Float32" Name="m^w_citrate" NumberOfComponents="1" format="ascii">
          0.74974 0.74974 0.74974 0.74974 0.74974 0.74974 0.749739 0.749739 0.749739 0.749739 0.749738 0.749738
          0.749737 0.749736 0.749735 0.749733 0.749731 0.749727 0.749723 0.749716 0.749707 0.749694 0.749674 0.749644
          0.749594 0.749512 0.749351 0.748971 0.74773 0.738845
        </DataArray>
        <DataArray type="Float32" Name="m^w_substrate" NumberOfComponents="1" format="ascii">
          3.74429e-08 5.13186e-08 7.03324e-08 9.63864e-08 1.32088e-07 1.81011e-07 2.4806e-07 3.39964e-07 4.65973e-07 6.38813e-07 8.76029e-07 1.20187e-06
          1.64998e-06 2.26725e-06 3.11942e-06 4.29947e-06 5.94023e-06 8.2341e-06 1.14646e-05 1.60591e-05 2.26792e-05 3.23878e-05 4.69705e-05 6.96099e-05
          0.00010644 0.000170602 0.000294868 0.000581944 0.00150745 0.00808392
        </DataArray>
        <DataArray type="Float32" Name="process rank" NumberOfComponents="1" format="ascii">
          0 0 0 0 0 0 0 0 0 0 0 0
          0 0 0 0 0 0 0 0 0 0 0 0
          0 0 0 0 0 0
        </DataArray>
      </CellData>
      <Points>
        <DataArray type="Float32" Name="Coordinates" NumberOfComponents="3" format="ascii">
          0 0 0 0.5 0 0 0 0.0333333 0 0.5 0.0333333 0
          0 0.0666667 0 0.5 0.0666667 0 0 0.1 0 0.5 0.1 0
          0 0.133333 0 0.5 0.133333 0 0 0.166667 0 0.5 0.166667 0
          0 0.2 0 0.5 0.2 0 0 0.233333 0 0.5 0.233333 0
          0 0.266667 0 0.5 0.266667 0 0 0.3 0 0.5 0.3 0
          0 0.333333 0 0.5 0.333333 0 0 0.366667 0 0.5 0.366667 0
          0 0.4 0 0.5 0.4 0 0 0.433333 0 0.5 0.433333 0
          0 0.466667 0 0.5 0.466667 0 0 0.5 0 0.5 0.5 0
          0 0.533333 0 0.5 0.533333 0 0 0.566667 0 0.5 0.566667 0
          0 0.6 0 0.5 0.6 0 0 0.633333 0 0.5 0.633333 0
          0 0.666667 0 0.5 0.666667 0 0 0.7 0 0.5 0.7 0
          0 0.733333 0 0.5 0.733333 0 0 0.766667 0 0.5 0.766667 0
          0 0.8 0 0.5 0.8 0 0 0.833333 0 0.5 0.833333 0
          0 0.866667 0 0.5 0.866667 0 0 0.9 0 0.5 0.9 0
          0 0.933333 0 0.5 0.933333 0 0 0.966667 0 0.5 0.966667 0
          0 1 0 0.5 1 0
        </DataArray>
      </Points>
      <Cells>
        <DataArray type="Int32" Name="connectivity" NumberOfComponents="1" format="ascii">
          0 1 3 2 2 3 5 4 4 5 7 6
          6 7 9 8 8 9 11 10 10 11 13 12
          12 13 15 14 14 15 17 16 16 17 19 18
          18 19 21 20 20 21 23 22 22 23 25 24
          24 25 27 26 26 27 29 28 28 29 31 30
          30 31 33 32 32 33 35 34 34 35 37 36
          36 37 39 38 38 39 41 40 40 41 43 42
          42 43 45 44 44 45 47 46 46 47 49 48
          48 49 51 50 50 51 53 52 52 53 55 54
          54 55 57 56 56 57 59 58 58 59 61 60
        </DataArray>
        <DataArray type="Int32" Name="offsets" NumberOfComponents="1" format="ascii">
          4 8 12 16 20 24 28 32 36 40 44 48
          52 56 60 64 68 72 76 80 84 88 92 96
          100 104 108 112 116 120
        </DataArray>
        <DataArray type="UInt8" Name="types" NumberOfComponents="1" format="ascii">
          9 9 9 9 9 9 9 9 9 9 9 9
          9 9 9 9 9 9 9 9 9 9 9 9
          9 9 9 9 9 9
        </DataArray>
      </Cells>
    </Piece>
  </UnstructuredGrid>
</VTKFile>
