<?xml version="1.0"?>
<VTKFile type="UnstructuredGrid" version="0.1" byte_order="LittleEndian">
  <UnstructuredGrid>
    <Piece NumberOfCells="30" NumberOfPoints="62">
      <CellData Scalars="Sg">
        <DataArray type="Float32" Name="Sg" NumberOfComponents="1" format="ascii">
          0 0 0 0 0 0 0 0 0 0 0 0
          0 0 0 0 0 0 0 0 0 0 0 0
          0 0 0 0 0 0
        </DataArray>
        <DataArray type="Float32" Name="Sl" NumberOfComponents="1" format="ascii">
          1 1 1 1 1 1 1 1 1 1 1 1
          1 1 1 1 1 1 1 1 1 1 1 1
          1 1 1 1 1 1
        </DataArray>
        <DataArray type="Float32" Name="pg" NumberOfComponents="1" format="ascii">
          24687.8 24360.9 24034 23707 23380.1 23053.1 22726.2 22399.3 22072.3 21745.4 21418.4 21091.5
          20764.6 20437.6 20110.7 19783.7 19456.8 19129.9 18802.9 18476 18149 17822.1 17495.1 17168.2
          16841.3 16514.3 16187.4 15860.4 15533.5 15206.9
        </DataArray>
        <DataArray type="Float32" Name="pl" NumberOfComponents="1" format="ascii">
          110628 110301 109974 109647 109320 108993 108666 108339 108012 107685 107358 107031
          106704 106377 106050 105723 105396 105070 104743 104416 104089 103762 103435 103108
          102781 102454 102127 101800 101473 101147
        </DataArray>
        <DataArray type="Float32" Name="pc" NumberOfComponents="1" format="ascii">
          -85939.7 -85939.7 -85939.7 -85939.7 -85939.7 -85939.7 -85939.7 -85939.7 -85939.7 -85939.7 -85939.7 -85939.7
          -85939.7 -85939.7 -85939.7 -85939.7 -85939.7 -85939.7 -85939.7 -85939.7 -85939.7 -85939.7 -85939.7 -85939.7
          -85939.7 -85939.7 -85939.7 -85939.7 -85939.7 -85939.7
        </DataArray>
        <DataArray type="Float32" Name="rhoL" NumberOfComponents="1" format="ascii">
          999.855 999.855 999.855 999.855 999.855 999.854 999.854 999.854 999.854 999.854 999.854 999.854
          999.853 999.853 999.853 999.853 999.853 999.853 999.852 999.852 999.852 999.852 999.852 999.852
          999.852 999.851 999.851 999.851 999.851 999.851
        </DataArray>
        <DataArray type="Float32" Name="rhoG" NumberOfComponents="1" format="ascii">
          0.30585 0.3018 0.29775 0.293699 0.289649 0.285598 0.281548 0.277498 0.273447 0.269397 0.265347 0.261296
          0.257246 0.253195 0.249145 0.245095 0.241044 0.236994 0.232944 0.228893 0.224843 0.220793 0.216742 0.212692
          0.208641 0.204591 0.200541 0.19649 0.19244 0.188394
        </DataArray>
        <DataArray type="Float32" Name="mobL" NumberOfComponents="1" format="ascii">
          722.171 722.17 722.17 722.17 722.17 722.17 722.169 722.169 722.169 722.169 722.169 722.169
          722.168 722.168 722.168 722.168 722.168 722.167 722.167 722.167 722.167 722.167 722.166 722.166
          722.166 722.166 722.166 722.166 722.165 722.165
        </DataArray>
        <DataArray type="Float32" Name="mobG" NumberOfComponents="1" format="ascii">
          0 0 0 0 0 0 0 0 0 0 0 0
          0 0 0 0 0 0 0 0 0 0 0 0
          0 0 0 0 0 0
        </DataArray>
        <DataArray type="Float32" Name="porosity" NumberOfComponents="1" format="ascii">
          0.298597 0.298597 0.298597 0.298597 0.298596 0.298596 0.298595 0.298594 0.298593 0.298591 0.298588 0.298584
          0.298579 0.298572 0.298562 0.298549 0.298532 0.298508 0.298476 0.298432 0.298372 0.298289 0.29817 0.297995
          0.297453 0.296996 0.296119 0.29399 0.285471 0.0920901
        </DataArray>
        <DataArray type="Float32" Name="temperature" NumberOfComponents="1" format="ascii">
          281.15 281.15 281.15 281.15 281.15 281.15 281.15 281.15 281.15 281.15 281.15 281.15
          281.15 281.15 281.15 281.15 281.15 281.15 281.15 281.15 281.15 281.15 281.15 281.15
          281.15 281.15 281.15 281.15 281.15 281.15
        </DataArray>
        <DataArray type="Float32" Name="phase presence" NumberOfComponents="1" format="ascii">
          1 1 1 1 1 1 1 1 1 1 1 1
          1 1 1 1 1 1 1 1 1 1 1 1
          1 1 1 1 1 1
        </DataArray>
        <DataArray type="Float32" Name="precipitateVolumeFraction_au" NumberOfComponents="1" format="ascii">
          5.52615e-10 5.52693e-10 5.52706e-10 5.52721e-10 5.52695e-10 5.52594e-10 5.52627e-10 5.52715e-10 5.52687e-10 5.52734e-10 5.52713e-10 5.52707e-10
          5.52717e-10 5.52737e-10 5.52707e-10 5.52646e-10 5.52721e-10 5.52682e-10 5.527e-10 5.52709e-10 5.52677e-10 5.52709e-10 5.52817e-10 7.76106e-10
          0.00026994 0.000269924 0.000269899 0.000269854 5.52472e-10 5.51162e-10
        </DataArray>
        <DataArray type="Float32" Name="precipitateVolumeFraction_nanoAu" NumberOfComponents="1" format="ascii">
          1.67752e-13 1.70679e-13 1.71131e-13 1.71428e-13 1.7094e-13 1.69599e-13 1.70212e-13 1.71174e-13 1.70929e-13 1.7123e-13 1.71096e-13 1.71054e-13
          1.71084e-13 1.71127e-13 1.71029e-13 1.70891e-13 1.71039e-13 1.70971e-13 1.70989e-13 1.70992e-13 1.70948e-13 1.70978e-13 1.83014e-13 2.59144e-11
          6.04571e-08 7.67868e-08 1.02243e-07 1.45598e-07 5.20593e-13 5.11186e-13
        </DataArray>
        <DataArray type="Float32" Name="precipitateVolumeFraction_d" NumberOfComponents="1" format="ascii">
          0.000701301 0.000701369 0.000701465 0.0007016 0.000701789 0.000702056 0.000702428 0.000702949 0.000703672 0.000704674 0.000706056 0.000707955
          0.000710552 0.000714089 0.000718891 0.00072539 0.00073417 0.000746026 0.000762067 0.000783878 0.000813803 0.000855474 0.000914841 0.00100238
          0.00113832 0.00136722 0.00180571 0.00286978 0.00726471 0.103955
        </DataArray>
        <DataArray type="Float32" Name="precipitateVolumeFraction_p" NumberOfComponents="1" format="ascii">
          0.000701301 0.000701369 0.000701465 0.0007016 0.000701789 0.000702056 0.000702428 0.000702949 0.000703672 0.000704674 0.000706056 0.000707955
          0.000710552 0.000714089 0.000718891 0.00072539 0.00073417 0.000746026 0.000762067 0.000783878 0.000813803 0.000855474 0.000914841 0.00100238
          0.00113832 0.00136722 0.00180571 0.00286978 0.00726471 0.103955
        </DataArray>
        <DataArray type="Float32" Name="K" NumberOfComponents="1" format="ascii">
          9.821e-11 9.82098e-11 9.82096e-11 9.82092e-11 9.82087e-11 9.82081e-11 9.82071e-11 9.82058e-11 9.8204e-11 9.82014e-11 9.81979e-11 9.81931e-11
          9.81865e-11 9.81776e-11 9.81654e-11 9.8149e-11 9.81267e-11 9.80967e-11 9.80561e-11 9.8001e-11 9.79253e-11 9.782e-11 9.76702e-11 9.74496e-11
          9.67695e-11 9.6198e-11 9.51109e-11 9.25147e-11 8.26944e-11 1.71944e-12
        </DataArray>
        <DataArray type="Float32" Name="X^w_H2O" NumberOfComponents="1" format="ascii">
          0.999853 0.999853 0.999853 0.999853 0.999853 0.999853 0.999853 0.999853 0.999853 0.999853 0.999853 0.999853
          0.999853 0.999853 0.999853 0.999853 0.999853 0.999853 0.999853 0.999853 0.999853 0.999853 0.999853 0.999853
          0.999853 0.999852 0.99985 0.999846 0.999839 0.99984
        </DataArray>
        <DataArray type="Float32" Name="X^w_Air" NumberOfComponents="1" format="ascii">
          2.0838e-37 0 0 0 0 0 0 0 0 0 0 0
          0 0 0 0 0 0 0 0 0 0 0 0
          0 0 0 0 0 0
        </DataArray>
        <DataArray type="Float32" Name="X^w_AuComplex" NumberOfComponents="1" format="ascii">
          1.83806e-16 1.86626e-16 1.87059e-16 1.87343e-16 1.86869e-16 1.8557e-16 1.8616e-16 1.87087e-16 1.86847e-16 1.87136e-16 1.87003e-16 1.86959e-16
          1.86985e-16 1.87024e-16 1.86925e-16 1.86785e-16 1.86926e-16 1.86853e-16 1.86864e-16 1.86858e-16 1.86802e-16 1.86816e-16 2.00332e-16 2.95562e-14
          6.901e-11 1.07608e-10 1.84697e-10 3.6415e-10 2.00515e-15 1.9424e-15
        </DataArray>
        <DataArray type="Float32" Name="X^w_nanoAu" NumberOfComponents="1" format="ascii">
          7.67383e-19 7.80654e-19 7.82712e-19 7.84033e-19 7.81757e-19 7.75719e-19 7.78542e-19 7.82881e-19 7.81789e-19 7.83145e-19 7.82533e-19 7.82346e-19
          7.82482e-19 7.82672e-19 7.8222e-19 7.81599e-19 7.82266e-19 7.81954e-19 7.8203e-19 7.82079e-19 7.85767e-19 1.14653e-18 3.45026e-17 3.11462e-15
          2.77234e-13 3.52306e-13 4.6933e-13 6.57789e-13 2.37173e-18 2.27288e-18
        </DataArray>
        <DataArray type="Float32" Name="X^w_cyanide" NumberOfComponents="1" format="ascii">
          5.07905e-06 5.07897e-06 5.0789e-06 5.07882e-06 5.07875e-06 5.07867e-06 5.07859e-06 5.07852e-06 5.07844e-06 5.07836e-06 5.07828e-06 5.0782e-06
          5.07811e-06 5.07802e-06 5.07792e-06 5.0778e-06 5.07767e-06 5.07751e-06 5.07732e-06 5.07707e-06 5.07674e-06 5.07627e-06 5.0756e-06 5.07458e-06
          5.07342e-06 6.44357e-06 8.57891e-06 1.22406e-05 1.94454e-05 1.91768e-05
        </DataArray>
        <DataArray type="Float32" Name="X^w_citrate" NumberOfComponents="1" format="ascii">
          0.000141796 0.000141796 0.000141796 0.000141796 0.000141796 0.000141796 0.000141796 0.000141796 0.000141796 0.000141796 0.000141795 0.000141795
          0.000141795 0.000141795 0.000141795 0.000141795 0.000141794 0.000141793 0.000141793 0.000141791 0.000141789 0.000141786 0.000141782 0.000141775
          0.000141764 0.000141744 0.000141705 0.000141614 0.000141319 0.000139367
        </DataArray>
        <DataArray type="Float32" Name="X^w_substrate" NumberOfComponents="1" format="ascii">
          5.40639e-12 7.52558e-12 1.0475e-11 1.458e-11 2.02933e-11 2.82457e-11 3.9316e-11 5.47293e-11 7.61959e-11 1.06106e-10 1.47806e-10 2.05994e-10
          2.87288e-10 4.01054e-10 5.60623e-10 7.85132e-10 1.10232e-09 1.55295e-09 2.19794e-09 3.13028e-09 4.49596e-09 6.53218e-09 9.64201e-09 1.45512e-08
          2.267e-08 3.70378e-08 6.52425e-08 1.30889e-07 3.40267e-07 1.71685e-06
        </DataArray>
        <DataArray type="Float32" Name="m^w_H2O" NumberOfComponents="1" format="ascii">
          55492.6 55492.5 55492.5 55492.5 55492.5 55492.5 55492.5 55492.5 55492.5 55492.5 55492.5 55492.5
          55492.5 55492.4 55492.4 55492.4 55492.4 55492.4 55492.4 55492.4 55492.4 55492.4 55492.4 55492.4
          55492.3 55492.3 55492.1 55491.9 55491.5 55491.6
        </DataArray>
        <DataArray type="Float32" Name="m^w_Air" NumberOfComponents="1" format="ascii">
          7.1944e-33 1.27332e-34 2.21576e-36 3.79018e-38 0 0 0 0 0 0 0 0
          0 0 0 0 0 0 0 0 0 0 0 0
          0 0 0 0 0 0
        </DataArray>
        <DataArray type="Float32" Name="m^w_AuComplex" NumberOfComponents="1" format="ascii">
          9.33031e-13 9.47349e-13 9.49545e-13 9.50988e-13 9.48579e-13 9.41988e-13 9.4498e-13 9.49684e-13 9.48468e-13 9.49935e-13 9.49258e-13 9.49037e-13
          9.49168e-13 9.49366e-13 9.48861e-13 9.48151e-13 9.48868e-13 9.48496e-13 9.48551e-13 9.48524e-13 9.48237e-13 9.48309e-13 1.01692e-12 1.50032e-10
          3.50306e-07 5.46234e-07 9.37552e-07 1.84848e-06 1.01784e-11 9.85994e-12
        </DataArray>
        <DataArray type="Float32" Name="m^w_nanoAu" NumberOfComponents="1" format="ascii">
          3.89537e-15 3.96274e-15 3.97318e-15 3.97989e-15 3.96834e-15 3.93769e-15 3.95202e-15 3.97404e-15 3.96849e-15 3.97538e-15 3.97227e-15 3.97132e-15
          3.97201e-15 3.97298e-15 3.97068e-15 3.96753e-15 3.97091e-15 3.96933e-15 3.96972e-15 3.96996e-15 3.98868e-15 5.81996e-15 1.75141e-13 1.58103e-11
          1.40729e-09 1.78836e-09 2.38239e-09 3.33904e-09 1.20393e-14 1.15375e-14
        </DataArray>
        <DataArray type="Float32" Name="m^w_cyanide" NumberOfComponents="1" format="ascii">
          0.19517 0.195167 0.195164 0.195161 0.195158 0.195155 0.195152 0.195149 0.195146 0.195143 0.19514 0.195137
          0.195133 0.19513 0.195126 0.195121 0.195116 0.19511 0.195103 0.195093 0.19508 0.195062 0.195036 0.194997
          0.194953 0.247602 0.329656 0.47036 0.747213 0.736892
        </DataArray>
        <DataArray type="Float32" Name="m^w_citrate" NumberOfComponents="1" format="ascii">
          0.74974 0.74974 0.74974 0.74974 0.74974 0.74974 0.749739 0.749739 0.749739 0.749739 0.749738 0.749738
          0.749737 0.749736 0.749735 0.749733 0.74973 0.749727 0.749722 0.749715 0.749704 0.749689 0.749666 0.749629
          0.749568 0.749465 0.74926 0.748776 0.747216 0.736893
        </DataArray>
        <DataArray type="Float32" Name="m^w_substrate" NumberOfComponents="1" format="ascii">
          3.00045e-08 4.17656e-08 5.81345e-08 8.09163e-08 1.12624e-07 1.56759e-07 2.18196e-07 3.03737e-07 4.22873e-07 5.88868e-07 8.20295e-07 1.14323e-06
          1.59439e-06 2.22577e-06 3.11135e-06 4.35733e-06 6.11767e-06 8.61858e-06 1.21981e-05 1.73725e-05 2.49517e-05 3.62523e-05 5.35112e-05 8.07562e-05
          0.000125814 0.000205552 0.000362082 0.00072641 0.00188841 0.00952817
        </DataArray>
        <DataArray type="Float32" Name="process rank" NumberOfComponents="1" format="ascii">
          0 0 0 0 0 0 0 0 0 0 0 0
          0 0 0 0 0 0 0 0 0 0 0 0
          0 0 0 0 0 0
        </DataArray>
      </CellData>
      <Points>
        <DataArray type="Float32" Name="Coordinates" NumberOfComponents="3" format="ascii">
          0 0 0 0.5 0 0 0 0.0333333 0 0.5 0.0333333 0
          0 0.0666667 0 0.5 0.0666667 0 0 0.1 0 0.5 0.1 0
          0 0.133333 0 0.5 0.133333 0 0 0.166667 0 0.5 0.166667 0
          0 0.2 0 0.5 0.2 0 0 0.233333 0 0.5 0.233333 0
          0 0.266667 0 0.5 0.266667 0 0 0.3 0 0.5 0.3 0
          0 0.333333 0 0.5 0.333333 0 0 0.366667 0 0.5 0.366667 0
          0 0.4 0 0.5 0.4 0 0 0.433333 0 0.5 0.433333 0
          0 0.466667 0 0.5 0.466667 0 0 0.5 0 0.5 0.5 0
          0 0.533333 0 0.5 0.533333 0 0 0.566667 0 0.5 0.566667 0
          0 0.6 0 0.5 0.6 0 0 0.633333 0 0.5 0.633333 0
          0 0.666667 0 0.5 0.666667 0 0 0.7 0 0.5 0.7 0
          0 0.733333 0 0.5 0.733333 0 0 0.766667 0 0.5 0.766667 0
          0 0.8 0 0.5 0.8 0 0 0.833333 0 0.5 0.833333 0
          0 0.866667 0 0.5 0.866667 0 0 0.9 0 0.5 0.9 0
          0 0.933333 0 0.5 0.933333 0 0 0.966667 0 0.5 0.966667 0
          0 1 0 0.5 1 0
        </DataArray>
      </Points>
      <Cells>
        <DataArray type="Int32" Name="connectivity" NumberOfComponents="1" format="ascii">
          0 1 3 2 2 3 5 4 4 5 7 6
          6 7 9 8 8 9 11 10 10 11 13 12
          12 13 15 14 14 15 17 16 16 17 19 18
          18 19 21 20 20 21 23 22 22 23 25 24
          24 25 27 26 26 27 29 28 28 29 31 30
          30 31 33 32 32 33 35 34 34 35 37 36
          36 37 39 38 38 39 41 40 40 41 43 42
          42 43 45 44 44 45 47 46 46 47 49 48
          48 49 51 50 50 51 53 52 52 53 55 54
          54 55 57 56 56 57 59 58 58 59 61 60
        </DataArray>
        <DataArray type="Int32" Name="offsets" NumberOfComponents="1" format="ascii">
          4 8 12 16 20 24 28 32 36 40 44 48
          52 56 60 64 68 72 76 80 84 88 92 96
          100 104 108 112 116 120
        </DataArray>
        <DataArray type="UInt8" Name="types" NumberOfComponents="1" format="ascii">
          9 9 9 9 9 9 9 9 9 9 9 9
          9 9 9 9 9 9 9 9 9 9 9 9
          9 9 9 9 9 9
        </DataArray>
      </Cells>
    </Piece>
  </UnstructuredGrid>
</VTKFile>
