<?xml version="1.0"?>
<VTKFile type="UnstructuredGrid" version="0.1" byte_order="LittleEndian">
  <UnstructuredGrid>
    <Piece NumberOfCells="30" NumberOfPoints="62">
      <CellData Scalars="Sg">
        <DataArray type="Float32" Name="Sg" NumberOfComponents="1" format="ascii">
          0.0948728 0.0948507 0.0948284 0.0948058 0.0947831 0.0947603 0.0947372 0.0947139 0.0946904 0.0946667 0.0946424 0.0946161
          0.0945816 0.0945114 0.0942876 0.0934071 0.0897542 0.0748845 0.0233079 0 0 0 0 0
          0 0 0 0 0 0
        </DataArray>
        <DataArray type="Float32" Name="Sl" NumberOfComponents="1" format="ascii">
          0.905127 0.905149 0.905172 0.905194 0.905217 0.90524 0.905263 0.905286 0.90531 0.905333 0.905358 0.905384
          0.905418 0.905489 0.905712 0.906593 0.910246 0.925116 0.976692 1 1 1 1 1
          1 1 1 1 1 1
        </DataArray>
        <DataArray type="Float32" Name="pg" NumberOfComponents="1" format="ascii">
          51865.6 51532.4 51199 50865.6 50532.2 50198.7 49865.1 49531.5 49197.9 48864.1 48530.2 48195.8
          47858.9 47511.9 47120.8 46541.7 45168.3 40581.7 25479.8 18476 18149 17822.1 17495.1 17168.2
          16841.3 16514.3 16187.4 15860.4 15533.5 15206.6
        </DataArray>
        <DataArray type="Float32" Name="pl" NumberOfComponents="1" format="ascii">
          110628 110301 109974 109647 109320 108993 108666 108339 108012 107685 107358 107031
          106704 106377 106050 105723 105396 105070 104743 104416 104089 103762 103435 103108
          102781 102454 102127 101800 101473 101146
        </DataArray>
        <DataArray type="Float32" Name="pc" NumberOfComponents="1" format="ascii">
          -58761.9 -58768.2 -58774.6 -58781.1 -58787.6 -58794.1 -58800.7 -58807.4 -58814.1 -58820.9 -58827.9 -58835.4
          -58845.3 -58865.4 -58929.5 -59181.8 -60228.2 -64487.9 -79262.8 -85939.7 -85939.7 -85939.7 -85939.7 -85939.7
          -85939.7 -85939.7 -85939.7 -85939.7 -85939.7 -85939.7
        </DataArray>
        <DataArray type="Float32" Name="rhoL" NumberOfComponents="1" format="ascii">
          999.855 999.855 999.855 999.855 999.855 999.854 999.854 999.854 999.854 999.854 999.854 999.854
          999.853 999.853 999.853 999.853 999.853 999.853 999.852 999.852 999.852 999.852 999.852 999.852
          999.852 999.851 999.851 999.851 999.851 999.851
        </DataArray>
        <DataArray type="Float32" Name="rhoG" NumberOfComponents="1" format="ascii">
          0.642548 0.638419 0.63429 0.630159 0.626028 0.621897 0.617764 0.613631 0.609498 0.605363 0.601226 0.597083
          0.59291 0.588611 0.583766 0.576591 0.559576 0.502754 0.315662 0.228893 0.224843 0.220793 0.216742 0.212692
          0.208641 0.204591 0.200541 0.19649 0.19244 0.18839
        </DataArray>
        <DataArray type="Float32" Name="mobL" NumberOfComponents="1" format="ascii">
          722.171 722.17 722.17 722.17 722.17 722.17 722.169 722.169 722.169 722.169 722.169 722.169
          722.168 722.168 722.168 722.168 722.168 722.167 722.167 722.167 722.167 722.167 722.166 722.166
          722.166 722.166 722.166 722.166 722.165 722.165
        </DataArray>
        <DataArray type="Float32" Name="mobG" NumberOfComponents="1" format="ascii">
          0 0 0 0 0 0 0 0 0 0 0 0
          0 0 0 0 0 0 0 0 0 0 0 0
          0 0 0 0 0 0
        </DataArray>
        <DataArray type="Float32" Name="porosity" NumberOfComponents="1" format="ascii">
          0.298493 0.298493 0.298493 0.298493 0.298493 0.298493 0.298493 0.298493 0.298493 0.298493 0.298493 0.298493
          0.298493 0.298493 0.298493 0.298493 0.298493 0.298492 0.298491 0.298488 0.298483 0.298473 0.298454 0.298419
          0.298086 0.297968 0.297738 0.297201 0.295365 0.223004
        </DataArray>
        <DataArray type="Float32" Name="temperature" NumberOfComponents="1" format="ascii">
          281.15 281.15 281.15 281.15 281.15 281.15 281.15 281.15 281.15 281.15 281.15 281.15
          281.15 281.15 281.15 281.15 281.15 281.15 281.15 281.15 281.15 281.15 281.15 281.15
          281.15 281.15 281.15 281.15 281.15 281.15
        </DataArray>
        <DataArray type="Float32" Name="phase presence" NumberOfComponents="1" format="ascii">
          3 3 3 3 3 3 3 3 3 3 3 3
          3 3 3 3 3 3 3 1 1 1 1 1
          1 1 1 1 1 1
        </DataArray>
        <DataArray type="Float32" Name="precipitateVolumeFraction_au" NumberOfComponents="1" format="ascii">
          5.06721e-10 5.0672e-10 5.06722e-10 5.06726e-10 5.06728e-10 5.06731e-10 5.06732e-10 5.06735e-10 5.06737e-10 5.06739e-10 5.06741e-10 5.06743e-10
          5.06745e-10 5.06746e-10 5.06746e-10 5.06748e-10 5.06749e-10 5.06751e-10 5.06751e-10 5.06751e-10 5.06756e-10 5.06741e-10 5.06744e-10 5.52646e-10
          0.000269938 0.000269922 0.000269898 0.00026986 5.06681e-10 5.05488e-10
        </DataArray>
        <DataArray type="Float32" Name="precipitateVolumeFraction_nanoAu" NumberOfComponents="1" format="ascii">
          4.61566e-11 4.61531e-11 4.61496e-11 4.61469e-11 4.61442e-11 4.61411e-11 4.61383e-11 4.61361e-11 4.61335e-11 4.61313e-11 4.61291e-11 4.61273e-11
          4.61252e-11 4.61233e-11 4.61215e-11 4.61197e-11 4.61183e-11 4.61169e-11 4.61181e-11 4.61153e-11 4.61191e-11 4.60948e-11 4.60983e-11 7.22116e-11
          6.28896e-08 7.8591e-08 1.02173e-07 1.40078e-07 4.6373e-11 4.6152e-11
        </DataArray>
        <DataArray type="Float32" Name="precipitateVolumeFraction_d" NumberOfComponents="1" format="ascii">
          0.000753487 0.000753487 0.000753487 0.000753488 0.000753488 0.000753489 0.000753489 0.000753489 0.00075349 0.00075349 0.000753492 0.000753494
          0.000753499 0.000753511 0.000753539 0.000753603 0.000753746 0.000754055 0.000754703 0.000756023 0.000758633 0.00076365 0.000773063 0.000790397
          0.000822055 0.000880856 0.000995973 0.0012644 0.00231738 0.038498
        </DataArray>
        <DataArray type="Float32" Name="precipitateVolumeFraction_p" NumberOfComponents="1" format="ascii">
          0.000753487 0.000753487 0.000753487 0.000753488 0.000753488 0.000753489 0.000753489 0.000753489 0.00075349 0.00075349 0.000753492 0.000753494
          0.000753499 0.000753511 0.000753539 0.000753603 0.000753746 0.000754055 0.000754703 0.000756023 0.000758633 0.00076365 0.000773063 0.000790397
          0.000822055 0.000880856 0.000995973 0.0012644 0.00231738 0.038498
        </DataArray>
        <DataArray type="Float32" Name="K" NumberOfComponents="1" format="ascii">
          9.80778e-11 9.80778e-11 9.80778e-11 9.80778e-11 9.80778e-11 9.80778e-11 9.80778e-11 9.80778e-11 9.80778e-11 9.80778e-11 9.80778e-11 9.80778e-11
          9.80778e-11 9.80778e-11 9.80777e-11 9.80775e-11 9.80772e-11 9.80764e-11 9.80748e-11 9.80714e-11 9.80648e-11 9.80521e-11 9.80283e-11 9.79845e-11
          9.75638e-11 9.74157e-11 9.71263e-11 9.64544e-11 9.41851e-11 3.33375e-11
        </DataArray>
        <DataArray type="Float32" Name="X^w_H2O" NumberOfComponents="1" format="ascii">
          0.999837 0.999837 0.999837 0.999837 0.999838 0.999838 0.999838 0.999838 0.999838 0.999838 0.999838 0.999838
          0.999839 0.999839 0.999839 0.999839 0.999839 0.999841 0.999846 0.999853 0.999853 0.999853 0.999853 0.999853
          0.999853 0.999852 0.999849 0.999846 0.999839 0.999839
        </DataArray>
        <DataArray type="Float32" Name="X^w_Air" NumberOfComponents="1" format="ascii">
          1.57444e-05 1.56411e-05 1.55378e-05 1.54344e-05 1.53311e-05 1.52277e-05 1.51243e-05 1.50209e-05 1.49175e-05 1.4814e-05 1.47105e-05 1.46068e-05
          1.45024e-05 1.43948e-05 1.42736e-05 1.40941e-05 1.36684e-05 1.22467e-05 7.5655e-06 2.74457e-07 3.59505e-09 4.61134e-11 5.77119e-13 7.02245e-15
          8.16589e-17 9.27806e-19 9.85528e-21 9.12367e-23 5.68632e-25 8.59946e-30
        </DataArray>
        <DataArray type="Float32" Name="X^w_AuComplex" NumberOfComponents="1" format="ascii">
          4.8357e-14 4.57094e-14 4.64218e-14 4.55842e-14 4.61252e-14 4.69101e-14 4.67311e-14 4.66592e-14 4.4578e-14 4.67985e-14 4.47031e-14 4.45041e-14
          4.54858e-14 4.55217e-14 4.68074e-14 4.62109e-14 4.49965e-14 4.46426e-14 7.30988e-14 4.48524e-14 4.48065e-14 4.47383e-14 4.47039e-14 7.47311e-14
          7.17591e-11 1.11149e-10 1.87629e-10 3.56862e-10 1.71592e-13 1.70012e-13
        </DataArray>
        <DataArray type="Float32" Name="X^w_nanoAu" NumberOfComponents="1" format="ascii">
          -1.40486e-15 -4.1134e-16 3.01018e-16 -5.36514e-16 1.21815e-15 -1.6381e-15 -6.0337e-16 5.38403e-16 -3.2902e-16 -1.74963e-15 -2.03976e-16 -4.02914e-16
          5.78776e-16 -1.81278e-15 6.86653e-16 9.01352e-17 1.3031e-15 -2.64461e-16 2.69779e-14 1.26496e-16 1.26507e-16 1.26499e-16 1.35047e-16 1.38081e-15
          1.72759e-13 2.15967e-13 2.80879e-13 3.81484e-13 1.27149e-16 1.2512e-16
        </DataArray>
        <DataArray type="Float32" Name="X^w_cyanide" NumberOfComponents="1" format="ascii">
          5.39853e-06 5.36985e-06 5.34364e-06 5.31968e-06 5.29777e-06 5.27773e-06 5.25941e-06 5.24265e-06 5.22733e-06 5.21332e-06 5.20051e-06 5.1888e-06
          5.17811e-06 5.16835e-06 5.15944e-06 5.15131e-06 5.1439e-06 5.13714e-06 5.13092e-06 5.12499e-06 5.11932e-06 5.11422e-06 5.10966e-06 5.10558e-06
          5.10244e-06 6.52199e-06 8.72052e-06 1.24331e-05 1.94978e-05 1.94139e-05
        </DataArray>
        <DataArray type="Float32" Name="X^w_citrate" NumberOfComponents="1" format="ascii">
          0.000141794 0.000141794 0.000141794 0.000141794 0.000141794 0.000141794 0.000141794 0.000141794 0.000141794 0.000141794 0.000141794 0.000141794
          0.000141794 0.000141794 0.000141794 0.000141794 0.000141794 0.000141794 0.000141795 0.000141796 0.000141796 0.000141796 0.000141796 0.000141796
          0.000141796 0.000141797 0.000141797 0.000141794 0.000141752 0.000141115
        </DataArray>
        <DataArray type="Float32" Name="X^w_substrate" NumberOfComponents="1" format="ascii">
          9.35277e-16 -1.48636e-15 -8.34794e-16 -4.90727e-16 1.11419e-15 -3.88177e-16 -5.51877e-16 2.7127e-15 -3.00941e-16 -1.60031e-15 -1.86568e-16 -1.47865e-15
          -1.69086e-15 -2.76819e-15 -4.82071e-16 1.19257e-15 -3.24861e-15 -6.90264e-15 -2.19498e-14 5.0093e-15 2.60384e-14 1.35741e-13 7.11395e-13 3.76543e-12
          2.02934e-11 1.12945e-10 6.65602e-10 4.34929e-09 3.49161e-08 4.83842e-07
        </DataArray>
        <DataArray type="Float32" Name="m^w_H2O" NumberOfComponents="1" format="ascii">
          55491.7 55491.7 55491.7 55491.7 55491.7 55491.7 55491.7 55491.7 55491.7 55491.6 55491.6 55491.6
          55491.6 55491.6 55491.6 55491.6 55491.7 55491.7 55492 55492.4 55492.4 55492.4 55492.4 55492.4
          55492.3 55492.3 55492.1 55491.9 55491.5 55491.5
        </DataArray>
        <DataArray type="Float32" Name="m^w_Air" NumberOfComponents="1" format="ascii">
          0.543581 0.540014 0.536447 0.532879 0.52931 0.525741 0.522172 0.518601 0.51503 0.511459 0.507885 0.504306
          0.500701 0.496987 0.492802 0.486603 0.471905 0.42282 0.261201 0.0094757 0.00012412 1.59208e-06 1.99252e-08 2.42452e-10
          2.8193e-12 3.20327e-14 3.40256e-16 3.14997e-18 1.96322e-20 2.96898e-25
        </DataArray>
        <DataArray type="Float32" Name="m^w_AuComplex" NumberOfComponents="1" format="ascii">
          2.45469e-10 2.32029e-10 2.35645e-10 2.31394e-10 2.3414e-10 2.38124e-10 2.37215e-10 2.3685e-10 2.26286e-10 2.37558e-10 2.26921e-10 2.25911e-10
          2.30894e-10 2.31076e-10 2.37602e-10 2.34574e-10 2.2841e-10 2.26613e-10 3.71062e-10 2.27678e-10 2.27445e-10 2.27099e-10 2.26924e-10 3.79347e-10
          3.64261e-07 5.64213e-07 9.52434e-07 1.81149e-06 8.71029e-10 8.63006e-10
        </DataArray>
        <DataArray type="Float32" Name="m^w_nanoAu" NumberOfComponents="1" format="ascii">
          -7.13134e-12 -2.08804e-12 1.52802e-12 -2.72344e-12 6.18354e-12 -8.31529e-12 -3.06281e-12 2.73303e-12 -1.67016e-12 -8.88141e-12 -1.03541e-12 -2.04526e-12
          2.93797e-12 -9.20197e-12 3.48557e-12 4.57541e-13 6.61475e-12 -1.34245e-12 1.36944e-10 6.42115e-13 6.42168e-13 6.42129e-13 6.85521e-13 7.00921e-12
          8.76954e-10 1.09628e-09 1.42579e-09 1.93647e-09 6.45428e-13 6.35127e-13
        </DataArray>
        <DataArray type="Float32" Name="m^w_cyanide" NumberOfComponents="1" format="ascii">
          0.207446 0.206344 0.205337 0.204416 0.203574 0.202804 0.2021 0.201456 0.200867 0.200329 0.199837 0.199387
          0.198976 0.198601 0.198258 0.197946 0.197661 0.197401 0.197162 0.196934 0.196716 0.196521 0.196345 0.196188
          0.196068 0.250616 0.335097 0.477758 0.749229 0.746005
        </DataArray>
        <DataArray type="Float32" Name="m^w_citrate" NumberOfComponents="1" format="ascii">
          0.749733 0.749733 0.749733 0.749732 0.749732 0.749732 0.749732 0.749732 0.749731 0.749731 0.749731 0.749731
          0.749731 0.749731 0.749731 0.749731 0.749731 0.749732 0.749735 0.74974 0.749741 0.74974 0.74974 0.74974
          0.74974 0.749744 0.749746 0.749726 0.749505 0.746139
        </DataArray>
        <DataArray type="Float32" Name="m^w_substrate" NumberOfComponents="1" format="ascii">
          5.19062e-12 -8.24901e-12 -4.63295e-12 -2.72344e-12 6.18354e-12 -2.15431e-12 -3.06281e-12 1.5055e-11 -1.67016e-12 -8.88141e-12 -1.03541e-12 -8.20623e-12
          -9.38397e-12 -1.53629e-11 -2.6754e-12 6.61851e-12 -1.80291e-11 -3.83083e-11 -1.21817e-10 2.78006e-11 1.44508e-10 7.53337e-10 3.9481e-09 2.08974e-08
          1.12624e-07 6.26824e-07 3.69396e-06 2.41377e-05 0.000193777 0.00268523
        </DataArray>
        <DataArray type="Float32" Name="process rank" NumberOfComponents="1" format="ascii">
          0 0 0 0 0 0 0 0 0 0 0 0
          0 0 0 0 0 0 0 0 0 0 0 0
          0 0 0 0 0 0
        </DataArray>
      </CellData>
      <Points>
        <DataArray type="Float32" Name="Coordinates" NumberOfComponents="3" format="ascii">
          0 0 0 0.5 0 0 0 0.0333333 0 0.5 0.0333333 0
          0 0.0666667 0 0.5 0.0666667 0 0 0.1 0 0.5 0.1 0
          0 0.133333 0 0.5 0.133333 0 0 0.166667 0 0.5 0.166667 0
          0 0.2 0 0.5 0.2 0 0 0.233333 0 0.5 0.233333 0
          0 0.266667 0 0.5 0.266667 0 0 0.3 0 0.5 0.3 0
          0 0.333333 0 0.5 0.333333 0 0 0.366667 0 0.5 0.366667 0
          0 0.4 0 0.5 0.4 0 0 0.433333 0 0.5 0.433333 0
          0 0.466667 0 0.5 0.466667 0 0 0.5 0 0.5 0.5 0
          0 0.533333 0 0.5 0.533333 0 0 0.566667 0 0.5 0.566667 0
          0 0.6 0 0.5 0.6 0 0 0.633333 0 0.5 0.633333 0
          0 0.666667 0 0.5 0.666667 0 0 0.7 0 0.5 0.7 0
          0 0.733333 0 0.5 0.733333 0 0 0.766667 0 0.5 0.766667 0
          0 0.8 0 0.5 0.8 0 0 0.833333 0 0.5 0.833333 0
          0 0.866667 0 0.5 0.866667 0 0 0.9 0 0.5 0.9 0
          0 0.933333 0 0.5 0.933333 0 0 0.966667 0 0.5 0.966667 0
          0 1 0 0.5 1 0
        </DataArray>
      </Points>
      <Cells>
        <DataArray type="Int32" Name="connectivity" NumberOfComponents="1" format="ascii">
          0 1 3 2 2 3 5 4 4 5 7 6
          6 7 9 8 8 9 11 10 10 11 13 12
          12 13 15 14 14 15 17 16 16 17 19 18
          18 19 21 20 20 21 23 22 22 23 25 24
          24 25 27 26 26 27 29 28 28 29 31 30
          30 31 33 32 32 33 35 34 34 35 37 36
          36 37 39 38 38 39 41 40 40 41 43 42
          42 43 45 44 44 45 47 46 46 47 49 48
          48 49 51 50 50 51 53 52 52 53 55 54
          54 55 57 56 56 57 59 58 58 59 61 60
        </DataArray>
        <DataArray type="Int32" Name="offsets" NumberOfComponents="1" format="ascii">
          4 8 12 16 20 24 28 32 36 40 44 48
          52 56 60 64 68 72 76 80 84 88 92 96
          100 104 108 112 116 120
        </DataArray>
        <DataArray type="UInt8" Name="types" NumberOfComponents="1" format="ascii">
          9 9 9 9 9 9 9 9 9 9 9 9
          9 9 9 9 9 9 9 9 9 9 9 9
          9 9 9 9 9 9
        </DataArray>
      </Cells>
    </Piece>
  </UnstructuredGrid>
</VTKFile>
