<?xml version="1.0"?>
<VTKFile type="UnstructuredGrid" version="0.1" byte_order="LittleEndian">
  <UnstructuredGrid>
    <Piece NumberOfCells="30" NumberOfPoints="62">
      <CellData Scalars="Sg">
        <DataArray type="Float32" Name="Sg" NumberOfComponents="1" format="ascii">
          0 0 0 0 0 0 0 0 0 0 0 0
          0 0 0 0 0 0 0 0 0 0 0 0
          0 0 0 0 0 0
        </DataArray>
        <DataArray type="Float32" Name="Sl" NumberOfComponents="1" format="ascii">
          1 1 1 1 1 1 1 1 1 1 1 1
          1 1 1 1 1 1 1 1 1 1 1 1
          1 1 1 1 1 1
        </DataArray>
        <DataArray type="Float32" Name="pg" NumberOfComponents="1" format="ascii">
          24687.8 24360.9 24034 23707 23380.1 23053.1 22726.2 22399.3 22072.3 21745.4 21418.4 21091.5
          20764.6 20437.6 20110.7 19783.7 19456.8 19129.8 18802.9 18476 18149 17822.1 17495.1 17168.2
          16841.3 16514.3 16187.4 15860.4 15533.5 15207.6
        </DataArray>
        <DataArray type="Float32" Name="pl" NumberOfComponents="1" format="ascii">
          110628 110301 109974 109647 109320 108993 108666 108339 108012 107685 107358 107031
          106704 106377 106050 105723 105396 105070 104743 104416 104089 103762 103435 103108
          102781 102454 102127 101800 101473 101147
        </DataArray>
        <DataArray type="Float32" Name="pc" NumberOfComponents="1" format="ascii">
          -85939.7 -85939.7 -85939.7 -85939.7 -85939.7 -85939.7 -85939.7 -85939.7 -85939.7 -85939.7 -85939.7 -85939.7
          -85939.7 -85939.7 -85939.7 -85939.7 -85939.7 -85939.7 -85939.7 -85939.7 -85939.7 -85939.7 -85939.7 -85939.7
          -85939.7 -85939.7 -85939.7 -85939.7 -85939.7 -85939.7
        </DataArray>
        <DataArray type="Float32" Name="rhoL" NumberOfComponents="1" format="ascii">
          999.855 999.855 999.855 999.855 999.855 999.854 999.854 999.854 999.854 999.854 999.854 999.854
          999.853 999.853 999.853 999.853 999.853 999.853 999.852 999.852 999.852 999.852 999.852 999.852
          999.852 999.851 999.851 999.851 999.851 999.851
        </DataArray>
        <DataArray type="Float32" Name="rhoG" NumberOfComponents="1" format="ascii">
          0.30585 0.3018 0.29775 0.293699 0.289649 0.285598 0.281548 0.277498 0.273447 0.269397 0.265347 0.261296
          0.257246 0.253195 0.249145 0.245095 0.241044 0.236994 0.232944 0.228893 0.224843 0.220793 0.216742 0.212692
          0.208641 0.204591 0.200541 0.19649 0.19244 0.188402
        </DataArray>
        <DataArray type="Float32" Name="mobL" NumberOfComponents="1" format="ascii">
          722.171 722.17 722.17 722.17 722.17 722.17 722.169 722.169 722.169 722.169 722.169 722.169
          722.168 722.168 722.168 722.168 722.168 722.167 722.167 722.167 722.167 722.167 722.166 722.166
          722.166 722.166 722.166 722.166 722.165 722.165
        </DataArray>
        <DataArray type="Float32" Name="mobG" NumberOfComponents="1" format="ascii">
          0 0 0 0 0 0 0 0 0 0 0 0
          0 0 0 0 0 0 0 0 0 0 0 0
          0 0 0 0 0 0
        </DataArray>
        <DataArray type="Float32" Name="porosity" NumberOfComponents="1" format="ascii">
          0.298639 0.298639 0.298639 0.298639 0.298639 0.298639 0.298639 0.298639 0.298639 0.298639 0.298639 0.298639
          0.298639 0.298639 0.298639 0.298639 0.298638 0.298638 0.298637 0.298634 0.29863 0.298621 0.298604 0.298573
          0.298246 0.29814 0.297929 0.297413 0.295221 0.0635317
        </DataArray>
        <DataArray type="Float32" Name="temperature" NumberOfComponents="1" format="ascii">
          281.15 281.15 281.15 281.15 281.15 281.15 281.15 281.15 281.15 281.15 281.15 281.15
          281.15 281.15 281.15 281.15 281.15 281.15 281.15 281.15 281.15 281.15 281.15 281.15
          281.15 281.15 281.15 281.15 281.15 281.15
        </DataArray>
        <DataArray type="Float32" Name="phase presence" NumberOfComponents="1" format="ascii">
          1 1 1 1 1 1 1 1 1 1 1 1
          1 1 1 1 1 1 1 1 1 1 1 1
          1 1 1 1 1 1
        </DataArray>
        <DataArray type="Float32" Name="precipitateVolumeFraction_au" NumberOfComponents="1" format="ascii">
          5.52646e-10 5.52534e-10 5.52744e-10 5.52746e-10 5.52726e-10 5.52772e-10 5.52711e-10 5.52739e-10 5.52738e-10 5.52747e-10 5.52726e-10 5.52803e-10
          5.52731e-10 5.52742e-10 5.52786e-10 5.52739e-10 5.52723e-10 5.52731e-10 5.52756e-10 5.5274e-10 5.52749e-10 5.52709e-10 5.52812e-10 8.43368e-10
          0.00026994 0.000269924 0.000269899 0.000269853 5.52577e-10 5.51097e-10
        </DataArray>
        <DataArray type="Float32" Name="precipitateVolumeFraction_nanoAu" NumberOfComponents="1" format="ascii">
          1.2685e-13 1.26722e-13 1.27136e-13 1.2714e-13 1.2711e-13 1.27169e-13 1.27101e-13 1.27131e-13 1.2713e-13 1.27135e-13 1.27121e-13 1.27163e-13
          1.27124e-13 1.27129e-13 1.27146e-13 1.27127e-13 1.27121e-13 1.27123e-13 1.2713e-13 1.27124e-13 1.27126e-13 1.27122e-13 1.38384e-13 2.57328e-11
          6.03607e-08 7.66927e-08 1.02186e-07 1.45708e-07 4.7916e-13 4.76454e-13
        </DataArray>
        <DataArray type="Float32" Name="precipitateVolumeFraction_d" NumberOfComponents="1" format="ascii">
          0.000680528 0.000680528 0.000680528 0.000680528 0.000680529 0.000680529 0.00068053 0.00068053 0.00068053 0.000680531 0.000680532 0.000680534
          0.000680539 0.000680549 0.000680575 0.000680632 0.00068076 0.000681037 0.000681618 0.000682803 0.000685144 0.000689644 0.000698088 0.00071364
          0.00074207 0.000795069 0.00090026 0.0011584 0.0023893 0.118234
        </DataArray>
        <DataArray type="Float32" Name="precipitateVolumeFraction_p" NumberOfComponents="1" format="ascii">
          0.000680528 0.000680528 0.000680528 0.000680528 0.000680529 0.000680529 0.00068053 0.00068053 0.00068053 0.000680531 0.000680532 0.000680534
          0.000680539 0.000680549 0.000680575 0.000680632 0.00068076 0.000681037 0.000681618 0.000682803 0.000685144 0.000689644 0.000698088 0.00071364
          0.00074207 0.000795069 0.00090026 0.0011584 0.0023893 0.118234
        </DataArray>
        <DataArray type="Float32" Name="K" NumberOfComponents="1" format="ascii">
          9.82626e-11 9.82626e-11 9.82626e-11 9.82626e-11 9.82626e-11 9.82626e-11 9.82626e-11 9.82626e-11 9.82626e-11 9.82626e-11 9.82626e-11 9.82626e-11
          9.82626e-11 9.82626e-11 9.82625e-11 9.82624e-11 9.8262e-11 9.82613e-11 9.82599e-11 9.82569e-11 9.82509e-11 9.82395e-11 9.82181e-11 9.81787e-11
          9.77655e-11 9.76318e-11 9.73669e-11 9.67193e-11 9.40092e-11 5.30662e-13
        </DataArray>
        <DataArray type="Float32" Name="X^w_H2O" NumberOfComponents="1" format="ascii">
          0.999853 0.999853 0.999853 0.999853 0.999853 0.999853 0.999853 0.999853 0.999853 0.999853 0.999853 0.999853
          0.999853 0.999853 0.999853 0.999853 0.999853 0.999853 0.999853 0.999853 0.999853 0.999853 0.999853 0.999853
          0.999853 0.999852 0.99985 0.999846 0.999839 0.999839
        </DataArray>
        <DataArray type="Float32" Name="X^w_Air" NumberOfComponents="1" format="ascii">
          0 0 0 0 0 0 0 0 0 0 0 0
          0 0 0 0 0 0 0 0 0 0 0 0
          0 0 0 0 0 0
        </DataArray>
        <DataArray type="Float32" Name="X^w_AuComplex" NumberOfComponents="1" format="ascii">
          1.44042e-16 1.43913e-16 1.44319e-16 1.44322e-16 1.44292e-16 1.4435e-16 1.44281e-16 1.4431e-16 1.44309e-16 1.44314e-16 1.44299e-16 1.44341e-16
          1.443e-16 1.44305e-16 1.44322e-16 1.44301e-16 1.44294e-16 1.44295e-16 1.44303e-16 1.44296e-16 1.44297e-16 1.44292e-16 1.57053e-16 2.93254e-14
          6.88218e-11 1.07381e-10 1.84523e-10 3.64664e-10 1.85849e-15 1.84492e-15
        </DataArray>
        <DataArray type="Float32" Name="X^w_nanoAu" NumberOfComponents="1" format="ascii">
          3.47856e-19 3.47513e-19 3.48643e-19 3.48653e-19 3.48572e-19 3.48732e-19 3.48546e-19 3.48627e-19 3.48625e-19 3.4864e-19 3.48603e-19 3.48715e-19
          3.4861e-19 3.48623e-19 3.48669e-19 3.48617e-19 3.486e-19 3.48606e-19 3.48625e-19 3.48612e-19 3.48998e-19 4.04874e-19 8.58871e-18 1.20253e-15
          1.65834e-13 2.10795e-13 2.81019e-13 3.96843e-13 1.31377e-18 1.29571e-18
        </DataArray>
        <DataArray type="Float32" Name="X^w_cyanide" NumberOfComponents="1" format="ascii">
          5.06647e-06 5.06644e-06 5.06642e-06 5.06639e-06 5.06636e-06 5.06634e-06 5.06631e-06 5.06629e-06 5.06626e-06 5.06624e-06 5.06622e-06 5.06619e-06
          5.06617e-06 5.06614e-06 5.06612e-06 5.0661e-06 5.06608e-06 5.06605e-06 5.06603e-06 5.06601e-06 5.06599e-06 5.06597e-06 5.06594e-06 5.06592e-06
          5.06639e-06 6.43685e-06 8.5751e-06 1.22492e-05 1.95097e-05 1.94819e-05
        </DataArray>
        <DataArray type="Float32" Name="X^w_citrate" NumberOfComponents="1" format="ascii">
          0.000141796 0.000141796 0.000141796 0.000141796 0.000141796 0.000141796 0.000141796 0.000141796 0.000141796 0.000141796 0.000141796 0.000141796
          0.000141796 0.000141796 0.000141796 0.000141796 0.000141796 0.000141796 0.000141796 0.000141796 0.000141796 0.000141796 0.000141796 0.000141796
          0.000141796 0.000141797 0.000141798 0.000141798 0.000141786 0.000141584
        </DataArray>
        <DataArray type="Float32" Name="X^w_substrate" NumberOfComponents="1" format="ascii">
          3.24466e-28 1.56313e-27 7.52991e-27 3.62704e-26 1.74696e-25 8.41364e-25 4.05184e-24 1.95114e-23 9.39494e-23 4.52342e-22 2.17776e-21 1.04838e-20
          5.04661e-20 2.42913e-19 1.16916e-18 5.62703e-18 2.70821e-17 1.30352e-16 6.27566e-16 3.02318e-15 1.45826e-14 7.05262e-14 3.42839e-13 1.68268e-12
          8.40455e-12 4.33127e-11 2.36041e-10 1.4252e-09 1.06623e-08 1.5307e-07
        </DataArray>
        <DataArray type="Float32" Name="m^w_H2O" NumberOfComponents="1" format="ascii">
          55492.6 55492.6 55492.5 55492.5 55492.5 55492.5 55492.5 55492.5 55492.5 55492.5 55492.5 55492.5
          55492.5 55492.4 55492.4 55492.4 55492.4 55492.4 55492.4 55492.4 55492.4 55492.4 55492.4 55492.4
          55492.3 55492.3 55492.1 55491.9 55491.5 55491.5
        </DataArray>
        <DataArray type="Float32" Name="m^w_Air" NumberOfComponents="1" format="ascii">
          0 0 0 0 0 0 0 0 0 0 0 0
          0 0 0 0 0 0 0 0 0 0 0 0
          0 0 0 0 0 0
        </DataArray>
        <DataArray type="Float32" Name="m^w_AuComplex" NumberOfComponents="1" format="ascii">
          7.31184e-13 7.3053e-13 7.32592e-13 7.32606e-13 7.32452e-13 7.32745e-13 7.32397e-13 7.32544e-13 7.32535e-13 7.3256e-13 7.32485e-13 7.327e-13
          7.32493e-13 7.32515e-13 7.32602e-13 7.32496e-13 7.3246e-13 7.32468e-13 7.32504e-13 7.3247e-13 7.32476e-13 7.32451e-13 7.97225e-13 1.4886e-10
          3.49351e-07 5.45083e-07 9.36666e-07 1.85109e-06 9.43398e-12 9.36511e-12
        </DataArray>
        <DataArray type="Float32" Name="m^w_nanoAu" NumberOfComponents="1" format="ascii">
          1.76578e-15 1.76404e-15 1.76978e-15 1.76982e-15 1.76941e-15 1.77022e-15 1.76928e-15 1.76969e-15 1.76968e-15 1.76976e-15 1.76957e-15 1.77014e-15
          1.76961e-15 1.76967e-15 1.7699e-15 1.76964e-15 1.76955e-15 1.76958e-15 1.76968e-15 1.76961e-15 1.77157e-15 2.0552e-15 4.35977e-14 6.10423e-12
          8.41798e-10 1.07003e-09 1.4265e-09 2.01444e-09 6.66889e-15 6.5772e-15
        </DataArray>
        <DataArray type="Float32" Name="m^w_cyanide" NumberOfComponents="1" format="ascii">
          0.194686 0.194685 0.194684 0.194683 0.194682 0.194681 0.19468 0.194679 0.194678 0.194677 0.194676 0.194675
          0.194674 0.194673 0.194672 0.194672 0.194671 0.19467 0.194669 0.194668 0.194667 0.194666 0.194665 0.194665
          0.194683 0.247344 0.329509 0.470691 0.749684 0.748618
        </DataArray>
        <DataArray type="Float32" Name="m^w_citrate" NumberOfComponents="1" format="ascii">
          0.749742 0.749742 0.749742 0.749742 0.749742 0.749742 0.749742 0.749741 0.749741 0.749741 0.749741 0.749741
          0.749741 0.749741 0.749741 0.749741 0.74974 0.74974 0.74974 0.74974 0.74974 0.74974 0.74974 0.74974
          0.749739 0.749744 0.749749 0.749747 0.749687 0.748619
        </DataArray>
        <DataArray type="Float32" Name="m^w_substrate" NumberOfComponents="1" format="ascii">
          1.80073e-24 8.67509e-24 4.17896e-23 2.01294e-22 9.69533e-22 4.66941e-21 2.24869e-20 1.08285e-19 5.21401e-19 2.51041e-18 1.20861e-17 5.81832e-17
          2.80077e-16 1.34812e-15 6.48862e-15 3.12289e-14 1.503e-13 7.23426e-13 3.48287e-12 1.67781e-11 8.09304e-11 3.91406e-10 1.90269e-09 9.33852e-09
          4.66435e-08 2.40377e-07 1.30998e-06 7.90954e-06 5.91737e-05 0.000849509
        </DataArray>
        <DataArray type="Float32" Name="process rank" NumberOfComponents="1" format="ascii">
          0 0 0 0 0 0 0 0 0 0 0 0
          0 0 0 0 0 0 0 0 0 0 0 0
          0 0 0 0 0 0
        </DataArray>
      </CellData>
      <Points>
        <DataArray type="Float32" Name="Coordinates" NumberOfComponents="3" format="ascii">
          0 0 0 0.5 0 0 0 0.0333333 0 0.5 0.0333333 0
          0 0.0666667 0 0.5 0.0666667 0 0 0.1 0 0.5 0.1 0
          0 0.133333 0 0.5 0.133333 0 0 0.166667 0 0.5 0.166667 0
          0 0.2 0 0.5 0.2 0 0 0.233333 0 0.5 0.233333 0
          0 0.266667 0 0.5 0.266667 0 0 0.3 0 0.5 0.3 0
          0 0.333333 0 0.5 0.333333 0 0 0.366667 0 0.5 0.366667 0
          0 0.4 0 0.5 0.4 0 0 0.433333 0 0.5 0.433333 0
          0 0.466667 0 0.5 0.466667 0 0 0.5 0 0.5 0.5 0
          0 0.533333 0 0.5 0.533333 0 0 0.566667 0 0.5 0.566667 0
          0 0.6 0 0.5 0.6 0 0 0.633333 0 0.5 0.633333 0
          0 0.666667 0 0.5 0.666667 0 0 0.7 0 0.5 0.7 0
          0 0.733333 0 0.5 0.733333 0 0 0.766667 0 0.5 0.766667 0
          0 0.8 0 0.5 0.8 0 0 0.833333 0 0.5 0.833333 0
          0 0.866667 0 0.5 0.866667 0 0 0.9 0 0.5 0.9 0
          0 0.933333 0 0.5 0.933333 0 0 0.966667 0 0.5 0.966667 0
          0 1 0 0.5 1 0
        </DataArray>
      </Points>
      <Cells>
        <DataArray type="Int32" Name="connectivity" NumberOfComponents="1" format="ascii">
          0 1 3 2 2 3 5 4 4 5 7 6
          6 7 9 8 8 9 11 10 10 11 13 12
          12 13 15 14 14 15 17 16 16 17 19 18
          18 19 21 20 20 21 23 22 22 23 25 24
          24 25 27 26 26 27 29 28 28 29 31 30
          30 31 33 32 32 33 35 34 34 35 37 36
          36 37 39 38 38 39 41 40 40 41 43 42
          42 43 45 44 44 45 47 46 46 47 49 48
          48 49 51 50 50 51 53 52 52 53 55 54
          54 55 57 56 56 57 59 58 58 59 61 60
        </DataArray>
        <DataArray type="Int32" Name="offsets" NumberOfComponents="1" format="ascii">
          4 8 12 16 20 24 28 32 36 40 44 48
          52 56 60 64 68 72 76 80 84 88 92 96
          100 104 108 112 116 120
        </DataArray>
        <DataArray type="UInt8" Name="types" NumberOfComponents="1" format="ascii">
          9 9 9 9 9 9 9 9 9 9 9 9
          9 9 9 9 9 9 9 9 9 9 9 9
          9 9 9 9 9 9
        </DataArray>
      </Cells>
    </Piece>
  </UnstructuredGrid>
</VTKFile>
