<?xml version="1.0"?>
<VTKFile type="UnstructuredGrid" version="0.1" byte_order="LittleEndian">
  <UnstructuredGrid>
    <Piece NumberOfCells="30" NumberOfPoints="62">
      <CellData Scalars="Sg">
        <DataArray type="Float32" Name="Sg" NumberOfComponents="1" format="ascii">
          0 0 0 0 0 0 0 0 0 0 0 0
          0 0 0 0 0 0 0 0 0 0 0 0
          0 0 0 0 0 0
        </DataArray>
        <DataArray type="Float32" Name="Sl" NumberOfComponents="1" format="ascii">
          1 1 1 1 1 1 1 1 1 1 1 1
          1 1 1 1 1 1 1 1 1 1 1 1
          1 1 1 1 1 1
        </DataArray>
        <DataArray type="Float32" Name="pg" NumberOfComponents="1" format="ascii">
          24687.8 24360.9 24034 23707 23380.1 23053.1 22726.2 22399.3 22072.3 21745.4 21418.4 21091.5
          20764.6 20437.6 20110.7 19783.7 19456.8 19129.8 18802.9 18476 18149 17822.1 17495.1 17168.2
          16841.3 16514.3 16187.4 15860.4 15533.5 15208.3
        </DataArray>
        <DataArray type="Float32" Name="pl" NumberOfComponents="1" format="ascii">
          110628 110301 109974 109647 109320 108993 108666 108339 108012 107685 107358 107031
          106704 106377 106050 105723 105396 105070 104743 104416 104089 103762 103435 103108
          102781 102454 102127 101800 101473 101148
        </DataArray>
        <DataArray type="Float32" Name="pc" NumberOfComponents="1" format="ascii">
          -85939.7 -85939.7 -85939.7 -85939.7 -85939.7 -85939.7 -85939.7 -85939.7 -85939.7 -85939.7 -85939.7 -85939.7
          -85939.7 -85939.7 -85939.7 -85939.7 -85939.7 -85939.7 -85939.7 -85939.7 -85939.7 -85939.7 -85939.7 -85939.7
          -85939.7 -85939.7 -85939.7 -85939.7 -85939.7 -85939.7
        </DataArray>
        <DataArray type="Float32" Name="rhoL" NumberOfComponents="1" format="ascii">
          999.855 999.855 999.855 999.855 999.855 999.854 999.854 999.854 999.854 999.854 999.854 999.854
          999.853 999.853 999.853 999.853 999.853 999.853 999.852 999.852 999.852 999.852 999.852 999.852
          999.852 999.851 999.851 999.851 999.851 999.851
        </DataArray>
        <DataArray type="Float32" Name="rhoG" NumberOfComponents="1" format="ascii">
          0.30585 0.3018 0.29775 0.293699 0.289649 0.285598 0.281548 0.277498 0.273447 0.269397 0.265347 0.261296
          0.257246 0.253195 0.249145 0.245095 0.241044 0.236994 0.232944 0.228893 0.224843 0.220793 0.216742 0.212692
          0.208641 0.204591 0.200541 0.19649 0.19244 0.188412
        </DataArray>
        <DataArray type="Float32" Name="mobL" NumberOfComponents="1" format="ascii">
          722.171 722.17 722.17 722.17 722.17 722.17 722.169 722.169 722.169 722.169 722.169 722.169
          722.168 722.168 722.168 722.168 722.168 722.167 722.167 722.167 722.167 722.167 722.166 722.166
          722.166 722.166 722.166 722.166 722.165 722.165
        </DataArray>
        <DataArray type="Float32" Name="mobG" NumberOfComponents="1" format="ascii">
          0 0 0 0 0 0 0 0 0 0 0 0
          0 0 0 0 0 0 0 0 0 0 0 0
          0 0 0 0 0 0
        </DataArray>
        <DataArray type="Float32" Name="porosity" NumberOfComponents="1" format="ascii">
          0.298676 0.298676 0.298676 0.298676 0.298676 0.298676 0.298676 0.298676 0.298676 0.298676 0.298676 0.298676
          0.298676 0.298676 0.298676 0.298676 0.298676 0.298675 0.298674 0.298672 0.298667 0.298658 0.298642 0.298612
          0.298287 0.298184 0.297979 0.297471 0.295246 0.0533868
        </DataArray>
        <DataArray type="Float32" Name="temperature" NumberOfComponents="1" format="ascii">
          281.15 281.15 281.15 281.15 281.15 281.15 281.15 281.15 281.15 281.15 281.15 281.15
          281.15 281.15 281.15 281.15 281.15 281.15 281.15 281.15 281.15 281.15 281.15 281.15
          281.15 281.15 281.15 281.15 281.15 281.15
        </DataArray>
        <DataArray type="Float32" Name="phase presence" NumberOfComponents="1" format="ascii">
          1 1 1 1 1 1 1 1 1 1 1 1
          1 1 1 1 1 1 1 1 1 1 1 1
          1 1 1 1 1 1
        </DataArray>
        <DataArray type="Float32" Name="precipitateVolumeFraction_au" NumberOfComponents="1" format="ascii">
          5.52649e-10 5.52537e-10 5.52747e-10 5.52749e-10 5.52729e-10 5.52775e-10 5.52715e-10 5.52742e-10 5.52742e-10 5.52751e-10 5.52729e-10 5.52807e-10
          5.52734e-10 5.52746e-10 5.52789e-10 5.52743e-10 5.52727e-10 5.52734e-10 5.5276e-10 5.52743e-10 5.52752e-10 5.52713e-10 5.52844e-10 9.09535e-10
          0.00026994 0.000269924 0.000269899 0.000269853 5.5258e-10 5.51098e-10
        </DataArray>
        <DataArray type="Float32" Name="precipitateVolumeFraction_nanoAu" NumberOfComponents="1" format="ascii">
          1.2376e-13 1.23727e-13 1.23801e-13 1.23802e-13 1.23795e-13 1.23809e-13 1.23791e-13 1.23798e-13 1.23798e-13 1.23799e-13 1.23794e-13 1.23812e-13
          1.23794e-13 1.23797e-13 1.23806e-13 1.23795e-13 1.23791e-13 1.23792e-13 1.23798e-13 1.23794e-13 1.23795e-13 1.23794e-13 1.35048e-13 2.57178e-11
          6.0344e-08 7.66742e-08 1.02166e-07 1.4569e-07 4.75894e-13 4.73283e-13
        </DataArray>
        <DataArray type="Float32" Name="precipitateVolumeFraction_d" NumberOfComponents="1" format="ascii">
          0.000661963 0.000661963 0.000661964 0.000661964 0.000661964 0.000661965 0.000661965 0.000661965 0.000661966 0.000661966 0.000661967 0.000661969
          0.000661974 0.000661984 0.000662009 0.000662065 0.000662189 0.000662458 0.000663022 0.000664172 0.000666446 0.000670816 0.000679014 0.000694117
          0.00072173 0.000773241 0.000875746 0.00112954 0.00237718 0.123307
        </DataArray>
        <DataArray type="Float32" Name="precipitateVolumeFraction_p" NumberOfComponents="1" format="ascii">
          0.000661963 0.000661963 0.000661964 0.000661964 0.000661964 0.000661965 0.000661965 0.000661965 0.000661966 0.000661966 0.000661967 0.000661969
          0.000661974 0.000661984 0.000662009 0.000662065 0.000662189 0.000662458 0.000663022 0.000664172 0.000666446 0.000670816 0.000679014 0.000694117
          0.00072173 0.000773241 0.000875746 0.00112954 0.00237718 0.123307
        </DataArray>
        <DataArray type="Float32" Name="K" NumberOfComponents="1" format="ascii">
          9.83097e-11 9.83097e-11 9.83097e-11 9.83097e-11 9.83097e-11 9.83097e-11 9.83097e-11 9.83097e-11 9.83097e-11 9.83097e-11 9.83097e-11 9.83097e-11
          9.83097e-11 9.83096e-11 9.83096e-11 9.83094e-11 9.83091e-11 9.83084e-11 9.8307e-11 9.83041e-11 9.82983e-11 9.82872e-11 9.82665e-11 9.82282e-11
          9.78169e-11 9.76868e-11 9.74286e-11 9.67915e-11 9.40388e-11 3.08169e-13
        </DataArray>
        <DataArray type="Float32" Name="X^w_H2O" NumberOfComponents="1" format="ascii">
          0.999853 0.999853 0.999853 0.999853 0.999853 0.999853 0.999853 0.999853 0.999853 0.999853 0.999853 0.999853
          0.999853 0.999853 0.999853 0.999853 0.999853 0.999853 0.999853 0.999853 0.999853 0.999853 0.999853 0.999853
          0.999853 0.999852 0.99985 0.999846 0.999839 0.999839
        </DataArray>
        <DataArray type="Float32" Name="X^w_Air" NumberOfComponents="1" format="ascii">
          0 0 0 0 0 0 0 0 0 0 0 0
          0 0 0 0 0 0 0 0 0 0 0 0
          0 0 0 0 0 0
        </DataArray>
        <DataArray type="Float32" Name="X^w_AuComplex" NumberOfComponents="1" format="ascii">
          1.41034e-16 1.40997e-16 1.41077e-16 1.41077e-16 1.41069e-16 1.41084e-16 1.41064e-16 1.41072e-16 1.41071e-16 1.41073e-16 1.41066e-16 1.41087e-16
          1.41066e-16 1.41069e-16 1.41079e-16 1.41066e-16 1.41061e-16 1.41063e-16 1.41069e-16 1.41064e-16 1.41065e-16 1.41063e-16 1.53813e-16 2.93046e-14
          6.8791e-11 1.07338e-10 1.84463e-10 3.6459e-10 1.84641e-15 1.8333e-15
        </DataArray>
        <DataArray type="Float32" Name="X^w_nanoAu" NumberOfComponents="1" format="ascii">
          3.39382e-19 3.39293e-19 3.39495e-19 3.39496e-19 3.39478e-19 3.39515e-19 3.39465e-19 3.39486e-19 3.39485e-19 3.3949e-19 3.39474e-19 3.39525e-19
          3.39475e-19 3.39482e-19 3.39509e-19 3.39478e-19 3.39467e-19 3.39471e-19 3.39485e-19 3.39477e-19 3.39862e-19 3.95669e-19 8.57155e-18 1.20177e-15
          1.65787e-13 2.10744e-13 2.80965e-13 3.96797e-13 1.30482e-18 1.28716e-18
        </DataArray>
        <DataArray type="Float32" Name="X^w_cyanide" NumberOfComponents="1" format="ascii">
          5.06509e-06 5.06508e-06 5.06507e-06 5.06505e-06 5.06504e-06 5.06503e-06 5.06502e-06 5.065e-06 5.06499e-06 5.06498e-06 5.06497e-06 5.06496e-06
          5.06494e-06 5.06493e-06 5.06492e-06 5.06491e-06 5.0649e-06 5.06489e-06 5.06488e-06 5.06487e-06 5.06486e-06 5.06485e-06 5.06484e-06 5.06483e-06
          5.06531e-06 6.43565e-06 8.57383e-06 1.22481e-05 1.95098e-05 1.94832e-05
        </DataArray>
        <DataArray type="Float32" Name="X^w_citrate" NumberOfComponents="1" format="ascii">
          0.000141796 0.000141796 0.000141796 0.000141796 0.000141796 0.000141796 0.000141796 0.000141796 0.000141796 0.000141796 0.000141796 0.000141796
          0.000141796 0.000141796 0.000141796 0.000141796 0.000141796 0.000141796 0.000141796 0.000141796 0.000141796 0.000141796 0.000141796 0.000141796
          0.000141796 0.000141797 0.000141798 0.000141798 0.000141787 0.000141593
        </DataArray>
        <DataArray type="Float32" Name="X^w_substrate" NumberOfComponents="1" format="ascii">
          5.70855e-28 2.69187e-27 1.26926e-26 5.9843e-26 2.82127e-25 1.32997e-24 6.26916e-24 2.9549e-23 1.39266e-22 6.56318e-22 3.09279e-21 1.45732e-20
          6.8664e-20 3.23498e-19 1.52401e-18 7.17933e-18 3.38202e-17 1.59331e-16 7.50808e-16 3.54012e-15 1.67134e-14 7.91135e-14 3.76393e-13 1.80789e-12
          8.83582e-12 4.45466e-11 2.37415e-10 1.40145e-09 1.02623e-08 1.46691e-07
        </DataArray>
        <DataArray type="Float32" Name="m^w_H2O" NumberOfComponents="1" format="ascii">
          55492.6 55492.6 55492.5 55492.5 55492.5 55492.5 55492.5 55492.5 55492.5 55492.5 55492.5 55492.5
          55492.5 55492.4 55492.4 55492.4 55492.4 55492.4 55492.4 55492.4 55492.4 55492.4 55492.4 55492.4
          55492.3 55492.3 55492.1 55491.9 55491.5 55491.5
        </DataArray>
        <DataArray type="Float32" Name="m^w_Air" NumberOfComponents="1" format="ascii">
          0 0 0 0 0 0 0 0 0 0 0 0
          0 0 0 0 0 0 0 0 0 0 0 0
          0 0 0 0 0 0
        </DataArray>
        <DataArray type="Float32" Name="m^w_AuComplex" NumberOfComponents="1" format="ascii">
          7.15915e-13 7.15728e-13 7.16132e-13 7.16132e-13 7.16093e-13 7.16167e-13 7.16065e-13 7.16106e-13 7.16101e-13 7.1611e-13 7.16075e-13 7.16181e-13
          7.16075e-13 7.16088e-13 7.16143e-13 7.16077e-13 7.16052e-13 7.16059e-13 7.16088e-13 7.16063e-13 7.16071e-13 7.16058e-13 7.80778e-13 1.48755e-10
          3.49194e-07 5.44867e-07 9.36365e-07 1.85071e-06 9.37266e-12 9.3061e-12
        </DataArray>
        <DataArray type="Float32" Name="m^w_nanoAu" NumberOfComponents="1" format="ascii">
          1.72276e-15 1.72231e-15 1.72334e-15 1.72334e-15 1.72325e-15 1.72344e-15 1.72319e-15 1.72329e-15 1.72328e-15 1.72331e-15 1.72323e-15 1.72349e-15
          1.72323e-15 1.72327e-15 1.7234e-15 1.72325e-15 1.72319e-15 1.72321e-15 1.72328e-15 1.72324e-15 1.7252e-15 2.00848e-15 4.35106e-14 6.10039e-12
          8.41564e-10 1.06977e-09 1.42622e-09 2.0142e-09 6.62345e-15 6.53384e-15
        </DataArray>
        <DataArray type="Float32" Name="m^w_cyanide" NumberOfComponents="1" format="ascii">
          0.194633 0.194633 0.194632 0.194632 0.194631 0.194631 0.19463 0.19463 0.194629 0.194629 0.194628 0.194628
          0.194627 0.194627 0.194626 0.194626 0.194625 0.194625 0.194625 0.194624 0.194624 0.194623 0.194623 0.194622
          0.194641 0.247298 0.32946 0.470648 0.749687 0.748666
        </DataArray>
        <DataArray type="Float32" Name="m^w_citrate" NumberOfComponents="1" format="ascii">
          0.749742 0.749742 0.749742 0.749742 0.749742 0.749742 0.749742 0.749741 0.749741 0.749741 0.749741 0.749741
          0.749741 0.749741 0.749741 0.749741 0.74974 0.74974 0.74974 0.74974 0.74974 0.74974 0.74974 0.74974
          0.749739 0.749744 0.749749 0.749747 0.74969 0.748667
        </DataArray>
        <DataArray type="Float32" Name="m^w_substrate" NumberOfComponents="1" format="ascii">
          3.16814e-24 1.49394e-23 7.04414e-23 3.32117e-22 1.56575e-21 7.38111e-21 3.47927e-20 1.63992e-19 7.729e-19 3.64244e-18 1.71644e-17 8.08787e-17
          3.81072e-16 1.79535e-15 8.45796e-15 3.98439e-14 1.87695e-13 8.84254e-13 4.16684e-12 1.96469e-11 9.27562e-11 4.39064e-10 2.08891e-09 1.00334e-08
          4.9037e-08 2.47225e-07 1.31761e-06 7.77778e-06 5.69534e-05 0.000814103
        </DataArray>
        <DataArray type="Float32" Name="process rank" NumberOfComponents="1" format="ascii">
          0 0 0 0 0 0 0 0 0 0 0 0
          0 0 0 0 0 0 0 0 0 0 0 0
          0 0 0 0 0 0
        </DataArray>
      </CellData>
      <Points>
        <DataArray type="Float32" Name="Coordinates" NumberOfComponents="3" format="ascii">
          0 0 0 0.5 0 0 0 0.0333333 0 0.5 0.0333333 0
          0 0.0666667 0 0.5 0.0666667 0 0 0.1 0 0.5 0.1 0
          0 0.133333 0 0.5 0.133333 0 0 0.166667 0 0.5 0.166667 0
          0 0.2 0 0.5 0.2 0 0 0.233333 0 0.5 0.233333 0
          0 0.266667 0 0.5 0.266667 0 0 0.3 0 0.5 0.3 0
          0 0.333333 0 0.5 0.333333 0 0 0.366667 0 0.5 0.366667 0
          0 0.4 0 0.5 0.4 0 0 0.433333 0 0.5 0.433333 0
          0 0.466667 0 0.5 0.466667 0 0 0.5 0 0.5 0.5 0
          0 0.533333 0 0.5 0.533333 0 0 0.566667 0 0.5 0.566667 0
          0 0.6 0 0.5 0.6 0 0 0.633333 0 0.5 0.633333 0
          0 0.666667 0 0.5 0.666667 0 0 0.7 0 0.5 0.7 0
          0 0.733333 0 0.5 0.733333 0 0 0.766667 0 0.5 0.766667 0
          0 0.8 0 0.5 0.8 0 0 0.833333 0 0.5 0.833333 0
          0 0.866667 0 0.5 0.866667 0 0 0.9 0 0.5 0.9 0
          0 0.933333 0 0.5 0.933333 0 0 0.966667 0 0.5 0.966667 0
          0 1 0 0.5 1 0
        </DataArray>
      </Points>
      <Cells>
        <DataArray type="Int32" Name="connectivity" NumberOfComponents="1" format="ascii">
          0 1 3 2 2 3 5 4 4 5 7 6
          6 7 9 8 8 9 11 10 10 11 13 12
          12 13 15 14 14 15 17 16 16 17 19 18
          18 19 21 20 20 21 23 22 22 23 25 24
          24 25 27 26 26 27 29 28 28 29 31 30
          30 31 33 32 32 33 35 34 34 35 37 36
          36 37 39 38 38 39 41 40 40 41 43 42
          42 43 45 44 44 45 47 46 46 47 49 48
          48 49 51 50 50 51 53 52 52 53 55 54
          54 55 57 56 56 57 59 58 58 59 61 60
        </DataArray>
        <DataArray type="Int32" Name="offsets" NumberOfComponents="1" format="ascii">
          4 8 12 16 20 24 28 32 36 40 44 48
          52 56 60 64 68 72 76 80 84 88 92 96
          100 104 108 112 116 120
        </DataArray>
        <DataArray type="UInt8" Name="types" NumberOfComponents="1" format="ascii">
          9 9 9 9 9 9 9 9 9 9 9 9
          9 9 9 9 9 9 9 9 9 9 9 9
          9 9 9 9 9 9
        </DataArray>
      </Cells>
    </Piece>
  </UnstructuredGrid>
</VTKFile>
