<?xml version="1.0"?>
<VTKFile type="UnstructuredGrid" version="0.1" byte_order="LittleEndian">
  <UnstructuredGrid>
    <Piece NumberOfCells="30" NumberOfPoints="62">
      <CellData Scalars="Sg">
        <DataArray type="Float32" Name="Sg" NumberOfComponents="1" format="ascii">
          0.098792 0.098786 0.0987798 0.0987737 0.0987674 0.0987612 0.0987548 0.0987485 0.098742 0.0987356 0.098729 0.0987225
          0.0987158 0.0987092 0.0987025 0.0986958 0.0986891 0.0986826 0.0986763 0.0986704 0.0986639 0.0986485 0.0985758 0.0981972
          0.0963637 0.0883211 0.0574338 0 0 0
        </DataArray>
        <DataArray type="Float32" Name="Sl" NumberOfComponents="1" format="ascii">
          0.901208 0.901214 0.90122 0.901226 0.901233 0.901239 0.901245 0.901252 0.901258 0.901264 0.901271 0.901278
          0.901284 0.901291 0.901298 0.901304 0.901311 0.901317 0.901324 0.90133 0.901336 0.901352 0.901424 0.901803
          0.903636 0.911679 0.942566 1 1 1
        </DataArray>
        <DataArray type="Float32" Name="pg" NumberOfComponents="1" format="ascii">
          52988.4 52659.7 52331 52002.3 51673.6 51344.8 51016.1 50687.3 50358.5 50029.7 49700.9 49372.1
          49043.2 48714.4 48385.5 48056.7 47727.8 47399 47070.3 46741.6 46412.8 46081.5 45733.7 45298.3
          44446.1 41815.3 32640.2 15860.4 15533.5 15206.6
        </DataArray>
        <DataArray type="Float32" Name="pl" NumberOfComponents="1" format="ascii">
          110628 110301 109974 109647 109320 108993 108666 108339 108012 107685 107358 107031
          106704 106377 106050 105723 105396 105070 104743 104416 104089 103762 103435 103108
          102781 102454 102127 101800 101473 101146
        </DataArray>
        <DataArray type="Float32" Name="pc" NumberOfComponents="1" format="ascii">
          -57639.2 -57640.9 -57642.7 -57644.4 -57646.2 -57648 -57649.8 -57651.6 -57653.5 -57655.3 -57657.2 -57659.1
          -57661 -57662.9 -57664.8 -57666.7 -57668.6 -57670.5 -57672.3 -57674 -57675.9 -57680.3 -57701.1 -57809.6
          -58334.8 -60638.7 -69486.9 -85939.7 -85939.7 -85939.7
        </DataArray>
        <DataArray type="Float32" Name="rhoL" NumberOfComponents="1" format="ascii">
          999.855 999.855 999.855 999.855 999.855 999.854 999.854 999.854 999.854 999.854 999.854 999.854
          999.853 999.853 999.853 999.853 999.853 999.853 999.852 999.852 999.852 999.852 999.852 999.852
          999.852 999.851 999.851 999.851 999.851 999.851
        </DataArray>
        <DataArray type="Float32" Name="rhoG" NumberOfComponents="1" format="ascii">
          0.656457 0.652385 0.648313 0.644241 0.640168 0.636096 0.632023 0.62795 0.623877 0.619803 0.61573 0.611656
          0.607582 0.603508 0.599434 0.59536 0.591286 0.587212 0.58314 0.579068 0.574995 0.57089 0.566581 0.561187
          0.55063 0.518037 0.40437 0.19649 0.19244 0.18839
        </DataArray>
        <DataArray type="Float32" Name="mobL" NumberOfComponents="1" format="ascii">
          722.171 722.17 722.17 722.17 722.17 722.17 722.169 722.169 722.169 722.169 722.169 722.169
          722.168 722.168 722.168 722.168 722.168 722.167 722.167 722.167 722.167 722.167 722.166 722.166
          722.166 722.166 722.166 722.166 722.165 722.165
        </DataArray>
        <DataArray type="Float32" Name="mobG" NumberOfComponents="1" format="ascii">
          0 0 0 0 0 0 0 0 0 0 0 0
          0 0 0 0 0 0 0 0 0 0 0 0
          0 0 0 0 0 0
        </DataArray>
        <DataArray type="Float32" Name="porosity" NumberOfComponents="1" format="ascii">
          0.298465 0.298465 0.298465 0.298465 0.298465 0.298465 0.298465 0.298465 0.298465 0.298465 0.298465 0.298465
          0.298465 0.298465 0.298465 0.298465 0.298464 0.298464 0.298462 0.29846 0.298454 0.298444 0.298425 0.298389
          0.298055 0.297936 0.297705 0.297191 0.295808 0.281021
        </DataArray>
        <DataArray type="Float32" Name="temperature" NumberOfComponents="1" format="ascii">
          281.15 281.15 281.15 281.15 281.15 281.15 281.15 281.15 281.15 281.15 281.15 281.15
          281.15 281.15 281.15 281.15 281.15 281.15 281.15 281.15 281.15 281.15 281.15 281.15
          281.15 281.15 281.15 281.15 281.15 281.15
        </DataArray>
        <DataArray type="Float32" Name="phase presence" NumberOfComponents="1" format="ascii">
          3 3 3 3 3 3 3 3 3 3 3 3
          3 3 3 3 3 3 3 3 3 3 3 3
          3 3 3 1 1 1
        </DataArray>
        <DataArray type="Float32" Name="precipitateVolumeFraction_au" NumberOfComponents="1" format="ascii">
          2.95678e-10 2.95676e-10 2.95676e-10 2.95676e-10 2.95676e-10 2.95677e-10 2.95677e-10 2.95678e-10 2.95678e-10 2.95679e-10 2.9568e-10 2.95682e-10
          2.95684e-10 2.95685e-10 2.95687e-10 2.9569e-10 2.95693e-10 2.95695e-10 2.95698e-10 2.95701e-10 2.95704e-10 2.95707e-10 2.9571e-10 3.0121e-10
          0.000269942 0.000269936 0.000269927 0.000269916 2.95744e-10 2.95239e-10
        </DataArray>
        <DataArray type="Float32" Name="precipitateVolumeFraction_nanoAu" NumberOfComponents="1" format="ascii">
          2.57192e-10 2.5719e-10 2.5719e-10 2.5719e-10 2.5719e-10 2.5719e-10 2.57188e-10 2.57188e-10 2.57187e-10 2.57186e-10 2.57185e-10 2.57184e-10
          2.57182e-10 2.5718e-10 2.57177e-10 2.57174e-10 2.57171e-10 2.57168e-10 2.57164e-10 2.57161e-10 2.57158e-10 2.57154e-10 2.57155e-10 2.73427e-10
          5.8144e-08 6.4633e-08 7.32382e-08 8.45713e-08 2.57302e-10 2.56677e-10
        </DataArray>
        <DataArray type="Float32" Name="precipitateVolumeFraction_d" NumberOfComponents="1" format="ascii">
          0.000767628 0.000767628 0.000767628 0.000767629 0.000767629 0.000767629 0.00076763 0.00076763 0.000767631 0.000767631 0.000767633 0.000767635
          0.00076764 0.000767652 0.000767681 0.000767746 0.000767892 0.000768207 0.000768868 0.000770215 0.000772877 0.000777995 0.000787596 0.000805272
          0.000837524 0.000897234 0.00101273 0.00126972 0.00209585 0.00948963
        </DataArray>
        <DataArray type="Float32" Name="precipitateVolumeFraction_p" NumberOfComponents="1" format="ascii">
          0.000767628 0.000767628 0.000767628 0.000767629 0.000767629 0.000767629 0.00076763 0.00076763 0.000767631 0.000767631 0.000767633 0.000767635
          0.00076764 0.000767652 0.000767681 0.000767746 0.000767892 0.000768207 0.000768868 0.000770215 0.000772877 0.000777995 0.000787596 0.000805272
          0.000837524 0.000897234 0.00101273 0.00126972 0.00209585 0.00948963
        </DataArray>
        <DataArray type="Float32" Name="K" NumberOfComponents="1" format="ascii">
          9.80421e-11 9.80421e-11 9.80421e-11 9.80421e-11 9.80421e-11 9.80421e-11 9.80421e-11 9.80421e-11 9.80421e-11 9.80421e-11 9.8042e-11 9.8042e-11
          9.8042e-11 9.8042e-11 9.80419e-11 9.80418e-11 9.80414e-11 9.80406e-11 9.80389e-11 9.80355e-11 9.80288e-11 9.80158e-11 9.79916e-11 9.79469e-11
          9.75248e-11 9.73745e-11 9.70843e-11 9.64411e-11 9.47287e-11 7.79139e-11
        </DataArray>
        <DataArray type="Float32" Name="X^w_H2O" NumberOfComponents="1" format="ascii">
          0.999823 0.999823 0.999824 0.999824 0.999824 0.999824 0.999825 0.999825 0.999826 0.999827 0.999828 0.999828
          0.999829 0.99983 0.999831 0.999832 0.999833 0.999834 0.999835 0.999835 0.999836 0.999836 0.999837 0.999837
          0.999838 0.999837 0.999837 0.999842 0.999839 0.99984
        </DataArray>
        <DataArray type="Float32" Name="X^w_Air" NumberOfComponents="1" format="ascii">
          1.60923e-05 1.59905e-05 1.58886e-05 1.57867e-05 1.56848e-05 1.55829e-05 1.5481e-05 1.53791e-05 1.52772e-05 1.51753e-05 1.50733e-05 1.49714e-05
          1.48695e-05 1.47676e-05 1.46656e-05 1.45637e-05 1.44618e-05 1.43598e-05 1.42579e-05 1.41561e-05 1.40542e-05 1.39515e-05 1.38437e-05 1.37087e-05
          1.34445e-05 1.2629e-05 9.78501e-06 2.00358e-06 1.86946e-08 1.11342e-10
        </DataArray>
        <DataArray type="Float32" Name="X^w_AuComplex" NumberOfComponents="1" format="ascii">
          9.23938e-13 9.18894e-13 9.14409e-13 9.06742e-13 8.98567e-13 8.83773e-13 8.67662e-13 8.47761e-13 8.23113e-13 7.92532e-13 7.55701e-13 7.18139e-13
          6.7573e-13 6.33294e-13 5.94052e-13 5.51388e-13 5.11666e-13 4.78715e-13 4.4794e-13 4.22018e-13 4.00502e-13 3.80774e-13 3.66623e-13 3.85219e-13
          9.28967e-11 1.25832e-10 1.77604e-10 2.62105e-10 9.4871e-13 9.2759e-13
        </DataArray>
        <DataArray type="Float32" Name="X^w_nanoAu" NumberOfComponents="1" format="ascii">
          3.13481e-16 1.24544e-16 1.7078e-15 1.09284e-16 1.64369e-15 1.99641e-16 -1.32563e-16 1.81292e-15 2.24235e-16 -1.42786e-17 -4.34229e-16 8.42068e-16
          -3.01703e-16 9.5576e-16 1.76523e-15 1.58093e-15 6.96801e-16 1.72979e-15 8.3968e-17 8.62997e-16 -2.03346e-17 8.84795e-16 1.29767e-15 2.90244e-15
          1.5995e-13 1.77467e-13 2.16096e-13 2.30217e-13 7.04381e-16 6.83478e-16
        </DataArray>
        <DataArray type="Float32" Name="X^w_cyanide" NumberOfComponents="1" format="ascii">
          1.89271e-05 1.88503e-05 1.87422e-05 1.85928e-05 1.83913e-05 1.81258e-05 1.77845e-05 1.73573e-05 1.68371e-05 1.62218e-05 1.5516e-05 1.47321e-05
          1.389e-05 1.30163e-05 1.21416e-05 1.12967e-05 1.05093e-05 9.79983e-06 9.17983e-06 8.65122e-06 8.20779e-06 7.83815e-06 7.52948e-06 7.2712e-06
          7.05724e-06 8.74178e-06 1.10808e-05 1.44215e-05 1.94367e-05 1.90519e-05
        </DataArray>
        <DataArray type="Float32" Name="X^w_citrate" NumberOfComponents="1" format="ascii">
          0.000141826 0.000141826 0.000141825 0.000141824 0.000141823 0.000141822 0.00014182 0.000141819 0.000141817 0.000141814 0.000141812 0.00014181
          0.000141807 0.000141805 0.000141803 0.000141802 0.0001418 0.000141799 0.000141798 0.000141798 0.000141797 0.000141797 0.000141797 0.000141796
          0.000141796 0.000141796 0.000141793 0.000141768 0.000141542 0.000138598
        </DataArray>
        <DataArray type="Float32" Name="X^w_substrate" NumberOfComponents="1" format="ascii">
          2.86727e-16 -2.10632e-15 1.56205e-15 -1.01016e-15 1.50341e-15 1.29272e-15 -1.23137e-15 1.6582e-15 2.05098e-16 1.09706e-15 -3.97171e-16 -3.39917e-16
          -1.38607e-15 -2.35928e-16 1.61458e-15 1.44601e-15 -4.72787e-16 4.72042e-16 4.51729e-15 2.29918e-14 1.24315e-13 6.63552e-13 3.53693e-12 1.90235e-11
          1.04102e-10 5.87777e-10 3.50546e-09 2.29455e-08 1.82571e-07 2.2586e-06
        </DataArray>
        <DataArray type="Float32" Name="m^w_H2O" NumberOfComponents="1" format="ascii">
          55490.9 55490.9 55490.9 55490.9 55490.9 55490.9 55490.9 55491 55491 55491 55491.1 55491.1
          55491.1 55491.2 55491.2 55491.3 55491.3 55491.3 55491.4 55491.4 55491.4 55491.4 55491.5 55491.5
          55491.5 55491.4 55491.5 55491.7 55491.5 55491.6
        </DataArray>
        <DataArray type="Float32" Name="m^w_Air" NumberOfComponents="1" format="ascii">
          0.555594 0.552077 0.548559 0.545041 0.541523 0.538005 0.534487 0.530968 0.52745 0.523931 0.520412 0.516893
          0.513374 0.509855 0.506335 0.502816 0.499297 0.495778 0.49226 0.488743 0.485224 0.481678 0.477956 0.473296
          0.464176 0.436021 0.33783 0.0691739 0.000645434 3.84412e-06
        </DataArray>
        <DataArray type="Float32" Name="m^w_AuComplex" NumberOfComponents="1" format="ascii">
          4.69008e-09 4.66447e-09 4.6417e-09 4.60279e-09 4.56129e-09 4.48619e-09 4.40441e-09 4.30339e-09 4.17826e-09 4.02303e-09 3.83607e-09 3.6454e-09
          3.43012e-09 3.21471e-09 3.01551e-09 2.79894e-09 2.5973e-09 2.43004e-09 2.27382e-09 2.14223e-09 2.03301e-09 1.93287e-09 1.86104e-09 1.95543e-09
          4.71558e-07 6.38745e-07 9.01545e-07 1.33049e-06 4.8158e-09 4.70859e-09
        </DataArray>
        <DataArray type="Float32" Name="m^w_nanoAu" NumberOfComponents="1" format="ascii">
          1.59128e-12 6.32208e-13 8.6691e-12 5.54745e-13 8.34364e-12 1.01341e-12 -6.72914e-13 9.20269e-12 1.13826e-12 -7.24807e-14 -2.20422e-12 4.27448e-12
          -1.5315e-12 4.8516e-12 8.96063e-12 8.02506e-12 3.53708e-12 8.7807e-12 4.26236e-13 4.38071e-12 -1.03222e-13 4.49136e-12 6.58719e-12 1.47332e-11
          8.1193e-10 9.00852e-10 1.09694e-09 1.16862e-09 3.57555e-12 3.46944e-12
        </DataArray>
        <DataArray type="Float32" Name="m^w_cyanide" NumberOfComponents="1" format="ascii">
          0.727299 0.724351 0.720194 0.714456 0.706713 0.696509 0.683395 0.666978 0.646987 0.623343 0.596224 0.566101
          0.533743 0.50017 0.466556 0.434091 0.403833 0.376571 0.352747 0.332434 0.315395 0.301191 0.28933 0.279405
          0.271183 0.335914 0.425795 0.554165 0.746878 0.732094
        </DataArray>
        <DataArray type="Float32" Name="m^w_citrate" NumberOfComponents="1" format="ascii">
          0.749901 0.749898 0.749895 0.749891 0.749885 0.749878 0.74987 0.749861 0.74985 0.749838 0.749826 0.749813
          0.749801 0.749789 0.749779 0.74977 0.749763 0.749757 0.749752 0.749749 0.749746 0.749744 0.749743 0.749742
          0.74974 0.749741 0.749725 0.749589 0.748398 0.732831
        </DataArray>
        <DataArray type="Float32" Name="m^w_substrate" NumberOfComponents="1" format="ascii">
          1.59128e-12 -1.16897e-11 8.6691e-12 -5.60621e-12 8.34364e-12 7.17436e-12 -6.83386e-12 9.20269e-12 1.13826e-12 6.08847e-12 -2.20422e-12 -1.88647e-12
          -7.69245e-12 -1.30935e-12 8.96063e-12 8.02506e-12 -2.62388e-12 2.61974e-12 2.50701e-11 1.276e-10 6.89924e-10 3.68258e-09 1.96292e-08 1.05577e-07
          5.77743e-07 3.26204e-06 1.94546e-05 0.000127343 0.00101323 0.0125347
        </DataArray>
        <DataArray type="Float32" Name="process rank" NumberOfComponents="1" format="ascii">
          0 0 0 0 0 0 0 0 0 0 0 0
          0 0 0 0 0 0 0 0 0 0 0 0
          0 0 0 0 0 0
        </DataArray>
      </CellData>
      <Points>
        <DataArray type="Float32" Name="Coordinates" NumberOfComponents="3" format="ascii">
          0 0 0 0.5 0 0 0 0.0333333 0 0.5 0.0333333 0
          0 0.0666667 0 0.5 0.0666667 0 0 0.1 0 0.5 0.1 0
          0 0.133333 0 0.5 0.133333 0 0 0.166667 0 0.5 0.166667 0
          0 0.2 0 0.5 0.2 0 0 0.233333 0 0.5 0.233333 0
          0 0.266667 0 0.5 0.266667 0 0 0.3 0 0.5 0.3 0
          0 0.333333 0 0.5 0.333333 0 0 0.366667 0 0.5 0.366667 0
          0 0.4 0 0.5 0.4 0 0 0.433333 0 0.5 0.433333 0
          0 0.466667 0 0.5 0.466667 0 0 0.5 0 0.5 0.5 0
          0 0.533333 0 0.5 0.533333 0 0 0.566667 0 0.5 0.566667 0
          0 0.6 0 0.5 0.6 0 0 0.633333 0 0.5 0.633333 0
          0 0.666667 0 0.5 0.666667 0 0 0.7 0 0.5 0.7 0
          0 0.733333 0 0.5 0.733333 0 0 0.766667 0 0.5 0.766667 0
          0 0.8 0 0.5 0.8 0 0 0.833333 0 0.5 0.833333 0
          0 0.866667 0 0.5 0.866667 0 0 0.9 0 0.5 0.9 0
          0 0.933333 0 0.5 0.933333 0 0 0.966667 0 0.5 0.966667 0
          0 1 0 0.5 1 0
        </DataArray>
      </Points>
      <Cells>
        <DataArray type="Int32" Name="connectivity" NumberOfComponents="1" format="ascii">
          0 1 3 2 2 3 5 4 4 5 7 6
          6 7 9 8 8 9 11 10 10 11 13 12
          12 13 15 14 14 15 17 16 16 17 19 18
          18 19 21 20 20 21 23 22 22 23 25 24
          24 25 27 26 26 27 29 28 28 29 31 30
          30 31 33 32 32 33 35 34 34 35 37 36
          36 37 39 38 38 39 41 40 40 41 43 42
          42 43 45 44 44 45 47 46 46 47 49 48
          48 49 51 50 50 51 53 52 52 53 55 54
          54 55 57 56 56 57 59 58 58 59 61 60
        </DataArray>
        <DataArray type="Int32" Name="offsets" NumberOfComponents="1" format="ascii">
          4 8 12 16 20 24 28 32 36 40 44 48
          52 56 60 64 68 72 76 80 84 88 92 96
          100 104 108 112 116 120
        </DataArray>
        <DataArray type="UInt8" Name="types" NumberOfComponents="1" format="ascii">
          9 9 9 9 9 9 9 9 9 9 9 9
          9 9 9 9 9 9 9 9 9 9 9 9
          9 9 9 9 9 9
        </DataArray>
      </Cells>
    </Piece>
  </UnstructuredGrid>
</VTKFile>
