<?xml version="1.0"?>
<VTKFile type="UnstructuredGrid" version="0.1" byte_order="LittleEndian">
  <UnstructuredGrid>
    <Piece NumberOfCells="30" NumberOfPoints="62">
      <CellData Scalars="Sg">
        <DataArray type="Float32" Name="Sg" NumberOfComponents="1" format="ascii">
          0 0 0 0 0 0 0 0 0 0 0 0
          0 0 0 0 0 0 0 0 0 0 0 0
          0 0 0 0 0 0
        </DataArray>
        <DataArray type="Float32" Name="Sl" NumberOfComponents="1" format="ascii">
          1 1 1 1 1 1 1 1 1 1 1 1
          1 1 1 1 1 1 1 1 1 1 1 1
          1 1 1 1 1 1
        </DataArray>
        <DataArray type="Float32" Name="pg" NumberOfComponents="1" format="ascii">
          24687.8 24360.9 24034 23707 23380.1 23053.1 22726.2 22399.3 22072.3 21745.4 21418.4 21091.5
          20764.6 20437.6 20110.7 19783.7 19456.8 19129.8 18802.9 18476 18149 17822.1 17495.1 17168.2
          16841.3 16514.3 16187.4 15860.4 15533.5 15209.5
        </DataArray>
        <DataArray type="Float32" Name="pl" NumberOfComponents="1" format="ascii">
          110628 110301 109974 109647 109320 108993 108666 108339 108012 107685 107358 107031
          106704 106377 106050 105723 105396 105070 104743 104416 104089 103762 103435 103108
          102781 102454 102127 101800 101473 101149
        </DataArray>
        <DataArray type="Float32" Name="pc" NumberOfComponents="1" format="ascii">
          -85939.7 -85939.7 -85939.7 -85939.7 -85939.7 -85939.7 -85939.7 -85939.7 -85939.7 -85939.7 -85939.7 -85939.7
          -85939.7 -85939.7 -85939.7 -85939.7 -85939.7 -85939.7 -85939.7 -85939.7 -85939.7 -85939.7 -85939.7 -85939.7
          -85939.7 -85939.7 -85939.7 -85939.7 -85939.7 -85939.7
        </DataArray>
        <DataArray type="Float32" Name="rhoL" NumberOfComponents="1" format="ascii">
          999.855 999.855 999.855 999.855 999.855 999.854 999.854 999.854 999.854 999.854 999.854 999.854
          999.853 999.853 999.853 999.853 999.853 999.853 999.852 999.852 999.852 999.852 999.852 999.852
          999.852 999.851 999.851 999.851 999.851 999.851
        </DataArray>
        <DataArray type="Float32" Name="rhoG" NumberOfComponents="1" format="ascii">
          0.30585 0.3018 0.29775 0.293699 0.289649 0.285598 0.281548 0.277498 0.273447 0.269397 0.265347 0.261296
          0.257246 0.253195 0.249145 0.245095 0.241044 0.236994 0.232944 0.228893 0.224843 0.220793 0.216742 0.212692
          0.208641 0.204591 0.200541 0.19649 0.19244 0.188426
        </DataArray>
        <DataArray type="Float32" Name="mobL" NumberOfComponents="1" format="ascii">
          722.171 722.17 722.17 722.17 722.17 722.17 722.169 722.169 722.169 722.169 722.169 722.169
          722.168 722.168 722.168 722.168 722.168 722.167 722.167 722.167 722.167 722.167 722.166 722.166
          722.166 722.166 722.166 722.166 722.165 722.165
        </DataArray>
        <DataArray type="Float32" Name="mobG" NumberOfComponents="1" format="ascii">
          0 0 0 0 0 0 0 0 0 0 0 0
          0 0 0 0 0 0 0 0 0 0 0 0
          0 0 0 0 0 0
        </DataArray>
        <DataArray type="Float32" Name="porosity" NumberOfComponents="1" format="ascii">
          0.298811 0.298811 0.298811 0.298811 0.298811 0.29881 0.298809 0.298809 0.298807 0.298806 0.298803 0.2988
          0.298795 0.298789 0.298781 0.298769 0.298754 0.298733 0.298705 0.298667 0.298614 0.29854 0.298433 0.298274
          0.297754 0.297322 0.296458 0.294192 0.283221 0.0453493
        </DataArray>
        <DataArray type="Float32" Name="temperature" NumberOfComponents="1" format="ascii">
          281.15 281.15 281.15 281.15 281.15 281.15 281.15 281.15 281.15 281.15 281.15 281.15
          281.15 281.15 281.15 281.15 281.15 281.15 281.15 281.15 281.15 281.15 281.15 281.15
          281.15 281.15 281.15 281.15 281.15 281.15
        </DataArray>
        <DataArray type="Float32" Name="phase presence" NumberOfComponents="1" format="ascii">
          1 1 1 1 1 1 1 1 1 1 1 1
          1 1 1 1 1 1 1 1 1 1 1 1
          1 1 1 1 1 1
        </DataArray>
        <DataArray type="Float32" Name="precipitateVolumeFraction_au" NumberOfComponents="1" format="ascii">
          5.53812e-10 5.52793e-10 5.52769e-10 5.52743e-10 5.52789e-10 5.5279e-10 5.52782e-10 5.52701e-10 5.5267e-10 5.52764e-10 5.52732e-10 5.52759e-10
          5.52728e-10 5.52744e-10 5.52687e-10 5.52773e-10 5.52724e-10 5.52762e-10 5.52743e-10 5.52752e-10 5.52712e-10 5.52744e-10 5.52997e-10 1.1816e-09
          0.000269942 0.000269926 0.000269903 0.000269857 5.52297e-10 5.50985e-10
        </DataArray>
        <DataArray type="Float32" Name="precipitateVolumeFraction_nanoAu" NumberOfComponents="1" format="ascii">
          1.21431e-13 1.21208e-13 1.21203e-13 1.21197e-13 1.21207e-13 1.21207e-13 1.21205e-13 1.21187e-13 1.21181e-13 1.21201e-13 1.21194e-13 1.21199e-13
          1.21192e-13 1.21195e-13 1.21182e-13 1.21199e-13 1.21187e-13 1.21193e-13 1.21186e-13 1.21184e-13 1.2117e-13 1.21184e-13 1.32481e-13 2.48813e-11
          5.9165e-08 7.48947e-08 9.92545e-08 1.40375e-07 4.51657e-13 4.4478e-13
        </DataArray>
        <DataArray type="Float32" Name="precipitateVolumeFraction_d" NumberOfComponents="1" format="ascii">
          0.000594302 0.000594362 0.000594446 0.000594564 0.00059473 0.000594962 0.000595287 0.000595741 0.000596371 0.000597243 0.000598445 0.000600097
          0.000602357 0.000605437 0.000609621 0.000615289 0.000622957 0.000633333 0.000647408 0.000666613 0.00069308 0.000730156 0.0007834 0.000862785
          0.000988059 0.00120423 0.00163579 0.0027692 0.00838945 0.127325
        </DataArray>
        <DataArray type="Float32" Name="precipitateVolumeFraction_p" NumberOfComponents="1" format="ascii">
          0.000594302 0.000594362 0.000594446 0.000594564 0.00059473 0.000594962 0.000595287 0.000595741 0.000596371 0.000597243 0.000598445 0.000600097
          0.000602357 0.000605437 0.000609621 0.000615289 0.000622957 0.000633333 0.000647408 0.000666613 0.00069308 0.000730156 0.0007834 0.000862785
          0.000988059 0.00120423 0.00163579 0.0027692 0.00838945 0.127325
        </DataArray>
        <DataArray type="Float32" Name="K" NumberOfComponents="1" format="ascii">
          9.84814e-11 9.84812e-11 9.8481e-11 9.84807e-11 9.84803e-11 9.84797e-11 9.84789e-11 9.84777e-11 9.84761e-11 9.84739e-11 9.84708e-11 9.84667e-11
          9.84609e-11 9.84531e-11 9.84425e-11 9.84281e-11 9.84086e-11 9.83823e-11 9.83466e-11 9.82979e-11 9.82308e-11 9.81369e-11 9.80022e-11 9.78016e-11
          9.71462e-11 9.66047e-11 9.5531e-11 9.27576e-11 8.02488e-11 1.85718e-13
        </DataArray>
        <DataArray type="Float32" Name="X^w_H2O" NumberOfComponents="1" format="ascii">
          0.999853 0.999853 0.999853 0.999853 0.999853 0.999853 0.999853 0.999853 0.999853 0.999853 0.999853 0.999853
          0.999853 0.999853 0.999853 0.999853 0.999853 0.999853 0.999853 0.999853 0.999853 0.999853 0.999853 0.999853
          0.999853 0.999852 0.999849 0.999846 0.999839 0.99984
        </DataArray>
        <DataArray type="Float32" Name="X^w_Air" NumberOfComponents="1" format="ascii">
          0 0 0 0 0 0 0 0 0 0 0 0
          0 0 0 0 0 0 0 0 0 0 0 0
          0 0 0 0 0 0
        </DataArray>
        <DataArray type="Float32" Name="X^w_AuComplex" NumberOfComponents="1" format="ascii">
          1.43043e-16 1.4278e-16 1.42773e-16 1.42767e-16 1.42778e-16 1.42779e-16 1.42776e-16 1.42755e-16 1.42747e-16 1.42771e-16 1.42762e-16 1.42768e-16
          1.42759e-16 1.42762e-16 1.42746e-16 1.42765e-16 1.42749e-16 1.42754e-16 1.42743e-16 1.42737e-16 1.42714e-16 1.42721e-16 1.55826e-16 2.92816e-14
          6.96581e-11 1.07868e-10 1.83349e-10 3.56353e-10 1.75249e-15 1.70624e-15
        </DataArray>
        <DataArray type="Float32" Name="X^w_nanoAu" NumberOfComponents="1" format="ascii">
          5.28866e-19 5.27903e-19 5.2788e-19 5.27855e-19 5.27899e-19 5.279e-19 5.2789e-19 5.27813e-19 5.27785e-19 5.27871e-19 5.2784e-19 5.27863e-19
          5.27831e-19 5.27842e-19 5.27785e-19 5.27859e-19 5.27805e-19 5.27829e-19 5.27795e-19 5.2782e-19 5.31362e-19 8.65748e-19 3.18374e-17 2.89644e-15
          2.58386e-13 3.27261e-13 4.33935e-13 6.04211e-13 1.96156e-18 1.88947e-18
        </DataArray>
        <DataArray type="Float32" Name="X^w_cyanide" NumberOfComponents="1" format="ascii">
          5.21829e-06 5.21829e-06 5.21829e-06 5.21829e-06 5.21829e-06 5.21829e-06 5.21829e-06 5.21829e-06 5.21828e-06 5.21827e-06 5.21826e-06 5.21825e-06
          5.21823e-06 5.21821e-06 5.21817e-06 5.21812e-06 5.21805e-06 5.21796e-06 5.21784e-06 5.21766e-06 5.21742e-06 5.21707e-06 5.21655e-06 5.21578e-06
          5.21503e-06 6.60105e-06 8.74659e-06 1.23911e-05 1.94637e-05 1.92383e-05
        </DataArray>
        <DataArray type="Float32" Name="X^w_citrate" NumberOfComponents="1" format="ascii">
          0.000141796 0.000141796 0.000141796 0.000141796 0.000141796 0.000141796 0.000141796 0.000141796 0.000141796 0.000141796 0.000141796 0.000141796
          0.000141796 0.000141795 0.000141795 0.000141795 0.000141794 0.000141794 0.000141793 0.000141791 0.00014179 0.000141787 0.000141783 0.000141778
          0.000141769 0.000141754 0.000141727 0.000141663 0.000141452 0.000139813
        </DataArray>
        <DataArray type="Float32" Name="X^w_substrate" NumberOfComponents="1" format="ascii">
          1.29e-11 1.72318e-11 2.3017e-11 3.0743e-11 4.10608e-11 5.48408e-11 7.32464e-11 9.78345e-11 1.30691e-10 1.74612e-10 2.33361e-10 3.12006e-10
          4.1741e-10 5.58904e-10 7.49263e-10 1.00613e-09 1.35413e-09 1.82816e-09 2.47855e-09 3.37957e-09 4.64408e-09 6.44998e-09 9.09122e-09 1.30839e-08
          1.94098e-08 3.01525e-08 5.04842e-08 9.67065e-08 2.46519e-07 1.40185e-06
        </DataArray>
        <DataArray type="Float32" Name="m^w_H2O" NumberOfComponents="1" format="ascii">
          55492.6 55492.5 55492.5 55492.5 55492.5 55492.5 55492.5 55492.5 55492.5 55492.5 55492.5 55492.5
          55492.4 55492.4 55492.4 55492.4 55492.4 55492.4 55492.4 55492.4 55492.4 55492.4 55492.4 55492.3
          55492.3 55492.3 55492.1 55491.9 55491.5 55491.6
        </DataArray>
        <DataArray type="Float32" Name="m^w_Air" NumberOfComponents="1" format="ascii">
          0 0 0 0 0 0 0 0 0 0 0 0
          0 0 0 0 0 0 0 0 0 0 0 0
          0 0 0 0 0 0
        </DataArray>
        <DataArray type="Float32" Name="m^w_AuComplex" NumberOfComponents="1" format="ascii">
          7.26111e-13 7.24775e-13 7.24743e-13 7.24708e-13 7.24768e-13 7.2477e-13 7.24757e-13 7.24651e-13 7.24609e-13 7.24729e-13 7.24685e-13 7.24716e-13
          7.2467e-13 7.24684e-13 7.24601e-13 7.247e-13 7.2462e-13 7.24646e-13 7.24588e-13 7.24555e-13 7.24442e-13 7.24476e-13 7.91e-13 1.48638e-10
          3.53595e-07 5.47557e-07 9.30707e-07 1.80891e-06 8.89591e-12 8.66115e-12
        </DataArray>
        <DataArray type="Float32" Name="m^w_nanoAu" NumberOfComponents="1" format="ascii">
          2.68462e-15 2.67973e-15 2.67961e-15 2.67949e-15 2.67971e-15 2.67971e-15 2.67966e-15 2.67927e-15 2.67913e-15 2.67957e-15 2.67941e-15 2.67952e-15
          2.67936e-15 2.67942e-15 2.67913e-15 2.6795e-15 2.67923e-15 2.67935e-15 2.67917e-15 2.6793e-15 2.69728e-15 4.39468e-15 1.61612e-13 1.47028e-11
          1.31161e-09 1.66123e-09 2.20272e-09 3.06707e-09 9.95719e-15 9.59123e-15
        </DataArray>
        <DataArray type="Float32" Name="m^w_cyanide" NumberOfComponents="1" format="ascii">
          0.20052 0.20052 0.20052 0.20052 0.20052 0.20052 0.20052 0.20052 0.20052 0.200519 0.200519 0.200518
          0.200518 0.200516 0.200515 0.200513 0.200511 0.200507 0.200502 0.200495 0.200486 0.200473 0.200453 0.200423
          0.200394 0.253654 0.336099 0.476144 0.747916 0.739254
        </DataArray>
        <DataArray type="Float32" Name="m^w_citrate" NumberOfComponents="1" format="ascii">
          0.749743 0.749743 0.749743 0.749743 0.749743 0.749742 0.749742 0.749742 0.749741 0.749741 0.74974 0.74974
          0.749739 0.749738 0.749736 0.749734 0.749731 0.749728 0.749723 0.749716 0.749706 0.749692 0.749673 0.749643
          0.749595 0.749519 0.749373 0.749033 0.747919 0.739255
        </DataArray>
        <DataArray type="Float32" Name="m^w_substrate" NumberOfComponents="1" format="ascii">
          7.15925e-08 9.56335e-08 1.2774e-07 1.70618e-07 2.2788e-07 3.04356e-07 4.06504e-07 5.42963e-07 7.25308e-07 9.69064e-07 1.29511e-06 1.73157e-06
          2.31655e-06 3.10181e-06 4.15826e-06 5.58381e-06 7.51517e-06 1.0146e-05 1.37555e-05 1.87559e-05 2.57737e-05 3.57961e-05 5.04544e-05 7.2613e-05
          0.00010772 0.00016734 0.000280177 0.000536701 0.00136813 0.00777997
        </DataArray>
        <DataArray type="Float32" Name="process rank" NumberOfComponents="1" format="ascii">
          0 0 0 0 0 0 0 0 0 0 0 0
          0 0 0 0 0 0 0 0 0 0 0 0
          0 0 0 0 0 0
        </DataArray>
      </CellData>
      <Points>
        <DataArray type="Float32" Name="Coordinates" NumberOfComponents="3" format="ascii">
          0 0 0 0.5 0 0 0 0.0333333 0 0.5 0.0333333 0
          0 0.0666667 0 0.5 0.0666667 0 0 0.1 0 0.5 0.1 0
          0 0.133333 0 0.5 0.133333 0 0 0.166667 0 0.5 0.166667 0
          0 0.2 0 0.5 0.2 0 0 0.233333 0 0.5 0.233333 0
          0 0.266667 0 0.5 0.266667 0 0 0.3 0 0.5 0.3 0
          0 0.333333 0 0.5 0.333333 0 0 0.366667 0 0.5 0.366667 0
          0 0.4 0 0.5 0.4 0 0 0.433333 0 0.5 0.433333 0
          0 0.466667 0 0.5 0.466667 0 0 0.5 0 0.5 0.5 0
          0 0.533333 0 0.5 0.533333 0 0 0.566667 0 0.5 0.566667 0
          0 0.6 0 0.5 0.6 0 0 0.633333 0 0.5 0.633333 0
          0 0.666667 0 0.5 0.666667 0 0 0.7 0 0.5 0.7 0
          0 0.733333 0 0.5 0.733333 0 0 0.766667 0 0.5 0.766667 0
          0 0.8 0 0.5 0.8 0 0 0.833333 0 0.5 0.833333 0
          0 0.866667 0 0.5 0.866667 0 0 0.9 0 0.5 0.9 0
          0 0.933333 0 0.5 0.933333 0 0 0.966667 0 0.5 0.966667 0
          0 1 0 0.5 1 0
        </DataArray>
      </Points>
      <Cells>
        <DataArray type="Int32" Name="connectivity" NumberOfComponents="1" format="ascii">
          0 1 3 2 2 3 5 4 4 5 7 6
          6 7 9 8 8 9 11 10 10 11 13 12
          12 13 15 14 14 15 17 16 16 17 19 18
          18 19 21 20 20 21 23 22 22 23 25 24
          24 25 27 26 26 27 29 28 28 29 31 30
          30 31 33 32 32 33 35 34 34 35 37 36
          36 37 39 38 38 39 41 40 40 41 43 42
          42 43 45 44 44 45 47 46 46 47 49 48
          48 49 51 50 50 51 53 52 52 53 55 54
          54 55 57 56 56 57 59 58 58 59 61 60
        </DataArray>
        <DataArray type="Int32" Name="offsets" NumberOfComponents="1" format="ascii">
          4 8 12 16 20 24 28 32 36 40 44 48
          52 56 60 64 68 72 76 80 84 88 92 96
          100 104 108 112 116 120
        </DataArray>
        <DataArray type="UInt8" Name="types" NumberOfComponents="1" format="ascii">
          9 9 9 9 9 9 9 9 9 9 9 9
          9 9 9 9 9 9 9 9 9 9 9 9
          9 9 9 9 9 9
        </DataArray>
      </Cells>
    </Piece>
  </UnstructuredGrid>
</VTKFile>
