<?xml version="1.0"?>
<VTKFile type="UnstructuredGrid" version="0.1" byte_order="LittleEndian">
  <UnstructuredGrid>
    <Piece NumberOfCells="30" NumberOfPoints="62">
      <CellData Scalars="Sg">
        <DataArray type="Float32" Name="Sg" NumberOfComponents="1" format="ascii">
          0 0 0 0 0 0 0 0 0 0 0 0
          0 0 0 0 0 0 0 0 0 0 0 0
          0 0 0 0 0 0
        </DataArray>
        <DataArray type="Float32" Name="Sl" NumberOfComponents="1" format="ascii">
          1 1 1 1 1 1 1 1 1 1 1 1
          1 1 1 1 1 1 1 1 1 1 1 1
          1 1 1 1 1 1
        </DataArray>
        <DataArray type="Float32" Name="pg" NumberOfComponents="1" format="ascii">
          24687.8 24360.9 24034 23707 23380.1 23053.1 22726.2 22399.3 22072.3 21745.4 21418.4 21091.5
          20764.6 20437.6 20110.7 19783.7 19456.8 19129.9 18802.9 18476 18149 17822.1 17495.1 17168.2
          16841.3 16514.3 16187.4 15860.4 15533.5 15207.3
        </DataArray>
        <DataArray type="Float32" Name="pl" NumberOfComponents="1" format="ascii">
          110628 110301 109974 109647 109320 108993 108666 108339 108012 107685 107358 107031
          106704 106377 106050 105723 105396 105070 104743 104416 104089 103762 103435 103108
          102781 102454 102127 101800 101473 101147
        </DataArray>
        <DataArray type="Float32" Name="pc" NumberOfComponents="1" format="ascii">
          -85939.7 -85939.7 -85939.7 -85939.7 -85939.7 -85939.7 -85939.7 -85939.7 -85939.7 -85939.7 -85939.7 -85939.7
          -85939.7 -85939.7 -85939.7 -85939.7 -85939.7 -85939.7 -85939.7 -85939.7 -85939.7 -85939.7 -85939.7 -85939.7
          -85939.7 -85939.7 -85939.7 -85939.7 -85939.7 -85939.7
        </DataArray>
        <DataArray type="Float32" Name="rhoL" NumberOfComponents="1" format="ascii">
          999.855 999.855 999.855 999.855 999.855 999.854 999.854 999.854 999.854 999.854 999.854 999.854
          999.853 999.853 999.853 999.853 999.853 999.853 999.852 999.852 999.852 999.852 999.852 999.852
          999.852 999.851 999.851 999.851 999.851 999.851
        </DataArray>
        <DataArray type="Float32" Name="rhoG" NumberOfComponents="1" format="ascii">
          0.30585 0.3018 0.29775 0.293699 0.289649 0.285598 0.281548 0.277498 0.273447 0.269397 0.265347 0.261296
          0.257246 0.253195 0.249145 0.245095 0.241044 0.236994 0.232944 0.228893 0.224843 0.220793 0.216742 0.212692
          0.208641 0.204591 0.200541 0.19649 0.19244 0.188399
        </DataArray>
        <DataArray type="Float32" Name="mobL" NumberOfComponents="1" format="ascii">
          722.171 722.17 722.17 722.17 722.17 722.17 722.169 722.169 722.169 722.169 722.169 722.169
          722.168 722.168 722.168 722.168 722.168 722.167 722.167 722.167 722.167 722.167 722.166 722.166
          722.166 722.166 722.166 722.166 722.165 722.165
        </DataArray>
        <DataArray type="Float32" Name="mobG" NumberOfComponents="1" format="ascii">
          0 0 0 0 0 0 0 0 0 0 0 0
          0 0 0 0 0 0 0 0 0 0 0 0
          0 0 0 0 0 0
        </DataArray>
        <DataArray type="Float32" Name="porosity" NumberOfComponents="1" format="ascii">
          0.298636 0.298636 0.298635 0.298635 0.298635 0.298634 0.298634 0.298633 0.298631 0.298629 0.298626 0.298623
          0.298618 0.298611 0.298601 0.298589 0.298572 0.298548 0.298517 0.298474 0.298416 0.298334 0.298217 0.298045
          0.297506 0.297051 0.296172 0.294001 0.284929 0.0696842
        </DataArray>
        <DataArray type="Float32" Name="temperature" NumberOfComponents="1" format="ascii">
          281.15 281.15 281.15 281.15 281.15 281.15 281.15 281.15 281.15 281.15 281.15 281.15
          281.15 281.15 281.15 281.15 281.15 281.15 281.15 281.15 281.15 281.15 281.15 281.15
          281.15 281.15 281.15 281.15 281.15 281.15
        </DataArray>
        <DataArray type="Float32" Name="phase presence" NumberOfComponents="1" format="ascii">
          1 1 1 1 1 1 1 1 1 1 1 1
          1 1 1 1 1 1 1 1 1 1 1 1
          1 1 1 1 1 1
        </DataArray>
        <DataArray type="Float32" Name="precipitateVolumeFraction_au" NumberOfComponents="1" format="ascii">
          5.53808e-10 5.52791e-10 5.52767e-10 5.52741e-10 5.52787e-10 5.52788e-10 5.52779e-10 5.52699e-10 5.52668e-10 5.52762e-10 5.5273e-10 5.52757e-10
          5.52726e-10 5.52742e-10 5.52685e-10 5.5277e-10 5.52722e-10 5.5276e-10 5.52741e-10 5.5275e-10 5.5271e-10 5.52742e-10 5.52842e-10 8.46275e-10
          0.000269941 0.000269926 0.000269902 0.000269859 5.52295e-10 5.50992e-10
        </DataArray>
        <DataArray type="Float32" Name="precipitateVolumeFraction_nanoAu" NumberOfComponents="1" format="ascii">
          1.25548e-13 1.23367e-13 1.23326e-13 1.2329e-13 1.23339e-13 1.23334e-13 1.23321e-13 1.2326e-13 1.23249e-13 1.23298e-13 1.23282e-13 1.23293e-13
          1.23279e-13 1.23283e-13 1.23263e-13 1.23288e-13 1.23271e-13 1.23279e-13 1.23269e-13 1.23266e-13 1.2325e-13 1.23263e-13 1.34551e-13 2.48795e-11
          5.92141e-08 7.49474e-08 9.93038e-08 1.40393e-07 4.53312e-13 4.45787e-13
        </DataArray>
        <DataArray type="Float32" Name="precipitateVolumeFraction_d" NumberOfComponents="1" format="ascii">
          0.000682135 0.000682201 0.000682295 0.000682426 0.000682612 0.000682871 0.000683235 0.000683743 0.000684449 0.000685427 0.000686776 0.00068863
          0.000691165 0.00069462 0.000699311 0.00070566 0.000714241 0.000725834 0.000741529 0.000762884 0.000792212 0.000833103 0.000891456 0.0009777
          0.00111209 0.00133955 0.00177917 0.00286446 0.00753576 0.115158
        </DataArray>
        <DataArray type="Float32" Name="precipitateVolumeFraction_p" NumberOfComponents="1" format="ascii">
          0.000682135 0.000682201 0.000682295 0.000682426 0.000682612 0.000682871 0.000683235 0.000683743 0.000684449 0.000685427 0.000686776 0.00068863
          0.000691165 0.00069462 0.000699311 0.00070566 0.000714241 0.000725834 0.000741529 0.000762884 0.000792212 0.000833103 0.000891456 0.0009777
          0.00111209 0.00133955 0.00177917 0.00286446 0.00753576 0.115158
        </DataArray>
        <DataArray type="Float32" Name="K" NumberOfComponents="1" format="ascii">
          9.82585e-11 9.82584e-11 9.82581e-11 9.82578e-11 9.82573e-11 9.82567e-11 9.82558e-11 9.82545e-11 9.82527e-11 9.82502e-11 9.82468e-11 9.82421e-11
          9.82357e-11 9.82269e-11 9.8215e-11 9.81989e-11 9.81772e-11 9.81478e-11 9.81081e-11 9.80541e-11 9.79799e-11 9.78765e-11 9.77292e-11 9.75118e-11
          9.68352e-11 9.62669e-11 9.51764e-11 9.25275e-11 8.20996e-11 7.09535e-13
        </DataArray>
        <DataArray type="Float32" Name="X^w_H2O" NumberOfComponents="1" format="ascii">
          0.999853 0.999853 0.999853 0.999853 0.999853 0.999853 0.999853 0.999853 0.999853 0.999853 0.999853 0.999853
          0.999853 0.999853 0.999853 0.999853 0.999853 0.999853 0.999853 0.999853 0.999853 0.999853 0.999853 0.999853
          0.999853 0.999852 0.999849 0.999846 0.999839 0.99984
        </DataArray>
        <DataArray type="Float32" Name="X^w_Air" NumberOfComponents="1" format="ascii">
          0 0 0 0 0 0 0 0 0 0 0 0
          0 0 0 0 0 0 0 0 0 0 0 0
          0 0 0 0 0 0
        </DataArray>
        <DataArray type="Float32" Name="X^w_AuComplex" NumberOfComponents="1" format="ascii">
          1.47247e-16 1.45043e-16 1.45e-16 1.44962e-16 1.45011e-16 1.45005e-16 1.4499e-16 1.44926e-16 1.44912e-16 1.44963e-16 1.44945e-16 1.44955e-16
          1.44938e-16 1.44941e-16 1.44917e-16 1.44943e-16 1.44922e-16 1.44927e-16 1.44913e-16 1.44905e-16 1.44879e-16 1.44883e-16 1.57981e-16 2.92931e-14
          6.9752e-11 1.07994e-10 1.83502e-10 3.56429e-10 1.7577e-15 1.7074e-15
        </DataArray>
        <DataArray type="Float32" Name="X^w_nanoAu" NumberOfComponents="1" format="ascii">
          5.46711e-19 5.3731e-19 5.37129e-19 5.36976e-19 5.3719e-19 5.37167e-19 5.37107e-19 5.36845e-19 5.36798e-19 5.37011e-19 5.36941e-19 5.36985e-19
          5.36925e-19 5.36943e-19 5.36857e-19 5.36963e-19 5.36887e-19 5.36918e-19 5.36875e-19 5.36896e-19 5.40442e-19 8.75931e-19 3.19235e-17 2.90111e-15
          2.58598e-13 3.27482e-13 4.34118e-13 6.04174e-13 1.96769e-18 1.8909e-18
        </DataArray>
        <DataArray type="Float32" Name="X^w_cyanide" NumberOfComponents="1" format="ascii">
          5.22289e-06 5.22285e-06 5.2228e-06 5.22275e-06 5.22271e-06 5.22266e-06 5.22261e-06 5.22257e-06 5.22252e-06 5.22247e-06 5.22242e-06 5.22237e-06
          5.22231e-06 5.22225e-06 5.22218e-06 5.2221e-06 5.222e-06 5.22188e-06 5.22172e-06 5.22152e-06 5.22124e-06 5.22084e-06 5.22026e-06 5.21938e-06
          5.21843e-06 6.60472e-06 8.75004e-06 1.23923e-05 1.94536e-05 1.92094e-05
        </DataArray>
        <DataArray type="Float32" Name="X^w_citrate" NumberOfComponents="1" format="ascii">
          0.000141796 0.000141796 0.000141796 0.000141796 0.000141796 0.000141796 0.000141796 0.000141796 0.000141796 0.000141796 0.000141796 0.000141796
          0.000141796 0.000141796 0.000141795 0.000141795 0.000141795 0.000141794 0.000141793 0.000141792 0.00014179 0.000141788 0.000141784 0.000141778
          0.000141767 0.000141751 0.000141717 0.000141637 0.000141379 0.000139603
        </DataArray>
        <DataArray type="Float32" Name="X^w_substrate" NumberOfComponents="1" format="ascii">
          5.67475e-12 7.84951e-12 1.08572e-11 1.50166e-11 2.07691e-11 2.87251e-11 3.97298e-11 5.49543e-11 7.60224e-11 1.05189e-10 1.45592e-10 2.01608e-10
          2.79363e-10 3.87471e-10 5.38121e-10 7.48697e-10 1.04425e-09 1.46137e-09 2.05442e-09 2.90594e-09 4.14478e-09 5.97926e-09 8.76172e-09 1.31239e-08
          2.02891e-08 3.28881e-08 5.74885e-08 1.14605e-07 2.97906e-07 1.5499e-06
        </DataArray>
        <DataArray type="Float32" Name="m^w_H2O" NumberOfComponents="1" format="ascii">
          55492.6 55492.5 55492.5 55492.5 55492.5 55492.5 55492.5 55492.5 55492.5 55492.5 55492.5 55492.5
          55492.4 55492.4 55492.4 55492.4 55492.4 55492.4 55492.4 55492.4 55492.4 55492.4 55492.4 55492.3
          55492.3 55492.3 55492.1 55491.9 55491.5 55491.6
        </DataArray>
        <DataArray type="Float32" Name="m^w_Air" NumberOfComponents="1" format="ascii">
          0 0 0 0 0 0 0 0 0 0 0 0
          0 0 0 0 0 0 0 0 0 0 0 0
          0 0 0 0 0 0
        </DataArray>
        <DataArray type="Float32" Name="m^w_AuComplex" NumberOfComponents="1" format="ascii">
          7.47452e-13 7.36265e-13 7.36044e-13 7.35851e-13 7.36104e-13 7.36072e-13 7.35997e-13 7.35668e-13 7.35597e-13 7.35859e-13 7.35763e-13 7.35814e-13
          7.3573e-13 7.35747e-13 7.35624e-13 7.35757e-13 7.35646e-13 7.35675e-13 7.35603e-13 7.35561e-13 7.35429e-13 7.35452e-13 8.01939e-13 1.48697e-10
          3.54072e-07 5.48196e-07 9.31488e-07 1.80929e-06 8.92234e-12 8.66703e-12
        </DataArray>
        <DataArray type="Float32" Name="m^w_nanoAu" NumberOfComponents="1" format="ascii">
          2.7752e-15 2.72748e-15 2.72656e-15 2.72578e-15 2.72687e-15 2.72675e-15 2.72645e-15 2.72512e-15 2.72488e-15 2.72596e-15 2.7256e-15 2.72583e-15
          2.72552e-15 2.72561e-15 2.72518e-15 2.72571e-15 2.72533e-15 2.72548e-15 2.72527e-15 2.72537e-15 2.74337e-15 4.44637e-15 1.62049e-13 1.47265e-11
          1.31269e-09 1.66235e-09 2.20365e-09 3.06688e-09 9.98829e-15 9.59849e-15
        </DataArray>
        <DataArray type="Float32" Name="m^w_cyanide" NumberOfComponents="1" format="ascii">
          0.200697 0.200695 0.200693 0.200692 0.20069 0.200688 0.200686 0.200684 0.200682 0.200681 0.200679 0.200677
          0.200674 0.200672 0.200669 0.200666 0.200662 0.200658 0.200652 0.200644 0.200633 0.200618 0.200595 0.200561
          0.200525 0.253795 0.336231 0.476189 0.747531 0.738144
        </DataArray>
        <DataArray type="Float32" Name="m^w_citrate" NumberOfComponents="1" format="ascii">
          0.749743 0.749743 0.749743 0.749743 0.749743 0.749743 0.749742 0.749742 0.749742 0.749742 0.749741 0.749741
          0.74974 0.749739 0.749738 0.749736 0.749734 0.74973 0.749726 0.749719 0.74971 0.749696 0.749675 0.749642
          0.749588 0.749499 0.74932 0.748899 0.747533 0.738145
        </DataArray>
        <DataArray type="Float32" Name="m^w_substrate" NumberOfComponents="1" format="ascii">
          3.14938e-08 4.35633e-08 6.02552e-08 8.33395e-08 1.15265e-07 1.59419e-07 2.20493e-07 3.04986e-07 4.2191e-07 5.8378e-07 8.0801e-07 1.11889e-06
          1.55041e-06 2.15039e-06 2.98647e-06 4.15512e-06 5.79538e-06 8.11032e-06 1.14016e-05 1.61274e-05 2.30027e-05 3.31837e-05 4.86258e-05 7.28348e-05
          0.0001126 0.000182522 0.000319049 0.000636034 0.00165332 0.00860164
        </DataArray>
        <DataArray type="Float32" Name="process rank" NumberOfComponents="1" format="ascii">
          0 0 0 0 0 0 0 0 0 0 0 0
          0 0 0 0 0 0 0 0 0 0 0 0
          0 0 0 0 0 0
        </DataArray>
      </CellData>
      <Points>
        <DataArray type="Float32" Name="Coordinates" NumberOfComponents="3" format="ascii">
          0 0 0 0.5 0 0 0 0.0333333 0 0.5 0.0333333 0
          0 0.0666667 0 0.5 0.0666667 0 0 0.1 0 0.5 0.1 0
          0 0.133333 0 0.5 0.133333 0 0 0.166667 0 0.5 0.166667 0
          0 0.2 0 0.5 0.2 0 0 0.233333 0 0.5 0.233333 0
          0 0.266667 0 0.5 0.266667 0 0 0.3 0 0.5 0.3 0
          0 0.333333 0 0.5 0.333333 0 0 0.366667 0 0.5 0.366667 0
          0 0.4 0 0.5 0.4 0 0 0.433333 0 0.5 0.433333 0
          0 0.466667 0 0.5 0.466667 0 0 0.5 0 0.5 0.5 0
          0 0.533333 0 0.5 0.533333 0 0 0.566667 0 0.5 0.566667 0
          0 0.6 0 0.5 0.6 0 0 0.633333 0 0.5 0.633333 0
          0 0.666667 0 0.5 0.666667 0 0 0.7 0 0.5 0.7 0
          0 0.733333 0 0.5 0.733333 0 0 0.766667 0 0.5 0.766667 0
          0 0.8 0 0.5 0.8 0 0 0.833333 0 0.5 0.833333 0
          0 0.866667 0 0.5 0.866667 0 0 0.9 0 0.5 0.9 0
          0 0.933333 0 0.5 0.933333 0 0 0.966667 0 0.5 0.966667 0
          0 1 0 0.5 1 0
        </DataArray>
      </Points>
      <Cells>
        <DataArray type="Int32" Name="connectivity" NumberOfComponents="1" format="ascii">
          0 1 3 2 2 3 5 4 4 5 7 6
          6 7 9 8 8 9 11 10 10 11 13 12
          12 13 15 14 14 15 17 16 16 17 19 18
          18 19 21 20 20 21 23 22 22 23 25 24
          24 25 27 26 26 27 29 28 28 29 31 30
          30 31 33 32 32 33 35 34 34 35 37 36
          36 37 39 38 38 39 41 40 40 41 43 42
          42 43 45 44 44 45 47 46 46 47 49 48
          48 49 51 50 50 51 53 52 52 53 55 54
          54 55 57 56 56 57 59 58 58 59 61 60
        </DataArray>
        <DataArray type="Int32" Name="offsets" NumberOfComponents="1" format="ascii">
          4 8 12 16 20 24 28 32 36 40 44 48
          52 56 60 64 68 72 76 80 84 88 92 96
          100 104 108 112 116 120
        </DataArray>
        <DataArray type="UInt8" Name="types" NumberOfComponents="1" format="ascii">
          9 9 9 9 9 9 9 9 9 9 9 9
          9 9 9 9 9 9 9 9 9 9 9 9
          9 9 9 9 9 9
        </DataArray>
      </Cells>
    </Piece>
  </UnstructuredGrid>
</VTKFile>
