<?xml version="1.0"?>
<VTKFile type="UnstructuredGrid" version="0.1" byte_order="LittleEndian">
  <UnstructuredGrid>
    <Piece NumberOfCells="30" NumberOfPoints="62">
      <CellData Scalars="Sg">
        <DataArray type="Float32" Name="Sg" NumberOfComponents="1" format="ascii">
          0 0 0 0 0 0 0 0 0 0 0 0
          0 0 0 0 0 0 0 0 0 0 0 0
          0 0 0 0 0 0
        </DataArray>
        <DataArray type="Float32" Name="Sl" NumberOfComponents="1" format="ascii">
          1 1 1 1 1 1 1 1 1 1 1 1
          1 1 1 1 1 1 1 1 1 1 1 1
          1 1 1 1 1 1
        </DataArray>
        <DataArray type="Float32" Name="pg" NumberOfComponents="1" format="ascii">
          24687.8 24360.9 24034 23707 23380.1 23053.1 22726.2 22399.3 22072.3 21745.4 21418.4 21091.5
          20764.6 20437.6 20110.7 19783.7 19456.8 19129.8 18802.9 18476 18149 17822.1 17495.1 17168.2
          16841.3 16514.3 16187.4 15860.4 15533.5 15209.6
        </DataArray>
        <DataArray type="Float32" Name="pl" NumberOfComponents="1" format="ascii">
          110628 110301 109974 109647 109320 108993 108666 108339 108012 107685 107358 107031
          106704 106377 106050 105723 105396 105070 104743 104416 104089 103762 103435 103108
          102781 102454 102127 101800 101473 101149
        </DataArray>
        <DataArray type="Float32" Name="pc" NumberOfComponents="1" format="ascii">
          -85939.7 -85939.7 -85939.7 -85939.7 -85939.7 -85939.7 -85939.7 -85939.7 -85939.7 -85939.7 -85939.7 -85939.7
          -85939.7 -85939.7 -85939.7 -85939.7 -85939.7 -85939.7 -85939.7 -85939.7 -85939.7 -85939.7 -85939.7 -85939.7
          -85939.7 -85939.7 -85939.7 -85939.7 -85939.7 -85939.7
        </DataArray>
        <DataArray type="Float32" Name="rhoL" NumberOfComponents="1" format="ascii">
          999.855 999.855 999.855 999.855 999.855 999.854 999.854 999.854 999.854 999.854 999.854 999.854
          999.853 999.853 999.853 999.853 999.853 999.853 999.852 999.852 999.852 999.852 999.852 999.852
          999.852 999.851 999.851 999.851 999.851 999.851
        </DataArray>
        <DataArray type="Float32" Name="rhoG" NumberOfComponents="1" format="ascii">
          0.30585 0.3018 0.29775 0.293699 0.289649 0.285598 0.281548 0.277498 0.273447 0.269397 0.265347 0.261296
          0.257246 0.253195 0.249145 0.245095 0.241044 0.236994 0.232944 0.228893 0.224843 0.220793 0.216742 0.212692
          0.208641 0.204591 0.200541 0.19649 0.19244 0.188427
        </DataArray>
        <DataArray type="Float32" Name="mobL" NumberOfComponents="1" format="ascii">
          722.171 722.17 722.17 722.17 722.17 722.17 722.169 722.169 722.169 722.169 722.169 722.169
          722.168 722.168 722.168 722.168 722.168 722.167 722.167 722.167 722.167 722.167 722.166 722.166
          722.166 722.166 722.166 722.166 722.165 722.165
        </DataArray>
        <DataArray type="Float32" Name="mobG" NumberOfComponents="1" format="ascii">
          0 0 0 0 0 0 0 0 0 0 0 0
          0 0 0 0 0 0 0 0 0 0 0 0
          0 0 0 0 0 0
        </DataArray>
        <DataArray type="Float32" Name="porosity" NumberOfComponents="1" format="ascii">
          0.298833 0.298833 0.298833 0.298832 0.298832 0.298832 0.298831 0.29883 0.298829 0.298827 0.298825 0.298822
          0.298817 0.298811 0.298803 0.298792 0.298776 0.298756 0.298728 0.29869 0.298638 0.298565 0.29846 0.298303
          0.297784 0.297355 0.296495 0.294222 0.283045 0.0450309
        </DataArray>
        <DataArray type="Float32" Name="temperature" NumberOfComponents="1" format="ascii">
          281.15 281.15 281.15 281.15 281.15 281.15 281.15 281.15 281.15 281.15 281.15 281.15
          281.15 281.15 281.15 281.15 281.15 281.15 281.15 281.15 281.15 281.15 281.15 281.15
          281.15 281.15 281.15 281.15 281.15 281.15
        </DataArray>
        <DataArray type="Float32" Name="phase presence" NumberOfComponents="1" format="ascii">
          1 1 1 1 1 1 1 1 1 1 1 1
          1 1 1 1 1 1 1 1 1 1 1 1
          1 1 1 1 1 1
        </DataArray>
        <DataArray type="Float32" Name="precipitateVolumeFraction_au" NumberOfComponents="1" format="ascii">
          5.53812e-10 5.52793e-10 5.52769e-10 5.52743e-10 5.52789e-10 5.5279e-10 5.52782e-10 5.52701e-10 5.5267e-10 5.52764e-10 5.52732e-10 5.52759e-10
          5.52728e-10 5.52744e-10 5.52687e-10 5.52773e-10 5.52724e-10 5.52762e-10 5.52743e-10 5.52752e-10 5.52712e-10 5.52744e-10 5.53018e-10 1.22628e-09
          0.000269942 0.000269926 0.000269903 0.000269857 5.52297e-10 5.50984e-10
        </DataArray>
        <DataArray type="Float32" Name="precipitateVolumeFraction_nanoAu" NumberOfComponents="1" format="ascii">
          1.2143e-13 1.21206e-13 1.21201e-13 1.21195e-13 1.21205e-13 1.21206e-13 1.21204e-13 1.21186e-13 1.21179e-13 1.21199e-13 1.21192e-13 1.21198e-13
          1.2119e-13 1.21193e-13 1.2118e-13 1.21197e-13 1.21185e-13 1.21191e-13 1.21184e-13 1.21182e-13 1.21168e-13 1.21182e-13 1.32487e-13 2.48899e-11
          5.9164e-08 7.48935e-08 9.92535e-08 1.40375e-07 4.51669e-13 4.4479e-13
        </DataArray>
        <DataArray type="Float32" Name="precipitateVolumeFraction_d" NumberOfComponents="1" format="ascii">
          0.000583528 0.000583587 0.00058367 0.000583787 0.000583951 0.00058418 0.000584501 0.000584949 0.00058557 0.00058643 0.000587616 0.000589244
          0.000591472 0.000594508 0.000598632 0.000604219 0.000611779 0.000622009 0.00063589 0.000654834 0.000680954 0.00071756 0.000770168 0.000848683
          0.000972761 0.00118733 0.00161728 0.00275424 0.00847733 0.127485
        </DataArray>
        <DataArray type="Float32" Name="precipitateVolumeFraction_p" NumberOfComponents="1" format="ascii">
          0.000583528 0.000583587 0.00058367 0.000583787 0.000583951 0.00058418 0.000584501 0.000584949 0.00058557 0.00058643 0.000587616 0.000589244
          0.000591472 0.000594508 0.000598632 0.000604219 0.000611779 0.000622009 0.00063589 0.000654834 0.000680954 0.00071756 0.000770168 0.000848683
          0.000972761 0.00118733 0.00161728 0.00275424 0.00847733 0.127485
        </DataArray>
        <DataArray type="Float32" Name="K" NumberOfComponents="1" format="ascii">
          9.85087e-11 9.85086e-11 9.85084e-11 9.85081e-11 9.85077e-11 9.85071e-11 9.85063e-11 9.85051e-11 9.85035e-11 9.85014e-11 9.84983e-11 9.84942e-11
          9.84886e-11 9.84808e-11 9.84704e-11 9.84562e-11 9.8437e-11 9.8411e-11 9.83758e-11 9.83278e-11 9.82615e-11 9.81688e-11 9.80356e-11 9.78372e-11
          9.71846e-11 9.66469e-11 9.55768e-11 9.27938e-11 8.00603e-11 1.81713e-13
        </DataArray>
        <DataArray type="Float32" Name="X^w_H2O" NumberOfComponents="1" format="ascii">
          0.999853 0.999853 0.999853 0.999853 0.999853 0.999853 0.999853 0.999853 0.999853 0.999853 0.999853 0.999853
          0.999853 0.999853 0.999853 0.999853 0.999853 0.999853 0.999853 0.999853 0.999853 0.999853 0.999853 0.999853
          0.999853 0.999852 0.999849 0.999846 0.999839 0.99984
        </DataArray>
        <DataArray type="Float32" Name="X^w_Air" NumberOfComponents="1" format="ascii">
          0 0 0 0 0 0 0 0 0 0 0 0
          0 0 0 0 0 0 0 0 0 0 0 0
          0 0 0 0 0 0
        </DataArray>
        <DataArray type="Float32" Name="X^w_AuComplex" NumberOfComponents="1" format="ascii">
          1.4304e-16 1.42777e-16 1.4277e-16 1.42763e-16 1.42775e-16 1.42776e-16 1.42773e-16 1.42752e-16 1.42744e-16 1.42768e-16 1.42759e-16 1.42765e-16
          1.42756e-16 1.42759e-16 1.42743e-16 1.42762e-16 1.42746e-16 1.42751e-16 1.4274e-16 1.42733e-16 1.42711e-16 1.42717e-16 1.55831e-16 2.92913e-14
          6.96561e-11 1.07866e-10 1.83346e-10 3.56354e-10 1.75257e-15 1.70631e-15
        </DataArray>
        <DataArray type="Float32" Name="X^w_nanoAu" NumberOfComponents="1" format="ascii">
          5.28858e-19 5.27896e-19 5.27873e-19 5.27848e-19 5.27892e-19 5.27893e-19 5.27883e-19 5.27806e-19 5.27777e-19 5.27864e-19 5.27833e-19 5.27856e-19
          5.27824e-19 5.27835e-19 5.27778e-19 5.27851e-19 5.27797e-19 5.27821e-19 5.27787e-19 5.27811e-19 5.31352e-19 8.65725e-19 3.18365e-17 2.89639e-15
          2.58381e-13 3.27255e-13 4.33931e-13 6.04216e-13 1.96166e-18 1.88954e-18
        </DataArray>
        <DataArray type="Float32" Name="X^w_cyanide" NumberOfComponents="1" format="ascii">
          5.21824e-06 5.21824e-06 5.21824e-06 5.21824e-06 5.21824e-06 5.21824e-06 5.21824e-06 5.21824e-06 5.21823e-06 5.21823e-06 5.21822e-06 5.2182e-06
          5.21818e-06 5.21815e-06 5.21812e-06 5.21807e-06 5.218e-06 5.21791e-06 5.21778e-06 5.2176e-06 5.21735e-06 5.217e-06 5.21648e-06 5.2157e-06
          5.21496e-06 6.60096e-06 8.74652e-06 1.23911e-05 1.94642e-05 1.92386e-05
        </DataArray>
        <DataArray type="Float32" Name="X^w_citrate" NumberOfComponents="1" format="ascii">
          0.000141796 0.000141796 0.000141796 0.000141796 0.000141796 0.000141796 0.000141796 0.000141796 0.000141796 0.000141796 0.000141796 0.000141796
          0.000141796 0.000141795 0.000141795 0.000141795 0.000141794 0.000141794 0.000141793 0.000141791 0.000141789 0.000141787 0.000141783 0.000141777
          0.000141768 0.000141754 0.000141727 0.000141663 0.000141455 0.000139816
        </DataArray>
        <DataArray type="Float32" Name="X^w_substrate" NumberOfComponents="1" format="ascii">
          1.45725e-11 1.93779e-11 2.57665e-11 3.42597e-11 4.55508e-11 6.05625e-11 8.05225e-11 1.07067e-10 1.42376e-10 1.89364e-10 2.51929e-10 3.35305e-10
          4.46544e-10 5.95195e-10 7.94277e-10 1.06169e-09 1.42235e-09 1.91137e-09 2.57927e-09 3.50031e-09 4.78696e-09 6.61601e-09 9.27872e-09 1.32852e-08
          1.96039e-08 3.02866e-08 5.04232e-08 9.60692e-08 2.44096e-07 1.4001e-06
        </DataArray>
        <DataArray type="Float32" Name="m^w_H2O" NumberOfComponents="1" format="ascii">
          55492.6 55492.5 55492.5 55492.5 55492.5 55492.5 55492.5 55492.5 55492.5 55492.5 55492.5 55492.5
          55492.4 55492.4 55492.4 55492.4 55492.4 55492.4 55492.4 55492.4 55492.4 55492.4 55492.4 55492.3
          55492.3 55492.3 55492.1 55491.9 55491.5 55491.6
        </DataArray>
        <DataArray type="Float32" Name="m^w_Air" NumberOfComponents="1" format="ascii">
          0 0 0 0 0 0 0 0 0 0 0 0
          0 0 0 0 0 0 0 0 0 0 0 0
          0 0 0 0 0 0
        </DataArray>
        <DataArray type="Float32" Name="m^w_AuComplex" NumberOfComponents="1" format="ascii">
          7.26095e-13 7.24759e-13 7.24727e-13 7.24693e-13 7.24753e-13 7.24755e-13 7.24742e-13 7.24636e-13 7.24594e-13 7.24714e-13 7.2467e-13 7.24702e-13
          7.24656e-13 7.24669e-13 7.24585e-13 7.24685e-13 7.24604e-13 7.24629e-13 7.24571e-13 7.24537e-13 7.24423e-13 7.24456e-13 7.91024e-13 1.48687e-10
          3.53585e-07 5.47543e-07 9.30691e-07 1.80891e-06 8.89634e-12 8.66148e-12
        </DataArray>
        <DataArray type="Float32" Name="m^w_nanoAu" NumberOfComponents="1" format="ascii">
          2.68458e-15 2.67969e-15 2.67958e-15 2.67945e-15 2.67967e-15 2.67968e-15 2.67963e-15 2.67924e-15 2.67909e-15 2.67953e-15 2.67937e-15 2.67949e-15
          2.67933e-15 2.67938e-15 2.67909e-15 2.67946e-15 2.67919e-15 2.67931e-15 2.67913e-15 2.67925e-15 2.69723e-15 4.39456e-15 1.61607e-13 1.47025e-11
          1.31158e-09 1.6612e-09 2.2027e-09 3.06709e-09 9.95769e-15 9.59161e-15
        </DataArray>
        <DataArray type="Float32" Name="m^w_cyanide" NumberOfComponents="1" format="ascii">
          0.200518 0.200518 0.200518 0.200518 0.200518 0.200518 0.200518 0.200518 0.200518 0.200517 0.200517 0.200516
          0.200516 0.200515 0.200513 0.200511 0.200509 0.200505 0.2005 0.200493 0.200483 0.20047 0.20045 0.20042
          0.200391 0.25365 0.336096 0.476145 0.747934 0.739267
        </DataArray>
        <DataArray type="Float32" Name="m^w_citrate" NumberOfComponents="1" format="ascii">
          0.749743 0.749743 0.749743 0.749743 0.749743 0.749742 0.749742 0.749742 0.749741 0.749741 0.74974 0.74974
          0.749739 0.749737 0.749736 0.749734 0.749731 0.749727 0.749722 0.749715 0.749705 0.749691 0.749671 0.749641
          0.749594 0.749518 0.749373 0.749038 0.747937 0.739269
        </DataArray>
        <DataArray type="Float32" Name="m^w_substrate" NumberOfComponents="1" format="ascii">
          8.08746e-08 1.07544e-07 1.42999e-07 1.90135e-07 2.52799e-07 3.36111e-07 4.46885e-07 5.94199e-07 7.90159e-07 1.05093e-06 1.39816e-06 1.86088e-06
          2.47824e-06 3.30322e-06 4.40808e-06 5.89219e-06 7.89375e-06 1.06078e-05 1.43145e-05 1.9426e-05 2.65667e-05 3.67175e-05 5.1495e-05 7.37302e-05
          0.000108797 0.000168084 0.000279839 0.000533164 0.00135468 0.00777025
        </DataArray>
        <DataArray type="Float32" Name="process rank" NumberOfComponents="1" format="ascii">
          0 0 0 0 0 0 0 0 0 0 0 0
          0 0 0 0 0 0 0 0 0 0 0 0
          0 0 0 0 0 0
        </DataArray>
      </CellData>
      <Points>
        <DataArray type="Float32" Name="Coordinates" NumberOfComponents="3" format="ascii">
          0 0 0 0.5 0 0 0 0.0333333 0 0.5 0.0333333 0
          0 0.0666667 0 0.5 0.0666667 0 0 0.1 0 0.5 0.1 0
          0 0.133333 0 0.5 0.133333 0 0 0.166667 0 0.5 0.166667 0
          0 0.2 0 0.5 0.2 0 0 0.233333 0 0.5 0.233333 0
          0 0.266667 0 0.5 0.266667 0 0 0.3 0 0.5 0.3 0
          0 0.333333 0 0.5 0.333333 0 0 0.366667 0 0.5 0.366667 0
          0 0.4 0 0.5 0.4 0 0 0.433333 0 0.5 0.433333 0
          0 0.466667 0 0.5 0.466667 0 0 0.5 0 0.5 0.5 0
          0 0.533333 0 0.5 0.533333 0 0 0.566667 0 0.5 0.566667 0
          0 0.6 0 0.5 0.6 0 0 0.633333 0 0.5 0.633333 0
          0 0.666667 0 0.5 0.666667 0 0 0.7 0 0.5 0.7 0
          0 0.733333 0 0.5 0.733333 0 0 0.766667 0 0.5 0.766667 0
          0 0.8 0 0.5 0.8 0 0 0.833333 0 0.5 0.833333 0
          0 0.866667 0 0.5 0.866667 0 0 0.9 0 0.5 0.9 0
          0 0.933333 0 0.5 0.933333 0 0 0.966667 0 0.5 0.966667 0
          0 1 0 0.5 1 0
        </DataArray>
      </Points>
      <Cells>
        <DataArray type="Int32" Name="connectivity" NumberOfComponents="1" format="ascii">
          0 1 3 2 2 3 5 4 4 5 7 6
          6 7 9 8 8 9 11 10 10 11 13 12
          12 13 15 14 14 15 17 16 16 17 19 18
          18 19 21 20 20 21 23 22 22 23 25 24
          24 25 27 26 26 27 29 28 28 29 31 30
          30 31 33 32 32 33 35 34 34 35 37 36
          36 37 39 38 38 39 41 40 40 41 43 42
          42 43 45 44 44 45 47 46 46 47 49 48
          48 49 51 50 50 51 53 52 52 53 55 54
          54 55 57 56 56 57 59 58 58 59 61 60
        </DataArray>
        <DataArray type="Int32" Name="offsets" NumberOfComponents="1" format="ascii">
          4 8 12 16 20 24 28 32 36 40 44 48
          52 56 60 64 68 72 76 80 84 88 92 96
          100 104 108 112 116 120
        </DataArray>
        <DataArray type="UInt8" Name="types" NumberOfComponents="1" format="ascii">
          9 9 9 9 9 9 9 9 9 9 9 9
          9 9 9 9 9 9 9 9 9 9 9 9
          9 9 9 9 9 9
        </DataArray>
      </Cells>
    </Piece>
  </UnstructuredGrid>
</VTKFile>
