<?xml version="1.0"?>
<VTKFile type="UnstructuredGrid" version="0.1" byte_order="LittleEndian">
  <UnstructuredGrid>
    <Piece NumberOfCells="30" NumberOfPoints="62">
      <CellData Scalars="Sg">
        <DataArray type="Float32" Name="Sg" NumberOfComponents="1" format="ascii">
          0 0 0 0 0 0 0 0 0 0 0 0
          0 0 0 0 0 0 0 0 0 0 0 0
          0 0 0 0 0 0
        </DataArray>
        <DataArray type="Float32" Name="Sl" NumberOfComponents="1" format="ascii">
          1 1 1 1 1 1 1 1 1 1 1 1
          1 1 1 1 1 1 1 1 1 1 1 1
          1 1 1 1 1 1
        </DataArray>
        <DataArray type="Float32" Name="pg" NumberOfComponents="1" format="ascii">
          24687.8 24360.9 24034 23707 23380.1 23053.1 22726.2 22399.3 22072.3 21745.4 21418.4 21091.5
          20764.6 20437.6 20110.7 19783.7 19456.8 19129.8 18802.9 18476 18149 17822.1 17495.1 17168.2
          16841.3 16514.3 16187.4 15860.4 15533.5 15207.4
        </DataArray>
        <DataArray type="Float32" Name="pl" NumberOfComponents="1" format="ascii">
          110628 110301 109974 109647 109320 108993 108666 108339 108012 107685 107358 107031
          106704 106377 106050 105723 105396 105070 104743 104416 104089 103762 103435 103108
          102781 102454 102127 101800 101473 101147
        </DataArray>
        <DataArray type="Float32" Name="pc" NumberOfComponents="1" format="ascii">
          -85939.7 -85939.7 -85939.7 -85939.7 -85939.7 -85939.7 -85939.7 -85939.7 -85939.7 -85939.7 -85939.7 -85939.7
          -85939.7 -85939.7 -85939.7 -85939.7 -85939.7 -85939.7 -85939.7 -85939.7 -85939.7 -85939.7 -85939.7 -85939.7
          -85939.7 -85939.7 -85939.7 -85939.7 -85939.7 -85939.7
        </DataArray>
        <DataArray type="Float32" Name="rhoL" NumberOfComponents="1" format="ascii">
          999.855 999.855 999.855 999.855 999.855 999.854 999.854 999.854 999.854 999.854 999.854 999.854
          999.853 999.853 999.853 999.853 999.853 999.853 999.852 999.852 999.852 999.852 999.852 999.852
          999.852 999.851 999.851 999.851 999.851 999.851
        </DataArray>
        <DataArray type="Float32" Name="rhoG" NumberOfComponents="1" format="ascii">
          0.30585 0.3018 0.29775 0.293699 0.289649 0.285598 0.281548 0.277498 0.273447 0.269397 0.265347 0.261296
          0.257246 0.253195 0.249145 0.245095 0.241044 0.236994 0.232944 0.228893 0.224843 0.220793 0.216742 0.212692
          0.208641 0.204591 0.200541 0.19649 0.19244 0.188399
        </DataArray>
        <DataArray type="Float32" Name="mobL" NumberOfComponents="1" format="ascii">
          722.171 722.17 722.17 722.17 722.17 722.17 722.169 722.169 722.169 722.169 722.169 722.169
          722.168 722.168 722.168 722.168 722.168 722.167 722.167 722.167 722.167 722.167 722.166 722.166
          722.166 722.166 722.166 722.166 722.165 722.165
        </DataArray>
        <DataArray type="Float32" Name="mobG" NumberOfComponents="1" format="ascii">
          0 0 0 0 0 0 0 0 0 0 0 0
          0 0 0 0 0 0 0 0 0 0 0 0
          0 0 0 0 0 0
        </DataArray>
        <DataArray type="Float32" Name="porosity" NumberOfComponents="1" format="ascii">
          0.298657 0.298657 0.298657 0.298657 0.298656 0.298656 0.298655 0.298654 0.298653 0.298651 0.298648 0.298644
          0.298639 0.298633 0.298623 0.298611 0.298594 0.298571 0.29854 0.298498 0.29844 0.298359 0.298244 0.298073
          0.297537 0.297086 0.29621 0.294038 0.284839 0.0692508
        </DataArray>
        <DataArray type="Float32" Name="temperature" NumberOfComponents="1" format="ascii">
          281.15 281.15 281.15 281.15 281.15 281.15 281.15 281.15 281.15 281.15 281.15 281.15
          281.15 281.15 281.15 281.15 281.15 281.15 281.15 281.15 281.15 281.15 281.15 281.15
          281.15 281.15 281.15 281.15 281.15 281.15
        </DataArray>
        <DataArray type="Float32" Name="phase presence" NumberOfComponents="1" format="ascii">
          1 1 1 1 1 1 1 1 1 1 1 1
          1 1 1 1 1 1 1 1 1 1 1 1
          1 1 1 1 1 1
        </DataArray>
        <DataArray type="Float32" Name="precipitateVolumeFraction_au" NumberOfComponents="1" format="ascii">
          5.52649e-10 5.52755e-10 5.52799e-10 5.52727e-10 5.52765e-10 5.52789e-10 5.52807e-10 5.52716e-10 5.52751e-10 5.52771e-10 5.52778e-10 5.52775e-10
          5.5275e-10 5.528e-10 5.52735e-10 5.52722e-10 5.52769e-10 5.52783e-10 5.52751e-10 5.52784e-10 5.52733e-10 5.52752e-10 5.52808e-10 8.64677e-10
          0.00026994 0.000269924 0.000269899 0.000269853 5.52272e-10 5.50991e-10
        </DataArray>
        <DataArray type="Float32" Name="precipitateVolumeFraction_nanoAu" NumberOfComponents="1" format="ascii">
          1.25161e-13 1.25284e-13 1.25326e-13 1.25259e-13 1.25288e-13 1.25301e-13 1.25307e-13 1.25256e-13 1.25273e-13 1.25279e-13 1.2528e-13 1.25277e-13
          1.25267e-13 1.2528e-13 1.25259e-13 1.25253e-13 1.25264e-13 1.25264e-13 1.25251e-13 1.25254e-13 1.25234e-13 1.25246e-13 1.37154e-13 2.5804e-11
          6.04041e-08 7.67289e-08 1.02188e-07 1.4558e-07 4.75425e-13 4.67566e-13
        </DataArray>
        <DataArray type="Float32" Name="precipitateVolumeFraction_d" NumberOfComponents="1" format="ascii">
          0.000671354 0.00067142 0.000671512 0.000671642 0.000671825 0.000672082 0.000672441 0.000672942 0.000673639 0.000674604 0.000675935 0.000677763
          0.000680265 0.000683673 0.000688301 0.000694565 0.000703032 0.000714472 0.000729963 0.000751045 0.000780008 0.000820407 0.000878092 0.000963417
          0.00109653 0.00132224 0.00175977 0.00284603 0.00758068 0.115375
        </DataArray>
        <DataArray type="Float32" Name="precipitateVolumeFraction_p" NumberOfComponents="1" format="ascii">
          0.000671354 0.00067142 0.000671512 0.000671642 0.000671825 0.000672082 0.000672441 0.000672942 0.000673639 0.000674604 0.000675935 0.000677763
          0.000680265 0.000683673 0.000688301 0.000694565 0.000703032 0.000714472 0.000729963 0.000751045 0.000780008 0.000820407 0.000878092 0.000963417
          0.00109653 0.00132224 0.00175977 0.00284603 0.00758068 0.115375
        </DataArray>
        <DataArray type="Float32" Name="K" NumberOfComponents="1" format="ascii">
          9.82859e-11 9.82857e-11 9.82855e-11 9.82851e-11 9.82847e-11 9.8284e-11 9.82831e-11 9.82818e-11 9.82801e-11 9.82776e-11 9.82743e-11 9.82696e-11
          9.82633e-11 9.82546e-11 9.82429e-11 9.8227e-11 9.82056e-11 9.81766e-11 9.81374e-11 9.8084e-11 9.80107e-11 9.79086e-11 9.77629e-11 9.75477e-11
          9.68742e-11 9.63101e-11 9.52243e-11 9.2572e-11 8.20013e-11 6.95732e-13
        </DataArray>
        <DataArray type="Float32" Name="X^w_H2O" NumberOfComponents="1" format="ascii">
          0.999853 0.999853 0.999853 0.999853 0.999853 0.999853 0.999853 0.999853 0.999853 0.999853 0.999853 0.999853
          0.999853 0.999853 0.999853 0.999853 0.999853 0.999853 0.999853 0.999853 0.999853 0.999853 0.999853 0.999853
          0.999853 0.999852 0.99985 0.999846 0.999839 0.99984
        </DataArray>
        <DataArray type="Float32" Name="X^w_Air" NumberOfComponents="1" format="ascii">
          0 0 0 0 0 0 0 0 0 0 0 0
          0 0 0 0 0 0 0 0 0 0 0 0
          0 0 0 0 0 0
        </DataArray>
        <DataArray type="Float32" Name="X^w_AuComplex" NumberOfComponents="1" format="ascii">
          1.42636e-16 1.42757e-16 1.42799e-16 1.4273e-16 1.42759e-16 1.42771e-16 1.42777e-16 1.42723e-16 1.4274e-16 1.42746e-16 1.42746e-16 1.42741e-16
          1.42729e-16 1.42742e-16 1.42717e-16 1.42709e-16 1.42719e-16 1.42716e-16 1.42699e-16 1.42698e-16 1.42669e-16 1.4267e-16 1.56053e-16 2.94246e-14
          6.89117e-11 1.07474e-10 1.84529e-10 3.64057e-10 1.83933e-15 1.78678e-15
        </DataArray>
        <DataArray type="Float32" Name="X^w_nanoAu" NumberOfComponents="1" format="ascii">
          5.45128e-19 5.4566e-19 5.45839e-19 5.45551e-19 5.45676e-19 5.45731e-19 5.45757e-19 5.45539e-19 5.45609e-19 5.45637e-19 5.45641e-19 5.45627e-19
          5.45581e-19 5.45639e-19 5.45544e-19 5.45519e-19 5.45563e-19 5.45561e-19 5.45505e-19 5.45552e-19 5.49156e-19 8.91401e-19 3.25721e-17 2.96075e-15
          2.63808e-13 3.3529e-13 4.46775e-13 6.265e-13 2.06372e-18 1.98334e-18
        </DataArray>
        <DataArray type="Float32" Name="X^w_cyanide" NumberOfComponents="1" format="ascii">
          5.07419e-06 5.07416e-06 5.07412e-06 5.07409e-06 5.07405e-06 5.07402e-06 5.07398e-06 5.07394e-06 5.07391e-06 5.07387e-06 5.07383e-06 5.07379e-06
          5.07374e-06 5.07369e-06 5.07362e-06 5.07355e-06 5.07346e-06 5.07335e-06 5.0732e-06 5.073e-06 5.07273e-06 5.07234e-06 5.07176e-06 5.07087e-06
          5.06994e-06 6.4398e-06 8.57527e-06 1.22389e-05 1.9454e-05 1.92099e-05
        </DataArray>
        <DataArray type="Float32" Name="X^w_citrate" NumberOfComponents="1" format="ascii">
          0.000141796 0.000141796 0.000141796 0.000141796 0.000141796 0.000141796 0.000141796 0.000141796 0.000141796 0.000141796 0.000141796 0.000141796
          0.000141796 0.000141795 0.000141795 0.000141795 0.000141795 0.000141794 0.000141793 0.000141792 0.00014179 0.000141787 0.000141783 0.000141777
          0.000141767 0.00014175 0.000141716 0.000141638 0.000141382 0.000139607
        </DataArray>
        <DataArray type="Float32" Name="X^w_substrate" NumberOfComponents="1" format="ascii">
          6.33988e-12 8.73545e-12 1.20355e-11 1.65815e-11 2.28439e-11 3.1471e-11 4.3357e-11 5.97359e-11 8.23119e-11 1.13443e-10 1.56395e-10 2.15708e-10
          2.97712e-10 4.11271e-10 5.68882e-10 7.883e-10 1.09502e-09 1.52613e-09 2.13655e-09 3.0094e-09 4.27395e-09 6.13857e-09 8.95465e-09 1.33504e-08
          2.05393e-08 3.31254e-08 5.76e-08 1.14235e-07 2.95847e-07 1.54699e-06
        </DataArray>
        <DataArray type="Float32" Name="m^w_H2O" NumberOfComponents="1" format="ascii">
          55492.6 55492.6 55492.5 55492.5 55492.5 55492.5 55492.5 55492.5 55492.5 55492.5 55492.5 55492.5
          55492.5 55492.4 55492.4 55492.4 55492.4 55492.4 55492.4 55492.4 55492.4 55492.4 55492.4 55492.4
          55492.3 55492.3 55492.1 55491.9 55491.5 55491.6
        </DataArray>
        <DataArray type="Float32" Name="m^w_Air" NumberOfComponents="1" format="ascii">
          0 0 0 0 0 0 0 0 0 0 0 0
          0 0 0 0 0 0 0 0 0 0 0 0
          0 0 0 0 0 0
        </DataArray>
        <DataArray type="Float32" Name="m^w_AuComplex" NumberOfComponents="1" format="ascii">
          7.24046e-13 7.24662e-13 7.24872e-13 7.24525e-13 7.24669e-13 7.24731e-13 7.24761e-13 7.24489e-13 7.24571e-13 7.24601e-13 7.24601e-13 7.24579e-13
          7.24515e-13 7.24585e-13 7.24457e-13 7.24416e-13 7.24464e-13 7.24452e-13 7.24363e-13 7.24357e-13 7.24209e-13 7.24216e-13 7.92149e-13 1.49364e-10
          3.49807e-07 5.45556e-07 9.36697e-07 1.84801e-06 9.33672e-12 9.07e-12
        </DataArray>
        <DataArray type="Float32" Name="m^w_nanoAu" NumberOfComponents="1" format="ascii">
          2.76717e-15 2.76987e-15 2.77077e-15 2.76932e-15 2.76995e-15 2.77023e-15 2.77036e-15 2.76925e-15 2.76961e-15 2.76975e-15 2.76977e-15 2.76969e-15
          2.76946e-15 2.76976e-15 2.76928e-15 2.76915e-15 2.76937e-15 2.76936e-15 2.76907e-15 2.76931e-15 2.78761e-15 4.5249e-15 1.65341e-13 1.50292e-11
          1.33913e-09 1.70199e-09 2.2679e-09 3.18021e-09 1.04757e-14 1.00677e-14
        </DataArray>
        <DataArray type="Float32" Name="m^w_cyanide" NumberOfComponents="1" format="ascii">
          0.194983 0.194982 0.19498 0.194979 0.194977 0.194976 0.194975 0.194973 0.194972 0.19497 0.194969 0.194967
          0.194965 0.194963 0.194961 0.194958 0.194954 0.19495 0.194944 0.194937 0.194926 0.194911 0.194889 0.194855
          0.194819 0.247458 0.329516 0.470294 0.747546 0.738166
        </DataArray>
        <DataArray type="Float32" Name="m^w_citrate" NumberOfComponents="1" format="ascii">
          0.749742 0.749742 0.749742 0.749742 0.749742 0.749742 0.749741 0.749741 0.749741 0.74974 0.74974 0.749739
          0.749739 0.749738 0.749736 0.749735 0.749732 0.749729 0.749724 0.749718 0.749708 0.749694 0.749673 0.74964
          0.749586 0.749496 0.749319 0.748901 0.747549 0.738167
        </DataArray>
        <DataArray type="Float32" Name="m^w_substrate" NumberOfComponents="1" format="ascii">
          3.51852e-08 4.84802e-08 6.6795e-08 9.20244e-08 1.26779e-07 1.74658e-07 2.40624e-07 3.31523e-07 4.56816e-07 6.29585e-07 8.67962e-07 1.19714e-06
          1.65224e-06 2.28247e-06 3.15719e-06 4.37491e-06 6.07713e-06 8.46971e-06 1.18575e-05 1.67016e-05 2.37195e-05 3.40679e-05 4.96965e-05 7.40919e-05
          0.000113989 0.000183839 0.000319668 0.000633982 0.00164189 0.00858549
        </DataArray>
        <DataArray type="Float32" Name="process rank" NumberOfComponents="1" format="ascii">
          0 0 0 0 0 0 0 0 0 0 0 0
          0 0 0 0 0 0 0 0 0 0 0 0
          0 0 0 0 0 0
        </DataArray>
      </CellData>
      <Points>
        <DataArray type="Float32" Name="Coordinates" NumberOfComponents="3" format="ascii">
          0 0 0 0.5 0 0 0 0.0333333 0 0.5 0.0333333 0
          0 0.0666667 0 0.5 0.0666667 0 0 0.1 0 0.5 0.1 0
          0 0.133333 0 0.5 0.133333 0 0 0.166667 0 0.5 0.166667 0
          0 0.2 0 0.5 0.2 0 0 0.233333 0 0.5 0.233333 0
          0 0.266667 0 0.5 0.266667 0 0 0.3 0 0.5 0.3 0
          0 0.333333 0 0.5 0.333333 0 0 0.366667 0 0.5 0.366667 0
          0 0.4 0 0.5 0.4 0 0 0.433333 0 0.5 0.433333 0
          0 0.466667 0 0.5 0.466667 0 0 0.5 0 0.5 0.5 0
          0 0.533333 0 0.5 0.533333 0 0 0.566667 0 0.5 0.566667 0
          0 0.6 0 0.5 0.6 0 0 0.633333 0 0.5 0.633333 0
          0 0.666667 0 0.5 0.666667 0 0 0.7 0 0.5 0.7 0
          0 0.733333 0 0.5 0.733333 0 0 0.766667 0 0.5 0.766667 0
          0 0.8 0 0.5 0.8 0 0 0.833333 0 0.5 0.833333 0
          0 0.866667 0 0.5 0.866667 0 0 0.9 0 0.5 0.9 0
          0 0.933333 0 0.5 0.933333 0 0 0.966667 0 0.5 0.966667 0
          0 1 0 0.5 1 0
        </DataArray>
      </Points>
      <Cells>
        <DataArray type="Int32" Name="connectivity" NumberOfComponents="1" format="ascii">
          0 1 3 2 2 3 5 4 4 5 7 6
          6 7 9 8 8 9 11 10 10 11 13 12
          12 13 15 14 14 15 17 16 16 17 19 18
          18 19 21 20 20 21 23 22 22 23 25 24
          24 25 27 26 26 27 29 28 28 29 31 30
          30 31 33 32 32 33 35 34 34 35 37 36
          36 37 39 38 38 39 41 40 40 41 43 42
          42 43 45 44 44 45 47 46 46 47 49 48
          48 49 51 50 50 51 53 52 52 53 55 54
          54 55 57 56 56 57 59 58 58 59 61 60
        </DataArray>
        <DataArray type="Int32" Name="offsets" NumberOfComponents="1" format="ascii">
          4 8 12 16 20 24 28 32 36 40 44 48
          52 56 60 64 68 72 76 80 84 88 92 96
          100 104 108 112 116 120
        </DataArray>
        <DataArray type="UInt8" Name="types" NumberOfComponents="1" format="ascii">
          9 9 9 9 9 9 9 9 9 9 9 9
          9 9 9 9 9 9 9 9 9 9 9 9
          9 9 9 9 9 9
        </DataArray>
      </Cells>
    </Piece>
  </UnstructuredGrid>
</VTKFile>
