<?xml version="1.0"?>
<VTKFile type="UnstructuredGrid" version="0.1" byte_order="LittleEndian">
  <UnstructuredGrid>
    <Piece NumberOfCells="30" NumberOfPoints="62">
      <CellData Scalars="Sg">
        <DataArray type="Float32" Name="Sg" NumberOfComponents="1" format="ascii">
          0 0 0 0 0 0 0 0 0 0 0 0
          0 0 0 0 0 0 0 0 0 0 0 0
          0 0 0 0 0 0
        </DataArray>
        <DataArray type="Float32" Name="Sl" NumberOfComponents="1" format="ascii">
          1 1 1 1 1 1 1 1 1 1 1 1
          1 1 1 1 1 1 1 1 1 1 1 1
          1 1 1 1 1 1
        </DataArray>
        <DataArray type="Float32" Name="pg" NumberOfComponents="1" format="ascii">
          24687.8 24360.9 24034 23707 23380.1 23053.1 22726.2 22399.3 22072.3 21745.4 21418.4 21091.5
          20764.6 20437.6 20110.7 19783.7 19456.8 19129.8 18802.9 18476 18149 17822.1 17495.1 17168.2
          16841.3 16514.3 16187.4 15860.4 15533.5 15208.5
        </DataArray>
        <DataArray type="Float32" Name="pl" NumberOfComponents="1" format="ascii">
          110628 110301 109974 109647 109320 108993 108666 108339 108012 107685 107358 107031
          106704 106377 106050 105723 105396 105070 104743 104416 104089 103762 103435 103108
          102781 102454 102127 101800 101473 101148
        </DataArray>
        <DataArray type="Float32" Name="pc" NumberOfComponents="1" format="ascii">
          -85939.7 -85939.7 -85939.7 -85939.7 -85939.7 -85939.7 -85939.7 -85939.7 -85939.7 -85939.7 -85939.7 -85939.7
          -85939.7 -85939.7 -85939.7 -85939.7 -85939.7 -85939.7 -85939.7 -85939.7 -85939.7 -85939.7 -85939.7 -85939.7
          -85939.7 -85939.7 -85939.7 -85939.7 -85939.7 -85939.7
        </DataArray>
        <DataArray type="Float32" Name="rhoL" NumberOfComponents="1" format="ascii">
          999.855 999.855 999.855 999.855 999.855 999.854 999.854 999.854 999.854 999.854 999.854 999.854
          999.853 999.853 999.853 999.853 999.853 999.853 999.852 999.852 999.852 999.852 999.852 999.852
          999.852 999.851 999.851 999.851 999.851 999.851
        </DataArray>
        <DataArray type="Float32" Name="rhoG" NumberOfComponents="1" format="ascii">
          0.30585 0.3018 0.29775 0.293699 0.289649 0.285598 0.281548 0.277498 0.273447 0.269397 0.265347 0.261296
          0.257246 0.253195 0.249145 0.245095 0.241044 0.236994 0.232944 0.228893 0.224843 0.220793 0.216742 0.212692
          0.208641 0.204591 0.200541 0.19649 0.19244 0.188413
        </DataArray>
        <DataArray type="Float32" Name="mobL" NumberOfComponents="1" format="ascii">
          722.171 722.17 722.17 722.17 722.17 722.17 722.169 722.169 722.169 722.169 722.169 722.169
          722.168 722.168 722.168 722.168 722.168 722.167 722.167 722.167 722.167 722.167 722.166 722.166
          722.166 722.166 722.166 722.166 722.165 722.165
        </DataArray>
        <DataArray type="Float32" Name="mobG" NumberOfComponents="1" format="ascii">
          0 0 0 0 0 0 0 0 0 0 0 0
          0 0 0 0 0 0 0 0 0 0 0 0
          0 0 0 0 0 0
        </DataArray>
        <DataArray type="Float32" Name="porosity" NumberOfComponents="1" format="ascii">
          0.298792 0.298792 0.298792 0.298792 0.298792 0.298791 0.298791 0.29879 0.298788 0.298787 0.298784 0.298781
          0.298776 0.29877 0.298761 0.29875 0.298734 0.298713 0.298685 0.298646 0.298593 0.298518 0.29841 0.29825
          0.297728 0.297295 0.296433 0.294192 0.283591 0.0523765
        </DataArray>
        <DataArray type="Float32" Name="temperature" NumberOfComponents="1" format="ascii">
          281.15 281.15 281.15 281.15 281.15 281.15 281.15 281.15 281.15 281.15 281.15 281.15
          281.15 281.15 281.15 281.15 281.15 281.15 281.15 281.15 281.15 281.15 281.15 281.15
          281.15 281.15 281.15 281.15 281.15 281.15
        </DataArray>
        <DataArray type="Float32" Name="phase presence" NumberOfComponents="1" format="ascii">
          1 1 1 1 1 1 1 1 1 1 1 1
          1 1 1 1 1 1 1 1 1 1 1 1
          1 1 1 1 1 1
        </DataArray>
        <DataArray type="Float32" Name="precipitateVolumeFraction_au" NumberOfComponents="1" format="ascii">
          5.5265e-10 5.52757e-10 5.52801e-10 5.52729e-10 5.52767e-10 5.5279e-10 5.52808e-10 5.52718e-10 5.52753e-10 5.52773e-10 5.52779e-10 5.52777e-10
          5.52751e-10 5.52801e-10 5.52737e-10 5.52724e-10 5.52771e-10 5.52784e-10 5.52752e-10 5.52786e-10 5.52734e-10 5.52753e-10 5.52922e-10 1.10772e-09
          0.000269941 0.000269924 0.0002699 0.000269852 5.52273e-10 5.50985e-10
        </DataArray>
        <DataArray type="Float32" Name="precipitateVolumeFraction_nanoAu" NumberOfComponents="1" format="ascii">
          1.23645e-13 1.23669e-13 1.23678e-13 1.23662e-13 1.23671e-13 1.23676e-13 1.2368e-13 1.23659e-13 1.23667e-13 1.23671e-13 1.23672e-13 1.23671e-13
          1.23665e-13 1.23675e-13 1.2366e-13 1.23656e-13 1.23665e-13 1.23666e-13 1.23655e-13 1.23658e-13 1.23641e-13 1.23653e-13 1.35566e-13 2.58029e-11
          6.03672e-08 7.66888e-08 1.0215e-07 1.45565e-07 4.7416e-13 4.66794e-13
        </DataArray>
        <DataArray type="Float32" Name="precipitateVolumeFraction_d" NumberOfComponents="1" format="ascii">
          0.000603752 0.000603812 0.000603897 0.000604016 0.000604184 0.00060442 0.000604749 0.000605208 0.000605846 0.000606729 0.000607947 0.00060962
          0.000611909 0.000615027 0.000619263 0.000625002 0.000632764 0.000643264 0.000657505 0.000676925 0.000703677 0.000741125 0.000794853 0.000874857
          0.00100087 0.00121769 0.00164844 0.00276913 0.00820446 0.123812
        </DataArray>
        <DataArray type="Float32" Name="precipitateVolumeFraction_p" NumberOfComponents="1" format="ascii">
          0.000603752 0.000603812 0.000603897 0.000604016 0.000604184 0.00060442 0.000604749 0.000605208 0.000605846 0.000606729 0.000607947 0.00060962
          0.000611909 0.000615027 0.000619263 0.000625002 0.000632764 0.000643264 0.000657505 0.000676925 0.000703677 0.000741125 0.000794853 0.000874857
          0.00100087 0.00121769 0.00164844 0.00276913 0.00820446 0.123812
        </DataArray>
        <DataArray type="Float32" Name="K" NumberOfComponents="1" format="ascii">
          9.84574e-11 9.84572e-11 9.8457e-11 9.84567e-11 9.84563e-11 9.84557e-11 9.84548e-11 9.84537e-11 9.84521e-11 9.84498e-11 9.84467e-11 9.84425e-11
          9.84367e-11 9.84288e-11 9.8418e-11 9.84034e-11 9.83837e-11 9.83571e-11 9.8321e-11 9.82718e-11 9.8204e-11 9.81091e-11 9.79732e-11 9.77711e-11
          9.71141e-11 9.6571e-11 9.54996e-11 9.27578e-11 8.0647e-11 2.90383e-13
        </DataArray>
        <DataArray type="Float32" Name="X^w_H2O" NumberOfComponents="1" format="ascii">
          0.999853 0.999853 0.999853 0.999853 0.999853 0.999853 0.999853 0.999853 0.999853 0.999853 0.999853 0.999853
          0.999853 0.999853 0.999853 0.999853 0.999853 0.999853 0.999853 0.999853 0.999853 0.999853 0.999853 0.999853
          0.999853 0.999852 0.99985 0.999846 0.999839 0.99984
        </DataArray>
        <DataArray type="Float32" Name="X^w_Air" NumberOfComponents="1" format="ascii">
          0 0 0 0 0 0 0 0 0 0 0 0
          0 0 0 0 0 0 0 0 0 0 0 0
          0 0 0 0 0 0
        </DataArray>
        <DataArray type="Float32" Name="X^w_AuComplex" NumberOfComponents="1" format="ascii">
          1.41087e-16 1.41114e-16 1.41125e-16 1.41107e-16 1.41116e-16 1.41122e-16 1.41126e-16 1.41103e-16 1.41112e-16 1.41116e-16 1.41117e-16 1.41116e-16
          1.41108e-16 1.4112e-16 1.41101e-16 1.41095e-16 1.41104e-16 1.41103e-16 1.41088e-16 1.41087e-16 1.41061e-16 1.41064e-16 1.5445e-16 2.94136e-14
          6.88438e-11 1.07382e-10 1.84414e-10 3.63999e-10 1.83535e-15 1.78584e-15
        </DataArray>
        <DataArray type="Float32" Name="X^w_nanoAu" NumberOfComponents="1" format="ascii">
          5.38517e-19 5.3862e-19 5.38661e-19 5.38592e-19 5.38628e-19 5.3865e-19 5.38666e-19 5.38579e-19 5.38611e-19 5.3863e-19 5.38634e-19 5.38629e-19
          5.38602e-19 5.38646e-19 5.38579e-19 5.3856e-19 5.38596e-19 5.38596e-19 5.38549e-19 5.38596e-19 5.42199e-19 8.83629e-19 3.2508e-17 2.95726e-15
          2.63647e-13 3.35121e-13 4.46633e-13 6.26524e-13 2.05904e-18 1.98218e-18
        </DataArray>
        <DataArray type="Float32" Name="X^w_cyanide" NumberOfComponents="1" format="ascii">
          5.07097e-06 5.07097e-06 5.07097e-06 5.07097e-06 5.07097e-06 5.07097e-06 5.07096e-06 5.07096e-06 5.07095e-06 5.07094e-06 5.07093e-06 5.07092e-06
          5.0709e-06 5.07087e-06 5.07083e-06 5.07078e-06 5.07071e-06 5.07062e-06 5.07049e-06 5.07031e-06 5.07006e-06 5.0697e-06 5.06916e-06 5.06835e-06
          5.06756e-06 6.43722e-06 8.57282e-06 1.2238e-05 1.94614e-05 1.92305e-05
        </DataArray>
        <DataArray type="Float32" Name="X^w_citrate" NumberOfComponents="1" format="ascii">
          0.000141796 0.000141796 0.000141796 0.000141796 0.000141796 0.000141796 0.000141796 0.000141796 0.000141796 0.000141796 0.000141796 0.000141796
          0.000141795 0.000141795 0.000141795 0.000141795 0.000141794 0.000141793 0.000141793 0.000141791 0.000141789 0.000141787 0.000141783 0.000141777
          0.000141768 0.000141753 0.000141723 0.000141656 0.000141435 0.000139757
        </DataArray>
        <DataArray type="Float32" Name="X^w_substrate" NumberOfComponents="1" format="ascii">
          1.20879e-11 1.62128e-11 2.17438e-11 2.91604e-11 3.91051e-11 5.24403e-11 7.03238e-11 9.43106e-11 1.26492e-10 1.69686e-10 2.27692e-10 3.05657e-10
          4.10567e-10 5.51963e-10 7.42953e-10 1.0017e-09 1.35367e-09 1.83502e-09 2.49811e-09 3.42042e-09 4.72001e-09 6.58347e-09 9.31981e-09 1.34726e-08
          2.00772e-08 3.13326e-08 5.26947e-08 1.01311e-07 2.58236e-07 1.44161e-06
        </DataArray>
        <DataArray type="Float32" Name="m^w_H2O" NumberOfComponents="1" format="ascii">
          55492.6 55492.6 55492.5 55492.5 55492.5 55492.5 55492.5 55492.5 55492.5 55492.5 55492.5 55492.5
          55492.5 55492.4 55492.4 55492.4 55492.4 55492.4 55492.4 55492.4 55492.4 55492.4 55492.4 55492.4
          55492.3 55492.3 55492.1 55491.9 55491.5 55491.6
        </DataArray>
        <DataArray type="Float32" Name="m^w_Air" NumberOfComponents="1" format="ascii">
          0 0 0 0 0 0 0 0 0 0 0 0
          0 0 0 0 0 0 0 0 0 0 0 0
          0 0 0 0 0 0
        </DataArray>
        <DataArray type="Float32" Name="m^w_AuComplex" NumberOfComponents="1" format="ascii">
          7.16183e-13 7.16321e-13 7.16377e-13 7.16283e-13 7.16331e-13 7.16361e-13 7.16383e-13 7.16264e-13 7.16307e-13 7.16331e-13 7.16336e-13 7.16329e-13
          7.1629e-13 7.16347e-13 7.16254e-13 7.16224e-13 7.16267e-13 7.1626e-13 7.16185e-13 7.16181e-13 7.16049e-13 7.16065e-13 7.84014e-13 1.49308e-10
          3.49462e-07 5.45089e-07 9.36117e-07 1.84772e-06 9.31653e-12 9.06521e-12
        </DataArray>
        <DataArray type="Float32" Name="m^w_nanoAu" NumberOfComponents="1" format="ascii">
          2.73361e-15 2.73413e-15 2.73434e-15 2.73399e-15 2.73417e-15 2.73428e-15 2.73436e-15 2.73392e-15 2.73408e-15 2.73418e-15 2.7342e-15 2.73418e-15
          2.73404e-15 2.73426e-15 2.73392e-15 2.73382e-15 2.734e-15 2.734e-15 2.73376e-15 2.734e-15 2.75229e-15 4.48545e-15 1.65016e-13 1.50115e-11
          1.33832e-09 1.70113e-09 2.26718e-09 3.18034e-09 1.0452e-14 1.00619e-14
        </DataArray>
        <DataArray type="Float32" Name="m^w_cyanide" NumberOfComponents="1" format="ascii">
          0.194859 0.194859 0.194859 0.194859 0.194859 0.194859 0.194859 0.194859 0.194858 0.194858 0.194857 0.194857
          0.194856 0.194855 0.194853 0.194852 0.194849 0.194845 0.19484 0.194833 0.194824 0.19481 0.194789 0.194758
          0.194727 0.247358 0.329421 0.470261 0.747828 0.738956
        </DataArray>
        <DataArray type="Float32" Name="m^w_citrate" NumberOfComponents="1" format="ascii">
          0.749742 0.749742 0.749742 0.749742 0.749742 0.749741 0.749741 0.749741 0.74974 0.74974 0.749739 0.749739
          0.749738 0.749737 0.749735 0.749733 0.74973 0.749727 0.749721 0.749714 0.749705 0.749691 0.74967 0.749639
          0.749589 0.74951 0.749355 0.748998 0.747831 0.738957
        </DataArray>
        <DataArray type="Float32" Name="m^w_substrate" NumberOfComponents="1" format="ascii">
          6.70856e-08 8.99779e-08 1.20674e-07 1.61835e-07 2.17026e-07 2.91034e-07 3.90284e-07 5.23406e-07 7.02008e-07 9.41723e-07 1.26365e-06 1.69634e-06
          2.27857e-06 3.06329e-06 4.12325e-06 5.55926e-06 7.5126e-06 1.0184e-05 1.3864e-05 1.89826e-05 2.61951e-05 3.6537e-05 5.17231e-05 7.47699e-05
          0.000111424 0.00017389 0.000292445 0.000562253 0.00143316 0.00800066
        </DataArray>
        <DataArray type="Float32" Name="process rank" NumberOfComponents="1" format="ascii">
          0 0 0 0 0 0 0 0 0 0 0 0
          0 0 0 0 0 0 0 0 0 0 0 0
          0 0 0 0 0 0
        </DataArray>
      </CellData>
      <Points>
        <DataArray type="Float32" Name="Coordinates" NumberOfComponents="3" format="ascii">
          0 0 0 0.5 0 0 0 0.0333333 0 0.5 0.0333333 0
          0 0.0666667 0 0.5 0.0666667 0 0 0.1 0 0.5 0.1 0
          0 0.133333 0 0.5 0.133333 0 0 0.166667 0 0.5 0.166667 0
          0 0.2 0 0.5 0.2 0 0 0.233333 0 0.5 0.233333 0
          0 0.266667 0 0.5 0.266667 0 0 0.3 0 0.5 0.3 0
          0 0.333333 0 0.5 0.333333 0 0 0.366667 0 0.5 0.366667 0
          0 0.4 0 0.5 0.4 0 0 0.433333 0 0.5 0.433333 0
          0 0.466667 0 0.5 0.466667 0 0 0.5 0 0.5 0.5 0
          0 0.533333 0 0.5 0.533333 0 0 0.566667 0 0.5 0.566667 0
          0 0.6 0 0.5 0.6 0 0 0.633333 0 0.5 0.633333 0
          0 0.666667 0 0.5 0.666667 0 0 0.7 0 0.5 0.7 0
          0 0.733333 0 0.5 0.733333 0 0 0.766667 0 0.5 0.766667 0
          0 0.8 0 0.5 0.8 0 0 0.833333 0 0.5 0.833333 0
          0 0.866667 0 0.5 0.866667 0 0 0.9 0 0.5 0.9 0
          0 0.933333 0 0.5 0.933333 0 0 0.966667 0 0.5 0.966667 0
          0 1 0 0.5 1 0
        </DataArray>
      </Points>
      <Cells>
        <DataArray type="Int32" Name="connectivity" NumberOfComponents="1" format="ascii">
          0 1 3 2 2 3 5 4 4 5 7 6
          6 7 9 8 8 9 11 10 10 11 13 12
          12 13 15 14 14 15 17 16 16 17 19 18
          18 19 21 20 20 21 23 22 22 23 25 24
          24 25 27 26 26 27 29 28 28 29 31 30
          30 31 33 32 32 33 35 34 34 35 37 36
          36 37 39 38 38 39 41 40 40 41 43 42
          42 43 45 44 44 45 47 46 46 47 49 48
          48 49 51 50 50 51 53 52 52 53 55 54
          54 55 57 56 56 57 59 58 58 59 61 60
        </DataArray>
        <DataArray type="Int32" Name="offsets" NumberOfComponents="1" format="ascii">
          4 8 12 16 20 24 28 32 36 40 44 48
          52 56 60 64 68 72 76 80 84 88 92 96
          100 104 108 112 116 120
        </DataArray>
        <DataArray type="UInt8" Name="types" NumberOfComponents="1" format="ascii">
          9 9 9 9 9 9 9 9 9 9 9 9
          9 9 9 9 9 9 9 9 9 9 9 9
          9 9 9 9 9 9
        </DataArray>
      </Cells>
    </Piece>
  </UnstructuredGrid>
</VTKFile>
