<?xml version="1.0"?>
<VTKFile type="UnstructuredGrid" version="0.1" byte_order="LittleEndian">
  <UnstructuredGrid>
    <Piece NumberOfCells="30" NumberOfPoints="62">
      <CellData Scalars="Sg">
        <DataArray type="Float32" Name="Sg" NumberOfComponents="1" format="ascii">
          0 0 0 0 0 0 0 0 0 0 0 0
          0 0 0 0 0 0 0 0 0 0 0 0
          0 0 0 0 0 0
        </DataArray>
        <DataArray type="Float32" Name="Sl" NumberOfComponents="1" format="ascii">
          1 1 1 1 1 1 1 1 1 1 1 1
          1 1 1 1 1 1 1 1 1 1 1 1
          1 1 1 1 1 1
        </DataArray>
        <DataArray type="Float32" Name="pg" NumberOfComponents="1" format="ascii">
          24687.8 24360.9 24034 23707 23380.1 23053.1 22726.2 22399.3 22072.3 21745.4 21418.4 21091.5
          20764.6 20437.6 20110.7 19783.7 19456.8 19129.8 18802.9 18476 18149 17822.1 17495.1 17168.2
          16841.3 16514.3 16187.4 15860.4 15533.5 15209.2
        </DataArray>
        <DataArray type="Float32" Name="pl" NumberOfComponents="1" format="ascii">
          110628 110301 109974 109647 109320 108993 108666 108339 108012 107685 107358 107031
          106704 106377 106050 105723 105396 105070 104743 104416 104089 103762 103435 103108
          102781 102454 102127 101800 101473 101149
        </DataArray>
        <DataArray type="Float32" Name="pc" NumberOfComponents="1" format="ascii">
          -85939.7 -85939.7 -85939.7 -85939.7 -85939.7 -85939.7 -85939.7 -85939.7 -85939.7 -85939.7 -85939.7 -85939.7
          -85939.7 -85939.7 -85939.7 -85939.7 -85939.7 -85939.7 -85939.7 -85939.7 -85939.7 -85939.7 -85939.7 -85939.7
          -85939.7 -85939.7 -85939.7 -85939.7 -85939.7 -85939.7
        </DataArray>
        <DataArray type="Float32" Name="rhoL" NumberOfComponents="1" format="ascii">
          999.855 999.855 999.855 999.855 999.855 999.854 999.854 999.854 999.854 999.854 999.854 999.854
          999.853 999.853 999.853 999.853 999.853 999.853 999.852 999.852 999.852 999.852 999.852 999.852
          999.852 999.851 999.851 999.851 999.851 999.851
        </DataArray>
        <DataArray type="Float32" Name="rhoG" NumberOfComponents="1" format="ascii">
          0.30585 0.3018 0.29775 0.293699 0.289649 0.285598 0.281548 0.277498 0.273447 0.269397 0.265347 0.261296
          0.257246 0.253195 0.249145 0.245095 0.241044 0.236994 0.232944 0.228893 0.224843 0.220793 0.216742 0.212692
          0.208641 0.204591 0.200541 0.19649 0.19244 0.188422
        </DataArray>
        <DataArray type="Float32" Name="mobL" NumberOfComponents="1" format="ascii">
          722.171 722.17 722.17 722.17 722.17 722.17 722.169 722.169 722.169 722.169 722.169 722.169
          722.168 722.168 722.168 722.168 722.168 722.167 722.167 722.167 722.167 722.167 722.166 722.166
          722.166 722.166 722.166 722.166 722.165 722.165
        </DataArray>
        <DataArray type="Float32" Name="mobG" NumberOfComponents="1" format="ascii">
          0 0 0 0 0 0 0 0 0 0 0 0
          0 0 0 0 0 0 0 0 0 0 0 0
          0 0 0 0 0 0
        </DataArray>
        <DataArray type="Float32" Name="porosity" NumberOfComponents="1" format="ascii">
          0.298756 0.298756 0.298755 0.298755 0.298755 0.298754 0.298754 0.298753 0.298751 0.29875 0.298747 0.298744
          0.298739 0.298733 0.298724 0.298712 0.298696 0.298675 0.298646 0.298606 0.298551 0.298474 0.298365 0.298201
          0.297675 0.297234 0.296364 0.294119 0.283698 0.0471871
        </DataArray>
        <DataArray type="Float32" Name="temperature" NumberOfComponents="1" format="ascii">
          281.15 281.15 281.15 281.15 281.15 281.15 281.15 281.15 281.15 281.15 281.15 281.15
          281.15 281.15 281.15 281.15 281.15 281.15 281.15 281.15 281.15 281.15 281.15 281.15
          281.15 281.15 281.15 281.15 281.15 281.15
        </DataArray>
        <DataArray type="Float32" Name="phase presence" NumberOfComponents="1" format="ascii">
          1 1 1 1 1 1 1 1 1 1 1 1
          1 1 1 1 1 1 1 1 1 1 1 1
          1 1 1 1 1 1
        </DataArray>
        <DataArray type="Float32" Name="precipitateVolumeFraction_au" NumberOfComponents="1" format="ascii">
          5.52635e-10 5.52797e-10 5.52745e-10 5.52746e-10 5.52737e-10 5.52771e-10 5.52802e-10 5.52753e-10 5.52727e-10 5.52761e-10 5.52792e-10 5.52755e-10
          5.52759e-10 5.52751e-10 5.52702e-10 5.52783e-10 5.52719e-10 5.52773e-10 5.52725e-10 5.52751e-10 5.52747e-10 5.5274e-10 5.5301e-10 1.06928e-09
          0.000269939 0.000269922 0.000269897 0.00026985 5.52246e-10 5.51335e-10
        </DataArray>
        <DataArray type="Float32" Name="precipitateVolumeFraction_nanoAu" NumberOfComponents="1" format="ascii">
          1.27432e-13 1.27469e-13 1.27457e-13 1.27457e-13 1.27455e-13 1.27463e-13 1.27469e-13 1.27458e-13 1.27452e-13 1.27459e-13 1.27466e-13 1.27457e-13
          1.27458e-13 1.27455e-13 1.27443e-13 1.2746e-13 1.27444e-13 1.27454e-13 1.2744e-13 1.27442e-13 1.27435e-13 1.27442e-13 1.39356e-13 2.61267e-11
          6.22192e-08 7.87454e-08 1.04328e-07 1.47485e-07 4.74156e-13 4.67252e-13
        </DataArray>
        <DataArray type="Float32" Name="precipitateVolumeFraction_d" NumberOfComponents="1" format="ascii">
          0.000622166 0.000622228 0.000622315 0.000622437 0.000622609 0.000622849 0.000623186 0.000623656 0.000624309 0.000625213 0.000626461 0.000628175
          0.00063052 0.000633716 0.000638057 0.000643937 0.000651891 0.000662648 0.000677233 0.000697116 0.000724492 0.000762785 0.000817675 0.000899298
          0.00102762 0.00124777 0.00168306 0.00280563 0.00815098 0.126406
        </DataArray>
        <DataArray type="Float32" Name="precipitateVolumeFraction_p" NumberOfComponents="1" format="ascii">
          0.000622166 0.000622228 0.000622315 0.000622437 0.000622609 0.000622849 0.000623186 0.000623656 0.000624309 0.000625213 0.000626461 0.000628175
          0.00063052 0.000633716 0.000638057 0.000643937 0.000651891 0.000662648 0.000677233 0.000697116 0.000724492 0.000762785 0.000817675 0.000899298
          0.00102762 0.00124777 0.00168306 0.00280563 0.00815098 0.126406
        </DataArray>
        <DataArray type="Float32" Name="K" NumberOfComponents="1" format="ascii">
          9.84106e-11 9.84105e-11 9.84103e-11 9.84099e-11 9.84095e-11 9.84089e-11 9.8408e-11 9.84069e-11 9.84052e-11 9.84029e-11 9.83997e-11 9.83954e-11
          9.83894e-11 9.83813e-11 9.83703e-11 9.83554e-11 9.83352e-11 9.83079e-11 9.8271e-11 9.82206e-11 9.81512e-11 9.80543e-11 9.79155e-11 9.77094e-11
          9.70469e-11 9.64959e-11 9.5414e-11 9.26696e-11 8.07624e-11 2.10032e-13
        </DataArray>
        <DataArray type="Float32" Name="X^w_H2O" NumberOfComponents="1" format="ascii">
          0.999853 0.999853 0.999853 0.999853 0.999853 0.999853 0.999853 0.999853 0.999853 0.999853 0.999853 0.999853
          0.999853 0.999853 0.999853 0.999853 0.999853 0.999853 0.999853 0.999853 0.999853 0.999853 0.999853 0.999853
          0.999853 0.999852 0.999849 0.999846 0.999839 0.99984
        </DataArray>
        <DataArray type="Float32" Name="X^w_Air" NumberOfComponents="1" format="ascii">
          0 0 0 0 0 0 0 0 0 0 0 0
          0 0 0 0 0 0 0 0 0 0 0 0
          0 0 0 0 0 0
        </DataArray>
        <DataArray type="Float32" Name="X^w_AuComplex" NumberOfComponents="1" format="ascii">
          1.42847e-16 1.42888e-16 1.42875e-16 1.42875e-16 1.42872e-16 1.42881e-16 1.42888e-16 1.42875e-16 1.42868e-16 1.42876e-16 1.42884e-16 1.42873e-16
          1.42873e-16 1.4287e-16 1.42855e-16 1.42874e-16 1.42854e-16 1.42864e-16 1.42845e-16 1.42843e-16 1.4283e-16 1.42828e-16 1.5597e-16 2.92583e-14
          6.9709e-11 1.07905e-10 1.83306e-10 3.55959e-10 1.74788e-15 1.70287e-15
        </DataArray>
        <DataArray type="Float32" Name="X^w_nanoAu" NumberOfComponents="1" format="ascii">
          5.55011e-19 5.55171e-19 5.55119e-19 5.55119e-19 5.5511e-19 5.55143e-19 5.55172e-19 5.55122e-19 5.55096e-19 5.55128e-19 5.55157e-19 5.55118e-19
          5.55119e-19 5.55107e-19 5.55054e-19 5.55127e-19 5.55056e-19 5.55097e-19 5.55033e-19 5.55077e-19 5.58839e-19 9.10503e-19 3.34836e-17 3.04598e-15
          2.71724e-13 3.44085e-13 4.56108e-13 6.34799e-13 2.05913e-18 1.98472e-18
        </DataArray>
        <DataArray type="Float32" Name="X^w_cyanide" NumberOfComponents="1" format="ascii">
          5.22634e-06 5.22634e-06 5.22633e-06 5.22633e-06 5.22633e-06 5.22632e-06 5.22632e-06 5.22631e-06 5.2263e-06 5.22629e-06 5.22628e-06 5.22626e-06
          5.22624e-06 5.22622e-06 5.22618e-06 5.22613e-06 5.22607e-06 5.22598e-06 5.22586e-06 5.22569e-06 5.22545e-06 5.22511e-06 5.2246e-06 5.22382e-06
          5.22306e-06 6.60995e-06 8.75595e-06 1.2399e-05 1.94622e-05 1.92363e-05
        </DataArray>
        <DataArray type="Float32" Name="X^w_citrate" NumberOfComponents="1" format="ascii">
          0.000141796 0.000141796 0.000141796 0.000141796 0.000141796 0.000141796 0.000141796 0.000141796 0.000141796 0.000141796 0.000141796 0.000141796
          0.000141795 0.000141795 0.000141795 0.000141795 0.000141794 0.000141794 0.000141793 0.000141791 0.00014179 0.000141787 0.000141784 0.000141778
          0.000141769 0.000141754 0.000141726 0.000141659 0.000141441 0.000139799
        </DataArray>
        <DataArray type="Float32" Name="X^w_substrate" NumberOfComponents="1" format="ascii">
          9.51088e-12 1.28525e-11 1.73673e-11 2.34668e-11 3.17074e-11 4.28412e-11 5.78854e-11 7.82169e-11 1.05701e-10 1.4287e-10 1.93164e-10 2.61277e-10
          3.53628e-10 4.79045e-10 6.49744e-10 8.82773e-10 1.20218e-09 1.64237e-09 2.25344e-09 3.11e-09 4.3264e-09 6.08434e-09 8.68625e-09 1.26666e-08
          1.9048e-08 3.00094e-08 5.09713e-08 9.89789e-08 2.54302e-07 1.41203e-06
        </DataArray>
        <DataArray type="Float32" Name="m^w_H2O" NumberOfComponents="1" format="ascii">
          55492.6 55492.5 55492.5 55492.5 55492.5 55492.5 55492.5 55492.5 55492.5 55492.5 55492.5 55492.5
          55492.4 55492.4 55492.4 55492.4 55492.4 55492.4 55492.4 55492.4 55492.4 55492.4 55492.4 55492.3
          55492.3 55492.3 55492.1 55491.9 55491.5 55491.6
        </DataArray>
        <DataArray type="Float32" Name="m^w_Air" NumberOfComponents="1" format="ascii">
          0 0 0 0 0 0 0 0 0 0 0 0
          0 0 0 0 0 0 0 0 0 0 0 0
          0 0 0 0 0 0
        </DataArray>
        <DataArray type="Float32" Name="m^w_AuComplex" NumberOfComponents="1" format="ascii">
          7.25116e-13 7.25327e-13 7.25258e-13 7.25258e-13 7.25245e-13 7.25288e-13 7.25326e-13 7.2526e-13 7.25224e-13 7.25266e-13 7.25303e-13 7.2525e-13
          7.2525e-13 7.25232e-13 7.25158e-13 7.25252e-13 7.25152e-13 7.252e-13 7.25106e-13 7.25096e-13 7.25031e-13 7.25017e-13 7.9173e-13 1.4852e-10
          3.53854e-07 5.47743e-07 9.30493e-07 1.8069e-06 8.87252e-12 8.64405e-12
        </DataArray>
        <DataArray type="Float32" Name="m^w_nanoAu" NumberOfComponents="1" format="ascii">
          2.81734e-15 2.81815e-15 2.81788e-15 2.81788e-15 2.81784e-15 2.818e-15 2.81815e-15 2.8179e-15 2.81776e-15 2.81793e-15 2.81807e-15 2.81787e-15
          2.81788e-15 2.81782e-15 2.81755e-15 2.81792e-15 2.81756e-15 2.81776e-15 2.81744e-15 2.81766e-15 2.83676e-15 4.62186e-15 1.69968e-13 1.54619e-11
          1.37931e-09 1.74663e-09 2.31528e-09 3.22234e-09 1.04524e-14 1.00748e-14
        </DataArray>
        <DataArray type="Float32" Name="m^w_cyanide" NumberOfComponents="1" format="ascii">
          0.20083 0.200829 0.200829 0.200829 0.200829 0.200829 0.200828 0.200828 0.200828 0.200827 0.200827 0.200826
          0.200825 0.200824 0.200823 0.200821 0.200819 0.200815 0.200811 0.200804 0.200795 0.200782 0.200762 0.200732
          0.200703 0.253996 0.336459 0.476448 0.747858 0.739178
        </DataArray>
        <DataArray type="Float32" Name="m^w_citrate" NumberOfComponents="1" format="ascii">
          0.749741 0.749741 0.749741 0.749741 0.749741 0.749741 0.74974 0.74974 0.74974 0.749739 0.749739 0.749738
          0.749737 0.749736 0.749735 0.749733 0.749731 0.749727 0.749722 0.749716 0.749707 0.749693 0.749674 0.749644
          0.749596 0.749519 0.749368 0.749016 0.74786 0.739179
        </DataArray>
        <DataArray type="Float32" Name="m^w_substrate" NumberOfComponents="1" format="ascii">
          5.27836e-08 7.13292e-08 9.63852e-08 1.30236e-07 1.7597e-07 2.37761e-07 3.21253e-07 4.34089e-07 5.86622e-07 7.92901e-07 1.07203e-06 1.45004e-06
          1.96257e-06 2.65861e-06 3.60595e-06 4.89922e-06 6.67187e-06 9.11484e-06 1.25062e-05 1.72599e-05 2.40107e-05 3.37669e-05 4.82069e-05 7.02971e-05
          0.000105712 0.000166546 0.00028288 0.000549312 0.00141133 0.0078365
        </DataArray>
        <DataArray type="Float32" Name="process rank" NumberOfComponents="1" format="ascii">
          0 0 0 0 0 0 0 0 0 0 0 0
          0 0 0 0 0 0 0 0 0 0 0 0
          0 0 0 0 0 0
        </DataArray>
      </CellData>
      <Points>
        <DataArray type="Float32" Name="Coordinates" NumberOfComponents="3" format="ascii">
          0 0 0 0.5 0 0 0 0.0333333 0 0.5 0.0333333 0
          0 0.0666667 0 0.5 0.0666667 0 0 0.1 0 0.5 0.1 0
          0 0.133333 0 0.5 0.133333 0 0 0.166667 0 0.5 0.166667 0
          0 0.2 0 0.5 0.2 0 0 0.233333 0 0.5 0.233333 0
          0 0.266667 0 0.5 0.266667 0 0 0.3 0 0.5 0.3 0
          0 0.333333 0 0.5 0.333333 0 0 0.366667 0 0.5 0.366667 0
          0 0.4 0 0.5 0.4 0 0 0.433333 0 0.5 0.433333 0
          0 0.466667 0 0.5 0.466667 0 0 0.5 0 0.5 0.5 0
          0 0.533333 0 0.5 0.533333 0 0 0.566667 0 0.5 0.566667 0
          0 0.6 0 0.5 0.6 0 0 0.633333 0 0.5 0.633333 0
          0 0.666667 0 0.5 0.666667 0 0 0.7 0 0.5 0.7 0
          0 0.733333 0 0.5 0.733333 0 0 0.766667 0 0.5 0.766667 0
          0 0.8 0 0.5 0.8 0 0 0.833333 0 0.5 0.833333 0
          0 0.866667 0 0.5 0.866667 0 0 0.9 0 0.5 0.9 0
          0 0.933333 0 0.5 0.933333 0 0 0.966667 0 0.5 0.966667 0
          0 1 0 0.5 1 0
        </DataArray>
      </Points>
      <Cells>
        <DataArray type="Int32" Name="connectivity" NumberOfComponents="1" format="ascii">
          0 1 3 2 2 3 5 4 4 5 7 6
          6 7 9 8 8 9 11 10 10 11 13 12
          12 13 15 14 14 15 17 16 16 17 19 18
          18 19 21 20 20 21 23 22 22 23 25 24
          24 25 27 26 26 27 29 28 28 29 31 30
          30 31 33 32 32 33 35 34 34 35 37 36
          36 37 39 38 38 39 41 40 40 41 43 42
          42 43 45 44 44 45 47 46 46 47 49 48
          48 49 51 50 50 51 53 52 52 53 55 54
          54 55 57 56 56 57 59 58 58 59 61 60
        </DataArray>
        <DataArray type="Int32" Name="offsets" NumberOfComponents="1" format="ascii">
          4 8 12 16 20 24 28 32 36 40 44 48
          52 56 60 64 68 72 76 80 84 88 92 96
          100 104 108 112 116 120
        </DataArray>
        <DataArray type="UInt8" Name="types" NumberOfComponents="1" format="ascii">
          9 9 9 9 9 9 9 9 9 9 9 9
          9 9 9 9 9 9 9 9 9 9 9 9
          9 9 9 9 9 9
        </DataArray>
      </Cells>
    </Piece>
  </UnstructuredGrid>
</VTKFile>
