<?xml version="1.0"?>
<VTKFile type="UnstructuredGrid" version="0.1" byte_order="LittleEndian">
  <UnstructuredGrid>
    <Piece NumberOfCells="30" NumberOfPoints="62">
      <CellData Scalars="Sg">
        <DataArray type="Float32" Name="Sg" NumberOfComponents="1" format="ascii">
          0.0988048 0.0987988 0.0987926 0.0987865 0.0987803 0.0987741 0.0987679 0.0987617 0.0987555 0.0987493 0.0987433 0.0987374
          0.0987317 0.0987264 0.0987215 0.0987172 0.0987139 0.0987116 0.0987108 0.0987118 0.0987138 0.0987086 0.0986483 0.0982863
          0.0964863 0.0885505 0.0580562 0 0 0
        </DataArray>
        <DataArray type="Float32" Name="Sl" NumberOfComponents="1" format="ascii">
          0.901195 0.901201 0.901207 0.901214 0.90122 0.901226 0.901232 0.901238 0.901245 0.901251 0.901257 0.901263
          0.901268 0.901274 0.901278 0.901283 0.901286 0.901288 0.901289 0.901288 0.901286 0.901291 0.901352 0.901714
          0.903514 0.91145 0.941944 1 1 1
        </DataArray>
        <DataArray type="Float32" Name="pg" NumberOfComponents="1" format="ascii">
          52992 52663.4 52334.7 52006 51677.2 51348.5 51019.8 50691.1 50362.4 50033.7 49705 49376.4
          49047.8 48719.3 48391 48062.8 47734.9 47407.3 47080.2 46753.5 46427.1 46098.7 45754.5 45323.9
          44481.3 41881 32818.5 15860.4 15533.5 15206.6
        </DataArray>
        <DataArray type="Float32" Name="pl" NumberOfComponents="1" format="ascii">
          110628 110301 109974 109647 109320 108993 108666 108339 108012 107685 107358 107031
          106704 106377 106050 105723 105396 105070 104743 104416 104089 103762 103435 103108
          102781 102454 102127 101800 101473 101146
        </DataArray>
        <DataArray type="Float32" Name="pc" NumberOfComponents="1" format="ascii">
          -57635.5 -57637.2 -57639 -57640.7 -57642.5 -57644.3 -57646.1 -57647.9 -57649.6 -57651.4 -57653.1 -57654.8
          -57656.4 -57658 -57659.4 -57660.6 -57661.6 -57662.2 -57662.4 -57662.1 -57661.6 -57663.1 -57680.4 -57784
          -58299.7 -60573 -69308.6 -85939.7 -85939.7 -85939.7
        </DataArray>
        <DataArray type="Float32" Name="rhoL" NumberOfComponents="1" format="ascii">
          999.855 999.855 999.855 999.855 999.855 999.854 999.854 999.854 999.854 999.854 999.854 999.854
          999.853 999.853 999.853 999.853 999.853 999.853 999.852 999.852 999.852 999.852 999.852 999.852
          999.852 999.851 999.851 999.851 999.851 999.851
        </DataArray>
        <DataArray type="Float32" Name="rhoG" NumberOfComponents="1" format="ascii">
          0.656502 0.652431 0.648359 0.644286 0.640214 0.636142 0.632069 0.627997 0.623924 0.619852 0.61578 0.611709
          0.607638 0.603569 0.599501 0.595436 0.591374 0.587315 0.583262 0.579215 0.575172 0.571103 0.566839 0.561504
          0.551065 0.518851 0.406578 0.19649 0.19244 0.18839
        </DataArray>
        <DataArray type="Float32" Name="mobL" NumberOfComponents="1" format="ascii">
          722.171 722.17 722.17 722.17 722.17 722.17 722.169 722.169 722.169 722.169 722.169 722.169
          722.168 722.168 722.168 722.168 722.168 722.167 722.167 722.167 722.167 722.167 722.166 722.166
          722.166 722.166 722.166 722.166 722.165 722.165
        </DataArray>
        <DataArray type="Float32" Name="mobG" NumberOfComponents="1" format="ascii">
          0 0 0 0 0 0 0 0 0 0 0 0
          0 0 0 0 0 0 0 0 0 0 0 0
          0 0 0 0 0 0
        </DataArray>
        <DataArray type="Float32" Name="porosity" NumberOfComponents="1" format="ascii">
          0.298411 0.298411 0.298411 0.298411 0.298411 0.298411 0.29841 0.29841 0.298409 0.298407 0.298405 0.298402
          0.298398 0.298392 0.298384 0.298372 0.298357 0.298336 0.298308 0.298271 0.298221 0.298153 0.298061 0.297934
          0.297486 0.297227 0.296835 0.296213 0.295447 0.29357
        </DataArray>
        <DataArray type="Float32" Name="temperature" NumberOfComponents="1" format="ascii">
          281.15 281.15 281.15 281.15 281.15 281.15 281.15 281.15 281.15 281.15 281.15 281.15
          281.15 281.15 281.15 281.15 281.15 281.15 281.15 281.15 281.15 281.15 281.15 281.15
          281.15 281.15 281.15 281.15 281.15 281.15
        </DataArray>
        <DataArray type="Float32" Name="phase presence" NumberOfComponents="1" format="ascii">
          3 3 3 3 3 3 3 3 3 3 3 3
          3 3 3 3 3 3 3 3 3 3 3 3
          3 3 3 1 1 1
        </DataArray>
        <DataArray type="Float32" Name="precipitateVolumeFraction_au" NumberOfComponents="1" format="ascii">
          2.9569e-10 2.95688e-10 2.95688e-10 2.95688e-10 2.95688e-10 2.95688e-10 2.95688e-10 2.95688e-10 2.95689e-10 2.95689e-10 2.95689e-10 2.95689e-10
          2.9569e-10 2.9569e-10 2.95691e-10 2.95691e-10 2.95693e-10 2.95694e-10 2.95695e-10 2.95697e-10 2.95699e-10 2.95701e-10 2.95705e-10 2.98149e-10
          0.000269952 0.000269952 0.000269951 0.000269953 2.95685e-10 2.95306e-10
        </DataArray>
        <DataArray type="Float32" Name="precipitateVolumeFraction_nanoAu" NumberOfComponents="1" format="ascii">
          2.5718e-10 2.57178e-10 2.57178e-10 2.57178e-10 2.57178e-10 2.57178e-10 2.57178e-10 2.57177e-10 2.57177e-10 2.57177e-10 2.57176e-10 2.57176e-10
          2.57175e-10 2.57175e-10 2.57174e-10 2.57173e-10 2.57171e-10 2.5717e-10 2.57167e-10 2.57165e-10 2.57162e-10 2.57158e-10 2.57157e-10 2.6816e-10
          4.81585e-08 4.89946e-08 4.91632e-08 4.78619e-08 2.57093e-10 2.5673e-10
        </DataArray>
        <DataArray type="Float32" Name="precipitateVolumeFraction_d" NumberOfComponents="1" format="ascii">
          0.000794308 0.000794331 0.000794367 0.000794425 0.000794516 0.000794657 0.000794874 0.000795203 0.000795693 0.000796416 0.000797466 0.000798972
          0.000801104 0.00080409 0.000808222 0.000813886 0.000821584 0.000831975 0.000845934 0.000864641 0.00088973 0.000923522 0.000969443 0.00103276
          0.00112197 0.0012517 0.00144773 0.00175835 0.00227674 0.00321519
        </DataArray>
        <DataArray type="Float32" Name="precipitateVolumeFraction_p" NumberOfComponents="1" format="ascii">
          0.000794308 0.000794331 0.000794367 0.000794425 0.000794516 0.000794657 0.000794874 0.000795203 0.000795693 0.000796416 0.000797466 0.000798972
          0.000801104 0.00080409 0.000808222 0.000813886 0.000821584 0.000831975 0.000845934 0.000864641 0.00088973 0.000923522 0.000969443 0.00103276
          0.00112197 0.0012517 0.00144773 0.00175835 0.00227674 0.00321519
        </DataArray>
        <DataArray type="Float32" Name="K" NumberOfComponents="1" format="ascii">
          9.79746e-11 9.79745e-11 9.79744e-11 9.79743e-11 9.79741e-11 9.79737e-11 9.79732e-11 9.79723e-11 9.79711e-11 9.79693e-11 9.79666e-11 9.79628e-11
          9.79574e-11 9.79498e-11 9.79394e-11 9.79251e-11 9.79056e-11 9.78794e-11 9.78441e-11 9.77969e-11 9.77336e-11 9.76483e-11 9.75326e-11 9.73732e-11
          9.68104e-11 9.64861e-11 9.59976e-11 9.52278e-11 9.42846e-11 9.20083e-11
        </DataArray>
        <DataArray type="Float32" Name="X^w_H2O" NumberOfComponents="1" format="ascii">
          0.999824 0.999824 0.999824 0.999824 0.999824 0.999824 0.999825 0.999825 0.999825 0.999825 0.999826 0.999826
          0.999826 0.999827 0.999827 0.999828 0.999829 0.999829 0.99983 0.999831 0.999832 0.999833 0.999834 0.999836
          0.999838 0.999838 0.999841 0.99985 0.999855 0.999868
        </DataArray>
        <DataArray type="Float32" Name="X^w_Air" NumberOfComponents="1" format="ascii">
          1.60935e-05 1.59916e-05 1.58897e-05 1.57878e-05 1.56859e-05 1.5584e-05 1.54822e-05 1.53803e-05 1.52784e-05 1.51765e-05 1.50746e-05 1.49727e-05
          1.48709e-05 1.47691e-05 1.46673e-05 1.45656e-05 1.44639e-05 1.43624e-05 1.4261e-05 1.41598e-05 1.40586e-05 1.39568e-05 1.38501e-05 1.37166e-05
          1.34555e-05 1.26494e-05 9.84032e-06 2.09797e-06 2.01288e-08 1.44562e-10
        </DataArray>
        <DataArray type="Float32" Name="X^w_AuComplex" NumberOfComponents="1" format="ascii">
          9.21676e-13 9.21944e-13 9.20395e-13 9.18716e-13 9.1751e-13 9.15127e-13 9.09627e-13 9.051e-13 8.99871e-13 8.92121e-13 8.82054e-13 8.70987e-13
          8.59858e-13 8.43628e-13 8.24121e-13 8.0371e-13 7.7817e-13 7.52927e-13 7.20067e-13 6.85632e-13 6.47823e-13 6.08772e-13 5.67354e-13 5.52033e-13
          1.10253e-10 1.25162e-10 1.40362e-10 1.51332e-10 6.93204e-13 4.8864e-13
        </DataArray>
        <DataArray type="Float32" Name="X^w_nanoAu" NumberOfComponents="1" format="ascii">
          2.90576e-15 7.46024e-16 2.83833e-15 1.15901e-15 1.16694e-15 1.21148e-15 2.99356e-15 8.942e-16 1.73288e-15 1.26539e-15 9.07423e-16 1.97813e-15
          1.77177e-15 1.31995e-15 1.79825e-17 1.45397e-15 1.40114e-15 1.6461e-15 3.42095e-16 1.10355e-15 9.19148e-16 7.06154e-16 1.76809e-15 2.22434e-15
          1.96534e-13 1.95466e-13 1.64009e-13 1.70991e-13 8.14147e-16 5.69067e-16
        </DataArray>
        <DataArray type="Float32" Name="X^w_cyanide" NumberOfComponents="1" format="ascii">
          1.89131e-05 1.88951e-05 1.88702e-05 1.88363e-05 1.87912e-05 1.87319e-05 1.86553e-05 1.85577e-05 1.8435e-05 1.82829e-05 1.80964e-05 1.78703e-05
          1.75994e-05 1.7278e-05 1.69009e-05 1.64633e-05 1.59618e-05 1.53942e-05 1.47606e-05 1.40632e-05 1.33065e-05 1.24961e-05 1.16382e-05 1.0736e-05
          9.7837e-06 1.09525e-05 1.22507e-05 1.34975e-05 1.42139e-05 1.0034e-05
        </DataArray>
        <DataArray type="Float32" Name="X^w_citrate" NumberOfComponents="1" format="ascii">
          0.00013977 0.000139766 0.000139762 0.000139755 0.000139745 0.000139731 0.000139712 0.000139686 0.000139651 0.000139607 0.000139549 0.000139477
          0.000139387 0.000139277 0.000139142 0.000138977 0.000138777 0.000138531 0.000138226 0.000137841 0.000137347 0.000136694 0.000135808 0.000134562
          0.000132739 0.000129943 0.000125433 0.000117757 0.000103459 7.29887e-05
        </DataArray>
        <DataArray type="Float32" Name="X^w_substrate" NumberOfComponents="1" format="ascii">
          1.45003e-06 1.452e-06 1.45497e-06 1.45934e-06 1.46566e-06 1.47462e-06 1.48711e-06 1.50415e-06 1.52697e-06 1.55698e-06 1.59574e-06 1.64502e-06
          1.70678e-06 1.78329e-06 1.87725e-06 1.99216e-06 2.1327e-06 2.3055e-06 2.52016e-06 2.79096e-06 3.13955e-06 3.59947e-06 4.2243e-06 5.1028e-06
          6.38832e-06 8.35965e-06 1.15409e-05 1.69546e-05 2.70371e-05 4.85227e-05
        </DataArray>
        <DataArray type="Float32" Name="m^w_H2O" NumberOfComponents="1" format="ascii">
          55490.9 55490.9 55490.9 55490.9 55490.9 55490.9 55490.9 55490.9 55490.9 55490.9 55490.9 55491
          55491 55491 55491 55491 55491.1 55491.1 55491.1 55491.2 55491.2 55491.3 55491.3 55491.4
          55491.5 55491.5 55491.7 55492.1 55492.4 55493.2
        </DataArray>
        <DataArray type="Float32" Name="m^w_Air" NumberOfComponents="1" format="ascii">
          0.555634 0.552116 0.548599 0.545081 0.541563 0.538045 0.534527 0.531009 0.527491 0.523973 0.520456 0.516939
          0.513422 0.509907 0.506393 0.502881 0.499372 0.495866 0.492365 0.488869 0.485377 0.481862 0.478178 0.47357
          0.464553 0.436725 0.339739 0.0724329 0.00069495 4.99102e-06
        </DataArray>
        <DataArray type="Float32" Name="m^w_AuComplex" NumberOfComponents="1" format="ascii">
          4.67859e-09 4.67995e-09 4.67209e-09 4.66356e-09 4.65744e-09 4.64535e-09 4.61743e-09 4.59445e-09 4.5679e-09 4.52856e-09 4.47746e-09 4.42128e-09
          4.36479e-09 4.2824e-09 4.18338e-09 4.07977e-09 3.95012e-09 3.82199e-09 3.65518e-09 3.48038e-09 3.28846e-09 3.09022e-09 2.87998e-09 2.80221e-09
          5.59662e-07 6.35344e-07 7.125e-07 7.68183e-07 3.51881e-09 2.48041e-09
        </DataArray>
        <DataArray type="Float32" Name="m^w_nanoAu" NumberOfComponents="1" format="ascii">
          1.47502e-11 3.78695e-12 1.44079e-11 5.88335e-12 5.92358e-12 6.14967e-12 1.51958e-11 4.53911e-12 8.79639e-12 6.42333e-12 4.60624e-12 1.00413e-11
          8.99381e-12 6.70028e-12 9.12824e-14 7.38062e-12 7.11241e-12 8.35587e-12 1.73653e-12 5.60179e-12 4.66575e-12 3.58455e-12 8.97511e-12 1.12911e-11
          9.97638e-10 9.92217e-10 8.32537e-10 8.67979e-10 4.13274e-12 2.88867e-12
        </DataArray>
        <DataArray type="Float32" Name="m^w_cyanide" NumberOfComponents="1" format="ascii">
          0.726764 0.72607 0.725112 0.723812 0.722078 0.719801 0.716857 0.713105 0.708392 0.702544 0.695377 0.686692
          0.676279 0.663929 0.649438 0.632626 0.613353 0.591543 0.567196 0.540398 0.511318 0.48018 0.447214 0.412545
          0.375951 0.420865 0.47075 0.518658 0.546186 0.38557
        </DataArray>
        <DataArray type="Float32" Name="m^w_citrate" NumberOfComponents="1" format="ascii">
          0.739028 0.739011 0.738985 0.738948 0.738895 0.738821 0.73872 0.738583 0.738401 0.738165 0.737862 0.73748
          0.737006 0.736421 0.735707 0.734837 0.733777 0.732476 0.730863 0.72883 0.726214 0.722764 0.718077 0.711489
          0.701848 0.687069 0.663218 0.622632 0.547031 0.385924
        </DataArray>
        <DataArray type="Float32" Name="m^w_substrate" NumberOfComponents="1" format="ascii">
          0.0080474 0.00805835 0.0080748 0.00809904 0.00813412 0.00818389 0.00825316 0.00834773 0.00847439 0.00864092 0.00885607 0.00912957
          0.00947233 0.00989689 0.0104184 0.0110561 0.0118361 0.012795 0.0139864 0.0154893 0.0174239 0.0199763 0.023444 0.0283195
          0.0354539 0.0463944 0.0640496 0.0940945 0.150051 0.269291
        </DataArray>
        <DataArray type="Float32" Name="process rank" NumberOfComponents="1" format="ascii">
          0 0 0 0 0 0 0 0 0 0 0 0
          0 0 0 0 0 0 0 0 0 0 0 0
          0 0 0 0 0 0
        </DataArray>
      </CellData>
      <Points>
        <DataArray type="Float32" Name="Coordinates" NumberOfComponents="3" format="ascii">
          0 0 0 0.5 0 0 0 0.0333333 0 0.5 0.0333333 0
          0 0.0666667 0 0.5 0.0666667 0 0 0.1 0 0.5 0.1 0
          0 0.133333 0 0.5 0.133333 0 0 0.166667 0 0.5 0.166667 0
          0 0.2 0 0.5 0.2 0 0 0.233333 0 0.5 0.233333 0
          0 0.266667 0 0.5 0.266667 0 0 0.3 0 0.5 0.3 0
          0 0.333333 0 0.5 0.333333 0 0 0.366667 0 0.5 0.366667 0
          0 0.4 0 0.5 0.4 0 0 0.433333 0 0.5 0.433333 0
          0 0.466667 0 0.5 0.466667 0 0 0.5 0 0.5 0.5 0
          0 0.533333 0 0.5 0.533333 0 0 0.566667 0 0.5 0.566667 0
          0 0.6 0 0.5 0.6 0 0 0.633333 0 0.5 0.633333 0
          0 0.666667 0 0.5 0.666667 0 0 0.7 0 0.5 0.7 0
          0 0.733333 0 0.5 0.733333 0 0 0.766667 0 0.5 0.766667 0
          0 0.8 0 0.5 0.8 0 0 0.833333 0 0.5 0.833333 0
          0 0.866667 0 0.5 0.866667 0 0 0.9 0 0.5 0.9 0
          0 0.933333 0 0.5 0.933333 0 0 0.966667 0 0.5 0.966667 0
          0 1 0 0.5 1 0
        </DataArray>
      </Points>
      <Cells>
        <DataArray type="Int32" Name="connectivity" NumberOfComponents="1" format="ascii">
          0 1 3 2 2 3 5 4 4 5 7 6
          6 7 9 8 8 9 11 10 10 11 13 12
          12 13 15 14 14 15 17 16 16 17 19 18
          18 19 21 20 20 21 23 22 22 23 25 24
          24 25 27 26 26 27 29 28 28 29 31 30
          30 31 33 32 32 33 35 34 34 35 37 36
          36 37 39 38 38 39 41 40 40 41 43 42
          42 43 45 44 44 45 47 46 46 47 49 48
          48 49 51 50 50 51 53 52 52 53 55 54
          54 55 57 56 56 57 59 58 58 59 61 60
        </DataArray>
        <DataArray type="Int32" Name="offsets" NumberOfComponents="1" format="ascii">
          4 8 12 16 20 24 28 32 36 40 44 48
          52 56 60 64 68 72 76 80 84 88 92 96
          100 104 108 112 116 120
        </DataArray>
        <DataArray type="UInt8" Name="types" NumberOfComponents="1" format="ascii">
          9 9 9 9 9 9 9 9 9 9 9 9
          9 9 9 9 9 9 9 9 9 9 9 9
          9 9 9 9 9 9
        </DataArray>
      </Cells>
    </Piece>
  </UnstructuredGrid>
</VTKFile>
