<?xml version="1.0"?>
<VTKFile type="UnstructuredGrid" version="0.1" byte_order="LittleEndian">
  <UnstructuredGrid>
    <Piece NumberOfCells="30" NumberOfPoints="62">
      <CellData Scalars="Sg">
        <DataArray type="Float32" Name="Sg" NumberOfComponents="1" format="ascii">
          0 0 0 0 0 0 0 0 0 0 0 0
          0 0 0 0 0 0 0 0 0 0 0 0
          0 0 0 0 0 0
        </DataArray>
        <DataArray type="Float32" Name="Sl" NumberOfComponents="1" format="ascii">
          1 1 1 1 1 1 1 1 1 1 1 1
          1 1 1 1 1 1 1 1 1 1 1 1
          1 1 1 1 1 1
        </DataArray>
        <DataArray type="Float32" Name="pg" NumberOfComponents="1" format="ascii">
          24687.8 24360.9 24034 23707 23380.1 23053.1 22726.2 22399.3 22072.3 21745.4 21418.4 21091.5
          20764.6 20437.6 20110.7 19783.7 19456.8 19129.8 18802.9 18476 18149 17822.1 17495.1 17168.2
          16841.3 16514.3 16187.4 15860.4 15533.5 15209.1
        </DataArray>
        <DataArray type="Float32" Name="pl" NumberOfComponents="1" format="ascii">
          110628 110301 109974 109647 109320 108993 108666 108339 108012 107685 107358 107031
          106704 106377 106050 105723 105396 105070 104743 104416 104089 103762 103435 103108
          102781 102454 102127 101800 101473 101149
        </DataArray>
        <DataArray type="Float32" Name="pc" NumberOfComponents="1" format="ascii">
          -85939.7 -85939.7 -85939.7 -85939.7 -85939.7 -85939.7 -85939.7 -85939.7 -85939.7 -85939.7 -85939.7 -85939.7
          -85939.7 -85939.7 -85939.7 -85939.7 -85939.7 -85939.7 -85939.7 -85939.7 -85939.7 -85939.7 -85939.7 -85939.7
          -85939.7 -85939.7 -85939.7 -85939.7 -85939.7 -85939.7
        </DataArray>
        <DataArray type="Float32" Name="rhoL" NumberOfComponents="1" format="ascii">
          999.855 999.855 999.855 999.855 999.855 999.854 999.854 999.854 999.854 999.854 999.854 999.854
          999.853 999.853 999.853 999.853 999.853 999.853 999.852 999.852 999.852 999.852 999.852 999.852
          999.852 999.851 999.851 999.851 999.851 999.851
        </DataArray>
        <DataArray type="Float32" Name="rhoG" NumberOfComponents="1" format="ascii">
          0.30585 0.3018 0.29775 0.293699 0.289649 0.285598 0.281548 0.277498 0.273447 0.269397 0.265347 0.261296
          0.257246 0.253195 0.249145 0.245095 0.241044 0.236994 0.232944 0.228893 0.224843 0.220793 0.216742 0.212692
          0.208641 0.204591 0.200541 0.19649 0.19244 0.188422
        </DataArray>
        <DataArray type="Float32" Name="mobL" NumberOfComponents="1" format="ascii">
          722.171 722.17 722.17 722.17 722.17 722.17 722.169 722.169 722.169 722.169 722.169 722.169
          722.168 722.168 722.168 722.168 722.168 722.167 722.167 722.167 722.167 722.167 722.166 722.166
          722.166 722.166 722.166 722.166 722.165 722.165
        </DataArray>
        <DataArray type="Float32" Name="mobG" NumberOfComponents="1" format="ascii">
          0 0 0 0 0 0 0 0 0 0 0 0
          0 0 0 0 0 0 0 0 0 0 0 0
          0 0 0 0 0 0
        </DataArray>
        <DataArray type="Float32" Name="porosity" NumberOfComponents="1" format="ascii">
          0.298625 0.298625 0.298625 0.298625 0.298624 0.298624 0.298623 0.298622 0.29862 0.298618 0.298616 0.298612
          0.298606 0.298599 0.298589 0.298576 0.298558 0.298534 0.298501 0.298457 0.298397 0.298313 0.298192 0.298014
          0.297465 0.296992 0.296067 0.293741 0.283542 0.0474136
        </DataArray>
        <DataArray type="Float32" Name="temperature" NumberOfComponents="1" format="ascii">
          281.15 281.15 281.15 281.15 281.15 281.15 281.15 281.15 281.15 281.15 281.15 281.15
          281.15 281.15 281.15 281.15 281.15 281.15 281.15 281.15 281.15 281.15 281.15 281.15
          281.15 281.15 281.15 281.15 281.15 281.15
        </DataArray>
        <DataArray type="Float32" Name="phase presence" NumberOfComponents="1" format="ascii">
          1 1 1 1 1 1 1 1 1 1 1 1
          1 1 1 1 1 1 1 1 1 1 1 1
          1 1 1 1 1 1
        </DataArray>
        <DataArray type="Float32" Name="precipitateVolumeFraction_au" NumberOfComponents="1" format="ascii">
          5.52476e-10 5.52764e-10 5.52558e-10 5.52716e-10 5.52724e-10 5.52764e-10 5.52729e-10 5.52742e-10 5.52759e-10 5.52698e-10 5.52755e-10 5.52748e-10
          5.5275e-10 5.5272e-10 5.52706e-10 5.52761e-10 5.52762e-10 5.5275e-10 5.52736e-10 5.52732e-10 5.52729e-10 5.52706e-10 5.52876e-10 9.3098e-10
          0.00026994 0.000269924 0.000269899 0.000269853 5.52275e-10 5.51278e-10
        </DataArray>
        <DataArray type="Float32" Name="precipitateVolumeFraction_nanoAu" NumberOfComponents="1" format="ascii">
          1.23747e-13 1.23834e-13 1.23778e-13 1.2382e-13 1.23822e-13 1.23831e-13 1.23822e-13 1.23825e-13 1.23828e-13 1.23813e-13 1.23826e-13 1.23823e-13
          1.23823e-13 1.23815e-13 1.2381e-13 1.23821e-13 1.2382e-13 1.23814e-13 1.23808e-13 1.23802e-13 1.23795e-13 1.23798e-13 1.35717e-13 2.5791e-11
          6.03859e-08 7.67094e-08 1.02169e-07 1.45574e-07 4.74163e-13 4.66848e-13
        </DataArray>
        <DataArray type="Float32" Name="precipitateVolumeFraction_d" NumberOfComponents="1" format="ascii">
          0.000687251 0.000687324 0.000687426 0.00068757 0.000687771 0.000688053 0.000688446 0.000688992 0.000689749 0.000690794 0.000692229 0.000694192
          0.000696868 0.000700501 0.000705414 0.000712043 0.000720973 0.000733002 0.000749249 0.000771313 0.000801575 0.000843742 0.000903936 0.000993027
          0.00113226 0.00136918 0.00183146 0.00299446 0.00822889 0.126293
        </DataArray>
        <DataArray type="Float32" Name="precipitateVolumeFraction_p" NumberOfComponents="1" format="ascii">
          0.000687251 0.000687324 0.000687426 0.00068757 0.000687771 0.000688053 0.000688446 0.000688992 0.000689749 0.000690794 0.000692229 0.000694192
          0.000696868 0.000700501 0.000705414 0.000712043 0.000720973 0.000733002 0.000749249 0.000771313 0.000801575 0.000843742 0.000903936 0.000993027
          0.00113226 0.00136918 0.00183146 0.00299446 0.00822889 0.126293
        </DataArray>
        <DataArray type="Float32" Name="K" NumberOfComponents="1" format="ascii">
          9.82456e-11 9.82454e-11 9.82451e-11 9.82448e-11 9.82443e-11 9.82436e-11 9.82426e-11 9.82412e-11 9.82393e-11 9.82366e-11 9.8233e-11 9.8228e-11
          9.82212e-11 9.8212e-11 9.81996e-11 9.81828e-11 9.81602e-11 9.81297e-11 9.80886e-11 9.80327e-11 9.79562e-11 9.78497e-11 9.76977e-11 9.74732e-11
          9.67847e-11 9.61931e-11 9.50474e-11 9.22144e-11 8.05943e-11 2.13173e-13
        </DataArray>
        <DataArray type="Float32" Name="X^w_H2O" NumberOfComponents="1" format="ascii">
          0.999853 0.999853 0.999853 0.999853 0.999853 0.999853 0.999853 0.999853 0.999853 0.999853 0.999853 0.999853
          0.999853 0.999853 0.999853 0.999853 0.999853 0.999853 0.999853 0.999853 0.999853 0.999853 0.999853 0.999853
          0.999853 0.999852 0.99985 0.999846 0.999839 0.99984
        </DataArray>
        <DataArray type="Float32" Name="X^w_Air" NumberOfComponents="1" format="ascii">
          0 0 0 0 0 0 0 0 0 0 0 0
          0 0 0 0 0 0 0 0 0 0 0 0
          0 0 0 0 0 0
        </DataArray>
        <DataArray type="Float32" Name="X^w_AuComplex" NumberOfComponents="1" format="ascii">
          1.4122e-16 1.41315e-16 1.41252e-16 1.41298e-16 1.413e-16 1.4131e-16 1.41299e-16 1.41301e-16 1.41305e-16 1.41287e-16 1.41301e-16 1.41298e-16
          1.41296e-16 1.41286e-16 1.4128e-16 1.41291e-16 1.41288e-16 1.4128e-16 1.41269e-16 1.41258e-16 1.41245e-16 1.41237e-16 1.54632e-16 2.94049e-14
          6.88781e-11 1.07429e-10 1.84474e-10 3.64033e-10 1.83501e-15 1.78527e-15
        </DataArray>
        <DataArray type="Float32" Name="X^w_nanoAu" NumberOfComponents="1" format="ascii">
          5.38965e-19 5.39339e-19 5.39097e-19 5.3928e-19 5.39287e-19 5.39329e-19 5.39289e-19 5.39299e-19 5.39313e-19 5.39248e-19 5.39303e-19 5.39292e-19
          5.39289e-19 5.39254e-19 5.39234e-19 5.39281e-19 5.39271e-19 5.39246e-19 5.39214e-19 5.39226e-19 5.42881e-19 8.8468e-19 3.25373e-17 2.95899e-15
          2.6373e-13 3.35211e-13 4.46712e-13 6.26522e-13 2.05865e-18 1.98149e-18
        </DataArray>
        <DataArray type="Float32" Name="X^w_cyanide" NumberOfComponents="1" format="ascii">
          5.07246e-06 5.07244e-06 5.07242e-06 5.07241e-06 5.07239e-06 5.07237e-06 5.07235e-06 5.07233e-06 5.07231e-06 5.07229e-06 5.07226e-06 5.07223e-06
          5.0722e-06 5.07216e-06 5.07212e-06 5.07206e-06 5.07199e-06 5.07189e-06 5.07176e-06 5.07158e-06 5.07133e-06 5.07096e-06 5.07043e-06 5.0696e-06
          5.06876e-06 6.43854e-06 8.57411e-06 1.22385e-05 1.94577e-05 1.92215e-05
        </DataArray>
        <DataArray type="Float32" Name="X^w_citrate" NumberOfComponents="1" format="ascii">
          0.000141796 0.000141796 0.000141796 0.000141796 0.000141796 0.000141796 0.000141796 0.000141796 0.000141796 0.000141796 0.000141796 0.000141796
          0.000141796 0.000141795 0.000141795 0.000141795 0.000141794 0.000141794 0.000141793 0.000141792 0.00014179 0.000141788 0.000141784 0.000141778
          0.000141768 0.000141752 0.000141721 0.000141648 0.000141408 0.000139692
        </DataArray>
        <DataArray type="Float32" Name="X^w_substrate" NumberOfComponents="1" format="ascii">
          7.15973e-12 9.79497e-12 1.33994e-11 1.83294e-11 2.50726e-11 3.42964e-11 4.69147e-11 6.41799e-11 8.78103e-11 1.20166e-10 1.64498e-10 2.25291e-10
          3.0876e-10 4.23557e-10 5.81806e-10 8.00633e-10 1.10449e-09 1.52879e-09 2.12568e-09 2.97372e-09 4.19462e-09 5.98374e-09 8.66938e-09 1.28367e-08
          1.96134e-08 3.14165e-08 5.42732e-08 1.07079e-07 2.77353e-07 1.48765e-06
        </DataArray>
        <DataArray type="Float32" Name="m^w_H2O" NumberOfComponents="1" format="ascii">
          55492.6 55492.6 55492.5 55492.5 55492.5 55492.5 55492.5 55492.5 55492.5 55492.5 55492.5 55492.5
          55492.5 55492.4 55492.4 55492.4 55492.4 55492.4 55492.4 55492.4 55492.4 55492.4 55492.4 55492.4
          55492.3 55492.3 55492.1 55491.9 55491.5 55491.6
        </DataArray>
        <DataArray type="Float32" Name="m^w_Air" NumberOfComponents="1" format="ascii">
          0 0 0 0 0 0 0 0 0 0 0 0
          0 0 0 0 0 0 0 0 0 0 0 0
          0 0 0 0 0 0
        </DataArray>
        <DataArray type="Float32" Name="m^w_AuComplex" NumberOfComponents="1" format="ascii">
          7.16856e-13 7.1734e-13 7.17019e-13 7.17255e-13 7.17262e-13 7.17314e-13 7.17259e-13 7.17271e-13 7.17288e-13 7.17198e-13 7.17269e-13 7.17251e-13
          7.17245e-13 7.17194e-13 7.17162e-13 7.17219e-13 7.172e-13 7.17158e-13 7.17105e-13 7.17051e-13 7.16982e-13 7.16941e-13 7.84936e-13 1.49264e-10
          3.49636e-07 5.45328e-07 9.36421e-07 1.84789e-06 9.31481e-12 9.06229e-12
        </DataArray>
        <DataArray type="Float32" Name="m^w_nanoAu" NumberOfComponents="1" format="ascii">
          2.73588e-15 2.73778e-15 2.73656e-15 2.73748e-15 2.73752e-15 2.73773e-15 2.73752e-15 2.73758e-15 2.73765e-15 2.73732e-15 2.7376e-15 2.73754e-15
          2.73752e-15 2.73735e-15 2.73724e-15 2.73748e-15 2.73743e-15 2.7373e-15 2.73714e-15 2.7372e-15 2.75575e-15 4.49078e-15 1.65165e-13 1.50203e-11
          1.33874e-09 1.70158e-09 2.26758e-09 3.18033e-09 1.045e-14 1.00583e-14
        </DataArray>
        <DataArray type="Float32" Name="m^w_cyanide" NumberOfComponents="1" format="ascii">
          0.194917 0.194916 0.194915 0.194914 0.194914 0.194913 0.194912 0.194911 0.19491 0.194909 0.194909 0.194907
          0.194906 0.194905 0.194903 0.194901 0.194898 0.194894 0.194889 0.194882 0.194872 0.194858 0.194838 0.194806
          0.194773 0.247409 0.329471 0.47028 0.747685 0.738611
        </DataArray>
        <DataArray type="Float32" Name="m^w_citrate" NumberOfComponents="1" format="ascii">
          0.749742 0.749742 0.749742 0.749742 0.749742 0.749741 0.749741 0.749741 0.749741 0.74974 0.74974 0.749739
          0.749739 0.749738 0.749736 0.749735 0.749732 0.749729 0.749724 0.749718 0.749709 0.749695 0.749675 0.749643
          0.749592 0.749509 0.749344 0.748955 0.747687 0.738612
        </DataArray>
        <DataArray type="Float32" Name="m^w_substrate" NumberOfComponents="1" format="ascii">
          3.97352e-08 5.43603e-08 7.43642e-08 1.01725e-07 1.39148e-07 1.90339e-07 2.60368e-07 3.56186e-07 4.8733e-07 6.669e-07 9.12931e-07 1.25032e-06
          1.71356e-06 2.35066e-06 3.22891e-06 4.44336e-06 6.12971e-06 8.48447e-06 1.17971e-05 1.65036e-05 2.32793e-05 3.32086e-05 4.81133e-05 7.12411e-05
          0.000108851 0.000174355 0.000301205 0.000594264 0.00153925 0.00825617
        </DataArray>
        <DataArray type="Float32" Name="process rank" NumberOfComponents="1" format="ascii">
          0 0 0 0 0 0 0 0 0 0 0 0
          0 0 0 0 0 0 0 0 0 0 0 0
          0 0 0 0 0 0
        </DataArray>
      </CellData>
      <Points>
        <DataArray type="Float32" Name="Coordinates" NumberOfComponents="3" format="ascii">
          0 0 0 0.5 0 0 0 0.0333333 0 0.5 0.0333333 0
          0 0.0666667 0 0.5 0.0666667 0 0 0.1 0 0.5 0.1 0
          0 0.133333 0 0.5 0.133333 0 0 0.166667 0 0.5 0.166667 0
          0 0.2 0 0.5 0.2 0 0 0.233333 0 0.5 0.233333 0
          0 0.266667 0 0.5 0.266667 0 0 0.3 0 0.5 0.3 0
          0 0.333333 0 0.5 0.333333 0 0 0.366667 0 0.5 0.366667 0
          0 0.4 0 0.5 0.4 0 0 0.433333 0 0.5 0.433333 0
          0 0.466667 0 0.5 0.466667 0 0 0.5 0 0.5 0.5 0
          0 0.533333 0 0.5 0.533333 0 0 0.566667 0 0.5 0.566667 0
          0 0.6 0 0.5 0.6 0 0 0.633333 0 0.5 0.633333 0
          0 0.666667 0 0.5 0.666667 0 0 0.7 0 0.5 0.7 0
          0 0.733333 0 0.5 0.733333 0 0 0.766667 0 0.5 0.766667 0
          0 0.8 0 0.5 0.8 0 0 0.833333 0 0.5 0.833333 0
          0 0.866667 0 0.5 0.866667 0 0 0.9 0 0.5 0.9 0
          0 0.933333 0 0.5 0.933333 0 0 0.966667 0 0.5 0.966667 0
          0 1 0 0.5 1 0
        </DataArray>
      </Points>
      <Cells>
        <DataArray type="Int32" Name="connectivity" NumberOfComponents="1" format="ascii">
          0 1 3 2 2 3 5 4 4 5 7 6
          6 7 9 8 8 9 11 10 10 11 13 12
          12 13 15 14 14 15 17 16 16 17 19 18
          18 19 21 20 20 21 23 22 22 23 25 24
          24 25 27 26 26 27 29 28 28 29 31 30
          30 31 33 32 32 33 35 34 34 35 37 36
          36 37 39 38 38 39 41 40 40 41 43 42
          42 43 45 44 44 45 47 46 46 47 49 48
          48 49 51 50 50 51 53 52 52 53 55 54
          54 55 57 56 56 57 59 58 58 59 61 60
        </DataArray>
        <DataArray type="Int32" Name="offsets" NumberOfComponents="1" format="ascii">
          4 8 12 16 20 24 28 32 36 40 44 48
          52 56 60 64 68 72 76 80 84 88 92 96
          100 104 108 112 116 120
        </DataArray>
        <DataArray type="UInt8" Name="types" NumberOfComponents="1" format="ascii">
          9 9 9 9 9 9 9 9 9 9 9 9
          9 9 9 9 9 9 9 9 9 9 9 9
          9 9 9 9 9 9
        </DataArray>
      </Cells>
    </Piece>
  </UnstructuredGrid>
</VTKFile>
