<?xml version="1.0"?>
<VTKFile type="UnstructuredGrid" version="0.1" byte_order="LittleEndian">
  <UnstructuredGrid>
    <Piece NumberOfCells="30" NumberOfPoints="62">
      <CellData Scalars="Sg">
        <DataArray type="Float32" Name="Sg" NumberOfComponents="1" format="ascii">
          0 0 0 0 0 0 0 0 0 0 0 0
          0 0 0 0 0 0 0 0 0 0 0 0
          0 0 0 0 0 0
        </DataArray>
        <DataArray type="Float32" Name="Sl" NumberOfComponents="1" format="ascii">
          1 1 1 1 1 1 1 1 1 1 1 1
          1 1 1 1 1 1 1 1 1 1 1 1
          1 1 1 1 1 1
        </DataArray>
        <DataArray type="Float32" Name="pg" NumberOfComponents="1" format="ascii">
          24687.8 24360.9 24034 23707 23380.1 23053.1 22726.2 22399.3 22072.3 21745.4 21418.4 21091.5
          20764.6 20437.6 20110.7 19783.7 19456.8 19129.9 18802.9 18476 18149 17822.1 17495.1 17168.2
          16841.3 16514.3 16187.4 15860.4 15533.5 15206.7
        </DataArray>
        <DataArray type="Float32" Name="pl" NumberOfComponents="1" format="ascii">
          110628 110301 109974 109647 109320 108993 108666 108339 108012 107685 107358 107031
          106704 106377 106050 105723 105396 105070 104743 104416 104089 103762 103435 103108
          102781 102454 102127 101800 101473 101146
        </DataArray>
        <DataArray type="Float32" Name="pc" NumberOfComponents="1" format="ascii">
          -85939.7 -85939.7 -85939.7 -85939.7 -85939.7 -85939.7 -85939.7 -85939.7 -85939.7 -85939.7 -85939.7 -85939.7
          -85939.7 -85939.7 -85939.7 -85939.7 -85939.7 -85939.7 -85939.7 -85939.7 -85939.7 -85939.7 -85939.7 -85939.7
          -85939.7 -85939.7 -85939.7 -85939.7 -85939.7 -85939.7
        </DataArray>
        <DataArray type="Float32" Name="rhoL" NumberOfComponents="1" format="ascii">
          999.855 999.855 999.855 999.855 999.855 999.854 999.854 999.854 999.854 999.854 999.854 999.854
          999.853 999.853 999.853 999.853 999.853 999.853 999.852 999.852 999.852 999.852 999.852 999.852
          999.852 999.851 999.851 999.851 999.851 999.851
        </DataArray>
        <DataArray type="Float32" Name="rhoG" NumberOfComponents="1" format="ascii">
          0.30585 0.3018 0.29775 0.293699 0.289649 0.285598 0.281548 0.277498 0.273447 0.269397 0.265347 0.261296
          0.257246 0.253195 0.249145 0.245095 0.241044 0.236994 0.232944 0.228893 0.224843 0.220793 0.216742 0.212692
          0.208641 0.204591 0.200541 0.19649 0.19244 0.188392
        </DataArray>
        <DataArray type="Float32" Name="mobL" NumberOfComponents="1" format="ascii">
          722.171 722.17 722.17 722.17 722.17 722.17 722.169 722.169 722.169 722.169 722.169 722.169
          722.168 722.168 722.168 722.168 722.168 722.167 722.167 722.167 722.167 722.167 722.166 722.166
          722.166 722.166 722.166 722.166 722.165 722.165
        </DataArray>
        <DataArray type="Float32" Name="mobG" NumberOfComponents="1" format="ascii">
          0 0 0 0 0 0 0 0 0 0 0 0
          0 0 0 0 0 0 0 0 0 0 0 0
          0 0 0 0 0 0
        </DataArray>
        <DataArray type="Float32" Name="porosity" NumberOfComponents="1" format="ascii">
          0.298571 0.298571 0.298571 0.298571 0.29857 0.29857 0.298569 0.298568 0.298566 0.298564 0.298562 0.298558
          0.298552 0.298545 0.298535 0.298522 0.298504 0.29848 0.298448 0.298404 0.298343 0.298259 0.298139 0.297962
          0.297419 0.29696 0.296088 0.294002 0.285944 0.115745
        </DataArray>
        <DataArray type="Float32" Name="temperature" NumberOfComponents="1" format="ascii">
          281.15 281.15 281.15 281.15 281.15 281.15 281.15 281.15 281.15 281.15 281.15 281.15
          281.15 281.15 281.15 281.15 281.15 281.15 281.15 281.15 281.15 281.15 281.15 281.15
          281.15 281.15 281.15 281.15 281.15 281.15
        </DataArray>
        <DataArray type="Float32" Name="phase presence" NumberOfComponents="1" format="ascii">
          1 1 1 1 1 1 1 1 1 1 1 1
          1 1 1 1 1 1 1 1 1 1 1 1
          1 1 1 1 1 1
        </DataArray>
        <DataArray type="Float32" Name="precipitateVolumeFraction_au" NumberOfComponents="1" format="ascii">
          5.52408e-10 5.52512e-10 5.5246e-10 5.52458e-10 5.52479e-10 5.52501e-10 5.5252e-10 5.52513e-10 5.52501e-10 5.52503e-10 5.52449e-10 5.52493e-10
          5.52494e-10 5.52507e-10 5.52496e-10 5.52518e-10 5.52476e-10 5.52492e-10 5.52424e-10 5.52518e-10 5.52473e-10 5.52423e-10 5.52536e-10 7.31353e-10
          0.00026994 0.000269924 0.000269899 0.000269854 5.5221e-10 5.50638e-10
        </DataArray>
        <DataArray type="Float32" Name="precipitateVolumeFraction_nanoAu" NumberOfComponents="1" format="ascii">
          3.67842e-13 3.91495e-13 3.83494e-13 3.84447e-13 3.86896e-13 3.88779e-13 3.89832e-13 3.89014e-13 3.88182e-13 3.88047e-13 3.86433e-13 3.87652e-13
          3.87654e-13 3.87804e-13 3.87594e-13 3.87788e-13 3.87328e-13 3.87447e-13 3.86988e-13 3.87526e-13 3.87276e-13 3.87091e-13 3.99207e-13 2.61901e-11
          6.05044e-08 7.68416e-08 1.02294e-07 1.45587e-07 7.3509e-13 7.21932e-13
        </DataArray>
        <DataArray type="Float32" Name="precipitateVolumeFraction_d" NumberOfComponents="1" format="ascii">
          0.000714399 0.000714468 0.000714565 0.000714702 0.000714895 0.000715166 0.000715544 0.000716073 0.000716808 0.000717826 0.00071923 0.000721159
          0.000723797 0.00072739 0.000732266 0.000738864 0.000747775 0.000759804 0.000776071 0.000798177 0.000828484 0.000870643 0.000930626 0.0010189
          0.00115563 0.00138486 0.00182084 0.00286406 0.00702783 0.0921274
        </DataArray>
        <DataArray type="Float32" Name="precipitateVolumeFraction_p" NumberOfComponents="1" format="ascii">
          0.000714399 0.000714468 0.000714565 0.000714702 0.000714895 0.000715166 0.000715544 0.000716073 0.000716808 0.000717826 0.00071923 0.000721159
          0.000723797 0.00072739 0.000732266 0.000738864 0.000747775 0.000759804 0.000776071 0.000798177 0.000828484 0.000870643 0.000930626 0.0010189
          0.00115563 0.00138486 0.00182084 0.00286406 0.00702783 0.0921274
        </DataArray>
        <DataArray type="Float32" Name="K" NumberOfComponents="1" format="ascii">
          9.81768e-11 9.81766e-11 9.81764e-11 9.8176e-11 9.81755e-11 9.81749e-11 9.81739e-11 9.81726e-11 9.81707e-11 9.81681e-11 9.81646e-11 9.81597e-11
          9.8153e-11 9.81439e-11 9.81316e-11 9.81148e-11 9.80923e-11 9.80619e-11 9.80207e-11 9.79648e-11 9.78882e-11 9.77817e-11 9.76304e-11 9.7408e-11
          9.67262e-11 9.61541e-11 9.50736e-11 9.25285e-11 8.32171e-11 3.59904e-12
        </DataArray>
        <DataArray type="Float32" Name="X^w_H2O" NumberOfComponents="1" format="ascii">
          0.99986 0.99986 0.99986 0.99986 0.99986 0.99986 0.99986 0.99986 0.99986 0.99986 0.99986 0.99986
          0.99986 0.99986 0.99986 0.99986 0.99986 0.99986 0.99986 0.99986 0.99986 0.99986 0.99986 0.99986
          0.99986 0.999859 0.999857 0.999853 0.999846 0.999847
        </DataArray>
        <DataArray type="Float32" Name="X^w_Air" NumberOfComponents="1" format="ascii">
          2.50795e-21 4.48499e-23 7.88748e-25 1.36241e-26 2.31485e-28 3.86985e-30 6.35712e-32 1.02636e-33 1.6291e-35 2.54042e-37 0 0
          0 0 0 0 0 0 0 0 0 0 0 0
          0 0 0 0 0 0
        </DataArray>
        <DataArray type="Float32" Name="X^w_AuComplex" NumberOfComponents="1" format="ascii">
          3.76827e-16 3.99627e-16 3.91907e-16 3.92821e-16 3.95177e-16 3.96987e-16 3.97998e-16 3.97203e-16 3.96395e-16 3.96258e-16 3.94694e-16 3.95864e-16
          3.95859e-16 3.95996e-16 3.95784e-16 3.95962e-16 3.95505e-16 3.95608e-16 3.95145e-16 3.95645e-16 3.95372e-16 3.95151e-16 4.08722e-16 2.98426e-14
          6.90912e-11 1.07722e-10 1.84839e-10 3.64151e-10 2.79478e-15 2.70272e-15
        </DataArray>
        <DataArray type="Float32" Name="X^w_nanoAu" NumberOfComponents="1" format="ascii">
          1.5235e-18 1.62e-18 1.58728e-18 1.59129e-18 1.6014e-18 1.60916e-18 1.61344e-18 1.61005e-18 1.60664e-18 1.60601e-18 1.59946e-18 1.60445e-18
          1.60446e-18 1.60506e-18 1.60421e-18 1.60498e-18 1.60309e-18 1.60356e-18 1.60169e-18 1.6039e-18 1.60638e-18 1.93279e-18 3.21763e-17 2.82299e-15
          2.51022e-13 3.18964e-13 4.248e-13 5.94971e-13 3.02866e-18 2.89787e-18
        </DataArray>
        <DataArray type="Float32" Name="X^w_cyanide" NumberOfComponents="1" format="ascii">
          5.08242e-06 5.08235e-06 5.08229e-06 5.08222e-06 5.08215e-06 5.08208e-06 5.08201e-06 5.08193e-06 5.08186e-06 5.08178e-06 5.08169e-06 5.0816e-06
          5.08151e-06 5.08141e-06 5.0813e-06 5.08117e-06 5.08102e-06 5.08085e-06 5.08063e-06 5.08034e-06 5.07996e-06 5.07942e-06 5.07864e-06 5.07746e-06
          5.07604e-06 6.4464e-06 8.58163e-06 1.22415e-05 1.94348e-05 1.91339e-05
        </DataArray>
        <DataArray type="Float32" Name="X^w_citrate" NumberOfComponents="1" format="ascii">
          0.000134707 0.000134707 0.000134707 0.000134707 0.000134707 0.000134707 0.000134707 0.000134707 0.000134707 0.000134707 0.000134707 0.000134707
          0.000134707 0.000134707 0.000134706 0.000134706 0.000134706 0.000134705 0.000134704 0.000134702 0.0001347 0.000134697 0.000134692 0.000134685
          0.000134672 0.000134651 0.000134607 0.000134506 0.00013418 0.000132102
        </DataArray>
        <DataArray type="Float32" Name="X^w_substrate" NumberOfComponents="1" format="ascii">
          5.66697e-12 7.91622e-12 1.10579e-11 1.54462e-11 2.1576e-11 3.01391e-11 4.21028e-11 5.88213e-11 8.21911e-11 1.14873e-10 1.60607e-10 2.24662e-10
          3.14488e-10 4.40666e-10 6.18318e-10 8.69223e-10 1.22507e-09 1.7326e-09 2.46188e-09 3.52028e-09 5.07686e-09 7.40719e-09 1.09809e-08 1.66455e-08
          2.60512e-08 4.27574e-08 7.56428e-08 1.52209e-07 3.94741e-07 1.93714e-06
        </DataArray>
        <DataArray type="Float32" Name="m^w_H2O" NumberOfComponents="1" format="ascii">
          55492.9 55492.9 55492.9 55492.9 55492.9 55492.9 55492.9 55492.9 55492.9 55492.9 55492.9 55492.9
          55492.8 55492.8 55492.8 55492.8 55492.8 55492.8 55492.8 55492.8 55492.8 55492.8 55492.8 55492.8
          55492.7 55492.7 55492.5 55492.3 55491.9 55492
        </DataArray>
        <DataArray type="Float32" Name="m^w_Air" NumberOfComponents="1" format="ascii">
          8.65881e-17 1.54846e-18 2.72318e-20 4.70376e-22 7.99209e-24 1.33608e-25 2.19482e-27 3.54356e-29 5.62453e-31 8.77088e-33 1.34238e-34 2.01751e-36
          2.97824e-38 0 0 0 0 0 0 0 0 0 0 0
          0 0 0 0 0 0
        </DataArray>
        <DataArray type="Float32" Name="m^w_AuComplex" NumberOfComponents="1" format="ascii">
          1.91284e-12 2.02858e-12 1.98939e-12 1.99403e-12 2.00599e-12 2.01518e-12 2.02031e-12 2.01627e-12 2.01217e-12 2.01148e-12 2.00354e-12 2.00947e-12
          2.00945e-12 2.01014e-12 2.00907e-12 2.00997e-12 2.00765e-12 2.00817e-12 2.00582e-12 2.00836e-12 2.00697e-12 2.00585e-12 2.07474e-12 1.51486e-10
          3.50718e-07 5.46814e-07 9.38271e-07 1.84849e-06 1.41867e-11 1.37194e-11
        </DataArray>
        <DataArray type="Float32" Name="m^w_nanoAu" NumberOfComponents="1" format="ascii">
          7.73358e-15 8.22341e-15 8.05732e-15 8.07769e-15 8.12901e-15 8.16838e-15 8.19009e-15 8.1729e-15 8.15557e-15 8.15239e-15 8.11912e-15 8.14444e-15
          8.14452e-15 8.14758e-15 8.14323e-15 8.14714e-15 8.13757e-15 8.13991e-15 8.13043e-15 8.14165e-15 8.15426e-15 9.81117e-15 1.63332e-13 1.433e-11
          1.27423e-09 1.61911e-09 2.15635e-09 3.02017e-09 1.53739e-14 1.471e-14
        </DataArray>
        <DataArray type="Float32" Name="m^w_cyanide" NumberOfComponents="1" format="ascii">
          0.195299 0.195297 0.195294 0.195291 0.195289 0.195286 0.195283 0.19528 0.195277 0.195274 0.195271 0.195268
          0.195264 0.19526 0.195256 0.195251 0.195245 0.195238 0.19523 0.195219 0.195204 0.195183 0.195153 0.195108
          0.195053 0.247711 0.32976 0.470394 0.746808 0.735245
        </DataArray>
        <DataArray type="Float32" Name="m^w_citrate" NumberOfComponents="1" format="ascii">
          0.71226 0.71226 0.71226 0.71226 0.71226 0.71226 0.712259 0.712259 0.712259 0.712259 0.712258 0.712258
          0.712257 0.712256 0.712254 0.712252 0.71225 0.712246 0.712241 0.712233 0.712222 0.712205 0.71218 0.712139
          0.712072 0.711958 0.711729 0.711191 0.709472 0.698484
        </DataArray>
        <DataArray type="Float32" Name="m^w_substrate" NumberOfComponents="1" format="ascii">
          3.14507e-08 4.39336e-08 6.13694e-08 8.57237e-08 1.19743e-07 1.67266e-07 2.33663e-07 3.26447e-07 4.56145e-07 6.37525e-07 8.91338e-07 1.24683e-06
          1.74535e-06 2.44561e-06 3.43155e-06 4.82402e-06 6.79892e-06 9.61559e-06 1.36629e-05 1.95369e-05 2.81756e-05 4.11084e-05 6.09417e-05 9.23794e-05
          0.000144579 0.000237295 0.000419802 0.000844727 0.00219073 0.0107507
        </DataArray>
        <DataArray type="Float32" Name="process rank" NumberOfComponents="1" format="ascii">
          0 0 0 0 0 0 0 0 0 0 0 0
          0 0 0 0 0 0 0 0 0 0 0 0
          0 0 0 0 0 0
        </DataArray>
      </CellData>
      <Points>
        <DataArray type="Float32" Name="Coordinates" NumberOfComponents="3" format="ascii">
          0 0 0 0.5 0 0 0 0.0333333 0 0.5 0.0333333 0
          0 0.0666667 0 0.5 0.0666667 0 0 0.1 0 0.5 0.1 0
          0 0.133333 0 0.5 0.133333 0 0 0.166667 0 0.5 0.166667 0
          0 0.2 0 0.5 0.2 0 0 0.233333 0 0.5 0.233333 0
          0 0.266667 0 0.5 0.266667 0 0 0.3 0 0.5 0.3 0
          0 0.333333 0 0.5 0.333333 0 0 0.366667 0 0.5 0.366667 0
          0 0.4 0 0.5 0.4 0 0 0.433333 0 0.5 0.433333 0
          0 0.466667 0 0.5 0.466667 0 0 0.5 0 0.5 0.5 0
          0 0.533333 0 0.5 0.533333 0 0 0.566667 0 0.5 0.566667 0
          0 0.6 0 0.5 0.6 0 0 0.633333 0 0.5 0.633333 0
          0 0.666667 0 0.5 0.666667 0 0 0.7 0 0.5 0.7 0
          0 0.733333 0 0.5 0.733333 0 0 0.766667 0 0.5 0.766667 0
          0 0.8 0 0.5 0.8 0 0 0.833333 0 0.5 0.833333 0
          0 0.866667 0 0.5 0.866667 0 0 0.9 0 0.5 0.9 0
          0 0.933333 0 0.5 0.933333 0 0 0.966667 0 0.5 0.966667 0
          0 1 0 0.5 1 0
        </DataArray>
      </Points>
      <Cells>
        <DataArray type="Int32" Name="connectivity" NumberOfComponents="1" format="ascii">
          0 1 3 2 2 3 5 4 4 5 7 6
          6 7 9 8 8 9 11 10 10 11 13 12
          12 13 15 14 14 15 17 16 16 17 19 18
          18 19 21 20 20 21 23 22 22 23 25 24
          24 25 27 26 26 27 29 28 28 29 31 30
          30 31 33 32 32 33 35 34 34 35 37 36
          36 37 39 38 38 39 41 40 40 41 43 42
          42 43 45 44 44 45 47 46 46 47 49 48
          48 49 51 50 50 51 53 52 52 53 55 54
          54 55 57 56 56 57 59 58 58 59 61 60
        </DataArray>
        <DataArray type="Int32" Name="offsets" NumberOfComponents="1" format="ascii">
          4 8 12 16 20 24 28 32 36 40 44 48
          52 56 60 64 68 72 76 80 84 88 92 96
          100 104 108 112 116 120
        </DataArray>
        <DataArray type="UInt8" Name="types" NumberOfComponents="1" format="ascii">
          9 9 9 9 9 9 9 9 9 9 9 9
          9 9 9 9 9 9 9 9 9 9 9 9
          9 9 9 9 9 9
        </DataArray>
      </Cells>
    </Piece>
  </UnstructuredGrid>
</VTKFile>
