<?xml version="1.0"?>
<VTKFile type="UnstructuredGrid" version="0.1" byte_order="LittleEndian">
  <UnstructuredGrid>
    <Piece NumberOfCells="30" NumberOfPoints="62">
      <CellData Scalars="Sg">
        <DataArray type="Float32" Name="Sg" NumberOfComponents="1" format="ascii">
          0.0987922 0.0987862 0.0987801 0.0987739 0.0987678 0.0987616 0.0987554 0.0987491 0.0987429 0.0987368 0.0987307 0.0987248
          0.0987191 0.0987137 0.0987087 0.0987043 0.0987007 0.0986983 0.0986972 0.0986978 0.0986993 0.0986936 0.0986326 0.0982702
          0.0964708 0.08854 0.0580653 0 0 0
        </DataArray>
        <DataArray type="Float32" Name="Sl" NumberOfComponents="1" format="ascii">
          0.901208 0.901214 0.90122 0.901226 0.901232 0.901238 0.901245 0.901251 0.901257 0.901263 0.901269 0.901275
          0.901281 0.901286 0.901291 0.901296 0.901299 0.901302 0.901303 0.901302 0.901301 0.901306 0.901367 0.90173
          0.903529 0.91146 0.941935 1 1 1
        </DataArray>
        <DataArray type="Float32" Name="pg" NumberOfComponents="1" format="ascii">
          52988.4 52659.7 52331.1 52002.4 51673.6 51344.9 51016.2 50687.5 50358.8 50030.1 49701.4 49372.7
          49044.2 48715.7 48387.3 48059.1 47731.2 47403.5 47076.3 46749.5 46423 46094.4 45750 45319.2
          44476.8 41878 32821.1 15860.4 15533.5 15206.6
        </DataArray>
        <DataArray type="Float32" Name="pl" NumberOfComponents="1" format="ascii">
          110628 110301 109974 109647 109320 108993 108666 108339 108012 107685 107358 107031
          106704 106377 106050 105723 105396 105070 104743 104416 104089 103762 103435 103108
          102781 102454 102127 101800 101473 101146
        </DataArray>
        <DataArray type="Float32" Name="pc" NumberOfComponents="1" format="ascii">
          -57639.1 -57640.8 -57642.6 -57644.3 -57646.1 -57647.9 -57649.7 -57651.5 -57653.2 -57655 -57656.7 -57658.4
          -57660.1 -57661.6 -57663 -57664.3 -57665.3 -57666 -57666.3 -57666.1 -57665.7 -57667.4 -57684.8 -57788.6
          -58304.1 -60576 -69306 -85939.7 -85939.7 -85939.7
        </DataArray>
        <DataArray type="Float32" Name="rhoL" NumberOfComponents="1" format="ascii">
          999.855 999.855 999.855 999.855 999.855 999.854 999.854 999.854 999.854 999.854 999.854 999.854
          999.853 999.853 999.853 999.853 999.853 999.853 999.852 999.852 999.852 999.852 999.852 999.852
          999.852 999.851 999.851 999.851 999.851 999.851
        </DataArray>
        <DataArray type="Float32" Name="rhoG" NumberOfComponents="1" format="ascii">
          0.656458 0.652386 0.648314 0.644242 0.640169 0.636097 0.632025 0.627952 0.62388 0.619808 0.615736 0.611664
          0.607594 0.603524 0.599456 0.59539 0.591327 0.587268 0.583214 0.579166 0.575121 0.57105 0.566783 0.561447
          0.55101 0.518814 0.406611 0.19649 0.19244 0.18839
        </DataArray>
        <DataArray type="Float32" Name="mobL" NumberOfComponents="1" format="ascii">
          722.171 722.17 722.17 722.17 722.17 722.17 722.169 722.169 722.169 722.169 722.169 722.169
          722.168 722.168 722.168 722.168 722.168 722.167 722.167 722.167 722.167 722.167 722.166 722.166
          722.166 722.166 722.166 722.166 722.165 722.165
        </DataArray>
        <DataArray type="Float32" Name="mobG" NumberOfComponents="1" format="ascii">
          0 0 0 0 0 0 0 0 0 0 0 0
          0 0 0 0 0 0 0 0 0 0 0 0
          0 0 0 0 0 0
        </DataArray>
        <DataArray type="Float32" Name="porosity" NumberOfComponents="1" format="ascii">
          0.298479 0.298479 0.298478 0.298478 0.298478 0.298478 0.298478 0.298477 0.298476 0.298475 0.298473 0.29847
          0.298466 0.298461 0.298453 0.298442 0.298428 0.298408 0.298382 0.298346 0.298298 0.298234 0.298146 0.298024
          0.297582 0.297331 0.296949 0.296339 0.29558 0.293685
        </DataArray>
        <DataArray type="Float32" Name="temperature" NumberOfComponents="1" format="ascii">
          281.15 281.15 281.15 281.15 281.15 281.15 281.15 281.15 281.15 281.15 281.15 281.15
          281.15 281.15 281.15 281.15 281.15 281.15 281.15 281.15 281.15 281.15 281.15 281.15
          281.15 281.15 281.15 281.15 281.15 281.15
        </DataArray>
        <DataArray type="Float32" Name="phase presence" NumberOfComponents="1" format="ascii">
          3 3 3 3 3 3 3 3 3 3 3 3
          3 3 3 3 3 3 3 3 3 3 3 3
          3 3 3 1 1 1
        </DataArray>
        <DataArray type="Float32" Name="precipitateVolumeFraction_au" NumberOfComponents="1" format="ascii">
          2.9569e-10 2.95687e-10 2.95687e-10 2.95687e-10 2.95687e-10 2.95687e-10 2.95687e-10 2.95687e-10 2.95687e-10 2.95688e-10 2.95688e-10 2.95688e-10
          2.95689e-10 2.95689e-10 2.9569e-10 2.95691e-10 2.95692e-10 2.95693e-10 2.95695e-10 2.95696e-10 2.95699e-10 2.95701e-10 2.95704e-10 2.98243e-10
          0.000269952 0.000269951 0.00026995 0.000269952 2.95765e-10 2.95104e-10
        </DataArray>
        <DataArray type="Float32" Name="precipitateVolumeFraction_nanoAu" NumberOfComponents="1" format="ascii">
          2.57181e-10 2.57179e-10 2.57179e-10 2.57179e-10 2.57179e-10 2.57179e-10 2.57178e-10 2.57178e-10 2.57178e-10 2.57178e-10 2.57177e-10 2.57177e-10
          2.57176e-10 2.57175e-10 2.57174e-10 2.57173e-10 2.57172e-10 2.5717e-10 2.57168e-10 2.57166e-10 2.57162e-10 2.57159e-10 2.57157e-10 2.68422e-10
          4.8777e-08 4.9751e-08 5.0085e-08 4.89633e-08 2.57208e-10 2.56542e-10
        </DataArray>
        <DataArray type="Float32" Name="precipitateVolumeFraction_d" NumberOfComponents="1" format="ascii">
          0.000760717 0.000760737 0.00076077 0.000760822 0.000760904 0.000761031 0.000761228 0.000761526 0.000761974 0.000762635 0.000763599 0.000764987
          0.00076696 0.000769733 0.000773585 0.000778885 0.000786115 0.00079591 0.000809116 0.000826874 0.000850766 0.000883048 0.000927052 0.000987918
          0.00107397 0.00119961 0.00139051 0.00169537 0.00221019 0.00315765
        </DataArray>
        <DataArray type="Float32" Name="precipitateVolumeFraction_p" NumberOfComponents="1" format="ascii">
          0.000760717 0.000760737 0.00076077 0.000760822 0.000760904 0.000761031 0.000761228 0.000761526 0.000761974 0.000762635 0.000763599 0.000764987
          0.00076696 0.000769733 0.000773585 0.000778885 0.000786115 0.00079591 0.000809116 0.000826874 0.000850766 0.000883048 0.000927052 0.000987918
          0.00107397 0.00119961 0.00139051 0.00169537 0.00221019 0.00315765
        </DataArray>
        <DataArray type="Float32" Name="K" NumberOfComponents="1" format="ascii">
          9.80595e-11 9.80595e-11 9.80594e-11 9.80593e-11 9.80591e-11 9.80587e-11 9.80582e-11 9.80575e-11 9.80564e-11 9.80547e-11 9.80523e-11 9.80487e-11
          9.80437e-11 9.80367e-11 9.8027e-11 9.80136e-11 9.79953e-11 9.79705e-11 9.79371e-11 9.78923e-11 9.78319e-11 9.77504e-11 9.76394e-11 9.7486e-11
          9.69307e-11 9.66162e-11 9.614e-11 9.53835e-11 9.44478e-11 9.21465e-11
        </DataArray>
        <DataArray type="Float32" Name="X^w_H2O" NumberOfComponents="1" format="ascii">
          0.999831 0.999831 0.999831 0.999831 0.999831 0.999831 0.999832 0.999832 0.999832 0.999832 0.999833 0.999833
          0.999833 0.999834 0.999834 0.999835 0.999836 0.999836 0.999837 0.999838 0.999839 0.99984 0.999841 0.999843
          0.999844 0.999844 0.999847 0.999855 0.99986 0.999871
        </DataArray>
        <DataArray type="Float32" Name="X^w_Air" NumberOfComponents="1" format="ascii">
          1.60925e-05 1.59906e-05 1.58887e-05 1.57868e-05 1.56849e-05 1.5583e-05 1.54811e-05 1.53792e-05 1.52773e-05 1.51755e-05 1.50736e-05 1.49717e-05
          1.48699e-05 1.4768e-05 1.46663e-05 1.45645e-05 1.44629e-05 1.43613e-05 1.42599e-05 1.41586e-05 1.40574e-05 1.39555e-05 1.38488e-05 1.37153e-05
          1.34542e-05 1.26486e-05 9.84119e-06 2.1011e-06 2.0161e-08 1.44708e-10
        </DataArray>
        <DataArray type="Float32" Name="X^w_AuComplex" NumberOfComponents="1" format="ascii">
          9.2416e-13 9.23399e-13 9.22499e-13 9.18179e-13 9.17039e-13 9.13661e-13 9.12759e-13 9.0618e-13 8.987e-13 8.92205e-13 8.82624e-13 8.70409e-13
          8.57446e-13 8.39541e-13 8.20346e-13 7.98251e-13 7.73798e-13 7.44996e-13 7.14722e-13 6.79462e-13 6.40576e-13 6.03716e-13 5.62913e-13 5.48949e-13
          1.10378e-10 1.26097e-10 1.42501e-10 1.5509e-10 7.0316e-13 4.98542e-13
        </DataArray>
        <DataArray type="Float32" Name="X^w_nanoAu" NumberOfComponents="1" format="ascii">
          1.74335e-15 -2.32015e-16 8.16348e-17 6.16058e-16 6.89859e-16 9.52857e-16 1.26471e-15 7.54104e-16 2.98362e-15 1.34377e-15 2.58387e-16 1.81012e-16
          1.78147e-15 8.68408e-16 -1.20434e-16 8.4474e-16 1.87957e-15 9.92417e-16 -1.52825e-16 -2.15699e-16 9.50193e-16 2.92918e-15 9.64287e-16 3.99172e-15
          1.90609e-13 1.89492e-13 1.58883e-13 1.6783e-13 7.84616e-16 5.51588e-16
        </DataArray>
        <DataArray type="Float32" Name="X^w_cyanide" NumberOfComponents="1" format="ascii">
          1.89387e-05 1.89197e-05 1.88934e-05 1.88578e-05 1.88102e-05 1.87478e-05 1.86671e-05 1.85643e-05 1.84353e-05 1.82754e-05 1.80796e-05 1.78429e-05
          1.75597e-05 1.72247e-05 1.6833e-05 1.63804e-05 1.58639e-05 1.52823e-05 1.46367e-05 1.39306e-05 1.31694e-05 1.23603e-05 1.15102e-05 1.0623e-05
          9.69382e-06 1.08976e-05 1.22505e-05 1.35797e-05 1.44116e-05 1.02449e-05
        </DataArray>
        <DataArray type="Float32" Name="X^w_citrate" NumberOfComponents="1" format="ascii">
          0.000133013 0.00013301 0.000133005 0.000132999 0.00013299 0.000132978 0.000132961 0.000132938 0.000132908 0.000132868 0.000132817 0.000132753
          0.000132673 0.000132575 0.000132455 0.000132308 0.000132129 0.00013191 0.000131637 0.000131293 0.00013085 0.000130265 0.000129468 0.000128345
          0.000126697 0.000124159 0.00012004 0.000112974 9.96535e-05 7.07964e-05
        </DataArray>
        <DataArray type="Float32" Name="X^w_substrate" NumberOfComponents="1" format="ascii">
          1.27967e-06 1.28148e-06 1.2842e-06 1.28822e-06 1.29404e-06 1.30231e-06 1.31384e-06 1.32961e-06 1.35077e-06 1.37864e-06 1.4147e-06 1.46061e-06
          1.51824e-06 1.58973e-06 1.67767e-06 1.78534e-06 1.91719e-06 2.07948e-06 2.28134e-06 2.5363e-06 2.86494e-06 3.29926e-06 3.89048e-06 4.72382e-06
          5.94719e-06 7.83109e-06 1.08887e-05 1.6135e-05 2.60223e-05 4.74415e-05
        </DataArray>
        <DataArray type="Float32" Name="m^w_H2O" NumberOfComponents="1" format="ascii">
          55491.3 55491.3 55491.3 55491.3 55491.3 55491.3 55491.3 55491.3 55491.3 55491.3 55491.3 55491.3
          55491.4 55491.4 55491.4 55491.4 55491.4 55491.5 55491.5 55491.6 55491.6 55491.7 55491.7 55491.8
          55491.9 55491.9 55492 55492.4 55492.7 55493.3
        </DataArray>
        <DataArray type="Float32" Name="m^w_Air" NumberOfComponents="1" format="ascii">
          0.555599 0.552081 0.548563 0.545046 0.541528 0.53801 0.534492 0.530974 0.527456 0.523938 0.52042 0.516903
          0.513387 0.509871 0.506357 0.502845 0.499335 0.495829 0.492326 0.48883 0.485335 0.481819 0.478133 0.473524
          0.464508 0.436696 0.339769 0.0725409 0.000696064 4.99607e-06
        </DataArray>
        <DataArray type="Float32" Name="m^w_AuComplex" NumberOfComponents="1" format="ascii">
          4.69121e-09 4.68734e-09 4.68277e-09 4.66084e-09 4.65505e-09 4.6379e-09 4.63332e-09 4.59993e-09 4.56196e-09 4.52899e-09 4.48035e-09 4.41835e-09
          4.35254e-09 4.26165e-09 4.16422e-09 4.05206e-09 3.92793e-09 3.78173e-09 3.62805e-09 3.44906e-09 3.25167e-09 3.06456e-09 2.85744e-09 2.78655e-09
          5.60294e-07 6.40086e-07 7.23358e-07 7.87262e-07 3.56935e-09 2.53068e-09
        </DataArray>
        <DataArray type="Float32" Name="m^w_nanoAu" NumberOfComponents="1" format="ascii">
          8.84957e-12 -1.17775e-12 4.14393e-13 3.12722e-12 3.50185e-12 4.83687e-12 6.41989e-12 3.82796e-12 1.51454e-11 6.82122e-12 1.31162e-12 9.18846e-13
          9.04303e-12 4.40819e-12 -6.11342e-13 4.28804e-12 9.541e-12 5.03767e-12 -7.75764e-13 -1.09493e-12 4.82334e-12 1.4869e-11 4.89488e-12 2.02626e-11
          9.6756e-10 9.61892e-10 8.06517e-10 8.5193e-10 3.98283e-12 2.79995e-12
        </DataArray>
        <DataArray type="Float32" Name="m^w_cyanide" NumberOfComponents="1" format="ascii">
          0.727747 0.727016 0.726007 0.724637 0.72281 0.720411 0.717309 0.71336 0.708401 0.702256 0.694734 0.685636
          0.674754 0.661883 0.646832 0.629439 0.60959 0.587242 0.562434 0.535299 0.506052 0.474961 0.442293 0.408203
          0.372497 0.418756 0.470741 0.521818 0.553782 0.393671
        </DataArray>
        <DataArray type="Float32" Name="m^w_citrate" NumberOfComponents="1" format="ascii">
          0.7033 0.703285 0.703262 0.703229 0.703182 0.703117 0.703027 0.702905 0.702744 0.702535 0.702266 0.701927
          0.701505 0.700985 0.700349 0.699574 0.698629 0.697468 0.696026 0.694207 0.691864 0.688769 0.684556 0.678618
          0.669903 0.656485 0.634707 0.597343 0.526912 0.374332
        </DataArray>
        <DataArray type="Float32" Name="m^w_substrate" NumberOfComponents="1" format="ascii">
          0.00710195 0.00711199 0.00712708 0.00714936 0.00718166 0.00722757 0.00729158 0.0073791 0.00749653 0.00765119 0.00785131 0.00810613
          0.00842596 0.00882272 0.00931073 0.00990828 0.01064 0.0115407 0.012661 0.014076 0.0158999 0.0183102 0.0215914 0.0262162
          0.0330057 0.043461 0.0604303 0.0895458 0.144419 0.26329
        </DataArray>
        <DataArray type="Float32" Name="process rank" NumberOfComponents="1" format="ascii">
          0 0 0 0 0 0 0 0 0 0 0 0
          0 0 0 0 0 0 0 0 0 0 0 0
          0 0 0 0 0 0
        </DataArray>
      </CellData>
      <Points>
        <DataArray type="Float32" Name="Coordinates" NumberOfComponents="3" format="ascii">
          0 0 0 0.5 0 0 0 0.0333333 0 0.5 0.0333333 0
          0 0.0666667 0 0.5 0.0666667 0 0 0.1 0 0.5 0.1 0
          0 0.133333 0 0.5 0.133333 0 0 0.166667 0 0.5 0.166667 0
          0 0.2 0 0.5 0.2 0 0 0.233333 0 0.5 0.233333 0
          0 0.266667 0 0.5 0.266667 0 0 0.3 0 0.5 0.3 0
          0 0.333333 0 0.5 0.333333 0 0 0.366667 0 0.5 0.366667 0
          0 0.4 0 0.5 0.4 0 0 0.433333 0 0.5 0.433333 0
          0 0.466667 0 0.5 0.466667 0 0 0.5 0 0.5 0.5 0
          0 0.533333 0 0.5 0.533333 0 0 0.566667 0 0.5 0.566667 0
          0 0.6 0 0.5 0.6 0 0 0.633333 0 0.5 0.633333 0
          0 0.666667 0 0.5 0.666667 0 0 0.7 0 0.5 0.7 0
          0 0.733333 0 0.5 0.733333 0 0 0.766667 0 0.5 0.766667 0
          0 0.8 0 0.5 0.8 0 0 0.833333 0 0.5 0.833333 0
          0 0.866667 0 0.5 0.866667 0 0 0.9 0 0.5 0.9 0
          0 0.933333 0 0.5 0.933333 0 0 0.966667 0 0.5 0.966667 0
          0 1 0 0.5 1 0
        </DataArray>
      </Points>
      <Cells>
        <DataArray type="Int32" Name="connectivity" NumberOfComponents="1" format="ascii">
          0 1 3 2 2 3 5 4 4 5 7 6
          6 7 9 8 8 9 11 10 10 11 13 12
          12 13 15 14 14 15 17 16 16 17 19 18
          18 19 21 20 20 21 23 22 22 23 25 24
          24 25 27 26 26 27 29 28 28 29 31 30
          30 31 33 32 32 33 35 34 34 35 37 36
          36 37 39 38 38 39 41 40 40 41 43 42
          42 43 45 44 44 45 47 46 46 47 49 48
          48 49 51 50 50 51 53 52 52 53 55 54
          54 55 57 56 56 57 59 58 58 59 61 60
        </DataArray>
        <DataArray type="Int32" Name="offsets" NumberOfComponents="1" format="ascii">
          4 8 12 16 20 24 28 32 36 40 44 48
          52 56 60 64 68 72 76 80 84 88 92 96
          100 104 108 112 116 120
        </DataArray>
        <DataArray type="UInt8" Name="types" NumberOfComponents="1" format="ascii">
          9 9 9 9 9 9 9 9 9 9 9 9
          9 9 9 9 9 9 9 9 9 9 9 9
          9 9 9 9 9 9
        </DataArray>
      </Cells>
    </Piece>
  </UnstructuredGrid>
</VTKFile>
