<?xml version="1.0"?>
<VTKFile type="UnstructuredGrid" version="0.1" byte_order="LittleEndian">
  <UnstructuredGrid>
    <Piece NumberOfCells="30" NumberOfPoints="62">
      <CellData Scalars="Sg">
        <DataArray type="Float32" Name="Sg" NumberOfComponents="1" format="ascii">
          0.0928555 0.0928248 0.0927939 0.0927629 0.0927318 0.0927005 0.0926687 0.0926344 0.0925884 0.0924901 0.0921611 0.0908216
          0.0851497 0.0622239 0 0 0 0 0 0 0 0 0 0
          0 0 0 0 0 0
        </DataArray>
        <DataArray type="Float32" Name="Sl" NumberOfComponents="1" format="ascii">
          0.907145 0.907175 0.907206 0.907237 0.907268 0.907299 0.907331 0.907366 0.907412 0.90751 0.907839 0.909178
          0.91485 0.937776 1 1 1 1 1 1 1 1 1 1
          1 1 1 1 1 1
        </DataArray>
        <DataArray type="Float32" Name="pg" NumberOfComponents="1" format="ascii">
          51287.7 50952 50616.2 50280.4 49944.6 49608.7 49272.6 48935.8 48595.7 48240.6 47819.4 47108.8
          45157 38262.6 20110.7 19783.7 19456.8 19129.8 18802.9 18476 18149 17822.1 17495.1 17168.2
          16841.3 16514.3 16187.4 15860.4 15533.5 15206.6
        </DataArray>
        <DataArray type="Float32" Name="pl" NumberOfComponents="1" format="ascii">
          110628 110301 109974 109647 109320 108993 108666 108339 108012 107685 107358 107031
          106704 106377 106050 105723 105396 105070 104743 104416 104089 103762 103435 103108
          102781 102454 102127 101800 101473 101146
        </DataArray>
        <DataArray type="Float32" Name="pc" NumberOfComponents="1" format="ascii">
          -59339.8 -59348.6 -59357.4 -59366.3 -59375.2 -59384.2 -59393.3 -59403.1 -59416.3 -59444.4 -59538.7 -59922.4
          -61547.2 -68114.7 -85939.7 -85939.7 -85939.7 -85939.7 -85939.7 -85939.7 -85939.7 -85939.7 -85939.7 -85939.7
          -85939.7 -85939.7 -85939.7 -85939.7 -85939.7 -85939.7
        </DataArray>
        <DataArray type="Float32" Name="rhoL" NumberOfComponents="1" format="ascii">
          999.855 999.855 999.855 999.855 999.855 999.854 999.854 999.854 999.854 999.854 999.854 999.854
          999.853 999.853 999.853 999.853 999.853 999.853 999.852 999.852 999.852 999.852 999.852 999.852
          999.852 999.851 999.851 999.851 999.851 999.851
        </DataArray>
        <DataArray type="Float32" Name="rhoG" NumberOfComponents="1" format="ascii">
          0.635389 0.631229 0.627069 0.622909 0.618748 0.614587 0.610424 0.606251 0.602038 0.597639 0.592421 0.583616
          0.559437 0.474024 0.249145 0.245095 0.241044 0.236994 0.232944 0.228893 0.224843 0.220793 0.216742 0.212692
          0.208641 0.204591 0.200541 0.19649 0.19244 0.18839
        </DataArray>
        <DataArray type="Float32" Name="mobL" NumberOfComponents="1" format="ascii">
          722.171 722.17 722.17 722.17 722.17 722.17 722.169 722.169 722.169 722.169 722.169 722.169
          722.168 722.168 722.168 722.168 722.168 722.167 722.167 722.167 722.167 722.167 722.166 722.166
          722.166 722.166 722.166 722.166 722.165 722.165
        </DataArray>
        <DataArray type="Float32" Name="mobG" NumberOfComponents="1" format="ascii">
          0 0 0 0 0 0 0 0 0 0 0 0
          0 0 0 0 0 0 0 0 0 0 0 0
          0 0 0 0 0 0
        </DataArray>
        <DataArray type="Float32" Name="porosity" NumberOfComponents="1" format="ascii">
          0.298503 0.298503 0.298503 0.298503 0.298502 0.298502 0.298501 0.2985 0.298498 0.298496 0.298493 0.298489
          0.298484 0.298477 0.298466 0.298453 0.298434 0.29841 0.298376 0.298331 0.298269 0.298184 0.298062 0.297886
          0.297345 0.2969 0.296082 0.294246 0.288269 0.216126
        </DataArray>
        <DataArray type="Float32" Name="temperature" NumberOfComponents="1" format="ascii">
          281.15 281.15 281.15 281.15 281.15 281.15 281.15 281.15 281.15 281.15 281.15 281.15
          281.15 281.15 281.15 281.15 281.15 281.15 281.15 281.15 281.15 281.15 281.15 281.15
          281.15 281.15 281.15 281.15 281.15 281.15
        </DataArray>
        <DataArray type="Float32" Name="phase presence" NumberOfComponents="1" format="ascii">
          3 3 3 3 3 3 3 3 3 3 3 3
          3 3 1 1 1 1 1 1 1 1 1 1
          1 1 1 1 1 1
        </DataArray>
        <DataArray type="Float32" Name="precipitateVolumeFraction_au" NumberOfComponents="1" format="ascii">
          5.33268e-10 5.33266e-10 5.33268e-10 5.33269e-10 5.33272e-10 5.33273e-10 5.33275e-10 5.33276e-10 5.33277e-10 5.33278e-10 5.3328e-10 5.3328e-10
          5.33281e-10 5.33282e-10 5.33283e-10 5.33292e-10 5.33282e-10 5.3329e-10 5.33253e-10 5.33309e-10 5.33281e-10 5.33244e-10 5.33295e-10 5.99149e-10
          0.000269938 0.000269922 0.000269898 0.000269858 5.33087e-10 5.31656e-10
        </DataArray>
        <DataArray type="Float32" Name="precipitateVolumeFraction_nanoAu" NumberOfComponents="1" format="ascii">
          1.96112e-11 1.96089e-11 1.96066e-11 1.96045e-11 1.96028e-11 1.96007e-11 1.9599e-11 1.95972e-11 1.95955e-11 1.9594e-11 1.95927e-11 1.95911e-11
          1.95896e-11 1.95995e-11 1.95998e-11 1.9614e-11 1.95809e-11 1.95898e-11 1.95573e-11 1.95961e-11 1.9579e-11 1.9566e-11 1.95875e-11 4.65855e-11
          6.24313e-08 7.85544e-08 1.0289e-07 1.42231e-07 1.9858e-11 1.97315e-11
        </DataArray>
        <DataArray type="Float32" Name="precipitateVolumeFraction_d" NumberOfComponents="1" format="ascii">
          0.000748293 0.000748365 0.000748465 0.000748607 0.000748807 0.000749087 0.00074948 0.000750027 0.000750789 0.000751843 0.000753297 0.000755293
          0.000758021 0.000761735 0.000766772 0.00077358 0.000782763 0.000795138 0.000811841 0.000834478 0.000865409 0.000908245 0.000968821 0.00105722
          0.00119245 0.00141484 0.00182404 0.00274176 0.00586557 0.041937
        </DataArray>
        <DataArray type="Float32" Name="precipitateVolumeFraction_p" NumberOfComponents="1" format="ascii">
          0.000748293 0.000748365 0.000748465 0.000748607 0.000748807 0.000749087 0.00074948 0.000750027 0.000750789 0.000751843 0.000753297 0.000755293
          0.000758021 0.000761735 0.000766772 0.00077358 0.000782763 0.000795138 0.000811841 0.000834478 0.000865409 0.000908245 0.000968821 0.00105722
          0.00119245 0.00141484 0.00182404 0.00274176 0.00586557 0.041937
        </DataArray>
        <DataArray type="Float32" Name="K" NumberOfComponents="1" format="ascii">
          9.8091e-11 9.80908e-11 9.80905e-11 9.80902e-11 9.80897e-11 9.8089e-11 9.8088e-11 9.80866e-11 9.80847e-11 9.8082e-11 9.80783e-11 9.80733e-11
          9.80664e-11 9.8057e-11 9.80442e-11 9.8027e-11 9.80038e-11 9.79725e-11 9.79303e-11 9.7873e-11 9.77949e-11 9.76868e-11 9.75341e-11 9.73116e-11
          9.66341e-11 9.60794e-11 9.50657e-11 9.28239e-11 8.5821e-11 2.98168e-11
        </DataArray>
        <DataArray type="Float32" Name="X^w_H2O" NumberOfComponents="1" format="ascii">
          0.999845 0.999845 0.999845 0.999845 0.999845 0.999845 0.999845 0.999845 0.999845 0.999846 0.999846 0.999846
          0.999847 0.999849 0.999856 0.99986 0.99986 0.99986 0.99986 0.99986 0.99986 0.99986 0.99986 0.99986
          0.99986 0.999859 0.999857 0.999853 0.999846 0.999848
        </DataArray>
        <DataArray type="Float32" Name="X^w_Air" NumberOfComponents="1" format="ascii">
          1.55654e-05 1.54613e-05 1.53572e-05 1.52531e-05 1.5149e-05 1.50449e-05 1.49407e-05 1.48363e-05 1.47309e-05 1.46208e-05 1.44903e-05 1.427e-05
          1.3665e-05 1.15279e-05 4.45842e-06 6.37674e-08 8.94376e-10 1.23329e-11 1.66514e-13 2.19971e-15 2.84203e-17 3.58582e-19 4.38613e-21 5.14972e-23
          5.65183e-25 5.9464e-27 5.54392e-29 4.0316e-31 1.50097e-33 0
        </DataArray>
        <DataArray type="Float32" Name="X^w_AuComplex" NumberOfComponents="1" format="ascii">
          1.99715e-14 1.92387e-14 1.93662e-14 1.82246e-14 1.83541e-14 1.88151e-14 1.94078e-14 1.89285e-14 1.96245e-14 1.88475e-14 1.78607e-14 1.88955e-14
          1.94689e-14 2.0335e-14 1.90223e-14 1.90248e-14 1.89821e-14 1.89809e-14 1.89402e-14 1.89687e-14 1.89431e-14 1.89206e-14 1.89318e-14 4.96813e-14
          7.09948e-11 1.10359e-10 1.87249e-10 3.58633e-10 7.28287e-14 6.99872e-14
        </DataArray>
        <DataArray type="Float32" Name="X^w_nanoAu" NumberOfComponents="1" format="ascii">
          5.52074e-16 -1.80716e-16 -5.31703e-17 1.88902e-17 1.48436e-16 -6.04282e-16 -1.15749e-17 7.22827e-16 2.05069e-16 6.41784e-16 -3.44968e-16 6.89825e-16
          4.95219e-17 2.0335e-14 6.33869e-16 8.11886e-17 8.10526e-17 8.10867e-17 8.09536e-17 8.11093e-17 8.10394e-17 8.1321e-17 1.1267e-16 2.99705e-15
          2.58874e-13 3.25767e-13 4.26548e-13 5.79785e-13 8.13316e-17 7.73534e-17
        </DataArray>
        <DataArray type="Float32" Name="X^w_cyanide" NumberOfComponents="1" format="ascii">
          5.19304e-06 5.18311e-06 5.17402e-06 5.16572e-06 5.15813e-06 5.1512e-06 5.14487e-06 5.13909e-06 5.13382e-06 5.12901e-06 5.12463e-06 5.12064e-06
          5.11699e-06 5.11366e-06 5.11058e-06 5.10754e-06 5.10469e-06 5.10205e-06 5.09956e-06 5.09714e-06 5.09469e-06 5.09203e-06 5.0889e-06 5.08484e-06
          5.07949e-06 6.47827e-06 8.64812e-06 1.23195e-05 1.93125e-05 1.8681e-05
        </DataArray>
        <DataArray type="Float32" Name="X^w_citrate" NumberOfComponents="1" format="ascii">
          0.000134705 0.000134705 0.000134705 0.000134705 0.000134705 0.000134705 0.000134705 0.000134705 0.000134705 0.000134705 0.000134705 0.000134705
          0.000134704 0.000134704 0.000134704 0.000134704 0.000134703 0.000134701 0.000134699 0.000134695 0.000134689 0.000134681 0.000134668 0.000134648
          0.000134614 0.000134555 0.000134438 0.000134169 0.000133356 0.000128985
        </DataArray>
        <DataArray type="Float32" Name="X^w_substrate" NumberOfComponents="1" format="ascii">
          1.34464e-11 1.88909e-11 2.65454e-11 3.73104e-11 5.24493e-11 7.37487e-11 1.03724e-10 1.45921e-10 2.05355e-10 2.89122e-10 4.073e-10 5.74256e-10
          8.1047e-10 1.14482e-09 1.61368e-09 2.26876e-09 3.19972e-09 4.52975e-09 6.44482e-09 9.23078e-09 1.33392e-08 1.95084e-08 2.89995e-08 4.4091e-08
          6.92125e-08 1.13866e-07 2.01422e-07 4.02093e-07 1.00703e-06 4.2513e-06
        </DataArray>
        <DataArray type="Float32" Name="m^w_H2O" NumberOfComponents="1" format="ascii">
          55492.1 55492.1 55492.1 55492.1 55492.1 55492.1 55492.1 55492.1 55492.1 55492.1 55492.1 55492.1
          55492.1 55492.2 55492.6 55492.8 55492.8 55492.8 55492.8 55492.8 55492.8 55492.8 55492.8 55492.8
          55492.7 55492.7 55492.5 55492.3 55491.9 55492
        </DataArray>
        <DataArray type="Float32" Name="m^w_Air" NumberOfComponents="1" format="ascii">
          0.5374 0.533807 0.530213 0.526619 0.523025 0.51943 0.515833 0.512229 0.508589 0.504789 0.500281 0.492676
          0.471788 0.398005 0.153928 0.00220159 3.08786e-05 4.25798e-07 5.74894e-09 7.59456e-11 9.81219e-13 1.23801e-14 1.51432e-16 1.77795e-18
          1.95131e-20 2.05301e-22 1.91405e-24 1.39192e-26 5.18214e-29 2.41717e-34
        </DataArray>
        <DataArray type="Float32" Name="m^w_AuComplex" NumberOfComponents="1" format="ascii">
          1.01379e-10 9.7659e-11 9.83064e-11 9.25112e-11 9.31687e-11 9.55088e-11 9.85175e-11 9.60844e-11 9.96172e-11 9.5673e-11 9.06641e-11 9.59169e-11
          9.88276e-11 1.03224e-10 9.65605e-11 9.6573e-11 9.63563e-11 9.63503e-11 9.61435e-11 9.62882e-11 9.61583e-11 9.60442e-11 9.61007e-11 2.5219e-10
          3.60381e-07 5.60202e-07 9.50503e-07 1.82048e-06 3.6969e-10 3.55266e-10
        </DataArray>
        <DataArray type="Float32" Name="m^w_nanoAu" NumberOfComponents="1" format="ascii">
          2.80243e-12 -9.17346e-13 -2.69902e-13 9.58899e-14 7.53487e-13 -3.06744e-12 -5.8756e-14 3.6692e-12 1.04097e-12 3.25781e-12 -1.75112e-12 3.50167e-12
          2.51382e-13 1.03224e-10 3.21763e-12 4.12127e-13 4.11437e-13 4.11609e-13 4.10934e-13 4.11724e-13 4.11369e-13 4.12799e-13 5.71934e-13 1.52135e-11
          1.31409e-09 1.65364e-09 2.16523e-09 2.94308e-09 4.12852e-13 3.92658e-13
        </DataArray>
        <DataArray type="Float32" Name="m^w_cyanide" NumberOfComponents="1" format="ascii">
          0.19955 0.199168 0.198819 0.1985 0.198208 0.197942 0.197699 0.197477 0.197274 0.197089 0.196921 0.196767
          0.196627 0.196499 0.196381 0.196264 0.196154 0.196053 0.195957 0.195864 0.19577 0.195668 0.195547 0.195391
          0.195186 0.248936 0.332315 0.473393 0.742106 0.717839
        </DataArray>
        <DataArray type="Float32" Name="m^w_citrate" NumberOfComponents="1" format="ascii">
          0.71225 0.71225 0.71225 0.712249 0.712249 0.712249 0.712249 0.712248 0.712248 0.712247 0.712246 0.712245
          0.712244 0.712243 0.712244 0.712243 0.712236 0.712226 0.712213 0.712193 0.712163 0.712119 0.712051 0.711944
          0.711765 0.711451 0.710834 0.709411 0.70511 0.681999
        </DataArray>
        <DataArray type="Float32" Name="m^w_substrate" NumberOfComponents="1" format="ascii">
          7.46251e-08 1.04841e-07 1.47322e-07 2.07066e-07 2.91084e-07 4.09292e-07 5.75648e-07 8.09832e-07 1.13968e-06 1.60457e-06 2.26044e-06 3.18701e-06
          4.49795e-06 6.35353e-06 8.9556e-06 1.25912e-05 1.77578e-05 2.51392e-05 3.57675e-05 5.1229e-05 7.40299e-05 0.000108268 0.000160941 0.000244696
          0.000384115 0.000631933 0.00111785 0.00223153 0.00558878 0.0235939
        </DataArray>
        <DataArray type="Float32" Name="process rank" NumberOfComponents="1" format="ascii">
          0 0 0 0 0 0 0 0 0 0 0 0
          0 0 0 0 0 0 0 0 0 0 0 0
          0 0 0 0 0 0
        </DataArray>
      </CellData>
      <Points>
        <DataArray type="Float32" Name="Coordinates" NumberOfComponents="3" format="ascii">
          0 0 0 0.5 0 0 0 0.0333333 0 0.5 0.0333333 0
          0 0.0666667 0 0.5 0.0666667 0 0 0.1 0 0.5 0.1 0
          0 0.133333 0 0.5 0.133333 0 0 0.166667 0 0.5 0.166667 0
          0 0.2 0 0.5 0.2 0 0 0.233333 0 0.5 0.233333 0
          0 0.266667 0 0.5 0.266667 0 0 0.3 0 0.5 0.3 0
          0 0.333333 0 0.5 0.333333 0 0 0.366667 0 0.5 0.366667 0
          0 0.4 0 0.5 0.4 0 0 0.433333 0 0.5 0.433333 0
          0 0.466667 0 0.5 0.466667 0 0 0.5 0 0.5 0.5 0
          0 0.533333 0 0.5 0.533333 0 0 0.566667 0 0.5 0.566667 0
          0 0.6 0 0.5 0.6 0 0 0.633333 0 0.5 0.633333 0
          0 0.666667 0 0.5 0.666667 0 0 0.7 0 0.5 0.7 0
          0 0.733333 0 0.5 0.733333 0 0 0.766667 0 0.5 0.766667 0
          0 0.8 0 0.5 0.8 0 0 0.833333 0 0.5 0.833333 0
          0 0.866667 0 0.5 0.866667 0 0 0.9 0 0.5 0.9 0
          0 0.933333 0 0.5 0.933333 0 0 0.966667 0 0.5 0.966667 0
          0 1 0 0.5 1 0
        </DataArray>
      </Points>
      <Cells>
        <DataArray type="Int32" Name="connectivity" NumberOfComponents="1" format="ascii">
          0 1 3 2 2 3 5 4 4 5 7 6
          6 7 9 8 8 9 11 10 10 11 13 12
          12 13 15 14 14 15 17 16 16 17 19 18
          18 19 21 20 20 21 23 22 22 23 25 24
          24 25 27 26 26 27 29 28 28 29 31 30
          30 31 33 32 32 33 35 34 34 35 37 36
          36 37 39 38 38 39 41 40 40 41 43 42
          42 43 45 44 44 45 47 46 46 47 49 48
          48 49 51 50 50 51 53 52 52 53 55 54
          54 55 57 56 56 57 59 58 58 59 61 60
        </DataArray>
        <DataArray type="Int32" Name="offsets" NumberOfComponents="1" format="ascii">
          4 8 12 16 20 24 28 32 36 40 44 48
          52 56 60 64 68 72 76 80 84 88 92 96
          100 104 108 112 116 120
        </DataArray>
        <DataArray type="UInt8" Name="types" NumberOfComponents="1" format="ascii">
          9 9 9 9 9 9 9 9 9 9 9 9
          9 9 9 9 9 9 9 9 9 9 9 9
          9 9 9 9 9 9
        </DataArray>
      </Cells>
    </Piece>
  </UnstructuredGrid>
</VTKFile>
