<?xml version="1.0"?>
<VTKFile type="UnstructuredGrid" version="0.1" byte_order="LittleEndian">
  <UnstructuredGrid>
    <Piece NumberOfCells="30" NumberOfPoints="62">
      <CellData Scalars="Sg">
        <DataArray type="Float32" Name="Sg" NumberOfComponents="1" format="ascii">
          0.0886223 0.0883608 0.0873202 0.0826993 0.0626903 0 0 0 0 0 0 0
          0 0 0 0 0 0 0 0 0 0 0 0
          0 0 0 0 0 0
        </DataArray>
        <DataArray type="Float32" Name="Sl" NumberOfComponents="1" format="ascii">
          0.911378 0.911639 0.91268 0.917301 0.93731 1 1 1 1 1 1 1
          1 1 1 1 1 1 1 1 1 1 1 1
          1 1 1 1 1 1
        </DataArray>
        <DataArray type="Float32" Name="pg" NumberOfComponents="1" format="ascii">
          50075.1 49673.2 49048.2 47397.5 41338.7 23053.1 22726.2 22399.3 22072.3 21745.4 21418.4 21091.5
          20764.6 20437.6 20110.7 19783.7 19456.8 19129.9 18802.9 18476 18149 17822.1 17495.1 17168.2
          16841.3 16514.3 16187.4 15860.4 15533.5 15206.6
        </DataArray>
        <DataArray type="Float32" Name="pl" NumberOfComponents="1" format="ascii">
          110628 110301 109974 109647 109320 108993 108666 108339 108012 107685 107358 107031
          106704 106377 106050 105723 105396 105070 104743 104416 104089 103762 103435 103108
          102781 102454 102127 101800 101473 101146
        </DataArray>
        <DataArray type="Float32" Name="pc" NumberOfComponents="1" format="ascii">
          -60552.4 -60627.4 -60925.4 -62249.2 -67981.1 -85939.7 -85939.7 -85939.7 -85939.7 -85939.7 -85939.7 -85939.7
          -85939.7 -85939.7 -85939.7 -85939.7 -85939.7 -85939.7 -85939.7 -85939.7 -85939.7 -85939.7 -85939.7 -85939.7
          -85939.7 -85939.7 -85939.7 -85939.7 -85939.7 -85939.7
        </DataArray>
        <DataArray type="Float32" Name="rhoL" NumberOfComponents="1" format="ascii">
          999.855 999.855 999.855 999.855 999.855 999.854 999.854 999.854 999.854 999.854 999.854 999.854
          999.853 999.853 999.853 999.853 999.853 999.853 999.852 999.852 999.852 999.852 999.852 999.852
          999.852 999.851 999.851 999.851 999.851 999.851
        </DataArray>
        <DataArray type="Float32" Name="rhoG" NumberOfComponents="1" format="ascii">
          0.620365 0.615387 0.607644 0.587194 0.512133 0.285598 0.281548 0.277498 0.273447 0.269397 0.265347 0.261296
          0.257246 0.253195 0.249145 0.245095 0.241044 0.236994 0.232944 0.228893 0.224843 0.220793 0.216742 0.212692
          0.208641 0.204591 0.200541 0.19649 0.19244 0.18839
        </DataArray>
        <DataArray type="Float32" Name="mobL" NumberOfComponents="1" format="ascii">
          722.171 722.17 722.17 722.17 722.17 722.17 722.169 722.169 722.169 722.169 722.169 722.169
          722.168 722.168 722.168 722.168 722.168 722.167 722.167 722.167 722.167 722.167 722.166 722.166
          722.166 722.166 722.166 722.166 722.165 722.165
        </DataArray>
        <DataArray type="Float32" Name="mobG" NumberOfComponents="1" format="ascii">
          0 0 0 0 0 0 0 0 0 0 0 0
          0 0 0 0 0 0 0 0 0 0 0 0
          0 0 0 0 0 0
        </DataArray>
        <DataArray type="Float32" Name="porosity" NumberOfComponents="1" format="ascii">
          0.298531 0.298531 0.298531 0.29853 0.29853 0.298529 0.298529 0.298528 0.298526 0.298524 0.298521 0.298517
          0.298512 0.298504 0.298494 0.298481 0.298463 0.298438 0.298405 0.29836 0.298298 0.298213 0.298092 0.297914
          0.29737 0.296915 0.296063 0.294083 0.287009 0.168682
        </DataArray>
        <DataArray type="Float32" Name="temperature" NumberOfComponents="1" format="ascii">
          281.15 281.15 281.15 281.15 281.15 281.15 281.15 281.15 281.15 281.15 281.15 281.15
          281.15 281.15 281.15 281.15 281.15 281.15 281.15 281.15 281.15 281.15 281.15 281.15
          281.15 281.15 281.15 281.15 281.15 281.15
        </DataArray>
        <DataArray type="Float32" Name="phase presence" NumberOfComponents="1" format="ascii">
          3 3 3 3 3 1 1 1 1 1 1 1
          1 1 1 1 1 1 1 1 1 1 1 1
          1 1 1 1 1 1
        </DataArray>
        <DataArray type="Float32" Name="precipitateVolumeFraction_au" NumberOfComponents="1" format="ascii">
          5.49269e-10 5.49265e-10 5.49265e-10 5.49265e-10 5.49266e-10 5.49266e-10 5.49273e-10 5.49275e-10 5.49273e-10 5.49277e-10 5.49243e-10 5.49271e-10
          5.49272e-10 5.49283e-10 5.49275e-10 5.49295e-10 5.49258e-10 5.49273e-10 5.4921e-10 5.49298e-10 5.49256e-10 5.49208e-10 5.49288e-10 6.60977e-10
          0.00026994 0.000269923 0.000269898 0.000269855 5.49009e-10 5.47471e-10
        </DataArray>
        <DataArray type="Float32" Name="precipitateVolumeFraction_nanoAu" NumberOfComponents="1" format="ascii">
          3.61036e-12 3.60986e-12 3.60987e-12 3.60902e-12 3.60934e-12 3.62346e-12 3.63761e-12 3.62682e-12 3.61586e-12 3.6141e-12 3.5929e-12 3.60892e-12
          3.60896e-12 3.61093e-12 3.60819e-12 3.61073e-12 3.6048e-12 3.60639e-12 3.60056e-12 3.6075e-12 3.60444e-12 3.6021e-12 3.61595e-12 2.97926e-11
          6.08174e-08 7.71921e-08 1.02551e-07 1.4521e-07 3.93651e-12 3.89528e-12
        </DataArray>
        <DataArray type="Float32" Name="precipitateVolumeFraction_d" NumberOfComponents="1" format="ascii">
          0.000734534 0.000734605 0.000734704 0.000734844 0.000735042 0.000735318 0.000735706 0.000736247 0.000736999 0.00073804 0.000739476 0.000741448
          0.000744146 0.000747818 0.0007528 0.000759538 0.000768632 0.000780899 0.000797473 0.000819968 0.000850759 0.000893505 0.000954151 0.00104306
          0.00117997 0.00140749 0.00183368 0.00282357 0.00649528 0.0656589
        </DataArray>
        <DataArray type="Float32" Name="precipitateVolumeFraction_p" NumberOfComponents="1" format="ascii">
          0.000734534 0.000734605 0.000734704 0.000734844 0.000735042 0.000735318 0.000735706 0.000736247 0.000736999 0.00073804 0.000739476 0.000741448
          0.000744146 0.000747818 0.0007528 0.000759538 0.000768632 0.000780899 0.000797473 0.000819968 0.000850759 0.000893505 0.000954151 0.00104306
          0.00117997 0.00140749 0.00183368 0.00282357 0.00649528 0.0656589
        </DataArray>
        <DataArray type="Float32" Name="K" NumberOfComponents="1" format="ascii">
          9.81258e-11 9.81256e-11 9.81254e-11 9.8125e-11 9.81245e-11 9.81238e-11 9.81229e-11 9.81215e-11 9.81196e-11 9.81169e-11 9.81133e-11 9.81083e-11
          9.81015e-11 9.80922e-11 9.80796e-11 9.80625e-11 9.80395e-11 9.80085e-11 9.79666e-11 9.79097e-11 9.78319e-11 9.7724e-11 9.75711e-11 9.73473e-11
          9.66653e-11 9.60977e-11 9.50419e-11 9.26262e-11 8.44021e-11 1.26039e-11
        </DataArray>
        <DataArray type="Float32" Name="X^w_H2O" NumberOfComponents="1" format="ascii">
          0.999845 0.999845 0.999845 0.999846 0.999848 0.999854 0.99986 0.99986 0.99986 0.99986 0.99986 0.99986
          0.99986 0.99986 0.99986 0.99986 0.99986 0.99986 0.99986 0.99986 0.99986 0.99986 0.99986 0.99986
          0.99986 0.999859 0.999857 0.999853 0.999846 0.999847
        </DataArray>
        <DataArray type="Float32" Name="X^w_Air" NumberOfComponents="1" format="ascii">
          1.51895e-05 1.50649e-05 1.48712e-05 1.43595e-05 1.24814e-05 5.75108e-06 9.59245e-08 1.57117e-09 2.53011e-11 4.00805e-13 6.22846e-15 9.49424e-17
          1.42399e-18 2.09336e-20 3.02421e-22 4.27801e-24 5.93569e-26 8.07917e-28 1.07545e-29 1.39848e-31 1.77329e-33 2.18258e-35 2.58049e-37 0
          0 0 0 0 0 0
        </DataArray>
        <DataArray type="Float32" Name="X^w_AuComplex" NumberOfComponents="1" format="ascii">
          2.68855e-15 3.44399e-15 2.91122e-15 1.59722e-15 2.30029e-15 3.61842e-15 3.52886e-15 3.51855e-15 3.50807e-15 3.50646e-15 3.48611e-15 3.50163e-15
          3.50176e-15 3.50373e-15 3.50115e-15 3.50364e-15 3.49794e-15 3.49946e-15 3.49377e-15 3.50033e-15 3.49714e-15 3.49449e-15 3.50918e-15 3.33472e-14
          6.94086e-11 1.08221e-10 1.85429e-10 3.63484e-10 1.45674e-14 1.41042e-14
        </DataArray>
        <DataArray type="Float32" Name="X^w_nanoAu" NumberOfComponents="1" format="ascii">
          2.61129e-16 1.01657e-15 4.83792e-16 -8.30205e-16 -1.27138e-16 1.60624e-14 1.50571e-17 1.50125e-17 1.49675e-17 1.49594e-17 1.48733e-17 1.49388e-17
          1.49391e-17 1.4947e-17 1.49358e-17 1.49459e-17 1.49216e-17 1.49278e-17 1.4904e-17 1.49321e-17 1.49227e-17 1.52428e-17 4.57274e-17 2.85477e-15
          2.52286e-13 3.2034e-13 4.25668e-13 5.92955e-13 1.61908e-17 1.55139e-17
        </DataArray>
        <DataArray type="Float32" Name="X^w_cyanide" NumberOfComponents="1" format="ascii">
          5.08145e-06 5.08153e-06 5.08161e-06 5.08171e-06 5.08183e-06 5.08197e-06 5.08212e-06 5.08225e-06 5.08238e-06 5.08251e-06 5.08263e-06 5.08275e-06
          5.08287e-06 5.08297e-06 5.08305e-06 5.08312e-06 5.08314e-06 5.08312e-06 5.08304e-06 5.08285e-06 5.0825e-06 5.08193e-06 5.08098e-06 5.07941e-06
          5.07721e-06 6.45057e-06 8.58959e-06 1.22485e-05 1.9396e-05 1.89814e-05
        </DataArray>
        <DataArray type="Float32" Name="X^w_citrate" NumberOfComponents="1" format="ascii">
          0.000134705 0.000134705 0.000134705 0.000134705 0.000134705 0.000134706 0.000134707 0.000134707 0.000134707 0.000134707 0.000134707 0.000134707
          0.000134707 0.000134706 0.000134706 0.000134706 0.000134705 0.000134704 0.000134702 0.0001347 0.000134697 0.000134692 0.000134685 0.000134674
          0.000134654 0.000134621 0.000134555 0.0001344 0.000133916 0.000131051
        </DataArray>
        <DataArray type="Float32" Name="X^w_substrate" NumberOfComponents="1" format="ascii">
          7.58132e-12 1.07026e-11 1.51237e-11 2.14081e-11 3.03964e-11 4.31095e-11 5.93412e-11 8.31423e-11 1.16518e-10 1.6334e-10 2.29073e-10 3.21442e-10
          4.5141e-10 6.34603e-10 8.93437e-10 1.26032e-09 1.78257e-09 2.53025e-09 3.60882e-09 5.18045e-09 7.50139e-09 1.09908e-08 1.63651e-08 2.49201e-08
          3.91817e-08 6.45937e-08 1.14672e-07 2.30775e-07 5.91383e-07 2.71731e-06
        </DataArray>
        <DataArray type="Float32" Name="m^w_H2O" NumberOfComponents="1" format="ascii">
          55492.1 55492.1 55492.1 55492.1 55492.2 55492.6 55492.9 55492.9 55492.9 55492.9 55492.9 55492.9
          55492.8 55492.8 55492.8 55492.8 55492.8 55492.8 55492.8 55492.8 55492.8 55492.8 55492.8 55492.8
          55492.7 55492.7 55492.5 55492.3 55491.9 55492
        </DataArray>
        <DataArray type="Float32" Name="m^w_Air" NumberOfComponents="1" format="ascii">
          0.524422 0.520122 0.513432 0.495767 0.430925 0.198558 0.00331183 5.4245e-05 8.73529e-07 1.38379e-08 2.1504e-10 3.27792e-12
          4.91635e-14 7.22738e-16 1.04412e-17 1.477e-19 2.04932e-21 2.78936e-23 3.71304e-25 4.82829e-27 6.12233e-29 7.53542e-31 8.90921e-33 9.93447e-35
          1.00566e-36 0 0 0 0 0
        </DataArray>
        <DataArray type="Float32" Name="m^w_AuComplex" NumberOfComponents="1" format="ascii">
          1.36476e-11 1.74823e-11 1.47779e-11 8.10777e-12 1.16767e-11 1.83677e-11 1.79131e-11 1.78608e-11 1.78076e-11 1.77994e-11 1.76961e-11 1.77749e-11
          1.77755e-11 1.77855e-11 1.77724e-11 1.77851e-11 1.77561e-11 1.77638e-11 1.7735e-11 1.77683e-11 1.77521e-11 1.77386e-11 1.78132e-11 1.69276e-10
          3.52329e-07 5.49345e-07 9.41268e-07 1.8451e-06 7.39463e-11 7.15951e-11
        </DataArray>
        <DataArray type="Float32" Name="m^w_nanoAu" NumberOfComponents="1" format="ascii">
          1.32554e-12 5.16029e-12 2.45582e-12 -4.21427e-12 -6.45377e-13 8.15357e-11 7.64326e-14 7.6206e-14 7.59777e-14 7.59363e-14 7.54992e-14 7.5832e-14
          7.58332e-14 7.58735e-14 7.58169e-14 7.58681e-14 7.57447e-14 7.57759e-14 7.56554e-14 7.57979e-14 7.57501e-14 7.73751e-14 2.3212e-13 1.44913e-11
          1.28064e-09 1.6261e-09 2.16076e-09 3.00993e-09 8.21872e-14 7.87512e-14
        </DataArray>
        <DataArray type="Float32" Name="m^w_cyanide" NumberOfComponents="1" format="ascii">
          0.195262 0.195265 0.195268 0.195272 0.195276 0.195282 0.195288 0.195292 0.195297 0.195302 0.195307 0.195312
          0.195316 0.19532 0.195323 0.195325 0.195327 0.195326 0.195322 0.195315 0.195302 0.19528 0.195243 0.195183
          0.195098 0.247871 0.330066 0.470664 0.745315 0.729386
        </DataArray>
        <DataArray type="Float32" Name="m^w_citrate" NumberOfComponents="1" format="ascii">
          0.712249 0.712249 0.712249 0.712249 0.712251 0.712255 0.712259 0.712259 0.712259 0.712258 0.712258 0.712257
          0.712256 0.712254 0.712252 0.71225 0.712246 0.71224 0.712233 0.712221 0.712205 0.71218 0.712141 0.71208
          0.711979 0.711802 0.711451 0.710631 0.708071 0.692927
        </DataArray>
        <DataArray type="Float32" Name="m^w_substrate" NumberOfComponents="1" format="ascii">
          4.20749e-08 5.93974e-08 8.3934e-08 1.18811e-07 1.68694e-07 2.39249e-07 3.29333e-07 4.61424e-07 6.46652e-07 9.06507e-07 1.27131e-06 1.78394e-06
          2.50524e-06 3.52193e-06 4.9584e-06 6.9945e-06 9.89291e-06 1.40424e-05 2.00283e-05 2.87505e-05 4.16312e-05 6.09967e-05 9.08228e-05 0.000138302
          0.000217451 0.000358482 0.000636406 0.00128076 0.00328205 0.0150805
        </DataArray>
        <DataArray type="Float32" Name="process rank" NumberOfComponents="1" format="ascii">
          0 0 0 0 0 0 0 0 0 0 0 0
          0 0 0 0 0 0 0 0 0 0 0 0
          0 0 0 0 0 0
        </DataArray>
      </CellData>
      <Points>
        <DataArray type="Float32" Name="Coordinates" NumberOfComponents="3" format="ascii">
          0 0 0 0.5 0 0 0 0.0333333 0 0.5 0.0333333 0
          0 0.0666667 0 0.5 0.0666667 0 0 0.1 0 0.5 0.1 0
          0 0.133333 0 0.5 0.133333 0 0 0.166667 0 0.5 0.166667 0
          0 0.2 0 0.5 0.2 0 0 0.233333 0 0.5 0.233333 0
          0 0.266667 0 0.5 0.266667 0 0 0.3 0 0.5 0.3 0
          0 0.333333 0 0.5 0.333333 0 0 0.366667 0 0.5 0.366667 0
          0 0.4 0 0.5 0.4 0 0 0.433333 0 0.5 0.433333 0
          0 0.466667 0 0.5 0.466667 0 0 0.5 0 0.5 0.5 0
          0 0.533333 0 0.5 0.533333 0 0 0.566667 0 0.5 0.566667 0
          0 0.6 0 0.5 0.6 0 0 0.633333 0 0.5 0.633333 0
          0 0.666667 0 0.5 0.666667 0 0 0.7 0 0.5 0.7 0
          0 0.733333 0 0.5 0.733333 0 0 0.766667 0 0.5 0.766667 0
          0 0.8 0 0.5 0.8 0 0 0.833333 0 0.5 0.833333 0
          0 0.866667 0 0.5 0.866667 0 0 0.9 0 0.5 0.9 0
          0 0.933333 0 0.5 0.933333 0 0 0.966667 0 0.5 0.966667 0
          0 1 0 0.5 1 0
        </DataArray>
      </Points>
      <Cells>
        <DataArray type="Int32" Name="connectivity" NumberOfComponents="1" format="ascii">
          0 1 3 2 2 3 5 4 4 5 7 6
          6 7 9 8 8 9 11 10 10 11 13 12
          12 13 15 14 14 15 17 16 16 17 19 18
          18 19 21 20 20 21 23 22 22 23 25 24
          24 25 27 26 26 27 29 28 28 29 31 30
          30 31 33 32 32 33 35 34 34 35 37 36
          36 37 39 38 38 39 41 40 40 41 43 42
          42 43 45 44 44 45 47 46 46 47 49 48
          48 49 51 50 50 51 53 52 52 53 55 54
          54 55 57 56 56 57 59 58 58 59 61 60
        </DataArray>
        <DataArray type="Int32" Name="offsets" NumberOfComponents="1" format="ascii">
          4 8 12 16 20 24 28 32 36 40 44 48
          52 56 60 64 68 72 76 80 84 88 92 96
          100 104 108 112 116 120
        </DataArray>
        <DataArray type="UInt8" Name="types" NumberOfComponents="1" format="ascii">
          9 9 9 9 9 9 9 9 9 9 9 9
          9 9 9 9 9 9 9 9 9 9 9 9
          9 9 9 9 9 9
        </DataArray>
      </Cells>
    </Piece>
  </UnstructuredGrid>
</VTKFile>
