<?xml version="1.0"?>
<VTKFile type="UnstructuredGrid" version="0.1" byte_order="LittleEndian">
  <UnstructuredGrid>
    <Piece NumberOfCells="30" NumberOfPoints="62">
      <CellData Scalars="Sg">
        <DataArray type="Float32" Name="Sg" NumberOfComponents="1" format="ascii">
          0 0 0 0 0 0 0 0 0 0 0 0
          0 0 0 0 0 0 0 0 0 0 0 0
          0 0 0 0 0 0
        </DataArray>
        <DataArray type="Float32" Name="Sl" NumberOfComponents="1" format="ascii">
          1 1 1 1 1 1 1 1 1 1 1 1
          1 1 1 1 1 1 1 1 1 1 1 1
          1 1 1 1 1 1
        </DataArray>
        <DataArray type="Float32" Name="pg" NumberOfComponents="1" format="ascii">
          24687.8 24360.9 24034 23707 23380.1 23053.1 22726.2 22399.3 22072.3 21745.4 21418.4 21091.5
          20764.6 20437.6 20110.7 19783.7 19456.8 19129.9 18802.9 18476 18149 17822.1 17495.1 17168.2
          16841.3 16514.3 16187.4 15860.4 15533.5 20197.1
        </DataArray>
        <DataArray type="Float32" Name="pl" NumberOfComponents="1" format="ascii">
          110628 110301 109974 109647 109320 108993 108666 108339 108012 107685 107358 107031
          106704 106377 106050 105723 105396 105070 104743 104416 104089 103762 103435 103108
          102781 102454 102127 101800 101473 106137
        </DataArray>
        <DataArray type="Float32" Name="pc" NumberOfComponents="1" format="ascii">
          -85939.7 -85939.7 -85939.7 -85939.7 -85939.7 -85939.7 -85939.7 -85939.7 -85939.7 -85939.7 -85939.7 -85939.7
          -85939.7 -85939.7 -85939.7 -85939.7 -85939.7 -85939.7 -85939.7 -85939.7 -85939.7 -85939.7 -85939.7 -85939.7
          -85939.7 -85939.7 -85939.7 -85939.7 -85939.7 -85939.7
        </DataArray>
        <DataArray type="Float32" Name="rhoL" NumberOfComponents="1" format="ascii">
          999.855 999.855 999.855 999.855 999.855 999.854 999.854 999.854 999.854 999.854 999.854 999.854
          999.853 999.853 999.853 999.853 999.853 999.853 999.852 999.852 999.852 999.852 999.852 999.852
          999.852 999.851 999.851 999.851 999.851 999.853
        </DataArray>
        <DataArray type="Float32" Name="rhoG" NumberOfComponents="1" format="ascii">
          0.30585 0.3018 0.29775 0.293699 0.289649 0.285598 0.281548 0.277498 0.273447 0.269397 0.265347 0.261296
          0.257246 0.253195 0.249145 0.245095 0.241044 0.236994 0.232944 0.228893 0.224843 0.220793 0.216742 0.212692
          0.208641 0.204591 0.200541 0.19649 0.19244 0.250216
        </DataArray>
        <DataArray type="Float32" Name="mobL" NumberOfComponents="1" format="ascii">
          722.171 722.17 722.17 722.17 722.17 722.17 722.169 722.169 722.169 722.169 722.169 722.169
          722.168 722.168 722.168 722.168 722.168 722.167 722.167 722.167 722.167 722.167 722.166 722.166
          722.166 722.166 722.166 722.166 722.165 722.168
        </DataArray>
        <DataArray type="Float32" Name="mobG" NumberOfComponents="1" format="ascii">
          0 0 0 0 0 0 0 0 0 0 0 0
          0 0 0 0 0 0 0 0 0 0 0 0
          0 0 0 0 0 0
        </DataArray>
        <DataArray type="Float32" Name="porosity" NumberOfComponents="1" format="ascii">
          0.298529 0.298529 0.298529 0.298528 0.298528 0.298527 0.298526 0.298524 0.298522 0.298519 0.298515 0.29851
          0.298503 0.298494 0.298482 0.298465 0.298443 0.298414 0.298376 0.298323 0.298252 0.298153 0.298012 0.297802
          0.2972 0.296626 0.295472 0.292391 0.276941 0.00391902
        </DataArray>
        <DataArray type="Float32" Name="temperature" NumberOfComponents="1" format="ascii">
          281.15 281.15 281.15 281.15 281.15 281.15 281.15 281.15 281.15 281.15 281.15 281.15
          281.15 281.15 281.15 281.15 281.15 281.15 281.15 281.15 281.15 281.15 281.15 281.15
          281.15 281.15 281.15 281.15 281.15 281.15
        </DataArray>
        <DataArray type="Float32" Name="phase presence" NumberOfComponents="1" format="ascii">
          1 1 1 1 1 1 1 1 1 1 1 1
          1 1 1 1 1 1 1 1 1 1 1 1
          1 1 1 1 1 1
        </DataArray>
        <DataArray type="Float32" Name="precipitateVolumeFraction_au" NumberOfComponents="1" format="ascii">
          5.52349e-10 5.52744e-10 5.52746e-10 5.52742e-10 5.52752e-10 5.5272e-10 5.52738e-10 5.52744e-10 5.52799e-10 5.52764e-10 5.52774e-10 5.52776e-10
          5.52709e-10 5.52738e-10 5.52728e-10 5.52755e-10 5.5279e-10 5.52677e-10 5.52731e-10 5.52785e-10 5.52718e-10 5.52741e-10 5.53085e-10 1.26168e-09
          0.000269941 0.000269925 0.0002699 0.000269851 5.52322e-10 5.51344e-10
        </DataArray>
        <DataArray type="Float32" Name="precipitateVolumeFraction_nanoAu" NumberOfComponents="1" format="ascii">
          1.23587e-13 1.23675e-13 1.23676e-13 1.23675e-13 1.23677e-13 1.2367e-13 1.23674e-13 1.23675e-13 1.23687e-13 1.23679e-13 1.23681e-13 1.23681e-13
          1.23665e-13 1.23671e-13 1.23668e-13 1.23672e-13 1.23678e-13 1.2365e-13 1.23659e-13 1.23665e-13 1.23643e-13 1.23655e-13 1.35618e-13 2.58352e-11
          6.03669e-08 7.66876e-08 1.02146e-07 1.45555e-07 4.7412e-13 4.66327e-13
        </DataArray>
        <DataArray type="Float32" Name="precipitateVolumeFraction_d" NumberOfComponents="1" format="ascii">
          0.000735367 0.00073548 0.000735637 0.000735854 0.000736154 0.000736566 0.000737132 0.000737904 0.000738956 0.000740382 0.000742308 0.000744898
          0.000748367 0.000752999 0.000759166 0.000767364 0.000778257 0.000792759 0.000812144 0.000838257 0.000873872 0.000923358 0.000994028 0.00109908
          0.00126485 0.00155177 0.00212896 0.0036694 0.0115296 0.14804
        </DataArray>
        <DataArray type="Float32" Name="precipitateVolumeFraction_p" NumberOfComponents="1" format="ascii">
          0.000735367 0.00073548 0.000735637 0.000735854 0.000736154 0.000736566 0.000737132 0.000737904 0.000738956 0.000740382 0.000742308 0.000744898
          0.000748367 0.000752999 0.000759166 0.000767364 0.000778257 0.000792759 0.000812144 0.000838257 0.000873872 0.000923358 0.000994028 0.00109908
          0.00126485 0.00155177 0.00212896 0.0036694 0.0115296 0.14804
        </DataArray>
        <DataArray type="Float32" Name="K" NumberOfComponents="1" format="ascii">
          9.81237e-11 9.81234e-11 9.8123e-11 9.81225e-11 9.81217e-11 9.81207e-11 9.81192e-11 9.81173e-11 9.81146e-11 9.8111e-11 9.81061e-11 9.80996e-11
          9.80908e-11 9.80791e-11 9.80635e-11 9.80427e-11 9.80152e-11 9.79785e-11 9.79295e-11 9.78635e-11 9.77736e-11 9.76487e-11 9.74707e-11 9.72064e-11
          9.64533e-11 9.57392e-11 9.4316e-11 9.06022e-11 7.37303e-11 1.10097e-16
        </DataArray>
        <DataArray type="Float32" Name="X^w_H2O" NumberOfComponents="1" format="ascii">
          0.999853 0.999853 0.999853 0.999853 0.999853 0.999853 0.999853 0.999853 0.999853 0.999853 0.999853 0.999853
          0.999853 0.999853 0.999853 0.999853 0.999853 0.999853 0.999853 0.999853 0.999853 0.999853 0.999853 0.999853
          0.999853 0.999852 0.99985 0.999846 0.999839 0.99984
        </DataArray>
        <DataArray type="Float32" Name="X^w_Air" NumberOfComponents="1" format="ascii">
          0 0 0 0 0 0 0 0 0 0 0 0
          0 0 0 0 0 0 0 0 0 0 0 0
          0 0 0 0 0 0
        </DataArray>
        <DataArray type="Float32" Name="X^w_AuComplex" NumberOfComponents="1" format="ascii">
          1.41033e-16 1.41133e-16 1.41134e-16 1.41133e-16 1.41136e-16 1.41127e-16 1.41132e-16 1.41133e-16 1.41147e-16 1.41137e-16 1.41139e-16 1.41139e-16
          1.4112e-16 1.41126e-16 1.41121e-16 1.41125e-16 1.41129e-16 1.41095e-16 1.41101e-16 1.41104e-16 1.41072e-16 1.41074e-16 1.54516e-16 2.94513e-14
          6.88441e-11 1.0738e-10 1.84404e-10 3.63951e-10 1.83488e-15 1.78125e-15
        </DataArray>
        <DataArray type="Float32" Name="X^w_nanoAu" NumberOfComponents="1" format="ascii">
          5.38268e-19 5.38648e-19 5.38651e-19 5.38646e-19 5.38655e-19 5.38624e-19 5.38641e-19 5.38647e-19 5.38698e-19 5.38663e-19 5.38672e-19 5.3867e-19
          5.38602e-19 5.38625e-19 5.3861e-19 5.38628e-19 5.38649e-19 5.38526e-19 5.38559e-19 5.38622e-19 5.42205e-19 8.83593e-19 3.25058e-17 2.95718e-15
          2.63639e-13 3.35104e-13 4.46596e-13 6.26434e-13 2.05845e-18 1.97687e-18
        </DataArray>
        <DataArray type="Float32" Name="X^w_cyanide" NumberOfComponents="1" format="ascii">
          5.07146e-06 5.07146e-06 5.07146e-06 5.07146e-06 5.07146e-06 5.07146e-06 5.07145e-06 5.07145e-06 5.07144e-06 5.07143e-06 5.07142e-06 5.0714e-06
          5.07138e-06 5.07134e-06 5.0713e-06 5.07124e-06 5.07115e-06 5.07104e-06 5.07089e-06 5.07068e-06 5.07039e-06 5.06998e-06 5.06938e-06 5.0685e-06
          5.06759e-06 6.43717e-06 8.57258e-06 1.22372e-05 1.9458e-05 1.91981e-05
        </DataArray>
        <DataArray type="Float32" Name="X^w_citrate" NumberOfComponents="1" format="ascii">
          0.000141796 0.000141796 0.000141796 0.000141796 0.000141796 0.000141796 0.000141796 0.000141796 0.000141796 0.000141796 0.000141796 0.000141795
          0.000141795 0.000141795 0.000141795 0.000141794 0.000141794 0.000141793 0.000141792 0.00014179 0.000141788 0.000141785 0.000141781 0.000141774
          0.000141764 0.000141748 0.000141717 0.000141646 0.00014141 0.000139522
        </DataArray>
        <DataArray type="Float32" Name="X^w_substrate" NumberOfComponents="1" format="ascii">
          2.26412e-11 2.97002e-11 3.89583e-11 5.11007e-11 6.70269e-11 8.79178e-11 1.15326e-10 1.51293e-10 1.98511e-10 2.60532e-10 3.42058e-10 4.49335e-10
          5.90698e-10 7.7733e-10 1.02436e-09 1.35243e-09 1.79008e-09 2.37736e-09 3.17152e-09 4.25643e-09 5.75865e-09 7.87651e-09 1.0936e-08 1.5507e-08
          2.26706e-08 3.47179e-08 5.73432e-08 1.08591e-07 2.75758e-07 1.60748e-06
        </DataArray>
        <DataArray type="Float32" Name="m^w_H2O" NumberOfComponents="1" format="ascii">
          55492.6 55492.6 55492.5 55492.5 55492.5 55492.5 55492.5 55492.5 55492.5 55492.5 55492.5 55492.5
          55492.5 55492.4 55492.4 55492.4 55492.4 55492.4 55492.4 55492.4 55492.4 55492.4 55492.4 55492.4
          55492.3 55492.3 55492.1 55491.9 55491.5 55491.7
        </DataArray>
        <DataArray type="Float32" Name="m^w_Air" NumberOfComponents="1" format="ascii">
          0 0 0 0 0 0 0 0 0 0 0 0
          0 0 0 0 0 0 0 0 0 0 0 0
          0 0 0 0 0 0
        </DataArray>
        <DataArray type="Float32" Name="m^w_AuComplex" NumberOfComponents="1" format="ascii">
          7.15908e-13 7.16419e-13 7.16423e-13 7.16416e-13 7.16429e-13 7.16387e-13 7.16409e-13 7.16416e-13 7.16485e-13 7.16437e-13 7.16447e-13 7.16444e-13
          7.16351e-13 7.16379e-13 7.16354e-13 7.16374e-13 7.16397e-13 7.16221e-13 7.16252e-13 7.16268e-13 7.16106e-13 7.16114e-13 7.84349e-13 1.49499e-10
          3.49464e-07 5.45077e-07 9.36063e-07 1.84747e-06 9.31417e-12 9.04193e-12
        </DataArray>
        <DataArray type="Float32" Name="m^w_nanoAu" NumberOfComponents="1" format="ascii">
          2.73235e-15 2.73427e-15 2.73429e-15 2.73426e-15 2.73431e-15 2.73415e-15 2.73424e-15 2.73427e-15 2.73453e-15 2.73435e-15 2.73439e-15 2.73438e-15
          2.73404e-15 2.73415e-15 2.73407e-15 2.73417e-15 2.73427e-15 2.73365e-15 2.73382e-15 2.73413e-15 2.75232e-15 4.48526e-15 1.65005e-13 1.50111e-11
          1.33827e-09 1.70104e-09 2.26699e-09 3.17988e-09 1.0449e-14 1.00349e-14
        </DataArray>
        <DataArray type="Float32" Name="m^w_cyanide" NumberOfComponents="1" format="ascii">
          0.194878 0.194878 0.194878 0.194878 0.194878 0.194878 0.194878 0.194877 0.194877 0.194877 0.194876 0.194875
          0.194874 0.194873 0.194871 0.194869 0.194866 0.194861 0.194856 0.194847 0.194836 0.19482 0.194798 0.194763
          0.194729 0.247356 0.329412 0.47023 0.747697 0.737714
        </DataArray>
        <DataArray type="Float32" Name="m^w_citrate" NumberOfComponents="1" format="ascii">
          0.749742 0.749742 0.749742 0.749742 0.749741 0.749741 0.749741 0.74974 0.74974 0.749739 0.749739 0.749738
          0.749736 0.749735 0.749733 0.74973 0.749727 0.749723 0.749716 0.749708 0.749697 0.749681 0.749658 0.749623
          0.74957 0.749484 0.749321 0.748944 0.747699 0.737715
        </DataArray>
        <DataArray type="Float32" Name="m^w_substrate" NumberOfComponents="1" format="ascii">
          1.25655e-07 1.64831e-07 2.16212e-07 2.836e-07 3.71987e-07 4.87928e-07 6.40037e-07 8.3965e-07 1.1017e-06 1.4459e-06 1.89836e-06 2.49372e-06
          3.27826e-06 4.31403e-06 5.68499e-06 7.50573e-06 9.93462e-06 1.31939e-05 1.76013e-05 2.36223e-05 3.19594e-05 4.37131e-05 6.06925e-05 8.60608e-05
          0.000125817 0.000192678 0.000318243 0.000602656 0.0015304 0.00892121
        </DataArray>
        <DataArray type="Float32" Name="process rank" NumberOfComponents="1" format="ascii">
          0 0 0 0 0 0 0 0 0 0 0 0
          0 0 0 0 0 0 0 0 0 0 0 0
          0 0 0 0 0 0
        </DataArray>
      </CellData>
      <Points>
        <DataArray type="Float32" Name="Coordinates" NumberOfComponents="3" format="ascii">
          0 0 0 0.5 0 0 0 0.0333333 0 0.5 0.0333333 0
          0 0.0666667 0 0.5 0.0666667 0 0 0.1 0 0.5 0.1 0
          0 0.133333 0 0.5 0.133333 0 0 0.166667 0 0.5 0.166667 0
          0 0.2 0 0.5 0.2 0 0 0.233333 0 0.5 0.233333 0
          0 0.266667 0 0.5 0.266667 0 0 0.3 0 0.5 0.3 0
          0 0.333333 0 0.5 0.333333 0 0 0.366667 0 0.5 0.366667 0
          0 0.4 0 0.5 0.4 0 0 0.433333 0 0.5 0.433333 0
          0 0.466667 0 0.5 0.466667 0 0 0.5 0 0.5 0.5 0
          0 0.533333 0 0.5 0.533333 0 0 0.566667 0 0.5 0.566667 0
          0 0.6 0 0.5 0.6 0 0 0.633333 0 0.5 0.633333 0
          0 0.666667 0 0.5 0.666667 0 0 0.7 0 0.5 0.7 0
          0 0.733333 0 0.5 0.733333 0 0 0.766667 0 0.5 0.766667 0
          0 0.8 0 0.5 0.8 0 0 0.833333 0 0.5 0.833333 0
          0 0.866667 0 0.5 0.866667 0 0 0.9 0 0.5 0.9 0
          0 0.933333 0 0.5 0.933333 0 0 0.966667 0 0.5 0.966667 0
          0 1 0 0.5 1 0
        </DataArray>
      </Points>
      <Cells>
        <DataArray type="Int32" Name="connectivity" NumberOfComponents="1" format="ascii">
          0 1 3 2 2 3 5 4 4 5 7 6
          6 7 9 8 8 9 11 10 10 11 13 12
          12 13 15 14 14 15 17 16 16 17 19 18
          18 19 21 20 20 21 23 22 22 23 25 24
          24 25 27 26 26 27 29 28 28 29 31 30
          30 31 33 32 32 33 35 34 34 35 37 36
          36 37 39 38 38 39 41 40 40 41 43 42
          42 43 45 44 44 45 47 46 46 47 49 48
          48 49 51 50 50 51 53 52 52 53 55 54
          54 55 57 56 56 57 59 58 58 59 61 60
        </DataArray>
        <DataArray type="Int32" Name="offsets" NumberOfComponents="1" format="ascii">
          4 8 12 16 20 24 28 32 36 40 44 48
          52 56 60 64 68 72 76 80 84 88 92 96
          100 104 108 112 116 120
        </DataArray>
        <DataArray type="UInt8" Name="types" NumberOfComponents="1" format="ascii">
          9 9 9 9 9 9 9 9 9 9 9 9
          9 9 9 9 9 9 9 9 9 9 9 9
          9 9 9 9 9 9
        </DataArray>
      </Cells>
    </Piece>
  </UnstructuredGrid>
</VTKFile>
