<?xml version="1.0"?>
<VTKFile type="UnstructuredGrid" version="0.1" byte_order="LittleEndian">
  <UnstructuredGrid>
    <Piece NumberOfCells="30" NumberOfPoints="62">
      <CellData Scalars="Sg">
        <DataArray type="Float32" Name="Sg" NumberOfComponents="1" format="ascii">
          0 0 0 0 0 0 0 0 0 0 0 0
          0 0 0 0 0 0 0 0 0 0 0 0
          0 0 0 0 0 0
        </DataArray>
        <DataArray type="Float32" Name="Sl" NumberOfComponents="1" format="ascii">
          1 1 1 1 1 1 1 1 1 1 1 1
          1 1 1 1 1 1 1 1 1 1 1 1
          1 1 1 1 1 1
        </DataArray>
        <DataArray type="Float32" Name="pg" NumberOfComponents="1" format="ascii">
          24687.8 24360.9 24034 23707 23380.1 23053.1 22726.2 22399.3 22072.3 21745.4 21418.4 21091.5
          20764.6 20437.6 20110.7 19783.7 19456.8 19129.9 18802.9 18476 18149 17822.1 17495.1 17168.2
          16841.3 16514.3 16187.4 15860.4 15533.5 19001.7
        </DataArray>
        <DataArray type="Float32" Name="pl" NumberOfComponents="1" format="ascii">
          110628 110301 109974 109647 109320 108993 108666 108339 108012 107685 107358 107031
          106704 106377 106050 105723 105396 105070 104743 104416 104089 103762 103435 103108
          102781 102454 102127 101800 101473 104941
        </DataArray>
        <DataArray type="Float32" Name="pc" NumberOfComponents="1" format="ascii">
          -85939.7 -85939.7 -85939.7 -85939.7 -85939.7 -85939.7 -85939.7 -85939.7 -85939.7 -85939.7 -85939.7 -85939.7
          -85939.7 -85939.7 -85939.7 -85939.7 -85939.7 -85939.7 -85939.7 -85939.7 -85939.7 -85939.7 -85939.7 -85939.7
          -85939.7 -85939.7 -85939.7 -85939.7 -85939.7 -85939.7
        </DataArray>
        <DataArray type="Float32" Name="rhoL" NumberOfComponents="1" format="ascii">
          999.855 999.855 999.855 999.855 999.855 999.854 999.854 999.854 999.854 999.854 999.854 999.854
          999.853 999.853 999.853 999.853 999.853 999.853 999.852 999.852 999.852 999.852 999.852 999.852
          999.852 999.851 999.851 999.851 999.851 999.853
        </DataArray>
        <DataArray type="Float32" Name="rhoG" NumberOfComponents="1" format="ascii">
          0.30585 0.3018 0.29775 0.293699 0.289649 0.285598 0.281548 0.277498 0.273447 0.269397 0.265347 0.261296
          0.257246 0.253195 0.249145 0.245095 0.241044 0.236994 0.232944 0.228893 0.224843 0.220793 0.216742 0.212692
          0.208641 0.204591 0.200541 0.19649 0.19244 0.235406
        </DataArray>
        <DataArray type="Float32" Name="mobL" NumberOfComponents="1" format="ascii">
          722.171 722.17 722.17 722.17 722.17 722.17 722.169 722.169 722.169 722.169 722.169 722.169
          722.168 722.168 722.168 722.168 722.168 722.167 722.167 722.167 722.167 722.167 722.166 722.166
          722.166 722.166 722.166 722.166 722.165 722.167
        </DataArray>
        <DataArray type="Float32" Name="mobG" NumberOfComponents="1" format="ascii">
          0 0 0 0 0 0 0 0 0 0 0 0
          0 0 0 0 0 0 0 0 0 0 0 0
          0 0 0 0 0 0
        </DataArray>
        <DataArray type="Float32" Name="porosity" NumberOfComponents="1" format="ascii">
          0.298459 0.298459 0.298459 0.298458 0.298458 0.298457 0.298456 0.298454 0.298452 0.298449 0.298445 0.29844
          0.298432 0.298423 0.29841 0.298393 0.29837 0.29834 0.2983 0.298246 0.298172 0.29807 0.297925 0.297709
          0.297099 0.296516 0.295352 0.292303 0.277574 0.00429252
        </DataArray>
        <DataArray type="Float32" Name="temperature" NumberOfComponents="1" format="ascii">
          281.15 281.15 281.15 281.15 281.15 281.15 281.15 281.15 281.15 281.15 281.15 281.15
          281.15 281.15 281.15 281.15 281.15 281.15 281.15 281.15 281.15 281.15 281.15 281.15
          281.15 281.15 281.15 281.15 281.15 281.15
        </DataArray>
        <DataArray type="Float32" Name="phase presence" NumberOfComponents="1" format="ascii">
          1 1 1 1 1 1 1 1 1 1 1 1
          1 1 1 1 1 1 1 1 1 1 1 1
          1 1 1 1 1 1
        </DataArray>
        <DataArray type="Float32" Name="precipitateVolumeFraction_au" NumberOfComponents="1" format="ascii">
          5.52349e-10 5.52744e-10 5.52746e-10 5.52742e-10 5.52752e-10 5.5272e-10 5.52738e-10 5.52744e-10 5.52799e-10 5.52764e-10 5.52774e-10 5.52776e-10
          5.52709e-10 5.52738e-10 5.52728e-10 5.52755e-10 5.5279e-10 5.52677e-10 5.52731e-10 5.52785e-10 5.52718e-10 5.52741e-10 5.53034e-10 1.15128e-09
          0.000269941 0.000269925 0.0002699 0.000269852 5.52322e-10 5.51347e-10
        </DataArray>
        <DataArray type="Float32" Name="precipitateVolumeFraction_nanoAu" NumberOfComponents="1" format="ascii">
          1.2359e-13 1.23678e-13 1.23679e-13 1.23678e-13 1.2368e-13 1.23673e-13 1.23677e-13 1.23678e-13 1.2369e-13 1.23682e-13 1.23684e-13 1.23684e-13
          1.23668e-13 1.23674e-13 1.23671e-13 1.23675e-13 1.23681e-13 1.23653e-13 1.23662e-13 1.23669e-13 1.23648e-13 1.2366e-13 1.35603e-13 2.5813e-11
          6.03691e-08 7.669e-08 1.02148e-07 1.45554e-07 4.74086e-13 4.66316e-13
        </DataArray>
        <DataArray type="Float32" Name="precipitateVolumeFraction_d" NumberOfComponents="1" format="ascii">
          0.000770324 0.000770441 0.000770603 0.000770827 0.000771137 0.000771564 0.00077215 0.000772951 0.000774042 0.000775522 0.00077752 0.000780208
          0.000783809 0.000788616 0.000795016 0.000803521 0.00081482 0.000829853 0.000849935 0.000876964 0.000913786 0.000964872 0.00103768 0.00114562
          0.00131528 0.00160722 0.00218882 0.00371337 0.011213 0.147854
        </DataArray>
        <DataArray type="Float32" Name="precipitateVolumeFraction_p" NumberOfComponents="1" format="ascii">
          0.000770324 0.000770441 0.000770603 0.000770827 0.000771137 0.000771564 0.00077215 0.000772951 0.000774042 0.000775522 0.00077752 0.000780208
          0.000783809 0.000788616 0.000795016 0.000803521 0.00081482 0.000829853 0.000849935 0.000876964 0.000913786 0.000964872 0.00103768 0.00114562
          0.00131528 0.00160722 0.00218882 0.00371337 0.011213 0.147854
        </DataArray>
        <DataArray type="Float32" Name="K" NumberOfComponents="1" format="ascii">
          9.80352e-11 9.80349e-11 9.80345e-11 9.8034e-11 9.80332e-11 9.80321e-11 9.80306e-11 9.80286e-11 9.80258e-11 9.80221e-11 9.8017e-11 9.80102e-11
          9.80011e-11 9.7989e-11 9.79728e-11 9.79513e-11 9.79227e-11 9.78847e-11 9.7834e-11 9.77658e-11 9.76729e-11 9.75441e-11 9.73608e-11 9.70896e-11
          9.63274e-11 9.56017e-11 9.41694e-11 9.0498e-11 7.43674e-11 1.44779e-16
        </DataArray>
        <DataArray type="Float32" Name="X^w_H2O" NumberOfComponents="1" format="ascii">
          0.999853 0.999853 0.999853 0.999853 0.999853 0.999853 0.999853 0.999853 0.999853 0.999853 0.999853 0.999853
          0.999853 0.999853 0.999853 0.999853 0.999853 0.999853 0.999853 0.999853 0.999853 0.999853 0.999853 0.999853
          0.999853 0.999852 0.99985 0.999846 0.999839 0.99984
        </DataArray>
        <DataArray type="Float32" Name="X^w_Air" NumberOfComponents="1" format="ascii">
          0 0 0 0 0 0 0 0 0 0 0 0
          0 0 0 0 0 0 0 0 0 0 0 0
          0 0 0 0 0 0
        </DataArray>
        <DataArray type="Float32" Name="X^w_AuComplex" NumberOfComponents="1" format="ascii">
          1.41038e-16 1.41139e-16 1.41139e-16 1.41138e-16 1.41141e-16 1.41132e-16 1.41137e-16 1.41138e-16 1.41152e-16 1.41142e-16 1.41144e-16 1.41144e-16
          1.41126e-16 1.41131e-16 1.41127e-16 1.41131e-16 1.41136e-16 1.41101e-16 1.41108e-16 1.41111e-16 1.4108e-16 1.41082e-16 1.54503e-16 2.94267e-14
          6.88484e-11 1.07386e-10 1.8441e-10 3.63945e-10 1.83463e-15 1.78117e-15
        </DataArray>
        <DataArray type="Float32" Name="X^w_nanoAu" NumberOfComponents="1" format="ascii">
          5.38282e-19 5.38661e-19 5.38664e-19 5.38659e-19 5.38668e-19 5.38637e-19 5.38654e-19 5.3866e-19 5.38711e-19 5.38676e-19 5.38685e-19 5.38683e-19
          5.38616e-19 5.38639e-19 5.38624e-19 5.38643e-19 5.38665e-19 5.38543e-19 5.38577e-19 5.38641e-19 5.42225e-19 8.83635e-19 3.25071e-17 2.95725e-15
          2.6365e-13 3.35116e-13 4.46603e-13 6.26418e-13 2.05816e-18 1.97678e-18
        </DataArray>
        <DataArray type="Float32" Name="X^w_cyanide" NumberOfComponents="1" format="ascii">
          5.07154e-06 5.07154e-06 5.07154e-06 5.07154e-06 5.07154e-06 5.07154e-06 5.07153e-06 5.07153e-06 5.07152e-06 5.07152e-06 5.0715e-06 5.07149e-06
          5.07146e-06 5.07143e-06 5.07139e-06 5.07133e-06 5.07126e-06 5.07115e-06 5.07101e-06 5.07081e-06 5.07053e-06 5.07013e-06 5.06955e-06 5.06866e-06
          5.06775e-06 6.43735e-06 8.57273e-06 1.22371e-05 1.94566e-05 1.91977e-05
        </DataArray>
        <DataArray type="Float32" Name="X^w_citrate" NumberOfComponents="1" format="ascii">
          0.000141796 0.000141796 0.000141796 0.000141796 0.000141796 0.000141796 0.000141796 0.000141796 0.000141796 0.000141796 0.000141796 0.000141796
          0.000141795 0.000141795 0.000141795 0.000141794 0.000141794 0.000141793 0.000141792 0.000141791 0.000141788 0.000141786 0.000141781 0.000141775
          0.000141765 0.000141748 0.000141717 0.000141643 0.000141401 0.000139519
        </DataArray>
        <DataArray type="Float32" Name="X^w_substrate" NumberOfComponents="1" format="ascii">
          1.67639e-11 2.22375e-11 2.94969e-11 3.91249e-11 5.18948e-11 6.88339e-11 9.13066e-11 1.21129e-10 1.60718e-10 2.13303e-10 2.83202e-10 3.76213e-10
          5.00154e-10 6.65626e-10 8.87114e-10 1.18459e-09 1.58591e-09 2.13053e-09 2.8754e-09 3.9046e-09 5.34603e-09 7.40162e-09 1.04054e-08 1.49451e-08
          2.21406e-08 3.4374e-08 5.75735e-08 1.1047e-07 2.82556e-07 1.60951e-06
        </DataArray>
        <DataArray type="Float32" Name="m^w_H2O" NumberOfComponents="1" format="ascii">
          55492.6 55492.6 55492.5 55492.5 55492.5 55492.5 55492.5 55492.5 55492.5 55492.5 55492.5 55492.5
          55492.5 55492.4 55492.4 55492.4 55492.4 55492.4 55492.4 55492.4 55492.4 55492.4 55492.4 55492.4
          55492.3 55492.3 55492.1 55491.9 55491.5 55491.7
        </DataArray>
        <DataArray type="Float32" Name="m^w_Air" NumberOfComponents="1" format="ascii">
          0 0 0 0 0 0 0 0 0 0 0 0
          0 0 0 0 0 0 0 0 0 0 0 0
          0 0 0 0 0 0
        </DataArray>
        <DataArray type="Float32" Name="m^w_AuComplex" NumberOfComponents="1" format="ascii">
          7.15935e-13 7.16445e-13 7.16449e-13 7.16442e-13 7.16455e-13 7.16412e-13 7.16435e-13 7.16441e-13 7.1651e-13 7.16463e-13 7.16473e-13 7.1647e-13
          7.16377e-13 7.16407e-13 7.16382e-13 7.16403e-13 7.16428e-13 7.16254e-13 7.16287e-13 7.16305e-13 7.16146e-13 7.16157e-13 7.84281e-13 1.49375e-10
          3.49485e-07 5.45107e-07 9.36095e-07 1.84744e-06 9.3129e-12 9.04153e-12
        </DataArray>
        <DataArray type="Float32" Name="m^w_nanoAu" NumberOfComponents="1" format="ascii">
          2.73242e-15 2.73434e-15 2.73435e-15 2.73433e-15 2.73438e-15 2.73422e-15 2.7343e-15 2.73433e-15 2.73459e-15 2.73441e-15 2.73446e-15 2.73445e-15
          2.73411e-15 2.73422e-15 2.73415e-15 2.73424e-15 2.73435e-15 2.73373e-15 2.73391e-15 2.73423e-15 2.75242e-15 4.48547e-15 1.65011e-13 1.50115e-11
          1.33833e-09 1.7011e-09 2.26703e-09 3.1798e-09 1.04476e-14 1.00345e-14
        </DataArray>
        <DataArray type="Float32" Name="m^w_cyanide" NumberOfComponents="1" format="ascii">
          0.194881 0.194881 0.194881 0.194881 0.194881 0.194881 0.194881 0.194881 0.19488 0.19488 0.194879 0.194879
          0.194878 0.194877 0.194875 0.194873 0.19487 0.194866 0.19486 0.194852 0.194842 0.194826 0.194804 0.19477
          0.194735 0.247363 0.329418 0.470226 0.747646 0.737698
        </DataArray>
        <DataArray type="Float32" Name="m^w_citrate" NumberOfComponents="1" format="ascii">
          0.749742 0.749742 0.749742 0.749742 0.749741 0.749741 0.749741 0.749741 0.74974 0.74974 0.749739 0.749738
          0.749737 0.749736 0.749734 0.749732 0.749729 0.749724 0.749719 0.749711 0.7497 0.749684 0.749662 0.749628
          0.749574 0.749487 0.749319 0.74893 0.747648 0.7377
        </DataArray>
        <DataArray type="Float32" Name="m^w_substrate" NumberOfComponents="1" format="ascii">
          9.30365e-08 1.23414e-07 1.63702e-07 2.17136e-07 2.88007e-07 3.82015e-07 5.06735e-07 6.72241e-07 8.91956e-07 1.18379e-06 1.57172e-06 2.08791e-06
          2.77576e-06 3.6941e-06 4.92331e-06 6.57423e-06 8.80147e-06 1.1824e-05 1.59579e-05 2.16697e-05 2.96694e-05 4.10775e-05 5.77481e-05 8.29422e-05
          0.000122876 0.000190769 0.000319521 0.000613084 0.00156813 0.00893247
        </DataArray>
        <DataArray type="Float32" Name="process rank" NumberOfComponents="1" format="ascii">
          0 0 0 0 0 0 0 0 0 0 0 0
          0 0 0 0 0 0 0 0 0 0 0 0
          0 0 0 0 0 0
        </DataArray>
      </CellData>
      <Points>
        <DataArray type="Float32" Name="Coordinates" NumberOfComponents="3" format="ascii">
          0 0 0 0.5 0 0 0 0.0333333 0 0.5 0.0333333 0
          0 0.0666667 0 0.5 0.0666667 0 0 0.1 0 0.5 0.1 0
          0 0.133333 0 0.5 0.133333 0 0 0.166667 0 0.5 0.166667 0
          0 0.2 0 0.5 0.2 0 0 0.233333 0 0.5 0.233333 0
          0 0.266667 0 0.5 0.266667 0 0 0.3 0 0.5 0.3 0
          0 0.333333 0 0.5 0.333333 0 0 0.366667 0 0.5 0.366667 0
          0 0.4 0 0.5 0.4 0 0 0.433333 0 0.5 0.433333 0
          0 0.466667 0 0.5 0.466667 0 0 0.5 0 0.5 0.5 0
          0 0.533333 0 0.5 0.533333 0 0 0.566667 0 0.5 0.566667 0
          0 0.6 0 0.5 0.6 0 0 0.633333 0 0.5 0.633333 0
          0 0.666667 0 0.5 0.666667 0 0 0.7 0 0.5 0.7 0
          0 0.733333 0 0.5 0.733333 0 0 0.766667 0 0.5 0.766667 0
          0 0.8 0 0.5 0.8 0 0 0.833333 0 0.5 0.833333 0
          0 0.866667 0 0.5 0.866667 0 0 0.9 0 0.5 0.9 0
          0 0.933333 0 0.5 0.933333 0 0 0.966667 0 0.5 0.966667 0
          0 1 0 0.5 1 0
        </DataArray>
      </Points>
      <Cells>
        <DataArray type="Int32" Name="connectivity" NumberOfComponents="1" format="ascii">
          0 1 3 2 2 3 5 4 4 5 7 6
          6 7 9 8 8 9 11 10 10 11 13 12
          12 13 15 14 14 15 17 16 16 17 19 18
          18 19 21 20 20 21 23 22 22 23 25 24
          24 25 27 26 26 27 29 28 28 29 31 30
          30 31 33 32 32 33 35 34 34 35 37 36
          36 37 39 38 38 39 41 40 40 41 43 42
          42 43 45 44 44 45 47 46 46 47 49 48
          48 49 51 50 50 51 53 52 52 53 55 54
          54 55 57 56 56 57 59 58 58 59 61 60
        </DataArray>
        <DataArray type="Int32" Name="offsets" NumberOfComponents="1" format="ascii">
          4 8 12 16 20 24 28 32 36 40 44 48
          52 56 60 64 68 72 76 80 84 88 92 96
          100 104 108 112 116 120
        </DataArray>
        <DataArray type="UInt8" Name="types" NumberOfComponents="1" format="ascii">
          9 9 9 9 9 9 9 9 9 9 9 9
          9 9 9 9 9 9 9 9 9 9 9 9
          9 9 9 9 9 9
        </DataArray>
      </Cells>
    </Piece>
  </UnstructuredGrid>
</VTKFile>
