<?xml version="1.0"?>
<VTKFile type="UnstructuredGrid" version="0.1" byte_order="LittleEndian">
  <UnstructuredGrid>
    <Piece NumberOfCells="30" NumberOfPoints="62">
      <CellData Scalars="Sg">
        <DataArray type="Float32" Name="Sg" NumberOfComponents="1" format="ascii">
          0 0 0 0 0 0 0 0 0 0 0 0
          0 0 0 0 0 0 0 0 0 0 0 0
          0 0 0 0 0 0
        </DataArray>
        <DataArray type="Float32" Name="Sl" NumberOfComponents="1" format="ascii">
          1 1 1 1 1 1 1 1 1 1 1 1
          1 1 1 1 1 1 1 1 1 1 1 1
          1 1 1 1 1 1
        </DataArray>
        <DataArray type="Float32" Name="pg" NumberOfComponents="1" format="ascii">
          24687.8 24360.9 24034 23707 23380.1 23053.1 22726.2 22399.3 22072.3 21745.4 21418.4 21091.5
          20764.6 20437.6 20110.7 19783.7 19456.8 19129.9 18802.9 18476 18149 17822.1 17495.1 17168.2
          16841.3 16514.3 16187.4 15860.4 15533.5 20496.5
        </DataArray>
        <DataArray type="Float32" Name="pl" NumberOfComponents="1" format="ascii">
          110628 110301 109974 109647 109320 108993 108666 108339 108012 107685 107358 107031
          106704 106377 106050 105723 105396 105070 104743 104416 104089 103762 103435 103108
          102781 102454 102127 101800 101473 106436
        </DataArray>
        <DataArray type="Float32" Name="pc" NumberOfComponents="1" format="ascii">
          -85939.7 -85939.7 -85939.7 -85939.7 -85939.7 -85939.7 -85939.7 -85939.7 -85939.7 -85939.7 -85939.7 -85939.7
          -85939.7 -85939.7 -85939.7 -85939.7 -85939.7 -85939.7 -85939.7 -85939.7 -85939.7 -85939.7 -85939.7 -85939.7
          -85939.7 -85939.7 -85939.7 -85939.7 -85939.7 -85939.7
        </DataArray>
        <DataArray type="Float32" Name="rhoL" NumberOfComponents="1" format="ascii">
          999.855 999.855 999.855 999.855 999.855 999.854 999.854 999.854 999.854 999.854 999.854 999.854
          999.853 999.853 999.853 999.853 999.853 999.853 999.852 999.852 999.852 999.852 999.852 999.852
          999.852 999.851 999.851 999.851 999.851 999.853
        </DataArray>
        <DataArray type="Float32" Name="rhoG" NumberOfComponents="1" format="ascii">
          0.30585 0.3018 0.29775 0.293699 0.289649 0.285598 0.281548 0.277498 0.273447 0.269397 0.265347 0.261296
          0.257246 0.253195 0.249145 0.245095 0.241044 0.236994 0.232944 0.228893 0.224843 0.220793 0.216742 0.212692
          0.208641 0.204591 0.200541 0.19649 0.19244 0.253925
        </DataArray>
        <DataArray type="Float32" Name="mobL" NumberOfComponents="1" format="ascii">
          722.171 722.17 722.17 722.17 722.17 722.17 722.169 722.169 722.169 722.169 722.169 722.169
          722.168 722.168 722.168 722.168 722.168 722.167 722.167 722.167 722.167 722.167 722.166 722.166
          722.166 722.166 722.166 722.166 722.165 722.168
        </DataArray>
        <DataArray type="Float32" Name="mobG" NumberOfComponents="1" format="ascii">
          0 0 0 0 0 0 0 0 0 0 0 0
          0 0 0 0 0 0 0 0 0 0 0 0
          0 0 0 0 0 0
        </DataArray>
        <DataArray type="Float32" Name="porosity" NumberOfComponents="1" format="ascii">
          0.29857 0.298569 0.298569 0.298569 0.298568 0.298567 0.298566 0.298565 0.298563 0.29856 0.298556 0.298551
          0.298544 0.298535 0.298523 0.298507 0.298486 0.298457 0.298419 0.298368 0.298298 0.298201 0.298062 0.297855
          0.297258 0.296691 0.295542 0.292445 0.276597 0.00384384
        </DataArray>
        <DataArray type="Float32" Name="temperature" NumberOfComponents="1" format="ascii">
          281.15 281.15 281.15 281.15 281.15 281.15 281.15 281.15 281.15 281.15 281.15 281.15
          281.15 281.15 281.15 281.15 281.15 281.15 281.15 281.15 281.15 281.15 281.15 281.15
          281.15 281.15 281.15 281.15 281.15 281.15
        </DataArray>
        <DataArray type="Float32" Name="phase presence" NumberOfComponents="1" format="ascii">
          1 1 1 1 1 1 1 1 1 1 1 1
          1 1 1 1 1 1 1 1 1 1 1 1
          1 1 1 1 1 1
        </DataArray>
        <DataArray type="Float32" Name="precipitateVolumeFraction_au" NumberOfComponents="1" format="ascii">
          5.52349e-10 5.52744e-10 5.52746e-10 5.52742e-10 5.52752e-10 5.5272e-10 5.52738e-10 5.52744e-10 5.52799e-10 5.52764e-10 5.52774e-10 5.52776e-10
          5.52709e-10 5.52738e-10 5.52728e-10 5.52755e-10 5.5279e-10 5.52677e-10 5.52731e-10 5.52785e-10 5.52718e-10 5.52741e-10 5.53116e-10 1.32791e-09
          0.000269941 0.000269925 0.0002699 0.000269851 5.52322e-10 5.51342e-10
        </DataArray>
        <DataArray type="Float32" Name="precipitateVolumeFraction_nanoAu" NumberOfComponents="1" format="ascii">
          1.23587e-13 1.23675e-13 1.23675e-13 1.23674e-13 1.23677e-13 1.23669e-13 1.23673e-13 1.23675e-13 1.23687e-13 1.23679e-13 1.23681e-13 1.2368e-13
          1.23665e-13 1.2367e-13 1.23667e-13 1.23671e-13 1.23677e-13 1.23649e-13 1.23657e-13 1.23664e-13 1.23642e-13 1.23654e-13 1.35629e-13 2.58491e-11
          6.0366e-08 7.66865e-08 1.02145e-07 1.45556e-07 4.74137e-13 4.66329e-13
        </DataArray>
        <DataArray type="Float32" Name="precipitateVolumeFraction_d" NumberOfComponents="1" format="ascii">
          0.000715211 0.000715323 0.000715477 0.00071569 0.000715984 0.000716388 0.000716942 0.0007177 0.00071873 0.000720127 0.000722012 0.000724547
          0.000727943 0.000732476 0.000738512 0.000746537 0.000757202 0.000771402 0.000790392 0.000815984 0.000850911 0.00089948 0.000968919 0.0010723
          0.00123579 0.00151972 0.00209403 0.00364234 0.0117013 0.148078
        </DataArray>
        <DataArray type="Float32" Name="precipitateVolumeFraction_p" NumberOfComponents="1" format="ascii">
          0.000715211 0.000715323 0.000715477 0.00071569 0.000715984 0.000716388 0.000716942 0.0007177 0.00071873 0.000720127 0.000722012 0.000724547
          0.000727943 0.000732476 0.000738512 0.000746537 0.000757202 0.000771402 0.000790392 0.000815984 0.000850911 0.00089948 0.000968919 0.0010723
          0.00123579 0.00151972 0.00209403 0.00364234 0.0117013 0.148078
        </DataArray>
        <DataArray type="Float32" Name="K" NumberOfComponents="1" format="ascii">
          9.81747e-11 9.81745e-11 9.81741e-11 9.81735e-11 9.81728e-11 9.81718e-11 9.81704e-11 9.81684e-11 9.81658e-11 9.81623e-11 9.81575e-11 9.81511e-11
          9.81425e-11 9.8131e-11 9.81157e-11 9.80954e-11 9.80684e-11 9.80325e-11 9.79845e-11 9.79198e-11 9.78315e-11 9.77089e-11 9.75339e-11 9.72737e-11
          9.65258e-11 9.58188e-11 9.44016e-11 9.06664e-11 7.33866e-11 1.03866e-16
        </DataArray>
        <DataArray type="Float32" Name="X^w_H2O" NumberOfComponents="1" format="ascii">
          0.999853 0.999853 0.999853 0.999853 0.999853 0.999853 0.999853 0.999853 0.999853 0.999853 0.999853 0.999853
          0.999853 0.999853 0.999853 0.999853 0.999853 0.999853 0.999853 0.999853 0.999853 0.999853 0.999853 0.999853
          0.999853 0.999852 0.99985 0.999846 0.999839 0.99984
        </DataArray>
        <DataArray type="Float32" Name="X^w_Air" NumberOfComponents="1" format="ascii">
          0 0 0 0 0 0 0 0 0 0 0 0
          0 0 0 0 0 0 0 0 0 0 0 0
          0 0 0 0 0 0
        </DataArray>
        <DataArray type="Float32" Name="X^w_AuComplex" NumberOfComponents="1" format="ascii">
          1.41032e-16 1.41133e-16 1.41134e-16 1.41132e-16 1.41135e-16 1.41127e-16 1.41131e-16 1.41132e-16 1.41146e-16 1.41137e-16 1.41139e-16 1.41138e-16
          1.41119e-16 1.41125e-16 1.4112e-16 1.41124e-16 1.41128e-16 1.41093e-16 1.41099e-16 1.41102e-16 1.41069e-16 1.41071e-16 1.54527e-16 2.94668e-14
          6.88423e-11 1.07377e-10 1.84401e-10 3.63955e-10 1.83501e-15 1.78126e-15
        </DataArray>
        <DataArray type="Float32" Name="X^w_nanoAu" NumberOfComponents="1" format="ascii">
          5.38267e-19 5.38646e-19 5.38649e-19 5.38644e-19 5.38654e-19 5.38622e-19 5.38639e-19 5.38645e-19 5.38696e-19 5.38661e-19 5.3867e-19 5.38667e-19
          5.386e-19 5.38622e-19 5.38606e-19 5.38624e-19 5.38645e-19 5.38521e-19 5.38553e-19 5.38615e-19 5.42197e-19 8.83582e-19 3.25057e-17 2.95717e-15
          2.63634e-13 3.35099e-13 4.46593e-13 6.26442e-13 2.05859e-18 1.97688e-18
        </DataArray>
        <DataArray type="Float32" Name="X^w_cyanide" NumberOfComponents="1" format="ascii">
          5.07145e-06 5.07145e-06 5.07145e-06 5.07145e-06 5.07145e-06 5.07145e-06 5.07145e-06 5.07144e-06 5.07144e-06 5.07142e-06 5.07141e-06 5.07139e-06
          5.07136e-06 5.07133e-06 5.07128e-06 5.07121e-06 5.07113e-06 5.07101e-06 5.07085e-06 5.07064e-06 5.07034e-06 5.06992e-06 5.06932e-06 5.06843e-06
          5.06753e-06 6.43709e-06 8.57251e-06 1.22373e-05 1.94586e-05 1.91982e-05
        </DataArray>
        <DataArray type="Float32" Name="X^w_citrate" NumberOfComponents="1" format="ascii">
          0.000141796 0.000141796 0.000141796 0.000141796 0.000141796 0.000141796 0.000141796 0.000141796 0.000141796 0.000141796 0.000141796 0.000141795
          0.000141795 0.000141795 0.000141794 0.000141794 0.000141793 0.000141792 0.000141791 0.00014179 0.000141788 0.000141784 0.00014178 0.000141774
          0.000141763 0.000141747 0.000141717 0.000141647 0.000141415 0.000139522
        </DataArray>
        <DataArray type="Float32" Name="X^w_substrate" NumberOfComponents="1" format="ascii">
          2.70265e-11 3.52227e-11 4.59026e-11 5.98188e-11 7.79532e-11 1.01587e-10 1.32391e-10 1.72555e-10 2.24939e-10 2.933e-10 3.82577e-10 4.99293e-10
          6.52095e-10 8.52522e-10 1.11609e-09 1.46384e-09 1.92473e-09 2.53915e-09 3.36456e-09 4.48477e-09 6.02563e-09 8.18359e-09 1.12803e-08 1.58764e-08
          2.30323e-08 3.49912e-08 5.73243e-08 1.07716e-07 2.72318e-07 1.60707e-06
        </DataArray>
        <DataArray type="Float32" Name="m^w_H2O" NumberOfComponents="1" format="ascii">
          55492.6 55492.6 55492.5 55492.5 55492.5 55492.5 55492.5 55492.5 55492.5 55492.5 55492.5 55492.5
          55492.5 55492.4 55492.4 55492.4 55492.4 55492.4 55492.4 55492.4 55492.4 55492.4 55492.4 55492.4
          55492.3 55492.3 55492.1 55491.9 55491.5 55491.7
        </DataArray>
        <DataArray type="Float32" Name="m^w_Air" NumberOfComponents="1" format="ascii">
          0 0 0 0 0 0 0 0 0 0 0 0
          0 0 0 0 0 0 0 0 0 0 0 0
          0 0 0 0 0 0
        </DataArray>
        <DataArray type="Float32" Name="m^w_AuComplex" NumberOfComponents="1" format="ascii">
          7.15905e-13 7.16416e-13 7.1642e-13 7.16413e-13 7.16426e-13 7.16384e-13 7.16406e-13 7.16413e-13 7.16482e-13 7.16434e-13 7.16444e-13 7.1644e-13
          7.16346e-13 7.16374e-13 7.16348e-13 7.16367e-13 7.16389e-13 7.16212e-13 7.16242e-13 7.16255e-13 7.16091e-13 7.16098e-13 7.84403e-13 1.49578e-10
          3.49455e-07 5.45064e-07 9.36049e-07 1.84749e-06 9.3148e-12 9.04199e-12
        </DataArray>
        <DataArray type="Float32" Name="m^w_nanoAu" NumberOfComponents="1" format="ascii">
          2.73234e-15 2.73427e-15 2.73428e-15 2.73425e-15 2.7343e-15 2.73414e-15 2.73423e-15 2.73426e-15 2.73452e-15 2.73434e-15 2.73438e-15 2.73437e-15
          2.73402e-15 2.73414e-15 2.73406e-15 2.73415e-15 2.73425e-15 2.73362e-15 2.73379e-15 2.7341e-15 2.75228e-15 4.4852e-15 1.65004e-13 1.50111e-11
          1.33825e-09 1.70101e-09 2.26698e-09 3.17992e-09 1.04497e-14 1.0035e-14
        </DataArray>
        <DataArray type="Float32" Name="m^w_cyanide" NumberOfComponents="1" format="ascii">
          0.194878 0.194878 0.194878 0.194878 0.194878 0.194878 0.194877 0.194877 0.194877 0.194876 0.194876 0.194875
          0.194874 0.194873 0.194871 0.194868 0.194865 0.19486 0.194854 0.194846 0.194834 0.194818 0.194795 0.194761
          0.194726 0.247353 0.32941 0.470233 0.747722 0.737717
        </DataArray>
        <DataArray type="Float32" Name="m^w_citrate" NumberOfComponents="1" format="ascii">
          0.749742 0.749742 0.749742 0.749742 0.749741 0.749741 0.749741 0.74974 0.74974 0.749739 0.749738 0.749737
          0.749736 0.749734 0.749732 0.74973 0.749726 0.749721 0.749715 0.749707 0.749695 0.749678 0.749655 0.749621
          0.749567 0.749482 0.749321 0.74895 0.747725 0.737718
        </DataArray>
        <DataArray type="Float32" Name="m^w_substrate" NumberOfComponents="1" format="ascii">
          1.49992e-07 1.9548e-07 2.54751e-07 3.31984e-07 4.32626e-07 5.63786e-07 7.34748e-07 9.57646e-07 1.24837e-06 1.62776e-06 2.12323e-06 2.77098e-06
          3.619e-06 4.73134e-06 6.19406e-06 8.12404e-06 1.06819e-05 1.40918e-05 1.86727e-05 2.48896e-05 3.34411e-05 4.54173e-05 6.26036e-05 8.8111e-05
          0.000127825 0.000194194 0.000318138 0.0005978 0.00151131 0.00891894
        </DataArray>
        <DataArray type="Float32" Name="process rank" NumberOfComponents="1" format="ascii">
          0 0 0 0 0 0 0 0 0 0 0 0
          0 0 0 0 0 0 0 0 0 0 0 0
          0 0 0 0 0 0
        </DataArray>
      </CellData>
      <Points>
        <DataArray type="Float32" Name="Coordinates" NumberOfComponents="3" format="ascii">
          0 0 0 0.5 0 0 0 0.0333333 0 0.5 0.0333333 0
          0 0.0666667 0 0.5 0.0666667 0 0 0.1 0 0.5 0.1 0
          0 0.133333 0 0.5 0.133333 0 0 0.166667 0 0.5 0.166667 0
          0 0.2 0 0.5 0.2 0 0 0.233333 0 0.5 0.233333 0
          0 0.266667 0 0.5 0.266667 0 0 0.3 0 0.5 0.3 0
          0 0.333333 0 0.5 0.333333 0 0 0.366667 0 0.5 0.366667 0
          0 0.4 0 0.5 0.4 0 0 0.433333 0 0.5 0.433333 0
          0 0.466667 0 0.5 0.466667 0 0 0.5 0 0.5 0.5 0
          0 0.533333 0 0.5 0.533333 0 0 0.566667 0 0.5 0.566667 0
          0 0.6 0 0.5 0.6 0 0 0.633333 0 0.5 0.633333 0
          0 0.666667 0 0.5 0.666667 0 0 0.7 0 0.5 0.7 0
          0 0.733333 0 0.5 0.733333 0 0 0.766667 0 0.5 0.766667 0
          0 0.8 0 0.5 0.8 0 0 0.833333 0 0.5 0.833333 0
          0 0.866667 0 0.5 0.866667 0 0 0.9 0 0.5 0.9 0
          0 0.933333 0 0.5 0.933333 0 0 0.966667 0 0.5 0.966667 0
          0 1 0 0.5 1 0
        </DataArray>
      </Points>
      <Cells>
        <DataArray type="Int32" Name="connectivity" NumberOfComponents="1" format="ascii">
          0 1 3 2 2 3 5 4 4 5 7 6
          6 7 9 8 8 9 11 10 10 11 13 12
          12 13 15 14 14 15 17 16 16 17 19 18
          18 19 21 20 20 21 23 22 22 23 25 24
          24 25 27 26 26 27 29 28 28 29 31 30
          30 31 33 32 32 33 35 34 34 35 37 36
          36 37 39 38 38 39 41 40 40 41 43 42
          42 43 45 44 44 45 47 46 46 47 49 48
          48 49 51 50 50 51 53 52 52 53 55 54
          54 55 57 56 56 57 59 58 58 59 61 60
        </DataArray>
        <DataArray type="Int32" Name="offsets" NumberOfComponents="1" format="ascii">
          4 8 12 16 20 24 28 32 36 40 44 48
          52 56 60 64 68 72 76 80 84 88 92 96
          100 104 108 112 116 120
        </DataArray>
        <DataArray type="UInt8" Name="types" NumberOfComponents="1" format="ascii">
          9 9 9 9 9 9 9 9 9 9 9 9
          9 9 9 9 9 9 9 9 9 9 9 9
          9 9 9 9 9 9
        </DataArray>
      </Cells>
    </Piece>
  </UnstructuredGrid>
</VTKFile>
