<?xml version="1.0"?>
<VTKFile type="UnstructuredGrid" version="0.1" byte_order="LittleEndian">
  <UnstructuredGrid>
    <Piece NumberOfCells="30" NumberOfPoints="62">
      <CellData Scalars="Sg">
        <DataArray type="Float32" Name="Sg" NumberOfComponents="1" format="ascii">
          0 0 0 0 0 0 0 0 0 0 0 0
          0 0 0 0 0 0 0 0 0 0 0 0
          0 0 0 0 0 0
        </DataArray>
        <DataArray type="Float32" Name="Sl" NumberOfComponents="1" format="ascii">
          1 1 1 1 1 1 1 1 1 1 1 1
          1 1 1 1 1 1 1 1 1 1 1 1
          1 1 1 1 1 1
        </DataArray>
        <DataArray type="Float32" Name="pg" NumberOfComponents="1" format="ascii">
          24687.8 24360.9 24034 23707 23380.1 23053.1 22726.2 22399.3 22072.3 21745.4 21418.4 21091.5
          20764.6 20437.6 20110.7 19783.7 19456.8 19129.8 18802.9 18476 18149 17822.1 17495.1 17168.2
          16841.3 16514.3 16187.4 15860.4 15533.5 15206.6
        </DataArray>
        <DataArray type="Float32" Name="pl" NumberOfComponents="1" format="ascii">
          110628 110301 109974 109647 109320 108993 108666 108339 108012 107685 107358 107031
          106704 106377 106050 105723 105396 105070 104743 104416 104089 103762 103435 103108
          102781 102454 102127 101800 101473 101146
        </DataArray>
        <DataArray type="Float32" Name="pc" NumberOfComponents="1" format="ascii">
          -85939.7 -85939.7 -85939.7 -85939.7 -85939.7 -85939.7 -85939.7 -85939.7 -85939.7 -85939.7 -85939.7 -85939.7
          -85939.7 -85939.7 -85939.7 -85939.7 -85939.7 -85939.7 -85939.7 -85939.7 -85939.7 -85939.7 -85939.7 -85939.7
          -85939.7 -85939.7 -85939.7 -85939.7 -85939.7 -85939.7
        </DataArray>
        <DataArray type="Float32" Name="rhoL" NumberOfComponents="1" format="ascii">
          999.855 999.855 999.855 999.855 999.855 999.854 999.854 999.854 999.854 999.854 999.854 999.854
          999.853 999.853 999.853 999.853 999.853 999.853 999.852 999.852 999.852 999.852 999.852 999.852
          999.852 999.851 999.851 999.851 999.851 999.851
        </DataArray>
        <DataArray type="Float32" Name="rhoG" NumberOfComponents="1" format="ascii">
          0.30585 0.3018 0.29775 0.293699 0.289649 0.285598 0.281548 0.277498 0.273447 0.269397 0.265347 0.261296
          0.257246 0.253195 0.249145 0.245095 0.241044 0.236994 0.232944 0.228893 0.224843 0.220793 0.216742 0.212692
          0.208641 0.204591 0.200541 0.19649 0.19244 0.18839
        </DataArray>
        <DataArray type="Float32" Name="mobL" NumberOfComponents="1" format="ascii">
          722.171 722.17 722.17 722.17 722.17 722.17 722.169 722.169 722.169 722.169 722.169 722.169
          722.168 722.168 722.168 722.168 722.168 722.167 722.167 722.167 722.167 722.167 722.166 722.166
          722.166 722.166 722.166 722.166 722.165 722.165
        </DataArray>
        <DataArray type="Float32" Name="mobG" NumberOfComponents="1" format="ascii">
          0 0 0 0 0 0 0 0 0 0 0 0
          0 0 0 0 0 0 0 0 0 0 0 0
          0 0 0 0 0 0
        </DataArray>
        <DataArray type="Float32" Name="porosity" NumberOfComponents="1" format="ascii">
          0.299581 0.299581 0.29958 0.29958 0.299579 0.299579 0.299578 0.299577 0.299575 0.299574 0.299572 0.299569
          0.299566 0.299562 0.299557 0.29955 0.299541 0.299529 0.299514 0.299493 0.299465 0.299427 0.299371 0.299288
          0.298886 0.298655 0.29818 0.296895 0.29107 0.226992
        </DataArray>
        <DataArray type="Float32" Name="temperature" NumberOfComponents="1" format="ascii">
          281.15 281.15 281.15 281.15 281.15 281.15 281.15 281.15 281.15 281.15 281.15 281.15
          281.15 281.15 281.15 281.15 281.15 281.15 281.15 281.15 281.15 281.15 281.15 281.15
          281.15 281.15 281.15 281.15 281.15 281.15
        </DataArray>
        <DataArray type="Float32" Name="phase presence" NumberOfComponents="1" format="ascii">
          1 1 1 1 1 1 1 1 1 1 1 1
          1 1 1 1 1 1 1 1 1 1 1 1
          1 1 1 1 1 1
        </DataArray>
        <DataArray type="Float32" Name="precipitateVolumeFraction_au" NumberOfComponents="1" format="ascii">
          5.52618e-10 5.52767e-10 5.52449e-10 5.52796e-10 5.52736e-10 5.52763e-10 5.52772e-10 5.52753e-10 5.52755e-10 5.52726e-10 5.52797e-10 5.52795e-10
          5.52729e-10 5.52735e-10 5.52757e-10 5.52827e-10 5.52757e-10 5.5276e-10 5.52771e-10 5.52736e-10 5.52772e-10 5.52741e-10 5.52878e-10 8.64372e-10
          0.00026994 0.000269924 0.000269899 0.000269854 5.52465e-10 5.51198e-10
        </DataArray>
        <DataArray type="Float32" Name="precipitateVolumeFraction_nanoAu" NumberOfComponents="1" format="ascii">
          1.26551e-13 1.26746e-13 1.2646e-13 1.26754e-13 1.267e-13 1.26708e-13 1.26703e-13 1.2668e-13 1.26666e-13 1.26636e-13 1.26644e-13 1.26618e-13
          1.26569e-13 1.26539e-13 1.26509e-13 1.26485e-13 1.26415e-13 1.26356e-13 1.26289e-13 1.26197e-13 1.26106e-13 1.25992e-13 1.37816e-13 2.58559e-11
          6.05037e-08 7.67361e-08 1.01984e-07 1.44833e-07 4.70363e-13 4.52183e-13
        </DataArray>
        <DataArray type="Float32" Name="precipitateVolumeFraction_d" NumberOfComponents="1" format="ascii">
          0.000209593 0.000209742 0.000209923 0.000210142 0.00021041 0.000210738 0.000211143 0.000211645 0.000212273 0.000213061 0.000214056 0.000215318
          0.000216927 0.000218987 0.000221638 0.000225064 0.000229518 0.000235347 0.000243043 0.000253324 0.000267278 0.00028664 0.000314344 0.000355761
          0.000421757 0.000537652 0.00077522 0.00141751 0.00446478 0.0365039
        </DataArray>
        <DataArray type="Float32" Name="precipitateVolumeFraction_p" NumberOfComponents="1" format="ascii">
          0.000209593 0.000209742 0.000209923 0.000210142 0.00021041 0.000210738 0.000211143 0.000211645 0.000212273 0.000213061 0.000214056 0.000215318
          0.000216927 0.000218987 0.000221638 0.000225064 0.000229518 0.000235347 0.000243043 0.000253324 0.000267278 0.00028664 0.000314344 0.000355761
          0.000421757 0.000537652 0.00077522 0.00141751 0.00446478 0.0365039
        </DataArray>
        <DataArray type="Float32" Name="K" NumberOfComponents="1" format="ascii">
          9.94622e-11 9.94619e-11 9.94614e-11 9.94608e-11 9.94601e-11 9.94593e-11 9.94583e-11 9.9457e-11 9.94554e-11 9.94534e-11 9.94508e-11 9.94476e-11
          9.94435e-11 9.94382e-11 9.94314e-11 9.94226e-11 9.94112e-11 9.93963e-11 9.93766e-11 9.93503e-11 9.93147e-11 9.92652e-11 9.91944e-11 9.90886e-11
          9.85767e-11 9.82826e-11 9.76819e-11 9.60728e-11 8.90472e-11 3.5522e-11
        </DataArray>
        <DataArray type="Float32" Name="X^w_H2O" NumberOfComponents="1" format="ascii">
          0.999853 0.999853 0.999853 0.999853 0.999853 0.999853 0.999853 0.999853 0.999853 0.999853 0.999853 0.999853
          0.999853 0.999853 0.999853 0.999853 0.999853 0.999853 0.999853 0.999853 0.999853 0.999853 0.999853 0.999853
          0.999853 0.999852 0.99985 0.999846 0.99984 0.999842
        </DataArray>
        <DataArray type="Float32" Name="X^w_Air" NumberOfComponents="1" format="ascii">
          0 0 0 0 0 0 0 0 0 0 0 0
          0 0 0 0 0 0 0 0 0 0 0 0
          0 0 0 0 0 0
        </DataArray>
        <DataArray type="Float32" Name="X^w_AuComplex" NumberOfComponents="1" format="ascii">
          1.45776e-16 1.45967e-16 1.45668e-16 1.45959e-16 1.45892e-16 1.45888e-16 1.45868e-16 1.45827e-16 1.45793e-16 1.45739e-16 1.45722e-16 1.45665e-16
          1.45577e-16 1.45506e-16 1.4543e-16 1.45354e-16 1.45219e-16 1.45088e-16 1.44936e-16 1.44742e-16 1.44533e-16 1.44275e-16 1.5748e-16 2.95744e-14
          6.91239e-11 1.07493e-10 1.83824e-10 3.60427e-10 1.80039e-15 1.67256e-15
        </DataArray>
        <DataArray type="Float32" Name="X^w_nanoAu" NumberOfComponents="1" format="ascii">
          5.51101e-19 5.51919e-19 5.5069e-19 5.5194e-19 5.51691e-19 5.51707e-19 5.51665e-19 5.51542e-19 5.51456e-19 5.51298e-19 5.51302e-19 5.51152e-19
          5.50895e-19 5.50718e-19 5.50535e-19 5.50371e-19 5.49997e-19 5.49664e-19 5.49279e-19 5.48811e-19 5.51968e-19 8.92264e-19 3.24784e-17 2.95408e-15
          2.63388e-13 3.34001e-13 4.43658e-13 6.19092e-13 2.01803e-18 1.85317e-18
        </DataArray>
        <DataArray type="Float32" Name="X^w_cyanide" NumberOfComponents="1" format="ascii">
          5.13778e-06 5.13755e-06 5.13728e-06 5.13695e-06 5.13656e-06 5.1361e-06 5.13557e-06 5.13494e-06 5.13421e-06 5.13336e-06 5.13239e-06 5.13127e-06
          5.12999e-06 5.12851e-06 5.12681e-06 5.12485e-06 5.12258e-06 5.11995e-06 5.11688e-06 5.11326e-06 5.10895e-06 5.10373e-06 5.09726e-06 5.089e-06
          5.07848e-06 6.44039e-06 8.55785e-06 1.21748e-05 1.92371e-05 1.85598e-05
        </DataArray>
        <DataArray type="Float32" Name="X^w_citrate" NumberOfComponents="1" format="ascii">
          0.000141775 0.000141772 0.000141769 0.000141765 0.000141761 0.000141757 0.000141752 0.000141746 0.00014174 0.000141732 0.000141724 0.000141715
          0.000141704 0.000141693 0.000141679 0.000141664 0.000141646 0.000141626 0.000141602 0.000141575 0.000141543 0.000141503 0.000141455 0.000141394
          0.000141313 0.000141199 0.000141019 0.000140683 0.000139805 0.000134882
        </DataArray>
        <DataArray type="Float32" Name="X^w_substrate" NumberOfComponents="1" format="ascii">
          1.4915e-08 1.68763e-08 1.90886e-08 2.15836e-08 2.43968e-08 2.75685e-08 3.11443e-08 3.5176e-08 3.97226e-08 4.48519e-08 5.06419e-08 5.71836e-08
          6.45835e-08 7.29687e-08 8.24924e-08 9.33424e-08 1.05754e-07 1.2003e-07 1.36567e-07 1.55904e-07 1.78799e-07 2.06362e-07 2.40299e-07 2.83406e-07
          3.40636e-07 4.21749e-07 5.49115e-07 7.87054e-07 1.40766e-06 4.8789e-06
        </DataArray>
        <DataArray type="Float32" Name="m^w_H2O" NumberOfComponents="1" format="ascii">
          55492.6 55492.5 55492.5 55492.5 55492.5 55492.5 55492.5 55492.5 55492.5 55492.5 55492.5 55492.5
          55492.4 55492.4 55492.4 55492.4 55492.4 55492.4 55492.4 55492.4 55492.4 55492.4 55492.4 55492.4
          55492.4 55492.3 55492.1 55491.9 55491.6 55491.7
        </DataArray>
        <DataArray type="Float32" Name="m^w_Air" NumberOfComponents="1" format="ascii">
          0 0 0 0 0 0 0 0 0 0 0 0
          0 0 0 0 0 0 0 0 0 0 0 0
          0 0 0 0 0 0
        </DataArray>
        <DataArray type="Float32" Name="m^w_AuComplex" NumberOfComponents="1" format="ascii">
          7.39988e-13 7.40952e-13 7.39435e-13 7.40912e-13 7.40575e-13 7.40553e-13 7.40454e-13 7.40243e-13 7.4007e-13 7.39794e-13 7.39711e-13 7.39421e-13
          7.38976e-13 7.38616e-13 7.38227e-13 7.37843e-13 7.37155e-13 7.3649e-13 7.35718e-13 7.34736e-13 7.33675e-13 7.32364e-13 7.99392e-13 1.50124e-10
          3.50884e-07 5.45651e-07 9.33119e-07 1.82959e-06 9.13904e-12 8.49016e-12
        </DataArray>
        <DataArray type="Float32" Name="m^w_nanoAu" NumberOfComponents="1" format="ascii">
          2.79749e-15 2.80164e-15 2.7954e-15 2.80174e-15 2.80048e-15 2.80056e-15 2.80035e-15 2.79972e-15 2.79928e-15 2.79848e-15 2.7985e-15 2.79774e-15
          2.79644e-15 2.79554e-15 2.79461e-15 2.79378e-15 2.79188e-15 2.79019e-15 2.78823e-15 2.78585e-15 2.80188e-15 4.52928e-15 1.64866e-13 1.49954e-11
          1.337e-09 1.69545e-09 2.25208e-09 3.14261e-09 1.02439e-14 9.40698e-15
        </DataArray>
        <DataArray type="Float32" Name="m^w_cyanide" NumberOfComponents="1" format="ascii">
          0.197426 0.197418 0.197407 0.197395 0.19738 0.197362 0.197341 0.197317 0.197289 0.197257 0.197219 0.197176
          0.197127 0.19707 0.197004 0.196929 0.196842 0.196741 0.196623 0.196484 0.196318 0.196117 0.195869 0.195551
          0.195147 0.24748 0.328846 0.467831 0.739209 0.713182
        </DataArray>
        <DataArray type="Float32" Name="m^w_citrate" NumberOfComponents="1" format="ascii">
          0.749631 0.749616 0.749599 0.74958 0.749559 0.749535 0.749508 0.749478 0.749444 0.749405 0.749362 0.749312
          0.749257 0.749194 0.749122 0.749041 0.748948 0.748841 0.748716 0.748571 0.748399 0.748193 0.747938 0.747615
          0.747186 0.746582 0.745633 0.743856 0.739212 0.713183
        </DataArray>
        <DataArray type="Float32" Name="m^w_substrate" NumberOfComponents="1" format="ascii">
          8.27755e-05 9.36602e-05 0.000105938 0.000119785 0.000135398 0.000153 0.000172845 0.00019522 0.000220453 0.00024892 0.000281053 0.000317358
          0.000358426 0.000404962 0.000457817 0.000518032 0.000586916 0.000666143 0.00075792 0.000865237 0.0009923 0.00114527 0.00133361 0.00157285
          0.00189046 0.00234062 0.00304747 0.00436799 0.0078122 0.0270769
        </DataArray>
        <DataArray type="Float32" Name="process rank" NumberOfComponents="1" format="ascii">
          0 0 0 0 0 0 0 0 0 0 0 0
          0 0 0 0 0 0 0 0 0 0 0 0
          0 0 0 0 0 0
        </DataArray>
      </CellData>
      <Points>
        <DataArray type="Float32" Name="Coordinates" NumberOfComponents="3" format="ascii">
          0 0 0 0.5 0 0 0 0.0333333 0 0.5 0.0333333 0
          0 0.0666667 0 0.5 0.0666667 0 0 0.1 0 0.5 0.1 0
          0 0.133333 0 0.5 0.133333 0 0 0.166667 0 0.5 0.166667 0
          0 0.2 0 0.5 0.2 0 0 0.233333 0 0.5 0.233333 0
          0 0.266667 0 0.5 0.266667 0 0 0.3 0 0.5 0.3 0
          0 0.333333 0 0.5 0.333333 0 0 0.366667 0 0.5 0.366667 0
          0 0.4 0 0.5 0.4 0 0 0.433333 0 0.5 0.433333 0
          0 0.466667 0 0.5 0.466667 0 0 0.5 0 0.5 0.5 0
          0 0.533333 0 0.5 0.533333 0 0 0.566667 0 0.5 0.566667 0
          0 0.6 0 0.5 0.6 0 0 0.633333 0 0.5 0.633333 0
          0 0.666667 0 0.5 0.666667 0 0 0.7 0 0.5 0.7 0
          0 0.733333 0 0.5 0.733333 0 0 0.766667 0 0.5 0.766667 0
          0 0.8 0 0.5 0.8 0 0 0.833333 0 0.5 0.833333 0
          0 0.866667 0 0.5 0.866667 0 0 0.9 0 0.5 0.9 0
          0 0.933333 0 0.5 0.933333 0 0 0.966667 0 0.5 0.966667 0
          0 1 0 0.5 1 0
        </DataArray>
      </Points>
      <Cells>
        <DataArray type="Int32" Name="connectivity" NumberOfComponents="1" format="ascii">
          0 1 3 2 2 3 5 4 4 5 7 6
          6 7 9 8 8 9 11 10 10 11 13 12
          12 13 15 14 14 15 17 16 16 17 19 18
          18 19 21 20 20 21 23 22 22 23 25 24
          24 25 27 26 26 27 29 28 28 29 31 30
          30 31 33 32 32 33 35 34 34 35 37 36
          36 37 39 38 38 39 41 40 40 41 43 42
          42 43 45 44 44 45 47 46 46 47 49 48
          48 49 51 50 50 51 53 52 52 53 55 54
          54 55 57 56 56 57 59 58 58 59 61 60
        </DataArray>
        <DataArray type="Int32" Name="offsets" NumberOfComponents="1" format="ascii">
          4 8 12 16 20 24 28 32 36 40 44 48
          52 56 60 64 68 72 76 80 84 88 92 96
          100 104 108 112 116 120
        </DataArray>
        <DataArray type="UInt8" Name="types" NumberOfComponents="1" format="ascii">
          9 9 9 9 9 9 9 9 9 9 9 9
          9 9 9 9 9 9 9 9 9 9 9 9
          9 9 9 9 9 9
        </DataArray>
      </Cells>
    </Piece>
  </UnstructuredGrid>
</VTKFile>
