<?xml version="1.0"?>
<VTKFile type="UnstructuredGrid" version="0.1" byte_order="LittleEndian">
  <UnstructuredGrid>
    <Piece NumberOfCells="30" NumberOfPoints="62">
      <CellData Scalars="Sg">
        <DataArray type="Float32" Name="Sg" NumberOfComponents="1" format="ascii">
          0 0 0 0 0 0 0 0 0 0 0 0
          0 0 0 0 0 0 0 0 0 0 0 0
          0 0 0 0 0 0
        </DataArray>
        <DataArray type="Float32" Name="Sl" NumberOfComponents="1" format="ascii">
          1 1 1 1 1 1 1 1 1 1 1 1
          1 1 1 1 1 1 1 1 1 1 1 1
          1 1 1 1 1 1
        </DataArray>
        <DataArray type="Float32" Name="pg" NumberOfComponents="1" format="ascii">
          24687.8 24360.9 24034 23707 23380.1 23053.1 22726.2 22399.3 22072.3 21745.4 21418.4 21091.5
          20764.6 20437.6 20110.7 19783.7 19456.8 19129.8 18802.9 18476 18149 17822.1 17495.1 17168.2
          16841.3 16514.3 16187.4 15860.4 15533.5 15206.6
        </DataArray>
        <DataArray type="Float32" Name="pl" NumberOfComponents="1" format="ascii">
          110628 110301 109974 109647 109320 108993 108666 108339 108012 107685 107358 107031
          106704 106377 106050 105723 105396 105070 104743 104416 104089 103762 103435 103108
          102781 102454 102127 101800 101473 101146
        </DataArray>
        <DataArray type="Float32" Name="pc" NumberOfComponents="1" format="ascii">
          -85939.7 -85939.7 -85939.7 -85939.7 -85939.7 -85939.7 -85939.7 -85939.7 -85939.7 -85939.7 -85939.7 -85939.7
          -85939.7 -85939.7 -85939.7 -85939.7 -85939.7 -85939.7 -85939.7 -85939.7 -85939.7 -85939.7 -85939.7 -85939.7
          -85939.7 -85939.7 -85939.7 -85939.7 -85939.7 -85939.7
        </DataArray>
        <DataArray type="Float32" Name="rhoL" NumberOfComponents="1" format="ascii">
          999.855 999.855 999.855 999.855 999.855 999.854 999.854 999.854 999.854 999.854 999.854 999.854
          999.853 999.853 999.853 999.853 999.853 999.853 999.852 999.852 999.852 999.852 999.852 999.852
          999.852 999.851 999.851 999.851 999.851 999.851
        </DataArray>
        <DataArray type="Float32" Name="rhoG" NumberOfComponents="1" format="ascii">
          0.30585 0.3018 0.29775 0.293699 0.289649 0.285598 0.281548 0.277498 0.273447 0.269397 0.265347 0.261296
          0.257246 0.253195 0.249145 0.245095 0.241044 0.236994 0.232944 0.228893 0.224843 0.220793 0.216742 0.212692
          0.208641 0.204591 0.200541 0.19649 0.19244 0.18839
        </DataArray>
        <DataArray type="Float32" Name="mobL" NumberOfComponents="1" format="ascii">
          722.171 722.17 722.17 722.17 722.17 722.17 722.169 722.169 722.169 722.169 722.169 722.169
          722.168 722.168 722.168 722.168 722.168 722.167 722.167 722.167 722.167 722.167 722.166 722.166
          722.166 722.166 722.166 722.166 722.165 722.165
        </DataArray>
        <DataArray type="Float32" Name="mobG" NumberOfComponents="1" format="ascii">
          0 0 0 0 0 0 0 0 0 0 0 0
          0 0 0 0 0 0 0 0 0 0 0 0
          0 0 0 0 0 0
        </DataArray>
        <DataArray type="Float32" Name="porosity" NumberOfComponents="1" format="ascii">
          0.299726 0.299726 0.299725 0.299724 0.299724 0.299723 0.299721 0.29972 0.299719 0.299717 0.299715 0.299712
          0.299709 0.299705 0.2997 0.299693 0.299685 0.299675 0.299662 0.299645 0.299622 0.299589 0.299544 0.299475
          0.299093 0.298894 0.298472 0.297262 0.291238 0.226984
        </DataArray>
        <DataArray type="Float32" Name="temperature" NumberOfComponents="1" format="ascii">
          281.15 281.15 281.15 281.15 281.15 281.15 281.15 281.15 281.15 281.15 281.15 281.15
          281.15 281.15 281.15 281.15 281.15 281.15 281.15 281.15 281.15 281.15 281.15 281.15
          281.15 281.15 281.15 281.15 281.15 281.15
        </DataArray>
        <DataArray type="Float32" Name="phase presence" NumberOfComponents="1" format="ascii">
          1 1 1 1 1 1 1 1 1 1 1 1
          1 1 1 1 1 1 1 1 1 1 1 1
          1 1 1 1 1 1
        </DataArray>
        <DataArray type="Float32" Name="precipitateVolumeFraction_au" NumberOfComponents="1" format="ascii">
          5.52619e-10 5.52768e-10 5.5245e-10 5.52797e-10 5.52737e-10 5.52765e-10 5.52773e-10 5.52755e-10 5.52757e-10 5.52727e-10 5.52798e-10 5.52796e-10
          5.52731e-10 5.52736e-10 5.52758e-10 5.52828e-10 5.52758e-10 5.52762e-10 5.52772e-10 5.52737e-10 5.52774e-10 5.52743e-10 5.52931e-10 9.75168e-10
          0.00026994 0.000269924 0.0002699 0.000269854 5.52466e-10 5.51197e-10
        </DataArray>
        <DataArray type="Float32" Name="precipitateVolumeFraction_nanoAu" NumberOfComponents="1" format="ascii">
          1.25449e-13 1.25471e-13 1.25381e-13 1.25445e-13 1.25411e-13 1.25396e-13 1.25375e-13 1.25344e-13 1.25315e-13 1.25277e-13 1.25257e-13 1.25218e-13
          1.25159e-13 1.25112e-13 1.25063e-13 1.25019e-13 1.24937e-13 1.24862e-13 1.24779e-13 1.24673e-13 1.24567e-13 1.24442e-13 1.36261e-13 2.58517e-11
          6.04677e-08 7.66889e-08 1.01925e-07 1.44765e-07 4.68787e-13 4.50743e-13
        </DataArray>
        <DataArray type="Float32" Name="precipitateVolumeFraction_d" NumberOfComponents="1" format="ascii">
          0.00013685 0.000137128 0.000137445 0.000137807 0.000138224 0.000138707 0.000139269 0.000139928 0.000140705 0.000141629 0.000142737 0.000144077
          0.000145711 0.00014772 0.000150214 0.000153339 0.000157293 0.000162355 0.00016892 0.000177572 0.000189204 0.000205263 0.000228229 0.000262723
          0.000318298 0.000417852 0.000628976 0.0012342 0.0043812 0.0365078
        </DataArray>
        <DataArray type="Float32" Name="precipitateVolumeFraction_p" NumberOfComponents="1" format="ascii">
          0.00013685 0.000137128 0.000137445 0.000137807 0.000138224 0.000138707 0.000139269 0.000139928 0.000140705 0.000141629 0.000142737 0.000144077
          0.000145711 0.00014772 0.000150214 0.000153339 0.000157293 0.000162355 0.00016892 0.000177572 0.000189204 0.000205263 0.000228229 0.000262723
          0.000318298 0.000417852 0.000628976 0.0012342 0.0043812 0.0365078
        </DataArray>
        <DataArray type="Float32" Name="K" NumberOfComponents="1" format="ascii">
          9.96486e-11 9.96479e-11 9.96471e-11 9.96462e-11 9.96451e-11 9.96438e-11 9.96424e-11 9.96407e-11 9.96387e-11 9.96364e-11 9.96335e-11 9.96301e-11
          9.96259e-11 9.96207e-11 9.96143e-11 9.96063e-11 9.95962e-11 9.95832e-11 9.95664e-11 9.95442e-11 9.95144e-11 9.94733e-11 9.94145e-11 9.93263e-11
          9.884e-11 9.85867e-11 9.80513e-11 9.65298e-11 8.92428e-11 3.55176e-11
        </DataArray>
        <DataArray type="Float32" Name="X^w_H2O" NumberOfComponents="1" format="ascii">
          0.999853 0.999853 0.999853 0.999853 0.999853 0.999853 0.999853 0.999853 0.999853 0.999853 0.999853 0.999853
          0.999853 0.999853 0.999853 0.999853 0.999853 0.999853 0.999853 0.999853 0.999853 0.999853 0.999853 0.999853
          0.999853 0.999852 0.99985 0.999846 0.99984 0.999842
        </DataArray>
        <DataArray type="Float32" Name="X^w_Air" NumberOfComponents="1" format="ascii">
          0 0 0 0 0 0 0 0 0 0 0 0
          0 0 0 0 0 0 0 0 0 0 0 0
          0 0 0 0 0 0
        </DataArray>
        <DataArray type="Float32" Name="X^w_AuComplex" NumberOfComponents="1" format="ascii">
          1.44937e-16 1.44945e-16 1.44822e-16 1.44876e-16 1.44815e-16 1.44773e-16 1.44721e-16 1.44657e-16 1.44592e-16 1.44512e-16 1.44452e-16 1.44364e-16
          1.44251e-16 1.44146e-16 1.44035e-16 1.43923e-16 1.43759e-16 1.43597e-16 1.43416e-16 1.43196e-16 1.42963e-16 1.42686e-16 1.55875e-16 2.95531e-14
          6.90468e-11 1.0737e-10 1.83625e-10 3.60115e-10 1.79429e-15 1.6675e-15
        </DataArray>
        <DataArray type="Float32" Name="X^w_nanoAu" NumberOfComponents="1" format="ascii">
          5.46108e-19 5.46175e-19 5.45763e-19 5.46011e-19 5.45837e-19 5.45739e-19 5.4561e-19 5.45439e-19 5.45274e-19 5.45061e-19 5.44929e-19 5.44702e-19
          5.44392e-19 5.44124e-19 5.43844e-19 5.43576e-19 5.43133e-19 5.42715e-19 5.42248e-19 5.41709e-19 5.44789e-19 8.84548e-19 3.24252e-17 2.94976e-15
          2.62994e-13 3.3351e-13 4.43058e-13 6.18434e-13 2.01089e-18 1.84727e-18
        </DataArray>
        <DataArray type="Float32" Name="X^w_cyanide" NumberOfComponents="1" format="ascii">
          5.14607e-06 5.14538e-06 5.14463e-06 5.1438e-06 5.14289e-06 5.14189e-06 5.14079e-06 5.13959e-06 5.13827e-06 5.13682e-06 5.13524e-06 5.1335e-06
          5.13159e-06 5.12949e-06 5.12717e-06 5.1246e-06 5.12175e-06 5.11855e-06 5.11495e-06 5.11085e-06 5.10612e-06 5.10056e-06 5.09389e-06 5.08562e-06
          5.07537e-06 6.43645e-06 8.55307e-06 1.21695e-05 1.92334e-05 1.85599e-05
        </DataArray>
        <DataArray type="Float32" Name="X^w_citrate" NumberOfComponents="1" format="ascii">
          0.000141727 0.000141721 0.000141714 0.000141707 0.0001417 0.000141691 0.000141682 0.000141673 0.000141662 0.000141651 0.000141638 0.000141624
          0.00014161 0.000141593 0.000141576 0.000141556 0.000141534 0.00014151 0.000141483 0.000141452 0.000141417 0.000141376 0.000141326 0.000141265
          0.000141186 0.000141077 0.00014091 0.0001406 0.000139778 0.000134883
        </DataArray>
        <DataArray type="Float32" Name="X^w_substrate" NumberOfComponents="1" format="ascii">
          4.90198e-08 5.32322e-08 5.77976e-08 6.27462e-08 6.81112e-08 7.39291e-08 8.02404e-08 8.70904e-08 9.45299e-08 1.02616e-07 1.11416e-07 1.21004e-07
          1.31471e-07 1.42923e-07 1.55489e-07 1.69329e-07 1.84645e-07 2.01697e-07 2.20831e-07 2.42521e-07 2.67436e-07 2.96559e-07 3.31412e-07 3.7449e-07
          4.30228e-07 5.07405e-07 6.26308e-07 8.46225e-07 1.42673e-06 4.87839e-06
        </DataArray>
        <DataArray type="Float32" Name="m^w_H2O" NumberOfComponents="1" format="ascii">
          55492.6 55492.5 55492.5 55492.5 55492.5 55492.5 55492.5 55492.5 55492.5 55492.5 55492.5 55492.5
          55492.5 55492.4 55492.4 55492.4 55492.4 55492.4 55492.4 55492.4 55492.4 55492.4 55492.4 55492.4
          55492.4 55492.3 55492.2 55491.9 55491.6 55491.7
        </DataArray>
        <DataArray type="Float32" Name="m^w_Air" NumberOfComponents="1" format="ascii">
          0 0 0 0 0 0 0 0 0 0 0 0
          0 0 0 0 0 0 0 0 0 0 0 0
          0 0 0 0 0 0
        </DataArray>
        <DataArray type="Float32" Name="m^w_AuComplex" NumberOfComponents="1" format="ascii">
          7.35725e-13 7.35766e-13 7.35144e-13 7.35414e-13 7.35106e-13 7.34894e-13 7.34631e-13 7.34304e-13 7.33974e-13 7.3357e-13 7.33263e-13 7.32818e-13
          7.32243e-13 7.31711e-13 7.31145e-13 7.30576e-13 7.29745e-13 7.28923e-13 7.28001e-13 7.26889e-13 7.25704e-13 7.243e-13 7.91248e-13 1.50016e-10
          3.50493e-07 5.45025e-07 9.3211e-07 1.828e-06 9.10809e-12 8.46447e-12
        </DataArray>
        <DataArray type="Float32" Name="m^w_nanoAu" NumberOfComponents="1" format="ascii">
          2.77214e-15 2.77248e-15 2.77039e-15 2.77165e-15 2.77077e-15 2.77027e-15 2.76961e-15 2.76874e-15 2.7679e-15 2.76683e-15 2.76615e-15 2.765e-15
          2.76342e-15 2.76207e-15 2.76065e-15 2.75928e-15 2.75703e-15 2.75491e-15 2.75254e-15 2.7498e-15 2.76544e-15 4.49011e-15 1.64596e-13 1.49735e-11
          1.335e-09 1.69295e-09 2.24903e-09 3.13927e-09 1.02076e-14 9.37705e-15
        </DataArray>
        <DataArray type="Float32" Name="m^w_cyanide" NumberOfComponents="1" format="ascii">
          0.197745 0.197719 0.19769 0.197658 0.197623 0.197584 0.197542 0.197496 0.197445 0.197389 0.197329 0.197262
          0.197188 0.197108 0.197018 0.19692 0.19681 0.196687 0.196549 0.196391 0.196209 0.195996 0.195739 0.195421
          0.195027 0.247329 0.328662 0.467628 0.739066 0.713186
        </DataArray>
        <DataArray type="Float32" Name="m^w_citrate" NumberOfComponents="1" format="ascii">
          0.749375 0.749343 0.749309 0.749272 0.749231 0.749188 0.74914 0.749089 0.749033 0.748972 0.748906 0.748834
          0.748755 0.748669 0.748575 0.748471 0.748356 0.748228 0.748085 0.747922 0.747735 0.747516 0.747255 0.746932
          0.746514 0.74594 0.745054 0.743413 0.739069 0.713187
        </DataArray>
        <DataArray type="Float32" Name="m^w_substrate" NumberOfComponents="1" format="ascii">
          0.000272051 0.000295429 0.000320766 0.00034823 0.000378005 0.000410292 0.000445319 0.000483335 0.000524623 0.000569502 0.000618337 0.000671551
          0.00072964 0.000793196 0.000862936 0.000939745 0.00102474 0.00111938 0.00122557 0.00134594 0.00148422 0.00164585 0.00183927 0.00207834
          0.00238768 0.00281599 0.00347588 0.00469637 0.00791805 0.027074
        </DataArray>
        <DataArray type="Float32" Name="process rank" NumberOfComponents="1" format="ascii">
          0 0 0 0 0 0 0 0 0 0 0 0
          0 0 0 0 0 0 0 0 0 0 0 0
          0 0 0 0 0 0
        </DataArray>
      </CellData>
      <Points>
        <DataArray type="Float32" Name="Coordinates" NumberOfComponents="3" format="ascii">
          0 0 0 0.5 0 0 0 0.0333333 0 0.5 0.0333333 0
          0 0.0666667 0 0.5 0.0666667 0 0 0.1 0 0.5 0.1 0
          0 0.133333 0 0.5 0.133333 0 0 0.166667 0 0.5 0.166667 0
          0 0.2 0 0.5 0.2 0 0 0.233333 0 0.5 0.233333 0
          0 0.266667 0 0.5 0.266667 0 0 0.3 0 0.5 0.3 0
          0 0.333333 0 0.5 0.333333 0 0 0.366667 0 0.5 0.366667 0
          0 0.4 0 0.5 0.4 0 0 0.433333 0 0.5 0.433333 0
          0 0.466667 0 0.5 0.466667 0 0 0.5 0 0.5 0.5 0
          0 0.533333 0 0.5 0.533333 0 0 0.566667 0 0.5 0.566667 0
          0 0.6 0 0.5 0.6 0 0 0.633333 0 0.5 0.633333 0
          0 0.666667 0 0.5 0.666667 0 0 0.7 0 0.5 0.7 0
          0 0.733333 0 0.5 0.733333 0 0 0.766667 0 0.5 0.766667 0
          0 0.8 0 0.5 0.8 0 0 0.833333 0 0.5 0.833333 0
          0 0.866667 0 0.5 0.866667 0 0 0.9 0 0.5 0.9 0
          0 0.933333 0 0.5 0.933333 0 0 0.966667 0 0.5 0.966667 0
          0 1 0 0.5 1 0
        </DataArray>
      </Points>
      <Cells>
        <DataArray type="Int32" Name="connectivity" NumberOfComponents="1" format="ascii">
          0 1 3 2 2 3 5 4 4 5 7 6
          6 7 9 8 8 9 11 10 10 11 13 12
          12 13 15 14 14 15 17 16 16 17 19 18
          18 19 21 20 20 21 23 22 22 23 25 24
          24 25 27 26 26 27 29 28 28 29 31 30
          30 31 33 32 32 33 35 34 34 35 37 36
          36 37 39 38 38 39 41 40 40 41 43 42
          42 43 45 44 44 45 47 46 46 47 49 48
          48 49 51 50 50 51 53 52 52 53 55 54
          54 55 57 56 56 57 59 58 58 59 61 60
        </DataArray>
        <DataArray type="Int32" Name="offsets" NumberOfComponents="1" format="ascii">
          4 8 12 16 20 24 28 32 36 40 44 48
          52 56 60 64 68 72 76 80 84 88 92 96
          100 104 108 112 116 120
        </DataArray>
        <DataArray type="UInt8" Name="types" NumberOfComponents="1" format="ascii">
          9 9 9 9 9 9 9 9 9 9 9 9
          9 9 9 9 9 9 9 9 9 9 9 9
          9 9 9 9 9 9
        </DataArray>
      </Cells>
    </Piece>
  </UnstructuredGrid>
</VTKFile>
