<?xml version="1.0"?>
<VTKFile type="UnstructuredGrid" version="0.1" byte_order="LittleEndian">
  <UnstructuredGrid>
    <Piece NumberOfCells="30" NumberOfPoints="62">
      <CellData Scalars="Sg">
        <DataArray type="Float32" Name="Sg" NumberOfComponents="1" format="ascii">
          0 0 0 0 0 0 0 0 0 0 0 0
          0 0 0 0 0 0 0 0 0 0 0 0
          0 0 0 0 0 0
        </DataArray>
        <DataArray type="Float32" Name="Sl" NumberOfComponents="1" format="ascii">
          1 1 1 1 1 1 1 1 1 1 1 1
          1 1 1 1 1 1 1 1 1 1 1 1
          1 1 1 1 1 1
        </DataArray>
        <DataArray type="Float32" Name="pg" NumberOfComponents="1" format="ascii">
          24687.8 24360.9 24034 23707 23380.1 23053.1 22726.2 22399.3 22072.3 21745.4 21418.4 21091.5
          20764.6 20437.6 20110.7 19783.7 19456.8 19129.8 18802.9 18476 18149 17822.1 17495.1 17168.2
          16841.3 16514.3 16187.4 15860.4 15533.5 15206.6
        </DataArray>
        <DataArray type="Float32" Name="pl" NumberOfComponents="1" format="ascii">
          110628 110301 109974 109647 109320 108993 108666 108339 108012 107685 107358 107031
          106704 106377 106050 105723 105396 105070 104743 104416 104089 103762 103435 103108
          102781 102454 102127 101800 101473 101146
        </DataArray>
        <DataArray type="Float32" Name="pc" NumberOfComponents="1" format="ascii">
          -85939.7 -85939.7 -85939.7 -85939.7 -85939.7 -85939.7 -85939.7 -85939.7 -85939.7 -85939.7 -85939.7 -85939.7
          -85939.7 -85939.7 -85939.7 -85939.7 -85939.7 -85939.7 -85939.7 -85939.7 -85939.7 -85939.7 -85939.7 -85939.7
          -85939.7 -85939.7 -85939.7 -85939.7 -85939.7 -85939.7
        </DataArray>
        <DataArray type="Float32" Name="rhoL" NumberOfComponents="1" format="ascii">
          999.855 999.855 999.855 999.855 999.855 999.854 999.854 999.854 999.854 999.854 999.854 999.854
          999.853 999.853 999.853 999.853 999.853 999.853 999.852 999.852 999.852 999.852 999.852 999.852
          999.852 999.851 999.851 999.851 999.851 999.851
        </DataArray>
        <DataArray type="Float32" Name="rhoG" NumberOfComponents="1" format="ascii">
          0.30585 0.3018 0.29775 0.293699 0.289649 0.285598 0.281548 0.277498 0.273447 0.269397 0.265347 0.261296
          0.257246 0.253195 0.249145 0.245095 0.241044 0.236994 0.232944 0.228893 0.224843 0.220792 0.216742 0.212692
          0.208641 0.204591 0.200541 0.19649 0.19244 0.18839
        </DataArray>
        <DataArray type="Float32" Name="mobL" NumberOfComponents="1" format="ascii">
          722.171 722.17 722.17 722.17 722.17 722.17 722.169 722.169 722.169 722.169 722.169 722.169
          722.168 722.168 722.168 722.168 722.168 722.167 722.167 722.167 722.167 722.167 722.166 722.166
          722.166 722.166 722.166 722.166 722.165 722.165
        </DataArray>
        <DataArray type="Float32" Name="mobG" NumberOfComponents="1" format="ascii">
          0 0 0 0 0 0 0 0 0 0 0 0
          0 0 0 0 0 0 0 0 0 0 0 0
          0 0 0 0 0 0
        </DataArray>
        <DataArray type="Float32" Name="porosity" NumberOfComponents="1" format="ascii">
          0.29991 0.299909 0.299908 0.299907 0.299906 0.299905 0.299903 0.299902 0.2999 0.299898 0.299896 0.299894
          0.299891 0.299887 0.299884 0.299879 0.299873 0.299866 0.299858 0.299847 0.299832 0.299811 0.299782 0.299737
          0.299392 0.299251 0.298926 0.297849 0.2914 0.226984
        </DataArray>
        <DataArray type="Float32" Name="temperature" NumberOfComponents="1" format="ascii">
          281.15 281.15 281.15 281.15 281.15 281.15 281.15 281.15 281.15 281.15 281.15 281.15
          281.15 281.15 281.15 281.15 281.15 281.15 281.15 281.15 281.15 281.15 281.15 281.15
          281.15 281.15 281.15 281.15 281.15 281.15
        </DataArray>
        <DataArray type="Float32" Name="phase presence" NumberOfComponents="1" format="ascii">
          1 1 1 1 1 1 1 1 1 1 1 1
          1 1 1 1 1 1 1 1 1 1 1 1
          1 1 1 1 1 1
        </DataArray>
        <DataArray type="Float32" Name="precipitateVolumeFraction_au" NumberOfComponents="1" format="ascii">
          5.5262e-10 5.52768e-10 5.52451e-10 5.52797e-10 5.52738e-10 5.52765e-10 5.52773e-10 5.52755e-10 5.52757e-10 5.52728e-10 5.52799e-10 5.52797e-10
          5.52731e-10 5.52736e-10 5.52758e-10 5.52828e-10 5.52759e-10 5.52762e-10 5.52773e-10 5.52738e-10 5.52774e-10 5.52744e-10 5.53086e-10 1.30683e-09
          0.000269941 0.000269925 0.000269901 0.000269852 5.52466e-10 5.51189e-10
        </DataArray>
        <DataArray type="Float32" Name="precipitateVolumeFraction_nanoAu" NumberOfComponents="1" format="ascii">
          1.25252e-13 1.25252e-13 1.25146e-13 1.25189e-13 1.25139e-13 1.25106e-13 1.25068e-13 1.25022e-13 1.24979e-13 1.24926e-13 1.24894e-13 1.24843e-13
          1.24775e-13 1.2472e-13 1.24665e-13 1.24617e-13 1.24533e-13 1.24459e-13 1.24381e-13 1.24284e-13 1.24192e-13 1.24087e-13 1.35942e-13 2.5845e-11
          6.03647e-08 7.65743e-08 1.01801e-07 1.44647e-07 4.68661e-13 4.50717e-13
        </DataArray>
        <DataArray type="Float32" Name="precipitateVolumeFraction_d" NumberOfComponents="1" format="ascii">
          4.48776e-05 4.5342e-05 4.5843e-05 4.6385e-05 4.69736e-05 4.76155e-05 4.8319e-05 4.90942e-05 4.99539e-05 5.09143e-05 5.19961e-05 5.32259e-05
          5.46387e-05 5.62805e-05 5.82129e-05 6.05201e-05 6.33181e-05 6.67719e-05 7.11218e-05 7.67308e-05 8.41703e-05 9.43905e-05 0.00010908 0.000131515
          0.000168823 0.00023926 0.000402058 0.000940336 0.00430016 0.0365079
        </DataArray>
        <DataArray type="Float32" Name="precipitateVolumeFraction_p" NumberOfComponents="1" format="ascii">
          4.48776e-05 4.5342e-05 4.5843e-05 4.6385e-05 4.69736e-05 4.76155e-05 4.8319e-05 4.90942e-05 4.99539e-05 5.09143e-05 5.19961e-05 5.32259e-05
          5.46387e-05 5.62805e-05 5.82129e-05 6.05201e-05 6.33181e-05 6.67719e-05 7.11218e-05 7.67308e-05 8.41703e-05 9.43905e-05 0.00010908 0.000131515
          0.000168823 0.00023926 0.000402058 0.000940336 0.00430016 0.0365079
        </DataArray>
        <DataArray type="Float32" Name="K" NumberOfComponents="1" format="ascii">
          9.98847e-11 9.98835e-11 9.98822e-11 9.98808e-11 9.98793e-11 9.98776e-11 9.98758e-11 9.98738e-11 9.98716e-11 9.98691e-11 9.98664e-11 9.98632e-11
          9.98596e-11 9.98554e-11 9.98504e-11 9.98445e-11 9.98373e-11 9.98284e-11 9.98173e-11 9.98029e-11 9.97838e-11 9.97575e-11 9.97198e-11 9.96623e-11
          9.92212e-11 9.90414e-11 9.86268e-11 9.72661e-11 8.94328e-11 3.55175e-11
        </DataArray>
        <DataArray type="Float32" Name="X^w_H2O" NumberOfComponents="1" format="ascii">
          0.999853 0.999853 0.999853 0.999853 0.999853 0.999853 0.999853 0.999853 0.999853 0.999853 0.999853 0.999853
          0.999853 0.999853 0.999853 0.999853 0.999853 0.999853 0.999853 0.999853 0.999853 0.999853 0.999853 0.999853
          0.999853 0.999852 0.99985 0.999846 0.99984 0.999842
        </DataArray>
        <DataArray type="Float32" Name="X^w_Air" NumberOfComponents="1" format="ascii">
          0 0 0 0 0 0 0 0 0 0 0 0
          0 0 0 0 0 0 0 0 0 0 0 0
          0 0 0 0 0 0
        </DataArray>
        <DataArray type="Float32" Name="X^w_AuComplex" NumberOfComponents="1" format="ascii">
          1.44447e-16 1.44416e-16 1.4426e-16 1.44275e-16 1.44181e-16 1.44106e-16 1.44023e-16 1.4393e-16 1.43838e-16 1.43734e-16 1.43651e-16 1.43544e-16
          1.43415e-16 1.43298e-16 1.43178e-16 1.43062e-16 1.429e-16 1.42746e-16 1.4258e-16 1.42384e-16 1.42185e-16 1.41955e-16 1.55189e-16 2.94925e-14
          6.88326e-11 1.07074e-10 1.83211e-10 3.59567e-10 1.79348e-15 1.6674e-15
        </DataArray>
        <DataArray type="Float32" Name="X^w_nanoAu" NumberOfComponents="1" format="ascii">
          5.44085e-19 5.44043e-19 5.43548e-19 5.43687e-19 5.43423e-19 5.43237e-19 5.43022e-19 5.42773e-19 5.42533e-19 5.42252e-19 5.42056e-19 5.41774e-19
          5.41417e-19 5.41113e-19 5.40806e-19 5.40522e-19 5.40078e-19 5.39675e-19 5.39241e-19 5.38758e-19 5.41907e-19 8.80581e-19 3.23091e-17 2.93919e-15
          2.62033e-13 3.3242e-13 4.41858e-13 6.1728e-13 2.00996e-18 1.84717e-18
        </DataArray>
        <DataArray type="Float32" Name="X^w_cyanide" NumberOfComponents="1" format="ascii">
          5.13552e-06 5.13417e-06 5.13276e-06 5.1313e-06 5.12979e-06 5.12822e-06 5.12658e-06 5.12488e-06 5.1231e-06 5.12124e-06 5.1193e-06 5.11725e-06
          5.1151e-06 5.11283e-06 5.11041e-06 5.10784e-06 5.10509e-06 5.10211e-06 5.09886e-06 5.09527e-06 5.09125e-06 5.08667e-06 5.08128e-06 5.07475e-06
          5.06689e-06 6.42713e-06 8.54312e-06 1.21602e-05 1.92296e-05 1.85599e-05
        </DataArray>
        <DataArray type="Float32" Name="X^w_citrate" NumberOfComponents="1" format="ascii">
          0.000141424 0.000141414 0.000141403 0.000141392 0.000141381 0.000141369 0.000141356 0.000141343 0.00014133 0.000141316 0.000141301 0.000141286
          0.000141269 0.000141252 0.000141234 0.000141215 0.000141195 0.000141172 0.000141148 0.000141122 0.000141092 0.000141058 0.000141018 0.00014097
          0.000140909 0.000140826 0.000140697 0.000140452 0.000139751 0.000134883
        </DataArray>
        <DataArray type="Float32" Name="X^w_substrate" NumberOfComponents="1" format="ascii">
          2.62049e-07 2.69387e-07 2.76976e-07 2.84833e-07 2.92974e-07 3.01419e-07 3.10188e-07 3.19308e-07 3.28807e-07 3.38717e-07 3.49078e-07 3.59936e-07
          3.71348e-07 3.83382e-07 3.96123e-07 4.09679e-07 4.24189e-07 4.39836e-07 4.56867e-07 4.7562e-07 4.96583e-07 5.20477e-07 5.48427e-07 5.82298e-07
          6.25457e-07 6.84701e-07 7.76247e-07 9.50035e-07 1.44587e-06 4.87837e-06
        </DataArray>
        <DataArray type="Float32" Name="m^w_H2O" NumberOfComponents="1" format="ascii">
          55492.6 55492.6 55492.5 55492.5 55492.5 55492.5 55492.5 55492.5 55492.5 55492.5 55492.5 55492.5
          55492.5 55492.4 55492.4 55492.4 55492.4 55492.4 55492.4 55492.4 55492.4 55492.4 55492.4 55492.4
          55492.4 55492.3 55492.2 55491.9 55491.6 55491.7
        </DataArray>
        <DataArray type="Float32" Name="m^w_Air" NumberOfComponents="1" format="ascii">
          0 0 0 0 0 0 0 0 0 0 0 0
          0 0 0 0 0 0 0 0 0 0 0 0
          0 0 0 0 0 0
        </DataArray>
        <DataArray type="Float32" Name="m^w_AuComplex" NumberOfComponents="1" format="ascii">
          7.33241e-13 7.33081e-13 7.3229e-13 7.32365e-13 7.31887e-13 7.31509e-13 7.31088e-13 7.30614e-13 7.30147e-13 7.29617e-13 7.29197e-13 7.28654e-13
          7.27998e-13 7.27404e-13 7.26795e-13 7.26207e-13 7.25387e-13 7.24604e-13 7.23758e-13 7.22765e-13 7.21752e-13 7.20586e-13 7.87765e-13 1.49708e-10
          3.49405e-07 5.43527e-07 9.30009e-07 1.82522e-06 9.10399e-12 8.464e-12
        </DataArray>
        <DataArray type="Float32" Name="m^w_nanoAu" NumberOfComponents="1" format="ascii">
          2.76188e-15 2.76166e-15 2.75915e-15 2.75985e-15 2.75851e-15 2.75757e-15 2.75648e-15 2.75521e-15 2.75399e-15 2.75256e-15 2.75157e-15 2.75014e-15
          2.74833e-15 2.74678e-15 2.74522e-15 2.74378e-15 2.74153e-15 2.73948e-15 2.73728e-15 2.73482e-15 2.75081e-15 4.46997e-15 1.64006e-13 1.49198e-11
          1.33012e-09 1.68742e-09 2.24294e-09 3.13341e-09 1.02029e-14 9.37651e-15
        </DataArray>
        <DataArray type="Float32" Name="m^w_cyanide" NumberOfComponents="1" format="ascii">
          0.19734 0.197288 0.197234 0.197177 0.197119 0.197059 0.196996 0.19693 0.196862 0.196791 0.196716 0.196637
          0.196555 0.196467 0.196374 0.196276 0.19617 0.196055 0.19593 0.195792 0.195638 0.195462 0.195255 0.195004
          0.194702 0.246971 0.32828 0.467271 0.738923 0.713186
        </DataArray>
        <DataArray type="Float32" Name="m^w_citrate" NumberOfComponents="1" format="ascii">
          0.747778 0.747723 0.747666 0.747607 0.747545 0.747482 0.747416 0.747348 0.747276 0.747202 0.747124 0.747042
          0.746957 0.746866 0.746771 0.746669 0.74656 0.746443 0.746315 0.746174 0.746017 0.745837 0.745628 0.745374
          0.74505 0.744611 0.74393 0.742634 0.738925 0.713187
        </DataArray>
        <DataArray type="Float32" Name="m^w_substrate" NumberOfComponents="1" format="ascii">
          0.00145432 0.00149505 0.00153717 0.00158077 0.00162595 0.00167282 0.00172149 0.0017721 0.00182481 0.00187981 0.00193732 0.00199758
          0.00206091 0.0021277 0.0021984 0.00227364 0.00235417 0.00244101 0.00253552 0.0026396 0.00275594 0.00288854 0.00304366 0.00323164
          0.00347116 0.00379995 0.00430801 0.0052725 0.00802426 0.0270739
        </DataArray>
        <DataArray type="Float32" Name="process rank" NumberOfComponents="1" format="ascii">
          0 0 0 0 0 0 0 0 0 0 0 0
          0 0 0 0 0 0 0 0 0 0 0 0
          0 0 0 0 0 0
        </DataArray>
      </CellData>
      <Points>
        <DataArray type="Float32" Name="Coordinates" NumberOfComponents="3" format="ascii">
          0 0 0 0.5 0 0 0 0.0333333 0 0.5 0.0333333 0
          0 0.0666667 0 0.5 0.0666667 0 0 0.1 0 0.5 0.1 0
          0 0.133333 0 0.5 0.133333 0 0 0.166667 0 0.5 0.166667 0
          0 0.2 0 0.5 0.2 0 0 0.233333 0 0.5 0.233333 0
          0 0.266667 0 0.5 0.266667 0 0 0.3 0 0.5 0.3 0
          0 0.333333 0 0.5 0.333333 0 0 0.366667 0 0.5 0.366667 0
          0 0.4 0 0.5 0.4 0 0 0.433333 0 0.5 0.433333 0
          0 0.466667 0 0.5 0.466667 0 0 0.5 0 0.5 0.5 0
          0 0.533333 0 0.5 0.533333 0 0 0.566667 0 0.5 0.566667 0
          0 0.6 0 0.5 0.6 0 0 0.633333 0 0.5 0.633333 0
          0 0.666667 0 0.5 0.666667 0 0 0.7 0 0.5 0.7 0
          0 0.733333 0 0.5 0.733333 0 0 0.766667 0 0.5 0.766667 0
          0 0.8 0 0.5 0.8 0 0 0.833333 0 0.5 0.833333 0
          0 0.866667 0 0.5 0.866667 0 0 0.9 0 0.5 0.9 0
          0 0.933333 0 0.5 0.933333 0 0 0.966667 0 0.5 0.966667 0
          0 1 0 0.5 1 0
        </DataArray>
      </Points>
      <Cells>
        <DataArray type="Int32" Name="connectivity" NumberOfComponents="1" format="ascii">
          0 1 3 2 2 3 5 4 4 5 7 6
          6 7 9 8 8 9 11 10 10 11 13 12
          12 13 15 14 14 15 17 16 16 17 19 18
          18 19 21 20 20 21 23 22 22 23 25 24
          24 25 27 26 26 27 29 28 28 29 31 30
          30 31 33 32 32 33 35 34 34 35 37 36
          36 37 39 38 38 39 41 40 40 41 43 42
          42 43 45 44 44 45 47 46 46 47 49 48
          48 49 51 50 50 51 53 52 52 53 55 54
          54 55 57 56 56 57 59 58 58 59 61 60
        </DataArray>
        <DataArray type="Int32" Name="offsets" NumberOfComponents="1" format="ascii">
          4 8 12 16 20 24 28 32 36 40 44 48
          52 56 60 64 68 72 76 80 84 88 92 96
          100 104 108 112 116 120
        </DataArray>
        <DataArray type="UInt8" Name="types" NumberOfComponents="1" format="ascii">
          9 9 9 9 9 9 9 9 9 9 9 9
          9 9 9 9 9 9 9 9 9 9 9 9
          9 9 9 9 9 9
        </DataArray>
      </Cells>
    </Piece>
  </UnstructuredGrid>
</VTKFile>
