<?xml version="1.0"?>
<VTKFile type="UnstructuredGrid" version="0.1" byte_order="LittleEndian">
  <UnstructuredGrid>
    <Piece NumberOfCells="30" NumberOfPoints="62">
      <CellData Scalars="Sg">
        <DataArray type="Float32" Name="Sg" NumberOfComponents="1" format="ascii">
          0 0 0 0 0 0 0 0 0 0 0 0
          0 0 0 0 0 0 0 0 0 0 0 0
          0 0 0 0 0 0
        </DataArray>
        <DataArray type="Float32" Name="Sl" NumberOfComponents="1" format="ascii">
          1 1 1 1 1 1 1 1 1 1 1 1
          1 1 1 1 1 1 1 1 1 1 1 1
          1 1 1 1 1 1
        </DataArray>
        <DataArray type="Float32" Name="pg" NumberOfComponents="1" format="ascii">
          24687.8 24360.9 24034 23707 23380.1 23053.1 22726.2 22399.3 22072.3 21745.4 21418.4 21091.5
          20764.6 20437.6 20110.7 19783.7 19456.8 19129.8 18802.9 18476 18149 17822.1 17495.1 17168.2
          16841.3 16514.3 16187.4 15860.4 15533.5 15206.6
        </DataArray>
        <DataArray type="Float32" Name="pl" NumberOfComponents="1" format="ascii">
          110628 110301 109974 109647 109320 108993 108666 108339 108012 107685 107358 107031
          106704 106377 106050 105723 105396 105070 104743 104416 104089 103762 103435 103108
          102781 102454 102127 101800 101473 101146
        </DataArray>
        <DataArray type="Float32" Name="pc" NumberOfComponents="1" format="ascii">
          -85939.7 -85939.7 -85939.7 -85939.7 -85939.7 -85939.7 -85939.7 -85939.7 -85939.7 -85939.7 -85939.7 -85939.7
          -85939.7 -85939.7 -85939.7 -85939.7 -85939.7 -85939.7 -85939.7 -85939.7 -85939.7 -85939.7 -85939.7 -85939.7
          -85939.7 -85939.7 -85939.7 -85939.7 -85939.7 -85939.7
        </DataArray>
        <DataArray type="Float32" Name="rhoL" NumberOfComponents="1" format="ascii">
          999.855 999.855 999.855 999.855 999.855 999.854 999.854 999.854 999.854 999.854 999.854 999.854
          999.853 999.853 999.853 999.853 999.853 999.853 999.852 999.852 999.852 999.852 999.852 999.852
          999.852 999.851 999.851 999.851 999.851 999.851
        </DataArray>
        <DataArray type="Float32" Name="rhoG" NumberOfComponents="1" format="ascii">
          0.30585 0.3018 0.29775 0.293699 0.289649 0.285598 0.281548 0.277498 0.273447 0.269397 0.265347 0.261296
          0.257246 0.253195 0.249145 0.245095 0.241044 0.236994 0.232944 0.228893 0.224843 0.220792 0.216742 0.212692
          0.208641 0.204591 0.200541 0.19649 0.19244 0.18839
        </DataArray>
        <DataArray type="Float32" Name="mobL" NumberOfComponents="1" format="ascii">
          722.171 722.17 722.17 722.17 722.17 722.17 722.169 722.169 722.169 722.169 722.169 722.169
          722.168 722.168 722.168 722.168 722.168 722.167 722.167 722.167 722.167 722.167 722.166 722.166
          722.166 722.166 722.166 722.166 722.165 722.165
        </DataArray>
        <DataArray type="Float32" Name="mobG" NumberOfComponents="1" format="ascii">
          0 0 0 0 0 0 0 0 0 0 0 0
          0 0 0 0 0 0 0 0 0 0 0 0
          0 0 0 0 0 0
        </DataArray>
        <DataArray type="Float32" Name="porosity" NumberOfComponents="1" format="ascii">
          0.299817 0.299816 0.299816 0.299815 0.299814 0.299812 0.299811 0.299809 0.299808 0.299806 0.299803 0.299801
          0.299797 0.299793 0.299789 0.299783 0.299776 0.299767 0.299756 0.299741 0.299721 0.299694 0.299655 0.299596
          0.29923 0.299056 0.298673 0.297519 0.291327 0.226984
        </DataArray>
        <DataArray type="Float32" Name="temperature" NumberOfComponents="1" format="ascii">
          281.15 281.15 281.15 281.15 281.15 281.15 281.15 281.15 281.15 281.15 281.15 281.15
          281.15 281.15 281.15 281.15 281.15 281.15 281.15 281.15 281.15 281.15 281.15 281.15
          281.15 281.15 281.15 281.15 281.15 281.15
        </DataArray>
        <DataArray type="Float32" Name="phase presence" NumberOfComponents="1" format="ascii">
          1 1 1 1 1 1 1 1 1 1 1 1
          1 1 1 1 1 1 1 1 1 1 1 1
          1 1 1 1 1 1
        </DataArray>
        <DataArray type="Float32" Name="precipitateVolumeFraction_au" NumberOfComponents="1" format="ascii">
          5.52619e-10 5.52768e-10 5.5245e-10 5.52797e-10 5.52737e-10 5.52765e-10 5.52773e-10 5.52755e-10 5.52757e-10 5.52727e-10 5.52798e-10 5.52796e-10
          5.52731e-10 5.52736e-10 5.52758e-10 5.52828e-10 5.52758e-10 5.52762e-10 5.52772e-10 5.52737e-10 5.52774e-10 5.52743e-10 5.52983e-10 1.08584e-09
          0.00026994 0.000269924 0.0002699 0.000269853 5.52466e-10 5.51194e-10
        </DataArray>
        <DataArray type="Float32" Name="precipitateVolumeFraction_nanoAu" NumberOfComponents="1" format="ascii">
          1.25495e-13 1.25504e-13 1.25406e-13 1.25456e-13 1.25413e-13 1.25387e-13 1.25354e-13 1.25313e-13 1.25274e-13 1.25225e-13 1.25195e-13 1.25146e-13
          1.25078e-13 1.25022e-13 1.24965e-13 1.24913e-13 1.24824e-13 1.24744e-13 1.24656e-13 1.24547e-13 1.2444e-13 1.24317e-13 1.36141e-13 2.58474e-11
          6.04302e-08 7.66452e-08 1.01875e-07 1.44715e-07 4.6871e-13 4.50722e-13
        </DataArray>
        <DataArray type="Float32" Name="precipitateVolumeFraction_d" NumberOfComponents="1" format="ascii">
          9.14004e-05 9.17923e-05 9.22258e-05 9.27071e-05 9.32436e-05 9.38445e-05 9.45212e-05 9.52881e-05 9.61634e-05 9.717e-05 9.83377e-05 9.97047e-05
          0.000101321 0.000103253 0.000105588 0.000108445 0.000111986 0.000116439 0.000122131 0.000129552 0.000139456 0.000153077 0.000172562 0.00020197
          0.000249854 0.000337225 0.00052833 0.00110555 0.00433673 0.0365079
        </DataArray>
        <DataArray type="Float32" Name="precipitateVolumeFraction_p" NumberOfComponents="1" format="ascii">
          9.14004e-05 9.17923e-05 9.22258e-05 9.27071e-05 9.32436e-05 9.38445e-05 9.45212e-05 9.52881e-05 9.61634e-05 9.717e-05 9.83377e-05 9.97047e-05
          0.000101321 0.000103253 0.000105588 0.000108445 0.000111986 0.000116439 0.000122131 0.000129552 0.000139456 0.000153077 0.000172562 0.00020197
          0.000249854 0.000337225 0.00052833 0.00110555 0.00433673 0.0365079
        </DataArray>
        <DataArray type="Float32" Name="K" NumberOfComponents="1" format="ascii">
          9.97652e-11 9.97642e-11 9.97631e-11 9.97618e-11 9.97605e-11 9.97589e-11 9.97572e-11 9.97552e-11 9.9753e-11 9.97504e-11 9.97474e-11 9.97439e-11
          9.97397e-11 9.97348e-11 9.97288e-11 9.97215e-11 9.97124e-11 9.9701e-11 9.96863e-11 9.96673e-11 9.96419e-11 9.9607e-11 9.95571e-11 9.94818e-11
          9.90144e-11 9.87918e-11 9.83062e-11 9.68516e-11 8.9347e-11 3.55175e-11
        </DataArray>
        <DataArray type="Float32" Name="X^w_H2O" NumberOfComponents="1" format="ascii">
          0.999853 0.999853 0.999853 0.999853 0.999853 0.999853 0.999853 0.999853 0.999853 0.999853 0.999853 0.999853
          0.999853 0.999853 0.999853 0.999853 0.999853 0.999853 0.999853 0.999853 0.999853 0.999853 0.999853 0.999853
          0.999853 0.999852 0.99985 0.999846 0.99984 0.999842
        </DataArray>
        <DataArray type="Float32" Name="X^w_Air" NumberOfComponents="1" format="ascii">
          0 0 0 0 0 0 0 0 0 0 0 0
          0 0 0 0 0 0 0 0 0 0 0 0
          0 0 0 0 0 0
        </DataArray>
        <DataArray type="Float32" Name="X^w_AuComplex" NumberOfComponents="1" format="ascii">
          1.4501e-16 1.44994e-16 1.44853e-16 1.44881e-16 1.44799e-16 1.44735e-16 1.44662e-16 1.44576e-16 1.44491e-16 1.44391e-16 1.44311e-16 1.44204e-16
          1.44073e-16 1.43952e-16 1.43825e-16 1.43699e-16 1.43524e-16 1.43353e-16 1.43164e-16 1.42942e-16 1.42709e-16 1.42438e-16 1.55631e-16 2.95294e-14
          6.89683e-11 1.07257e-10 1.8346e-10 3.59882e-10 1.79382e-15 1.66742e-15
        </DataArray>
        <DataArray type="Float32" Name="X^w_nanoAu" NumberOfComponents="1" format="ascii">
          5.45987e-19 5.45988e-19 5.45531e-19 5.45709e-19 5.45479e-19 5.45324e-19 5.45137e-19 5.4491e-19 5.44689e-19 5.44423e-19 5.44237e-19 5.43959e-19
          5.43601e-19 5.43288e-19 5.42965e-19 5.42658e-19 5.42182e-19 5.41736e-19 5.41248e-19 5.40697e-19 5.4377e-19 8.83084e-19 3.23811e-17 2.94574e-15
          2.62628e-13 3.33082e-13 4.42571e-13 6.17943e-13 2.01035e-18 1.84719e-18
        </DataArray>
        <DataArray type="Float32" Name="X^w_cyanide" NumberOfComponents="1" format="ascii">
          5.14708e-06 5.14599e-06 5.14483e-06 5.14359e-06 5.14228e-06 5.14088e-06 5.13939e-06 5.1378e-06 5.1361e-06 5.1343e-06 5.13237e-06 5.1303e-06
          5.12808e-06 5.12569e-06 5.12311e-06 5.12031e-06 5.11727e-06 5.11393e-06 5.11023e-06 5.1061e-06 5.10142e-06 5.09601e-06 5.08961e-06 5.08179e-06
          5.07224e-06 6.43288e-06 8.54909e-06 1.21655e-05 1.92313e-05 1.85599e-05
        </DataArray>
        <DataArray type="Float32" Name="X^w_citrate" NumberOfComponents="1" format="ascii">
          0.000141643 0.000141635 0.000141625 0.000141616 0.000141605 0.000141594 0.000141583 0.00014157 0.000141557 0.000141543 0.000141528 0.000141513
          0.000141496 0.000141477 0.000141458 0.000141437 0.000141414 0.000141389 0.000141361 0.00014133 0.000141296 0.000141255 0.000141208 0.000141151
          0.000141077 0.000140977 0.000140823 0.000140537 0.000139763 0.000134883
        </DataArray>
        <DataArray type="Float32" Name="X^w_substrate" NumberOfComponents="1" format="ascii">
          1.07648e-07 1.1382e-07 1.20347e-07 1.27252e-07 1.34562e-07 1.42303e-07 1.5051e-07 1.59215e-07 1.6846e-07 1.7829e-07 1.88759e-07 1.99927e-07
          2.11869e-07 2.24673e-07 2.38449e-07 2.53333e-07 2.69499e-07 2.87175e-07 3.06667e-07 3.28392e-07 3.52947e-07 3.81211e-07 4.14548e-07 4.55204e-07
          5.07189e-07 5.78488e-07 6.8774e-07 8.90377e-07 1.43716e-06 4.87837e-06
        </DataArray>
        <DataArray type="Float32" Name="m^w_H2O" NumberOfComponents="1" format="ascii">
          55492.6 55492.5 55492.5 55492.5 55492.5 55492.5 55492.5 55492.5 55492.5 55492.5 55492.5 55492.5
          55492.5 55492.4 55492.4 55492.4 55492.4 55492.4 55492.4 55492.4 55492.4 55492.4 55492.4 55492.4
          55492.4 55492.3 55492.2 55491.9 55491.6 55491.7
        </DataArray>
        <DataArray type="Float32" Name="m^w_Air" NumberOfComponents="1" format="ascii">
          0 0 0 0 0 0 0 0 0 0 0 0
          0 0 0 0 0 0 0 0 0 0 0 0
          0 0 0 0 0 0
        </DataArray>
        <DataArray type="Float32" Name="m^w_AuComplex" NumberOfComponents="1" format="ascii">
          7.36097e-13 7.36016e-13 7.35297e-13 7.35442e-13 7.35026e-13 7.34702e-13 7.3433e-13 7.33895e-13 7.3346e-13 7.32953e-13 7.32546e-13 7.32005e-13
          7.31341e-13 7.30725e-13 7.3008e-13 7.29442e-13 7.28553e-13 7.27682e-13 7.26726e-13 7.25596e-13 7.24413e-13 7.23037e-13 7.90009e-13 1.49896e-10
          3.50094e-07 5.44452e-07 9.3127e-07 1.82682e-06 9.10569e-12 8.46409e-12
        </DataArray>
        <DataArray type="Float32" Name="m^w_nanoAu" NumberOfComponents="1" format="ascii">
          2.77153e-15 2.77153e-15 2.76921e-15 2.77011e-15 2.76895e-15 2.76816e-15 2.76721e-15 2.76606e-15 2.76494e-15 2.76359e-15 2.76264e-15 2.76123e-15
          2.75941e-15 2.75782e-15 2.75618e-15 2.75462e-15 2.75221e-15 2.74994e-15 2.74747e-15 2.74467e-15 2.76026e-15 4.48268e-15 1.64372e-13 1.4953e-11
          1.33314e-09 1.69078e-09 2.24656e-09 3.13678e-09 1.02048e-14 9.37661e-15
        </DataArray>
        <DataArray type="Float32" Name="m^w_cyanide" NumberOfComponents="1" format="ascii">
          0.197784 0.197742 0.197697 0.19765 0.197599 0.197545 0.197488 0.197427 0.197362 0.197292 0.197218 0.197139
          0.197053 0.196961 0.196862 0.196755 0.196638 0.196509 0.196367 0.196209 0.196029 0.195821 0.195575 0.195274
          0.194907 0.247191 0.32851 0.467476 0.738988 0.713186
        </DataArray>
        <DataArray type="Float32" Name="m^w_citrate" NumberOfComponents="1" format="ascii">
          0.748935 0.748889 0.74884 0.748788 0.748733 0.748675 0.748613 0.748548 0.748479 0.748405 0.748326 0.748242
          0.748153 0.748056 0.747953 0.747841 0.74772 0.747587 0.747441 0.747278 0.747094 0.746882 0.746632 0.746327
          0.745937 0.745407 0.744594 0.743082 0.738991 0.713187
        </DataArray>
        <DataArray type="Float32" Name="m^w_substrate" NumberOfComponents="1" format="ascii">
          0.000597427 0.00063168 0.000667903 0.000706226 0.000746792 0.000789758 0.0008353 0.000883614 0.000934922 0.000989477 0.00104757 0.00110956
          0.00117583 0.00124689 0.00132335 0.00140595 0.00149567 0.00159377 0.00170194 0.00182251 0.00195878 0.00211564 0.00230066 0.00252629
          0.0028148 0.00321049 0.00381681 0.00494141 0.00797597 0.0270739
        </DataArray>
        <DataArray type="Float32" Name="process rank" NumberOfComponents="1" format="ascii">
          0 0 0 0 0 0 0 0 0 0 0 0
          0 0 0 0 0 0 0 0 0 0 0 0
          0 0 0 0 0 0
        </DataArray>
      </CellData>
      <Points>
        <DataArray type="Float32" Name="Coordinates" NumberOfComponents="3" format="ascii">
          0 0 0 0.5 0 0 0 0.0333333 0 0.5 0.0333333 0
          0 0.0666667 0 0.5 0.0666667 0 0 0.1 0 0.5 0.1 0
          0 0.133333 0 0.5 0.133333 0 0 0.166667 0 0.5 0.166667 0
          0 0.2 0 0.5 0.2 0 0 0.233333 0 0.5 0.233333 0
          0 0.266667 0 0.5 0.266667 0 0 0.3 0 0.5 0.3 0
          0 0.333333 0 0.5 0.333333 0 0 0.366667 0 0.5 0.366667 0
          0 0.4 0 0.5 0.4 0 0 0.433333 0 0.5 0.433333 0
          0 0.466667 0 0.5 0.466667 0 0 0.5 0 0.5 0.5 0
          0 0.533333 0 0.5 0.533333 0 0 0.566667 0 0.5 0.566667 0
          0 0.6 0 0.5 0.6 0 0 0.633333 0 0.5 0.633333 0
          0 0.666667 0 0.5 0.666667 0 0 0.7 0 0.5 0.7 0
          0 0.733333 0 0.5 0.733333 0 0 0.766667 0 0.5 0.766667 0
          0 0.8 0 0.5 0.8 0 0 0.833333 0 0.5 0.833333 0
          0 0.866667 0 0.5 0.866667 0 0 0.9 0 0.5 0.9 0
          0 0.933333 0 0.5 0.933333 0 0 0.966667 0 0.5 0.966667 0
          0 1 0 0.5 1 0
        </DataArray>
      </Points>
      <Cells>
        <DataArray type="Int32" Name="connectivity" NumberOfComponents="1" format="ascii">
          0 1 3 2 2 3 5 4 4 5 7 6
          6 7 9 8 8 9 11 10 10 11 13 12
          12 13 15 14 14 15 17 16 16 17 19 18
          18 19 21 20 20 21 23 22 22 23 25 24
          24 25 27 26 26 27 29 28 28 29 31 30
          30 31 33 32 32 33 35 34 34 35 37 36
          36 37 39 38 38 39 41 40 40 41 43 42
          42 43 45 44 44 45 47 46 46 47 49 48
          48 49 51 50 50 51 53 52 52 53 55 54
          54 55 57 56 56 57 59 58 58 59 61 60
        </DataArray>
        <DataArray type="Int32" Name="offsets" NumberOfComponents="1" format="ascii">
          4 8 12 16 20 24 28 32 36 40 44 48
          52 56 60 64 68 72 76 80 84 88 92 96
          100 104 108 112 116 120
        </DataArray>
        <DataArray type="UInt8" Name="types" NumberOfComponents="1" format="ascii">
          9 9 9 9 9 9 9 9 9 9 9 9
          9 9 9 9 9 9 9 9 9 9 9 9
          9 9 9 9 9 9
        </DataArray>
      </Cells>
    </Piece>
  </UnstructuredGrid>
</VTKFile>
