<?xml version="1.0"?>
<VTKFile type="UnstructuredGrid" version="0.1" byte_order="LittleEndian">
  <UnstructuredGrid>
    <Piece NumberOfCells="30" NumberOfPoints="62">
      <CellData Scalars="Sg">
        <DataArray type="Float32" Name="Sg" NumberOfComponents="1" format="ascii">
          0 0 0 0 0 0 0 0 0 0 0 0
          0 0 0 0 0 0 0 0 0 0 0 0
          0 0 0 0 0 0
        </DataArray>
        <DataArray type="Float32" Name="Sl" NumberOfComponents="1" format="ascii">
          1 1 1 1 1 1 1 1 1 1 1 1
          1 1 1 1 1 1 1 1 1 1 1 1
          1 1 1 1 1 1
        </DataArray>
        <DataArray type="Float32" Name="pg" NumberOfComponents="1" format="ascii">
          24687.8 24360.9 24034 23707 23380.1 23053.1 22726.2 22399.3 22072.3 21745.4 21418.4 21091.5
          20764.6 20437.6 20110.7 19783.7 19456.8 19129.8 18802.9 18476 18149 17822.1 17495.1 17168.2
          16841.3 16514.3 16187.4 15860.4 15533.5 15209.3
        </DataArray>
        <DataArray type="Float32" Name="pl" NumberOfComponents="1" format="ascii">
          110628 110301 109974 109647 109320 108993 108666 108339 108012 107685 107358 107031
          106704 106377 106050 105723 105396 105070 104743 104416 104089 103762 103435 103108
          102781 102454 102127 101800 101473 101149
        </DataArray>
        <DataArray type="Float32" Name="pc" NumberOfComponents="1" format="ascii">
          -85939.7 -85939.7 -85939.7 -85939.7 -85939.7 -85939.7 -85939.7 -85939.7 -85939.7 -85939.7 -85939.7 -85939.7
          -85939.7 -85939.7 -85939.7 -85939.7 -85939.7 -85939.7 -85939.7 -85939.7 -85939.7 -85939.7 -85939.7 -85939.7
          -85939.7 -85939.7 -85939.7 -85939.7 -85939.7 -85939.7
        </DataArray>
        <DataArray type="Float32" Name="rhoL" NumberOfComponents="1" format="ascii">
          999.855 999.855 999.855 999.855 999.855 999.854 999.854 999.854 999.854 999.854 999.854 999.854
          999.853 999.853 999.853 999.853 999.853 999.853 999.852 999.852 999.852 999.852 999.852 999.852
          999.852 999.851 999.851 999.851 999.851 999.851
        </DataArray>
        <DataArray type="Float32" Name="rhoG" NumberOfComponents="1" format="ascii">
          0.30585 0.3018 0.29775 0.293699 0.289649 0.285598 0.281548 0.277498 0.273447 0.269397 0.265347 0.261296
          0.257246 0.253195 0.249145 0.245095 0.241044 0.236994 0.232944 0.228893 0.224843 0.220793 0.216742 0.212692
          0.208641 0.204591 0.200541 0.19649 0.19244 0.188423
        </DataArray>
        <DataArray type="Float32" Name="mobL" NumberOfComponents="1" format="ascii">
          722.171 722.17 722.17 722.17 722.17 722.17 722.169 722.169 722.169 722.169 722.169 722.169
          722.168 722.168 722.168 722.168 722.168 722.167 722.167 722.167 722.167 722.167 722.166 722.166
          722.166 722.166 722.166 722.166 722.165 722.165
        </DataArray>
        <DataArray type="Float32" Name="mobG" NumberOfComponents="1" format="ascii">
          0 0 0 0 0 0 0 0 0 0 0 0
          0 0 0 0 0 0 0 0 0 0 0 0
          0 0 0 0 0 0
        </DataArray>
        <DataArray type="Float32" Name="porosity" NumberOfComponents="1" format="ascii">
          0.298767 0.298767 0.298767 0.298766 0.298766 0.298766 0.298765 0.298764 0.298763 0.298761 0.298759 0.298755
          0.29875 0.298744 0.298735 0.298724 0.298708 0.298687 0.298658 0.298618 0.298564 0.298488 0.298379 0.298216
          0.297691 0.297252 0.296383 0.294133 0.283598 0.046638
        </DataArray>
        <DataArray type="Float32" Name="temperature" NumberOfComponents="1" format="ascii">
          281.15 281.15 281.15 281.15 281.15 281.15 281.15 281.15 281.15 281.15 281.15 281.15
          281.15 281.15 281.15 281.15 281.15 281.15 281.15 281.15 281.15 281.15 281.15 281.15
          281.15 281.15 281.15 281.15 281.15 281.15
        </DataArray>
        <DataArray type="Float32" Name="phase presence" NumberOfComponents="1" format="ascii">
          1 1 1 1 1 1 1 1 1 1 1 1
          1 1 1 1 1 1 1 1 1 1 1 1
          1 1 1 1 1 1
        </DataArray>
        <DataArray type="Float32" Name="precipitateVolumeFraction_au" NumberOfComponents="1" format="ascii">
          5.52579e-10 5.52525e-10 5.52725e-10 5.52762e-10 5.52746e-10 5.52744e-10 5.52747e-10 5.52752e-10 5.52747e-10 5.52773e-10 5.52722e-10 5.52783e-10
          5.52735e-10 5.52748e-10 5.52707e-10 5.52712e-10 5.52736e-10 5.52689e-10 5.52741e-10 5.52744e-10 5.52711e-10 5.52738e-10 5.52999e-10 1.08158e-09
          0.00026994 0.000269924 0.0002699 0.000269852 5.5226e-10 5.51322e-10
        </DataArray>
        <DataArray type="Float32" Name="precipitateVolumeFraction_nanoAu" NumberOfComponents="1" format="ascii">
          1.23626e-13 1.23614e-13 1.23659e-13 1.23667e-13 1.23663e-13 1.23663e-13 1.23663e-13 1.23664e-13 1.23663e-13 1.23668e-13 1.23657e-13 1.2367e-13
          1.23659e-13 1.23661e-13 1.23651e-13 1.23651e-13 1.23654e-13 1.23642e-13 1.2365e-13 1.23647e-13 1.23634e-13 1.23648e-13 1.35415e-13 2.56015e-11
          6.03674e-08 7.66895e-08 1.02151e-07 1.45571e-07 4.74177e-13 4.67234e-13
        </DataArray>
        <DataArray type="Float32" Name="precipitateVolumeFraction_d" NumberOfComponents="1" format="ascii">
          0.000616485 0.000616546 0.000616632 0.000616754 0.000616924 0.000617163 0.000617497 0.000617964 0.000618612 0.00061951 0.000620748 0.000622449
          0.000624777 0.000627949 0.000632257 0.000638094 0.000645988 0.000656668 0.000671148 0.000690892 0.000718082 0.000756127 0.000810681 0.00089185
          0.00101955 0.00123891 0.0016735 0.0027985 0.00820108 0.126681
        </DataArray>
        <DataArray type="Float32" Name="precipitateVolumeFraction_p" NumberOfComponents="1" format="ascii">
          0.000616485 0.000616546 0.000616632 0.000616754 0.000616924 0.000617163 0.000617497 0.000617964 0.000618612 0.00061951 0.000620748 0.000622449
          0.000624777 0.000627949 0.000632257 0.000638094 0.000645988 0.000656668 0.000671148 0.000690892 0.000718082 0.000756127 0.000810681 0.00089185
          0.00101955 0.00123891 0.0016735 0.0027985 0.00820108 0.126681
        </DataArray>
        <DataArray type="Float32" Name="K" NumberOfComponents="1" format="ascii">
          9.84251e-11 9.84249e-11 9.84247e-11 9.84244e-11 9.84239e-11 9.84233e-11 9.84225e-11 9.84213e-11 9.84197e-11 9.84174e-11 9.84142e-11 9.84099e-11
          9.8404e-11 9.8396e-11 9.8385e-11 9.83702e-11 9.83502e-11 9.83231e-11 9.82864e-11 9.82364e-11 9.81675e-11 9.80712e-11 9.79332e-11 9.77282e-11
          9.70672e-11 9.6518e-11 9.54376e-11 9.26868e-11 8.06543e-11 2.02552e-13
        </DataArray>
        <DataArray type="Float32" Name="X^w_H2O" NumberOfComponents="1" format="ascii">
          0.999853 0.999853 0.999853 0.999853 0.999853 0.999853 0.999853 0.999853 0.999853 0.999853 0.999853 0.999853
          0.999853 0.999853 0.999853 0.999853 0.999853 0.999853 0.999853 0.999853 0.999853 0.999853 0.999853 0.999853
          0.999853 0.999852 0.99985 0.999846 0.999839 0.99984
        </DataArray>
        <DataArray type="Float32" Name="X^w_Air" NumberOfComponents="1" format="ascii">
          0 0 0 0 0 0 0 0 0 0 0 0
          0 0 0 0 0 0 0 0 0 0 0 0
          0 0 0 0 0 0
        </DataArray>
        <DataArray type="Float32" Name="X^w_AuComplex" NumberOfComponents="1" format="ascii">
          1.39971e-16 1.39957e-16 1.40008e-16 1.40017e-16 1.40012e-16 1.40012e-16 1.40012e-16 1.40013e-16 1.40012e-16 1.40018e-16 1.40004e-16 1.40019e-16
          1.40006e-16 1.40007e-16 1.39995e-16 1.39994e-16 1.39997e-16 1.39981e-16 1.39987e-16 1.3998e-16 1.39959e-16 1.39965e-16 1.53082e-16 2.89578e-14
          6.83116e-11 1.06553e-10 1.82992e-10 3.61204e-10 1.82132e-15 1.77425e-15
        </DataArray>
        <DataArray type="Float32" Name="X^w_nanoAu" NumberOfComponents="1" format="ascii">
          5.38435e-19 5.38385e-19 5.38577e-19 5.38612e-19 5.38596e-19 5.38594e-19 5.38596e-19 5.38599e-19 5.38594e-19 5.38617e-19 5.38567e-19 5.38623e-19
          5.38574e-19 5.38582e-19 5.38539e-19 5.38537e-19 5.38551e-19 5.38495e-19 5.38528e-19 5.38548e-19 5.4217e-19 8.83533e-19 3.25e-17 2.95651e-15
          2.63651e-13 3.35128e-13 4.46647e-13 6.26564e-13 2.05925e-18 1.98471e-18
        </DataArray>
        <DataArray type="Float32" Name="X^w_cyanide" NumberOfComponents="1" format="ascii">
          5.07082e-06 5.07082e-06 5.07082e-06 5.07082e-06 5.07081e-06 5.07081e-06 5.0708e-06 5.0708e-06 5.07079e-06 5.07078e-06 5.07077e-06 5.07076e-06
          5.07074e-06 5.07071e-06 5.07068e-06 5.07063e-06 5.07057e-06 5.07048e-06 5.07036e-06 5.07019e-06 5.06995e-06 5.0696e-06 5.06909e-06 5.06832e-06
          5.06756e-06 6.43726e-06 8.57294e-06 1.22383e-05 1.94625e-05 1.92369e-05
        </DataArray>
        <DataArray type="Float32" Name="X^w_citrate" NumberOfComponents="1" format="ascii">
          0.000141796 0.000141796 0.000141796 0.000141796 0.000141796 0.000141796 0.000141796 0.000141796 0.000141796 0.000141796 0.000141796 0.000141796
          0.000141796 0.000141795 0.000141795 0.000141795 0.000141794 0.000141794 0.000141793 0.000141792 0.00014179 0.000141787 0.000141784 0.000141778
          0.000141769 0.000141754 0.000141726 0.00014166 0.000141443 0.000139803
        </DataArray>
        <DataArray type="Float32" Name="X^w_substrate" NumberOfComponents="1" format="ascii">
          1.01048e-11 1.36233e-11 1.83657e-11 2.47579e-11 3.33738e-11 4.49875e-11 6.06435e-11 8.17524e-11 1.10221e-10 1.4863e-10 2.00483e-10 2.70541e-10
          3.65307e-10 4.93702e-10 6.68046e-10 9.05492e-10 1.23019e-09 1.67661e-09 2.29486e-09 3.15943e-09 4.38427e-09 6.15015e-09 8.75751e-09 1.27366e-08
          1.91006e-08 3.0007e-08 5.08198e-08 9.84155e-08 2.5247e-07 1.40898e-06
        </DataArray>
        <DataArray type="Float32" Name="m^w_H2O" NumberOfComponents="1" format="ascii">
          55492.6 55492.6 55492.5 55492.5 55492.5 55492.5 55492.5 55492.5 55492.5 55492.5 55492.5 55492.5
          55492.5 55492.4 55492.4 55492.4 55492.4 55492.4 55492.4 55492.4 55492.4 55492.4 55492.4 55492.4
          55492.3 55492.3 55492.1 55491.9 55491.5 55491.6
        </DataArray>
        <DataArray type="Float32" Name="m^w_Air" NumberOfComponents="1" format="ascii">
          0 0 0 0 0 0 0 0 0 0 0 0
          0 0 0 0 0 0 0 0 0 0 0 0
          0 0 0 0 0 0
        </DataArray>
        <DataArray type="Float32" Name="m^w_AuComplex" NumberOfComponents="1" format="ascii">
          7.10518e-13 7.10448e-13 7.10704e-13 7.1075e-13 7.10728e-13 7.10725e-13 7.10727e-13 7.10731e-13 7.10723e-13 7.10754e-13 7.10685e-13 7.10759e-13
          7.10693e-13 7.10702e-13 7.1064e-13 7.10634e-13 7.10648e-13 7.10565e-13 7.10599e-13 7.1056e-13 7.10456e-13 7.10485e-13 7.7707e-13 1.46994e-10
          3.46761e-07 5.40879e-07 9.28899e-07 1.83353e-06 9.2453e-12 9.00635e-12
        </DataArray>
        <DataArray type="Float32" Name="m^w_nanoAu" NumberOfComponents="1" format="ascii">
          2.73319e-15 2.73294e-15 2.73392e-15 2.73409e-15 2.73401e-15 2.734e-15 2.73401e-15 2.73402e-15 2.734e-15 2.73411e-15 2.73386e-15 2.73414e-15
          2.7339e-15 2.73394e-15 2.73371e-15 2.7337e-15 2.73377e-15 2.73349e-15 2.73366e-15 2.73376e-15 2.75214e-15 4.48496e-15 1.64975e-13 1.50077e-11
          1.33833e-09 1.70116e-09 2.26725e-09 3.18054e-09 1.04531e-14 1.00747e-14
        </DataArray>
        <DataArray type="Float32" Name="m^w_cyanide" NumberOfComponents="1" format="ascii">
          0.194854 0.194853 0.194853 0.194853 0.194853 0.194853 0.194853 0.194852 0.194852 0.194852 0.194851 0.194851
          0.19485 0.194849 0.194848 0.194846 0.194843 0.19484 0.194835 0.194829 0.194819 0.194806 0.194786 0.194757
          0.194727 0.24736 0.329426 0.470273 0.747871 0.739201
        </DataArray>
        <DataArray type="Float32" Name="m^w_citrate" NumberOfComponents="1" format="ascii">
          0.749742 0.749742 0.749742 0.749742 0.749742 0.749741 0.749741 0.749741 0.749741 0.74974 0.74974 0.749739
          0.749738 0.749737 0.749736 0.749734 0.749731 0.749728 0.749723 0.749716 0.749707 0.749694 0.749674 0.749644
          0.749596 0.749519 0.749369 0.74902 0.747874 0.739202
        </DataArray>
        <DataArray type="Float32" Name="m^w_substrate" NumberOfComponents="1" format="ascii">
          5.60798e-08 7.56066e-08 1.01926e-07 1.37402e-07 1.85219e-07 2.49672e-07 3.3656e-07 4.5371e-07 6.11705e-07 8.24871e-07 1.11264e-06 1.50145e-06
          2.02738e-06 2.73995e-06 3.70753e-06 5.0253e-06 6.8273e-06 9.30486e-06 1.2736e-05 1.75342e-05 2.43318e-05 3.41321e-05 4.86024e-05 7.06855e-05
          0.000106004 0.000166533 0.00028204 0.000546186 0.00140116 0.00781953
        </DataArray>
        <DataArray type="Float32" Name="process rank" NumberOfComponents="1" format="ascii">
          0 0 0 0 0 0 0 0 0 0 0 0
          0 0 0 0 0 0 0 0 0 0 0 0
          0 0 0 0 0 0
        </DataArray>
      </CellData>
      <Points>
        <DataArray type="Float32" Name="Coordinates" NumberOfComponents="3" format="ascii">
          0 0 0 0.5 0 0 0 0.0333333 0 0.5 0.0333333 0
          0 0.0666667 0 0.5 0.0666667 0 0 0.1 0 0.5 0.1 0
          0 0.133333 0 0.5 0.133333 0 0 0.166667 0 0.5 0.166667 0
          0 0.2 0 0.5 0.2 0 0 0.233333 0 0.5 0.233333 0
          0 0.266667 0 0.5 0.266667 0 0 0.3 0 0.5 0.3 0
          0 0.333333 0 0.5 0.333333 0 0 0.366667 0 0.5 0.366667 0
          0 0.4 0 0.5 0.4 0 0 0.433333 0 0.5 0.433333 0
          0 0.466667 0 0.5 0.466667 0 0 0.5 0 0.5 0.5 0
          0 0.533333 0 0.5 0.533333 0 0 0.566667 0 0.5 0.566667 0
          0 0.6 0 0.5 0.6 0 0 0.633333 0 0.5 0.633333 0
          0 0.666667 0 0.5 0.666667 0 0 0.7 0 0.5 0.7 0
          0 0.733333 0 0.5 0.733333 0 0 0.766667 0 0.5 0.766667 0
          0 0.8 0 0.5 0.8 0 0 0.833333 0 0.5 0.833333 0
          0 0.866667 0 0.5 0.866667 0 0 0.9 0 0.5 0.9 0
          0 0.933333 0 0.5 0.933333 0 0 0.966667 0 0.5 0.966667 0
          0 1 0 0.5 1 0
        </DataArray>
      </Points>
      <Cells>
        <DataArray type="Int32" Name="connectivity" NumberOfComponents="1" format="ascii">
          0 1 3 2 2 3 5 4 4 5 7 6
          6 7 9 8 8 9 11 10 10 11 13 12
          12 13 15 14 14 15 17 16 16 17 19 18
          18 19 21 20 20 21 23 22 22 23 25 24
          24 25 27 26 26 27 29 28 28 29 31 30
          30 31 33 32 32 33 35 34 34 35 37 36
          36 37 39 38 38 39 41 40 40 41 43 42
          42 43 45 44 44 45 47 46 46 47 49 48
          48 49 51 50 50 51 53 52 52 53 55 54
          54 55 57 56 56 57 59 58 58 59 61 60
        </DataArray>
        <DataArray type="Int32" Name="offsets" NumberOfComponents="1" format="ascii">
          4 8 12 16 20 24 28 32 36 40 44 48
          52 56 60 64 68 72 76 80 84 88 92 96
          100 104 108 112 116 120
        </DataArray>
        <DataArray type="UInt8" Name="types" NumberOfComponents="1" format="ascii">
          9 9 9 9 9 9 9 9 9 9 9 9
          9 9 9 9 9 9 9 9 9 9 9 9
          9 9 9 9 9 9
        </DataArray>
      </Cells>
    </Piece>
  </UnstructuredGrid>
</VTKFile>
