<?xml version="1.0"?>
<VTKFile type="UnstructuredGrid" version="0.1" byte_order="LittleEndian">
  <UnstructuredGrid>
    <Piece NumberOfCells="30" NumberOfPoints="62">
      <CellData Scalars="Sg">
        <DataArray type="Float32" Name="Sg" NumberOfComponents="1" format="ascii">
          0 0 0 0 0 0 0 0 0 0 0 0
          0 0 0 0 0 0 0 0 0 0 0 0
          0 0 0 0 0 0
        </DataArray>
        <DataArray type="Float32" Name="Sl" NumberOfComponents="1" format="ascii">
          1 1 1 1 1 1 1 1 1 1 1 1
          1 1 1 1 1 1 1 1 1 1 1 1
          1 1 1 1 1 1
        </DataArray>
        <DataArray type="Float32" Name="pg" NumberOfComponents="1" format="ascii">
          24687.8 24360.9 24034 23707 23380.1 23053.1 22726.2 22399.3 22072.3 21745.4 21418.4 21091.5
          20764.6 20437.6 20110.7 19783.7 19456.8 19129.8 18802.9 18476 18149 17822.1 17495.1 17168.2
          16841.3 16514.3 16187.4 15860.4 15533.5 15208.6
        </DataArray>
        <DataArray type="Float32" Name="pl" NumberOfComponents="1" format="ascii">
          110628 110301 109974 109647 109320 108993 108666 108339 108012 107685 107358 107031
          106704 106377 106050 105723 105396 105070 104743 104416 104089 103762 103435 103108
          102781 102454 102127 101800 101473 101148
        </DataArray>
        <DataArray type="Float32" Name="pc" NumberOfComponents="1" format="ascii">
          -85939.7 -85939.7 -85939.7 -85939.7 -85939.7 -85939.7 -85939.7 -85939.7 -85939.7 -85939.7 -85939.7 -85939.7
          -85939.7 -85939.7 -85939.7 -85939.7 -85939.7 -85939.7 -85939.7 -85939.7 -85939.7 -85939.7 -85939.7 -85939.7
          -85939.7 -85939.7 -85939.7 -85939.7 -85939.7 -85939.7
        </DataArray>
        <DataArray type="Float32" Name="rhoL" NumberOfComponents="1" format="ascii">
          999.855 999.855 999.855 999.855 999.855 999.854 999.854 999.854 999.854 999.854 999.854 999.854
          999.853 999.853 999.853 999.853 999.853 999.853 999.852 999.852 999.852 999.852 999.852 999.852
          999.852 999.851 999.851 999.851 999.851 999.851
        </DataArray>
        <DataArray type="Float32" Name="rhoG" NumberOfComponents="1" format="ascii">
          0.30585 0.3018 0.29775 0.293699 0.289649 0.285598 0.281548 0.277498 0.273447 0.269397 0.265347 0.261296
          0.257246 0.253195 0.249145 0.245095 0.241044 0.236994 0.232944 0.228893 0.224843 0.220793 0.216742 0.212692
          0.208641 0.204591 0.200541 0.19649 0.19244 0.188415
        </DataArray>
        <DataArray type="Float32" Name="mobL" NumberOfComponents="1" format="ascii">
          722.171 722.17 722.17 722.17 722.17 722.17 722.169 722.169 722.169 722.169 722.169 722.169
          722.168 722.168 722.168 722.168 722.168 722.167 722.167 722.167 722.167 722.167 722.166 722.166
          722.166 722.166 722.166 722.166 722.165 722.165
        </DataArray>
        <DataArray type="Float32" Name="mobG" NumberOfComponents="1" format="ascii">
          0 0 0 0 0 0 0 0 0 0 0 0
          0 0 0 0 0 0 0 0 0 0 0 0
          0 0 0 0 0 0
        </DataArray>
        <DataArray type="Float32" Name="porosity" NumberOfComponents="1" format="ascii">
          0.298709 0.298709 0.298709 0.298709 0.298708 0.298708 0.298707 0.298706 0.298705 0.298703 0.2987 0.298697
          0.298692 0.298685 0.298676 0.298664 0.298648 0.298626 0.298596 0.298555 0.298498 0.29842 0.298307 0.29814
          0.297609 0.297162 0.296287 0.294064 0.28413 0.0511569
        </DataArray>
        <DataArray type="Float32" Name="temperature" NumberOfComponents="1" format="ascii">
          281.15 281.15 281.15 281.15 281.15 281.15 281.15 281.15 281.15 281.15 281.15 281.15
          281.15 281.15 281.15 281.15 281.15 281.15 281.15 281.15 281.15 281.15 281.15 281.15
          281.15 281.15 281.15 281.15 281.15 281.15
        </DataArray>
        <DataArray type="Float32" Name="phase presence" NumberOfComponents="1" format="ascii">
          1 1 1 1 1 1 1 1 1 1 1 1
          1 1 1 1 1 1 1 1 1 1 1 1
          1 1 1 1 1 1
        </DataArray>
        <DataArray type="Float32" Name="precipitateVolumeFraction_au" NumberOfComponents="1" format="ascii">
          5.52657e-10 5.52768e-10 5.52746e-10 5.52705e-10 5.52768e-10 5.52762e-10 5.52752e-10 5.52758e-10 5.52753e-10 5.52797e-10 5.52758e-10 5.52758e-10
          5.52767e-10 5.52782e-10 5.52733e-10 5.52749e-10 5.52747e-10 5.5275e-10 5.52787e-10 5.52727e-10 5.52743e-10 5.52763e-10 5.52924e-10 9.7511e-10
          0.00026994 0.000269924 0.000269899 0.000269853 5.52266e-10 5.51226e-10
        </DataArray>
        <DataArray type="Float32" Name="precipitateVolumeFraction_nanoAu" NumberOfComponents="1" format="ascii">
          1.2369e-13 1.23716e-13 1.2371e-13 1.23701e-13 1.23715e-13 1.23713e-13 1.2371e-13 1.23711e-13 1.2371e-13 1.23719e-13 1.2371e-13 1.23709e-13
          1.2371e-13 1.23713e-13 1.23701e-13 1.23703e-13 1.23701e-13 1.23699e-13 1.23704e-13 1.23686e-13 1.23684e-13 1.23696e-13 1.35599e-13 2.57775e-11
          6.03777e-08 7.67007e-08 1.02162e-07 1.45574e-07 4.74134e-13 4.67001e-13
        </DataArray>
        <DataArray type="Float32" Name="precipitateVolumeFraction_d" NumberOfComponents="1" format="ascii">
          0.000645454 0.000645517 0.000645606 0.000645732 0.000645909 0.000646157 0.000646504 0.000646988 0.000647661 0.000648594 0.00064988 0.000651648
          0.000654066 0.000657361 0.000661837 0.000667898 0.000676094 0.000687174 0.00070219 0.000722646 0.000750783 0.000790096 0.000846353 0.00092982
          0.00106061 0.00128388 0.00172166 0.00283278 0.00793516 0.124422
        </DataArray>
        <DataArray type="Float32" Name="precipitateVolumeFraction_p" NumberOfComponents="1" format="ascii">
          0.000645454 0.000645517 0.000645606 0.000645732 0.000645909 0.000646157 0.000646504 0.000646988 0.000647661 0.000648594 0.00064988 0.000651648
          0.000654066 0.000657361 0.000661837 0.000667898 0.000676094 0.000687174 0.00070219 0.000722646 0.000750783 0.000790096 0.000846353 0.00092982
          0.00106061 0.00128388 0.00172166 0.00283278 0.00793516 0.124422
        </DataArray>
        <DataArray type="Float32" Name="K" NumberOfComponents="1" format="ascii">
          9.83516e-11 9.83514e-11 9.83512e-11 9.83508e-11 9.83504e-11 9.83498e-11 9.83489e-11 9.83477e-11 9.8346e-11 9.83436e-11 9.83403e-11 9.83358e-11
          9.83297e-11 9.83214e-11 9.831e-11 9.82946e-11 9.82739e-11 9.82458e-11 9.82077e-11 9.81559e-11 9.80847e-11 9.79852e-11 9.78431e-11 9.76324e-11
          9.69642e-11 9.64058e-11 9.53185e-11 9.2604e-11 8.12294e-11 2.69871e-13
        </DataArray>
        <DataArray type="Float32" Name="X^w_H2O" NumberOfComponents="1" format="ascii">
          0.999853 0.999853 0.999853 0.999853 0.999853 0.999853 0.999853 0.999853 0.999853 0.999853 0.999853 0.999853
          0.999853 0.999853 0.999853 0.999853 0.999853 0.999853 0.999853 0.999853 0.999853 0.999853 0.999853 0.999853
          0.999853 0.999852 0.99985 0.999846 0.999839 0.99984
        </DataArray>
        <DataArray type="Float32" Name="X^w_Air" NumberOfComponents="1" format="ascii">
          0 0 0 0 0 0 0 0 0 0 0 0
          0 0 0 0 0 0 0 0 0 0 0 0
          0 0 0 0 0 0
        </DataArray>
        <DataArray type="Float32" Name="X^w_AuComplex" NumberOfComponents="1" format="ascii">
          1.41084e-16 1.41113e-16 1.41107e-16 1.41096e-16 1.41111e-16 1.41109e-16 1.41106e-16 1.41107e-16 1.41104e-16 1.41115e-16 1.41104e-16 1.41102e-16
          1.41103e-16 1.41105e-16 1.41091e-16 1.41092e-16 1.41088e-16 1.41084e-16 1.41087e-16 1.41063e-16 1.41055e-16 1.41058e-16 1.54428e-16 2.93735e-14
          6.88311e-11 1.0736e-10 1.84366e-10 3.63865e-10 1.8343e-15 1.78593e-15
        </DataArray>
        <DataArray type="Float32" Name="X^w_nanoAu" NumberOfComponents="1" format="ascii">
          5.38713e-19 5.38825e-19 5.38801e-19 5.38759e-19 5.3882e-19 5.38812e-19 5.38801e-19 5.38805e-19 5.38798e-19 5.38837e-19 5.38797e-19 5.38794e-19
          5.38799e-19 5.38808e-19 5.38756e-19 5.38764e-19 5.38753e-19 5.38744e-19 5.38763e-19 5.38721e-19 5.42394e-19 8.84066e-19 3.25246e-17 2.95822e-15
          2.63696e-13 3.35176e-13 4.46689e-13 6.26552e-13 2.05882e-18 1.9832e-18
        </DataArray>
        <DataArray type="Float32" Name="X^w_cyanide" NumberOfComponents="1" format="ascii">
          5.07166e-06 5.07165e-06 5.07163e-06 5.07162e-06 5.07161e-06 5.0716e-06 5.07159e-06 5.07157e-06 5.07156e-06 5.07154e-06 5.07152e-06 5.0715e-06
          5.07148e-06 5.07145e-06 5.07141e-06 5.07136e-06 5.07129e-06 5.0712e-06 5.07107e-06 5.0709e-06 5.07066e-06 5.07031e-06 5.0698e-06 5.06901e-06
          5.06822e-06 6.43798e-06 8.57362e-06 1.22385e-05 1.94602e-05 1.92319e-05
        </DataArray>
        <DataArray type="Float32" Name="X^w_citrate" NumberOfComponents="1" format="ascii">
          0.000141796 0.000141796 0.000141796 0.000141796 0.000141796 0.000141796 0.000141796 0.000141796 0.000141796 0.000141796 0.000141796 0.000141796
          0.000141796 0.000141795 0.000141795 0.000141795 0.000141794 0.000141794 0.000141793 0.000141792 0.00014179 0.000141788 0.000141784 0.000141778
          0.000141769 0.000141754 0.000141724 0.000141655 0.000141427 0.000139767
        </DataArray>
        <DataArray type="Float32" Name="X^w_substrate" NumberOfComponents="1" format="ascii">
          7.51923e-12 1.02573e-11 1.39916e-11 1.90845e-11 2.60304e-11 3.55039e-11 4.84259e-11 6.60549e-11 9.01119e-11 1.22954e-10 1.67815e-10 2.29147e-10
          3.13093e-10 4.28181e-10 5.86312e-10 8.04244e-10 1.10582e-09 1.52541e-09 2.1135e-09 2.94584e-09 4.13932e-09 5.88103e-09 8.48427e-09 1.25059e-08
          1.90162e-08 3.03048e-08 5.20756e-08 1.02229e-07 2.64153e-07 1.43455e-06
        </DataArray>
        <DataArray type="Float32" Name="m^w_H2O" NumberOfComponents="1" format="ascii">
          55492.6 55492.6 55492.5 55492.5 55492.5 55492.5 55492.5 55492.5 55492.5 55492.5 55492.5 55492.5
          55492.5 55492.4 55492.4 55492.4 55492.4 55492.4 55492.4 55492.4 55492.4 55492.4 55492.4 55492.4
          55492.3 55492.3 55492.1 55491.9 55491.5 55491.6
        </DataArray>
        <DataArray type="Float32" Name="m^w_Air" NumberOfComponents="1" format="ascii">
          0 0 0 0 0 0 0 0 0 0 0 0
          0 0 0 0 0 0 0 0 0 0 0 0
          0 0 0 0 0 0
        </DataArray>
        <DataArray type="Float32" Name="m^w_AuComplex" NumberOfComponents="1" format="ascii">
          7.16169e-13 7.16317e-13 7.16285e-13 7.16226e-13 7.16306e-13 7.16294e-13 7.16277e-13 7.16282e-13 7.1627e-13 7.16322e-13 7.16267e-13 7.1626e-13
          7.16264e-13 7.16274e-13 7.162e-13 7.16207e-13 7.16186e-13 7.16166e-13 7.16182e-13 7.16058e-13 7.16016e-13 7.16035e-13 7.839e-13 1.49105e-10
          3.49398e-07 5.44975e-07 9.35872e-07 1.84704e-06 9.31118e-12 9.06566e-12
        </DataArray>
        <DataArray type="Float32" Name="m^w_nanoAu" NumberOfComponents="1" format="ascii">
          2.73461e-15 2.73517e-15 2.73505e-15 2.73484e-15 2.73515e-15 2.73511e-15 2.73505e-15 2.73507e-15 2.73503e-15 2.73523e-15 2.73503e-15 2.73501e-15
          2.73504e-15 2.73508e-15 2.73482e-15 2.73486e-15 2.7348e-15 2.73476e-15 2.73485e-15 2.73464e-15 2.75328e-15 4.48766e-15 1.651e-13 1.50164e-11
          1.33856e-09 1.70141e-09 2.26746e-09 3.18048e-09 1.04509e-14 1.00671e-14
        </DataArray>
        <DataArray type="Float32" Name="m^w_cyanide" NumberOfComponents="1" format="ascii">
          0.194886 0.194885 0.194885 0.194884 0.194884 0.194883 0.194883 0.194882 0.194882 0.194881 0.19488 0.194879
          0.194878 0.194877 0.194876 0.194874 0.194871 0.194867 0.194863 0.194856 0.194847 0.194833 0.194813 0.194783
          0.194753 0.247387 0.329452 0.470281 0.747784 0.739009
        </DataArray>
        <DataArray type="Float32" Name="m^w_citrate" NumberOfComponents="1" format="ascii">
          0.749742 0.749742 0.749742 0.749742 0.749742 0.749741 0.749741 0.749741 0.749741 0.74974 0.74974 0.749739
          0.749739 0.749738 0.749736 0.749735 0.749732 0.749729 0.749724 0.749718 0.749709 0.749696 0.749676 0.749646
          0.749597 0.749517 0.74936 0.748991 0.747786 0.73901
        </DataArray>
        <DataArray type="Float32" Name="m^w_substrate" NumberOfComponents="1" format="ascii">
          4.17304e-08 5.69262e-08 7.76509e-08 1.05916e-07 1.44464e-07 1.9704e-07 2.68755e-07 3.66592e-07 5.00104e-07 6.82371e-07 9.31344e-07 1.27172e-06
          1.73761e-06 2.37632e-06 3.25392e-06 4.4634e-06 6.13706e-06 8.46574e-06 1.17295e-05 1.63488e-05 2.29724e-05 3.26386e-05 4.7086e-05 6.9405e-05
          0.000105536 0.000168185 0.000289009 0.000567348 0.001466 0.00796147
        </DataArray>
        <DataArray type="Float32" Name="process rank" NumberOfComponents="1" format="ascii">
          0 0 0 0 0 0 0 0 0 0 0 0
          0 0 0 0 0 0 0 0 0 0 0 0
          0 0 0 0 0 0
        </DataArray>
      </CellData>
      <Points>
        <DataArray type="Float32" Name="Coordinates" NumberOfComponents="3" format="ascii">
          0 0 0 0.5 0 0 0 0.0333333 0 0.5 0.0333333 0
          0 0.0666667 0 0.5 0.0666667 0 0 0.1 0 0.5 0.1 0
          0 0.133333 0 0.5 0.133333 0 0 0.166667 0 0.5 0.166667 0
          0 0.2 0 0.5 0.2 0 0 0.233333 0 0.5 0.233333 0
          0 0.266667 0 0.5 0.266667 0 0 0.3 0 0.5 0.3 0
          0 0.333333 0 0.5 0.333333 0 0 0.366667 0 0.5 0.366667 0
          0 0.4 0 0.5 0.4 0 0 0.433333 0 0.5 0.433333 0
          0 0.466667 0 0.5 0.466667 0 0 0.5 0 0.5 0.5 0
          0 0.533333 0 0.5 0.533333 0 0 0.566667 0 0.5 0.566667 0
          0 0.6 0 0.5 0.6 0 0 0.633333 0 0.5 0.633333 0
          0 0.666667 0 0.5 0.666667 0 0 0.7 0 0.5 0.7 0
          0 0.733333 0 0.5 0.733333 0 0 0.766667 0 0.5 0.766667 0
          0 0.8 0 0.5 0.8 0 0 0.833333 0 0.5 0.833333 0
          0 0.866667 0 0.5 0.866667 0 0 0.9 0 0.5 0.9 0
          0 0.933333 0 0.5 0.933333 0 0 0.966667 0 0.5 0.966667 0
          0 1 0 0.5 1 0
        </DataArray>
      </Points>
      <Cells>
        <DataArray type="Int32" Name="connectivity" NumberOfComponents="1" format="ascii">
          0 1 3 2 2 3 5 4 4 5 7 6
          6 7 9 8 8 9 11 10 10 11 13 12
          12 13 15 14 14 15 17 16 16 17 19 18
          18 19 21 20 20 21 23 22 22 23 25 24
          24 25 27 26 26 27 29 28 28 29 31 30
          30 31 33 32 32 33 35 34 34 35 37 36
          36 37 39 38 38 39 41 40 40 41 43 42
          42 43 45 44 44 45 47 46 46 47 49 48
          48 49 51 50 50 51 53 52 52 53 55 54
          54 55 57 56 56 57 59 58 58 59 61 60
        </DataArray>
        <DataArray type="Int32" Name="offsets" NumberOfComponents="1" format="ascii">
          4 8 12 16 20 24 28 32 36 40 44 48
          52 56 60 64 68 72 76 80 84 88 92 96
          100 104 108 112 116 120
        </DataArray>
        <DataArray type="UInt8" Name="types" NumberOfComponents="1" format="ascii">
          9 9 9 9 9 9 9 9 9 9 9 9
          9 9 9 9 9 9 9 9 9 9 9 9
          9 9 9 9 9 9
        </DataArray>
      </Cells>
    </Piece>
  </UnstructuredGrid>
</VTKFile>
