<?xml version="1.0"?>
<VTKFile type="UnstructuredGrid" version="0.1" byte_order="LittleEndian">
  <UnstructuredGrid>
    <Piece NumberOfCells="30" NumberOfPoints="62">
      <CellData Scalars="Sg">
        <DataArray type="Float32" Name="Sg" NumberOfComponents="1" format="ascii">
          0.0948756 0.0948536 0.0948315 0.0948092 0.0947868 0.0947644 0.094742 0.0947196 0.0946973 0.0946752 0.0946531 0.0946297
          0.094599 0.0945339 0.0943171 0.0934478 0.0898177 0.0750082 0.0235494 0 0 0 0 0
          0 0 0 0 0 0
        </DataArray>
        <DataArray type="Float32" Name="Sl" NumberOfComponents="1" format="ascii">
          0.905124 0.905146 0.905169 0.905191 0.905213 0.905236 0.905258 0.90528 0.905303 0.905325 0.905347 0.90537
          0.905401 0.905466 0.905683 0.906552 0.910182 0.924992 0.976451 1 1 1 1 1
          1 1 1 1 1 1
        </DataArray>
        <DataArray type="Float32" Name="pg" NumberOfComponents="1" format="ascii">
          51866.4 51533.2 51199.9 50866.6 50533.2 50199.9 49866.5 49533.2 49199.8 48866.6 48533.3 48199.6
          47863.9 47518.3 47129.3 46553.3 45186.5 40617.1 25549 18476 18149 17822.1 17495.1 17168.2
          16841.3 16514.3 16187.4 15860.4 15533.5 15206.6
        </DataArray>
        <DataArray type="Float32" Name="pl" NumberOfComponents="1" format="ascii">
          110628 110301 109974 109647 109320 108993 108666 108339 108012 107685 107358 107031
          106704 106377 106050 105723 105396 105070 104743 104416 104089 103762 103435 103108
          102781 102454 102127 101800 101473 101146
        </DataArray>
        <DataArray type="Float32" Name="pc" NumberOfComponents="1" format="ascii">
          -58761.1 -58767.4 -58773.7 -58780.1 -58786.5 -58792.9 -58799.4 -58805.8 -58812.2 -58818.5 -58824.8 -58831.5
          -58840.3 -58859 -58921.1 -59170.1 -60210 -64452.4 -79193.6 -85939.7 -85939.7 -85939.7 -85939.7 -85939.7
          -85939.7 -85939.7 -85939.7 -85939.7 -85939.7 -85939.7
        </DataArray>
        <DataArray type="Float32" Name="rhoL" NumberOfComponents="1" format="ascii">
          999.855 999.855 999.855 999.855 999.855 999.854 999.854 999.854 999.854 999.854 999.854 999.854
          999.853 999.853 999.853 999.853 999.853 999.853 999.852 999.852 999.852 999.852 999.852 999.852
          999.852 999.851 999.851 999.851 999.851 999.851
        </DataArray>
        <DataArray type="Float32" Name="rhoG" NumberOfComponents="1" format="ascii">
          0.642558 0.638429 0.6343 0.630171 0.626041 0.621911 0.617781 0.613652 0.609522 0.605393 0.601264 0.597131
          0.592972 0.58869 0.583871 0.576735 0.559802 0.503193 0.316519 0.228893 0.224843 0.220793 0.216742 0.212692
          0.208641 0.204591 0.200541 0.19649 0.19244 0.18839
        </DataArray>
        <DataArray type="Float32" Name="mobL" NumberOfComponents="1" format="ascii">
          722.171 722.17 722.17 722.17 722.17 722.17 722.169 722.169 722.169 722.169 722.169 722.169
          722.168 722.168 722.168 722.168 722.168 722.167 722.167 722.167 722.167 722.167 722.166 722.166
          722.166 722.166 722.166 722.166 722.165 722.165
        </DataArray>
        <DataArray type="Float32" Name="mobG" NumberOfComponents="1" format="ascii">
          0 0 0 0 0 0 0 0 0 0 0 0
          0 0 0 0 0 0 0 0 0 0 0 0
          0 0 0 0 0 0
        </DataArray>
        <DataArray type="Float32" Name="porosity" NumberOfComponents="1" format="ascii">
          0.298489 0.298489 0.298489 0.298489 0.298488 0.298488 0.298487 0.298486 0.298484 0.298482 0.298479 0.298475
          0.29847 0.298462 0.298452 0.298439 0.29842 0.298396 0.298362 0.298317 0.298255 0.29817 0.29805 0.297876
          0.29734 0.296908 0.296125 0.294422 0.289314 0.242616
        </DataArray>
        <DataArray type="Float32" Name="temperature" NumberOfComponents="1" format="ascii">
          281.15 281.15 281.15 281.15 281.15 281.15 281.15 281.15 281.15 281.15 281.15 281.15
          281.15 281.15 281.15 281.15 281.15 281.15 281.15 281.15 281.15 281.15 281.15 281.15
          281.15 281.15 281.15 281.15 281.15 281.15
        </DataArray>
        <DataArray type="Float32" Name="phase presence" NumberOfComponents="1" format="ascii">
          3 3 3 3 3 3 3 3 3 3 3 3
          3 3 3 3 3 3 3 1 1 1 1 1
          1 1 1 1 1 1
        </DataArray>
        <DataArray type="Float32" Name="precipitateVolumeFraction_au" NumberOfComponents="1" format="ascii">
          5.06691e-10 5.06692e-10 5.06696e-10 5.067e-10 5.06704e-10 5.06707e-10 5.0671e-10 5.06714e-10 5.06717e-10 5.0672e-10 5.06723e-10 5.06725e-10
          5.06728e-10 5.0673e-10 5.06732e-10 5.06734e-10 5.06736e-10 5.06738e-10 5.0674e-10 5.06737e-10 5.06742e-10 5.06753e-10 5.06754e-10 5.49163e-10
          0.000269936 0.000269921 0.000269899 0.000269865 5.06427e-10 5.0562e-10
        </DataArray>
        <DataArray type="Float32" Name="precipitateVolumeFraction_nanoAu" NumberOfComponents="1" format="ascii">
          4.61875e-11 4.61828e-11 4.61784e-11 4.61744e-11 4.61706e-11 4.61662e-11 4.61629e-11 4.61592e-11 4.61556e-11 4.61524e-11 4.61492e-11 4.61461e-11
          4.61432e-11 4.61404e-11 4.61375e-11 4.61352e-11 4.61327e-11 4.61302e-11 4.61434e-11 4.61125e-11 4.61239e-11 4.61328e-11 4.61276e-11 7.32916e-11
          6.47319e-08 7.9822e-08 1.01766e-07 1.35385e-07 4.63125e-11 4.61397e-11
        </DataArray>
        <DataArray type="Float32" Name="precipitateVolumeFraction_d" NumberOfComponents="1" format="ascii">
          0.000755273 0.000755345 0.000755446 0.000755588 0.000755789 0.00075607 0.000756464 0.000757013 0.000757777 0.000758835 0.000760293 0.000762295
          0.00076503 0.000768753 0.000773799 0.000780616 0.000789806 0.000802182 0.00081887 0.00084146 0.000872276 0.000914864 0.000974915 0.00106219
          0.00119491 0.00141114 0.00180273 0.00265405 0.00534296 0.0286918
        </DataArray>
        <DataArray type="Float32" Name="precipitateVolumeFraction_p" NumberOfComponents="1" format="ascii">
          0.000755273 0.000755345 0.000755446 0.000755588 0.000755789 0.00075607 0.000756464 0.000757013 0.000757777 0.000758835 0.000760293 0.000762295
          0.00076503 0.000768753 0.000773799 0.000780616 0.000789806 0.000802182 0.00081887 0.00084146 0.000872276 0.000914864 0.000974915 0.00106219
          0.00119491 0.00141114 0.00180273 0.00265405 0.00534296 0.0286918
        </DataArray>
        <DataArray type="Float32" Name="K" NumberOfComponents="1" format="ascii">
          9.80733e-11 9.80731e-11 9.80729e-11 9.80725e-11 9.8072e-11 9.80713e-11 9.80703e-11 9.80689e-11 9.8067e-11 9.80643e-11 9.80606e-11 9.80555e-11
          9.80486e-11 9.80392e-11 9.80264e-11 9.80092e-11 9.7986e-11 9.79547e-11 9.79125e-11 9.78554e-11 9.77776e-11 9.76701e-11 9.75188e-11 9.72991e-11
          9.6628e-11 9.60887e-11 9.51183e-11 9.30363e-11 8.70133e-11 4.51815e-11
        </DataArray>
        <DataArray type="Float32" Name="X^w_H2O" NumberOfComponents="1" format="ascii">
          0.999837 0.999837 0.999837 0.999837 0.999837 0.999837 0.999838 0.999838 0.999838 0.999838 0.999838 0.999838
          0.999838 0.999838 0.999839 0.999839 0.999839 0.999841 0.999845 0.999853 0.999853 0.999853 0.999853 0.999853
          0.999853 0.999852 0.999849 0.999846 0.99984 0.999843
        </DataArray>
        <DataArray type="Float32" Name="X^w_Air" NumberOfComponents="1" format="ascii">
          1.57446e-05 1.56413e-05 1.5538e-05 1.54347e-05 1.53314e-05 1.5228e-05 1.51247e-05 1.50214e-05 1.49181e-05 1.48148e-05 1.47115e-05 1.4608e-05
          1.4504e-05 1.43968e-05 1.42763e-05 1.40977e-05 1.3674e-05 1.22577e-05 7.58694e-06 2.77897e-07 3.6211e-09 4.62022e-11 5.73502e-13 6.88254e-15
          7.84865e-17 8.62541e-19 8.69068e-21 7.41997e-23 4.16393e-25 1.58656e-28
        </DataArray>
        <DataArray type="Float32" Name="X^w_AuComplex" NumberOfComponents="1" format="ascii">
          5.28868e-14 5.11052e-14 5.09651e-14 4.92531e-14 4.85256e-14 4.86334e-14 4.8483e-14 4.90689e-14 4.552e-14 4.84465e-14 4.6008e-14 4.793e-14
          4.85286e-14 4.77731e-14 4.59546e-14 4.57762e-14 4.53187e-14 4.84972e-14 7.05092e-14 4.57393e-14 4.56206e-14 4.55044e-14 4.53771e-14 7.68148e-14
          7.42524e-11 1.14041e-10 1.89136e-10 3.47481e-10 1.68626e-13 1.60123e-13
        </DataArray>
        <DataArray type="Float32" Name="X^w_nanoAu" NumberOfComponents="1" format="ascii">
          -1.7299e-15 1.34336e-15 -1.2242e-15 -5.08716e-16 -2.25569e-17 8.52645e-17 -6.51521e-17 1.73448e-15 -6.00759e-16 -1.01691e-16 -1.12729e-16 5.95574e-16
          1.19413e-15 4.38583e-16 -1.6614e-16 8.69128e-16 -8.02124e-16 1.16269e-15 3.77391e-14 2.00896e-16 2.00936e-16 2.01322e-16 2.35341e-16 3.37732e-15
          2.82332e-13 3.48047e-13 4.43255e-13 5.7945e-13 1.98464e-16 1.8652e-16
        </DataArray>
        <DataArray type="Float32" Name="X^w_cyanide" NumberOfComponents="1" format="ascii">
          5.8797e-06 5.80859e-06 5.74459e-06 5.68685e-06 5.63464e-06 5.58735e-06 5.54443e-06 5.5054e-06 5.46987e-06 5.43747e-06 5.40788e-06 5.38084e-06
          5.35609e-06 5.33341e-06 5.3126e-06 5.29347e-06 5.27582e-06 5.25946e-06 5.24408e-06 5.22905e-06 5.2142e-06 5.19992e-06 5.18572e-06 5.17077e-06
          5.1541e-06 6.60427e-06 8.82635e-06 1.24995e-05 1.91949e-05 1.82976e-05
        </DataArray>
        <DataArray type="Float32" Name="X^w_citrate" NumberOfComponents="1" format="ascii">
          0.000141795 0.000141795 0.000141795 0.000141795 0.000141794 0.000141794 0.000141794 0.000141794 0.000141794 0.000141794 0.000141793 0.000141793
          0.000141792 0.000141792 0.00014179 0.000141789 0.000141787 0.000141783 0.000141779 0.000141774 0.000141764 0.000141749 0.000141727 0.000141692
          0.000141633 0.00014153 0.00014133 0.000140877 0.000139548 0.000133001
        </DataArray>
        <DataArray type="Float32" Name="X^w_substrate" NumberOfComponents="1" format="ascii">
          2.71032e-11 3.75001e-11 5.19293e-11 7.19943e-11 9.99021e-11 1.38751e-10 1.92874e-10 2.68352e-10 3.73695e-10 5.20893e-10 7.26825e-10 1.01536e-09
          1.42034e-09 1.98999e-09 2.79339e-09 3.93035e-09 5.54644e-09 7.85502e-09 1.11623e-08 1.58831e-08 2.27869e-08 3.30964e-08 4.88738e-08 7.38324e-08
          1.15158e-07 1.88165e-07 3.3012e-07 6.50868e-07 1.58881e-06 6.20574e-06
        </DataArray>
        <DataArray type="Float32" Name="m^w_H2O" NumberOfComponents="1" format="ascii">
          55491.6 55491.6 55491.6 55491.6 55491.6 55491.6 55491.6 55491.6 55491.6 55491.6 55491.6 55491.6
          55491.6 55491.6 55491.6 55491.6 55491.6 55491.7 55492 55492.4 55492.4 55492.4 55492.4 55492.4
          55492.3 55492.3 55492.1 55491.9 55491.6 55491.7
        </DataArray>
        <DataArray type="Float32" Name="m^w_Air" NumberOfComponents="1" format="ascii">
          0.54359 0.540023 0.536456 0.532889 0.529322 0.525754 0.522186 0.518619 0.515051 0.511485 0.507918 0.504347
          0.500754 0.497056 0.492892 0.486728 0.4721 0.423199 0.261941 0.00959446 0.000125019 1.59514e-06 1.98003e-08 2.37622e-10
          2.70977e-12 2.97794e-14 3.00048e-16 2.56176e-18 1.43761e-20 5.47763e-24
        </DataArray>
        <DataArray type="Float32" Name="m^w_AuComplex" NumberOfComponents="1" format="ascii">
          2.68463e-10 2.59419e-10 2.58708e-10 2.50018e-10 2.46325e-10 2.46872e-10 2.46108e-10 2.49082e-10 2.31067e-10 2.45923e-10 2.33545e-10 2.43301e-10
          2.46339e-10 2.42504e-10 2.33273e-10 2.32368e-10 2.30045e-10 2.4618e-10 3.57916e-10 2.3218e-10 2.31578e-10 2.30988e-10 2.30342e-10 3.89925e-10
          3.76917e-07 5.78889e-07 9.60085e-07 1.76387e-06 8.55971e-10 8.12809e-10
        </DataArray>
        <DataArray type="Float32" Name="m^w_nanoAu" NumberOfComponents="1" format="ascii">
          -8.78129e-12 6.81914e-12 -6.21428e-12 -2.58233e-12 -1.14503e-13 4.32818e-13 -3.30724e-13 8.80451e-12 -3.04956e-12 -5.16203e-13 -5.72233e-13 3.02323e-12
          6.0616e-12 2.22632e-12 -8.43354e-13 4.41184e-12 -4.07171e-12 5.90202e-12 1.9157e-10 1.01978e-12 1.01998e-12 1.02194e-12 1.19463e-12 1.71438e-11
          1.43316e-09 1.76674e-09 2.25003e-09 2.94138e-09 1.00744e-12 9.46806e-13
        </DataArray>
        <DataArray type="Float32" Name="m^w_cyanide" NumberOfComponents="1" format="ascii">
          0.225936 0.223203 0.220744 0.218525 0.216519 0.214702 0.213052 0.211553 0.210187 0.208942 0.207805 0.206766
          0.205815 0.204943 0.204144 0.203408 0.20273 0.202102 0.201511 0.200933 0.200362 0.199814 0.199268 0.198693
          0.198053 0.253778 0.339164 0.480309 0.737588 0.703107
        </DataArray>
        <DataArray type="Float32" Name="m^w_citrate" NumberOfComponents="1" format="ascii">
          0.749735 0.749735 0.749734 0.749734 0.749733 0.749733 0.749732 0.749731 0.74973 0.749729 0.749727 0.749725
          0.749721 0.749717 0.749711 0.749702 0.74969 0.749674 0.749652 0.749622 0.74957 0.749493 0.749374 0.749187
          0.748877 0.748335 0.747276 0.744878 0.737854 0.703234
        </DataArray>
        <DataArray type="Float32" Name="m^w_substrate" NumberOfComponents="1" format="ascii">
          1.50418e-07 2.08118e-07 2.88198e-07 3.99555e-07 5.54438e-07 7.70042e-07 1.07041e-06 1.4893e-06 2.07393e-06 2.89086e-06 4.03374e-06 5.63507e-06
          7.88264e-06 1.10441e-05 1.55028e-05 2.18127e-05 3.07816e-05 4.35938e-05 6.19484e-05 8.81483e-05 0.000126463 0.000183678 0.00027124 0.000409755
          0.000639104 0.00104428 0.0018321 0.00361219 0.00881756 0.0344406
        </DataArray>
        <DataArray type="Float32" Name="process rank" NumberOfComponents="1" format="ascii">
          0 0 0 0 0 0 0 0 0 0 0 0
          0 0 0 0 0 0 0 0 0 0 0 0
          0 0 0 0 0 0
        </DataArray>
      </CellData>
      <Points>
        <DataArray type="Float32" Name="Coordinates" NumberOfComponents="3" format="ascii">
          0 0 0 0.5 0 0 0 0.0333333 0 0.5 0.0333333 0
          0 0.0666667 0 0.5 0.0666667 0 0 0.1 0 0.5 0.1 0
          0 0.133333 0 0.5 0.133333 0 0 0.166667 0 0.5 0.166667 0
          0 0.2 0 0.5 0.2 0 0 0.233333 0 0.5 0.233333 0
          0 0.266667 0 0.5 0.266667 0 0 0.3 0 0.5 0.3 0
          0 0.333333 0 0.5 0.333333 0 0 0.366667 0 0.5 0.366667 0
          0 0.4 0 0.5 0.4 0 0 0.433333 0 0.5 0.433333 0
          0 0.466667 0 0.5 0.466667 0 0 0.5 0 0.5 0.5 0
          0 0.533333 0 0.5 0.533333 0 0 0.566667 0 0.5 0.566667 0
          0 0.6 0 0.5 0.6 0 0 0.633333 0 0.5 0.633333 0
          0 0.666667 0 0.5 0.666667 0 0 0.7 0 0.5 0.7 0
          0 0.733333 0 0.5 0.733333 0 0 0.766667 0 0.5 0.766667 0
          0 0.8 0 0.5 0.8 0 0 0.833333 0 0.5 0.833333 0
          0 0.866667 0 0.5 0.866667 0 0 0.9 0 0.5 0.9 0
          0 0.933333 0 0.5 0.933333 0 0 0.966667 0 0.5 0.966667 0
          0 1 0 0.5 1 0
        </DataArray>
      </Points>
      <Cells>
        <DataArray type="Int32" Name="connectivity" NumberOfComponents="1" format="ascii">
          0 1 3 2 2 3 5 4 4 5 7 6
          6 7 9 8 8 9 11 10 10 11 13 12
          12 13 15 14 14 15 17 16 16 17 19 18
          18 19 21 20 20 21 23 22 22 23 25 24
          24 25 27 26 26 27 29 28 28 29 31 30
          30 31 33 32 32 33 35 34 34 35 37 36
          36 37 39 38 38 39 41 40 40 41 43 42
          42 43 45 44 44 45 47 46 46 47 49 48
          48 49 51 50 50 51 53 52 52 53 55 54
          54 55 57 56 56 57 59 58 58 59 61 60
        </DataArray>
        <DataArray type="Int32" Name="offsets" NumberOfComponents="1" format="ascii">
          4 8 12 16 20 24 28 32 36 40 44 48
          52 56 60 64 68 72 76 80 84 88 92 96
          100 104 108 112 116 120
        </DataArray>
        <DataArray type="UInt8" Name="types" NumberOfComponents="1" format="ascii">
          9 9 9 9 9 9 9 9 9 9 9 9
          9 9 9 9 9 9 9 9 9 9 9 9
          9 9 9 9 9 9
        </DataArray>
      </Cells>
    </Piece>
  </UnstructuredGrid>
</VTKFile>
