<?xml version="1.0"?>
<VTKFile type="UnstructuredGrid" version="0.1" byte_order="LittleEndian">
  <UnstructuredGrid>
    <Piece NumberOfCells="30" NumberOfPoints="62">
      <CellData Scalars="Sg">
        <DataArray type="Float32" Name="Sg" NumberOfComponents="1" format="ascii">
          0 0 0 0 0 0 0 0 0 0 0 0
          0 0 0 0 0 0 0 0 0 0 0 0
          0 0 0 0 0 0
        </DataArray>
        <DataArray type="Float32" Name="Sl" NumberOfComponents="1" format="ascii">
          1 1 1 1 1 1 1 1 1 1 1 1
          1 1 1 1 1 1 1 1 1 1 1 1
          1 1 1 1 1 1
        </DataArray>
        <DataArray type="Float32" Name="pg" NumberOfComponents="1" format="ascii">
          24687.8 24360.9 24034 23707 23380.1 23053.1 22726.2 22399.3 22072.3 21745.4 21418.4 21091.5
          20764.6 20437.6 20110.7 19783.7 19456.8 19129.9 18802.9 18476 18149 17822.1 17495.1 17168.2
          16841.3 16514.3 16187.4 15860.4 15533.5 15207.3
        </DataArray>
        <DataArray type="Float32" Name="pl" NumberOfComponents="1" format="ascii">
          110628 110301 109974 109647 109320 108993 108666 108339 108012 107685 107358 107031
          106704 106377 106050 105723 105396 105070 104743 104416 104089 103762 103435 103108
          102781 102454 102127 101800 101473 101147
        </DataArray>
        <DataArray type="Float32" Name="pc" NumberOfComponents="1" format="ascii">
          -85939.7 -85939.7 -85939.7 -85939.7 -85939.7 -85939.7 -85939.7 -85939.7 -85939.7 -85939.7 -85939.7 -85939.7
          -85939.7 -85939.7 -85939.7 -85939.7 -85939.7 -85939.7 -85939.7 -85939.7 -85939.7 -85939.7 -85939.7 -85939.7
          -85939.7 -85939.7 -85939.7 -85939.7 -85939.7 -85939.7
        </DataArray>
        <DataArray type="Float32" Name="rhoL" NumberOfComponents="1" format="ascii">
          999.855 999.855 999.855 999.855 999.855 999.854 999.854 999.854 999.854 999.854 999.854 999.854
          999.853 999.853 999.853 999.853 999.853 999.853 999.852 999.852 999.852 999.852 999.852 999.852
          999.852 999.851 999.851 999.851 999.851 999.851
        </DataArray>
        <DataArray type="Float32" Name="rhoG" NumberOfComponents="1" format="ascii">
          0.30585 0.3018 0.29775 0.293699 0.289649 0.285598 0.281548 0.277498 0.273447 0.269397 0.265347 0.261296
          0.257246 0.253195 0.249145 0.245095 0.241044 0.236994 0.232944 0.228893 0.224843 0.220793 0.216742 0.212692
          0.208641 0.204591 0.200541 0.19649 0.19244 0.188399
        </DataArray>
        <DataArray type="Float32" Name="mobL" NumberOfComponents="1" format="ascii">
          722.171 722.17 722.17 722.17 722.17 722.17 722.169 722.169 722.169 722.169 722.169 722.169
          722.168 722.168 722.168 722.168 722.168 722.167 722.167 722.167 722.167 722.167 722.166 722.166
          722.166 722.166 722.166 722.166 722.165 722.165
        </DataArray>
        <DataArray type="Float32" Name="mobG" NumberOfComponents="1" format="ascii">
          0 0 0 0 0 0 0 0 0 0 0 0
          0 0 0 0 0 0 0 0 0 0 0 0
          0 0 0 0 0 0
        </DataArray>
        <DataArray type="Float32" Name="porosity" NumberOfComponents="1" format="ascii">
          0.298636 0.298636 0.298635 0.298635 0.298635 0.298634 0.298634 0.298633 0.298631 0.298629 0.298626 0.298623
          0.298618 0.298611 0.298601 0.298589 0.298572 0.298548 0.298517 0.298474 0.298416 0.298334 0.298217 0.298045
          0.297506 0.297051 0.296172 0.294001 0.284929 0.0696842
        </DataArray>
        <DataArray type="Float32" Name="temperature" NumberOfComponents="1" format="ascii">
          281.15 281.15 281.15 281.15 281.15 281.15 281.15 281.15 281.15 281.15 281.15 281.15
          281.15 281.15 281.15 281.15 281.15 281.15 281.15 281.15 281.15 281.15 281.15 281.15
          281.15 281.15 281.15 281.15 281.15 281.15
        </DataArray>
        <DataArray type="Float32" Name="phase presence" NumberOfComponents="1" format="ascii">
          1 1 1 1 1 1 1 1 1 1 1 1
          1 1 1 1 1 1 1 1 1 1 1 1
          1 1 1 1 1 1
        </DataArray>
        <DataArray type="Float32" Name="precipitateVolumeFraction_au" NumberOfComponents="1" format="ascii">
          5.52653e-10 5.52764e-10 5.52743e-10 5.52701e-10 5.52764e-10 5.52758e-10 5.52749e-10 5.52755e-10 5.5275e-10 5.52793e-10 5.52755e-10 5.52754e-10
          5.52763e-10 5.52778e-10 5.52729e-10 5.52746e-10 5.52743e-10 5.52747e-10 5.52784e-10 5.52723e-10 5.52739e-10 5.52759e-10 5.52859e-10 8.42493e-10
          0.00026994 0.000269924 0.000269899 0.000269853 5.52262e-10 5.51226e-10
        </DataArray>
        <DataArray type="Float32" Name="precipitateVolumeFraction_nanoAu" NumberOfComponents="1" format="ascii">
          1.27093e-13 1.274e-13 1.27357e-13 1.27288e-13 1.27387e-13 1.27376e-13 1.27362e-13 1.27366e-13 1.27358e-13 1.27385e-13 1.27358e-13 1.27356e-13
          1.27358e-13 1.27361e-13 1.27338e-13 1.27342e-13 1.27339e-13 1.27336e-13 1.27343e-13 1.2732e-13 1.27317e-13 1.27329e-13 1.39248e-13 2.58059e-11
          6.0415e-08 7.6741e-08 1.022e-07 1.45589e-07 4.77431e-13 4.69689e-13
        </DataArray>
        <DataArray type="Float32" Name="precipitateVolumeFraction_d" NumberOfComponents="1" format="ascii">
          0.000682135 0.000682201 0.000682295 0.000682426 0.000682612 0.000682871 0.000683235 0.000683743 0.000684449 0.000685427 0.000686776 0.00068863
          0.000691165 0.00069462 0.000699311 0.00070566 0.000714241 0.000725834 0.000741529 0.000762884 0.000792212 0.000833103 0.000891456 0.0009777
          0.00111209 0.00133955 0.00177917 0.00286446 0.00753576 0.115158
        </DataArray>
        <DataArray type="Float32" Name="precipitateVolumeFraction_p" NumberOfComponents="1" format="ascii">
          0.000682135 0.000682201 0.000682295 0.000682426 0.000682612 0.000682871 0.000683235 0.000683743 0.000684449 0.000685427 0.000686776 0.00068863
          0.000691165 0.00069462 0.000699311 0.00070566 0.000714241 0.000725834 0.000741529 0.000762884 0.000792212 0.000833103 0.000891456 0.0009777
          0.00111209 0.00133955 0.00177917 0.00286446 0.00753576 0.115158
        </DataArray>
        <DataArray type="Float32" Name="K" NumberOfComponents="1" format="ascii">
          9.82585e-11 9.82584e-11 9.82581e-11 9.82578e-11 9.82573e-11 9.82567e-11 9.82558e-11 9.82545e-11 9.82527e-11 9.82502e-11 9.82468e-11 9.82421e-11
          9.82357e-11 9.82269e-11 9.8215e-11 9.81989e-11 9.81772e-11 9.81478e-11 9.81081e-11 9.80541e-11 9.79799e-11 9.78765e-11 9.77292e-11 9.75118e-11
          9.68352e-11 9.62669e-11 9.51764e-11 9.25275e-11 8.20996e-11 7.09535e-13
        </DataArray>
        <DataArray type="Float32" Name="X^w_H2O" NumberOfComponents="1" format="ascii">
          0.999853 0.999853 0.999853 0.999853 0.999853 0.999853 0.999853 0.999853 0.999853 0.999853 0.999853 0.999853
          0.999853 0.999853 0.999853 0.999853 0.999853 0.999853 0.999853 0.999853 0.999853 0.999853 0.999853 0.999853
          0.999853 0.999852 0.99985 0.999846 0.999839 0.99984
        </DataArray>
        <DataArray type="Float32" Name="X^w_Air" NumberOfComponents="1" format="ascii">
          0 0 0 0 0 0 0 0 0 0 0 0
          0 0 0 0 0 0 0 0 0 0 0 0
          0 0 0 0 0 0
        </DataArray>
        <DataArray type="Float32" Name="X^w_AuComplex" NumberOfComponents="1" format="ascii">
          1.44454e-16 1.44752e-16 1.44709e-16 1.44639e-16 1.44736e-16 1.44724e-16 1.44709e-16 1.44712e-16 1.44703e-16 1.44729e-16 1.447e-16 1.44696e-16
          1.44697e-16 1.44699e-16 1.44673e-16 1.44675e-16 1.44669e-16 1.44664e-16 1.44667e-16 1.44636e-16 1.44626e-16 1.44628e-16 1.58018e-16 2.94156e-14
          6.88998e-11 1.07452e-10 1.84482e-10 3.6393e-10 1.84584e-15 1.79367e-15
        </DataArray>
        <DataArray type="Float32" Name="X^w_nanoAu" NumberOfComponents="1" format="ascii">
          5.53553e-19 5.54874e-19 5.54687e-19 5.54394e-19 5.54819e-19 5.54773e-19 5.54713e-19 5.54729e-19 5.54698e-19 5.54812e-19 5.54695e-19 5.54684e-19
          5.54692e-19 5.54706e-19 5.54608e-19 5.54623e-19 5.54606e-19 5.54594e-19 5.54619e-19 5.54553e-19 5.58235e-19 9.00762e-19 3.26005e-17 2.9619e-15
          2.63856e-13 3.35344e-13 4.4683e-13 6.26534e-13 2.07239e-18 1.99229e-18
        </DataArray>
        <DataArray type="Float32" Name="X^w_cyanide" NumberOfComponents="1" format="ascii">
          5.07508e-06 5.07503e-06 5.07499e-06 5.07494e-06 5.0749e-06 5.07485e-06 5.07481e-06 5.07476e-06 5.07471e-06 5.07467e-06 5.07462e-06 5.07456e-06
          5.07451e-06 5.07445e-06 5.07438e-06 5.0743e-06 5.0742e-06 5.07408e-06 5.07393e-06 5.07372e-06 5.07345e-06 5.07305e-06 5.07247e-06 5.07158e-06
          5.07064e-06 6.4406e-06 8.57612e-06 1.22396e-05 1.94536e-05 1.92094e-05
        </DataArray>
        <DataArray type="Float32" Name="X^w_citrate" NumberOfComponents="1" format="ascii">
          0.000141796 0.000141796 0.000141796 0.000141796 0.000141796 0.000141796 0.000141796 0.000141796 0.000141796 0.000141796 0.000141796 0.000141796
          0.000141796 0.000141796 0.000141795 0.000141795 0.000141795 0.000141794 0.000141793 0.000141792 0.00014179 0.000141788 0.000141784 0.000141777
          0.000141767 0.00014175 0.000141717 0.000141637 0.000141379 0.000139603
        </DataArray>
        <DataArray type="Float32" Name="X^w_substrate" NumberOfComponents="1" format="ascii">
          5.67474e-12 7.8495e-12 1.08571e-11 1.50166e-11 2.07691e-11 2.8725e-11 3.97298e-11 5.49542e-11 7.60223e-11 1.05189e-10 1.45592e-10 2.01608e-10
          2.79363e-10 3.87471e-10 5.38121e-10 7.48696e-10 1.04425e-09 1.46137e-09 2.05442e-09 2.90594e-09 4.14478e-09 5.97926e-09 8.76171e-09 1.31239e-08
          2.02891e-08 3.28881e-08 5.74885e-08 1.14605e-07 2.97906e-07 1.5499e-06
        </DataArray>
        <DataArray type="Float32" Name="m^w_H2O" NumberOfComponents="1" format="ascii">
          55492.6 55492.6 55492.5 55492.5 55492.5 55492.5 55492.5 55492.5 55492.5 55492.5 55492.5 55492.5
          55492.5 55492.4 55492.4 55492.4 55492.4 55492.4 55492.4 55492.4 55492.4 55492.4 55492.4 55492.4
          55492.3 55492.3 55492.1 55491.9 55491.5 55491.6
        </DataArray>
        <DataArray type="Float32" Name="m^w_Air" NumberOfComponents="1" format="ascii">
          0 0 0 0 0 0 0 0 0 0 0 0
          0 0 0 0 0 0 0 0 0 0 0 0
          0 0 0 0 0 0
        </DataArray>
        <DataArray type="Float32" Name="m^w_AuComplex" NumberOfComponents="1" format="ascii">
          7.33272e-13 7.34788e-13 7.34568e-13 7.34216e-13 7.34704e-13 7.34644e-13 7.34568e-13 7.34582e-13 7.34537e-13 7.3467e-13 7.34523e-13 7.34502e-13
          7.34505e-13 7.34517e-13 7.34386e-13 7.34397e-13 7.34365e-13 7.34336e-13 7.34355e-13 7.34198e-13 7.34148e-13 7.34155e-13 8.02127e-13 1.49319e-10
          3.49747e-07 5.45446e-07 9.36459e-07 1.84737e-06 9.36975e-12 9.10496e-12
        </DataArray>
        <DataArray type="Float32" Name="m^w_nanoAu" NumberOfComponents="1" format="ascii">
          2.80994e-15 2.81664e-15 2.81569e-15 2.8142e-15 2.81636e-15 2.81612e-15 2.81582e-15 2.8159e-15 2.81574e-15 2.81632e-15 2.81573e-15 2.81567e-15
          2.81571e-15 2.81578e-15 2.81528e-15 2.81536e-15 2.81527e-15 2.81521e-15 2.81534e-15 2.815e-15 2.83369e-15 4.57241e-15 1.65486e-13 1.50351e-11
          1.33937e-09 1.70226e-09 2.26818e-09 3.18039e-09 1.05198e-14 1.01132e-14
        </DataArray>
        <DataArray type="Float32" Name="m^w_cyanide" NumberOfComponents="1" format="ascii">
          0.195017 0.195015 0.195013 0.195012 0.19501 0.195008 0.195006 0.195005 0.195003 0.195001 0.194999 0.194997
          0.194995 0.194992 0.19499 0.194987 0.194983 0.194978 0.194972 0.194964 0.194954 0.194938 0.194916 0.194882
          0.194846 0.247488 0.329548 0.47032 0.747531 0.738144
        </DataArray>
        <DataArray type="Float32" Name="m^w_citrate" NumberOfComponents="1" format="ascii">
          0.749742 0.749742 0.749742 0.749742 0.749742 0.749742 0.749741 0.749741 0.749741 0.749741 0.74974 0.74974
          0.749739 0.749738 0.749737 0.749735 0.749733 0.749729 0.749725 0.749718 0.749709 0.749695 0.749674 0.749641
          0.749587 0.749498 0.749319 0.748899 0.747533 0.738145
        </DataArray>
        <DataArray type="Float32" Name="m^w_substrate" NumberOfComponents="1" format="ascii">
          3.14938e-08 4.35633e-08 6.02552e-08 8.33394e-08 1.15264e-07 1.59419e-07 2.20493e-07 3.04986e-07 4.2191e-07 5.8378e-07 8.08009e-07 1.11889e-06
          1.55041e-06 2.15039e-06 2.98647e-06 4.15512e-06 5.79538e-06 8.11032e-06 1.14016e-05 1.61274e-05 2.30027e-05 3.31837e-05 4.86258e-05 7.28347e-05
          0.0001126 0.000182522 0.000319049 0.000636034 0.00165332 0.00860164
        </DataArray>
        <DataArray type="Float32" Name="process rank" NumberOfComponents="1" format="ascii">
          0 0 0 0 0 0 0 0 0 0 0 0
          0 0 0 0 0 0 0 0 0 0 0 0
          0 0 0 0 0 0
        </DataArray>
      </CellData>
      <Points>
        <DataArray type="Float32" Name="Coordinates" NumberOfComponents="3" format="ascii">
          0 0 0 0.5 0 0 0 0.0333333 0 0.5 0.0333333 0
          0 0.0666667 0 0.5 0.0666667 0 0 0.1 0 0.5 0.1 0
          0 0.133333 0 0.5 0.133333 0 0 0.166667 0 0.5 0.166667 0
          0 0.2 0 0.5 0.2 0 0 0.233333 0 0.5 0.233333 0
          0 0.266667 0 0.5 0.266667 0 0 0.3 0 0.5 0.3 0
          0 0.333333 0 0.5 0.333333 0 0 0.366667 0 0.5 0.366667 0
          0 0.4 0 0.5 0.4 0 0 0.433333 0 0.5 0.433333 0
          0 0.466667 0 0.5 0.466667 0 0 0.5 0 0.5 0.5 0
          0 0.533333 0 0.5 0.533333 0 0 0.566667 0 0.5 0.566667 0
          0 0.6 0 0.5 0.6 0 0 0.633333 0 0.5 0.633333 0
          0 0.666667 0 0.5 0.666667 0 0 0.7 0 0.5 0.7 0
          0 0.733333 0 0.5 0.733333 0 0 0.766667 0 0.5 0.766667 0
          0 0.8 0 0.5 0.8 0 0 0.833333 0 0.5 0.833333 0
          0 0.866667 0 0.5 0.866667 0 0 0.9 0 0.5 0.9 0
          0 0.933333 0 0.5 0.933333 0 0 0.966667 0 0.5 0.966667 0
          0 1 0 0.5 1 0
        </DataArray>
      </Points>
      <Cells>
        <DataArray type="Int32" Name="connectivity" NumberOfComponents="1" format="ascii">
          0 1 3 2 2 3 5 4 4 5 7 6
          6 7 9 8 8 9 11 10 10 11 13 12
          12 13 15 14 14 15 17 16 16 17 19 18
          18 19 21 20 20 21 23 22 22 23 25 24
          24 25 27 26 26 27 29 28 28 29 31 30
          30 31 33 32 32 33 35 34 34 35 37 36
          36 37 39 38 38 39 41 40 40 41 43 42
          42 43 45 44 44 45 47 46 46 47 49 48
          48 49 51 50 50 51 53 52 52 53 55 54
          54 55 57 56 56 57 59 58 58 59 61 60
        </DataArray>
        <DataArray type="Int32" Name="offsets" NumberOfComponents="1" format="ascii">
          4 8 12 16 20 24 28 32 36 40 44 48
          52 56 60 64 68 72 76 80 84 88 92 96
          100 104 108 112 116 120
        </DataArray>
        <DataArray type="UInt8" Name="types" NumberOfComponents="1" format="ascii">
          9 9 9 9 9 9 9 9 9 9 9 9
          9 9 9 9 9 9 9 9 9 9 9 9
          9 9 9 9 9 9
        </DataArray>
      </Cells>
    </Piece>
  </UnstructuredGrid>
</VTKFile>
