<?xml version="1.0"?>
<VTKFile type="UnstructuredGrid" version="0.1" byte_order="LittleEndian">
  <UnstructuredGrid>
    <Piece NumberOfCells="30" NumberOfPoints="62">
      <CellData Scalars="Sg">
        <DataArray type="Float32" Name="Sg" NumberOfComponents="1" format="ascii">
          0 0 0 0 0 0 0 0 0 0 0 0
          0 0 0 0 0 0 0 0 0 0 0 0
          0 0 0 0 0 0
        </DataArray>
        <DataArray type="Float32" Name="Sl" NumberOfComponents="1" format="ascii">
          1 1 1 1 1 1 1 1 1 1 1 1
          1 1 1 1 1 1 1 1 1 1 1 1
          1 1 1 1 1 1
        </DataArray>
        <DataArray type="Float32" Name="pg" NumberOfComponents="1" format="ascii">
          24687.8 24360.9 24034 23707 23380.1 23053.1 22726.2 22399.3 22072.3 21745.4 21418.4 21091.5
          20764.6 20437.6 20110.7 19783.7 19456.8 19129.8 18802.9 18476 18149 17822.1 17495.1 17168.2
          16841.3 16514.3 16187.4 15860.4 15533.5 15209.6
        </DataArray>
        <DataArray type="Float32" Name="pl" NumberOfComponents="1" format="ascii">
          110628 110301 109974 109647 109320 108993 108666 108339 108012 107685 107358 107031
          106704 106377 106050 105723 105396 105070 104743 104416 104089 103762 103435 103108
          102781 102454 102127 101800 101473 101149
        </DataArray>
        <DataArray type="Float32" Name="pc" NumberOfComponents="1" format="ascii">
          -85939.7 -85939.7 -85939.7 -85939.7 -85939.7 -85939.7 -85939.7 -85939.7 -85939.7 -85939.7 -85939.7 -85939.7
          -85939.7 -85939.7 -85939.7 -85939.7 -85939.7 -85939.7 -85939.7 -85939.7 -85939.7 -85939.7 -85939.7 -85939.7
          -85939.7 -85939.7 -85939.7 -85939.7 -85939.7 -85939.7
        </DataArray>
        <DataArray type="Float32" Name="rhoL" NumberOfComponents="1" format="ascii">
          999.855 999.855 999.855 999.855 999.855 999.854 999.854 999.854 999.854 999.854 999.854 999.854
          999.853 999.853 999.853 999.853 999.853 999.853 999.852 999.852 999.852 999.852 999.852 999.852
          999.852 999.851 999.851 999.851 999.851 999.851
        </DataArray>
        <DataArray type="Float32" Name="rhoG" NumberOfComponents="1" format="ascii">
          0.30585 0.3018 0.29775 0.293699 0.289649 0.285598 0.281548 0.277498 0.273447 0.269397 0.265347 0.261296
          0.257246 0.253195 0.249145 0.245095 0.241044 0.236994 0.232944 0.228893 0.224843 0.220793 0.216742 0.212692
          0.208641 0.204591 0.200541 0.19649 0.19244 0.188427
        </DataArray>
        <DataArray type="Float32" Name="mobL" NumberOfComponents="1" format="ascii">
          722.171 722.17 722.17 722.17 722.17 722.17 722.169 722.169 722.169 722.169 722.169 722.169
          722.168 722.168 722.168 722.168 722.168 722.167 722.167 722.167 722.167 722.167 722.166 722.166
          722.166 722.166 722.166 722.166 722.165 722.165
        </DataArray>
        <DataArray type="Float32" Name="mobG" NumberOfComponents="1" format="ascii">
          0 0 0 0 0 0 0 0 0 0 0 0
          0 0 0 0 0 0 0 0 0 0 0 0
          0 0 0 0 0 0
        </DataArray>
        <DataArray type="Float32" Name="porosity" NumberOfComponents="1" format="ascii">
          0.298844 0.298843 0.298843 0.298843 0.298843 0.298842 0.298842 0.298841 0.29884 0.298838 0.298835 0.298832
          0.298828 0.298822 0.298814 0.298802 0.298787 0.298767 0.29874 0.298702 0.29865 0.298577 0.298473 0.298317
          0.2978 0.297372 0.296514 0.294237 0.28296 0.0449183
        </DataArray>
        <DataArray type="Float32" Name="temperature" NumberOfComponents="1" format="ascii">
          281.15 281.15 281.15 281.15 281.15 281.15 281.15 281.15 281.15 281.15 281.15 281.15
          281.15 281.15 281.15 281.15 281.15 281.15 281.15 281.15 281.15 281.15 281.15 281.15
          281.15 281.15 281.15 281.15 281.15 281.15
        </DataArray>
        <DataArray type="Float32" Name="phase presence" NumberOfComponents="1" format="ascii">
          1 1 1 1 1 1 1 1 1 1 1 1
          1 1 1 1 1 1 1 1 1 1 1 1
          1 1 1 1 1 1
        </DataArray>
        <DataArray type="Float32" Name="precipitateVolumeFraction_au" NumberOfComponents="1" format="ascii">
          5.53783e-10 5.52776e-10 5.52751e-10 5.52725e-10 5.52749e-10 5.52714e-10 5.52745e-10 5.52779e-10 5.52745e-10 5.52791e-10 5.52704e-10 5.52753e-10
          5.52719e-10 5.52762e-10 5.52744e-10 5.52726e-10 5.5277e-10 5.52707e-10 5.52696e-10 5.52802e-10 5.5268e-10 5.52467e-10 5.53064e-10 1.24078e-09
          0.000269941 0.000269925 0.0002699 0.000269851 5.52239e-10 5.51059e-10
        </DataArray>
        <DataArray type="Float32" Name="precipitateVolumeFraction_nanoAu" NumberOfComponents="1" format="ascii">
          1.23885e-13 1.2366e-13 1.23654e-13 1.23649e-13 1.23654e-13 1.23646e-13 1.23653e-13 1.2366e-13 1.23653e-13 1.23663e-13 1.23643e-13 1.23653e-13
          1.23646e-13 1.23654e-13 1.23649e-13 1.23644e-13 1.23652e-13 1.23636e-13 1.2363e-13 1.2365e-13 1.23617e-13 1.23585e-13 1.36058e-13 2.58464e-11
          6.03626e-08 7.66842e-08 1.02147e-07 1.45569e-07 4.74208e-13 4.67067e-13
        </DataArray>
        <DataArray type="Float32" Name="precipitateVolumeFraction_d" NumberOfComponents="1" format="ascii">
          0.000578219 0.000578278 0.00057836 0.000578476 0.000578639 0.000578867 0.000579186 0.00057963 0.000580248 0.000581102 0.00058228 0.000583897
          0.000586109 0.000589123 0.000593218 0.000598766 0.000606272 0.000616432 0.000630217 0.000649034 0.000674982 0.000711358 0.000763652 0.000841737
          0.000965223 0.001179 0.00160812 0.00274671 0.00851985 0.127541
        </DataArray>
        <DataArray type="Float32" Name="precipitateVolumeFraction_p" NumberOfComponents="1" format="ascii">
          0.000578219 0.000578278 0.00057836 0.000578476 0.000578639 0.000578867 0.000579186 0.00057963 0.000580248 0.000581102 0.00058228 0.000583897
          0.000586109 0.000589123 0.000593218 0.000598766 0.000606272 0.000616432 0.000630217 0.000649034 0.000674982 0.000711358 0.000763652 0.000841737
          0.000965223 0.001179 0.00160812 0.00274671 0.00851985 0.127541
        </DataArray>
        <DataArray type="Float32" Name="K" NumberOfComponents="1" format="ascii">
          9.85222e-11 9.85221e-11 9.85219e-11 9.85216e-11 9.85211e-11 9.85206e-11 9.85198e-11 9.85186e-11 9.85171e-11 9.85149e-11 9.85119e-11 9.85078e-11
          9.85022e-11 9.84945e-11 9.84841e-11 9.847e-11 9.8451e-11 9.84252e-11 9.83902e-11 9.83425e-11 9.82767e-11 9.81845e-11 9.80521e-11 9.78547e-11
          9.72036e-11 9.66678e-11 9.55995e-11 9.2812e-11 7.99691e-11 1.80311e-13
        </DataArray>
        <DataArray type="Float32" Name="X^w_H2O" NumberOfComponents="1" format="ascii">
          0.999853 0.999853 0.999853 0.999853 0.999853 0.999853 0.999853 0.999853 0.999853 0.999853 0.999853 0.999853
          0.999853 0.999853 0.999853 0.999853 0.999853 0.999853 0.999853 0.999853 0.999853 0.999853 0.999853 0.999853
          0.999853 0.999852 0.99985 0.999846 0.999839 0.99984
        </DataArray>
        <DataArray type="Float32" Name="X^w_Air" NumberOfComponents="1" format="ascii">
          0 0 0 0 0 0 0 0 0 0 0 0
          0 0 0 0 0 0 0 0 0 0 0 0
          0 0 0 0 0 0
        </DataArray>
        <DataArray type="Float32" Name="X^w_AuComplex" NumberOfComponents="1" format="ascii">
          1.41351e-16 1.41094e-16 1.41088e-16 1.41081e-16 1.41087e-16 1.41078e-16 1.41086e-16 1.41094e-16 1.41085e-16 1.41097e-16 1.41074e-16 1.41086e-16
          1.41076e-16 1.41086e-16 1.41079e-16 1.41072e-16 1.4108e-16 1.41059e-16 1.41049e-16 1.41067e-16 1.41023e-16 1.40976e-16 1.54919e-16 2.94581e-14
          6.8835e-11 1.07371e-10 1.84405e-10 3.64019e-10 1.8358e-15 1.78759e-15
        </DataArray>
        <DataArray type="Float32" Name="X^w_nanoAu" NumberOfComponents="1" format="ascii">
          6.46768e-19 6.45607e-19 6.45578e-19 6.45548e-19 6.45575e-19 6.45535e-19 6.4557e-19 6.45608e-19 6.45569e-19 6.45619e-19 6.45518e-19 6.45571e-19
          6.4553e-19 6.45575e-19 6.45547e-19 6.45519e-19 6.45558e-19 6.4547e-19 6.45439e-19 6.45646e-19 6.54433e-19 1.3488e-18 5.5139e-17 4.21604e-15
          3.16203e-13 4.01987e-13 5.35824e-13 7.49479e-13 2.46859e-18 2.37339e-18
        </DataArray>
        <DataArray type="Float32" Name="X^w_cyanide" NumberOfComponents="1" format="ascii">
          5.07052e-06 5.07052e-06 5.07052e-06 5.07052e-06 5.07052e-06 5.07052e-06 5.07052e-06 5.07052e-06 5.07051e-06 5.07051e-06 5.07049e-06 5.07048e-06
          5.07046e-06 5.07043e-06 5.0704e-06 5.07034e-06 5.07028e-06 5.07018e-06 5.07005e-06 5.06987e-06 5.06962e-06 5.06926e-06 5.06874e-06 5.06796e-06
          5.06723e-06 6.43688e-06 8.57261e-06 1.22384e-05 1.94644e-05 1.92387e-05
        </DataArray>
        <DataArray type="Float32" Name="X^w_citrate" NumberOfComponents="1" format="ascii">
          0.000141796 0.000141796 0.000141796 0.000141796 0.000141796 0.000141796 0.000141796 0.000141796 0.000141796 0.000141796 0.000141796 0.000141796
          0.000141795 0.000141795 0.000141795 0.000141795 0.000141794 0.000141793 0.000141792 0.000141791 0.000141789 0.000141787 0.000141783 0.000141777
          0.000141768 0.000141754 0.000141727 0.000141664 0.000141457 0.000139817
        </DataArray>
        <DataArray type="Float32" Name="X^w_substrate" NumberOfComponents="1" format="ascii">
          1.54843e-11 2.05442e-11 2.72561e-11 3.6159e-11 4.79684e-11 6.36338e-11 8.44164e-11 1.11992e-10 1.48592e-10 1.97188e-10 2.6175e-10 3.47594e-10
          4.61868e-10 6.14233e-10 8.17831e-10 1.0907e-09 1.45788e-09 1.95463e-09 2.63155e-09 3.5629e-09 4.86101e-09 6.70212e-09 9.37625e-09 1.33907e-08
          1.97076e-08 3.03639e-08 5.04106e-08 9.57874e-08 2.42978e-07 1.39948e-06
        </DataArray>
        <DataArray type="Float32" Name="m^w_H2O" NumberOfComponents="1" format="ascii">
          55492.6 55492.6 55492.5 55492.5 55492.5 55492.5 55492.5 55492.5 55492.5 55492.5 55492.5 55492.5
          55492.5 55492.4 55492.4 55492.4 55492.4 55492.4 55492.4 55492.4 55492.4 55492.4 55492.4 55492.4
          55492.3 55492.3 55492.1 55491.9 55491.5 55491.6
        </DataArray>
        <DataArray type="Float32" Name="m^w_Air" NumberOfComponents="1" format="ascii">
          0 0 0 0 0 0 0 0 0 0 0 0
          0 0 0 0 0 0 0 0 0 0 0 0
          0 0 0 0 0 0
        </DataArray>
        <DataArray type="Float32" Name="m^w_AuComplex" NumberOfComponents="1" format="ascii">
          7.17522e-13 7.16218e-13 7.16186e-13 7.16152e-13 7.16183e-13 7.16138e-13 7.16177e-13 7.1622e-13 7.16174e-13 7.16231e-13 7.16116e-13 7.16175e-13
          7.16127e-13 7.16175e-13 7.16142e-13 7.16105e-13 7.16144e-13 7.16038e-13 7.1599e-13 7.16079e-13 7.15858e-13 7.15615e-13 7.86395e-13 1.49534e-10
          3.49417e-07 5.45032e-07 9.36069e-07 1.84782e-06 9.31881e-12 9.0741e-12
        </DataArray>
        <DataArray type="Float32" Name="m^w_nanoAu" NumberOfComponents="1" format="ascii">
          3.28311e-15 3.27722e-15 3.27707e-15 3.27692e-15 3.27705e-15 3.27685e-15 3.27703e-15 3.27722e-15 3.27702e-15 3.27727e-15 3.27676e-15 3.27703e-15
          3.27682e-15 3.27705e-15 3.27691e-15 3.27676e-15 3.27696e-15 3.27651e-15 3.27636e-15 3.2774e-15 3.32201e-15 6.84674e-15 2.79895e-13 2.14013e-11
          1.6051e-09 2.04055e-09 2.71993e-09 3.80448e-09 1.25309e-14 1.20477e-14
        </DataArray>
        <DataArray type="Float32" Name="m^w_cyanide" NumberOfComponents="1" format="ascii">
          0.194842 0.194842 0.194842 0.194842 0.194842 0.194842 0.194842 0.194842 0.194841 0.194841 0.194841 0.19484
          0.194839 0.194838 0.194837 0.194835 0.194832 0.194828 0.194823 0.194816 0.194807 0.194793 0.194773 0.194743
          0.194715 0.247345 0.329413 0.470276 0.747942 0.739272
        </DataArray>
        <DataArray type="Float32" Name="m^w_citrate" NumberOfComponents="1" format="ascii">
          0.749742 0.749742 0.749742 0.749742 0.749742 0.749741 0.749741 0.749741 0.74974 0.74974 0.749739 0.749738
          0.749738 0.749736 0.749735 0.749732 0.74973 0.749726 0.749721 0.749713 0.749704 0.74969 0.749669 0.749639
          0.749592 0.749517 0.749373 0.74904 0.747945 0.739273
        </DataArray>
        <DataArray type="Float32" Name="m^w_substrate" NumberOfComponents="1" format="ascii">
          8.59351e-08 1.14017e-07 1.51266e-07 2.00676e-07 2.66216e-07 3.53156e-07 4.68495e-07 6.21537e-07 8.24658e-07 1.09436e-06 1.45266e-06 1.92908e-06
          2.56328e-06 3.40888e-06 4.5388e-06 6.05317e-06 8.09094e-06 1.08478e-05 1.46046e-05 1.97734e-05 2.69776e-05 3.71954e-05 5.20363e-05 7.43158e-05
          0.000109373 0.000168513 0.000279768 0.0005316 0.00134848 0.00776683
        </DataArray>
        <DataArray type="Float32" Name="process rank" NumberOfComponents="1" format="ascii">
          0 0 0 0 0 0 0 0 0 0 0 0
          0 0 0 0 0 0 0 0 0 0 0 0
          0 0 0 0 0 0
        </DataArray>
      </CellData>
      <Points>
        <DataArray type="Float32" Name="Coordinates" NumberOfComponents="3" format="ascii">
          0 0 0 0.5 0 0 0 0.0333333 0 0.5 0.0333333 0
          0 0.0666667 0 0.5 0.0666667 0 0 0.1 0 0.5 0.1 0
          0 0.133333 0 0.5 0.133333 0 0 0.166667 0 0.5 0.166667 0
          0 0.2 0 0.5 0.2 0 0 0.233333 0 0.5 0.233333 0
          0 0.266667 0 0.5 0.266667 0 0 0.3 0 0.5 0.3 0
          0 0.333333 0 0.5 0.333333 0 0 0.366667 0 0.5 0.366667 0
          0 0.4 0 0.5 0.4 0 0 0.433333 0 0.5 0.433333 0
          0 0.466667 0 0.5 0.466667 0 0 0.5 0 0.5 0.5 0
          0 0.533333 0 0.5 0.533333 0 0 0.566667 0 0.5 0.566667 0
          0 0.6 0 0.5 0.6 0 0 0.633333 0 0.5 0.633333 0
          0 0.666667 0 0.5 0.666667 0 0 0.7 0 0.5 0.7 0
          0 0.733333 0 0.5 0.733333 0 0 0.766667 0 0.5 0.766667 0
          0 0.8 0 0.5 0.8 0 0 0.833333 0 0.5 0.833333 0
          0 0.866667 0 0.5 0.866667 0 0 0.9 0 0.5 0.9 0
          0 0.933333 0 0.5 0.933333 0 0 0.966667 0 0.5 0.966667 0
          0 1 0 0.5 1 0
        </DataArray>
      </Points>
      <Cells>
        <DataArray type="Int32" Name="connectivity" NumberOfComponents="1" format="ascii">
          0 1 3 2 2 3 5 4 4 5 7 6
          6 7 9 8 8 9 11 10 10 11 13 12
          12 13 15 14 14 15 17 16 16 17 19 18
          18 19 21 20 20 21 23 22 22 23 25 24
          24 25 27 26 26 27 29 28 28 29 31 30
          30 31 33 32 32 33 35 34 34 35 37 36
          36 37 39 38 38 39 41 40 40 41 43 42
          42 43 45 44 44 45 47 46 46 47 49 48
          48 49 51 50 50 51 53 52 52 53 55 54
          54 55 57 56 56 57 59 58 58 59 61 60
        </DataArray>
        <DataArray type="Int32" Name="offsets" NumberOfComponents="1" format="ascii">
          4 8 12 16 20 24 28 32 36 40 44 48
          52 56 60 64 68 72 76 80 84 88 92 96
          100 104 108 112 116 120
        </DataArray>
        <DataArray type="UInt8" Name="types" NumberOfComponents="1" format="ascii">
          9 9 9 9 9 9 9 9 9 9 9 9
          9 9 9 9 9 9 9 9 9 9 9 9
          9 9 9 9 9 9
        </DataArray>
      </Cells>
    </Piece>
  </UnstructuredGrid>
</VTKFile>
