<?xml version="1.0"?>
<VTKFile type="UnstructuredGrid" version="0.1" byte_order="LittleEndian">
  <UnstructuredGrid>
    <Piece NumberOfCells="30" NumberOfPoints="62">
      <CellData Scalars="Sg">
        <DataArray type="Float32" Name="Sg" NumberOfComponents="1" format="ascii">
          0 0 0 0 0 0 0 0 0 0 0 0
          0 0 0 0 0 0 0 0 0 0 0 0
          0 0 0 0 0 0
        </DataArray>
        <DataArray type="Float32" Name="Sl" NumberOfComponents="1" format="ascii">
          1 1 1 1 1 1 1 1 1 1 1 1
          1 1 1 1 1 1 1 1 1 1 1 1
          1 1 1 1 1 1
        </DataArray>
        <DataArray type="Float32" Name="pg" NumberOfComponents="1" format="ascii">
          24687.8 24360.9 24034 23707 23380.1 23053.1 22726.2 22399.3 22072.3 21745.4 21418.4 21091.5
          20764.6 20437.6 20110.7 19783.7 19456.8 19129.8 18802.9 18476 18149 17822.1 17495.1 17168.2
          16841.3 16514.3 16187.4 15860.4 15533.5 15208.5
        </DataArray>
        <DataArray type="Float32" Name="pl" NumberOfComponents="1" format="ascii">
          110628 110301 109974 109647 109320 108993 108666 108339 108012 107685 107358 107031
          106704 106377 106050 105723 105396 105070 104743 104416 104089 103762 103435 103108
          102781 102454 102127 101800 101473 101148
        </DataArray>
        <DataArray type="Float32" Name="pc" NumberOfComponents="1" format="ascii">
          -85939.7 -85939.7 -85939.7 -85939.7 -85939.7 -85939.7 -85939.7 -85939.7 -85939.7 -85939.7 -85939.7 -85939.7
          -85939.7 -85939.7 -85939.7 -85939.7 -85939.7 -85939.7 -85939.7 -85939.7 -85939.7 -85939.7 -85939.7 -85939.7
          -85939.7 -85939.7 -85939.7 -85939.7 -85939.7 -85939.7
        </DataArray>
        <DataArray type="Float32" Name="rhoL" NumberOfComponents="1" format="ascii">
          999.855 999.855 999.855 999.855 999.855 999.854 999.854 999.854 999.854 999.854 999.854 999.854
          999.853 999.853 999.853 999.853 999.853 999.853 999.852 999.852 999.852 999.852 999.852 999.852
          999.852 999.851 999.851 999.851 999.851 999.851
        </DataArray>
        <DataArray type="Float32" Name="rhoG" NumberOfComponents="1" format="ascii">
          0.30585 0.3018 0.29775 0.293699 0.289649 0.285598 0.281548 0.277498 0.273447 0.269397 0.265347 0.261296
          0.257246 0.253195 0.249145 0.245095 0.241044 0.236994 0.232944 0.228893 0.224843 0.220793 0.216742 0.212692
          0.208641 0.204591 0.200541 0.19649 0.19244 0.188413
        </DataArray>
        <DataArray type="Float32" Name="mobL" NumberOfComponents="1" format="ascii">
          722.171 722.17 722.17 722.17 722.17 722.17 722.169 722.169 722.169 722.169 722.169 722.169
          722.168 722.168 722.168 722.168 722.168 722.167 722.167 722.167 722.167 722.167 722.166 722.166
          722.166 722.166 722.166 722.166 722.165 722.165
        </DataArray>
        <DataArray type="Float32" Name="mobG" NumberOfComponents="1" format="ascii">
          0 0 0 0 0 0 0 0 0 0 0 0
          0 0 0 0 0 0 0 0 0 0 0 0
          0 0 0 0 0 0
        </DataArray>
        <DataArray type="Float32" Name="porosity" NumberOfComponents="1" format="ascii">
          0.298839 0.298839 0.298839 0.298838 0.298838 0.298838 0.298837 0.298836 0.298835 0.298834 0.298831 0.298828
          0.298824 0.298818 0.29881 0.2988 0.298785 0.298765 0.298738 0.298702 0.298651 0.29858 0.298478 0.298325
          0.297815 0.297401 0.296577 0.294429 0.284217 0.0523588
        </DataArray>
        <DataArray type="Float32" Name="temperature" NumberOfComponents="1" format="ascii">
          281.15 281.15 281.15 281.15 281.15 281.15 281.15 281.15 281.15 281.15 281.15 281.15
          281.15 281.15 281.15 281.15 281.15 281.15 281.15 281.15 281.15 281.15 281.15 281.15
          281.15 281.15 281.15 281.15 281.15 281.15
        </DataArray>
        <DataArray type="Float32" Name="phase presence" NumberOfComponents="1" format="ascii">
          1 1 1 1 1 1 1 1 1 1 1 1
          1 1 1 1 1 1 1 1 1 1 1 1
          1 1 1 1 1 1
        </DataArray>
        <DataArray type="Float32" Name="precipitateVolumeFraction_au" NumberOfComponents="1" format="ascii">
          5.52906e-10 5.52813e-10 5.52768e-10 5.5274e-10 5.52709e-10 5.52703e-10 5.52718e-10 5.52743e-10 5.52748e-10 5.52799e-10 5.52774e-10 5.52757e-10
          5.52733e-10 5.52754e-10 5.527e-10 5.52743e-10 5.52763e-10 5.52781e-10 5.52755e-10 5.52747e-10 5.52678e-10 5.52774e-10 5.5294e-10 1.12995e-09
          0.000269941 0.000269924 0.0002699 0.000269852 5.52186e-10 5.51163e-10
        </DataArray>
        <DataArray type="Float32" Name="precipitateVolumeFraction_nanoAu" NumberOfComponents="1" format="ascii">
          1.23691e-13 1.2367e-13 1.2366e-13 1.23654e-13 1.23647e-13 1.23645e-13 1.23649e-13 1.23654e-13 1.23655e-13 1.23666e-13 1.2366e-13 1.23656e-13
          1.2365e-13 1.23654e-13 1.23642e-13 1.2365e-13 1.23653e-13 1.23655e-13 1.23646e-13 1.2364e-13 1.23619e-13 1.23649e-13 1.35563e-13 2.58061e-11
          6.03649e-08 7.6687e-08 1.0215e-07 1.45572e-07 4.74156e-13 4.67271e-13
        </DataArray>
        <DataArray type="Float32" Name="precipitateVolumeFraction_d" NumberOfComponents="1" format="ascii">
          0.000580548 0.000580601 0.000580677 0.000580784 0.000580934 0.000581146 0.000581443 0.000581858 0.000582438 0.000583243 0.000584359 0.000585896
          0.000588008 0.000590897 0.000594836 0.000600192 0.000607462 0.000617331 0.000630755 0.000649115 0.000674468 0.000710032 0.000761149 0.000837372
          0.000957571 0.00116461 0.00157646 0.00265025 0.0078914 0.123821
        </DataArray>
        <DataArray type="Float32" Name="precipitateVolumeFraction_p" NumberOfComponents="1" format="ascii">
          0.000580548 0.000580601 0.000580677 0.000580784 0.000580934 0.000581146 0.000581443 0.000581858 0.000582438 0.000583243 0.000584359 0.000585896
          0.000588008 0.000590897 0.000594836 0.000600192 0.000607462 0.000617331 0.000630755 0.000649115 0.000674468 0.000710032 0.000761149 0.000837372
          0.000957571 0.00116461 0.00157646 0.00265025 0.0078914 0.123821
        </DataArray>
        <DataArray type="Float32" Name="K" NumberOfComponents="1" format="ascii">
          9.85163e-11 9.85162e-11 9.8516e-11 9.85157e-11 9.85153e-11 9.85148e-11 9.8514e-11 9.8513e-11 9.85115e-11 9.85095e-11 9.85066e-11 9.85027e-11
          9.84974e-11 9.849e-11 9.848e-11 9.84664e-11 9.8448e-11 9.84229e-11 9.83888e-11 9.83423e-11 9.8278e-11 9.81879e-11 9.80585e-11 9.78657e-11
          9.72228e-11 9.67037e-11 9.5678e-11 9.30455e-11 8.13244e-11 2.90077e-13
        </DataArray>
        <DataArray type="Float32" Name="X^w_H2O" NumberOfComponents="1" format="ascii">
          0.999853 0.999853 0.999853 0.999853 0.999853 0.999853 0.999853 0.999853 0.999853 0.999853 0.999853 0.999853
          0.999853 0.999853 0.999853 0.999853 0.999853 0.999853 0.999853 0.999853 0.999853 0.999853 0.999853 0.999853
          0.999853 0.999852 0.99985 0.999846 0.999839 0.99984
        </DataArray>
        <DataArray type="Float32" Name="X^w_Air" NumberOfComponents="1" format="ascii">
          0 0 0 0 0 0 0 0 0 0 0 0
          0 0 0 0 0 0 0 0 0 0 0 0
          0 0 0 0 0 0
        </DataArray>
        <DataArray type="Float32" Name="X^w_AuComplex" NumberOfComponents="1" format="ascii">
          1.4113e-16 1.41106e-16 1.41094e-16 1.41087e-16 1.41079e-16 1.41077e-16 1.41081e-16 1.41087e-16 1.41088e-16 1.41101e-16 1.41094e-16 1.41089e-16
          1.41082e-16 1.41086e-16 1.4107e-16 1.41079e-16 1.41081e-16 1.41081e-16 1.41068e-16 1.41057e-16 1.41028e-16 1.41052e-16 1.54438e-16 2.94159e-14
          6.88391e-11 1.07377e-10 1.84414e-10 3.64029e-10 1.83558e-15 1.78882e-15
        </DataArray>
        <DataArray type="Float32" Name="X^w_nanoAu" NumberOfComponents="1" format="ascii">
          5.38717e-19 5.38626e-19 5.38583e-19 5.38555e-19 5.38524e-19 5.38519e-19 5.38532e-19 5.38556e-19 5.3856e-19 5.38608e-19 5.38582e-19 5.38563e-19
          5.38538e-19 5.38554e-19 5.38499e-19 5.38534e-19 5.38544e-19 5.38549e-19 5.38508e-19 5.38518e-19 5.42107e-19 8.83608e-19 3.25074e-17 2.95721e-15
          2.63641e-13 3.3512e-13 4.46647e-13 6.26588e-13 2.05935e-18 1.98559e-18
        </DataArray>
        <DataArray type="Float32" Name="X^w_cyanide" NumberOfComponents="1" format="ascii">
          5.07054e-06 5.07054e-06 5.07054e-06 5.07054e-06 5.07053e-06 5.07053e-06 5.07053e-06 5.07053e-06 5.07052e-06 5.07051e-06 5.0705e-06 5.07049e-06
          5.07047e-06 5.07045e-06 5.07041e-06 5.07036e-06 5.0703e-06 5.07021e-06 5.07009e-06 5.06993e-06 5.06969e-06 5.06935e-06 5.06885e-06 5.06809e-06
          5.06737e-06 6.43707e-06 8.57282e-06 1.22385e-05 1.94642e-05 1.92439e-05
        </DataArray>
        <DataArray type="Float32" Name="X^w_citrate" NumberOfComponents="1" format="ascii">
          0.000141796 0.000141796 0.000141796 0.000141796 0.000141796 0.000141796 0.000141796 0.000141796 0.000141796 0.000141796 0.000141796 0.000141796
          0.000141796 0.000141795 0.000141795 0.000141795 0.000141794 0.000141794 0.000141793 0.000141792 0.00014179 0.000141787 0.000141784 0.000141778
          0.000141769 0.000141755 0.000141728 0.000141664 0.000141455 0.000139854
        </DataArray>
        <DataArray type="Float32" Name="X^w_substrate" NumberOfComponents="1" format="ascii">
          1.07592e-11 1.44642e-11 1.94439e-11 2.61366e-11 3.51317e-11 4.72217e-11 6.34728e-11 8.53206e-11 1.147e-10 1.54221e-10 2.07417e-10 2.79073e-10
          3.75705e-10 5.0622e-10 6.82878e-10 9.22689e-10 1.24951e-09 1.6973e-09 2.31522e-09 3.17609e-09 4.39096e-09 6.13544e-09 8.7005e-09 1.25983e-08
          1.8805e-08 2.93953e-08 4.95214e-08 9.54002e-08 2.43908e-07 1.37289e-06
        </DataArray>
        <DataArray type="Float32" Name="m^w_H2O" NumberOfComponents="1" format="ascii">
          55492.6 55492.6 55492.5 55492.5 55492.5 55492.5 55492.5 55492.5 55492.5 55492.5 55492.5 55492.5
          55492.5 55492.4 55492.4 55492.4 55492.4 55492.4 55492.4 55492.4 55492.4 55492.4 55492.4 55492.4
          55492.3 55492.3 55492.1 55491.9 55491.5 55491.5
        </DataArray>
        <DataArray type="Float32" Name="m^w_Air" NumberOfComponents="1" format="ascii">
          0 0 0 0 0 0 0 0 0 0 0 0
          0 0 0 0 0 0 0 0 0 0 0 0
          0 0 0 0 0 0
        </DataArray>
        <DataArray type="Float32" Name="m^w_AuComplex" NumberOfComponents="1" format="ascii">
          7.16401e-13 7.16279e-13 7.1622e-13 7.16183e-13 7.16142e-13 7.16134e-13 7.16152e-13 7.16184e-13 7.16188e-13 7.16252e-13 7.16217e-13 7.1619e-13
          7.16154e-13 7.16174e-13 7.16096e-13 7.16139e-13 7.16149e-13 7.16149e-13 7.16083e-13 7.1603e-13 7.15879e-13 7.16001e-13 7.83955e-13 1.4932e-10
          3.49439e-07 5.45065e-07 9.36117e-07 1.84787e-06 9.31772e-12 9.08034e-12
        </DataArray>
        <DataArray type="Float32" Name="m^w_nanoAu" NumberOfComponents="1" format="ascii">
          2.73463e-15 2.73416e-15 2.73394e-15 2.7338e-15 2.73364e-15 2.73362e-15 2.73369e-15 2.73381e-15 2.73383e-15 2.73407e-15 2.73394e-15 2.73384e-15
          2.73371e-15 2.73379e-15 2.73351e-15 2.73369e-15 2.73374e-15 2.73377e-15 2.73356e-15 2.73361e-15 2.75182e-15 4.48534e-15 1.65013e-13 1.50113e-11
          1.33828e-09 1.70112e-09 2.26725e-09 3.18066e-09 1.04536e-14 1.00792e-14
        </DataArray>
        <DataArray type="Float32" Name="m^w_cyanide" NumberOfComponents="1" format="ascii">
          0.194843 0.194843 0.194843 0.194842 0.194842 0.194842 0.194842 0.194842 0.194842 0.194841 0.194841 0.19484
          0.19484 0.194839 0.194837 0.194835 0.194833 0.19483 0.194825 0.194819 0.194809 0.194796 0.194777 0.194748
          0.19472 0.247352 0.329421 0.470282 0.747935 0.739471
        </DataArray>
        <DataArray type="Float32" Name="m^w_citrate" NumberOfComponents="1" format="ascii">
          0.749742 0.749742 0.749742 0.749742 0.749742 0.749741 0.749741 0.749741 0.749741 0.74974 0.74974 0.749739
          0.749738 0.749737 0.749736 0.749734 0.749731 0.749728 0.749723 0.749716 0.749707 0.749694 0.749674 0.749645
          0.749599 0.749524 0.749379 0.749043 0.747938 0.739473
        </DataArray>
        <DataArray type="Float32" Name="m^w_substrate" NumberOfComponents="1" format="ascii">
          5.97117e-08 8.02737e-08 1.0791e-07 1.45053e-07 1.94975e-07 2.62072e-07 3.52262e-07 4.73513e-07 6.36562e-07 8.55899e-07 1.15112e-06 1.5488e-06
          2.08509e-06 2.80942e-06 3.78984e-06 5.12074e-06 6.93456e-06 9.4197e-06 1.2849e-05 1.76267e-05 2.4369e-05 3.40505e-05 4.8286e-05 6.99178e-05
          0.000104364 0.000163138 0.000274833 0.000529451 0.00135364 0.00761928
        </DataArray>
        <DataArray type="Float32" Name="process rank" NumberOfComponents="1" format="ascii">
          0 0 0 0 0 0 0 0 0 0 0 0
          0 0 0 0 0 0 0 0 0 0 0 0
          0 0 0 0 0 0
        </DataArray>
      </CellData>
      <Points>
        <DataArray type="Float32" Name="Coordinates" NumberOfComponents="3" format="ascii">
          0 0 0 0.5 0 0 0 0.0333333 0 0.5 0.0333333 0
          0 0.0666667 0 0.5 0.0666667 0 0 0.1 0 0.5 0.1 0
          0 0.133333 0 0.5 0.133333 0 0 0.166667 0 0.5 0.166667 0
          0 0.2 0 0.5 0.2 0 0 0.233333 0 0.5 0.233333 0
          0 0.266667 0 0.5 0.266667 0 0 0.3 0 0.5 0.3 0
          0 0.333333 0 0.5 0.333333 0 0 0.366667 0 0.5 0.366667 0
          0 0.4 0 0.5 0.4 0 0 0.433333 0 0.5 0.433333 0
          0 0.466667 0 0.5 0.466667 0 0 0.5 0 0.5 0.5 0
          0 0.533333 0 0.5 0.533333 0 0 0.566667 0 0.5 0.566667 0
          0 0.6 0 0.5 0.6 0 0 0.633333 0 0.5 0.633333 0
          0 0.666667 0 0.5 0.666667 0 0 0.7 0 0.5 0.7 0
          0 0.733333 0 0.5 0.733333 0 0 0.766667 0 0.5 0.766667 0
          0 0.8 0 0.5 0.8 0 0 0.833333 0 0.5 0.833333 0
          0 0.866667 0 0.5 0.866667 0 0 0.9 0 0.5 0.9 0
          0 0.933333 0 0.5 0.933333 0 0 0.966667 0 0.5 0.966667 0
          0 1 0 0.5 1 0
        </DataArray>
      </Points>
      <Cells>
        <DataArray type="Int32" Name="connectivity" NumberOfComponents="1" format="ascii">
          0 1 3 2 2 3 5 4 4 5 7 6
          6 7 9 8 8 9 11 10 10 11 13 12
          12 13 15 14 14 15 17 16 16 17 19 18
          18 19 21 20 20 21 23 22 22 23 25 24
          24 25 27 26 26 27 29 28 28 29 31 30
          30 31 33 32 32 33 35 34 34 35 37 36
          36 37 39 38 38 39 41 40 40 41 43 42
          42 43 45 44 44 45 47 46 46 47 49 48
          48 49 51 50 50 51 53 52 52 53 55 54
          54 55 57 56 56 57 59 58 58 59 61 60
        </DataArray>
        <DataArray type="Int32" Name="offsets" NumberOfComponents="1" format="ascii">
          4 8 12 16 20 24 28 32 36 40 44 48
          52 56 60 64 68 72 76 80 84 88 92 96
          100 104 108 112 116 120
        </DataArray>
        <DataArray type="UInt8" Name="types" NumberOfComponents="1" format="ascii">
          9 9 9 9 9 9 9 9 9 9 9 9
          9 9 9 9 9 9 9 9 9 9 9 9
          9 9 9 9 9 9
        </DataArray>
      </Cells>
    </Piece>
  </UnstructuredGrid>
</VTKFile>
