<?xml version="1.0"?>
<VTKFile type="UnstructuredGrid" version="0.1" byte_order="LittleEndian">
  <UnstructuredGrid>
    <Piece NumberOfCells="30" NumberOfPoints="62">
      <CellData Scalars="Sg">
        <DataArray type="Float32" Name="Sg" NumberOfComponents="1" format="ascii">
          0 0 0 0 0 0 0 0 0 0 0 0
          0 0 0 0 0 0 0 0 0 0 0 0
          0 0 0 0 0 0
        </DataArray>
        <DataArray type="Float32" Name="Sl" NumberOfComponents="1" format="ascii">
          1 1 1 1 1 1 1 1 1 1 1 1
          1 1 1 1 1 1 1 1 1 1 1 1
          1 1 1 1 1 1
        </DataArray>
        <DataArray type="Float32" Name="pg" NumberOfComponents="1" format="ascii">
          24687.8 24360.9 24034 23707 23380.1 23053.1 22726.2 22399.3 22072.3 21745.4 21418.4 21091.5
          20764.6 20437.6 20110.7 19783.7 19456.8 19129.8 18802.9 18476 18149 17822.1 17495.1 17168.2
          16841.3 16514.3 16187.4 15860.4 15533.5 15207.5
        </DataArray>
        <DataArray type="Float32" Name="pl" NumberOfComponents="1" format="ascii">
          110628 110301 109974 109647 109320 108993 108666 108339 108012 107685 107358 107031
          106704 106377 106050 105723 105396 105070 104743 104416 104089 103762 103435 103108
          102781 102454 102127 101800 101473 101147
        </DataArray>
        <DataArray type="Float32" Name="pc" NumberOfComponents="1" format="ascii">
          -85939.7 -85939.7 -85939.7 -85939.7 -85939.7 -85939.7 -85939.7 -85939.7 -85939.7 -85939.7 -85939.7 -85939.7
          -85939.7 -85939.7 -85939.7 -85939.7 -85939.7 -85939.7 -85939.7 -85939.7 -85939.7 -85939.7 -85939.7 -85939.7
          -85939.7 -85939.7 -85939.7 -85939.7 -85939.7 -85939.7
        </DataArray>
        <DataArray type="Float32" Name="rhoL" NumberOfComponents="1" format="ascii">
          999.855 999.855 999.855 999.855 999.855 999.854 999.854 999.854 999.854 999.854 999.854 999.854
          999.853 999.853 999.853 999.853 999.853 999.853 999.852 999.852 999.852 999.852 999.852 999.852
          999.852 999.851 999.851 999.851 999.851 999.851
        </DataArray>
        <DataArray type="Float32" Name="rhoG" NumberOfComponents="1" format="ascii">
          0.30585 0.3018 0.29775 0.293699 0.289649 0.285598 0.281548 0.277498 0.273447 0.269397 0.265347 0.261296
          0.257246 0.253195 0.249145 0.245095 0.241044 0.236994 0.232944 0.228893 0.224843 0.220793 0.216742 0.212692
          0.208641 0.204591 0.200541 0.19649 0.19244 0.188402
        </DataArray>
        <DataArray type="Float32" Name="mobL" NumberOfComponents="1" format="ascii">
          722.171 722.17 722.17 722.17 722.17 722.17 722.169 722.169 722.169 722.169 722.169 722.169
          722.168 722.168 722.168 722.168 722.168 722.167 722.167 722.167 722.167 722.167 722.166 722.166
          722.166 722.166 722.166 722.166 722.165 722.165
        </DataArray>
        <DataArray type="Float32" Name="mobG" NumberOfComponents="1" format="ascii">
          0 0 0 0 0 0 0 0 0 0 0 0
          0 0 0 0 0 0 0 0 0 0 0 0
          0 0 0 0 0 0
        </DataArray>
        <DataArray type="Float32" Name="porosity" NumberOfComponents="1" format="ascii">
          0.298727 0.298727 0.298727 0.298727 0.298727 0.298726 0.298726 0.298725 0.298723 0.298722 0.298719 0.298716
          0.298711 0.298705 0.298697 0.298685 0.298669 0.298648 0.298619 0.29858 0.298526 0.29845 0.298341 0.29818
          0.297658 0.297229 0.296393 0.294299 0.285238 0.0646212
        </DataArray>
        <DataArray type="Float32" Name="temperature" NumberOfComponents="1" format="ascii">
          281.15 281.15 281.15 281.15 281.15 281.15 281.15 281.15 281.15 281.15 281.15 281.15
          281.15 281.15 281.15 281.15 281.15 281.15 281.15 281.15 281.15 281.15 281.15 281.15
          281.15 281.15 281.15 281.15 281.15 281.15
        </DataArray>
        <DataArray type="Float32" Name="phase presence" NumberOfComponents="1" format="ascii">
          1 1 1 1 1 1 1 1 1 1 1 1
          1 1 1 1 1 1 1 1 1 1 1 1
          1 1 1 1 1 1
        </DataArray>
        <DataArray type="Float32" Name="precipitateVolumeFraction_au" NumberOfComponents="1" format="ascii">
          5.52906e-10 5.52813e-10 5.52768e-10 5.5274e-10 5.52709e-10 5.52703e-10 5.52718e-10 5.52743e-10 5.52748e-10 5.52799e-10 5.52774e-10 5.52756e-10
          5.52732e-10 5.52753e-10 5.527e-10 5.52743e-10 5.52763e-10 5.52781e-10 5.52754e-10 5.52747e-10 5.52678e-10 5.52774e-10 5.52837e-10 9.0906e-10
          0.00026994 0.000269924 0.000269899 0.000269853 5.52186e-10 5.51168e-10
        </DataArray>
        <DataArray type="Float32" Name="precipitateVolumeFraction_nanoAu" NumberOfComponents="1" format="ascii">
          1.24065e-13 1.2402e-13 1.24002e-13 1.23992e-13 1.23981e-13 1.2398e-13 1.23984e-13 1.2399e-13 1.23991e-13 1.24003e-13 1.23995e-13 1.2399e-13
          1.23983e-13 1.23987e-13 1.23973e-13 1.23982e-13 1.23984e-13 1.23986e-13 1.23976e-13 1.2397e-13 1.23948e-13 1.23977e-13 1.35878e-13 2.57943e-11
          6.03907e-08 7.6715e-08 1.02176e-07 1.45582e-07 4.74262e-13 4.67074e-13
        </DataArray>
        <DataArray type="Float32" Name="precipitateVolumeFraction_d" NumberOfComponents="1" format="ascii">
          0.000636264 0.000636321 0.000636402 0.000636517 0.000636679 0.000636906 0.000637226 0.000637674 0.000638299 0.000639167 0.00064037 0.00064203
          0.000644308 0.000647425 0.000651674 0.000657448 0.000665281 0.000675903 0.000690335 0.000710038 0.000737186 0.000775154 0.000829506 0.0009101
          0.00103617 0.00125064 0.00166848 0.00271547 0.0073809 0.117689
        </DataArray>
        <DataArray type="Float32" Name="precipitateVolumeFraction_p" NumberOfComponents="1" format="ascii">
          0.000636264 0.000636321 0.000636402 0.000636517 0.000636679 0.000636906 0.000637226 0.000637674 0.000638299 0.000639167 0.00064037 0.00064203
          0.000644308 0.000647425 0.000651674 0.000657448 0.000665281 0.000675903 0.000690335 0.000710038 0.000737186 0.000775154 0.000829506 0.0009101
          0.00103617 0.00125064 0.00166848 0.00271547 0.0073809 0.117689
        </DataArray>
        <DataArray type="Float32" Name="K" NumberOfComponents="1" format="ascii">
          9.83749e-11 9.83747e-11 9.83745e-11 9.83742e-11 9.83738e-11 9.83732e-11 9.83724e-11 9.83713e-11 9.83697e-11 9.83675e-11 9.83644e-11 9.83602e-11
          9.83545e-11 9.83466e-11 9.83358e-11 9.83211e-11 9.83013e-11 9.82743e-11 9.82378e-11 9.81878e-11 9.81191e-11 9.8023e-11 9.78856e-11 9.76822e-11
          9.70255e-11 9.64887e-11 9.545e-11 9.28876e-11 8.2439e-11 5.59734e-13
        </DataArray>
        <DataArray type="Float32" Name="X^w_H2O" NumberOfComponents="1" format="ascii">
          0.999853 0.999853 0.999853 0.999853 0.999853 0.999853 0.999853 0.999853 0.999853 0.999853 0.999853 0.999853
          0.999853 0.999853 0.999853 0.999853 0.999853 0.999853 0.999853 0.999853 0.999853 0.999853 0.999853 0.999853
          0.999853 0.999852 0.99985 0.999846 0.999839 0.99984
        </DataArray>
        <DataArray type="Float32" Name="X^w_Air" NumberOfComponents="1" format="ascii">
          0 0 0 0 0 0 0 0 0 0 0 0
          0 0 0 0 0 0 0 0 0 0 0 0
          0 0 0 0 0 0
        </DataArray>
        <DataArray type="Float32" Name="X^w_AuComplex" NumberOfComponents="1" format="ascii">
          1.41551e-16 1.41504e-16 1.41484e-16 1.41472e-16 1.4146e-16 1.41457e-16 1.41461e-16 1.41468e-16 1.41468e-16 1.41481e-16 1.41472e-16 1.41465e-16
          1.41456e-16 1.4146e-16 1.41443e-16 1.41451e-16 1.41452e-16 1.41452e-16 1.41438e-16 1.41427e-16 1.41396e-16 1.41419e-16 1.54793e-16 2.94096e-14
          6.88868e-11 1.07442e-10 1.84495e-10 3.6407e-10 1.83548e-15 1.78684e-15
        </DataArray>
        <DataArray type="Float32" Name="X^w_nanoAu" NumberOfComponents="1" format="ascii">
          5.40345e-19 5.40151e-19 5.40073e-19 5.40027e-19 5.39982e-19 5.39975e-19 5.39992e-19 5.40021e-19 5.40023e-19 5.40076e-19 5.40043e-19 5.40019e-19
          5.39989e-19 5.40004e-19 5.39943e-19 5.39979e-19 5.39989e-19 5.39993e-19 5.39949e-19 5.39956e-19 5.4355e-19 8.85616e-19 3.25483e-17 2.95959e-15
          2.63753e-13 3.35238e-13 4.46747e-13 6.26571e-13 2.05922e-18 1.98331e-18
        </DataArray>
        <DataArray type="Float32" Name="X^w_cyanide" NumberOfComponents="1" format="ascii">
          5.07275e-06 5.07272e-06 5.0727e-06 5.07268e-06 5.07265e-06 5.07263e-06 5.0726e-06 5.07258e-06 5.07255e-06 5.07253e-06 5.0725e-06 5.07247e-06
          5.07243e-06 5.07239e-06 5.07234e-06 5.07228e-06 5.07221e-06 5.07211e-06 5.07198e-06 5.0718e-06 5.07155e-06 5.0712e-06 5.07067e-06 5.06987e-06
          5.06905e-06 6.4389e-06 8.57456e-06 1.22391e-05 1.94589e-05 1.923e-05
        </DataArray>
        <DataArray type="Float32" Name="X^w_citrate" NumberOfComponents="1" format="ascii">
          0.000141796 0.000141796 0.000141796 0.000141796 0.000141796 0.000141796 0.000141796 0.000141796 0.000141796 0.000141796 0.000141796 0.000141796
          0.000141796 0.000141796 0.000141795 0.000141795 0.000141795 0.000141794 0.000141793 0.000141792 0.00014179 0.000141788 0.000141784 0.000141779
          0.000141769 0.000141754 0.000141723 0.000141651 0.000141417 0.000139753
        </DataArray>
        <DataArray type="Float32" Name="X^w_substrate" NumberOfComponents="1" format="ascii">
          6.05861e-12 8.33851e-12 1.14757e-11 1.57924e-11 2.17321e-11 2.99055e-11 4.11535e-11 5.6635e-11 7.7949e-11 1.07304e-10 1.47757e-10 2.03547e-10
          2.80577e-10 3.87103e-10 5.34738e-10 7.39952e-10 1.02634e-09 1.42819e-09 1.99611e-09 2.80656e-09 3.97822e-09 5.70199e-09 8.29915e-09 1.23432e-08
          1.89408e-08 3.04646e-08 5.28326e-08 1.04576e-07 2.71215e-07 1.44439e-06
        </DataArray>
        <DataArray type="Float32" Name="m^w_H2O" NumberOfComponents="1" format="ascii">
          55492.6 55492.6 55492.5 55492.5 55492.5 55492.5 55492.5 55492.5 55492.5 55492.5 55492.5 55492.5
          55492.5 55492.4 55492.4 55492.4 55492.4 55492.4 55492.4 55492.4 55492.4 55492.4 55492.4 55492.4
          55492.3 55492.3 55492.1 55491.9 55491.5 55491.6
        </DataArray>
        <DataArray type="Float32" Name="m^w_Air" NumberOfComponents="1" format="ascii">
          0 0 0 0 0 0 0 0 0 0 0 0
          0 0 0 0 0 0 0 0 0 0 0 0
          0 0 0 0 0 0
        </DataArray>
        <DataArray type="Float32" Name="m^w_AuComplex" NumberOfComponents="1" format="ascii">
          7.18538e-13 7.18297e-13 7.18197e-13 7.18136e-13 7.18075e-13 7.18062e-13 7.18081e-13 7.18115e-13 7.18115e-13 7.18181e-13 7.18135e-13 7.181e-13
          7.18057e-13 7.18074e-13 7.17988e-13 7.18029e-13 7.18035e-13 7.18032e-13 7.17962e-13 7.17905e-13 7.17748e-13 7.17866e-13 7.85753e-13 1.49288e-10
          3.49681e-07 5.45394e-07 9.36524e-07 1.84808e-06 9.31718e-12 9.07027e-12
        </DataArray>
        <DataArray type="Float32" Name="m^w_nanoAu" NumberOfComponents="1" format="ascii">
          2.74289e-15 2.74191e-15 2.74151e-15 2.74127e-15 2.74104e-15 2.74101e-15 2.7411e-15 2.74124e-15 2.74125e-15 2.74152e-15 2.74135e-15 2.74123e-15
          2.74108e-15 2.74115e-15 2.74084e-15 2.74103e-15 2.74107e-15 2.74109e-15 2.74087e-15 2.74091e-15 2.75915e-15 4.49553e-15 1.6522e-13 1.50234e-11
          1.33885e-09 1.70172e-09 2.26776e-09 3.18057e-09 1.04529e-14 1.00676e-14
        </DataArray>
        <DataArray type="Float32" Name="m^w_cyanide" NumberOfComponents="1" format="ascii">
          0.194927 0.194927 0.194926 0.194925 0.194924 0.194923 0.194922 0.194921 0.19492 0.194919 0.194918 0.194916
          0.194915 0.194913 0.194911 0.194909 0.194906 0.194902 0.194897 0.194891 0.194881 0.194867 0.194847 0.194816
          0.194785 0.247423 0.329488 0.470304 0.747731 0.738935
        </DataArray>
        <DataArray type="Float32" Name="m^w_citrate" NumberOfComponents="1" format="ascii">
          0.749742 0.749742 0.749742 0.749742 0.749742 0.749742 0.749741 0.749741 0.749741 0.74974 0.74974 0.74974
          0.749739 0.749738 0.749737 0.749735 0.749733 0.74973 0.749725 0.749719 0.74971 0.749697 0.749678 0.749647
          0.749597 0.749516 0.749354 0.748974 0.747733 0.738936
        </DataArray>
        <DataArray type="Float32" Name="m^w_substrate" NumberOfComponents="1" format="ascii">
          3.36242e-08 4.62772e-08 6.36879e-08 8.76448e-08 1.20609e-07 1.6597e-07 2.28394e-07 3.14314e-07 4.32602e-07 5.95517e-07 8.20021e-07 1.12965e-06
          1.55715e-06 2.14835e-06 2.96769e-06 4.10659e-06 5.69601e-06 7.92616e-06 1.1078e-05 1.55758e-05 2.20783e-05 3.16449e-05 4.60586e-05 6.85025e-05
          0.000105117 0.000169073 0.00029321 0.000580374 0.00150519 0.00801607
        </DataArray>
        <DataArray type="Float32" Name="process rank" NumberOfComponents="1" format="ascii">
          0 0 0 0 0 0 0 0 0 0 0 0
          0 0 0 0 0 0 0 0 0 0 0 0
          0 0 0 0 0 0
        </DataArray>
      </CellData>
      <Points>
        <DataArray type="Float32" Name="Coordinates" NumberOfComponents="3" format="ascii">
          0 0 0 0.5 0 0 0 0.0333333 0 0.5 0.0333333 0
          0 0.0666667 0 0.5 0.0666667 0 0 0.1 0 0.5 0.1 0
          0 0.133333 0 0.5 0.133333 0 0 0.166667 0 0.5 0.166667 0
          0 0.2 0 0.5 0.2 0 0 0.233333 0 0.5 0.233333 0
          0 0.266667 0 0.5 0.266667 0 0 0.3 0 0.5 0.3 0
          0 0.333333 0 0.5 0.333333 0 0 0.366667 0 0.5 0.366667 0
          0 0.4 0 0.5 0.4 0 0 0.433333 0 0.5 0.433333 0
          0 0.466667 0 0.5 0.466667 0 0 0.5 0 0.5 0.5 0
          0 0.533333 0 0.5 0.533333 0 0 0.566667 0 0.5 0.566667 0
          0 0.6 0 0.5 0.6 0 0 0.633333 0 0.5 0.633333 0
          0 0.666667 0 0.5 0.666667 0 0 0.7 0 0.5 0.7 0
          0 0.733333 0 0.5 0.733333 0 0 0.766667 0 0.5 0.766667 0
          0 0.8 0 0.5 0.8 0 0 0.833333 0 0.5 0.833333 0
          0 0.866667 0 0.5 0.866667 0 0 0.9 0 0.5 0.9 0
          0 0.933333 0 0.5 0.933333 0 0 0.966667 0 0.5 0.966667 0
          0 1 0 0.5 1 0
        </DataArray>
      </Points>
      <Cells>
        <DataArray type="Int32" Name="connectivity" NumberOfComponents="1" format="ascii">
          0 1 3 2 2 3 5 4 4 5 7 6
          6 7 9 8 8 9 11 10 10 11 13 12
          12 13 15 14 14 15 17 16 16 17 19 18
          18 19 21 20 20 21 23 22 22 23 25 24
          24 25 27 26 26 27 29 28 28 29 31 30
          30 31 33 32 32 33 35 34 34 35 37 36
          36 37 39 38 38 39 41 40 40 41 43 42
          42 43 45 44 44 45 47 46 46 47 49 48
          48 49 51 50 50 51 53 52 52 53 55 54
          54 55 57 56 56 57 59 58 58 59 61 60
        </DataArray>
        <DataArray type="Int32" Name="offsets" NumberOfComponents="1" format="ascii">
          4 8 12 16 20 24 28 32 36 40 44 48
          52 56 60 64 68 72 76 80 84 88 92 96
          100 104 108 112 116 120
        </DataArray>
        <DataArray type="UInt8" Name="types" NumberOfComponents="1" format="ascii">
          9 9 9 9 9 9 9 9 9 9 9 9
          9 9 9 9 9 9 9 9 9 9 9 9
          9 9 9 9 9 9
        </DataArray>
      </Cells>
    </Piece>
  </UnstructuredGrid>
</VTKFile>
