<?xml version="1.0"?>
<VTKFile type="UnstructuredGrid" version="0.1" byte_order="LittleEndian">
  <UnstructuredGrid>
    <Piece NumberOfCells="30" NumberOfPoints="62">
      <CellData Scalars="Sg">
        <DataArray type="Float32" Name="Sg" NumberOfComponents="1" format="ascii">
          0 0 0 0 0 0 0 0 0 0 0 0
          0 0 0 0 0 0 0 0 0 0 0 0
          0 0 0 0 0 0
        </DataArray>
        <DataArray type="Float32" Name="Sl" NumberOfComponents="1" format="ascii">
          1 1 1 1 1 1 1 1 1 1 1 1
          1 1 1 1 1 1 1 1 1 1 1 1
          1 1 1 1 1 1
        </DataArray>
        <DataArray type="Float32" Name="pg" NumberOfComponents="1" format="ascii">
          24687.8 24360.9 24034 23707 23380.1 23053.1 22726.2 22399.3 22072.3 21745.4 21418.4 21091.5
          20764.6 20437.6 20110.7 19783.7 19456.8 19129.8 18802.9 18476 18149 17822.1 17495.1 17168.2
          16841.3 16514.3 16187.4 15860.4 15533.5 15207.3
        </DataArray>
        <DataArray type="Float32" Name="pl" NumberOfComponents="1" format="ascii">
          110628 110301 109974 109647 109320 108993 108666 108339 108012 107685 107358 107031
          106704 106377 106050 105723 105396 105070 104743 104416 104089 103762 103435 103108
          102781 102454 102127 101800 101473 101147
        </DataArray>
        <DataArray type="Float32" Name="pc" NumberOfComponents="1" format="ascii">
          -85939.7 -85939.7 -85939.7 -85939.7 -85939.7 -85939.7 -85939.7 -85939.7 -85939.7 -85939.7 -85939.7 -85939.7
          -85939.7 -85939.7 -85939.7 -85939.7 -85939.7 -85939.7 -85939.7 -85939.7 -85939.7 -85939.7 -85939.7 -85939.7
          -85939.7 -85939.7 -85939.7 -85939.7 -85939.7 -85939.7
        </DataArray>
        <DataArray type="Float32" Name="rhoL" NumberOfComponents="1" format="ascii">
          999.855 999.855 999.855 999.855 999.855 999.854 999.854 999.854 999.854 999.854 999.854 999.854
          999.853 999.853 999.853 999.853 999.853 999.853 999.852 999.852 999.852 999.852 999.852 999.852
          999.852 999.851 999.851 999.851 999.851 999.851
        </DataArray>
        <DataArray type="Float32" Name="rhoG" NumberOfComponents="1" format="ascii">
          0.30585 0.3018 0.29775 0.293699 0.289649 0.285598 0.281548 0.277498 0.273447 0.269397 0.265347 0.261296
          0.257246 0.253195 0.249145 0.245095 0.241044 0.236994 0.232944 0.228893 0.224843 0.220793 0.216742 0.212692
          0.208641 0.204591 0.200541 0.19649 0.19244 0.188398
        </DataArray>
        <DataArray type="Float32" Name="mobL" NumberOfComponents="1" format="ascii">
          722.171 722.17 722.17 722.17 722.17 722.17 722.169 722.169 722.169 722.169 722.169 722.169
          722.168 722.168 722.168 722.168 722.168 722.167 722.167 722.167 722.167 722.167 722.166 722.166
          722.166 722.166 722.166 722.166 722.165 722.165
        </DataArray>
        <DataArray type="Float32" Name="mobG" NumberOfComponents="1" format="ascii">
          0 0 0 0 0 0 0 0 0 0 0 0
          0 0 0 0 0 0 0 0 0 0 0 0
          0 0 0 0 0 0
        </DataArray>
        <DataArray type="Float32" Name="porosity" NumberOfComponents="1" format="ascii">
          0.298704 0.298704 0.298704 0.298703 0.298703 0.298703 0.298702 0.298701 0.2987 0.298698 0.298696 0.298692
          0.298688 0.298681 0.298673 0.298661 0.298645 0.298623 0.298594 0.298554 0.298499 0.298422 0.298312 0.298149
          0.297625 0.297193 0.296357 0.29428 0.285499 0.0720139
        </DataArray>
        <DataArray type="Float32" Name="temperature" NumberOfComponents="1" format="ascii">
          281.15 281.15 281.15 281.15 281.15 281.15 281.15 281.15 281.15 281.15 281.15 281.15
          281.15 281.15 281.15 281.15 281.15 281.15 281.15 281.15 281.15 281.15 281.15 281.15
          281.15 281.15 281.15 281.15 281.15 281.15
        </DataArray>
        <DataArray type="Float32" Name="phase presence" NumberOfComponents="1" format="ascii">
          1 1 1 1 1 1 1 1 1 1 1 1
          1 1 1 1 1 1 1 1 1 1 1 1
          1 1 1 1 1 1
        </DataArray>
        <DataArray type="Float32" Name="precipitateVolumeFraction_au" NumberOfComponents="1" format="ascii">
          5.52905e-10 5.52811e-10 5.52767e-10 5.52738e-10 5.52707e-10 5.52702e-10 5.52716e-10 5.52742e-10 5.52747e-10 5.52798e-10 5.52773e-10 5.52755e-10
          5.52731e-10 5.52752e-10 5.52699e-10 5.52742e-10 5.52762e-10 5.52779e-10 5.52753e-10 5.52746e-10 5.52676e-10 5.52773e-10 5.52815e-10 8.64821e-10
          0.00026994 0.000269924 0.000269899 0.000269853 5.52185e-10 5.51169e-10
        </DataArray>
        <DataArray type="Float32" Name="precipitateVolumeFraction_nanoAu" NumberOfComponents="1" format="ascii">
          1.25495e-13 1.25345e-13 1.25293e-13 1.25267e-13 1.25243e-13 1.25242e-13 1.25253e-13 1.25267e-13 1.25268e-13 1.25288e-13 1.25276e-13 1.25267e-13
          1.25258e-13 1.25263e-13 1.25245e-13 1.25256e-13 1.25259e-13 1.25261e-13 1.2525e-13 1.25243e-13 1.25219e-13 1.25249e-13 1.37156e-13 2.58065e-11
          6.0405e-08 7.67305e-08 1.02191e-07 1.45587e-07 4.75405e-13 4.6797e-13
        </DataArray>
        <DataArray type="Float32" Name="precipitateVolumeFraction_d" NumberOfComponents="1" format="ascii">
          0.000648072 0.00064813 0.000648212 0.000648329 0.000648493 0.000648724 0.000649049 0.000649504 0.000650139 0.000651021 0.000652243 0.000653929
          0.000656244 0.00065941 0.000663726 0.00066959 0.000677543 0.000688326 0.000702971 0.000722958 0.000750482 0.00078895 0.000843965 0.000925437
          0.00105264 0.00126841 0.00168674 0.00272513 0.00725036 0.113993
        </DataArray>
        <DataArray type="Float32" Name="precipitateVolumeFraction_p" NumberOfComponents="1" format="ascii">
          0.000648072 0.00064813 0.000648212 0.000648329 0.000648493 0.000648724 0.000649049 0.000649504 0.000650139 0.000651021 0.000652243 0.000653929
          0.000656244 0.00065941 0.000663726 0.00066959 0.000677543 0.000688326 0.000702971 0.000722958 0.000750482 0.00078895 0.000843965 0.000925437
          0.00105264 0.00126841 0.00168674 0.00272513 0.00725036 0.113993
        </DataArray>
        <DataArray type="Float32" Name="K" NumberOfComponents="1" format="ascii">
          9.83449e-11 9.83448e-11 9.83446e-11 9.83443e-11 9.83438e-11 9.83433e-11 9.83424e-11 9.83413e-11 9.83397e-11 9.83374e-11 9.83343e-11 9.83301e-11
          9.83242e-11 9.83162e-11 9.83052e-11 9.82903e-11 9.82702e-11 9.82429e-11 9.82057e-11 9.81551e-11 9.80854e-11 9.79881e-11 9.78491e-11 9.76435e-11
          9.69842e-11 9.64444e-11 9.54049e-11 9.28642e-11 8.2726e-11 7.87044e-13
        </DataArray>
        <DataArray type="Float32" Name="X^w_H2O" NumberOfComponents="1" format="ascii">
          0.999853 0.999853 0.999853 0.999853 0.999853 0.999853 0.999853 0.999853 0.999853 0.999853 0.999853 0.999853
          0.999853 0.999853 0.999853 0.999853 0.999853 0.999853 0.999853 0.999853 0.999853 0.999853 0.999853 0.999853
          0.999853 0.999852 0.99985 0.999846 0.999839 0.99984
        </DataArray>
        <DataArray type="Float32" Name="X^w_Air" NumberOfComponents="1" format="ascii">
          0 0 0 0 0 0 0 0 0 0 0 0
          0 0 0 0 0 0 0 0 0 0 0 0
          0 0 0 0 0 0
        </DataArray>
        <DataArray type="Float32" Name="X^w_AuComplex" NumberOfComponents="1" format="ascii">
          1.42965e-16 1.42815e-16 1.42762e-16 1.42735e-16 1.4271e-16 1.42708e-16 1.42718e-16 1.42731e-16 1.42731e-16 1.42751e-16 1.42737e-16 1.42727e-16
          1.42716e-16 1.4272e-16 1.42699e-16 1.4271e-16 1.42711e-16 1.4271e-16 1.42694e-16 1.42682e-16 1.42649e-16 1.42673e-16 1.56055e-16 2.94273e-14
          6.89133e-11 1.07478e-10 1.84539e-10 3.64095e-10 1.83946e-15 1.78927e-15
        </DataArray>
        <DataArray type="Float32" Name="X^w_nanoAu" NumberOfComponents="1" format="ascii">
          5.46572e-19 5.45922e-19 5.45696e-19 5.45581e-19 5.4548e-19 5.45477e-19 5.45523e-19 5.45584e-19 5.4559e-19 5.45675e-19 5.4562e-19 5.45584e-19
          5.45543e-19 5.45564e-19 5.45487e-19 5.45532e-19 5.45544e-19 5.45548e-19 5.45498e-19 5.45502e-19 5.49092e-19 8.91494e-19 3.2577e-17 2.96101e-15
          2.63814e-13 3.35302e-13 4.46801e-13 6.26563e-13 2.0639e-18 1.98618e-18
        </DataArray>
        <DataArray type="Float32" Name="X^w_cyanide" NumberOfComponents="1" format="ascii">
          5.07408e-06 5.07404e-06 5.074e-06 5.07397e-06 5.07393e-06 5.07389e-06 5.07386e-06 5.07382e-06 5.07378e-06 5.07374e-06 5.0737e-06 5.07366e-06
          5.07361e-06 5.07356e-06 5.0735e-06 5.07343e-06 5.07334e-06 5.07323e-06 5.07309e-06 5.0729e-06 5.07264e-06 5.07226e-06 5.07171e-06 5.07087e-06
          5.06999e-06 6.43992e-06 8.57552e-06 1.22395e-05 1.94563e-05 1.92208e-05
        </DataArray>
        <DataArray type="Float32" Name="X^w_citrate" NumberOfComponents="1" format="ascii">
          0.000141796 0.000141796 0.000141796 0.000141796 0.000141796 0.000141796 0.000141796 0.000141796 0.000141796 0.000141796 0.000141796 0.000141796
          0.000141796 0.000141796 0.000141795 0.000141795 0.000141795 0.000141794 0.000141793 0.000141792 0.00014179 0.000141788 0.000141784 0.000141778
          0.000141768 0.000141752 0.00014172 0.000141645 0.000141398 0.000139687
        </DataArray>
        <DataArray type="Float32" Name="X^w_substrate" NumberOfComponents="1" format="ascii">
          5.55737e-12 7.68399e-12 1.06238e-11 1.46877e-11 2.03056e-11 2.80719e-11 3.88092e-11 5.36567e-11 7.41929e-11 1.02608e-10 1.41948e-10 1.96458e-10
          2.72071e-10 3.77127e-10 5.23407e-10 7.27695e-10 1.01414e-09 1.41797e-09 1.99141e-09 2.81366e-09 4.00813e-09 5.774e-09 8.44763e-09 1.26312e-08
          1.94894e-08 3.15243e-08 5.49801e-08 1.09379e-07 2.84195e-07 1.49121e-06
        </DataArray>
        <DataArray type="Float32" Name="m^w_H2O" NumberOfComponents="1" format="ascii">
          55492.6 55492.6 55492.5 55492.5 55492.5 55492.5 55492.5 55492.5 55492.5 55492.5 55492.5 55492.5
          55492.5 55492.4 55492.4 55492.4 55492.4 55492.4 55492.4 55492.4 55492.4 55492.4 55492.4 55492.4
          55492.3 55492.3 55492.1 55491.9 55491.5 55491.6
        </DataArray>
        <DataArray type="Float32" Name="m^w_Air" NumberOfComponents="1" format="ascii">
          0 0 0 0 0 0 0 0 0 0 0 0
          0 0 0 0 0 0 0 0 0 0 0 0
          0 0 0 0 0 0
        </DataArray>
        <DataArray type="Float32" Name="m^w_AuComplex" NumberOfComponents="1" format="ascii">
          7.25714e-13 7.24955e-13 7.24686e-13 7.24546e-13 7.24421e-13 7.24411e-13 7.2446e-13 7.24529e-13 7.2453e-13 7.24631e-13 7.24559e-13 7.24509e-13
          7.24451e-13 7.24473e-13 7.24366e-13 7.24418e-13 7.24424e-13 7.24419e-13 7.2434e-13 7.24278e-13 7.24109e-13 7.24229e-13 7.92159e-13 1.49378e-10
          3.49815e-07 5.45575e-07 9.3675e-07 1.8482e-06 9.33737e-12 9.08263e-12
        </DataArray>
        <DataArray type="Float32" Name="m^w_nanoAu" NumberOfComponents="1" format="ascii">
          2.7745e-15 2.7712e-15 2.77005e-15 2.76947e-15 2.76895e-15 2.76894e-15 2.76917e-15 2.76948e-15 2.76951e-15 2.76994e-15 2.76966e-15 2.76948e-15
          2.76927e-15 2.76937e-15 2.76898e-15 2.76921e-15 2.76927e-15 2.76929e-15 2.76904e-15 2.76906e-15 2.78728e-15 4.52537e-15 1.65366e-13 1.50306e-11
          1.33916e-09 1.70205e-09 2.26803e-09 3.18053e-09 1.04767e-14 1.00821e-14
        </DataArray>
        <DataArray type="Float32" Name="m^w_cyanide" NumberOfComponents="1" format="ascii">
          0.194979 0.194977 0.194976 0.194974 0.194973 0.194971 0.19497 0.194969 0.194967 0.194966 0.194964 0.194962
          0.19496 0.194958 0.194956 0.194953 0.19495 0.194946 0.19494 0.194933 0.194923 0.194908 0.194887 0.194855
          0.194821 0.247462 0.329525 0.470319 0.747633 0.738584
        </DataArray>
        <DataArray type="Float32" Name="m^w_citrate" NumberOfComponents="1" format="ascii">
          0.749742 0.749742 0.749742 0.749742 0.749742 0.749742 0.749741 0.749741 0.749741 0.749741 0.74974 0.74974
          0.749739 0.749738 0.749737 0.749735 0.749733 0.74973 0.749725 0.749719 0.74971 0.749697 0.749676 0.749645
          0.749593 0.749508 0.749338 0.748938 0.747636 0.738585
        </DataArray>
        <DataArray type="Float32" Name="m^w_substrate" NumberOfComponents="1" format="ascii">
          3.08424e-08 4.26447e-08 5.89602e-08 8.15141e-08 1.12692e-07 1.55794e-07 2.15384e-07 2.97785e-07 4.11756e-07 5.69457e-07 7.87786e-07 1.0903e-06
          1.50994e-06 2.09298e-06 2.90481e-06 4.03857e-06 5.62829e-06 7.86943e-06 1.10519e-05 1.56153e-05 2.22443e-05 3.20446e-05 4.68827e-05 7.01006e-05
          0.000108162 0.000174953 0.000305128 0.00060703 0.00157723 0.0082759
        </DataArray>
        <DataArray type="Float32" Name="process rank" NumberOfComponents="1" format="ascii">
          0 0 0 0 0 0 0 0 0 0 0 0
          0 0 0 0 0 0 0 0 0 0 0 0
          0 0 0 0 0 0
        </DataArray>
      </CellData>
      <Points>
        <DataArray type="Float32" Name="Coordinates" NumberOfComponents="3" format="ascii">
          0 0 0 0.5 0 0 0 0.0333333 0 0.5 0.0333333 0
          0 0.0666667 0 0.5 0.0666667 0 0 0.1 0 0.5 0.1 0
          0 0.133333 0 0.5 0.133333 0 0 0.166667 0 0.5 0.166667 0
          0 0.2 0 0.5 0.2 0 0 0.233333 0 0.5 0.233333 0
          0 0.266667 0 0.5 0.266667 0 0 0.3 0 0.5 0.3 0
          0 0.333333 0 0.5 0.333333 0 0 0.366667 0 0.5 0.366667 0
          0 0.4 0 0.5 0.4 0 0 0.433333 0 0.5 0.433333 0
          0 0.466667 0 0.5 0.466667 0 0 0.5 0 0.5 0.5 0
          0 0.533333 0 0.5 0.533333 0 0 0.566667 0 0.5 0.566667 0
          0 0.6 0 0.5 0.6 0 0 0.633333 0 0.5 0.633333 0
          0 0.666667 0 0.5 0.666667 0 0 0.7 0 0.5 0.7 0
          0 0.733333 0 0.5 0.733333 0 0 0.766667 0 0.5 0.766667 0
          0 0.8 0 0.5 0.8 0 0 0.833333 0 0.5 0.833333 0
          0 0.866667 0 0.5 0.866667 0 0 0.9 0 0.5 0.9 0
          0 0.933333 0 0.5 0.933333 0 0 0.966667 0 0.5 0.966667 0
          0 1 0 0.5 1 0
        </DataArray>
      </Points>
      <Cells>
        <DataArray type="Int32" Name="connectivity" NumberOfComponents="1" format="ascii">
          0 1 3 2 2 3 5 4 4 5 7 6
          6 7 9 8 8 9 11 10 10 11 13 12
          12 13 15 14 14 15 17 16 16 17 19 18
          18 19 21 20 20 21 23 22 22 23 25 24
          24 25 27 26 26 27 29 28 28 29 31 30
          30 31 33 32 32 33 35 34 34 35 37 36
          36 37 39 38 38 39 41 40 40 41 43 42
          42 43 45 44 44 45 47 46 46 47 49 48
          48 49 51 50 50 51 53 52 52 53 55 54
          54 55 57 56 56 57 59 58 58 59 61 60
        </DataArray>
        <DataArray type="Int32" Name="offsets" NumberOfComponents="1" format="ascii">
          4 8 12 16 20 24 28 32 36 40 44 48
          52 56 60 64 68 72 76 80 84 88 92 96
          100 104 108 112 116 120
        </DataArray>
        <DataArray type="UInt8" Name="types" NumberOfComponents="1" format="ascii">
          9 9 9 9 9 9 9 9 9 9 9 9
          9 9 9 9 9 9 9 9 9 9 9 9
          9 9 9 9 9 9
        </DataArray>
      </Cells>
    </Piece>
  </UnstructuredGrid>
</VTKFile>
