<?xml version="1.0"?>
<VTKFile type="UnstructuredGrid" version="0.1" byte_order="LittleEndian">
  <UnstructuredGrid>
    <Piece NumberOfCells="30" NumberOfPoints="62">
      <CellData Scalars="Sg">
        <DataArray type="Float32" Name="Sg" NumberOfComponents="1" format="ascii">
          0 0 0 0 0 0 0 0 0 0 0 0
          0 0 0 0 0 0 0 0 0 0 0 0
          0 0 0 0 0 0
        </DataArray>
        <DataArray type="Float32" Name="Sl" NumberOfComponents="1" format="ascii">
          1 1 1 1 1 1 1 1 1 1 1 1
          1 1 1 1 1 1 1 1 1 1 1 1
          1 1 1 1 1 1
        </DataArray>
        <DataArray type="Float32" Name="pg" NumberOfComponents="1" format="ascii">
          24687.8 24360.9 24034 23707 23380.1 23053.1 22726.2 22399.3 22072.3 21745.4 21418.4 21091.5
          20764.6 20437.6 20110.7 19783.7 19456.8 19129.8 18802.9 18476 18149 17822.1 17495.1 17168.2
          16841.3 16514.3 16187.4 15860.4 15533.5 15208.5
        </DataArray>
        <DataArray type="Float32" Name="pl" NumberOfComponents="1" format="ascii">
          110628 110301 109974 109647 109320 108993 108666 108339 108012 107685 107358 107031
          106704 106377 106050 105723 105396 105070 104743 104416 104089 103762 103435 103108
          102781 102454 102127 101800 101473 101148
        </DataArray>
        <DataArray type="Float32" Name="pc" NumberOfComponents="1" format="ascii">
          -85939.7 -85939.7 -85939.7 -85939.7 -85939.7 -85939.7 -85939.7 -85939.7 -85939.7 -85939.7 -85939.7 -85939.7
          -85939.7 -85939.7 -85939.7 -85939.7 -85939.7 -85939.7 -85939.7 -85939.7 -85939.7 -85939.7 -85939.7 -85939.7
          -85939.7 -85939.7 -85939.7 -85939.7 -85939.7 -85939.7
        </DataArray>
        <DataArray type="Float32" Name="rhoL" NumberOfComponents="1" format="ascii">
          999.855 999.855 999.855 999.855 999.855 999.854 999.854 999.854 999.854 999.854 999.854 999.854
          999.853 999.853 999.853 999.853 999.853 999.853 999.852 999.852 999.852 999.852 999.852 999.852
          999.852 999.851 999.851 999.851 999.851 999.851
        </DataArray>
        <DataArray type="Float32" Name="rhoG" NumberOfComponents="1" format="ascii">
          0.30585 0.3018 0.29775 0.293699 0.289649 0.285598 0.281548 0.277498 0.273447 0.269397 0.265347 0.261296
          0.257246 0.253195 0.249145 0.245095 0.241044 0.236994 0.232944 0.228893 0.224843 0.220793 0.216742 0.212692
          0.208641 0.204591 0.200541 0.19649 0.19244 0.188414
        </DataArray>
        <DataArray type="Float32" Name="mobL" NumberOfComponents="1" format="ascii">
          722.171 722.17 722.17 722.17 722.17 722.17 722.169 722.169 722.169 722.169 722.169 722.169
          722.168 722.168 722.168 722.168 722.168 722.167 722.167 722.167 722.167 722.167 722.166 722.166
          722.166 722.166 722.166 722.166 722.165 722.165
        </DataArray>
        <DataArray type="Float32" Name="mobG" NumberOfComponents="1" format="ascii">
          0 0 0 0 0 0 0 0 0 0 0 0
          0 0 0 0 0 0 0 0 0 0 0 0
          0 0 0 0 0 0
        </DataArray>
        <DataArray type="Float32" Name="porosity" NumberOfComponents="1" format="ascii">
          0.29886 0.29886 0.29886 0.298859 0.298859 0.298859 0.298858 0.298857 0.298856 0.298855 0.298852 0.298849
          0.298845 0.29884 0.298832 0.298821 0.298807 0.298787 0.298761 0.298725 0.298675 0.298604 0.298503 0.298353
          0.297845 0.297434 0.296613 0.294458 0.284046 0.0518096
        </DataArray>
        <DataArray type="Float32" Name="temperature" NumberOfComponents="1" format="ascii">
          281.15 281.15 281.15 281.15 281.15 281.15 281.15 281.15 281.15 281.15 281.15 281.15
          281.15 281.15 281.15 281.15 281.15 281.15 281.15 281.15 281.15 281.15 281.15 281.15
          281.15 281.15 281.15 281.15 281.15 281.15
        </DataArray>
        <DataArray type="Float32" Name="phase presence" NumberOfComponents="1" format="ascii">
          1 1 1 1 1 1 1 1 1 1 1 1
          1 1 1 1 1 1 1 1 1 1 1 1
          1 1 1 1 1 1
        </DataArray>
        <DataArray type="Float32" Name="precipitateVolumeFraction_au" NumberOfComponents="1" format="ascii">
          5.52906e-10 5.52813e-10 5.52768e-10 5.5274e-10 5.52709e-10 5.52703e-10 5.52718e-10 5.52743e-10 5.52748e-10 5.52799e-10 5.52774e-10 5.52757e-10
          5.52733e-10 5.52754e-10 5.527e-10 5.52743e-10 5.52763e-10 5.52781e-10 5.52755e-10 5.52747e-10 5.52678e-10 5.52775e-10 5.5296e-10 1.17411e-09
          0.000269941 0.000269925 0.0002699 0.000269852 5.52186e-10 5.51161e-10
        </DataArray>
        <DataArray type="Float32" Name="precipitateVolumeFraction_nanoAu" NumberOfComponents="1" format="ascii">
          1.23688e-13 1.23667e-13 1.23657e-13 1.23651e-13 1.23644e-13 1.23643e-13 1.23646e-13 1.23651e-13 1.23652e-13 1.23663e-13 1.23658e-13 1.23653e-13
          1.23647e-13 1.23651e-13 1.23639e-13 1.23647e-13 1.2365e-13 1.23652e-13 1.23643e-13 1.23637e-13 1.23616e-13 1.23646e-13 1.35567e-13 2.58139e-11
          6.03634e-08 7.66854e-08 1.02148e-07 1.45572e-07 4.7417e-13 4.67289e-13
        </DataArray>
        <DataArray type="Float32" Name="precipitateVolumeFraction_d" NumberOfComponents="1" format="ascii">
          0.000570037 0.00057009 0.000570164 0.00057027 0.000570418 0.000570627 0.00057092 0.00057133 0.000571902 0.000572696 0.000573795 0.000575311
          0.000577392 0.00058024 0.000584122 0.000589401 0.000596567 0.000606296 0.000619533 0.000637642 0.000662658 0.000697769 0.00074827 0.00082365
          0.000942694 0.0011482 0.00155851 0.00263586 0.00797715 0.124095
        </DataArray>
        <DataArray type="Float32" Name="precipitateVolumeFraction_p" NumberOfComponents="1" format="ascii">
          0.000570037 0.00057009 0.000570164 0.00057027 0.000570418 0.000570627 0.00057092 0.00057133 0.000571902 0.000572696 0.000573795 0.000575311
          0.000577392 0.00058024 0.000584122 0.000589401 0.000596567 0.000606296 0.000619533 0.000637642 0.000662658 0.000697769 0.00074827 0.00082365
          0.000942694 0.0011482 0.00155851 0.00263586 0.00797715 0.124095
        </DataArray>
        <DataArray type="Float32" Name="K" NumberOfComponents="1" format="ascii">
          9.8543e-11 9.85429e-11 9.85427e-11 9.85424e-11 9.8542e-11 9.85415e-11 9.85408e-11 9.85397e-11 9.85383e-11 9.85362e-11 9.85335e-11 9.85296e-11
          9.85243e-11 9.85171e-11 9.85072e-11 9.84938e-11 9.84756e-11 9.84509e-11 9.84173e-11 9.83714e-11 9.83079e-11 9.82189e-11 9.8091e-11 9.79004e-11
          9.72602e-11 9.67448e-11 9.57225e-11 9.30804e-11 8.11384e-11 2.80718e-13
        </DataArray>
        <DataArray type="Float32" Name="X^w_H2O" NumberOfComponents="1" format="ascii">
          0.999853 0.999853 0.999853 0.999853 0.999853 0.999853 0.999853 0.999853 0.999853 0.999853 0.999853 0.999853
          0.999853 0.999853 0.999853 0.999853 0.999853 0.999853 0.999853 0.999853 0.999853 0.999853 0.999853 0.999853
          0.999853 0.999852 0.99985 0.999846 0.999839 0.99984
        </DataArray>
        <DataArray type="Float32" Name="X^w_Air" NumberOfComponents="1" format="ascii">
          0 0 0 0 0 0 0 0 0 0 0 0
          0 0 0 0 0 0 0 0 0 0 0 0
          0 0 0 0 0 0
        </DataArray>
        <DataArray type="Float32" Name="X^w_AuComplex" NumberOfComponents="1" format="ascii">
          1.41124e-16 1.411e-16 1.41089e-16 1.41082e-16 1.41074e-16 1.41072e-16 1.41076e-16 1.41082e-16 1.41083e-16 1.41096e-16 1.41089e-16 1.41084e-16
          1.41076e-16 1.41081e-16 1.41065e-16 1.41074e-16 1.41075e-16 1.41075e-16 1.41062e-16 1.41052e-16 1.41022e-16 1.41046e-16 1.54441e-16 2.94245e-14
          6.88364e-11 1.07373e-10 1.8441e-10 3.64029e-10 1.83569e-15 1.78894e-15
        </DataArray>
        <DataArray type="Float32" Name="X^w_nanoAu" NumberOfComponents="1" format="ascii">
          5.38704e-19 5.38613e-19 5.38569e-19 5.38541e-19 5.38511e-19 5.38506e-19 5.3852e-19 5.38544e-19 5.38548e-19 5.38596e-19 5.3857e-19 5.38551e-19
          5.38525e-19 5.38541e-19 5.38486e-19 5.38521e-19 5.38532e-19 5.38536e-19 5.38495e-19 5.38504e-19 5.42092e-19 8.83569e-19 3.25057e-17 2.95711e-15
          2.63634e-13 3.35112e-13 4.46641e-13 6.26592e-13 2.05946e-18 1.98573e-18
        </DataArray>
        <DataArray type="Float32" Name="X^w_cyanide" NumberOfComponents="1" format="ascii">
          5.07045e-06 5.07045e-06 5.07045e-06 5.07045e-06 5.07045e-06 5.07045e-06 5.07044e-06 5.07044e-06 5.07044e-06 5.07043e-06 5.07042e-06 5.07041e-06
          5.07039e-06 5.07036e-06 5.07033e-06 5.07028e-06 5.07021e-06 5.07013e-06 5.07e-06 5.06983e-06 5.06959e-06 5.06925e-06 5.06875e-06 5.06799e-06
          5.06727e-06 6.43695e-06 8.57272e-06 1.22386e-05 1.94647e-05 1.92445e-05
        </DataArray>
        <DataArray type="Float32" Name="X^w_citrate" NumberOfComponents="1" format="ascii">
          0.000141796 0.000141796 0.000141796 0.000141796 0.000141796 0.000141796 0.000141796 0.000141796 0.000141796 0.000141796 0.000141796 0.000141796
          0.000141795 0.000141795 0.000141795 0.000141795 0.000141794 0.000141794 0.000141793 0.000141791 0.00014179 0.000141787 0.000141783 0.000141778
          0.000141769 0.000141755 0.000141728 0.000141665 0.000141459 0.000139859
        </DataArray>
        <DataArray type="Float32" Name="X^w_substrate" NumberOfComponents="1" format="ascii">
          1.21613e-11 1.6274e-11 2.17763e-11 2.91375e-11 3.89855e-11 5.21612e-11 6.97903e-11 9.33818e-11 1.2496e-10 1.67245e-10 2.23898e-10 2.99862e-10
          4.01833e-10 5.38926e-10 7.23633e-10 9.73216e-10 1.31179e-09 1.77353e-09 2.40774e-09 3.2872e-09 4.52251e-09 6.28801e-09 8.87175e-09 1.27794e-08
          1.89728e-08 2.94924e-08 4.9402e-08 9.46519e-08 2.41202e-07 1.36986e-06
        </DataArray>
        <DataArray type="Float32" Name="m^w_H2O" NumberOfComponents="1" format="ascii">
          55492.6 55492.6 55492.5 55492.5 55492.5 55492.5 55492.5 55492.5 55492.5 55492.5 55492.5 55492.5
          55492.5 55492.4 55492.4 55492.4 55492.4 55492.4 55492.4 55492.4 55492.4 55492.4 55492.4 55492.4
          55492.3 55492.3 55492.1 55491.9 55491.5 55491.5
        </DataArray>
        <DataArray type="Float32" Name="m^w_Air" NumberOfComponents="1" format="ascii">
          0 0 0 0 0 0 0 0 0 0 0 0
          0 0 0 0 0 0 0 0 0 0 0 0
          0 0 0 0 0 0
        </DataArray>
        <DataArray type="Float32" Name="m^w_AuComplex" NumberOfComponents="1" format="ascii">
          7.16372e-13 7.16251e-13 7.16193e-13 7.16156e-13 7.16115e-13 7.16108e-13 7.16126e-13 7.16157e-13 7.16162e-13 7.16226e-13 7.16191e-13 7.16164e-13
          7.16128e-13 7.16149e-13 7.16071e-13 7.16114e-13 7.16122e-13 7.16122e-13 7.16056e-13 7.16002e-13 7.15851e-13 7.15972e-13 7.83965e-13 1.49363e-10
          3.49425e-07 5.45045e-07 9.36094e-07 1.84787e-06 9.31823e-12 9.08095e-12
        </DataArray>
        <DataArray type="Float32" Name="m^w_nanoAu" NumberOfComponents="1" format="ascii">
          2.73456e-15 2.73409e-15 2.73387e-15 2.73373e-15 2.73358e-15 2.73355e-15 2.73362e-15 2.73374e-15 2.73376e-15 2.73401e-15 2.73387e-15 2.73378e-15
          2.73365e-15 2.73373e-15 2.73345e-15 2.73362e-15 2.73368e-15 2.7337e-15 2.73349e-15 2.73354e-15 2.75175e-15 4.48514e-15 1.65004e-13 1.50108e-11
          1.33825e-09 1.70108e-09 2.26722e-09 3.18068e-09 1.04542e-14 1.00799e-14
        </DataArray>
        <DataArray type="Float32" Name="m^w_cyanide" NumberOfComponents="1" format="ascii">
          0.194839 0.194839 0.194839 0.194839 0.194839 0.194839 0.194839 0.194839 0.194838 0.194838 0.194838 0.194837
          0.194836 0.194835 0.194834 0.194832 0.19483 0.194826 0.194822 0.194815 0.194806 0.194792 0.194773 0.194744
          0.194716 0.247348 0.329417 0.470282 0.747956 0.739494
        </DataArray>
        <DataArray type="Float32" Name="m^w_citrate" NumberOfComponents="1" format="ascii">
          0.749742 0.749742 0.749742 0.749742 0.749742 0.749741 0.749741 0.749741 0.74974 0.74974 0.749739 0.749739
          0.749738 0.749737 0.749735 0.749733 0.749731 0.749727 0.749722 0.749715 0.749706 0.749693 0.749673 0.749644
          0.749597 0.749523 0.74938 0.749048 0.747959 0.739495
        </DataArray>
        <DataArray type="Float32" Name="m^w_substrate" NumberOfComponents="1" format="ascii">
          6.74929e-08 9.03179e-08 1.20855e-07 1.61708e-07 2.16363e-07 2.89485e-07 3.87323e-07 5.18251e-07 6.93505e-07 9.28179e-07 1.24259e-06 1.66418e-06
          2.2301e-06 2.99094e-06 4.01603e-06 5.40116e-06 7.28018e-06 9.84275e-06 1.33625e-05 1.82433e-05 2.5099e-05 3.48972e-05 4.92364e-05 7.09231e-05
          0.000105295 0.000163677 0.000274171 0.000525299 0.00133862 0.00760243
        </DataArray>
        <DataArray type="Float32" Name="process rank" NumberOfComponents="1" format="ascii">
          0 0 0 0 0 0 0 0 0 0 0 0
          0 0 0 0 0 0 0 0 0 0 0 0
          0 0 0 0 0 0
        </DataArray>
      </CellData>
      <Points>
        <DataArray type="Float32" Name="Coordinates" NumberOfComponents="3" format="ascii">
          0 0 0 0.5 0 0 0 0.0333333 0 0.5 0.0333333 0
          0 0.0666667 0 0.5 0.0666667 0 0 0.1 0 0.5 0.1 0
          0 0.133333 0 0.5 0.133333 0 0 0.166667 0 0.5 0.166667 0
          0 0.2 0 0.5 0.2 0 0 0.233333 0 0.5 0.233333 0
          0 0.266667 0 0.5 0.266667 0 0 0.3 0 0.5 0.3 0
          0 0.333333 0 0.5 0.333333 0 0 0.366667 0 0.5 0.366667 0
          0 0.4 0 0.5 0.4 0 0 0.433333 0 0.5 0.433333 0
          0 0.466667 0 0.5 0.466667 0 0 0.5 0 0.5 0.5 0
          0 0.533333 0 0.5 0.533333 0 0 0.566667 0 0.5 0.566667 0
          0 0.6 0 0.5 0.6 0 0 0.633333 0 0.5 0.633333 0
          0 0.666667 0 0.5 0.666667 0 0 0.7 0 0.5 0.7 0
          0 0.733333 0 0.5 0.733333 0 0 0.766667 0 0.5 0.766667 0
          0 0.8 0 0.5 0.8 0 0 0.833333 0 0.5 0.833333 0
          0 0.866667 0 0.5 0.866667 0 0 0.9 0 0.5 0.9 0
          0 0.933333 0 0.5 0.933333 0 0 0.966667 0 0.5 0.966667 0
          0 1 0 0.5 1 0
        </DataArray>
      </Points>
      <Cells>
        <DataArray type="Int32" Name="connectivity" NumberOfComponents="1" format="ascii">
          0 1 3 2 2 3 5 4 4 5 7 6
          6 7 9 8 8 9 11 10 10 11 13 12
          12 13 15 14 14 15 17 16 16 17 19 18
          18 19 21 20 20 21 23 22 22 23 25 24
          24 25 27 26 26 27 29 28 28 29 31 30
          30 31 33 32 32 33 35 34 34 35 37 36
          36 37 39 38 38 39 41 40 40 41 43 42
          42 43 45 44 44 45 47 46 46 47 49 48
          48 49 51 50 50 51 53 52 52 53 55 54
          54 55 57 56 56 57 59 58 58 59 61 60
        </DataArray>
        <DataArray type="Int32" Name="offsets" NumberOfComponents="1" format="ascii">
          4 8 12 16 20 24 28 32 36 40 44 48
          52 56 60 64 68 72 76 80 84 88 92 96
          100 104 108 112 116 120
        </DataArray>
        <DataArray type="UInt8" Name="types" NumberOfComponents="1" format="ascii">
          9 9 9 9 9 9 9 9 9 9 9 9
          9 9 9 9 9 9 9 9 9 9 9 9
          9 9 9 9 9 9
        </DataArray>
      </Cells>
    </Piece>
  </UnstructuredGrid>
</VTKFile>
