<?xml version="1.0"?>
<VTKFile type="UnstructuredGrid" version="0.1" byte_order="LittleEndian">
  <UnstructuredGrid>
    <Piece NumberOfCells="30" NumberOfPoints="62">
      <CellData Scalars="Sg">
        <DataArray type="Float32" Name="Sg" NumberOfComponents="1" format="ascii">
          0 0 0 0 0 0 0 0 0 0 0 0
          0 0 0 0 0 0 0 0 0 0 0 0
          0 0 0 0 0 0
        </DataArray>
        <DataArray type="Float32" Name="Sl" NumberOfComponents="1" format="ascii">
          1 1 1 1 1 1 1 1 1 1 1 1
          1 1 1 1 1 1 1 1 1 1 1 1
          1 1 1 1 1 1
        </DataArray>
        <DataArray type="Float32" Name="pg" NumberOfComponents="1" format="ascii">
          24687.8 24360.9 24034 23707 23380.1 23053.1 22726.2 22399.3 22072.3 21745.4 21418.4 21091.5
          20764.6 20437.6 20110.7 19783.7 19456.8 19129.9 18802.9 18476 18149 17822.1 17495.1 17168.2
          16841.3 16514.3 16187.4 15860.4 15533.5 15206.9
        </DataArray>
        <DataArray type="Float32" Name="pl" NumberOfComponents="1" format="ascii">
          110628 110301 109974 109647 109320 108993 108666 108339 108012 107685 107358 107031
          106704 106377 106050 105723 105396 105070 104743 104416 104089 103762 103435 103108
          102781 102454 102127 101800 101473 101147
        </DataArray>
        <DataArray type="Float32" Name="pc" NumberOfComponents="1" format="ascii">
          -85939.7 -85939.7 -85939.7 -85939.7 -85939.7 -85939.7 -85939.7 -85939.7 -85939.7 -85939.7 -85939.7 -85939.7
          -85939.7 -85939.7 -85939.7 -85939.7 -85939.7 -85939.7 -85939.7 -85939.7 -85939.7 -85939.7 -85939.7 -85939.7
          -85939.7 -85939.7 -85939.7 -85939.7 -85939.7 -85939.7
        </DataArray>
        <DataArray type="Float32" Name="rhoL" NumberOfComponents="1" format="ascii">
          999.855 999.855 999.855 999.855 999.855 999.854 999.854 999.854 999.854 999.854 999.854 999.854
          999.853 999.853 999.853 999.853 999.853 999.853 999.852 999.852 999.852 999.852 999.852 999.852
          999.852 999.851 999.851 999.851 999.851 999.851
        </DataArray>
        <DataArray type="Float32" Name="rhoG" NumberOfComponents="1" format="ascii">
          0.30585 0.3018 0.29775 0.293699 0.289649 0.285598 0.281548 0.277498 0.273447 0.269397 0.265347 0.261296
          0.257246 0.253195 0.249145 0.245095 0.241044 0.236994 0.232944 0.228893 0.224843 0.220793 0.216742 0.212692
          0.208641 0.204591 0.200541 0.19649 0.19244 0.188394
        </DataArray>
        <DataArray type="Float32" Name="mobL" NumberOfComponents="1" format="ascii">
          722.171 722.17 722.17 722.17 722.17 722.17 722.169 722.169 722.169 722.169 722.169 722.169
          722.168 722.168 722.168 722.168 722.168 722.167 722.167 722.167 722.167 722.167 722.166 722.166
          722.166 722.166 722.166 722.166 722.165 722.165
        </DataArray>
        <DataArray type="Float32" Name="mobG" NumberOfComponents="1" format="ascii">
          0 0 0 0 0 0 0 0 0 0 0 0
          0 0 0 0 0 0 0 0 0 0 0 0
          0 0 0 0 0 0
        </DataArray>
        <DataArray type="Float32" Name="porosity" NumberOfComponents="1" format="ascii">
          0.298597 0.298597 0.298597 0.298597 0.298596 0.298596 0.298595 0.298594 0.298593 0.298591 0.298588 0.298584
          0.298579 0.298572 0.298562 0.298549 0.298532 0.298508 0.298476 0.298432 0.298372 0.298289 0.29817 0.297995
          0.297453 0.296996 0.296119 0.29399 0.285471 0.0920901
        </DataArray>
        <DataArray type="Float32" Name="temperature" NumberOfComponents="1" format="ascii">
          281.15 281.15 281.15 281.15 281.15 281.15 281.15 281.15 281.15 281.15 281.15 281.15
          281.15 281.15 281.15 281.15 281.15 281.15 281.15 281.15 281.15 281.15 281.15 281.15
          281.15 281.15 281.15 281.15 281.15 281.15
        </DataArray>
        <DataArray type="Float32" Name="phase presence" NumberOfComponents="1" format="ascii">
          1 1 1 1 1 1 1 1 1 1 1 1
          1 1 1 1 1 1 1 1 1 1 1 1
          1 1 1 1 1 1
        </DataArray>
        <DataArray type="Float32" Name="precipitateVolumeFraction_au" NumberOfComponents="1" format="ascii">
          5.52606e-10 5.52738e-10 5.52704e-10 5.5269e-10 5.5272e-10 5.52717e-10 5.52693e-10 5.5274e-10 5.52727e-10 5.52731e-10 5.52682e-10 5.52709e-10
          5.52703e-10 5.52739e-10 5.52708e-10 5.5268e-10 5.52692e-10 5.52695e-10 5.52682e-10 5.52672e-10 5.52698e-10 5.52729e-10 5.52818e-10 7.76027e-10
          0.00026994 0.000269924 0.000269899 0.000269854 5.5249e-10 5.51298e-10
        </DataArray>
        <DataArray type="Float32" Name="precipitateVolumeFraction_nanoAu" NumberOfComponents="1" format="ascii">
          1.67492e-13 1.72005e-13 1.71077e-13 1.70833e-13 1.71328e-13 1.71272e-13 1.70963e-13 1.71403e-13 1.71233e-13 1.71208e-13 1.70936e-13 1.71063e-13
          1.71029e-13 1.7113e-13 1.71035e-13 1.70967e-13 1.70988e-13 1.70989e-13 1.70966e-13 1.70947e-13 1.70967e-13 1.70992e-13 1.82886e-13 2.59061e-11
          6.04571e-08 7.67868e-08 1.02243e-07 1.45598e-07 5.20611e-13 5.11312e-13
        </DataArray>
        <DataArray type="Float32" Name="precipitateVolumeFraction_d" NumberOfComponents="1" format="ascii">
          0.000701301 0.000701369 0.000701465 0.0007016 0.000701789 0.000702056 0.000702428 0.000702949 0.000703672 0.000704674 0.000706056 0.000707955
          0.000710552 0.000714089 0.000718891 0.00072539 0.00073417 0.000746026 0.000762067 0.000783878 0.000813803 0.000855474 0.000914841 0.00100238
          0.00113832 0.00136722 0.00180571 0.00286978 0.00726471 0.103955
        </DataArray>
        <DataArray type="Float32" Name="precipitateVolumeFraction_p" NumberOfComponents="1" format="ascii">
          0.000701301 0.000701369 0.000701465 0.0007016 0.000701789 0.000702056 0.000702428 0.000702949 0.000703672 0.000704674 0.000706056 0.000707955
          0.000710552 0.000714089 0.000718891 0.00072539 0.00073417 0.000746026 0.000762067 0.000783878 0.000813803 0.000855474 0.000914841 0.00100238
          0.00113832 0.00136722 0.00180571 0.00286978 0.00726471 0.103955
        </DataArray>
        <DataArray type="Float32" Name="K" NumberOfComponents="1" format="ascii">
          9.821e-11 9.82098e-11 9.82096e-11 9.82092e-11 9.82087e-11 9.82081e-11 9.82071e-11 9.82058e-11 9.8204e-11 9.82014e-11 9.81979e-11 9.81931e-11
          9.81865e-11 9.81776e-11 9.81654e-11 9.8149e-11 9.81267e-11 9.80967e-11 9.80561e-11 9.8001e-11 9.79253e-11 9.782e-11 9.76702e-11 9.74496e-11
          9.67695e-11 9.6198e-11 9.51109e-11 9.25147e-11 8.26944e-11 1.71944e-12
        </DataArray>
        <DataArray type="Float32" Name="X^w_H2O" NumberOfComponents="1" format="ascii">
          0.999853 0.999853 0.999853 0.999853 0.999853 0.999853 0.999853 0.999853 0.999853 0.999853 0.999853 0.999853
          0.999853 0.999853 0.999853 0.999853 0.999853 0.999853 0.999853 0.999853 0.999853 0.999853 0.999853 0.999853
          0.999853 0.999852 0.99985 0.999846 0.999839 0.99984
        </DataArray>
        <DataArray type="Float32" Name="X^w_Air" NumberOfComponents="1" format="ascii">
          2.0838e-37 0 0 0 0 0 0 0 0 0 0 0
          0 0 0 0 0 0 0 0 0 0 0 0
          0 0 0 0 0 0
        </DataArray>
        <DataArray type="Float32" Name="X^w_AuComplex" NumberOfComponents="1" format="ascii">
          1.83555e-16 1.87906e-16 1.87007e-16 1.86769e-16 1.87244e-16 1.87187e-16 1.86885e-16 1.87309e-16 1.87142e-16 1.87115e-16 1.86848e-16 1.86968e-16
          1.86931e-16 1.87027e-16 1.8693e-16 1.86859e-16 1.86875e-16 1.86871e-16 1.86841e-16 1.86813e-16 1.86821e-16 1.8683e-16 2.00208e-16 2.95483e-14
          6.901e-11 1.07608e-10 1.84697e-10 3.6415e-10 2.00522e-15 1.94288e-15
        </DataArray>
        <DataArray type="Float32" Name="X^w_nanoAu" NumberOfComponents="1" format="ascii">
          7.04079e-19 7.22812e-19 7.18939e-19 7.17946e-19 7.20004e-19 7.19756e-19 7.18489e-19 7.20314e-19 7.19606e-19 7.1949e-19 7.18363e-19 7.18889e-19
          7.1875e-19 7.19166e-19 7.18766e-19 7.18482e-19 7.18567e-19 7.18568e-19 7.18467e-19 7.18416e-19 7.21603e-19 1.02013e-18 2.96199e-17 2.76562e-15
          2.54709e-13 3.23673e-13 4.31179e-13 6.04637e-13 2.17938e-18 2.08974e-18
        </DataArray>
        <DataArray type="Float32" Name="X^w_cyanide" NumberOfComponents="1" format="ascii">
          5.07905e-06 5.07897e-06 5.0789e-06 5.07882e-06 5.07875e-06 5.07867e-06 5.07859e-06 5.07852e-06 5.07844e-06 5.07836e-06 5.07828e-06 5.0782e-06
          5.07811e-06 5.07802e-06 5.07792e-06 5.0778e-06 5.07767e-06 5.07751e-06 5.07732e-06 5.07707e-06 5.07674e-06 5.07627e-06 5.0756e-06 5.07458e-06
          5.07342e-06 6.44357e-06 8.57891e-06 1.22406e-05 1.94454e-05 1.91768e-05
        </DataArray>
        <DataArray type="Float32" Name="X^w_citrate" NumberOfComponents="1" format="ascii">
          0.000141796 0.000141796 0.000141796 0.000141796 0.000141796 0.000141796 0.000141796 0.000141796 0.000141796 0.000141796 0.000141796 0.000141796
          0.000141796 0.000141795 0.000141795 0.000141795 0.000141795 0.000141794 0.000141793 0.000141792 0.00014179 0.000141787 0.000141782 0.000141775
          0.000141764 0.000141745 0.000141706 0.000141614 0.000141319 0.000139367
        </DataArray>
        <DataArray type="Float32" Name="X^w_substrate" NumberOfComponents="1" format="ascii">
          5.40639e-12 7.52558e-12 1.0475e-11 1.458e-11 2.02933e-11 2.82457e-11 3.9316e-11 5.47293e-11 7.61959e-11 1.06106e-10 1.47806e-10 2.05994e-10
          2.87288e-10 4.01054e-10 5.60623e-10 7.85132e-10 1.10232e-09 1.55295e-09 2.19794e-09 3.13028e-09 4.49596e-09 6.53218e-09 9.64201e-09 1.45512e-08
          2.267e-08 3.70378e-08 6.52425e-08 1.30889e-07 3.40267e-07 1.71685e-06
        </DataArray>
        <DataArray type="Float32" Name="m^w_H2O" NumberOfComponents="1" format="ascii">
          55492.6 55492.5 55492.5 55492.5 55492.5 55492.5 55492.5 55492.5 55492.5 55492.5 55492.5 55492.5
          55492.5 55492.4 55492.4 55492.4 55492.4 55492.4 55492.4 55492.4 55492.4 55492.4 55492.4 55492.4
          55492.3 55492.3 55492.1 55491.9 55491.5 55491.6
        </DataArray>
        <DataArray type="Float32" Name="m^w_Air" NumberOfComponents="1" format="ascii">
          7.1944e-33 1.27332e-34 2.21576e-36 3.79018e-38 0 0 0 0 0 0 0 0
          0 0 0 0 0 0 0 0 0 0 0 0
          0 0 0 0 0 0
        </DataArray>
        <DataArray type="Float32" Name="m^w_AuComplex" NumberOfComponents="1" format="ascii">
          9.31761e-13 9.53842e-13 9.4928e-13 9.4807e-13 9.50485e-13 9.50194e-13 9.48663e-13 9.50812e-13 9.49963e-13 9.49828e-13 9.48472e-13 9.49082e-13
          9.48896e-13 9.49382e-13 9.48891e-13 9.4853e-13 9.4861e-13 9.48587e-13 9.48436e-13 9.48296e-13 9.48334e-13 9.48381e-13 1.01629e-12 1.49992e-10
          3.50306e-07 5.46234e-07 9.37552e-07 1.84848e-06 1.01788e-11 9.86236e-12
        </DataArray>
        <DataArray type="Float32" Name="m^w_nanoAu" NumberOfComponents="1" format="ascii">
          3.57403e-15 3.66912e-15 3.64946e-15 3.64442e-15 3.65487e-15 3.65361e-15 3.64718e-15 3.65644e-15 3.65284e-15 3.65225e-15 3.64653e-15 3.6492e-15
          3.6485e-15 3.65061e-15 3.64858e-15 3.64713e-15 3.64756e-15 3.64757e-15 3.64706e-15 3.6468e-15 3.66297e-15 5.17836e-15 1.50356e-13 1.40388e-11
          1.29295e-09 1.64302e-09 2.18873e-09 3.06923e-09 1.10629e-14 1.06078e-14
        </DataArray>
        <DataArray type="Float32" Name="m^w_cyanide" NumberOfComponents="1" format="ascii">
          0.19517 0.195167 0.195164 0.195161 0.195158 0.195155 0.195152 0.195149 0.195146 0.195143 0.19514 0.195137
          0.195133 0.19513 0.195126 0.195121 0.195116 0.19511 0.195103 0.195093 0.19508 0.195062 0.195036 0.194997
          0.194953 0.247602 0.329656 0.47036 0.747213 0.736892
        </DataArray>
        <DataArray type="Float32" Name="m^w_citrate" NumberOfComponents="1" format="ascii">
          0.749742 0.749742 0.749742 0.749742 0.749742 0.749742 0.749741 0.749741 0.749741 0.749741 0.74974 0.74974
          0.749739 0.749738 0.749737 0.749735 0.749732 0.749729 0.749724 0.749717 0.749706 0.749691 0.749667 0.749631
          0.74957 0.749467 0.749261 0.748777 0.747216 0.736893
        </DataArray>
        <DataArray type="Float32" Name="m^w_substrate" NumberOfComponents="1" format="ascii">
          3.00045e-08 4.17656e-08 5.81345e-08 8.09163e-08 1.12624e-07 1.56759e-07 2.18196e-07 3.03737e-07 4.22873e-07 5.88868e-07 8.20295e-07 1.14323e-06
          1.59439e-06 2.22577e-06 3.11135e-06 4.35733e-06 6.11767e-06 8.61858e-06 1.21981e-05 1.73725e-05 2.49517e-05 3.62523e-05 5.35112e-05 8.07562e-05
          0.000125814 0.000205552 0.000362082 0.00072641 0.00188841 0.00952817
        </DataArray>
        <DataArray type="Float32" Name="process rank" NumberOfComponents="1" format="ascii">
          0 0 0 0 0 0 0 0 0 0 0 0
          0 0 0 0 0 0 0 0 0 0 0 0
          0 0 0 0 0 0
        </DataArray>
      </CellData>
      <Points>
        <DataArray type="Float32" Name="Coordinates" NumberOfComponents="3" format="ascii">
          0 0 0 0.5 0 0 0 0.0333333 0 0.5 0.0333333 0
          0 0.0666667 0 0.5 0.0666667 0 0 0.1 0 0.5 0.1 0
          0 0.133333 0 0.5 0.133333 0 0 0.166667 0 0.5 0.166667 0
          0 0.2 0 0.5 0.2 0 0 0.233333 0 0.5 0.233333 0
          0 0.266667 0 0.5 0.266667 0 0 0.3 0 0.5 0.3 0
          0 0.333333 0 0.5 0.333333 0 0 0.366667 0 0.5 0.366667 0
          0 0.4 0 0.5 0.4 0 0 0.433333 0 0.5 0.433333 0
          0 0.466667 0 0.5 0.466667 0 0 0.5 0 0.5 0.5 0
          0 0.533333 0 0.5 0.533333 0 0 0.566667 0 0.5 0.566667 0
          0 0.6 0 0.5 0.6 0 0 0.633333 0 0.5 0.633333 0
          0 0.666667 0 0.5 0.666667 0 0 0.7 0 0.5 0.7 0
          0 0.733333 0 0.5 0.733333 0 0 0.766667 0 0.5 0.766667 0
          0 0.8 0 0.5 0.8 0 0 0.833333 0 0.5 0.833333 0
          0 0.866667 0 0.5 0.866667 0 0 0.9 0 0.5 0.9 0
          0 0.933333 0 0.5 0.933333 0 0 0.966667 0 0.5 0.966667 0
          0 1 0 0.5 1 0
        </DataArray>
      </Points>
      <Cells>
        <DataArray type="Int32" Name="connectivity" NumberOfComponents="1" format="ascii">
          0 1 3 2 2 3 5 4 4 5 7 6
          6 7 9 8 8 9 11 10 10 11 13 12
          12 13 15 14 14 15 17 16 16 17 19 18
          18 19 21 20 20 21 23 22 22 23 25 24
          24 25 27 26 26 27 29 28 28 29 31 30
          30 31 33 32 32 33 35 34 34 35 37 36
          36 37 39 38 38 39 41 40 40 41 43 42
          42 43 45 44 44 45 47 46 46 47 49 48
          48 49 51 50 50 51 53 52 52 53 55 54
          54 55 57 56 56 57 59 58 58 59 61 60
        </DataArray>
        <DataArray type="Int32" Name="offsets" NumberOfComponents="1" format="ascii">
          4 8 12 16 20 24 28 32 36 40 44 48
          52 56 60 64 68 72 76 80 84 88 92 96
          100 104 108 112 116 120
        </DataArray>
        <DataArray type="UInt8" Name="types" NumberOfComponents="1" format="ascii">
          9 9 9 9 9 9 9 9 9 9 9 9
          9 9 9 9 9 9 9 9 9 9 9 9
          9 9 9 9 9 9
        </DataArray>
      </Cells>
    </Piece>
  </UnstructuredGrid>
</VTKFile>
