<?xml version="1.0"?>
<VTKFile type="UnstructuredGrid" version="0.1" byte_order="LittleEndian">
  <UnstructuredGrid>
    <Piece NumberOfCells="30" NumberOfPoints="62">
      <CellData Scalars="Sg">
        <DataArray type="Float32" Name="Sg" NumberOfComponents="1" format="ascii">
          0.0987922 0.0987861 0.09878 0.0987739 0.0987677 0.0987615 0.0987553 0.0987491 0.0987429 0.0987367 0.0987307 0.0987248
          0.098719 0.0987136 0.0987087 0.0987043 0.0987007 0.0986982 0.0986972 0.0986978 0.0986993 0.0986936 0.0986326 0.0982702
          0.0964708 0.0885399 0.0580651 0 0 0
        </DataArray>
        <DataArray type="Float32" Name="Sl" NumberOfComponents="1" format="ascii">
          0.901208 0.901214 0.90122 0.901226 0.901232 0.901238 0.901245 0.901251 0.901257 0.901263 0.901269 0.901275
          0.901281 0.901286 0.901291 0.901296 0.901299 0.901302 0.901303 0.901302 0.901301 0.901306 0.901367 0.90173
          0.903529 0.91146 0.941935 1 1 1
        </DataArray>
        <DataArray type="Float32" Name="pg" NumberOfComponents="1" format="ascii">
          52988.4 52659.7 52331.1 52002.4 51673.6 51344.9 51016.2 50687.5 50358.8 50030.1 49701.4 49372.7
          49044.2 48715.7 48387.3 48059.1 47731.1 47403.5 47076.3 46749.5 46423 46094.4 45750 45319.2
          44476.8 41878 32821 15860.4 15533.5 15206.6
        </DataArray>
        <DataArray type="Float32" Name="pl" NumberOfComponents="1" format="ascii">
          110628 110301 109974 109647 109320 108993 108666 108339 108012 107685 107358 107031
          106704 106377 106050 105723 105396 105070 104743 104416 104089 103762 103435 103108
          102781 102454 102127 101800 101473 101146
        </DataArray>
        <DataArray type="Float32" Name="pc" NumberOfComponents="1" format="ascii">
          -57639.1 -57640.8 -57642.6 -57644.4 -57646.1 -57647.9 -57649.7 -57651.5 -57653.2 -57655 -57656.7 -57658.4
          -57660.1 -57661.6 -57663 -57664.3 -57665.3 -57666 -57666.3 -57666.1 -57665.7 -57667.4 -57684.8 -57788.6
          -58304.1 -60576 -69306 -85939.7 -85939.7 -85939.7
        </DataArray>
        <DataArray type="Float32" Name="rhoL" NumberOfComponents="1" format="ascii">
          999.855 999.855 999.855 999.855 999.855 999.854 999.854 999.854 999.854 999.854 999.854 999.854
          999.853 999.853 999.853 999.853 999.853 999.853 999.852 999.852 999.852 999.852 999.852 999.852
          999.852 999.851 999.851 999.851 999.851 999.851
        </DataArray>
        <DataArray type="Float32" Name="rhoG" NumberOfComponents="1" format="ascii">
          0.656458 0.652386 0.648314 0.644242 0.640169 0.636097 0.632025 0.627952 0.62388 0.619807 0.615736 0.611664
          0.607593 0.603524 0.599456 0.59539 0.591327 0.587268 0.583214 0.579166 0.575121 0.57105 0.566783 0.561447
          0.55101 0.518814 0.40661 0.19649 0.19244 0.18839
        </DataArray>
        <DataArray type="Float32" Name="mobL" NumberOfComponents="1" format="ascii">
          722.171 722.17 722.17 722.17 722.17 722.17 722.169 722.169 722.169 722.169 722.169 722.169
          722.168 722.168 722.168 722.168 722.168 722.167 722.167 722.167 722.167 722.167 722.166 722.166
          722.166 722.166 722.166 722.166 722.165 722.165
        </DataArray>
        <DataArray type="Float32" Name="mobG" NumberOfComponents="1" format="ascii">
          0 0 0 0 0 0 0 0 0 0 0 0
          0 0 0 0 0 0 0 0 0 0 0 0
          0 0 0 0 0 0
        </DataArray>
        <DataArray type="Float32" Name="porosity" NumberOfComponents="1" format="ascii">
          0.298479 0.298479 0.298478 0.298478 0.298478 0.298478 0.298478 0.298477 0.298476 0.298475 0.298473 0.29847
          0.298466 0.298461 0.298453 0.298442 0.298428 0.298408 0.298382 0.298346 0.298298 0.298234 0.298146 0.298024
          0.297582 0.297331 0.296949 0.296339 0.29558 0.293685
        </DataArray>
        <DataArray type="Float32" Name="temperature" NumberOfComponents="1" format="ascii">
          281.15 281.15 281.15 281.15 281.15 281.15 281.15 281.15 281.15 281.15 281.15 281.15
          281.15 281.15 281.15 281.15 281.15 281.15 281.15 281.15 281.15 281.15 281.15 281.15
          281.15 281.15 281.15 281.15 281.15 281.15
        </DataArray>
        <DataArray type="Float32" Name="phase presence" NumberOfComponents="1" format="ascii">
          3 3 3 3 3 3 3 3 3 3 3 3
          3 3 3 3 3 3 3 3 3 3 3 3
          3 3 3 1 1 1
        </DataArray>
        <DataArray type="Float32" Name="precipitateVolumeFraction_au" NumberOfComponents="1" format="ascii">
          2.9569e-10 2.95688e-10 2.95688e-10 2.95688e-10 2.95688e-10 2.95688e-10 2.95688e-10 2.95688e-10 2.95688e-10 2.95688e-10 2.95689e-10 2.95689e-10
          2.95689e-10 2.9569e-10 2.95691e-10 2.95691e-10 2.95692e-10 2.95694e-10 2.95695e-10 2.95697e-10 2.95699e-10 2.95702e-10 2.95705e-10 2.98243e-10
          0.000269952 0.000269951 0.00026995 0.000269952 2.95782e-10 2.95339e-10
        </DataArray>
        <DataArray type="Float32" Name="precipitateVolumeFraction_nanoAu" NumberOfComponents="1" format="ascii">
          2.5718e-10 2.57178e-10 2.57179e-10 2.57178e-10 2.57178e-10 2.57178e-10 2.57178e-10 2.57178e-10 2.57177e-10 2.57177e-10 2.57177e-10 2.57176e-10
          2.57176e-10 2.57175e-10 2.57174e-10 2.57173e-10 2.57171e-10 2.57169e-10 2.57168e-10 2.57165e-10 2.57162e-10 2.57158e-10 2.57157e-10 2.68422e-10
          4.87768e-08 4.97508e-08 5.00848e-08 4.8963e-08 2.57257e-10 2.56758e-10
        </DataArray>
        <DataArray type="Float32" Name="precipitateVolumeFraction_d" NumberOfComponents="1" format="ascii">
          0.000760714 0.000760735 0.000760767 0.000760819 0.000760901 0.000761029 0.000761226 0.000761524 0.000761971 0.000762633 0.000763597 0.000764985
          0.000766958 0.000769731 0.000773583 0.000778883 0.000786113 0.000795908 0.000809114 0.000826872 0.000850764 0.000883046 0.000927051 0.000987916
          0.00107397 0.00119961 0.0013905 0.00169537 0.00221019 0.00315764
        </DataArray>
        <DataArray type="Float32" Name="precipitateVolumeFraction_p" NumberOfComponents="1" format="ascii">
          0.000760714 0.000760735 0.000760767 0.000760819 0.000760901 0.000761029 0.000761226 0.000761524 0.000761971 0.000762633 0.000763597 0.000764985
          0.000766958 0.000769731 0.000773583 0.000778883 0.000786113 0.000795908 0.000809114 0.000826872 0.000850764 0.000883046 0.000927051 0.000987916
          0.00107397 0.00119961 0.0013905 0.00169537 0.00221019 0.00315764
        </DataArray>
        <DataArray type="Float32" Name="K" NumberOfComponents="1" format="ascii">
          9.80596e-11 9.80595e-11 9.80594e-11 9.80593e-11 9.80591e-11 9.80588e-11 9.80583e-11 9.80575e-11 9.80564e-11 9.80547e-11 9.80523e-11 9.80487e-11
          9.80438e-11 9.80367e-11 9.8027e-11 9.80136e-11 9.79953e-11 9.79705e-11 9.79372e-11 9.78923e-11 9.78319e-11 9.77504e-11 9.76394e-11 9.7486e-11
          9.69307e-11 9.66162e-11 9.614e-11 9.53835e-11 9.44478e-11 9.21466e-11
        </DataArray>
        <DataArray type="Float32" Name="X^w_H2O" NumberOfComponents="1" format="ascii">
          0.999824 0.999824 0.999824 0.999824 0.999824 0.999824 0.999825 0.999825 0.999825 0.999825 0.999826 0.999826
          0.999826 0.999827 0.999827 0.999828 0.999829 0.999829 0.99983 0.999831 0.999832 0.999833 0.999834 0.999836
          0.999838 0.999838 0.999841 0.999849 0.999855 0.999868
        </DataArray>
        <DataArray type="Float32" Name="X^w_Air" NumberOfComponents="1" format="ascii">
          1.60924e-05 1.59905e-05 1.58886e-05 1.57867e-05 1.56848e-05 1.55829e-05 1.5481e-05 1.53791e-05 1.52772e-05 1.51754e-05 1.50735e-05 1.49716e-05
          1.48698e-05 1.47679e-05 1.46662e-05 1.45644e-05 1.44628e-05 1.43612e-05 1.42598e-05 1.41585e-05 1.40573e-05 1.39555e-05 1.38487e-05 1.37152e-05
          1.34541e-05 1.26485e-05 9.84111e-06 2.10104e-06 2.01604e-08 1.44704e-10
        </DataArray>
        <DataArray type="Float32" Name="X^w_AuComplex" NumberOfComponents="1" format="ascii">
          9.23771e-13 9.22688e-13 9.21183e-13 9.18391e-13 9.16005e-13 9.13449e-13 9.11804e-13 9.0545e-13 8.99368e-13 8.9096e-13 8.82836e-13 8.70325e-13
          8.56704e-13 8.40983e-13 8.22277e-13 7.99014e-13 7.74233e-13 7.45238e-13 7.14271e-13 6.78711e-13 6.41837e-13 6.03748e-13 5.60731e-13 5.48536e-13
          1.10377e-10 1.26096e-10 1.425e-10 1.55088e-10 7.03289e-13 4.98958e-13
        </DataArray>
        <DataArray type="Float32" Name="X^w_nanoAu" NumberOfComponents="1" format="ascii">
          1.4549e-16 1.49057e-15 1.19851e-15 8.34011e-16 8.76143e-16 7.46673e-16 3.16148e-16 3.00573e-17 1.23046e-15 1.04191e-16 1.68993e-15 1.31587e-15
          1.04576e-15 1.1026e-15 1.81535e-15 1.61221e-15 1.10558e-15 2.47792e-17 6.14666e-16 1.46512e-15 1.00149e-15 1.7515e-15 -3.88913e-19 3.58254e-15
          1.92928e-13 1.93225e-13 1.62643e-13 1.70513e-13 7.97077e-16 5.60864e-16
        </DataArray>
        <DataArray type="Float32" Name="X^w_cyanide" NumberOfComponents="1" format="ascii">
          1.89386e-05 1.89196e-05 1.88933e-05 1.88577e-05 1.88101e-05 1.87477e-05 1.8667e-05 1.85642e-05 1.84351e-05 1.82752e-05 1.80795e-05 1.78427e-05
          1.75595e-05 1.72246e-05 1.68329e-05 1.63803e-05 1.58637e-05 1.52822e-05 1.46366e-05 1.39304e-05 1.31693e-05 1.23602e-05 1.15101e-05 1.0623e-05
          9.69379e-06 1.08976e-05 1.22504e-05 1.35796e-05 1.44114e-05 1.02448e-05
        </DataArray>
        <DataArray type="Float32" Name="X^w_citrate" NumberOfComponents="1" format="ascii">
          0.000140011 0.000140008 0.000140004 0.000139997 0.000139988 0.000139975 0.000139957 0.000139933 0.000139901 0.00013986 0.000139806 0.000139739
          0.000139655 0.000139551 0.000139425 0.000139271 0.000139083 0.000138851 0.000138565 0.000138202 0.000137736 0.00013712 0.000136281 0.000135099
          0.000133364 0.000130693 0.000126357 0.000118919 0.000104898 7.4522e-05
        </DataArray>
        <DataArray type="Float32" Name="X^w_substrate" NumberOfComponents="1" format="ascii">
          1.27967e-06 1.28148e-06 1.2842e-06 1.28822e-06 1.29404e-06 1.30231e-06 1.31385e-06 1.32962e-06 1.35078e-06 1.37865e-06 1.41471e-06 1.46062e-06
          1.51825e-06 1.58975e-06 1.67768e-06 1.78535e-06 1.9172e-06 2.0795e-06 2.28136e-06 2.53632e-06 2.86497e-06 3.29928e-06 3.89051e-06 4.72386e-06
          5.94723e-06 7.83114e-06 1.08888e-05 1.6135e-05 2.60223e-05 4.74414e-05
        </DataArray>
        <DataArray type="Float32" Name="m^w_H2O" NumberOfComponents="1" format="ascii">
          55490.9 55490.9 55490.9 55490.9 55490.9 55490.9 55490.9 55490.9 55490.9 55490.9 55490.9 55491
          55491 55491 55491 55491 55491.1 55491.1 55491.1 55491.2 55491.2 55491.3 55491.3 55491.4
          55491.5 55491.5 55491.6 55492.1 55492.4 55493.1
        </DataArray>
        <DataArray type="Float32" Name="m^w_Air" NumberOfComponents="1" format="ascii">
          0.555595 0.552077 0.54856 0.545042 0.541524 0.538006 0.534488 0.53097 0.527452 0.523934 0.520417 0.5169
          0.513383 0.509868 0.506354 0.502842 0.499332 0.495825 0.492323 0.488826 0.485332 0.481816 0.47813 0.473521
          0.464505 0.436693 0.339767 0.0725391 0.000696042 4.99596e-06
        </DataArray>
        <DataArray type="Float32" Name="m^w_AuComplex" NumberOfComponents="1" format="ascii">
          4.68923e-09 4.68373e-09 4.67609e-09 4.66191e-09 4.64981e-09 4.63683e-09 4.62848e-09 4.59622e-09 4.56535e-09 4.52267e-09 4.48143e-09 4.41792e-09
          4.34878e-09 4.26897e-09 4.17402e-09 4.05593e-09 3.93014e-09 3.78295e-09 3.62576e-09 3.44525e-09 3.25807e-09 3.06473e-09 2.84636e-09 2.78446e-09
          5.6029e-07 6.40083e-07 7.23355e-07 7.87253e-07 3.57e-09 2.53279e-09
        </DataArray>
        <DataArray type="Float32" Name="m^w_nanoAu" NumberOfComponents="1" format="ascii">
          7.38532e-13 7.56639e-12 6.08387e-12 4.23359e-12 4.44746e-12 3.79024e-12 1.60482e-12 1.52576e-13 6.24603e-12 5.28893e-13 8.57838e-12 6.6796e-12
          5.30848e-12 5.59699e-12 9.21501e-12 8.18383e-12 5.61213e-12 1.25784e-13 3.12015e-12 7.43722e-12 5.08371e-12 8.89088e-12 -1.97418e-15 1.81855e-11
          9.79336e-10 9.8084e-10 8.256e-10 8.65552e-10 4.04609e-12 2.84703e-12
        </DataArray>
        <DataArray type="Float32" Name="m^w_cyanide" NumberOfComponents="1" format="ascii">
          0.727742 0.727011 0.726001 0.724632 0.722804 0.720405 0.717304 0.713355 0.708395 0.70225 0.694728 0.68563
          0.674748 0.661877 0.646826 0.629433 0.609585 0.587237 0.56243 0.535296 0.506049 0.474958 0.442291 0.408202
          0.372496 0.418754 0.470739 0.521814 0.553778 0.393669
        </DataArray>
        <DataArray type="Float32" Name="m^w_citrate" NumberOfComponents="1" format="ascii">
          0.740305 0.740289 0.740266 0.740231 0.740182 0.740114 0.740019 0.739891 0.739722 0.739502 0.73922 0.738863
          0.738419 0.737873 0.737204 0.736388 0.735393 0.734171 0.732654 0.730739 0.728273 0.725014 0.72058 0.71433
          0.705155 0.691031 0.668108 0.628777 0.554641 0.394031
        </DataArray>
        <DataArray type="Float32" Name="m^w_substrate" NumberOfComponents="1" format="ascii">
          0.00710196 0.007112 0.00712709 0.00714938 0.00718168 0.00722759 0.0072916 0.00737913 0.00749656 0.00765122 0.00785136 0.00810618
          0.00842602 0.00882278 0.0093108 0.00990836 0.0106401 0.0115408 0.0126611 0.0140761 0.0159 0.0183104 0.0215916 0.0262165
          0.0330059 0.0434612 0.0604306 0.089546 0.144419 0.26329
        </DataArray>
        <DataArray type="Float32" Name="process rank" NumberOfComponents="1" format="ascii">
          0 0 0 0 0 0 0 0 0 0 0 0
          0 0 0 0 0 0 0 0 0 0 0 0
          0 0 0 0 0 0
        </DataArray>
      </CellData>
      <Points>
        <DataArray type="Float32" Name="Coordinates" NumberOfComponents="3" format="ascii">
          0 0 0 0.5 0 0 0 0.0333333 0 0.5 0.0333333 0
          0 0.0666667 0 0.5 0.0666667 0 0 0.1 0 0.5 0.1 0
          0 0.133333 0 0.5 0.133333 0 0 0.166667 0 0.5 0.166667 0
          0 0.2 0 0.5 0.2 0 0 0.233333 0 0.5 0.233333 0
          0 0.266667 0 0.5 0.266667 0 0 0.3 0 0.5 0.3 0
          0 0.333333 0 0.5 0.333333 0 0 0.366667 0 0.5 0.366667 0
          0 0.4 0 0.5 0.4 0 0 0.433333 0 0.5 0.433333 0
          0 0.466667 0 0.5 0.466667 0 0 0.5 0 0.5 0.5 0
          0 0.533333 0 0.5 0.533333 0 0 0.566667 0 0.5 0.566667 0
          0 0.6 0 0.5 0.6 0 0 0.633333 0 0.5 0.633333 0
          0 0.666667 0 0.5 0.666667 0 0 0.7 0 0.5 0.7 0
          0 0.733333 0 0.5 0.733333 0 0 0.766667 0 0.5 0.766667 0
          0 0.8 0 0.5 0.8 0 0 0.833333 0 0.5 0.833333 0
          0 0.866667 0 0.5 0.866667 0 0 0.9 0 0.5 0.9 0
          0 0.933333 0 0.5 0.933333 0 0 0.966667 0 0.5 0.966667 0
          0 1 0 0.5 1 0
        </DataArray>
      </Points>
      <Cells>
        <DataArray type="Int32" Name="connectivity" NumberOfComponents="1" format="ascii">
          0 1 3 2 2 3 5 4 4 5 7 6
          6 7 9 8 8 9 11 10 10 11 13 12
          12 13 15 14 14 15 17 16 16 17 19 18
          18 19 21 20 20 21 23 22 22 23 25 24
          24 25 27 26 26 27 29 28 28 29 31 30
          30 31 33 32 32 33 35 34 34 35 37 36
          36 37 39 38 38 39 41 40 40 41 43 42
          42 43 45 44 44 45 47 46 46 47 49 48
          48 49 51 50 50 51 53 52 52 53 55 54
          54 55 57 56 56 57 59 58 58 59 61 60
        </DataArray>
        <DataArray type="Int32" Name="offsets" NumberOfComponents="1" format="ascii">
          4 8 12 16 20 24 28 32 36 40 44 48
          52 56 60 64 68 72 76 80 84 88 92 96
          100 104 108 112 116 120
        </DataArray>
        <DataArray type="UInt8" Name="types" NumberOfComponents="1" format="ascii">
          9 9 9 9 9 9 9 9 9 9 9 9
          9 9 9 9 9 9 9 9 9 9 9 9
          9 9 9 9 9 9
        </DataArray>
      </Cells>
    </Piece>
  </UnstructuredGrid>
</VTKFile>
