<?xml version="1.0"?>
<VTKFile type="UnstructuredGrid" version="0.1" byte_order="LittleEndian">
  <UnstructuredGrid>
    <Piece NumberOfCells="30" NumberOfPoints="62">
      <CellData Scalars="Sg">
        <DataArray type="Float32" Name="Sg" NumberOfComponents="1" format="ascii">
          0 0 0 0 0 0 0 0 0 0 0 0
          0 0 0 0 0 0 0 0 0 0 0 0
          0 0 0 0 0 0
        </DataArray>
        <DataArray type="Float32" Name="Sl" NumberOfComponents="1" format="ascii">
          1 1 1 1 1 1 1 1 1 1 1 1
          1 1 1 1 1 1 1 1 1 1 1 1
          1 1 1 1 1 1
        </DataArray>
        <DataArray type="Float32" Name="pg" NumberOfComponents="1" format="ascii">
          24687.8 24360.9 24034 23707 23380.1 23053.1 22726.2 22399.3 22072.3 21745.4 21418.4 21091.5
          20764.6 20437.6 20110.7 19783.7 19456.8 19129.8 18802.9 18476 18149 17822.1 17495.1 17168.2
          16841.3 16514.3 16187.4 15860.4 15533.5 15208.6
        </DataArray>
        <DataArray type="Float32" Name="pl" NumberOfComponents="1" format="ascii">
          110628 110301 109974 109647 109320 108993 108666 108339 108012 107685 107358 107031
          106704 106377 106050 105723 105396 105070 104743 104416 104089 103762 103435 103108
          102781 102454 102127 101800 101473 101148
        </DataArray>
        <DataArray type="Float32" Name="pc" NumberOfComponents="1" format="ascii">
          -85939.7 -85939.7 -85939.7 -85939.7 -85939.7 -85939.7 -85939.7 -85939.7 -85939.7 -85939.7 -85939.7 -85939.7
          -85939.7 -85939.7 -85939.7 -85939.7 -85939.7 -85939.7 -85939.7 -85939.7 -85939.7 -85939.7 -85939.7 -85939.7
          -85939.7 -85939.7 -85939.7 -85939.7 -85939.7 -85939.7
        </DataArray>
        <DataArray type="Float32" Name="rhoL" NumberOfComponents="1" format="ascii">
          999.855 999.855 999.855 999.855 999.855 999.854 999.854 999.854 999.854 999.854 999.854 999.854
          999.853 999.853 999.853 999.853 999.853 999.853 999.852 999.852 999.852 999.852 999.852 999.852
          999.852 999.851 999.851 999.851 999.851 999.851
        </DataArray>
        <DataArray type="Float32" Name="rhoG" NumberOfComponents="1" format="ascii">
          0.30585 0.3018 0.29775 0.293699 0.289649 0.285598 0.281548 0.277498 0.273447 0.269397 0.265347 0.261296
          0.257246 0.253195 0.249145 0.245095 0.241044 0.236994 0.232944 0.228893 0.224843 0.220793 0.216742 0.212692
          0.208641 0.204591 0.200541 0.19649 0.19244 0.188415
        </DataArray>
        <DataArray type="Float32" Name="mobL" NumberOfComponents="1" format="ascii">
          722.171 722.17 722.17 722.17 722.17 722.17 722.169 722.169 722.169 722.169 722.169 722.169
          722.168 722.168 722.168 722.168 722.168 722.167 722.167 722.167 722.167 722.167 722.166 722.166
          722.166 722.166 722.166 722.166 722.165 722.165
        </DataArray>
        <DataArray type="Float32" Name="mobG" NumberOfComponents="1" format="ascii">
          0 0 0 0 0 0 0 0 0 0 0 0
          0 0 0 0 0 0 0 0 0 0 0 0
          0 0 0 0 0 0
        </DataArray>
        <DataArray type="Float32" Name="porosity" NumberOfComponents="1" format="ascii">
          0.298709 0.298709 0.298709 0.298709 0.298708 0.298708 0.298707 0.298706 0.298705 0.298703 0.2987 0.298697
          0.298692 0.298685 0.298676 0.298664 0.298648 0.298626 0.298596 0.298555 0.298498 0.29842 0.298307 0.29814
          0.297609 0.297162 0.296287 0.294064 0.28413 0.0511569
        </DataArray>
        <DataArray type="Float32" Name="temperature" NumberOfComponents="1" format="ascii">
          281.15 281.15 281.15 281.15 281.15 281.15 281.15 281.15 281.15 281.15 281.15 281.15
          281.15 281.15 281.15 281.15 281.15 281.15 281.15 281.15 281.15 281.15 281.15 281.15
          281.15 281.15 281.15 281.15 281.15 281.15
        </DataArray>
        <DataArray type="Float32" Name="phase presence" NumberOfComponents="1" format="ascii">
          1 1 1 1 1 1 1 1 1 1 1 1
          1 1 1 1 1 1 1 1 1 1 1 1
          1 1 1 1 1 1
        </DataArray>
        <DataArray type="Float32" Name="precipitateVolumeFraction_au" NumberOfComponents="1" format="ascii">
          5.52637e-10 5.5279e-10 5.52704e-10 5.5272e-10 5.52712e-10 5.52671e-10 5.52708e-10 5.52687e-10 5.52695e-10 5.52671e-10 5.52664e-10 5.52635e-10
          5.52605e-10 5.52643e-10 5.52617e-10 5.52556e-10 5.5255e-10 5.52497e-10 5.52462e-10 5.52428e-10 5.52353e-10 5.52317e-10 5.52285e-10 5.80817e-10
          0.000269996 0.00026999 0.000269969 0.000269757 5.35514e-10 5.20716e-10
        </DataArray>
        <DataArray type="Float32" Name="precipitateVolumeFraction_nanoAu" NumberOfComponents="1" format="ascii">
          1.13411e-14 1.13442e-14 1.13395e-14 1.13376e-14 1.13348e-14 1.13309e-14 1.13285e-14 1.1324e-14 1.13192e-14 1.13125e-14 1.13045e-14 1.12937e-14
          1.12796e-14 1.12625e-14 1.12379e-14 1.12038e-14 1.11588e-14 1.10956e-14 1.10081e-14 1.08849e-14 1.07078e-14 1.04516e-14 1.01755e-14 3.93686e-13
          4.15147e-09 1.0761e-08 3.69741e-08 2.37458e-07 1.40241e-11 1.30156e-11
        </DataArray>
        <DataArray type="Float32" Name="precipitateVolumeFraction_d" NumberOfComponents="1" format="ascii">
          0.000645455 0.000645518 0.000645607 0.000645733 0.00064591 0.000646158 0.000646505 0.000646989 0.000647662 0.000648595 0.000649881 0.000651648
          0.000654066 0.000657362 0.000661837 0.000667899 0.000676094 0.000687175 0.00070219 0.000722646 0.000750784 0.000790096 0.000846353 0.000929821
          0.00106061 0.00128388 0.00172167 0.0028328 0.00793516 0.124422
        </DataArray>
        <DataArray type="Float32" Name="precipitateVolumeFraction_p" NumberOfComponents="1" format="ascii">
          0.000645455 0.000645518 0.000645607 0.000645733 0.00064591 0.000646158 0.000646505 0.000646989 0.000647662 0.000648595 0.000649881 0.000651648
          0.000654066 0.000657362 0.000661837 0.000667899 0.000676094 0.000687175 0.00070219 0.000722646 0.000750784 0.000790096 0.000846353 0.000929821
          0.00106061 0.00128388 0.00172167 0.0028328 0.00793516 0.124422
        </DataArray>
        <DataArray type="Float32" Name="K" NumberOfComponents="1" format="ascii">
          9.83515e-11 9.83514e-11 9.83512e-11 9.83508e-11 9.83504e-11 9.83498e-11 9.83489e-11 9.83477e-11 9.83459e-11 9.83436e-11 9.83403e-11 9.83358e-11
          9.83297e-11 9.83214e-11 9.831e-11 9.82946e-11 9.82739e-11 9.82458e-11 9.82077e-11 9.81559e-11 9.80847e-11 9.79852e-11 9.78431e-11 9.76324e-11
          9.69642e-11 9.64058e-11 9.53185e-11 9.26039e-11 8.12294e-11 2.69871e-13
        </DataArray>
        <DataArray type="Float32" Name="X^w_H2O" NumberOfComponents="1" format="ascii">
          0.999858 0.999858 0.999858 0.999858 0.999858 0.999858 0.999858 0.999858 0.999858 0.999858 0.999858 0.999858
          0.999858 0.999858 0.999858 0.999858 0.999858 0.999858 0.999858 0.999858 0.999858 0.999858 0.999858 0.999858
          0.999858 0.999858 0.999858 0.999858 0.999839 0.99984
        </DataArray>
        <DataArray type="Float32" Name="X^w_Air" NumberOfComponents="1" format="ascii">
          0 0 0 0 0 0 0 0 0 0 0 0
          0 0 0 0 0 0 0 0 0 0 0 0
          0 0 0 0 0 0
        </DataArray>
        <DataArray type="Float32" Name="X^w_AuComplex" NumberOfComponents="1" format="ascii">
          3.01608e-18 3.01651e-18 3.01536e-18 3.01478e-18 3.01397e-18 3.01284e-18 3.012e-18 3.01059e-18 3.00901e-18 3.00681e-18 3.0041e-18 3.00042e-18
          2.99558e-18 2.98951e-18 2.98089e-18 2.96901e-18 2.95316e-18 2.93103e-18 2.90045e-18 2.85756e-18 2.79643e-18 2.70863e-18 2.59415e-18 9.80732e-17
          1.01666e-12 3.76778e-12 2.81907e-11 9.42552e-10 1.58684e-12 1.45737e-12
        </DataArray>
        <DataArray type="Float32" Name="X^w_nanoAu" NumberOfComponents="1" format="ascii">
          4.93958e-20 4.94087e-20 4.93882e-20 4.938e-20 4.93679e-20 4.93507e-20 4.93402e-20 4.93205e-20 4.92998e-20 4.92705e-20 4.92355e-20 4.91882e-20
          4.91267e-20 4.90519e-20 4.8944e-20 4.8795e-20 4.85978e-20 4.83212e-20 4.79383e-20 4.74015e-20 4.68753e-20 6.8862e-20 2.20754e-18 2.00397e-16
          1.84031e-14 4.81869e-14 1.70252e-13 1.02203e-12 6.08596e-17 5.52733e-17
        </DataArray>
        <DataArray type="Float32" Name="X^w_cyanide" NumberOfComponents="1" format="ascii">
          1.50697e-08 1.50678e-08 1.50656e-08 1.50633e-08 1.50606e-08 1.50574e-08 1.50536e-08 1.50489e-08 1.5043e-08 1.50353e-08 1.50254e-08 1.50122e-08
          1.49947e-08 1.49711e-08 1.49392e-08 1.48955e-08 1.48356e-08 1.47527e-08 1.46369e-08 1.44735e-08 1.42396e-08 1.38988e-08 1.33898e-08 1.26041e-08
          1.13333e-08 2.9382e-08 1.00169e-07 6.50844e-07 1.93996e-05 1.92029e-05
        </DataArray>
        <DataArray type="Float32" Name="X^w_citrate" NumberOfComponents="1" format="ascii">
          0.000141799 0.000141799 0.000141799 0.000141799 0.000141799 0.000141799 0.000141799 0.000141799 0.000141798 0.000141798 0.000141798 0.000141798
          0.000141798 0.000141798 0.000141798 0.000141797 0.000141797 0.000141796 0.000141796 0.000141794 0.000141793 0.00014179 0.000141787 0.000141781
          0.000141772 0.000141756 0.000141725 0.000141655 0.000141427 0.000139767
        </DataArray>
        <DataArray type="Float32" Name="X^w_substrate" NumberOfComponents="1" format="ascii">
          7.51879e-12 1.02567e-11 1.39908e-11 1.90835e-11 2.60291e-11 3.55021e-11 4.84236e-11 6.60519e-11 9.01079e-11 1.22949e-10 1.67809e-10 2.29138e-10
          3.13082e-10 4.28165e-10 5.86292e-10 8.04218e-10 1.10578e-09 1.52537e-09 2.11345e-09 2.94576e-09 4.13922e-09 5.8809e-09 8.48409e-09 1.25056e-08
          1.90159e-08 3.03044e-08 5.20751e-08 1.02229e-07 2.64153e-07 1.43455e-06
        </DataArray>
        <DataArray type="Float32" Name="m^w_H2O" NumberOfComponents="1" format="ascii">
          55492.8 55492.8 55492.8 55492.8 55492.8 55492.8 55492.8 55492.8 55492.8 55492.8 55492.8 55492.7
          55492.7 55492.7 55492.7 55492.7 55492.7 55492.7 55492.7 55492.7 55492.7 55492.7 55492.6 55492.6
          55492.6 55492.6 55492.6 55492.6 55491.5 55491.6
        </DataArray>
        <DataArray type="Float32" Name="m^w_Air" NumberOfComponents="1" format="ascii">
          0 0 0 0 0 0 0 0 0 0 0 0
          0 0 0 0 0 0 0 0 0 0 0 0
          0 0 0 0 0 0
        </DataArray>
        <DataArray type="Float32" Name="m^w_AuComplex" NumberOfComponents="1" format="ascii">
          1.53101e-14 1.53124e-14 1.53065e-14 1.53036e-14 1.52994e-14 1.52937e-14 1.52895e-14 1.52823e-14 1.52743e-14 1.52631e-14 1.52493e-14 1.52306e-14
          1.52061e-14 1.51753e-14 1.51315e-14 1.50712e-14 1.49907e-14 1.48784e-14 1.47231e-14 1.45054e-14 1.41952e-14 1.37495e-14 1.31683e-14 4.97836e-13
          5.16075e-09 1.91259e-08 1.43101e-07 4.78454e-06 8.05507e-09 7.39782e-09
        </DataArray>
        <DataArray type="Float32" Name="m^w_nanoAu" NumberOfComponents="1" format="ascii">
          2.50742e-16 2.50808e-16 2.50703e-16 2.50662e-16 2.506e-16 2.50513e-16 2.5046e-16 2.50359e-16 2.50254e-16 2.50106e-16 2.49928e-16 2.49688e-16
          2.49375e-16 2.48996e-16 2.48448e-16 2.47692e-16 2.46691e-16 2.45287e-16 2.43343e-16 2.40618e-16 2.37947e-16 3.49555e-16 1.12059e-14 1.01725e-12
          9.34169e-11 2.44604e-10 8.64224e-10 5.18797e-09 3.08933e-13 2.80576e-13
        </DataArray>
        <DataArray type="Float32" Name="m^w_cyanide" NumberOfComponents="1" format="ascii">
          0.000579075 0.000579 0.000578918 0.000578827 0.000578724 0.000578602 0.000578455 0.000578275 0.000578046 0.000577753 0.000577371 0.000576866
          0.000576192 0.000575285 0.000574057 0.000572381 0.000570079 0.000566892 0.000562443 0.000556163 0.000547176 0.000534078 0.000514521 0.000484328
          0.000435495 0.00112904 0.00384912 0.0250095 0.745455 0.737894
        </DataArray>
        <DataArray type="Float32" Name="m^w_citrate" NumberOfComponents="1" format="ascii">
          0.749756 0.749756 0.749756 0.749755 0.749755 0.749755 0.749755 0.749754 0.749754 0.749754 0.749753 0.749753
          0.749752 0.749751 0.74975 0.749748 0.749746 0.749742 0.749738 0.749731 0.749722 0.749709 0.74969 0.749659
          0.74961 0.749526 0.749364 0.748991 0.747786 0.73901
        </DataArray>
        <DataArray type="Float32" Name="m^w_substrate" NumberOfComponents="1" format="ascii">
          4.17279e-08 5.69229e-08 7.76466e-08 1.0591e-07 1.44457e-07 1.9703e-07 2.68742e-07 3.66575e-07 5.00082e-07 6.82342e-07 9.31306e-07 1.27167e-06
          1.73754e-06 2.37624e-06 3.25381e-06 4.46325e-06 6.13687e-06 8.46549e-06 1.17292e-05 1.63484e-05 2.29719e-05 3.26378e-05 4.7085e-05 6.94037e-05
          0.000105534 0.000168183 0.000289006 0.000567348 0.001466 0.00796147
        </DataArray>
        <DataArray type="Float32" Name="process rank" NumberOfComponents="1" format="ascii">
          0 0 0 0 0 0 0 0 0 0 0 0
          0 0 0 0 0 0 0 0 0 0 0 0
          0 0 0 0 0 0
        </DataArray>
      </CellData>
      <Points>
        <DataArray type="Float32" Name="Coordinates" NumberOfComponents="3" format="ascii">
          0 0 0 0.5 0 0 0 0.0333333 0 0.5 0.0333333 0
          0 0.0666667 0 0.5 0.0666667 0 0 0.1 0 0.5 0.1 0
          0 0.133333 0 0.5 0.133333 0 0 0.166667 0 0.5 0.166667 0
          0 0.2 0 0.5 0.2 0 0 0.233333 0 0.5 0.233333 0
          0 0.266667 0 0.5 0.266667 0 0 0.3 0 0.5 0.3 0
          0 0.333333 0 0.5 0.333333 0 0 0.366667 0 0.5 0.366667 0
          0 0.4 0 0.5 0.4 0 0 0.433333 0 0.5 0.433333 0
          0 0.466667 0 0.5 0.466667 0 0 0.5 0 0.5 0.5 0
          0 0.533333 0 0.5 0.533333 0 0 0.566667 0 0.5 0.566667 0
          0 0.6 0 0.5 0.6 0 0 0.633333 0 0.5 0.633333 0
          0 0.666667 0 0.5 0.666667 0 0 0.7 0 0.5 0.7 0
          0 0.733333 0 0.5 0.733333 0 0 0.766667 0 0.5 0.766667 0
          0 0.8 0 0.5 0.8 0 0 0.833333 0 0.5 0.833333 0
          0 0.866667 0 0.5 0.866667 0 0 0.9 0 0.5 0.9 0
          0 0.933333 0 0.5 0.933333 0 0 0.966667 0 0.5 0.966667 0
          0 1 0 0.5 1 0
        </DataArray>
      </Points>
      <Cells>
        <DataArray type="Int32" Name="connectivity" NumberOfComponents="1" format="ascii">
          0 1 3 2 2 3 5 4 4 5 7 6
          6 7 9 8 8 9 11 10 10 11 13 12
          12 13 15 14 14 15 17 16 16 17 19 18
          18 19 21 20 20 21 23 22 22 23 25 24
          24 25 27 26 26 27 29 28 28 29 31 30
          30 31 33 32 32 33 35 34 34 35 37 36
          36 37 39 38 38 39 41 40 40 41 43 42
          42 43 45 44 44 45 47 46 46 47 49 48
          48 49 51 50 50 51 53 52 52 53 55 54
          54 55 57 56 56 57 59 58 58 59 61 60
        </DataArray>
        <DataArray type="Int32" Name="offsets" NumberOfComponents="1" format="ascii">
          4 8 12 16 20 24 28 32 36 40 44 48
          52 56 60 64 68 72 76 80 84 88 92 96
          100 104 108 112 116 120
        </DataArray>
        <DataArray type="UInt8" Name="types" NumberOfComponents="1" format="ascii">
          9 9 9 9 9 9 9 9 9 9 9 9
          9 9 9 9 9 9 9 9 9 9 9 9
          9 9 9 9 9 9
        </DataArray>
      </Cells>
    </Piece>
  </UnstructuredGrid>
</VTKFile>
