<?xml version="1.0"?>
<VTKFile type="UnstructuredGrid" version="0.1" byte_order="LittleEndian">
  <UnstructuredGrid>
    <Piece NumberOfCells="30" NumberOfPoints="62">
      <CellData Scalars="Sg">
        <DataArray type="Float32" Name="Sg" NumberOfComponents="1" format="ascii">
          0.0353304 0 0 0 0 0 0 0 0 0 0 0
          0 0 0 0 0 0 0 0 0 0 0 0
          0 0 0 0 0 0
        </DataArray>
        <DataArray type="Float32" Name="Sl" NumberOfComponents="1" format="ascii">
          0.96467 1 1 1 1 1 1 1 1 1 1 1
          1 1 1 1 1 1 1 1 1 1 1 1
          1 1 1 1 1 1
        </DataArray>
        <DataArray type="Float32" Name="pg" NumberOfComponents="1" format="ascii">
          34808.8 24360.9 24034 23707 23380.1 23053.1 22726.2 22399.3 22072.3 21745.4 21418.4 21091.5
          20764.6 20437.6 20110.7 19783.7 19456.8 19129.9 18802.9 18476 18149 17822.1 17495.2 17168.2
          16841.3 16514.3 16187.4 15860.5 15533.5 15206.6
        </DataArray>
        <DataArray type="Float32" Name="pl" NumberOfComponents="1" format="ascii">
          110628 110301 109974 109647 109320 108993 108666 108339 108012 107685 107358 107031
          106704 106377 106050 105723 105396 105070 104743 104416 104089 103762 103435 103108
          102781 102454 102127 101800 101473 101146
        </DataArray>
        <DataArray type="Float32" Name="pc" NumberOfComponents="1" format="ascii">
          -75818.7 -85939.7 -85939.7 -85939.7 -85939.7 -85939.7 -85939.7 -85939.7 -85939.7 -85939.7 -85939.7 -85939.7
          -85939.7 -85939.7 -85939.7 -85939.7 -85939.7 -85939.7 -85939.7 -85939.7 -85939.7 -85939.7 -85939.7 -85939.7
          -85939.7 -85939.7 -85939.7 -85939.7 -85939.7 -85939.7
        </DataArray>
        <DataArray type="Float32" Name="rhoL" NumberOfComponents="1" format="ascii">
          999.855 999.855 999.855 999.855 999.855 999.854 999.854 999.854 999.854 999.854 999.854 999.854
          999.853 999.853 999.853 999.853 999.853 999.853 999.852 999.852 999.852 999.852 999.852 999.852
          999.852 999.851 999.851 999.851 999.851 999.851
        </DataArray>
        <DataArray type="Float32" Name="rhoG" NumberOfComponents="1" format="ascii">
          0.431236 0.3018 0.29775 0.293699 0.289649 0.285599 0.281548 0.277498 0.273447 0.269397 0.265347 0.261296
          0.257246 0.253196 0.249145 0.245095 0.241044 0.236994 0.232944 0.228893 0.224843 0.220793 0.216742 0.212692
          0.208641 0.204591 0.200541 0.19649 0.19244 0.18839
        </DataArray>
        <DataArray type="Float32" Name="mobL" NumberOfComponents="1" format="ascii">
          722.171 722.17 722.17 722.17 722.17 722.17 722.169 722.169 722.169 722.169 722.169 722.169
          722.168 722.168 722.168 722.168 722.168 722.167 722.167 722.167 722.167 722.167 722.166 722.166
          722.166 722.166 722.166 722.166 722.165 722.165
        </DataArray>
        <DataArray type="Float32" Name="mobG" NumberOfComponents="1" format="ascii">
          0 0 0 0 0 0 0 0 0 0 0 0
          0 0 0 0 0 0 0 0 0 0 0 0
          0 0 0 0 0 0
        </DataArray>
        <DataArray type="Float32" Name="porosity" NumberOfComponents="1" format="ascii">
          0.297832 0.297805 0.297776 0.297746 0.297716 0.297684 0.297651 0.297617 0.297582 0.297545 0.297508 0.297468
          0.297427 0.297384 0.29734 0.297294 0.297245 0.297195 0.297143 0.297088 0.29703 0.296971 0.296908 0.296843
          0.296505 0.296433 0.296359 0.296281 0.296469 0.296384
        </DataArray>
        <DataArray type="Float32" Name="temperature" NumberOfComponents="1" format="ascii">
          281.15 281.15 281.15 281.15 281.15 281.15 281.15 281.15 281.15 281.15 281.15 281.15
          281.15 281.15 281.15 281.15 281.15 281.15 281.15 281.15 281.15 281.15 281.15 281.15
          281.15 281.15 281.15 281.15 281.15 281.15
        </DataArray>
        <DataArray type="Float32" Name="phase presence" NumberOfComponents="1" format="ascii">
          3 1 1 1 1 1 1 1 1 1 1 1
          1 1 1 1 1 1 1 1 1 1 1 1
          1 1 1 1 1 1
        </DataArray>
        <DataArray type="Float32" Name="precipitateVolumeFraction_au" NumberOfComponents="1" format="ascii">
          5.51177e-10 5.51179e-10 5.51181e-10 5.51189e-10 5.51215e-10 5.51191e-10 5.51203e-10 5.51206e-10 5.51234e-10 5.51231e-10 5.51223e-10 5.51252e-10
          5.51277e-10 5.51248e-10 5.51261e-10 5.51222e-10 5.51252e-10 5.51296e-10 5.51236e-10 5.51287e-10 5.51322e-10 5.5131e-10 5.51298e-10 5.60306e-10
          0.000269971 0.000269974 0.000269977 0.000269981 5.51553e-10 5.50897e-10
        </DataArray>
        <DataArray type="Float32" Name="precipitateVolumeFraction_nanoAu" NumberOfComponents="1" format="ascii">
          1.71208e-12 1.72139e-12 1.69857e-12 1.69632e-12 1.71139e-12 1.67914e-12 1.67812e-12 1.6714e-12 1.67333e-12 1.66424e-12 1.65446e-12 1.65187e-12
          1.64655e-12 1.63553e-12 1.62868e-12 1.61785e-12 1.61163e-12 1.60503e-12 1.59364e-12 1.58598e-12 1.57704e-12 1.56639e-12 1.55667e-12 7.42837e-12
          2.91757e-08 2.68397e-08 2.37618e-08 1.98147e-08 1.50447e-12 1.48774e-12
        </DataArray>
        <DataArray type="Float32" Name="precipitateVolumeFraction_d" NumberOfComponents="1" format="ascii">
          0.00108385 0.00109772 0.00111206 0.00112687 0.00114217 0.001158 0.00117439 0.00119137 0.00120898 0.00122725 0.00124622 0.00126594
          0.00128645 0.00130779 0.00133001 0.00135317 0.00137731 0.00140248 0.00142875 0.00145617 0.00148479 0.00151469 0.00154593 0.00157858
          0.00161269 0.00164836 0.00168565 0.00172463 0.00176539 0.001808
        </DataArray>
        <DataArray type="Float32" Name="precipitateVolumeFraction_p" NumberOfComponents="1" format="ascii">
          0.00108385 0.00109772 0.00111206 0.00112687 0.00114217 0.001158 0.00117439 0.00119137 0.00120898 0.00122725 0.00124622 0.00126594
          0.00128645 0.00130779 0.00133001 0.00135317 0.00137731 0.00140248 0.00142875 0.00145617 0.00148479 0.00151469 0.00154593 0.00157858
          0.00161269 0.00164836 0.00168565 0.00172463 0.00176539 0.001808
        </DataArray>
        <DataArray type="Float32" Name="K" NumberOfComponents="1" format="ascii">
          9.72447e-11 9.72099e-11 9.71738e-11 9.71367e-11 9.70982e-11 9.70585e-11 9.70174e-11 9.69748e-11 9.69307e-11 9.68849e-11 9.68374e-11 9.6788e-11
          9.67367e-11 9.66833e-11 9.66277e-11 9.65698e-11 9.65095e-11 9.64467e-11 9.63811e-11 9.63128e-11 9.62414e-11 9.61669e-11 9.60892e-11 9.6008e-11
          9.55882e-11 9.54998e-11 9.54075e-11 9.53111e-11 9.55443e-11 9.54388e-11
        </DataArray>
        <DataArray type="Float32" Name="X^w_H2O" NumberOfComponents="1" format="ascii">
          0.999849 0.99986 0.999861 0.999862 0.999862 0.999863 0.999864 0.999864 0.999865 0.999866 0.999867 0.999868
          0.999869 0.99987 0.999871 0.999872 0.999873 0.999875 0.999876 0.999877 0.999879 0.999881 0.999882 0.999884
          0.999886 0.999888 0.99989 0.999892 0.999894 0.999897
        </DataArray>
        <DataArray type="Float32" Name="X^w_Air" NumberOfComponents="1" format="ascii">
          1.04574e-05 8.93601e-07 1.5817e-08 2.75929e-10 4.72671e-12 7.96269e-14 1.31994e-15 2.15259e-17 3.45123e-19 5.43644e-21 8.42021e-23 1.28419e-24
          1.92222e-26 2.8324e-28 4.09366e-30 5.81265e-32 8.11335e-34 1.11286e-35 1.49873e-37 0 0 0 0 0
          0 0 0 0 0 0
        </DataArray>
        <DataArray type="Float32" Name="X^w_AuComplex" NumberOfComponents="1" format="ascii">
          -7.56021e-14 3.97476e-15 3.85849e-15 3.7861e-15 3.7479e-15 3.60457e-15 3.52498e-15 3.42988e-15 3.34818e-15 3.2405e-15 3.12765e-15 3.02369e-15
          2.90974e-15 2.781e-15 2.65417e-15 2.5155e-15 2.37804e-15 2.23341e-15 2.07559e-15 1.91558e-15 1.74632e-15 1.56725e-15 1.38108e-15 7.30859e-15
          2.53802e-11 2.24099e-11 1.85896e-11 1.40303e-11 5.29678e-16 2.70885e-16
        </DataArray>
        <DataArray type="Float32" Name="X^w_nanoAu" NumberOfComponents="1" format="ascii">
          -7.80295e-14 3.1069e-18 3.02424e-18 2.9766e-18 2.95589e-18 2.85234e-18 2.79972e-18 2.73516e-18 2.68168e-18 2.6077e-18 2.52999e-18 2.45999e-18
          2.38234e-18 2.29309e-18 2.206e-18 2.10973e-18 2.01524e-18 1.91554e-18 1.80546e-18 1.69457e-18 1.57683e-18 1.45811e-18 2.27251e-18 1.40421e-16
          1.97297e-14 1.5603e-14 1.1404e-14 7.33607e-15 3.85324e-19 1.96351e-19
        </DataArray>
        <DataArray type="Float32" Name="X^w_cyanide" NumberOfComponents="1" format="ascii">
          1.22057e-05 1.20124e-05 1.18155e-05 1.1609e-05 1.13921e-05 1.11639e-05 1.0924e-05 1.06714e-05 1.04054e-05 1.0125e-05 9.82937e-06 9.51737e-06
          9.1879e-06 8.83973e-06 8.47156e-06 8.08196e-06 7.66938e-06 7.23215e-06 6.76848e-06 6.2764e-06 5.75381e-06 5.19841e-06 4.60775e-06 3.97916e-06
          3.30984e-06 3.10173e-06 2.79916e-06 2.38119e-06 1.82815e-06 9.45343e-07
        </DataArray>
        <DataArray type="Float32" Name="X^w_citrate" NumberOfComponents="1" format="ascii">
          9.45843e-05 9.3328e-05 9.20582e-05 9.0723e-05 8.9316e-05 8.78324e-05 8.62671e-05 8.46148e-05 8.28694e-05 8.10246e-05 7.90735e-05 7.70086e-05
          7.48218e-05 7.25043e-05 7.00467e-05 6.74387e-05 6.46692e-05 6.17261e-05 5.85964e-05 5.52661e-05 5.17198e-05 4.79411e-05 4.39121e-05 3.96136e-05
          3.50246e-05 3.01224e-05 2.4883e-05 1.92803e-05 1.32861e-05 6.87027e-06
        </DataArray>
        <DataArray type="Float32" Name="X^w_substrate" NumberOfComponents="1" format="ascii">
          3.32936e-05 3.41804e-05 3.50759e-05 3.60174e-05 3.70096e-05 3.80557e-05 3.91595e-05 4.03246e-05 4.15553e-05 4.28562e-05 4.4232e-05 4.5688e-05
          4.723e-05 4.88641e-05 5.05971e-05 5.24361e-05 5.4389e-05 5.64643e-05 5.86712e-05 6.10195e-05 6.35202e-05 6.61847e-05 6.90257e-05 7.20567e-05
          7.52926e-05 7.87494e-05 8.2444e-05 8.63947e-05 9.06214e-05 9.51455e-05
        </DataArray>
        <DataArray type="Float32" Name="m^w_H2O" NumberOfComponents="1" format="ascii">
          55492.4 55492.9 55493 55493 55493 55493.1 55493.1 55493.1 55493.2 55493.2 55493.2 55493.3
          55493.3 55493.4 55493.4 55493.5 55493.5 55493.6 55493.7 55493.7 55493.8 55493.9 55494 55494.1
          55494.2 55494.3 55494.4 55494.5 55494.6 55494.7
        </DataArray>
        <DataArray type="Float32" Name="m^w_Air" NumberOfComponents="1" format="ascii">
          0.361044 0.0308519 0.000546087 9.52655e-06 1.63191e-07 2.74915e-09 4.55712e-11 7.43191e-13 1.19155e-14 1.87695e-16 2.9071e-18 4.43369e-20
          6.63653e-22 9.77895e-24 1.41335e-25 2.00683e-27 2.80116e-29 3.84218e-31 5.1744e-33 6.83515e-35 8.84124e-37 0 0 0
          0 0 0 0 0 0
        </DataArray>
        <DataArray type="Float32" Name="m^w_AuComplex" NumberOfComponents="1" format="ascii">
          -3.8377e-10 2.01766e-11 1.95864e-11 1.92189e-11 1.9025e-11 1.82974e-11 1.78934e-11 1.74107e-11 1.69959e-11 1.64494e-11 1.58765e-11 1.53488e-11
          1.47704e-11 1.41168e-11 1.3473e-11 1.27691e-11 1.20713e-11 1.13372e-11 1.0536e-11 9.7238e-12 8.86458e-12 7.95563e-12 7.0106e-12 3.70996e-11
          1.28834e-07 1.13756e-07 9.43638e-08 7.12202e-08 2.68873e-12 1.37505e-12
        </DataArray>
        <DataArray type="Float32" Name="m^w_nanoAu" NumberOfComponents="1" format="ascii">
          -3.96092e-10 1.57712e-14 1.53516e-14 1.51097e-14 1.50046e-14 1.4479e-14 1.42119e-14 1.38842e-14 1.36127e-14 1.32371e-14 1.28427e-14 1.24873e-14
          1.20932e-14 1.16401e-14 1.1198e-14 1.07093e-14 1.02297e-14 9.72359e-15 9.1648e-15 8.60193e-15 8.00423e-15 7.40161e-15 1.15356e-14 7.12801e-13
          1.00151e-10 7.92034e-11 5.78888e-11 3.7239e-11 1.95596e-15 9.9671e-16
        </DataArray>
        <DataArray type="Float32" Name="m^w_cyanide" NumberOfComponents="1" format="ascii">
          0.469021 0.461592 0.454027 0.446093 0.437756 0.42899 0.419769 0.410064 0.399841 0.389068 0.377707 0.365718
          0.353057 0.339679 0.325531 0.31056 0.294706 0.277905 0.260088 0.241179 0.221097 0.199756 0.177059 0.152904
          0.127185 0.119188 0.107561 0.0915001 0.0702488 0.036326
        </DataArray>
        <DataArray type="Float32" Name="m^w_citrate" NumberOfComponents="1" format="ascii">
          0.500112 0.493469 0.486755 0.479695 0.472255 0.464411 0.456134 0.447398 0.438169 0.428415 0.418098 0.40718
          0.395617 0.383364 0.370369 0.356579 0.341936 0.326374 0.309826 0.292217 0.273466 0.253486 0.232183 0.209455
          0.185191 0.159271 0.131567 0.101943 0.0702494 0.0363262
        </DataArray>
        <DataArray type="Float32" Name="m^w_substrate" NumberOfComponents="1" format="ascii">
          0.184773 0.189695 0.194665 0.19989 0.205396 0.211202 0.217328 0.223794 0.230624 0.237844 0.245479 0.25356
          0.262117 0.271187 0.280804 0.29101 0.301848 0.313366 0.325613 0.338646 0.352524 0.367312 0.383079 0.3999
          0.417859 0.437043 0.457547 0.479473 0.50293 0.528038
        </DataArray>
        <DataArray type="Float32" Name="process rank" NumberOfComponents="1" format="ascii">
          0 0 0 0 0 0 0 0 0 0 0 0
          0 0 0 0 0 0 0 0 0 0 0 0
          0 0 0 0 0 0
        </DataArray>
      </CellData>
      <Points>
        <DataArray type="Float32" Name="Coordinates" NumberOfComponents="3" format="ascii">
          0 0 0 0.5 0 0 0 0.0333333 0 0.5 0.0333333 0
          0 0.0666667 0 0.5 0.0666667 0 0 0.1 0 0.5 0.1 0
          0 0.133333 0 0.5 0.133333 0 0 0.166667 0 0.5 0.166667 0
          0 0.2 0 0.5 0.2 0 0 0.233333 0 0.5 0.233333 0
          0 0.266667 0 0.5 0.266667 0 0 0.3 0 0.5 0.3 0
          0 0.333333 0 0.5 0.333333 0 0 0.366667 0 0.5 0.366667 0
          0 0.4 0 0.5 0.4 0 0 0.433333 0 0.5 0.433333 0
          0 0.466667 0 0.5 0.466667 0 0 0.5 0 0.5 0.5 0
          0 0.533333 0 0.5 0.533333 0 0 0.566667 0 0.5 0.566667 0
          0 0.6 0 0.5 0.6 0 0 0.633333 0 0.5 0.633333 0
          0 0.666667 0 0.5 0.666667 0 0 0.7 0 0.5 0.7 0
          0 0.733333 0 0.5 0.733333 0 0 0.766667 0 0.5 0.766667 0
          0 0.8 0 0.5 0.8 0 0 0.833333 0 0.5 0.833333 0
          0 0.866667 0 0.5 0.866667 0 0 0.9 0 0.5 0.9 0
          0 0.933333 0 0.5 0.933333 0 0 0.966667 0 0.5 0.966667 0
          0 1 0 0.5 1 0
        </DataArray>
      </Points>
      <Cells>
        <DataArray type="Int32" Name="connectivity" NumberOfComponents="1" format="ascii">
          0 1 3 2 2 3 5 4 4 5 7 6
          6 7 9 8 8 9 11 10 10 11 13 12
          12 13 15 14 14 15 17 16 16 17 19 18
          18 19 21 20 20 21 23 22 22 23 25 24
          24 25 27 26 26 27 29 28 28 29 31 30
          30 31 33 32 32 33 35 34 34 35 37 36
          36 37 39 38 38 39 41 40 40 41 43 42
          42 43 45 44 44 45 47 46 46 47 49 48
          48 49 51 50 50 51 53 52 52 53 55 54
          54 55 57 56 56 57 59 58 58 59 61 60
        </DataArray>
        <DataArray type="Int32" Name="offsets" NumberOfComponents="1" format="ascii">
          4 8 12 16 20 24 28 32 36 40 44 48
          52 56 60 64 68 72 76 80 84 88 92 96
          100 104 108 112 116 120
        </DataArray>
        <DataArray type="UInt8" Name="types" NumberOfComponents="1" format="ascii">
          9 9 9 9 9 9 9 9 9 9 9 9
          9 9 9 9 9 9 9 9 9 9 9 9
          9 9 9 9 9 9
        </DataArray>
      </Cells>
    </Piece>
  </UnstructuredGrid>
</VTKFile>
