<?xml version="1.0"?>
<VTKFile type="UnstructuredGrid" version="0.1" byte_order="LittleEndian">
  <UnstructuredGrid>
    <Piece NumberOfCells="30" NumberOfPoints="62">
      <CellData Scalars="Sg">
        <DataArray type="Float32" Name="Sg" NumberOfComponents="1" format="ascii">
          0 0 0 0 0 0 0 0 0 0 0 0
          0 0 0 0 0 0 0 0 0 0 0 0
          0 0 0 0 0 0
        </DataArray>
        <DataArray type="Float32" Name="Sl" NumberOfComponents="1" format="ascii">
          1 1 1 1 1 1 1 1 1 1 1 1
          1 1 1 1 1 1 1 1 1 1 1 1
          1 1 1 1 1 1
        </DataArray>
        <DataArray type="Float32" Name="pg" NumberOfComponents="1" format="ascii">
          24687.8 24360.9 24034 23707 23380.1 23053.1 22726.2 22399.3 22072.3 21745.4 21418.4 21091.5
          20764.6 20437.6 20110.7 19783.7 19456.8 19129.8 18802.9 18476 18149 17822.1 17495.1 17168.2
          16841.3 16514.3 16187.4 15860.4 15533.5 15209.4
        </DataArray>
        <DataArray type="Float32" Name="pl" NumberOfComponents="1" format="ascii">
          110628 110301 109974 109647 109320 108993 108666 108339 108012 107685 107358 107031
          106704 106377 106050 105723 105396 105070 104743 104416 104089 103762 103435 103108
          102781 102454 102127 101800 101473 101149
        </DataArray>
        <DataArray type="Float32" Name="pc" NumberOfComponents="1" format="ascii">
          -85939.7 -85939.7 -85939.7 -85939.7 -85939.7 -85939.7 -85939.7 -85939.7 -85939.7 -85939.7 -85939.7 -85939.7
          -85939.7 -85939.7 -85939.7 -85939.7 -85939.7 -85939.7 -85939.7 -85939.7 -85939.7 -85939.7 -85939.7 -85939.7
          -85939.7 -85939.7 -85939.7 -85939.7 -85939.7 -85939.7
        </DataArray>
        <DataArray type="Float32" Name="rhoL" NumberOfComponents="1" format="ascii">
          999.855 999.855 999.855 999.855 999.855 999.854 999.854 999.854 999.854 999.854 999.854 999.854
          999.853 999.853 999.853 999.853 999.853 999.853 999.852 999.852 999.852 999.852 999.852 999.852
          999.852 999.851 999.851 999.851 999.851 999.851
        </DataArray>
        <DataArray type="Float32" Name="rhoG" NumberOfComponents="1" format="ascii">
          0.30585 0.3018 0.29775 0.293699 0.289649 0.285598 0.281548 0.277498 0.273447 0.269397 0.265347 0.261296
          0.257246 0.253195 0.249145 0.245095 0.241044 0.236994 0.232944 0.228893 0.224843 0.220793 0.216742 0.212692
          0.208641 0.204591 0.200541 0.19649 0.19244 0.188424
        </DataArray>
        <DataArray type="Float32" Name="mobL" NumberOfComponents="1" format="ascii">
          722.171 722.17 722.17 722.17 722.17 722.17 722.169 722.169 722.169 722.169 722.169 722.169
          722.168 722.168 722.168 722.168 722.168 722.167 722.167 722.167 722.167 722.167 722.166 722.166
          722.166 722.166 722.166 722.166 722.165 722.165
        </DataArray>
        <DataArray type="Float32" Name="mobG" NumberOfComponents="1" format="ascii">
          0 0 0 0 0 0 0 0 0 0 0 0
          0 0 0 0 0 0 0 0 0 0 0 0
          0 0 0 0 0 0
        </DataArray>
        <DataArray type="Float32" Name="porosity" NumberOfComponents="1" format="ascii">
          0.298779 0.298778 0.298778 0.298778 0.298778 0.298777 0.298777 0.298776 0.298775 0.298774 0.298772 0.298769
          0.298765 0.298759 0.298751 0.298741 0.298727 0.298707 0.298681 0.298644 0.298593 0.298522 0.298419 0.298265
          0.297752 0.297333 0.296499 0.294328 0.284018 0.0460848
        </DataArray>
        <DataArray type="Float32" Name="temperature" NumberOfComponents="1" format="ascii">
          281.15 281.15 281.15 281.15 281.15 281.15 281.15 281.15 281.15 281.15 281.15 281.15
          281.15 281.15 281.15 281.15 281.15 281.15 281.15 281.15 281.15 281.15 281.15 281.15
          281.15 281.15 281.15 281.15 281.15 281.15
        </DataArray>
        <DataArray type="Float32" Name="phase presence" NumberOfComponents="1" format="ascii">
          1 1 1 1 1 1 1 1 1 1 1 1
          1 1 1 1 1 1 1 1 1 1 1 1
          1 1 1 1 1 1
        </DataArray>
        <DataArray type="Float32" Name="precipitateVolumeFraction_au" NumberOfComponents="1" format="ascii">
          5.52644e-10 5.5252e-10 5.52686e-10 5.5273e-10 5.52757e-10 5.52776e-10 5.52762e-10 5.52795e-10 5.52752e-10 5.52787e-10 5.52771e-10 5.52687e-10
          5.52772e-10 5.52801e-10 5.52699e-10 5.52752e-10 5.52791e-10 5.52764e-10 5.52784e-10 5.52716e-10 5.52739e-10 5.52742e-10 5.52996e-10 1.10712e-09
          0.000269941 0.000269924 0.0002699 0.000269852 5.52233e-10 5.51606e-10
        </DataArray>
        <DataArray type="Float32" Name="precipitateVolumeFraction_nanoAu" NumberOfComponents="1" format="ascii">
          1.23623e-13 1.23595e-13 1.23632e-13 1.23642e-13 1.23648e-13 1.23652e-13 1.23649e-13 1.23656e-13 1.23646e-13 1.23654e-13 1.2365e-13 1.23631e-13
          1.2365e-13 1.23656e-13 1.23632e-13 1.23643e-13 1.2365e-13 1.23642e-13 1.23644e-13 1.23625e-13 1.23625e-13 1.23626e-13 1.34914e-13 2.57649e-11
          6.03638e-08 7.66865e-08 1.02151e-07 1.45578e-07 4.74241e-13 4.67818e-13
        </DataArray>
        <DataArray type="Float32" Name="precipitateVolumeFraction_d" NumberOfComponents="1" format="ascii">
          0.000610743 0.000610789 0.000610853 0.000610946 0.000611077 0.000611264 0.00061153 0.000611906 0.000612437 0.000613182 0.000614224 0.000615675
          0.000617685 0.000620461 0.000624275 0.000629499 0.000636639 0.00064639 0.000659725 0.000678046 0.000703446 0.000739193 0.000790702 0.000867658
          0.000989173 0.00119864 0.00161534 0.00270089 0.0079912 0.126958
        </DataArray>
        <DataArray type="Float32" Name="precipitateVolumeFraction_p" NumberOfComponents="1" format="ascii">
          0.000610743 0.000610789 0.000610853 0.000610946 0.000611077 0.000611264 0.00061153 0.000611906 0.000612437 0.000613182 0.000614224 0.000615675
          0.000617685 0.000620461 0.000624275 0.000629499 0.000636639 0.00064639 0.000659725 0.000678046 0.000703446 0.000739193 0.000790702 0.000867658
          0.000989173 0.00119864 0.00161534 0.00270089 0.0079912 0.126958
        </DataArray>
        <DataArray type="Float32" Name="K" NumberOfComponents="1" format="ascii">
          9.84396e-11 9.84395e-11 9.84393e-11 9.84391e-11 9.84388e-11 9.84383e-11 9.84376e-11 9.84367e-11 9.84353e-11 9.84334e-11 9.84308e-11 9.84271e-11
          9.8422e-11 9.8415e-11 9.84053e-11 9.8392e-11 9.83739e-11 9.83492e-11 9.83154e-11 9.82689e-11 9.82045e-11 9.8114e-11 9.79837e-11 9.77893e-11
          9.71434e-11 9.66187e-11 9.55816e-11 9.29228e-11 8.11079e-11 1.95202e-13
        </DataArray>
        <DataArray type="Float32" Name="X^w_H2O" NumberOfComponents="1" format="ascii">
          0.999853 0.999853 0.999853 0.999853 0.999853 0.999853 0.999853 0.999853 0.999853 0.999853 0.999853 0.999853
          0.999853 0.999853 0.999853 0.999853 0.999853 0.999853 0.999853 0.999853 0.999853 0.999853 0.999853 0.999853
          0.999853 0.999852 0.99985 0.999846 0.999839 0.999839
        </DataArray>
        <DataArray type="Float32" Name="X^w_Air" NumberOfComponents="1" format="ascii">
          0 0 0 0 0 0 0 0 0 0 0 0
          0 0 0 0 0 0 0 0 0 0 0 0
          0 0 0 0 0 0
        </DataArray>
        <DataArray type="Float32" Name="X^w_AuComplex" NumberOfComponents="1" format="ascii">
          1.41042e-16 1.4101e-16 1.41053e-16 1.41064e-16 1.41071e-16 1.41075e-16 1.41072e-16 1.4108e-16 1.41069e-16 1.41077e-16 1.41072e-16 1.4105e-16
          1.41071e-16 1.41078e-16 1.4105e-16 1.41062e-16 1.41069e-16 1.41058e-16 1.41058e-16 1.41033e-16 1.41028e-16 1.41021e-16 1.53808e-16 2.93744e-14
          6.88367e-11 1.07376e-10 1.84418e-10 3.64057e-10 1.83608e-15 1.79156e-15
        </DataArray>
        <DataArray type="Float32" Name="X^w_nanoAu" NumberOfComponents="1" format="ascii">
          3.39005e-19 3.3893e-19 3.39031e-19 3.39058e-19 3.39074e-19 3.39086e-19 3.39077e-19 3.39096e-19 3.3907e-19 3.3909e-19 3.39079e-19 3.39027e-19
          3.39078e-19 3.39093e-19 3.39029e-19 3.39058e-19 3.39077e-19 3.39054e-19 3.39057e-19 3.39006e-19 3.39383e-19 3.95155e-19 8.56826e-18 1.20172e-15
          1.65813e-13 2.1072e-13 2.8079e-13 3.96137e-13 1.29721e-18 1.25714e-18
        </DataArray>
        <DataArray type="Float32" Name="X^w_cyanide" NumberOfComponents="1" format="ascii">
          5.07013e-06 5.07013e-06 5.07013e-06 5.07013e-06 5.07012e-06 5.07012e-06 5.07012e-06 5.07012e-06 5.07011e-06 5.07011e-06 5.0701e-06 5.07009e-06
          5.07007e-06 5.07005e-06 5.07002e-06 5.06998e-06 5.06993e-06 5.06985e-06 5.06975e-06 5.0696e-06 5.06939e-06 5.06908e-06 5.06862e-06 5.06791e-06
          5.06727e-06 6.43702e-06 8.5729e-06 1.2239e-05 1.9466e-05 1.9251e-05
        </DataArray>
        <DataArray type="Float32" Name="X^w_citrate" NumberOfComponents="1" format="ascii">
          0.000141796 0.000141796 0.000141796 0.000141796 0.000141796 0.000141796 0.000141796 0.000141796 0.000141796 0.000141796 0.000141796 0.000141796
          0.000141796 0.000141795 0.000141795 0.000141795 0.000141795 0.000141794 0.000141793 0.000141792 0.000141791 0.000141788 0.000141785 0.00014178
          0.000141772 0.000141758 0.000141732 0.000141671 0.000141469 0.000139906
        </DataArray>
        <DataArray type="Float32" Name="X^w_substrate" NumberOfComponents="1" format="ascii">
          7.11414e-12 9.69746e-12 1.32179e-11 1.80154e-11 2.45531e-11 3.34622e-11 4.56037e-11 6.21525e-11 8.4713e-11 1.15479e-10 1.57456e-10 2.1477e-10
          2.93105e-10 4.00324e-10 5.47372e-10 7.496e-10 1.02876e-09 1.41609e-09 1.95721e-09 2.72026e-09 3.80983e-09 5.39237e-09 7.74518e-09 1.13586e-08
          1.71714e-08 2.71859e-08 4.63909e-08 9.05397e-08 2.34533e-07 1.33656e-06
        </DataArray>
        <DataArray type="Float32" Name="m^w_H2O" NumberOfComponents="1" format="ascii">
          55492.6 55492.6 55492.5 55492.5 55492.5 55492.5 55492.5 55492.5 55492.5 55492.5 55492.5 55492.5
          55492.5 55492.4 55492.4 55492.4 55492.4 55492.4 55492.4 55492.4 55492.4 55492.4 55492.4 55492.4
          55492.3 55492.3 55492.1 55491.9 55491.5 55491.5
        </DataArray>
        <DataArray type="Float32" Name="m^w_Air" NumberOfComponents="1" format="ascii">
          0 0 0 0 0 0 0 0 0 0 0 0
          0 0 0 0 0 0 0 0 0 0 0 0
          0 0 0 0 0 0
        </DataArray>
        <DataArray type="Float32" Name="m^w_AuComplex" NumberOfComponents="1" format="ascii">
          7.15956e-13 7.15795e-13 7.16008e-13 7.16065e-13 7.16099e-13 7.16124e-13 7.16104e-13 7.16145e-13 7.16089e-13 7.16132e-13 7.16108e-13 7.15996e-13
          7.16102e-13 7.16134e-13 7.15995e-13 7.16052e-13 7.16089e-13 7.16034e-13 7.16033e-13 7.15905e-13 7.15879e-13 7.15845e-13 7.80753e-13 1.49109e-10
          3.49426e-07 5.45058e-07 9.36135e-07 1.84801e-06 9.32024e-12 9.09423e-12
        </DataArray>
        <DataArray type="Float32" Name="m^w_nanoAu" NumberOfComponents="1" format="ascii">
          1.72085e-15 1.72047e-15 1.72098e-15 1.72112e-15 1.7212e-15 1.72126e-15 1.72121e-15 1.72131e-15 1.72118e-15 1.72128e-15 1.72122e-15 1.72096e-15
          1.72122e-15 1.7213e-15 1.72097e-15 1.72111e-15 1.72121e-15 1.7211e-15 1.72111e-15 1.72085e-15 1.72276e-15 2.00587e-15 4.34939e-14 6.10012e-12
          8.41694e-10 1.06965e-09 1.42534e-09 2.01086e-09 6.58486e-15 6.38142e-15
        </DataArray>
        <DataArray type="Float32" Name="m^w_cyanide" NumberOfComponents="1" format="ascii">
          0.194827 0.194827 0.194827 0.194827 0.194827 0.194826 0.194826 0.194826 0.194826 0.194826 0.194825 0.194825
          0.194824 0.194823 0.194822 0.194821 0.194819 0.194816 0.194812 0.194806 0.194798 0.194786 0.194768 0.194741
          0.194716 0.247351 0.329425 0.470299 0.748006 0.739744
        </DataArray>
        <DataArray type="Float32" Name="m^w_citrate" NumberOfComponents="1" format="ascii">
          0.749742 0.749742 0.749742 0.749742 0.749742 0.749741 0.749741 0.749741 0.749741 0.74974 0.74974 0.749739
          0.749739 0.749738 0.749737 0.749735 0.749733 0.74973 0.749726 0.74972 0.749711 0.749699 0.749682 0.749654
          0.749611 0.749541 0.749403 0.749079 0.748009 0.739745
        </DataArray>
        <DataArray type="Float32" Name="m^w_substrate" NumberOfComponents="1" format="ascii">
          3.94822e-08 5.38191e-08 7.33572e-08 9.99824e-08 1.36265e-07 1.85709e-07 2.53092e-07 3.44935e-07 4.70141e-07 6.40888e-07 8.73852e-07 1.19193e-06
          1.62668e-06 2.22172e-06 3.03781e-06 4.16013e-06 5.70941e-06 7.85901e-06 1.08621e-05 1.50969e-05 2.11438e-05 2.99266e-05 4.29842e-05 6.30381e-05
          9.52981e-05 0.000150876 0.00025746 0.000502477 0.00130161 0.00741766
        </DataArray>
        <DataArray type="Float32" Name="process rank" NumberOfComponents="1" format="ascii">
          0 0 0 0 0 0 0 0 0 0 0 0
          0 0 0 0 0 0 0 0 0 0 0 0
          0 0 0 0 0 0
        </DataArray>
      </CellData>
      <Points>
        <DataArray type="Float32" Name="Coordinates" NumberOfComponents="3" format="ascii">
          0 0 0 0.5 0 0 0 0.0333333 0 0.5 0.0333333 0
          0 0.0666667 0 0.5 0.0666667 0 0 0.1 0 0.5 0.1 0
          0 0.133333 0 0.5 0.133333 0 0 0.166667 0 0.5 0.166667 0
          0 0.2 0 0.5 0.2 0 0 0.233333 0 0.5 0.233333 0
          0 0.266667 0 0.5 0.266667 0 0 0.3 0 0.5 0.3 0
          0 0.333333 0 0.5 0.333333 0 0 0.366667 0 0.5 0.366667 0
          0 0.4 0 0.5 0.4 0 0 0.433333 0 0.5 0.433333 0
          0 0.466667 0 0.5 0.466667 0 0 0.5 0 0.5 0.5 0
          0 0.533333 0 0.5 0.533333 0 0 0.566667 0 0.5 0.566667 0
          0 0.6 0 0.5 0.6 0 0 0.633333 0 0.5 0.633333 0
          0 0.666667 0 0.5 0.666667 0 0 0.7 0 0.5 0.7 0
          0 0.733333 0 0.5 0.733333 0 0 0.766667 0 0.5 0.766667 0
          0 0.8 0 0.5 0.8 0 0 0.833333 0 0.5 0.833333 0
          0 0.866667 0 0.5 0.866667 0 0 0.9 0 0.5 0.9 0
          0 0.933333 0 0.5 0.933333 0 0 0.966667 0 0.5 0.966667 0
          0 1 0 0.5 1 0
        </DataArray>
      </Points>
      <Cells>
        <DataArray type="Int32" Name="connectivity" NumberOfComponents="1" format="ascii">
          0 1 3 2 2 3 5 4 4 5 7 6
          6 7 9 8 8 9 11 10 10 11 13 12
          12 13 15 14 14 15 17 16 16 17 19 18
          18 19 21 20 20 21 23 22 22 23 25 24
          24 25 27 26 26 27 29 28 28 29 31 30
          30 31 33 32 32 33 35 34 34 35 37 36
          36 37 39 38 38 39 41 40 40 41 43 42
          42 43 45 44 44 45 47 46 46 47 49 48
          48 49 51 50 50 51 53 52 52 53 55 54
          54 55 57 56 56 57 59 58 58 59 61 60
        </DataArray>
        <DataArray type="Int32" Name="offsets" NumberOfComponents="1" format="ascii">
          4 8 12 16 20 24 28 32 36 40 44 48
          52 56 60 64 68 72 76 80 84 88 92 96
          100 104 108 112 116 120
        </DataArray>
        <DataArray type="UInt8" Name="types" NumberOfComponents="1" format="ascii">
          9 9 9 9 9 9 9 9 9 9 9 9
          9 9 9 9 9 9 9 9 9 9 9 9
          9 9 9 9 9 9
        </DataArray>
      </Cells>
    </Piece>
  </UnstructuredGrid>
</VTKFile>
