<?xml version="1.0"?>
<VTKFile type="UnstructuredGrid" version="0.1" byte_order="LittleEndian">
  <UnstructuredGrid>
    <Piece NumberOfCells="30" NumberOfPoints="62">
      <CellData Scalars="Sg">
        <DataArray type="Float32" Name="Sg" NumberOfComponents="1" format="ascii">
          0 0 0 0 0 0 0 0 0 0 0 0
          0 0 0 0 0 0 0 0 0 0 0 0
          0 0 0 0 0 0
        </DataArray>
        <DataArray type="Float32" Name="Sl" NumberOfComponents="1" format="ascii">
          1 1 1 1 1 1 1 1 1 1 1 1
          1 1 1 1 1 1 1 1 1 1 1 1
          1 1 1 1 1 1
        </DataArray>
        <DataArray type="Float32" Name="pg" NumberOfComponents="1" format="ascii">
          24687.8 24360.9 24034 23707 23380.1 23053.1 22726.2 22399.3 22072.3 21745.4 21418.4 21091.5
          20764.6 20437.6 20110.7 19783.7 19456.8 19129.8 18802.9 18476 18149 17822.1 17495.1 17168.2
          16841.3 16514.3 16187.4 15860.4 15533.5 15209.5
        </DataArray>
        <DataArray type="Float32" Name="pl" NumberOfComponents="1" format="ascii">
          110628 110301 109974 109647 109320 108993 108666 108339 108012 107685 107358 107031
          106704 106377 106050 105723 105396 105070 104743 104416 104089 103762 103435 103108
          102781 102454 102127 101800 101473 101149
        </DataArray>
        <DataArray type="Float32" Name="pc" NumberOfComponents="1" format="ascii">
          -85939.7 -85939.7 -85939.7 -85939.7 -85939.7 -85939.7 -85939.7 -85939.7 -85939.7 -85939.7 -85939.7 -85939.7
          -85939.7 -85939.7 -85939.7 -85939.7 -85939.7 -85939.7 -85939.7 -85939.7 -85939.7 -85939.7 -85939.7 -85939.7
          -85939.7 -85939.7 -85939.7 -85939.7 -85939.7 -85939.7
        </DataArray>
        <DataArray type="Float32" Name="rhoL" NumberOfComponents="1" format="ascii">
          999.855 999.855 999.855 999.855 999.855 999.854 999.854 999.854 999.854 999.854 999.854 999.854
          999.853 999.853 999.853 999.853 999.853 999.853 999.852 999.852 999.852 999.852 999.852 999.852
          999.852 999.851 999.851 999.851 999.851 999.851
        </DataArray>
        <DataArray type="Float32" Name="rhoG" NumberOfComponents="1" format="ascii">
          0.30585 0.3018 0.29775 0.293699 0.289649 0.285598 0.281548 0.277498 0.273447 0.269397 0.265347 0.261296
          0.257246 0.253195 0.249145 0.245095 0.241044 0.236994 0.232944 0.228893 0.224843 0.220793 0.216742 0.212692
          0.208641 0.204591 0.200541 0.19649 0.19244 0.188427
        </DataArray>
        <DataArray type="Float32" Name="mobL" NumberOfComponents="1" format="ascii">
          722.171 722.17 722.17 722.17 722.17 722.17 722.169 722.169 722.169 722.169 722.169 722.169
          722.168 722.168 722.168 722.168 722.168 722.167 722.167 722.167 722.167 722.167 722.166 722.166
          722.166 722.166 722.166 722.166 722.165 722.165
        </DataArray>
        <DataArray type="Float32" Name="mobG" NumberOfComponents="1" format="ascii">
          0 0 0 0 0 0 0 0 0 0 0 0
          0 0 0 0 0 0 0 0 0 0 0 0
          0 0 0 0 0 0
        </DataArray>
        <DataArray type="Float32" Name="porosity" NumberOfComponents="1" format="ascii">
          0.298812 0.298812 0.298811 0.298811 0.298811 0.298811 0.29881 0.298809 0.298808 0.298807 0.298805 0.298802
          0.298798 0.298793 0.298785 0.298775 0.298761 0.298742 0.298716 0.29868 0.29863 0.29856 0.298459 0.298308
          0.297798 0.297384 0.296555 0.294373 0.283752 0.0452445
        </DataArray>
        <DataArray type="Float32" Name="temperature" NumberOfComponents="1" format="ascii">
          281.15 281.15 281.15 281.15 281.15 281.15 281.15 281.15 281.15 281.15 281.15 281.15
          281.15 281.15 281.15 281.15 281.15 281.15 281.15 281.15 281.15 281.15 281.15 281.15
          281.15 281.15 281.15 281.15 281.15 281.15
        </DataArray>
        <DataArray type="Float32" Name="phase presence" NumberOfComponents="1" format="ascii">
          1 1 1 1 1 1 1 1 1 1 1 1
          1 1 1 1 1 1 1 1 1 1 1 1
          1 1 1 1 1 1
        </DataArray>
        <DataArray type="Float32" Name="precipitateVolumeFraction_au" NumberOfComponents="1" format="ascii">
          5.52644e-10 5.5252e-10 5.52686e-10 5.5273e-10 5.52757e-10 5.52776e-10 5.52762e-10 5.52795e-10 5.52752e-10 5.52787e-10 5.52771e-10 5.52687e-10
          5.52772e-10 5.52801e-10 5.52699e-10 5.52752e-10 5.52791e-10 5.52764e-10 5.52784e-10 5.52716e-10 5.52739e-10 5.52742e-10 5.53025e-10 1.17326e-09
          0.000269941 0.000269925 0.0002699 0.000269852 5.52233e-10 5.51604e-10
        </DataArray>
        <DataArray type="Float32" Name="precipitateVolumeFraction_nanoAu" NumberOfComponents="1" format="ascii">
          1.23618e-13 1.2359e-13 1.23627e-13 1.23637e-13 1.23643e-13 1.23648e-13 1.23644e-13 1.23651e-13 1.23642e-13 1.2365e-13 1.23646e-13 1.23627e-13
          1.23645e-13 1.23651e-13 1.23628e-13 1.23638e-13 1.23646e-13 1.23638e-13 1.2364e-13 1.23621e-13 1.23621e-13 1.23622e-13 1.3492e-13 2.57766e-11
          6.03615e-08 7.6684e-08 1.02148e-07 1.45577e-07 4.74262e-13 4.67844e-13
        </DataArray>
        <DataArray type="Float32" Name="precipitateVolumeFraction_d" NumberOfComponents="1" format="ascii">
          0.00059419 0.000594234 0.000594298 0.000594388 0.000594517 0.0005947 0.000594961 0.000595329 0.000595848 0.000596577 0.000597596 0.000599016
          0.000600983 0.000603697 0.000607427 0.000612537 0.000619522 0.000629063 0.000642115 0.000660056 0.000684944 0.000719998 0.000770565 0.000846229
          0.000965969 0.00117307 0.0015874 0.00267838 0.00812382 0.127378
        </DataArray>
        <DataArray type="Float32" Name="precipitateVolumeFraction_p" NumberOfComponents="1" format="ascii">
          0.00059419 0.000594234 0.000594298 0.000594388 0.000594517 0.0005947 0.000594961 0.000595329 0.000595848 0.000596577 0.000597596 0.000599016
          0.000600983 0.000603697 0.000607427 0.000612537 0.000619522 0.000629063 0.000642115 0.000660056 0.000684944 0.000719998 0.000770565 0.000846229
          0.000965969 0.00117307 0.0015874 0.00267838 0.00812382 0.127378
        </DataArray>
        <DataArray type="Float32" Name="K" NumberOfComponents="1" format="ascii">
          9.84817e-11 9.84815e-11 9.84814e-11 9.84812e-11 9.84808e-11 9.84804e-11 9.84797e-11 9.84788e-11 9.84774e-11 9.84756e-11 9.8473e-11 9.84694e-11
          9.84644e-11 9.84575e-11 9.8448e-11 9.84351e-11 9.84174e-11 9.83931e-11 9.836e-11 9.83145e-11 9.82514e-11 9.81626e-11 9.80346e-11 9.78434e-11
          9.72017e-11 9.66826e-11 9.56509e-11 9.29774e-11 8.0821e-11 1.84394e-13
        </DataArray>
        <DataArray type="Float32" Name="X^w_H2O" NumberOfComponents="1" format="ascii">
          0.999853 0.999853 0.999853 0.999853 0.999853 0.999853 0.999853 0.999853 0.999853 0.999853 0.999853 0.999853
          0.999853 0.999853 0.999853 0.999853 0.999853 0.999853 0.999853 0.999853 0.999853 0.999853 0.999853 0.999853
          0.999853 0.999852 0.99985 0.999846 0.999839 0.999839
        </DataArray>
        <DataArray type="Float32" Name="X^w_Air" NumberOfComponents="1" format="ascii">
          0 0 0 0 0 0 0 0 0 0 0 0
          0 0 0 0 0 0 0 0 0 0 0 0
          0 0 0 0 0 0
        </DataArray>
        <DataArray type="Float32" Name="X^w_AuComplex" NumberOfComponents="1" format="ascii">
          1.41034e-16 1.41002e-16 1.41044e-16 1.41055e-16 1.41062e-16 1.41067e-16 1.41063e-16 1.41072e-16 1.41061e-16 1.41069e-16 1.41065e-16 1.41043e-16
          1.41064e-16 1.4107e-16 1.41043e-16 1.41054e-16 1.41061e-16 1.4105e-16 1.4105e-16 1.41024e-16 1.41019e-16 1.41012e-16 1.5381e-16 2.93872e-14
          6.88325e-11 1.0737e-10 1.84411e-10 3.64056e-10 1.83623e-15 1.79173e-15
        </DataArray>
        <DataArray type="Float32" Name="X^w_nanoAu" NumberOfComponents="1" format="ascii">
          3.38992e-19 3.38917e-19 3.39018e-19 3.39045e-19 3.39061e-19 3.39073e-19 3.39064e-19 3.39083e-19 3.39057e-19 3.39078e-19 3.39067e-19 3.39015e-19
          3.39066e-19 3.39081e-19 3.39017e-19 3.39046e-19 3.39065e-19 3.39042e-19 3.39045e-19 3.38993e-19 3.39369e-19 3.95136e-19 8.56769e-18 1.20167e-15
          1.65806e-13 2.10713e-13 2.80784e-13 3.9614e-13 1.29732e-18 1.25727e-18
        </DataArray>
        <DataArray type="Float32" Name="X^w_cyanide" NumberOfComponents="1" format="ascii">
          5.06999e-06 5.06999e-06 5.06999e-06 5.06999e-06 5.06999e-06 5.06999e-06 5.06999e-06 5.06999e-06 5.06998e-06 5.06998e-06 5.06997e-06 5.06996e-06
          5.06994e-06 5.06992e-06 5.06989e-06 5.06985e-06 5.0698e-06 5.06972e-06 5.06961e-06 5.06946e-06 5.06924e-06 5.06893e-06 5.06847e-06 5.06776e-06
          5.06712e-06 6.43685e-06 8.57275e-06 1.2239e-05 1.94668e-05 1.92519e-05
        </DataArray>
        <DataArray type="Float32" Name="X^w_citrate" NumberOfComponents="1" format="ascii">
          0.000141796 0.000141796 0.000141796 0.000141796 0.000141796 0.000141796 0.000141796 0.000141796 0.000141796 0.000141796 0.000141796 0.000141796
          0.000141796 0.000141795 0.000141795 0.000141795 0.000141794 0.000141794 0.000141793 0.000141792 0.00014179 0.000141788 0.000141785 0.00014178
          0.000141771 0.000141758 0.000141733 0.000141673 0.000141474 0.000139912
        </DataArray>
        <DataArray type="Float32" Name="X^w_substrate" NumberOfComponents="1" format="ascii">
          8.61002e-12 1.16526e-11 1.57693e-11 2.13392e-11 2.88751e-11 3.90711e-11 5.28671e-11 7.15365e-11 9.68061e-11 1.3102e-10 1.77368e-10 2.40197e-10
          3.25455e-10 4.41315e-10 5.99076e-10 8.1448e-10 1.10969e-09 1.51634e-09 2.08036e-09 2.86993e-09 3.98916e-09 5.6029e-09 7.98449e-09 1.16153e-08
          1.74135e-08 2.73321e-08 4.62308e-08 8.94702e-08 2.30587e-07 1.33215e-06
        </DataArray>
        <DataArray type="Float32" Name="m^w_H2O" NumberOfComponents="1" format="ascii">
          55492.6 55492.6 55492.5 55492.5 55492.5 55492.5 55492.5 55492.5 55492.5 55492.5 55492.5 55492.5
          55492.5 55492.4 55492.4 55492.4 55492.4 55492.4 55492.4 55492.4 55492.4 55492.4 55492.4 55492.4
          55492.3 55492.3 55492.1 55491.9 55491.5 55491.5
        </DataArray>
        <DataArray type="Float32" Name="m^w_Air" NumberOfComponents="1" format="ascii">
          0 0 0 0 0 0 0 0 0 0 0 0
          0 0 0 0 0 0 0 0 0 0 0 0
          0 0 0 0 0 0
        </DataArray>
        <DataArray type="Float32" Name="m^w_AuComplex" NumberOfComponents="1" format="ascii">
          7.15912e-13 7.15751e-13 7.15966e-13 7.16023e-13 7.16057e-13 7.16082e-13 7.16063e-13 7.16105e-13 7.16049e-13 7.16092e-13 7.16068e-13 7.15957e-13
          7.16063e-13 7.16095e-13 7.15956e-13 7.16013e-13 7.16049e-13 7.15993e-13 7.15991e-13 7.15863e-13 7.15836e-13 7.15801e-13 7.80766e-13 1.49174e-10
          3.49405e-07 5.45028e-07 9.36099e-07 1.848e-06 9.32099e-12 9.09513e-12
        </DataArray>
        <DataArray type="Float32" Name="m^w_nanoAu" NumberOfComponents="1" format="ascii">
          1.72078e-15 1.7204e-15 1.72091e-15 1.72105e-15 1.72113e-15 1.72119e-15 1.72115e-15 1.72125e-15 1.72111e-15 1.72122e-15 1.72116e-15 1.7209e-15
          1.72116e-15 1.72123e-15 1.72091e-15 1.72105e-15 1.72115e-15 1.72103e-15 1.72105e-15 1.72078e-15 1.72269e-15 2.00577e-15 4.3491e-14 6.09987e-12
          8.4166e-10 1.06961e-09 1.42531e-09 2.01087e-09 6.58541e-15 6.38208e-15
        </DataArray>
        <DataArray type="Float32" Name="m^w_cyanide" NumberOfComponents="1" format="ascii">
          0.194821 0.194821 0.194821 0.194821 0.194821 0.194821 0.194821 0.194821 0.194821 0.194821 0.19482 0.19482
          0.194819 0.194819 0.194817 0.194816 0.194814 0.194811 0.194806 0.194801 0.194792 0.19478 0.194762 0.194735
          0.194711 0.247344 0.329419 0.470299 0.748035 0.739777
        </DataArray>
        <DataArray type="Float32" Name="m^w_citrate" NumberOfComponents="1" format="ascii">
          0.749742 0.749742 0.749742 0.749742 0.749742 0.749741 0.749741 0.749741 0.749741 0.74974 0.74974 0.749739
          0.749739 0.749738 0.749736 0.749734 0.749732 0.749729 0.749725 0.749719 0.74971 0.749698 0.74968 0.749653
          0.749609 0.74954 0.749404 0.749087 0.748038 0.739778
        </DataArray>
        <DataArray type="Float32" Name="m^w_substrate" NumberOfComponents="1" format="ascii">
          4.77841e-08 6.46698e-08 8.75169e-08 1.18429e-07 1.60251e-07 2.16837e-07 2.93403e-07 3.97014e-07 5.37255e-07 7.27138e-07 9.84359e-07 1.33305e-06
          1.80621e-06 2.44922e-06 3.32475e-06 4.5202e-06 6.15857e-06 8.41541e-06 1.15456e-05 1.59275e-05 2.2139e-05 3.1095e-05 4.43123e-05 6.44626e-05
          9.66414e-05 0.000151688 0.000256571 0.000496541 0.00127971 0.00739318
        </DataArray>
        <DataArray type="Float32" Name="process rank" NumberOfComponents="1" format="ascii">
          0 0 0 0 0 0 0 0 0 0 0 0
          0 0 0 0 0 0 0 0 0 0 0 0
          0 0 0 0 0 0
        </DataArray>
      </CellData>
      <Points>
        <DataArray type="Float32" Name="Coordinates" NumberOfComponents="3" format="ascii">
          0 0 0 0.5 0 0 0 0.0333333 0 0.5 0.0333333 0
          0 0.0666667 0 0.5 0.0666667 0 0 0.1 0 0.5 0.1 0
          0 0.133333 0 0.5 0.133333 0 0 0.166667 0 0.5 0.166667 0
          0 0.2 0 0.5 0.2 0 0 0.233333 0 0.5 0.233333 0
          0 0.266667 0 0.5 0.266667 0 0 0.3 0 0.5 0.3 0
          0 0.333333 0 0.5 0.333333 0 0 0.366667 0 0.5 0.366667 0
          0 0.4 0 0.5 0.4 0 0 0.433333 0 0.5 0.433333 0
          0 0.466667 0 0.5 0.466667 0 0 0.5 0 0.5 0.5 0
          0 0.533333 0 0.5 0.533333 0 0 0.566667 0 0.5 0.566667 0
          0 0.6 0 0.5 0.6 0 0 0.633333 0 0.5 0.633333 0
          0 0.666667 0 0.5 0.666667 0 0 0.7 0 0.5 0.7 0
          0 0.733333 0 0.5 0.733333 0 0 0.766667 0 0.5 0.766667 0
          0 0.8 0 0.5 0.8 0 0 0.833333 0 0.5 0.833333 0
          0 0.866667 0 0.5 0.866667 0 0 0.9 0 0.5 0.9 0
          0 0.933333 0 0.5 0.933333 0 0 0.966667 0 0.5 0.966667 0
          0 1 0 0.5 1 0
        </DataArray>
      </Points>
      <Cells>
        <DataArray type="Int32" Name="connectivity" NumberOfComponents="1" format="ascii">
          0 1 3 2 2 3 5 4 4 5 7 6
          6 7 9 8 8 9 11 10 10 11 13 12
          12 13 15 14 14 15 17 16 16 17 19 18
          18 19 21 20 20 21 23 22 22 23 25 24
          24 25 27 26 26 27 29 28 28 29 31 30
          30 31 33 32 32 33 35 34 34 35 37 36
          36 37 39 38 38 39 41 40 40 41 43 42
          42 43 45 44 44 45 47 46 46 47 49 48
          48 49 51 50 50 51 53 52 52 53 55 54
          54 55 57 56 56 57 59 58 58 59 61 60
        </DataArray>
        <DataArray type="Int32" Name="offsets" NumberOfComponents="1" format="ascii">
          4 8 12 16 20 24 28 32 36 40 44 48
          52 56 60 64 68 72 76 80 84 88 92 96
          100 104 108 112 116 120
        </DataArray>
        <DataArray type="UInt8" Name="types" NumberOfComponents="1" format="ascii">
          9 9 9 9 9 9 9 9 9 9 9 9
          9 9 9 9 9 9 9 9 9 9 9 9
          9 9 9 9 9 9
        </DataArray>
      </Cells>
    </Piece>
  </UnstructuredGrid>
</VTKFile>
