<?xml version="1.0"?>
<VTKFile type="UnstructuredGrid" version="0.1" byte_order="LittleEndian">
  <UnstructuredGrid>
    <Piece NumberOfCells="30" NumberOfPoints="62">
      <CellData Scalars="Sg">
        <DataArray type="Float32" Name="Sg" NumberOfComponents="1" format="ascii">
          0 0 0 0 0 0 0 0 0 0 0 0
          0 0 0 0 0 0 0 0 0 0 0 0
          0 0 0 0 0 0
        </DataArray>
        <DataArray type="Float32" Name="Sl" NumberOfComponents="1" format="ascii">
          1 1 1 1 1 1 1 1 1 1 1 1
          1 1 1 1 1 1 1 1 1 1 1 1
          1 1 1 1 1 1
        </DataArray>
        <DataArray type="Float32" Name="pg" NumberOfComponents="1" format="ascii">
          24687.8 24360.9 24034 23707 23380.1 23053.1 22726.2 22399.3 22072.3 21745.4 21418.4 21091.5
          20764.6 20437.6 20110.7 19783.7 19456.8 19129.8 18802.9 18476 18149 17822.1 17495.1 17168.2
          16841.3 16514.3 16187.4 15860.4 15533.5 15208.4
        </DataArray>
        <DataArray type="Float32" Name="pl" NumberOfComponents="1" format="ascii">
          110628 110301 109974 109647 109320 108993 108666 108339 108012 107685 107358 107031
          106704 106377 106050 105723 105396 105070 104743 104416 104089 103762 103435 103108
          102781 102454 102127 101800 101473 101148
        </DataArray>
        <DataArray type="Float32" Name="pc" NumberOfComponents="1" format="ascii">
          -85939.7 -85939.7 -85939.7 -85939.7 -85939.7 -85939.7 -85939.7 -85939.7 -85939.7 -85939.7 -85939.7 -85939.7
          -85939.7 -85939.7 -85939.7 -85939.7 -85939.7 -85939.7 -85939.7 -85939.7 -85939.7 -85939.7 -85939.7 -85939.7
          -85939.7 -85939.7 -85939.7 -85939.7 -85939.7 -85939.7
        </DataArray>
        <DataArray type="Float32" Name="rhoL" NumberOfComponents="1" format="ascii">
          999.855 999.855 999.855 999.855 999.855 999.854 999.854 999.854 999.854 999.854 999.854 999.854
          999.853 999.853 999.853 999.853 999.853 999.853 999.852 999.852 999.852 999.852 999.852 999.852
          999.852 999.851 999.851 999.851 999.851 999.851
        </DataArray>
        <DataArray type="Float32" Name="rhoG" NumberOfComponents="1" format="ascii">
          0.30585 0.3018 0.29775 0.293699 0.289649 0.285598 0.281548 0.277498 0.273447 0.269397 0.265347 0.261296
          0.257246 0.253195 0.249145 0.245095 0.241044 0.236994 0.232944 0.228893 0.224843 0.220793 0.216742 0.212692
          0.208641 0.204591 0.200541 0.19649 0.19244 0.188412
        </DataArray>
        <DataArray type="Float32" Name="mobL" NumberOfComponents="1" format="ascii">
          722.171 722.17 722.17 722.17 722.17 722.17 722.169 722.169 722.169 722.169 722.169 722.169
          722.168 722.168 722.168 722.168 722.168 722.167 722.167 722.167 722.167 722.167 722.166 722.166
          722.166 722.166 722.166 722.166 722.165 722.165
        </DataArray>
        <DataArray type="Float32" Name="mobG" NumberOfComponents="1" format="ascii">
          0 0 0 0 0 0 0 0 0 0 0 0
          0 0 0 0 0 0 0 0 0 0 0 0
          0 0 0 0 0 0
        </DataArray>
        <DataArray type="Float32" Name="porosity" NumberOfComponents="1" format="ascii">
          0.298817 0.298817 0.298817 0.298817 0.298817 0.298816 0.298816 0.298815 0.298814 0.298812 0.29881 0.298807
          0.298802 0.298796 0.298788 0.298778 0.298763 0.298743 0.298716 0.298678 0.298627 0.298555 0.298451 0.298297
          0.297785 0.297367 0.296541 0.294401 0.284397 0.0532128
        </DataArray>
        <DataArray type="Float32" Name="temperature" NumberOfComponents="1" format="ascii">
          281.15 281.15 281.15 281.15 281.15 281.15 281.15 281.15 281.15 281.15 281.15 281.15
          281.15 281.15 281.15 281.15 281.15 281.15 281.15 281.15 281.15 281.15 281.15 281.15
          281.15 281.15 281.15 281.15 281.15 281.15
        </DataArray>
        <DataArray type="Float32" Name="phase presence" NumberOfComponents="1" format="ascii">
          1 1 1 1 1 1 1 1 1 1 1 1
          1 1 1 1 1 1 1 1 1 1 1 1
          1 1 1 1 1 1
        </DataArray>
        <DataArray type="Float32" Name="precipitateVolumeFraction_au" NumberOfComponents="1" format="ascii">
          5.52906e-10 5.52813e-10 5.52768e-10 5.5274e-10 5.52709e-10 5.52703e-10 5.52718e-10 5.52743e-10 5.52748e-10 5.52799e-10 5.52774e-10 5.52757e-10
          5.52733e-10 5.52754e-10 5.527e-10 5.52743e-10 5.52763e-10 5.52781e-10 5.52755e-10 5.52747e-10 5.52678e-10 5.52774e-10 5.52919e-10 1.08579e-09
          0.00026994 0.000269924 0.0002699 0.000269852 5.52186e-10 5.51164e-10
        </DataArray>
        <DataArray type="Float32" Name="precipitateVolumeFraction_nanoAu" NumberOfComponents="1" format="ascii">
          1.23696e-13 1.23675e-13 1.23665e-13 1.23659e-13 1.23652e-13 1.2365e-13 1.23654e-13 1.23659e-13 1.2366e-13 1.23671e-13 1.23665e-13 1.23661e-13
          1.23655e-13 1.23659e-13 1.23646e-13 1.23655e-13 1.23658e-13 1.23659e-13 1.23651e-13 1.23645e-13 1.23624e-13 1.23654e-13 1.35561e-13 2.57991e-11
          6.0367e-08 7.66893e-08 1.02152e-07 1.45572e-07 4.74139e-13 4.67241e-13
        </DataArray>
        <DataArray type="Float32" Name="precipitateVolumeFraction_d" NumberOfComponents="1" format="ascii">
          0.000591264 0.000591318 0.000591394 0.000591503 0.000591655 0.00059187 0.000592171 0.000592592 0.00059318 0.000593998 0.000595129 0.00059669
          0.000598833 0.000601765 0.000605762 0.000611197 0.000618574 0.000628586 0.000642203 0.000660819 0.000686517 0.000722545 0.000774289 0.000851367
          0.000972734 0.0011813 0.00159461 0.00266441 0.00780146 0.123394
        </DataArray>
        <DataArray type="Float32" Name="precipitateVolumeFraction_p" NumberOfComponents="1" format="ascii">
          0.000591264 0.000591318 0.000591394 0.000591503 0.000591655 0.00059187 0.000592171 0.000592592 0.00059318 0.000593998 0.000595129 0.00059669
          0.000598833 0.000601765 0.000605762 0.000611197 0.000618574 0.000628586 0.000642203 0.000660819 0.000686517 0.000722545 0.000774289 0.000851367
          0.000972734 0.0011813 0.00159461 0.00266441 0.00780146 0.123394
        </DataArray>
        <DataArray type="Float32" Name="K" NumberOfComponents="1" format="ascii">
          9.84891e-11 9.84889e-11 9.84888e-11 9.84885e-11 9.84881e-11 9.84875e-11 9.84868e-11 9.84857e-11 9.84842e-11 9.84821e-11 9.84793e-11 9.84753e-11
          9.84699e-11 9.84624e-11 9.84523e-11 9.84385e-11 9.84198e-11 9.83943e-11 9.83598e-11 9.83126e-11 9.82474e-11 9.81562e-11 9.80252e-11 9.78304e-11
          9.71847e-11 9.6662e-11 9.5633e-11 9.30112e-11 8.15199e-11 3.05054e-13
        </DataArray>
        <DataArray type="Float32" Name="X^w_H2O" NumberOfComponents="1" format="ascii">
          0.999853 0.999853 0.999853 0.999853 0.999853 0.999853 0.999853 0.999853 0.999853 0.999853 0.999853 0.999853
          0.999853 0.999853 0.999853 0.999853 0.999853 0.999853 0.999853 0.999853 0.999853 0.999853 0.999853 0.999853
          0.999853 0.999852 0.99985 0.999846 0.999839 0.99984
        </DataArray>
        <DataArray type="Float32" Name="X^w_Air" NumberOfComponents="1" format="ascii">
          0 0 0 0 0 0 0 0 0 0 0 0
          0 0 0 0 0 0 0 0 0 0 0 0
          0 0 0 0 0 0
        </DataArray>
        <DataArray type="Float32" Name="X^w_AuComplex" NumberOfComponents="1" format="ascii">
          1.41139e-16 1.41115e-16 1.41103e-16 1.41096e-16 1.41088e-16 1.41086e-16 1.4109e-16 1.41096e-16 1.41097e-16 1.41109e-16 1.41102e-16 1.41097e-16
          1.4109e-16 1.41094e-16 1.41078e-16 1.41087e-16 1.41089e-16 1.41089e-16 1.41076e-16 1.41066e-16 1.41036e-16 1.4106e-16 1.5444e-16 2.94085e-14
          6.8843e-11 1.07383e-10 1.84421e-10 3.64031e-10 1.83546e-15 1.78863e-15
        </DataArray>
        <DataArray type="Float32" Name="X^w_nanoAu" NumberOfComponents="1" format="ascii">
          5.3874e-19 5.38649e-19 5.38605e-19 5.38577e-19 5.38546e-19 5.3854e-19 5.38554e-19 5.38577e-19 5.38581e-19 5.38629e-19 5.38603e-19 5.38584e-19
          5.38558e-19 5.38574e-19 5.38519e-19 5.38554e-19 5.38565e-19 5.3857e-19 5.38529e-19 5.38539e-19 5.42129e-19 8.83669e-19 3.25101e-17 2.95737e-15
          2.6365e-13 3.3513e-13 4.46655e-13 6.26584e-13 2.05921e-18 1.98537e-18
        </DataArray>
        <DataArray type="Float32" Name="X^w_cyanide" NumberOfComponents="1" format="ascii">
          5.07069e-06 5.07069e-06 5.07068e-06 5.07068e-06 5.07068e-06 5.07067e-06 5.07067e-06 5.07066e-06 5.07066e-06 5.07065e-06 5.07064e-06 5.07062e-06
          5.0706e-06 5.07058e-06 5.07055e-06 5.0705e-06 5.07044e-06 5.07035e-06 5.07023e-06 5.07007e-06 5.06983e-06 5.06949e-06 5.069e-06 5.06824e-06
          5.06751e-06 6.43722e-06 8.57296e-06 1.22386e-05 1.94636e-05 1.9243e-05
        </DataArray>
        <DataArray type="Float32" Name="X^w_citrate" NumberOfComponents="1" format="ascii">
          0.000141796 0.000141796 0.000141796 0.000141796 0.000141796 0.000141796 0.000141796 0.000141796 0.000141796 0.000141796 0.000141796 0.000141796
          0.000141796 0.000141795 0.000141795 0.000141795 0.000141794 0.000141794 0.000141793 0.000141792 0.00014179 0.000141788 0.000141784 0.000141778
          0.00014177 0.000141755 0.000141728 0.000141663 0.000141451 0.000139848
        </DataArray>
        <DataArray type="Float32" Name="X^w_substrate" NumberOfComponents="1" format="ascii">
          9.52274e-12 1.28617e-11 1.73702e-11 2.34581e-11 3.16784e-11 4.27785e-11 5.77687e-11 7.80153e-11 1.05368e-10 1.42336e-10 1.92326e-10 2.59978e-10
          3.51637e-10 4.76014e-10 6.4515e-10 8.75826e-10 1.19168e-09 1.62646e-09 2.22927e-09 3.07307e-09 4.26951e-09 5.99576e-09 8.54618e-09 1.24403e-08
          1.86708e-08 2.93506e-08 4.97321e-08 9.63327e-08 2.47082e-07 1.37764e-06
        </DataArray>
        <DataArray type="Float32" Name="m^w_H2O" NumberOfComponents="1" format="ascii">
          55492.6 55492.6 55492.5 55492.5 55492.5 55492.5 55492.5 55492.5 55492.5 55492.5 55492.5 55492.5
          55492.5 55492.4 55492.4 55492.4 55492.4 55492.4 55492.4 55492.4 55492.4 55492.4 55492.4 55492.4
          55492.3 55492.3 55492.1 55491.9 55491.5 55491.6
        </DataArray>
        <DataArray type="Float32" Name="m^w_Air" NumberOfComponents="1" format="ascii">
          0 0 0 0 0 0 0 0 0 0 0 0
          0 0 0 0 0 0 0 0 0 0 0 0
          0 0 0 0 0 0
        </DataArray>
        <DataArray type="Float32" Name="m^w_AuComplex" NumberOfComponents="1" format="ascii">
          7.16447e-13 7.16325e-13 7.16266e-13 7.16228e-13 7.16187e-13 7.16178e-13 7.16196e-13 7.16227e-13 7.16231e-13 7.16294e-13 7.16259e-13 7.16232e-13
          7.16195e-13 7.16216e-13 7.16138e-13 7.16181e-13 7.1619e-13 7.16191e-13 7.16125e-13 7.16073e-13 7.15922e-13 7.16044e-13 7.83963e-13 1.49282e-10
          3.49458e-07 5.45092e-07 9.3615e-07 1.84788e-06 9.31711e-12 9.07937e-12
        </DataArray>
        <DataArray type="Float32" Name="m^w_nanoAu" NumberOfComponents="1" format="ascii">
          2.73474e-15 2.73428e-15 2.73405e-15 2.73391e-15 2.73375e-15 2.73373e-15 2.73379e-15 2.73391e-15 2.73393e-15 2.73417e-15 2.73404e-15 2.73394e-15
          2.73381e-15 2.7339e-15 2.73361e-15 2.73379e-15 2.73385e-15 2.73387e-15 2.73366e-15 2.73371e-15 2.75193e-15 4.48565e-15 1.65027e-13 1.50121e-11
          1.33833e-09 1.70117e-09 2.26729e-09 3.18064e-09 1.04529e-14 1.00781e-14
        </DataArray>
        <DataArray type="Float32" Name="m^w_cyanide" NumberOfComponents="1" format="ascii">
          0.194848 0.194848 0.194848 0.194848 0.194848 0.194848 0.194847 0.194847 0.194847 0.194847 0.194846 0.194846
          0.194845 0.194844 0.194842 0.194841 0.194838 0.194835 0.19483 0.194824 0.194815 0.194802 0.194783 0.194753
          0.194726 0.247358 0.329427 0.470282 0.747912 0.739436
        </DataArray>
        <DataArray type="Float32" Name="m^w_citrate" NumberOfComponents="1" format="ascii">
          0.749742 0.749742 0.749742 0.749742 0.749742 0.749741 0.749741 0.749741 0.749741 0.74974 0.74974 0.749739
          0.749738 0.749737 0.749736 0.749734 0.749732 0.749728 0.749723 0.749717 0.749708 0.749695 0.749676 0.749646
          0.7496 0.749524 0.749378 0.749036 0.747914 0.739437
        </DataArray>
        <DataArray type="Float32" Name="m^w_substrate" NumberOfComponents="1" format="ascii">
          5.28495e-08 7.13799e-08 9.64016e-08 1.30188e-07 1.75809e-07 2.37413e-07 3.20606e-07 4.3297e-07 5.84774e-07 7.89938e-07 1.06737e-06 1.44283e-06
          1.95152e-06 2.64179e-06 3.58046e-06 4.86066e-06 6.61357e-06 9.02656e-06 1.2372e-05 1.70549e-05 2.3695e-05 3.32752e-05 4.74296e-05 6.90412e-05
          0.000103619 0.00016289 0.000276003 0.000534627 0.00137125 0.00764564
        </DataArray>
        <DataArray type="Float32" Name="process rank" NumberOfComponents="1" format="ascii">
          0 0 0 0 0 0 0 0 0 0 0 0
          0 0 0 0 0 0 0 0 0 0 0 0
          0 0 0 0 0 0
        </DataArray>
      </CellData>
      <Points>
        <DataArray type="Float32" Name="Coordinates" NumberOfComponents="3" format="ascii">
          0 0 0 0.5 0 0 0 0.0333333 0 0.5 0.0333333 0
          0 0.0666667 0 0.5 0.0666667 0 0 0.1 0 0.5 0.1 0
          0 0.133333 0 0.5 0.133333 0 0 0.166667 0 0.5 0.166667 0
          0 0.2 0 0.5 0.2 0 0 0.233333 0 0.5 0.233333 0
          0 0.266667 0 0.5 0.266667 0 0 0.3 0 0.5 0.3 0
          0 0.333333 0 0.5 0.333333 0 0 0.366667 0 0.5 0.366667 0
          0 0.4 0 0.5 0.4 0 0 0.433333 0 0.5 0.433333 0
          0 0.466667 0 0.5 0.466667 0 0 0.5 0 0.5 0.5 0
          0 0.533333 0 0.5 0.533333 0 0 0.566667 0 0.5 0.566667 0
          0 0.6 0 0.5 0.6 0 0 0.633333 0 0.5 0.633333 0
          0 0.666667 0 0.5 0.666667 0 0 0.7 0 0.5 0.7 0
          0 0.733333 0 0.5 0.733333 0 0 0.766667 0 0.5 0.766667 0
          0 0.8 0 0.5 0.8 0 0 0.833333 0 0.5 0.833333 0
          0 0.866667 0 0.5 0.866667 0 0 0.9 0 0.5 0.9 0
          0 0.933333 0 0.5 0.933333 0 0 0.966667 0 0.5 0.966667 0
          0 1 0 0.5 1 0
        </DataArray>
      </Points>
      <Cells>
        <DataArray type="Int32" Name="connectivity" NumberOfComponents="1" format="ascii">
          0 1 3 2 2 3 5 4 4 5 7 6
          6 7 9 8 8 9 11 10 10 11 13 12
          12 13 15 14 14 15 17 16 16 17 19 18
          18 19 21 20 20 21 23 22 22 23 25 24
          24 25 27 26 26 27 29 28 28 29 31 30
          30 31 33 32 32 33 35 34 34 35 37 36
          36 37 39 38 38 39 41 40 40 41 43 42
          42 43 45 44 44 45 47 46 46 47 49 48
          48 49 51 50 50 51 53 52 52 53 55 54
          54 55 57 56 56 57 59 58 58 59 61 60
        </DataArray>
        <DataArray type="Int32" Name="offsets" NumberOfComponents="1" format="ascii">
          4 8 12 16 20 24 28 32 36 40 44 48
          52 56 60 64 68 72 76 80 84 88 92 96
          100 104 108 112 116 120
        </DataArray>
        <DataArray type="UInt8" Name="types" NumberOfComponents="1" format="ascii">
          9 9 9 9 9 9 9 9 9 9 9 9
          9 9 9 9 9 9 9 9 9 9 9 9
          9 9 9 9 9 9
        </DataArray>
      </Cells>
    </Piece>
  </UnstructuredGrid>
</VTKFile>
