<?xml version="1.0"?>
<VTKFile type="UnstructuredGrid" version="0.1" byte_order="LittleEndian">
  <UnstructuredGrid>
    <Piece NumberOfCells="30" NumberOfPoints="62">
      <CellData Scalars="Sg">
        <DataArray type="Float32" Name="Sg" NumberOfComponents="1" format="ascii">
          0 0 0 0 0 0 0 0 0 0 0 0
          0 0 0 0 0 0 0 0 0 0 0 0
          0 0 0 0 0 0
        </DataArray>
        <DataArray type="Float32" Name="Sl" NumberOfComponents="1" format="ascii">
          1 1 1 1 1 1 1 1 1 1 1 1
          1 1 1 1 1 1 1 1 1 1 1 1
          1 1 1 1 1 1
        </DataArray>
        <DataArray type="Float32" Name="pg" NumberOfComponents="1" format="ascii">
          24687.8 24360.9 24034 23707 23380.1 23053.1 22726.2 22399.3 22072.3 21745.4 21418.4 21091.5
          20764.6 20437.6 20110.7 19783.7 19456.8 19129.8 18802.9 18476 18149 17822.1 17495.1 17168.2
          16841.3 16514.3 16187.4 15860.4 15533.5 15208.6
        </DataArray>
        <DataArray type="Float32" Name="pl" NumberOfComponents="1" format="ascii">
          110628 110301 109974 109647 109320 108993 108666 108339 108012 107685 107358 107031
          106704 106377 106050 105723 105396 105070 104743 104416 104089 103762 103435 103108
          102781 102454 102127 101800 101473 101148
        </DataArray>
        <DataArray type="Float32" Name="pc" NumberOfComponents="1" format="ascii">
          -85939.7 -85939.7 -85939.7 -85939.7 -85939.7 -85939.7 -85939.7 -85939.7 -85939.7 -85939.7 -85939.7 -85939.7
          -85939.7 -85939.7 -85939.7 -85939.7 -85939.7 -85939.7 -85939.7 -85939.7 -85939.7 -85939.7 -85939.7 -85939.7
          -85939.7 -85939.7 -85939.7 -85939.7 -85939.7 -85939.7
        </DataArray>
        <DataArray type="Float32" Name="rhoL" NumberOfComponents="1" format="ascii">
          999.855 999.855 999.855 999.855 999.855 999.854 999.854 999.854 999.854 999.854 999.854 999.854
          999.853 999.853 999.853 999.853 999.853 999.853 999.852 999.852 999.852 999.852 999.852 999.852
          999.852 999.851 999.851 999.851 999.851 999.851
        </DataArray>
        <DataArray type="Float32" Name="rhoG" NumberOfComponents="1" format="ascii">
          0.30585 0.3018 0.29775 0.293699 0.289649 0.285598 0.281548 0.277498 0.273447 0.269397 0.265347 0.261296
          0.257246 0.253195 0.249145 0.245095 0.241044 0.236994 0.232944 0.228893 0.224843 0.220793 0.216742 0.212692
          0.208641 0.204591 0.200541 0.19649 0.19244 0.188415
        </DataArray>
        <DataArray type="Float32" Name="mobL" NumberOfComponents="1" format="ascii">
          722.171 722.17 722.17 722.17 722.17 722.17 722.169 722.169 722.169 722.169 722.169 722.169
          722.168 722.168 722.168 722.168 722.168 722.167 722.167 722.167 722.167 722.167 722.166 722.166
          722.166 722.166 722.166 722.166 722.165 722.165
        </DataArray>
        <DataArray type="Float32" Name="mobG" NumberOfComponents="1" format="ascii">
          0 0 0 0 0 0 0 0 0 0 0 0
          0 0 0 0 0 0 0 0 0 0 0 0
          0 0 0 0 0 0
        </DataArray>
        <DataArray type="Float32" Name="porosity" NumberOfComponents="1" format="ascii">
          0.298901 0.298901 0.298901 0.2989 0.2989 0.2989 0.298899 0.298898 0.298897 0.298896 0.298893 0.298891
          0.298886 0.298881 0.298873 0.298863 0.298849 0.29883 0.298804 0.298769 0.298721 0.298652 0.298553 0.298406
          0.297902 0.297498 0.296683 0.294517 0.283725 0.0512301
        </DataArray>
        <DataArray type="Float32" Name="temperature" NumberOfComponents="1" format="ascii">
          281.15 281.15 281.15 281.15 281.15 281.15 281.15 281.15 281.15 281.15 281.15 281.15
          281.15 281.15 281.15 281.15 281.15 281.15 281.15 281.15 281.15 281.15 281.15 281.15
          281.15 281.15 281.15 281.15 281.15 281.15
        </DataArray>
        <DataArray type="Float32" Name="phase presence" NumberOfComponents="1" format="ascii">
          1 1 1 1 1 1 1 1 1 1 1 1
          1 1 1 1 1 1 1 1 1 1 1 1
          1 1 1 1 1 1
        </DataArray>
        <DataArray type="Float32" Name="precipitateVolumeFraction_au" NumberOfComponents="1" format="ascii">
          5.52906e-10 5.52813e-10 5.52768e-10 5.5274e-10 5.52709e-10 5.52703e-10 5.52718e-10 5.52743e-10 5.52748e-10 5.52799e-10 5.52774e-10 5.52757e-10
          5.52733e-10 5.52754e-10 5.527e-10 5.52743e-10 5.52763e-10 5.52781e-10 5.52755e-10 5.52747e-10 5.52678e-10 5.52775e-10 5.53001e-10 1.26241e-09
          0.000269941 0.000269925 0.0002699 0.000269851 5.52186e-10 5.51159e-10
        </DataArray>
        <DataArray type="Float32" Name="precipitateVolumeFraction_nanoAu" NumberOfComponents="1" format="ascii">
          1.23685e-13 1.23664e-13 1.23654e-13 1.23648e-13 1.23641e-13 1.2364e-13 1.23643e-13 1.23649e-13 1.23649e-13 1.23661e-13 1.23655e-13 1.2365e-13
          1.23645e-13 1.23649e-13 1.23636e-13 1.23644e-13 1.23647e-13 1.23649e-13 1.2364e-13 1.23634e-13 1.23612e-13 1.23642e-13 1.35578e-13 2.58313e-11
          6.03616e-08 7.66832e-08 1.02146e-07 1.45572e-07 4.74193e-13 4.67307e-13
        </DataArray>
        <DataArray type="Float32" Name="precipitateVolumeFraction_d" NumberOfComponents="1" format="ascii">
          0.000549612 0.000549664 0.000549737 0.00054984 0.000549985 0.000550189 0.000550474 0.000550873 0.00055143 0.000552203 0.000553272 0.000554746
          0.00055677 0.000559538 0.000563312 0.000568444 0.000575411 0.000584872 0.000597749 0.000615374 0.00063974 0.000673972 0.000723277 0.000797013
          0.000913787 0.00111623 0.00152332 0.00260663 0.00813774 0.124385
        </DataArray>
        <DataArray type="Float32" Name="precipitateVolumeFraction_p" NumberOfComponents="1" format="ascii">
          0.000549612 0.000549664 0.000549737 0.00054984 0.000549985 0.000550189 0.000550474 0.000550873 0.00055143 0.000552203 0.000553272 0.000554746
          0.00055677 0.000559538 0.000563312 0.000568444 0.000575411 0.000584872 0.000597749 0.000615374 0.00063974 0.000673972 0.000723277 0.000797013
          0.000913787 0.00111623 0.00152332 0.00260663 0.00813774 0.124385
        </DataArray>
        <DataArray type="Float32" Name="K" NumberOfComponents="1" format="ascii">
          9.85949e-11 9.85948e-11 9.85946e-11 9.85943e-11 9.8594e-11 9.85934e-11 9.85927e-11 9.85917e-11 9.85903e-11 9.85883e-11 9.85856e-11 9.85819e-11
          9.85767e-11 9.85697e-11 9.85601e-11 9.85471e-11 9.85294e-11 9.85053e-11 9.84726e-11 9.84279e-11 9.8366e-11 9.82792e-11 9.81543e-11 9.79677e-11
          9.73329e-11 9.68248e-11 9.58098e-11 9.31513e-11 8.0791e-11 2.71072e-13
        </DataArray>
        <DataArray type="Float32" Name="X^w_H2O" NumberOfComponents="1" format="ascii">
          0.999853 0.999853 0.999853 0.999853 0.999853 0.999853 0.999853 0.999853 0.999853 0.999853 0.999853 0.999853
          0.999853 0.999853 0.999853 0.999853 0.999853 0.999853 0.999853 0.999853 0.999853 0.999853 0.999853 0.999853
          0.999853 0.999852 0.99985 0.999846 0.999839 0.99984
        </DataArray>
        <DataArray type="Float32" Name="X^w_Air" NumberOfComponents="1" format="ascii">
          0 0 0 0 0 0 0 0 0 0 0 0
          0 0 0 0 0 0 0 0 0 0 0 0
          0 0 0 0 0 0
        </DataArray>
        <DataArray type="Float32" Name="X^w_AuComplex" NumberOfComponents="1" format="ascii">
          1.41119e-16 1.41095e-16 1.41084e-16 1.41077e-16 1.41069e-16 1.41067e-16 1.41071e-16 1.41077e-16 1.41078e-16 1.41091e-16 1.41084e-16 1.41079e-16
          1.41072e-16 1.41076e-16 1.4106e-16 1.41068e-16 1.4107e-16 1.4107e-16 1.41056e-16 1.41046e-16 1.41015e-16 1.41039e-16 1.54451e-16 2.94437e-14
          6.88328e-11 1.07368e-10 1.84404e-10 3.6403e-10 1.83585e-15 1.78906e-15
        </DataArray>
        <DataArray type="Float32" Name="X^w_nanoAu" NumberOfComponents="1" format="ascii">
          5.38691e-19 5.386e-19 5.38557e-19 5.38529e-19 5.38499e-19 5.38494e-19 5.38507e-19 5.38531e-19 5.38536e-19 5.38584e-19 5.38558e-19 5.38538e-19
          5.38513e-19 5.38529e-19 5.38473e-19 5.38508e-19 5.38518e-19 5.38522e-19 5.3848e-19 5.38488e-19 5.42075e-19 8.83527e-19 3.25042e-17 2.95702e-15
          2.63625e-13 3.35102e-13 4.46634e-13 6.266e-13 2.05966e-18 1.98587e-18
        </DataArray>
        <DataArray type="Float32" Name="X^w_cyanide" NumberOfComponents="1" format="ascii">
          5.07037e-06 5.07037e-06 5.07037e-06 5.07037e-06 5.07037e-06 5.07037e-06 5.07037e-06 5.07036e-06 5.07036e-06 5.07035e-06 5.07034e-06 5.07033e-06
          5.07031e-06 5.07028e-06 5.07024e-06 5.07019e-06 5.07013e-06 5.07003e-06 5.0699e-06 5.06973e-06 5.06948e-06 5.06913e-06 5.06862e-06 5.06785e-06
          5.06714e-06 6.4368e-06 8.57258e-06 1.22386e-05 1.94656e-05 1.92451e-05
        </DataArray>
        <DataArray type="Float32" Name="X^w_citrate" NumberOfComponents="1" format="ascii">
          0.000141796 0.000141796 0.000141796 0.000141796 0.000141796 0.000141796 0.000141796 0.000141796 0.000141796 0.000141796 0.000141796 0.000141796
          0.000141795 0.000141795 0.000141795 0.000141795 0.000141794 0.000141793 0.000141792 0.000141791 0.000141789 0.000141787 0.000141783 0.000141777
          0.000141769 0.000141755 0.000141728 0.000141667 0.000141466 0.000139863
        </DataArray>
        <DataArray type="Float32" Name="X^w_substrate" NumberOfComponents="1" format="ascii">
          1.55186e-11 2.058e-11 2.72904e-11 3.61872e-11 4.79826e-11 6.36216e-11 8.43586e-11 1.1186e-10 1.4834e-10 1.96751e-10 2.61028e-10 3.46439e-10
          4.60061e-10 6.11445e-10 8.13571e-10 1.08423e-09 1.44808e-09 1.93981e-09 2.60909e-09 3.52874e-09 4.80872e-09 6.62131e-09 9.24959e-09 1.31881e-08
          1.93736e-08 2.97872e-08 4.93376e-08 9.35115e-08 2.36699e-07 1.36667e-06
        </DataArray>
        <DataArray type="Float32" Name="m^w_H2O" NumberOfComponents="1" format="ascii">
          55492.6 55492.6 55492.5 55492.5 55492.5 55492.5 55492.5 55492.5 55492.5 55492.5 55492.5 55492.5
          55492.5 55492.4 55492.4 55492.4 55492.4 55492.4 55492.4 55492.4 55492.4 55492.4 55492.4 55492.4
          55492.3 55492.3 55492.1 55491.9 55491.5 55491.5
        </DataArray>
        <DataArray type="Float32" Name="m^w_Air" NumberOfComponents="1" format="ascii">
          0 0 0 0 0 0 0 0 0 0 0 0
          0 0 0 0 0 0 0 0 0 0 0 0
          0 0 0 0 0 0
        </DataArray>
        <DataArray type="Float32" Name="m^w_AuComplex" NumberOfComponents="1" format="ascii">
          7.16346e-13 7.16225e-13 7.16168e-13 7.16131e-13 7.1609e-13 7.16083e-13 7.16101e-13 7.16133e-13 7.16138e-13 7.16202e-13 7.16167e-13 7.1614e-13
          7.16104e-13 7.16124e-13 7.16045e-13 7.16087e-13 7.16095e-13 7.16094e-13 7.16026e-13 7.15971e-13 7.15817e-13 7.15936e-13 7.84017e-13 1.49461e-10
          3.49406e-07 5.45019e-07 9.36064e-07 1.84788e-06 9.31908e-12 9.08157e-12
        </DataArray>
        <DataArray type="Float32" Name="m^w_nanoAu" NumberOfComponents="1" format="ascii">
          2.73449e-15 2.73403e-15 2.73381e-15 2.73367e-15 2.73352e-15 2.73349e-15 2.73356e-15 2.73368e-15 2.7337e-15 2.73394e-15 2.73381e-15 2.73371e-15
          2.73358e-15 2.73366e-15 2.73338e-15 2.73356e-15 2.73361e-15 2.73363e-15 2.73341e-15 2.73346e-15 2.75166e-15 4.48493e-15 1.64996e-13 1.50103e-11
          1.3382e-09 1.70103e-09 2.26718e-09 3.18072e-09 1.04551e-14 1.00806e-14
        </DataArray>
        <DataArray type="Float32" Name="m^w_cyanide" NumberOfComponents="1" format="ascii">
          0.194836 0.194836 0.194836 0.194836 0.194836 0.194836 0.194836 0.194836 0.194835 0.194835 0.194835 0.194834
          0.194833 0.194832 0.194831 0.194829 0.194826 0.194823 0.194818 0.194811 0.194801 0.194788 0.194768 0.194739
          0.194711 0.247342 0.329412 0.470283 0.74799 0.739518
        </DataArray>
        <DataArray type="Float32" Name="m^w_citrate" NumberOfComponents="1" format="ascii">
          0.749742 0.749742 0.749742 0.749742 0.749742 0.749741 0.749741 0.749741 0.74974 0.74974 0.749739 0.749738
          0.749738 0.749736 0.749735 0.749732 0.74973 0.749726 0.749721 0.749714 0.749704 0.74969 0.74967 0.749641
          0.749594 0.749521 0.749381 0.749057 0.747992 0.739519
        </DataArray>
        <DataArray type="Float32" Name="m^w_substrate" NumberOfComponents="1" format="ascii">
          8.61255e-08 1.14215e-07 1.51457e-07 2.00832e-07 2.66294e-07 3.53088e-07 4.68174e-07 6.208e-07 8.23261e-07 1.09193e-06 1.44865e-06 1.92267e-06
          2.55325e-06 3.3934e-06 4.51516e-06 6.01726e-06 8.03657e-06 1.07656e-05 1.44799e-05 1.95838e-05 2.66875e-05 3.6747e-05 5.13334e-05 7.31913e-05
          0.000107519 0.000165313 0.000273814 0.000518969 0.00131363 0.00758472
        </DataArray>
        <DataArray type="Float32" Name="process rank" NumberOfComponents="1" format="ascii">
          0 0 0 0 0 0 0 0 0 0 0 0
          0 0 0 0 0 0 0 0 0 0 0 0
          0 0 0 0 0 0
        </DataArray>
      </CellData>
      <Points>
        <DataArray type="Float32" Name="Coordinates" NumberOfComponents="3" format="ascii">
          0 0 0 0.5 0 0 0 0.0333333 0 0.5 0.0333333 0
          0 0.0666667 0 0.5 0.0666667 0 0 0.1 0 0.5 0.1 0
          0 0.133333 0 0.5 0.133333 0 0 0.166667 0 0.5 0.166667 0
          0 0.2 0 0.5 0.2 0 0 0.233333 0 0.5 0.233333 0
          0 0.266667 0 0.5 0.266667 0 0 0.3 0 0.5 0.3 0
          0 0.333333 0 0.5 0.333333 0 0 0.366667 0 0.5 0.366667 0
          0 0.4 0 0.5 0.4 0 0 0.433333 0 0.5 0.433333 0
          0 0.466667 0 0.5 0.466667 0 0 0.5 0 0.5 0.5 0
          0 0.533333 0 0.5 0.533333 0 0 0.566667 0 0.5 0.566667 0
          0 0.6 0 0.5 0.6 0 0 0.633333 0 0.5 0.633333 0
          0 0.666667 0 0.5 0.666667 0 0 0.7 0 0.5 0.7 0
          0 0.733333 0 0.5 0.733333 0 0 0.766667 0 0.5 0.766667 0
          0 0.8 0 0.5 0.8 0 0 0.833333 0 0.5 0.833333 0
          0 0.866667 0 0.5 0.866667 0 0 0.9 0 0.5 0.9 0
          0 0.933333 0 0.5 0.933333 0 0 0.966667 0 0.5 0.966667 0
          0 1 0 0.5 1 0
        </DataArray>
      </Points>
      <Cells>
        <DataArray type="Int32" Name="connectivity" NumberOfComponents="1" format="ascii">
          0 1 3 2 2 3 5 4 4 5 7 6
          6 7 9 8 8 9 11 10 10 11 13 12
          12 13 15 14 14 15 17 16 16 17 19 18
          18 19 21 20 20 21 23 22 22 23 25 24
          24 25 27 26 26 27 29 28 28 29 31 30
          30 31 33 32 32 33 35 34 34 35 37 36
          36 37 39 38 38 39 41 40 40 41 43 42
          42 43 45 44 44 45 47 46 46 47 49 48
          48 49 51 50 50 51 53 52 52 53 55 54
          54 55 57 56 56 57 59 58 58 59 61 60
        </DataArray>
        <DataArray type="Int32" Name="offsets" NumberOfComponents="1" format="ascii">
          4 8 12 16 20 24 28 32 36 40 44 48
          52 56 60 64 68 72 76 80 84 88 92 96
          100 104 108 112 116 120
        </DataArray>
        <DataArray type="UInt8" Name="types" NumberOfComponents="1" format="ascii">
          9 9 9 9 9 9 9 9 9 9 9 9
          9 9 9 9 9 9 9 9 9 9 9 9
          9 9 9 9 9 9
        </DataArray>
      </Cells>
    </Piece>
  </UnstructuredGrid>
</VTKFile>
