<?xml version="1.0"?>
<VTKFile type="UnstructuredGrid" version="0.1" byte_order="LittleEndian">
  <UnstructuredGrid>
    <Piece NumberOfCells="30" NumberOfPoints="62">
      <CellData Scalars="Sg">
        <DataArray type="Float32" Name="Sg" NumberOfComponents="1" format="ascii">
          0 0 0 0 0 0 0 0 0 0 0 0
          0 0 0 0 0 0 0 0 0 0 0 0
          0 0 0 0 0 0
        </DataArray>
        <DataArray type="Float32" Name="Sl" NumberOfComponents="1" format="ascii">
          1 1 1 1 1 1 1 1 1 1 1 1
          1 1 1 1 1 1 1 1 1 1 1 1
          1 1 1 1 1 1
        </DataArray>
        <DataArray type="Float32" Name="pg" NumberOfComponents="1" format="ascii">
          24687.8 24360.9 24034 23707 23380.1 23053.1 22726.2 22399.3 22072.3 21745.4 21418.4 21091.5
          20764.6 20437.6 20110.7 19783.7 19456.8 19129.8 18802.9 18476 18149 17822.1 17495.1 17168.2
          16841.3 16514.3 16187.4 15860.4 15533.5 15208.6
        </DataArray>
        <DataArray type="Float32" Name="pl" NumberOfComponents="1" format="ascii">
          110628 110301 109974 109647 109320 108993 108666 108339 108012 107685 107358 107031
          106704 106377 106050 105723 105396 105070 104743 104416 104089 103762 103435 103108
          102781 102454 102127 101800 101473 101148
        </DataArray>
        <DataArray type="Float32" Name="pc" NumberOfComponents="1" format="ascii">
          -85939.7 -85939.7 -85939.7 -85939.7 -85939.7 -85939.7 -85939.7 -85939.7 -85939.7 -85939.7 -85939.7 -85939.7
          -85939.7 -85939.7 -85939.7 -85939.7 -85939.7 -85939.7 -85939.7 -85939.7 -85939.7 -85939.7 -85939.7 -85939.7
          -85939.7 -85939.7 -85939.7 -85939.7 -85939.7 -85939.7
        </DataArray>
        <DataArray type="Float32" Name="rhoL" NumberOfComponents="1" format="ascii">
          999.855 999.855 999.855 999.855 999.855 999.854 999.854 999.854 999.854 999.854 999.854 999.854
          999.853 999.853 999.853 999.853 999.853 999.853 999.852 999.852 999.852 999.852 999.852 999.852
          999.852 999.851 999.851 999.851 999.851 999.851
        </DataArray>
        <DataArray type="Float32" Name="rhoG" NumberOfComponents="1" format="ascii">
          0.30585 0.3018 0.29775 0.293699 0.289649 0.285598 0.281548 0.277498 0.273447 0.269397 0.265347 0.261296
          0.257246 0.253195 0.249145 0.245095 0.241044 0.236994 0.232944 0.228893 0.224843 0.220793 0.216742 0.212692
          0.208641 0.204591 0.200541 0.19649 0.19244 0.188415
        </DataArray>
        <DataArray type="Float32" Name="mobL" NumberOfComponents="1" format="ascii">
          722.171 722.17 722.17 722.17 722.17 722.17 722.169 722.169 722.169 722.169 722.169 722.169
          722.168 722.168 722.168 722.168 722.168 722.167 722.167 722.167 722.167 722.167 722.166 722.166
          722.166 722.166 722.166 722.166 722.165 722.165
        </DataArray>
        <DataArray type="Float32" Name="mobG" NumberOfComponents="1" format="ascii">
          0 0 0 0 0 0 0 0 0 0 0 0
          0 0 0 0 0 0 0 0 0 0 0 0
          0 0 0 0 0 0
        </DataArray>
        <DataArray type="Float32" Name="porosity" NumberOfComponents="1" format="ascii">
          0.298891 0.298891 0.29889 0.29889 0.29889 0.29889 0.298889 0.298888 0.298887 0.298885 0.298883 0.29888
          0.298876 0.298871 0.298863 0.298853 0.298839 0.29882 0.298794 0.298758 0.298709 0.29864 0.298541 0.298393
          0.297888 0.297482 0.296666 0.294502 0.283802 0.0513309
        </DataArray>
        <DataArray type="Float32" Name="temperature" NumberOfComponents="1" format="ascii">
          281.15 281.15 281.15 281.15 281.15 281.15 281.15 281.15 281.15 281.15 281.15 281.15
          281.15 281.15 281.15 281.15 281.15 281.15 281.15 281.15 281.15 281.15 281.15 281.15
          281.15 281.15 281.15 281.15 281.15 281.15
        </DataArray>
        <DataArray type="Float32" Name="phase presence" NumberOfComponents="1" format="ascii">
          1 1 1 1 1 1 1 1 1 1 1 1
          1 1 1 1 1 1 1 1 1 1 1 1
          1 1 1 1 1 1
        </DataArray>
        <DataArray type="Float32" Name="precipitateVolumeFraction_au" NumberOfComponents="1" format="ascii">
          5.52906e-10 5.52813e-10 5.52768e-10 5.5274e-10 5.52709e-10 5.52703e-10 5.52718e-10 5.52743e-10 5.52748e-10 5.52799e-10 5.52774e-10 5.52757e-10
          5.52733e-10 5.52754e-10 5.527e-10 5.52743e-10 5.52763e-10 5.52781e-10 5.52755e-10 5.52747e-10 5.52678e-10 5.52775e-10 5.52991e-10 1.24033e-09
          0.000269941 0.000269925 0.0002699 0.000269851 5.52186e-10 5.5116e-10
        </DataArray>
        <DataArray type="Float32" Name="precipitateVolumeFraction_nanoAu" NumberOfComponents="1" format="ascii">
          1.23686e-13 1.23665e-13 1.23655e-13 1.23648e-13 1.23641e-13 1.2364e-13 1.23643e-13 1.23649e-13 1.2365e-13 1.23661e-13 1.23655e-13 1.23651e-13
          1.23645e-13 1.23649e-13 1.23636e-13 1.23645e-13 1.23648e-13 1.23649e-13 1.2364e-13 1.23634e-13 1.23613e-13 1.23643e-13 1.35575e-13 2.58268e-11
          6.03619e-08 7.66837e-08 1.02147e-07 1.45572e-07 4.74188e-13 4.67304e-13
        </DataArray>
        <DataArray type="Float32" Name="precipitateVolumeFraction_d" NumberOfComponents="1" format="ascii">
          0.000554645 0.000554697 0.00055477 0.000554874 0.00055502 0.000555225 0.000555512 0.000555914 0.000556474 0.000557252 0.000558329 0.000559813
          0.000561851 0.000564638 0.000568439 0.000573606 0.000580622 0.000590148 0.000603114 0.000620858 0.000645383 0.000679832 0.000729431 0.000803573
          0.000920909 0.00112411 0.00153203 0.00261397 0.00809887 0.124335
        </DataArray>
        <DataArray type="Float32" Name="precipitateVolumeFraction_p" NumberOfComponents="1" format="ascii">
          0.000554645 0.000554697 0.00055477 0.000554874 0.00055502 0.000555225 0.000555512 0.000555914 0.000556474 0.000557252 0.000558329 0.000559813
          0.000561851 0.000564638 0.000568439 0.000573606 0.000580622 0.000590148 0.000603114 0.000620858 0.000645383 0.000679832 0.000729431 0.000803573
          0.000920909 0.00112411 0.00153203 0.00261397 0.00809887 0.124335
        </DataArray>
        <DataArray type="Float32" Name="K" NumberOfComponents="1" format="ascii">
          9.85821e-11 9.8582e-11 9.85818e-11 9.85815e-11 9.85812e-11 9.85806e-11 9.85799e-11 9.85789e-11 9.85775e-11 9.85755e-11 9.85727e-11 9.8569e-11
          9.85638e-11 9.85567e-11 9.85471e-11 9.85339e-11 9.85161e-11 9.84919e-11 9.8459e-11 9.8414e-11 9.83517e-11 9.82644e-11 9.81387e-11 9.79512e-11
          9.7315e-11 9.68051e-11 9.57882e-11 9.31335e-11 8.08749e-11 2.72733e-13
        </DataArray>
        <DataArray type="Float32" Name="X^w_H2O" NumberOfComponents="1" format="ascii">
          0.999853 0.999853 0.999853 0.999853 0.999853 0.999853 0.999853 0.999853 0.999853 0.999853 0.999853 0.999853
          0.999853 0.999853 0.999853 0.999853 0.999853 0.999853 0.999853 0.999853 0.999853 0.999853 0.999853 0.999853
          0.999853 0.999852 0.99985 0.999846 0.999839 0.99984
        </DataArray>
        <DataArray type="Float32" Name="X^w_Air" NumberOfComponents="1" format="ascii">
          0 0 0 0 0 0 0 0 0 0 0 0
          0 0 0 0 0 0 0 0 0 0 0 0
          0 0 0 0 0 0
        </DataArray>
        <DataArray type="Float32" Name="X^w_AuComplex" NumberOfComponents="1" format="ascii">
          1.4112e-16 1.41096e-16 1.41085e-16 1.41077e-16 1.4107e-16 1.41068e-16 1.41072e-16 1.41078e-16 1.41079e-16 1.41092e-16 1.41085e-16 1.41079e-16
          1.41072e-16 1.41076e-16 1.41061e-16 1.41069e-16 1.41071e-16 1.41071e-16 1.41058e-16 1.41047e-16 1.41017e-16 1.4104e-16 1.54448e-16 2.94387e-14
          6.88335e-11 1.07369e-10 1.84405e-10 3.6403e-10 1.83581e-15 1.78904e-15
        </DataArray>
        <DataArray type="Float32" Name="X^w_nanoAu" NumberOfComponents="1" format="ascii">
          5.38693e-19 5.38602e-19 5.38559e-19 5.38531e-19 5.38501e-19 5.38495e-19 5.38509e-19 5.38533e-19 5.38538e-19 5.38586e-19 5.3856e-19 5.3854e-19
          5.38515e-19 5.38531e-19 5.38475e-19 5.3851e-19 5.3852e-19 5.38525e-19 5.38483e-19 5.38491e-19 5.42078e-19 8.83534e-19 3.25044e-17 2.95704e-15
          2.63626e-13 3.35104e-13 4.46635e-13 6.26598e-13 2.05961e-18 1.98585e-18
        </DataArray>
        <DataArray type="Float32" Name="X^w_cyanide" NumberOfComponents="1" format="ascii">
          5.07038e-06 5.07038e-06 5.07038e-06 5.07038e-06 5.07038e-06 5.07038e-06 5.07038e-06 5.07037e-06 5.07037e-06 5.07036e-06 5.07035e-06 5.07034e-06
          5.07032e-06 5.07029e-06 5.07026e-06 5.07021e-06 5.07014e-06 5.07005e-06 5.06992e-06 5.06975e-06 5.0695e-06 5.06915e-06 5.06864e-06 5.06788e-06
          5.06717e-06 6.43683e-06 8.57261e-06 1.22386e-05 1.94654e-05 1.9245e-05
        </DataArray>
        <DataArray type="Float32" Name="X^w_citrate" NumberOfComponents="1" format="ascii">
          0.000141796 0.000141796 0.000141796 0.000141796 0.000141796 0.000141796 0.000141796 0.000141796 0.000141796 0.000141796 0.000141796 0.000141796
          0.000141795 0.000141795 0.000141795 0.000141795 0.000141794 0.000141793 0.000141792 0.000141791 0.000141789 0.000141787 0.000141783 0.000141778
          0.000141769 0.000141755 0.000141728 0.000141667 0.000141464 0.000139862
        </DataArray>
        <DataArray type="Float32" Name="X^w_substrate" NumberOfComponents="1" format="ascii">
          1.46051e-11 1.94119e-11 2.57992e-11 3.42864e-11 4.55639e-11 6.05499e-11 8.04654e-11 1.06936e-10 1.42128e-10 1.88934e-10 2.51219e-10 3.34168e-10
          4.44762e-10 5.92441e-10 7.90061e-10 1.05528e-09 1.41262e-09 1.89663e-09 2.55689e-09 3.46621e-09 4.73466e-09 6.53502e-09 9.15153e-09 1.30813e-08
          1.92671e-08 2.9704e-08 4.93372e-08 9.37624e-08 2.37737e-07 1.36722e-06
        </DataArray>
        <DataArray type="Float32" Name="m^w_H2O" NumberOfComponents="1" format="ascii">
          55492.6 55492.6 55492.5 55492.5 55492.5 55492.5 55492.5 55492.5 55492.5 55492.5 55492.5 55492.5
          55492.5 55492.4 55492.4 55492.4 55492.4 55492.4 55492.4 55492.4 55492.4 55492.4 55492.4 55492.4
          55492.3 55492.3 55492.1 55491.9 55491.5 55491.5
        </DataArray>
        <DataArray type="Float32" Name="m^w_Air" NumberOfComponents="1" format="ascii">
          0 0 0 0 0 0 0 0 0 0 0 0
          0 0 0 0 0 0 0 0 0 0 0 0
          0 0 0 0 0 0
        </DataArray>
        <DataArray type="Float32" Name="m^w_AuComplex" NumberOfComponents="1" format="ascii">
          7.1635e-13 7.16229e-13 7.16171e-13 7.16134e-13 7.16094e-13 7.16087e-13 7.16105e-13 7.16137e-13 7.16141e-13 7.16206e-13 7.1617e-13 7.16144e-13
          7.16107e-13 7.16128e-13 7.16049e-13 7.16092e-13 7.161e-13 7.16099e-13 7.16032e-13 7.15977e-13 7.15823e-13 7.15943e-13 7.84002e-13 1.49436e-10
          3.4941e-07 5.45024e-07 9.3607e-07 1.84787e-06 9.31889e-12 9.08147e-12
        </DataArray>
        <DataArray type="Float32" Name="m^w_nanoAu" NumberOfComponents="1" format="ascii">
          2.7345e-15 2.73404e-15 2.73382e-15 2.73368e-15 2.73353e-15 2.7335e-15 2.73357e-15 2.73369e-15 2.73371e-15 2.73395e-15 2.73382e-15 2.73372e-15
          2.73359e-15 2.73368e-15 2.73339e-15 2.73357e-15 2.73362e-15 2.73364e-15 2.73343e-15 2.73347e-15 2.75168e-15 4.48497e-15 1.64998e-13 1.50104e-11
          1.33821e-09 1.70104e-09 2.26719e-09 3.18071e-09 1.04549e-14 1.00805e-14
        </DataArray>
        <DataArray type="Float32" Name="m^w_cyanide" NumberOfComponents="1" format="ascii">
          0.194836 0.194836 0.194836 0.194836 0.194836 0.194836 0.194836 0.194836 0.194836 0.194836 0.194835 0.194835
          0.194834 0.194833 0.194831 0.194829 0.194827 0.194823 0.194818 0.194812 0.194802 0.194789 0.194769 0.19474
          0.194712 0.247343 0.329413 0.470283 0.747982 0.739514
        </DataArray>
        <DataArray type="Float32" Name="m^w_citrate" NumberOfComponents="1" format="ascii">
          0.749742 0.749742 0.749742 0.749742 0.749742 0.749741 0.749741 0.749741 0.74974 0.74974 0.749739 0.749739
          0.749738 0.749736 0.749735 0.749733 0.74973 0.749726 0.749721 0.749714 0.749704 0.749691 0.749671 0.749642
          0.749595 0.749522 0.749381 0.749055 0.747985 0.739515
        </DataArray>
        <DataArray type="Float32" Name="m^w_substrate" NumberOfComponents="1" format="ascii">
          8.10559e-08 1.07733e-07 1.43181e-07 1.90283e-07 2.52871e-07 3.36041e-07 4.46568e-07 5.93475e-07 7.88786e-07 1.04855e-06 1.39422e-06 1.85457e-06
          2.46834e-06 3.28793e-06 4.38469e-06 5.8566e-06 7.83976e-06 1.05259e-05 1.41903e-05 1.92368e-05 2.62764e-05 3.62681e-05 5.07892e-05 7.25988e-05
          0.000106929 0.000164851 0.000273811 0.000520362 0.00131939 0.0075878
        </DataArray>
        <DataArray type="Float32" Name="process rank" NumberOfComponents="1" format="ascii">
          0 0 0 0 0 0 0 0 0 0 0 0
          0 0 0 0 0 0 0 0 0 0 0 0
          0 0 0 0 0 0
        </DataArray>
      </CellData>
      <Points>
        <DataArray type="Float32" Name="Coordinates" NumberOfComponents="3" format="ascii">
          0 0 0 0.5 0 0 0 0.0333333 0 0.5 0.0333333 0
          0 0.0666667 0 0.5 0.0666667 0 0 0.1 0 0.5 0.1 0
          0 0.133333 0 0.5 0.133333 0 0 0.166667 0 0.5 0.166667 0
          0 0.2 0 0.5 0.2 0 0 0.233333 0 0.5 0.233333 0
          0 0.266667 0 0.5 0.266667 0 0 0.3 0 0.5 0.3 0
          0 0.333333 0 0.5 0.333333 0 0 0.366667 0 0.5 0.366667 0
          0 0.4 0 0.5 0.4 0 0 0.433333 0 0.5 0.433333 0
          0 0.466667 0 0.5 0.466667 0 0 0.5 0 0.5 0.5 0
          0 0.533333 0 0.5 0.533333 0 0 0.566667 0 0.5 0.566667 0
          0 0.6 0 0.5 0.6 0 0 0.633333 0 0.5 0.633333 0
          0 0.666667 0 0.5 0.666667 0 0 0.7 0 0.5 0.7 0
          0 0.733333 0 0.5 0.733333 0 0 0.766667 0 0.5 0.766667 0
          0 0.8 0 0.5 0.8 0 0 0.833333 0 0.5 0.833333 0
          0 0.866667 0 0.5 0.866667 0 0 0.9 0 0.5 0.9 0
          0 0.933333 0 0.5 0.933333 0 0 0.966667 0 0.5 0.966667 0
          0 1 0 0.5 1 0
        </DataArray>
      </Points>
      <Cells>
        <DataArray type="Int32" Name="connectivity" NumberOfComponents="1" format="ascii">
          0 1 3 2 2 3 5 4 4 5 7 6
          6 7 9 8 8 9 11 10 10 11 13 12
          12 13 15 14 14 15 17 16 16 17 19 18
          18 19 21 20 20 21 23 22 22 23 25 24
          24 25 27 26 26 27 29 28 28 29 31 30
          30 31 33 32 32 33 35 34 34 35 37 36
          36 37 39 38 38 39 41 40 40 41 43 42
          42 43 45 44 44 45 47 46 46 47 49 48
          48 49 51 50 50 51 53 52 52 53 55 54
          54 55 57 56 56 57 59 58 58 59 61 60
        </DataArray>
        <DataArray type="Int32" Name="offsets" NumberOfComponents="1" format="ascii">
          4 8 12 16 20 24 28 32 36 40 44 48
          52 56 60 64 68 72 76 80 84 88 92 96
          100 104 108 112 116 120
        </DataArray>
        <DataArray type="UInt8" Name="types" NumberOfComponents="1" format="ascii">
          9 9 9 9 9 9 9 9 9 9 9 9
          9 9 9 9 9 9 9 9 9 9 9 9
          9 9 9 9 9 9
        </DataArray>
      </Cells>
    </Piece>
  </UnstructuredGrid>
</VTKFile>
