<?xml version="1.0"?>
<VTKFile type="UnstructuredGrid" version="0.1" byte_order="LittleEndian">
  <UnstructuredGrid>
    <Piece NumberOfCells="30" NumberOfPoints="62">
      <CellData Scalars="Sg">
        <DataArray type="Float32" Name="Sg" NumberOfComponents="1" format="ascii">
          0 0 0 0 0 0 0 0 0 0 0 0
          0 0 0 0 0 0 0 0 0 0 0 0
          0 0 0 0 0 0
        </DataArray>
        <DataArray type="Float32" Name="Sl" NumberOfComponents="1" format="ascii">
          1 1 1 1 1 1 1 1 1 1 1 1
          1 1 1 1 1 1 1 1 1 1 1 1
          1 1 1 1 1 1
        </DataArray>
        <DataArray type="Float32" Name="pg" NumberOfComponents="1" format="ascii">
          24687.8 24360.9 24034 23707 23380.1 23053.1 22726.2 22399.3 22072.3 21745.4 21418.4 21091.5
          20764.6 20437.6 20110.7 19783.7 19456.8 19129.8 18802.9 18476 18149 17822.1 17495.1 17168.2
          16841.3 16514.3 16187.4 15860.4 15533.5 15208.6
        </DataArray>
        <DataArray type="Float32" Name="pl" NumberOfComponents="1" format="ascii">
          110628 110301 109974 109647 109320 108993 108666 108339 108012 107685 107358 107031
          106704 106377 106050 105723 105396 105070 104743 104416 104089 103762 103435 103108
          102781 102454 102127 101800 101473 101148
        </DataArray>
        <DataArray type="Float32" Name="pc" NumberOfComponents="1" format="ascii">
          -85939.7 -85939.7 -85939.7 -85939.7 -85939.7 -85939.7 -85939.7 -85939.7 -85939.7 -85939.7 -85939.7 -85939.7
          -85939.7 -85939.7 -85939.7 -85939.7 -85939.7 -85939.7 -85939.7 -85939.7 -85939.7 -85939.7 -85939.7 -85939.7
          -85939.7 -85939.7 -85939.7 -85939.7 -85939.7 -85939.7
        </DataArray>
        <DataArray type="Float32" Name="rhoL" NumberOfComponents="1" format="ascii">
          999.855 999.855 999.855 999.855 999.855 999.854 999.854 999.854 999.854 999.854 999.854 999.854
          999.853 999.853 999.853 999.853 999.853 999.853 999.852 999.852 999.852 999.852 999.852 999.852
          999.852 999.851 999.851 999.851 999.851 999.851
        </DataArray>
        <DataArray type="Float32" Name="rhoG" NumberOfComponents="1" format="ascii">
          0.30585 0.3018 0.29775 0.293699 0.289649 0.285598 0.281548 0.277498 0.273447 0.269397 0.265347 0.261296
          0.257246 0.253195 0.249145 0.245095 0.241044 0.236994 0.232944 0.228893 0.224843 0.220793 0.216742 0.212692
          0.208641 0.204591 0.200541 0.19649 0.19244 0.188415
        </DataArray>
        <DataArray type="Float32" Name="mobL" NumberOfComponents="1" format="ascii">
          722.171 722.17 722.17 722.17 722.17 722.17 722.169 722.169 722.169 722.169 722.169 722.169
          722.168 722.168 722.168 722.168 722.168 722.167 722.167 722.167 722.167 722.167 722.166 722.166
          722.166 722.166 722.166 722.166 722.165 722.165
        </DataArray>
        <DataArray type="Float32" Name="mobG" NumberOfComponents="1" format="ascii">
          0 0 0 0 0 0 0 0 0 0 0 0
          0 0 0 0 0 0 0 0 0 0 0 0
          0 0 0 0 0 0
        </DataArray>
        <DataArray type="Float32" Name="porosity" NumberOfComponents="1" format="ascii">
          0.298911 0.298911 0.29891 0.29891 0.29891 0.29891 0.298909 0.298908 0.298907 0.298906 0.298903 0.298901
          0.298897 0.298891 0.298884 0.298873 0.29886 0.298841 0.298815 0.29878 0.298732 0.298664 0.298566 0.298419
          0.297917 0.297513 0.296701 0.294531 0.283648 0.0511493
        </DataArray>
        <DataArray type="Float32" Name="temperature" NumberOfComponents="1" format="ascii">
          281.15 281.15 281.15 281.15 281.15 281.15 281.15 281.15 281.15 281.15 281.15 281.15
          281.15 281.15 281.15 281.15 281.15 281.15 281.15 281.15 281.15 281.15 281.15 281.15
          281.15 281.15 281.15 281.15 281.15 281.15
        </DataArray>
        <DataArray type="Float32" Name="phase presence" NumberOfComponents="1" format="ascii">
          1 1 1 1 1 1 1 1 1 1 1 1
          1 1 1 1 1 1 1 1 1 1 1 1
          1 1 1 1 1 1
        </DataArray>
        <DataArray type="Float32" Name="precipitateVolumeFraction_au" NumberOfComponents="1" format="ascii">
          5.52906e-10 5.52813e-10 5.52768e-10 5.5274e-10 5.52709e-10 5.52703e-10 5.52718e-10 5.52743e-10 5.52748e-10 5.52799e-10 5.52774e-10 5.52757e-10
          5.52733e-10 5.52754e-10 5.527e-10 5.52743e-10 5.52763e-10 5.52781e-10 5.52755e-10 5.52747e-10 5.52678e-10 5.52775e-10 5.53012e-10 1.28448e-09
          0.000269941 0.000269925 0.0002699 0.000269851 5.52186e-10 5.51159e-10
        </DataArray>
        <DataArray type="Float32" Name="precipitateVolumeFraction_nanoAu" NumberOfComponents="1" format="ascii">
          1.23685e-13 1.23664e-13 1.23654e-13 1.23648e-13 1.23641e-13 1.23639e-13 1.23643e-13 1.23648e-13 1.23649e-13 1.2366e-13 1.23654e-13 1.2365e-13
          1.23644e-13 1.23648e-13 1.23636e-13 1.23644e-13 1.23647e-13 1.23648e-13 1.23639e-13 1.23633e-13 1.23612e-13 1.23641e-13 1.35582e-13 2.58359e-11
          6.03612e-08 7.66829e-08 1.02146e-07 1.45572e-07 4.74198e-13 4.6731e-13
        </DataArray>
        <DataArray type="Float32" Name="precipitateVolumeFraction_d" NumberOfComponents="1" format="ascii">
          0.000544627 0.000544679 0.000544752 0.000544854 0.000544998 0.000545201 0.000545485 0.000545881 0.000546434 0.000547202 0.000548265 0.000549729
          0.000551739 0.000554488 0.000558236 0.000563332 0.000570251 0.000579647 0.000592437 0.000609945 0.000634153 0.000668172 0.000717185 0.000790519
          0.000906734 0.00110842 0.00151468 0.00259926 0.00817582 0.124425
        </DataArray>
        <DataArray type="Float32" Name="precipitateVolumeFraction_p" NumberOfComponents="1" format="ascii">
          0.000544627 0.000544679 0.000544752 0.000544854 0.000544998 0.000545201 0.000545485 0.000545881 0.000546434 0.000547202 0.000548265 0.000549729
          0.000551739 0.000554488 0.000558236 0.000563332 0.000570251 0.000579647 0.000592437 0.000609945 0.000634153 0.000668172 0.000717185 0.000790519
          0.000906734 0.00110842 0.00151468 0.00259926 0.00817582 0.124425
        </DataArray>
        <DataArray type="Float32" Name="K" NumberOfComponents="1" format="ascii">
          9.86076e-11 9.86074e-11 9.86073e-11 9.8607e-11 9.86066e-11 9.86061e-11 9.86054e-11 9.86044e-11 9.8603e-11 9.8601e-11 9.85983e-11 9.85946e-11
          9.85895e-11 9.85825e-11 9.8573e-11 9.856e-11 9.85425e-11 9.85186e-11 9.84861e-11 9.84417e-11 9.83802e-11 9.82939e-11 9.81697e-11 9.79842e-11
          9.73506e-11 9.68444e-11 9.58313e-11 9.31692e-11 8.07087e-11 2.69747e-13
        </DataArray>
        <DataArray type="Float32" Name="X^w_H2O" NumberOfComponents="1" format="ascii">
          0.999853 0.999853 0.999853 0.999853 0.999853 0.999853 0.999853 0.999853 0.999853 0.999853 0.999853 0.999853
          0.999853 0.999853 0.999853 0.999853 0.999853 0.999853 0.999853 0.999853 0.999853 0.999853 0.999853 0.999853
          0.999853 0.999852 0.99985 0.999846 0.999839 0.99984
        </DataArray>
        <DataArray type="Float32" Name="X^w_Air" NumberOfComponents="1" format="ascii">
          0 0 0 0 0 0 0 0 0 0 0 0
          0 0 0 0 0 0 0 0 0 0 0 0
          0 0 0 0 0 0
        </DataArray>
        <DataArray type="Float32" Name="X^w_AuComplex" NumberOfComponents="1" format="ascii">
          1.41119e-16 1.41095e-16 1.41083e-16 1.41076e-16 1.41068e-16 1.41067e-16 1.41071e-16 1.41077e-16 1.41078e-16 1.4109e-16 1.41084e-16 1.41078e-16
          1.41071e-16 1.41075e-16 1.4106e-16 1.41068e-16 1.41069e-16 1.41069e-16 1.41056e-16 1.41045e-16 1.41014e-16 1.41038e-16 1.54454e-16 2.94488e-14
          6.88321e-11 1.07367e-10 1.84403e-10 3.64031e-10 1.83589e-15 1.78908e-15
        </DataArray>
        <DataArray type="Float32" Name="X^w_nanoAu" NumberOfComponents="1" format="ascii">
          5.38689e-19 5.38599e-19 5.38555e-19 5.38528e-19 5.38497e-19 5.38492e-19 5.38506e-19 5.3853e-19 5.38534e-19 5.38582e-19 5.38556e-19 5.38537e-19
          5.38511e-19 5.38527e-19 5.38471e-19 5.38506e-19 5.38516e-19 5.3852e-19 5.38478e-19 5.38486e-19 5.42072e-19 8.83521e-19 3.2504e-17 2.95701e-15
          2.63623e-13 3.351e-13 4.46632e-13 6.26602e-13 2.0597e-18 1.98589e-18
        </DataArray>
        <DataArray type="Float32" Name="X^w_cyanide" NumberOfComponents="1" format="ascii">
          5.07036e-06 5.07036e-06 5.07036e-06 5.07036e-06 5.07036e-06 5.07036e-06 5.07036e-06 5.07036e-06 5.07035e-06 5.07035e-06 5.07033e-06 5.07032e-06
          5.0703e-06 5.07027e-06 5.07023e-06 5.07018e-06 5.07011e-06 5.07002e-06 5.06989e-06 5.06971e-06 5.06946e-06 5.06911e-06 5.0686e-06 5.06783e-06
          5.06712e-06 6.43677e-06 8.57255e-06 1.22386e-05 1.94658e-05 1.92452e-05
        </DataArray>
        <DataArray type="Float32" Name="X^w_citrate" NumberOfComponents="1" format="ascii">
          0.000141796 0.000141796 0.000141796 0.000141796 0.000141796 0.000141796 0.000141796 0.000141796 0.000141796 0.000141796 0.000141796 0.000141796
          0.000141795 0.000141795 0.000141795 0.000141794 0.000141794 0.000141793 0.000141792 0.000141791 0.000141789 0.000141787 0.000141783 0.000141777
          0.000141768 0.000141755 0.000141728 0.000141667 0.000141467 0.000139864
        </DataArray>
        <DataArray type="Float32" Name="X^w_substrate" NumberOfComponents="1" format="ascii">
          1.64852e-11 2.18133e-11 2.88617e-11 3.81858e-11 5.05204e-11 6.6838e-11 8.84267e-11 1.16994e-10 1.54805e-10 2.04869e-10 2.71195e-10 3.59134e-10
          4.75858e-10 6.31031e-10 8.37756e-10 1.11396e-09 1.48444e-09 1.98401e-09 2.66245e-09 3.5926e-09 4.88428e-09 6.70932e-09 9.34968e-09 1.32974e-08
          1.94834e-08 2.98754e-08 4.93467e-08 9.32785e-08 2.35707e-07 1.36622e-06
        </DataArray>
        <DataArray type="Float32" Name="m^w_H2O" NumberOfComponents="1" format="ascii">
          55492.6 55492.6 55492.5 55492.5 55492.5 55492.5 55492.5 55492.5 55492.5 55492.5 55492.5 55492.5
          55492.5 55492.4 55492.4 55492.4 55492.4 55492.4 55492.4 55492.4 55492.4 55492.4 55492.4 55492.4
          55492.3 55492.3 55492.1 55491.9 55491.5 55491.5
        </DataArray>
        <DataArray type="Float32" Name="m^w_Air" NumberOfComponents="1" format="ascii">
          0 0 0 0 0 0 0 0 0 0 0 0
          0 0 0 0 0 0 0 0 0 0 0 0
          0 0 0 0 0 0
        </DataArray>
        <DataArray type="Float32" Name="m^w_AuComplex" NumberOfComponents="1" format="ascii">
          7.16344e-13 7.16223e-13 7.16165e-13 7.16128e-13 7.16088e-13 7.16081e-13 7.16099e-13 7.16131e-13 7.16135e-13 7.162e-13 7.16164e-13 7.16137e-13
          7.16101e-13 7.16121e-13 7.16042e-13 7.16084e-13 7.16092e-13 7.1609e-13 7.16022e-13 7.15966e-13 7.15812e-13 7.1593e-13 7.84034e-13 1.49487e-10
          3.49403e-07 5.45014e-07 9.36058e-07 1.84788e-06 9.31926e-12 9.08166e-12
        </DataArray>
        <DataArray type="Float32" Name="m^w_nanoAu" NumberOfComponents="1" format="ascii">
          2.73448e-15 2.73402e-15 2.7338e-15 2.73366e-15 2.73351e-15 2.73348e-15 2.73355e-15 2.73367e-15 2.73369e-15 2.73394e-15 2.73381e-15 2.73371e-15
          2.73358e-15 2.73366e-15 2.73337e-15 2.73355e-15 2.7336e-15 2.73362e-15 2.7334e-15 2.73344e-15 2.75165e-15 4.4849e-15 1.64996e-13 1.50103e-11
          1.33819e-09 1.70102e-09 2.26718e-09 3.18073e-09 1.04554e-14 1.00807e-14
        </DataArray>
        <DataArray type="Float32" Name="m^w_cyanide" NumberOfComponents="1" format="ascii">
          0.194836 0.194836 0.194836 0.194836 0.194836 0.194836 0.194836 0.194835 0.194835 0.194835 0.194834 0.194834
          0.194833 0.194832 0.194831 0.194829 0.194826 0.194822 0.194817 0.19481 0.194801 0.194787 0.194767 0.194738
          0.19471 0.247341 0.329411 0.470284 0.747997 0.739521
        </DataArray>
        <DataArray type="Float32" Name="m^w_citrate" NumberOfComponents="1" format="ascii">
          0.749742 0.749742 0.749742 0.749742 0.749741 0.749741 0.749741 0.749741 0.74974 0.74974 0.749739 0.749738
          0.749737 0.749736 0.749734 0.749732 0.749729 0.749725 0.74972 0.749713 0.749703 0.74969 0.74967 0.74964
          0.749593 0.74952 0.749381 0.749059 0.748 0.739523
        </DataArray>
        <DataArray type="Float32" Name="m^w_substrate" NumberOfComponents="1" format="ascii">
          9.14899e-08 1.2106e-07 1.60177e-07 2.11924e-07 2.80379e-07 3.70938e-07 4.90752e-07 6.49294e-07 8.59137e-07 1.13699e-06 1.50508e-06 1.99312e-06
          2.64092e-06 3.5021e-06 4.64938e-06 6.18225e-06 8.23834e-06 1.10109e-05 1.4776e-05 1.99382e-05 2.71068e-05 3.72354e-05 5.18888e-05 7.37977e-05
          0.000108129 0.000165802 0.000273864 0.000517676 0.00130813 0.00758226
        </DataArray>
        <DataArray type="Float32" Name="process rank" NumberOfComponents="1" format="ascii">
          0 0 0 0 0 0 0 0 0 0 0 0
          0 0 0 0 0 0 0 0 0 0 0 0
          0 0 0 0 0 0
        </DataArray>
      </CellData>
      <Points>
        <DataArray type="Float32" Name="Coordinates" NumberOfComponents="3" format="ascii">
          0 0 0 0.5 0 0 0 0.0333333 0 0.5 0.0333333 0
          0 0.0666667 0 0.5 0.0666667 0 0 0.1 0 0.5 0.1 0
          0 0.133333 0 0.5 0.133333 0 0 0.166667 0 0.5 0.166667 0
          0 0.2 0 0.5 0.2 0 0 0.233333 0 0.5 0.233333 0
          0 0.266667 0 0.5 0.266667 0 0 0.3 0 0.5 0.3 0
          0 0.333333 0 0.5 0.333333 0 0 0.366667 0 0.5 0.366667 0
          0 0.4 0 0.5 0.4 0 0 0.433333 0 0.5 0.433333 0
          0 0.466667 0 0.5 0.466667 0 0 0.5 0 0.5 0.5 0
          0 0.533333 0 0.5 0.533333 0 0 0.566667 0 0.5 0.566667 0
          0 0.6 0 0.5 0.6 0 0 0.633333 0 0.5 0.633333 0
          0 0.666667 0 0.5 0.666667 0 0 0.7 0 0.5 0.7 0
          0 0.733333 0 0.5 0.733333 0 0 0.766667 0 0.5 0.766667 0
          0 0.8 0 0.5 0.8 0 0 0.833333 0 0.5 0.833333 0
          0 0.866667 0 0.5 0.866667 0 0 0.9 0 0.5 0.9 0
          0 0.933333 0 0.5 0.933333 0 0 0.966667 0 0.5 0.966667 0
          0 1 0 0.5 1 0
        </DataArray>
      </Points>
      <Cells>
        <DataArray type="Int32" Name="connectivity" NumberOfComponents="1" format="ascii">
          0 1 3 2 2 3 5 4 4 5 7 6
          6 7 9 8 8 9 11 10 10 11 13 12
          12 13 15 14 14 15 17 16 16 17 19 18
          18 19 21 20 20 21 23 22 22 23 25 24
          24 25 27 26 26 27 29 28 28 29 31 30
          30 31 33 32 32 33 35 34 34 35 37 36
          36 37 39 38 38 39 41 40 40 41 43 42
          42 43 45 44 44 45 47 46 46 47 49 48
          48 49 51 50 50 51 53 52 52 53 55 54
          54 55 57 56 56 57 59 58 58 59 61 60
        </DataArray>
        <DataArray type="Int32" Name="offsets" NumberOfComponents="1" format="ascii">
          4 8 12 16 20 24 28 32 36 40 44 48
          52 56 60 64 68 72 76 80 84 88 92 96
          100 104 108 112 116 120
        </DataArray>
        <DataArray type="UInt8" Name="types" NumberOfComponents="1" format="ascii">
          9 9 9 9 9 9 9 9 9 9 9 9
          9 9 9 9 9 9 9 9 9 9 9 9
          9 9 9 9 9 9
        </DataArray>
      </Cells>
    </Piece>
  </UnstructuredGrid>
</VTKFile>
