<?xml version="1.0"?>
<VTKFile type="UnstructuredGrid" version="0.1" byte_order="LittleEndian">
  <UnstructuredGrid>
    <Piece NumberOfCells="30" NumberOfPoints="62">
      <CellData Scalars="Sg">
        <DataArray type="Float32" Name="Sg" NumberOfComponents="1" format="ascii">
          0 0 0 0 0 0 0 0 0 0 0 0
          0 0 0 0 0 0 0 0 0 0 0 0
          0 0 0 0 0 0
        </DataArray>
        <DataArray type="Float32" Name="Sl" NumberOfComponents="1" format="ascii">
          1 1 1 1 1 1 1 1 1 1 1 1
          1 1 1 1 1 1 1 1 1 1 1 1
          1 1 1 1 1 1
        </DataArray>
        <DataArray type="Float32" Name="pg" NumberOfComponents="1" format="ascii">
          24687.8 24360.9 24034 23707 23380.1 23053.1 22726.2 22399.3 22072.3 21745.4 21418.4 21091.5
          20764.6 20437.6 20110.7 19783.7 19456.8 19129.8 18802.9 18476 18149 17822.1 17495.1 17168.2
          16841.3 16514.3 16187.4 15860.4 15533.5 15209.6
        </DataArray>
        <DataArray type="Float32" Name="pl" NumberOfComponents="1" format="ascii">
          110628 110301 109974 109647 109320 108993 108666 108339 108012 107685 107358 107031
          106704 106377 106050 105723 105396 105070 104743 104416 104089 103762 103435 103108
          102781 102454 102127 101800 101473 101149
        </DataArray>
        <DataArray type="Float32" Name="pc" NumberOfComponents="1" format="ascii">
          -85939.7 -85939.7 -85939.7 -85939.7 -85939.7 -85939.7 -85939.7 -85939.7 -85939.7 -85939.7 -85939.7 -85939.7
          -85939.7 -85939.7 -85939.7 -85939.7 -85939.7 -85939.7 -85939.7 -85939.7 -85939.7 -85939.7 -85939.7 -85939.7
          -85939.7 -85939.7 -85939.7 -85939.7 -85939.7 -85939.7
        </DataArray>
        <DataArray type="Float32" Name="rhoL" NumberOfComponents="1" format="ascii">
          999.855 999.855 999.855 999.855 999.855 999.854 999.854 999.854 999.854 999.854 999.854 999.854
          999.853 999.853 999.853 999.853 999.853 999.853 999.852 999.852 999.852 999.852 999.852 999.852
          999.852 999.851 999.851 999.851 999.851 999.851
        </DataArray>
        <DataArray type="Float32" Name="rhoG" NumberOfComponents="1" format="ascii">
          0.30585 0.3018 0.29775 0.293699 0.289649 0.285598 0.281548 0.277498 0.273447 0.269397 0.265347 0.261296
          0.257246 0.253195 0.249145 0.245095 0.241044 0.236994 0.232944 0.228893 0.224843 0.220793 0.216742 0.212692
          0.208641 0.204591 0.200541 0.19649 0.19244 0.188428
        </DataArray>
        <DataArray type="Float32" Name="mobL" NumberOfComponents="1" format="ascii">
          722.171 722.17 722.17 722.17 722.17 722.17 722.169 722.169 722.169 722.169 722.169 722.169
          722.168 722.168 722.168 722.168 722.168 722.167 722.167 722.167 722.167 722.167 722.166 722.166
          722.166 722.166 722.166 722.166 722.165 722.165
        </DataArray>
        <DataArray type="Float32" Name="mobG" NumberOfComponents="1" format="ascii">
          0 0 0 0 0 0 0 0 0 0 0 0
          0 0 0 0 0 0 0 0 0 0 0 0
          0 0 0 0 0 0
        </DataArray>
        <DataArray type="Float32" Name="porosity" NumberOfComponents="1" format="ascii">
          0.298864 0.298864 0.298864 0.298864 0.298864 0.298863 0.298863 0.298862 0.29886 0.298859 0.298856 0.298853
          0.298849 0.298843 0.298835 0.298824 0.298809 0.298789 0.298762 0.298725 0.298674 0.298602 0.298498 0.298344
          0.297829 0.297405 0.29655 0.294267 0.282796 0.0447572
        </DataArray>
        <DataArray type="Float32" Name="temperature" NumberOfComponents="1" format="ascii">
          281.15 281.15 281.15 281.15 281.15 281.15 281.15 281.15 281.15 281.15 281.15 281.15
          281.15 281.15 281.15 281.15 281.15 281.15 281.15 281.15 281.15 281.15 281.15 281.15
          281.15 281.15 281.15 281.15 281.15 281.15
        </DataArray>
        <DataArray type="Float32" Name="phase presence" NumberOfComponents="1" format="ascii">
          1 1 1 1 1 1 1 1 1 1 1 1
          1 1 1 1 1 1 1 1 1 1 1 1
          1 1 1 1 1 1
        </DataArray>
        <DataArray type="Float32" Name="precipitateVolumeFraction_au" NumberOfComponents="1" format="ascii">
          5.52714e-10 5.52764e-10 5.52771e-10 5.52782e-10 5.52784e-10 5.52802e-10 5.52802e-10 5.52809e-10 5.52786e-10 5.52802e-10 5.52767e-10 5.52742e-10
          5.52766e-10 5.52789e-10 5.52814e-10 5.5276e-10 5.52739e-10 5.52775e-10 5.52775e-10 5.52784e-10 5.52765e-10 5.52797e-10 5.53113e-10 1.14725e-09
          0.000269962 0.00026995 0.000269929 0.000269876 5.52198e-10 5.50936e-10
        </DataArray>
        <DataArray type="Float32" Name="precipitateVolumeFraction_nanoAu" NumberOfComponents="1" format="ascii">
          7.96268e-14 7.96341e-14 7.9635e-14 7.96366e-14 7.96368e-14 7.96394e-14 7.96393e-14 7.96403e-14 7.96369e-14 7.96389e-14 7.96336e-14 7.96296e-14
          7.96326e-14 7.96352e-14 7.96379e-14 7.96287e-14 7.9624e-14 7.96268e-14 7.96237e-14 7.96205e-14 7.96117e-14 7.9621e-14 9.10833e-14 2.05881e-11
          3.88675e-08 5.19302e-08 7.45303e-08 1.19223e-07 4.74162e-13 4.66339e-13
        </DataArray>
        <DataArray type="Float32" Name="precipitateVolumeFraction_d" NumberOfComponents="1" format="ascii">
          0.000567753 0.000567811 0.000567893 0.000568008 0.000568168 0.000568394 0.000568709 0.000569147 0.000569756 0.000570599 0.000571761 0.000573356
          0.000575538 0.000578511 0.000582549 0.000588019 0.000595422 0.000605442 0.00061904 0.000637606 0.000663218 0.00069914 0.000750817 0.000828054
          0.000950367 0.00116256 0.00158999 0.00273158 0.00860222 0.127621
        </DataArray>
        <DataArray type="Float32" Name="precipitateVolumeFraction_p" NumberOfComponents="1" format="ascii">
          0.000567753 0.000567811 0.000567893 0.000568008 0.000568168 0.000568394 0.000568709 0.000569147 0.000569756 0.000570599 0.000571761 0.000573356
          0.000575538 0.000578511 0.000582549 0.000588019 0.000595422 0.000605442 0.00061904 0.000637606 0.000663218 0.00069914 0.000750817 0.000828054
          0.000950367 0.00116256 0.00158999 0.00273158 0.00860222 0.127621
        </DataArray>
        <DataArray type="Float32" Name="K" NumberOfComponents="1" format="ascii">
          9.85488e-11 9.85487e-11 9.85484e-11 9.85482e-11 9.85477e-11 9.85472e-11 9.85464e-11 9.85453e-11 9.85437e-11 9.85416e-11 9.85386e-11 9.85346e-11
          9.8529e-11 9.85215e-11 9.85112e-11 9.84973e-11 9.84785e-11 9.84531e-11 9.84186e-11 9.83715e-11 9.83065e-11 9.82155e-11 9.80846e-11 9.78893e-11
          9.72409e-11 9.67089e-11 9.56444e-11 9.28486e-11 7.97929e-11 1.78317e-13
        </DataArray>
        <DataArray type="Float32" Name="X^w_H2O" NumberOfComponents="1" format="ascii">
          0.999855 0.999855 0.999855 0.999855 0.999855 0.999855 0.999855 0.999855 0.999855 0.999855 0.999855 0.999855
          0.999855 0.999855 0.999855 0.999855 0.999855 0.999855 0.999855 0.999855 0.999855 0.999855 0.999855 0.999855
          0.999855 0.999854 0.999852 0.999848 0.999839 0.99984
        </DataArray>
        <DataArray type="Float32" Name="X^w_Air" NumberOfComponents="1" format="ascii">
          0 0 0 0 0 0 0 0 0 0 0 0
          0 0 0 0 0 0 0 0 0 0 0 0
          0 0 0 0 0 0
        </DataArray>
        <DataArray type="Float32" Name="X^w_AuComplex" NumberOfComponents="1" format="ascii">
          1.12909e-16 1.12919e-16 1.12921e-16 1.12923e-16 1.12923e-16 1.12927e-16 1.12927e-16 1.12928e-16 1.12923e-16 1.12926e-16 1.12918e-16 1.12912e-16
          1.12915e-16 1.12918e-16 1.12921e-16 1.12906e-16 1.12897e-16 1.12898e-16 1.1289e-16 1.1288e-16 1.1286e-16 1.1286e-16 1.28966e-16 2.91625e-14
          5.50642e-11 9.51482e-11 1.90059e-10 4.74931e-10 3.58636e-15 3.48612e-15
        </DataArray>
        <DataArray type="Float32" Name="X^w_nanoAu" NumberOfComponents="1" format="ascii">
          3.46808e-19 3.46839e-19 3.46843e-19 3.4685e-19 3.46851e-19 3.46862e-19 3.46862e-19 3.46866e-19 3.46851e-19 3.46859e-19 3.46836e-19 3.46819e-19
          3.46831e-19 3.46842e-19 3.46852e-19 3.46812e-19 3.4679e-19 3.468e-19 3.46785e-19 3.46793e-19 3.49148e-19 5.7126e-19 2.11443e-17 1.92244e-15
          1.69876e-13 2.27193e-13 3.26487e-13 5.13177e-13 2.05939e-18 1.98111e-18
        </DataArray>
        <DataArray type="Float32" Name="X^w_cyanide" NumberOfComponents="1" format="ascii">
          3.26538e-06 3.26538e-06 3.26538e-06 3.26538e-06 3.26538e-06 3.26538e-06 3.26537e-06 3.26537e-06 3.26537e-06 3.26536e-06 3.26535e-06 3.26533e-06
          3.26531e-06 3.26528e-06 3.26524e-06 3.26519e-06 3.26512e-06 3.26502e-06 3.26489e-06 3.2647e-06 3.26445e-06 3.26409e-06 3.26356e-06 3.26278e-06
          3.26205e-06 4.35729e-06 6.24947e-06 1.00279e-05 1.94647e-05 1.92389e-05
        </DataArray>
        <DataArray type="Float32" Name="X^w_citrate" NumberOfComponents="1" format="ascii">
          0.000141798 0.000141798 0.000141798 0.000141798 0.000141798 0.000141798 0.000141798 0.000141798 0.000141798 0.000141798 0.000141798 0.000141798
          0.000141798 0.000141797 0.000141797 0.000141797 0.000141796 0.000141795 0.000141794 0.000141793 0.000141791 0.000141788 0.000141785 0.000141779
          0.00014177 0.000141756 0.000141728 0.000141665 0.00014146 0.000139818
        </DataArray>
        <DataArray type="Float32" Name="X^w_substrate" NumberOfComponents="1" format="ascii">
          1.74702e-11 2.30763e-11 3.04797e-11 4.02563e-11 5.31671e-11 7.02177e-11 9.27376e-11 1.22486e-10 1.61795e-10 2.13757e-10 2.82484e-10 3.73463e-10
          4.94035e-10 6.54084e-10 8.67002e-10 1.15109e-09 1.53168e-09 2.04427e-09 2.73966e-09 3.69214e-09 5.01373e-09 6.8797e-09 9.57768e-09 1.36097e-08
          1.99257e-08 3.05346e-08 5.04135e-08 9.52825e-08 2.40894e-07 1.3986e-06
        </DataArray>
        <DataArray type="Float32" Name="m^w_H2O" NumberOfComponents="1" format="ascii">
          55492.7 55492.6 55492.6 55492.6 55492.6 55492.6 55492.6 55492.6 55492.6 55492.6 55492.6 55492.6
          55492.6 55492.5 55492.5 55492.5 55492.5 55492.5 55492.5 55492.5 55492.5 55492.5 55492.5 55492.5
          55492.4 55492.4 55492.3 55492 55491.5 55491.6
        </DataArray>
        <DataArray type="Float32" Name="m^w_Air" NumberOfComponents="1" format="ascii">
          0 0 0 0 0 0 0 0 0 0 0 0
          0 0 0 0 0 0 0 0 0 0 0 0
          0 0 0 0 0 0
        </DataArray>
        <DataArray type="Float32" Name="m^w_AuComplex" NumberOfComponents="1" format="ascii">
          5.73147e-13 5.73199e-13 5.73206e-13 5.73218e-13 5.73219e-13 5.73237e-13 5.73236e-13 5.73243e-13 5.73217e-13 5.73231e-13 5.7319e-13 5.7316e-13
          5.73178e-13 5.73192e-13 5.73205e-13 5.73131e-13 5.73086e-13 5.73091e-13 5.73048e-13 5.72996e-13 5.72894e-13 5.72898e-13 6.54652e-13 1.48033e-10
          2.79515e-07 4.82987e-07 9.64769e-07 2.41082e-06 1.82049e-11 1.76961e-11
        </DataArray>
        <DataArray type="Float32" Name="m^w_nanoAu" NumberOfComponents="1" format="ascii">
          1.76046e-15 1.76062e-15 1.76064e-15 1.76067e-15 1.76068e-15 1.76073e-15 1.76073e-15 1.76075e-15 1.76068e-15 1.76072e-15 1.7606e-15 1.76051e-15
          1.76058e-15 1.76063e-15 1.76068e-15 1.76048e-15 1.76037e-15 1.76042e-15 1.76034e-15 1.76038e-15 1.77233e-15 2.89981e-15 1.07332e-13 9.7586e-12
          8.62317e-10 1.15327e-09 1.6573e-09 2.60497e-09 1.04538e-14 1.00564e-14
        </DataArray>
        <DataArray type="Float32" Name="m^w_cyanide" NumberOfComponents="1" format="ascii">
          0.125477 0.125477 0.125477 0.125477 0.125477 0.125477 0.125477 0.125476 0.125476 0.125476 0.125475 0.125475
          0.125474 0.125473 0.125471 0.125469 0.125466 0.125463 0.125458 0.12545 0.125441 0.125427 0.125407 0.125376
          0.125349 0.167435 0.240144 0.385336 0.747955 0.739277
        </DataArray>
        <DataArray type="Float32" Name="m^w_citrate" NumberOfComponents="1" format="ascii">
          0.749754 0.749754 0.749753 0.749753 0.749753 0.749753 0.749752 0.749752 0.749752 0.749751 0.749751 0.74975
          0.749749 0.749747 0.749746 0.749743 0.74974 0.749736 0.749731 0.749724 0.749714 0.7497 0.749679 0.749649
          0.749602 0.749525 0.74938 0.749048 0.747961 0.73928
        </DataArray>
        <DataArray type="Float32" Name="m^w_substrate" NumberOfComponents="1" format="ascii">
          9.69566e-08 1.28069e-07 1.69157e-07 2.23415e-07 2.95068e-07 3.89695e-07 5.14676e-07 6.79777e-07 8.97933e-07 1.18631e-06 1.56773e-06 2.07265e-06
          2.7418e-06 3.63004e-06 4.81169e-06 6.38835e-06 8.50051e-06 1.13453e-05 1.52046e-05 2.04906e-05 2.78252e-05 3.8181e-05 5.31542e-05 7.55309e-05
          0.000110584 0.000169461 0.000279784 0.000528799 0.00133691 0.00776193
        </DataArray>
        <DataArray type="Float32" Name="process rank" NumberOfComponents="1" format="ascii">
          0 0 0 0 0 0 0 0 0 0 0 0
          0 0 0 0 0 0 0 0 0 0 0 0
          0 0 0 0 0 0
        </DataArray>
      </CellData>
      <Points>
        <DataArray type="Float32" Name="Coordinates" NumberOfComponents="3" format="ascii">
          0 0 0 0.5 0 0 0 0.0333333 0 0.5 0.0333333 0
          0 0.0666667 0 0.5 0.0666667 0 0 0.1 0 0.5 0.1 0
          0 0.133333 0 0.5 0.133333 0 0 0.166667 0 0.5 0.166667 0
          0 0.2 0 0.5 0.2 0 0 0.233333 0 0.5 0.233333 0
          0 0.266667 0 0.5 0.266667 0 0 0.3 0 0.5 0.3 0
          0 0.333333 0 0.5 0.333333 0 0 0.366667 0 0.5 0.366667 0
          0 0.4 0 0.5 0.4 0 0 0.433333 0 0.5 0.433333 0
          0 0.466667 0 0.5 0.466667 0 0 0.5 0 0.5 0.5 0
          0 0.533333 0 0.5 0.533333 0 0 0.566667 0 0.5 0.566667 0
          0 0.6 0 0.5 0.6 0 0 0.633333 0 0.5 0.633333 0
          0 0.666667 0 0.5 0.666667 0 0 0.7 0 0.5 0.7 0
          0 0.733333 0 0.5 0.733333 0 0 0.766667 0 0.5 0.766667 0
          0 0.8 0 0.5 0.8 0 0 0.833333 0 0.5 0.833333 0
          0 0.866667 0 0.5 0.866667 0 0 0.9 0 0.5 0.9 0
          0 0.933333 0 0.5 0.933333 0 0 0.966667 0 0.5 0.966667 0
          0 1 0 0.5 1 0
        </DataArray>
      </Points>
      <Cells>
        <DataArray type="Int32" Name="connectivity" NumberOfComponents="1" format="ascii">
          0 1 3 2 2 3 5 4 4 5 7 6
          6 7 9 8 8 9 11 10 10 11 13 12
          12 13 15 14 14 15 17 16 16 17 19 18
          18 19 21 20 20 21 23 22 22 23 25 24
          24 25 27 26 26 27 29 28 28 29 31 30
          30 31 33 32 32 33 35 34 34 35 37 36
          36 37 39 38 38 39 41 40 40 41 43 42
          42 43 45 44 44 45 47 46 46 47 49 48
          48 49 51 50 50 51 53 52 52 53 55 54
          54 55 57 56 56 57 59 58 58 59 61 60
        </DataArray>
        <DataArray type="Int32" Name="offsets" NumberOfComponents="1" format="ascii">
          4 8 12 16 20 24 28 32 36 40 44 48
          52 56 60 64 68 72 76 80 84 88 92 96
          100 104 108 112 116 120
        </DataArray>
        <DataArray type="UInt8" Name="types" NumberOfComponents="1" format="ascii">
          9 9 9 9 9 9 9 9 9 9 9 9
          9 9 9 9 9 9 9 9 9 9 9 9
          9 9 9 9 9 9
        </DataArray>
      </Cells>
    </Piece>
  </UnstructuredGrid>
</VTKFile>
