<?xml version="1.0"?>
<VTKFile type="UnstructuredGrid" version="0.1" byte_order="LittleEndian">
  <UnstructuredGrid>
    <Piece NumberOfCells="30" NumberOfPoints="62">
      <CellData Scalars="Sg">
        <DataArray type="Float32" Name="Sg" NumberOfComponents="1" format="ascii">
          0 0 0 0 0 0 0 0 0 0 0 0
          0 0 0 0 0 0 0 0 0 0 0 0
          0 0 0 0 0 0
        </DataArray>
        <DataArray type="Float32" Name="Sl" NumberOfComponents="1" format="ascii">
          1 1 1 1 1 1 1 1 1 1 1 1
          1 1 1 1 1 1 1 1 1 1 1 1
          1 1 1 1 1 1
        </DataArray>
        <DataArray type="Float32" Name="pg" NumberOfComponents="1" format="ascii">
          24687.8 24360.9 24034 23707 23380.1 23053.1 22726.2 22399.3 22072.3 21745.4 21418.4 21091.5
          20764.6 20437.6 20110.7 19783.7 19456.8 19129.8 18802.9 18476 18149 17822.1 17495.1 17168.2
          16841.3 16514.3 16187.4 15860.4 15533.5 15208
        </DataArray>
        <DataArray type="Float32" Name="pl" NumberOfComponents="1" format="ascii">
          110628 110301 109974 109647 109320 108993 108666 108339 108012 107685 107358 107031
          106704 106377 106050 105723 105396 105070 104743 104416 104089 103762 103435 103108
          102781 102454 102127 101800 101473 101148
        </DataArray>
        <DataArray type="Float32" Name="pc" NumberOfComponents="1" format="ascii">
          -85939.7 -85939.7 -85939.7 -85939.7 -85939.7 -85939.7 -85939.7 -85939.7 -85939.7 -85939.7 -85939.7 -85939.7
          -85939.7 -85939.7 -85939.7 -85939.7 -85939.7 -85939.7 -85939.7 -85939.7 -85939.7 -85939.7 -85939.7 -85939.7
          -85939.7 -85939.7 -85939.7 -85939.7 -85939.7 -85939.7
        </DataArray>
        <DataArray type="Float32" Name="rhoL" NumberOfComponents="1" format="ascii">
          999.855 999.855 999.855 999.855 999.855 999.854 999.854 999.854 999.854 999.854 999.854 999.854
          999.853 999.853 999.853 999.853 999.853 999.853 999.852 999.852 999.852 999.852 999.852 999.852
          999.852 999.851 999.851 999.851 999.851 999.851
        </DataArray>
        <DataArray type="Float32" Name="rhoG" NumberOfComponents="1" format="ascii">
          0.30585 0.3018 0.29775 0.293699 0.289649 0.285598 0.281548 0.277498 0.273447 0.269397 0.265347 0.261296
          0.257246 0.253195 0.249145 0.245095 0.241044 0.236994 0.232944 0.228893 0.224843 0.220793 0.216742 0.212692
          0.208641 0.204591 0.200541 0.19649 0.19244 0.188407
        </DataArray>
        <DataArray type="Float32" Name="mobL" NumberOfComponents="1" format="ascii">
          722.171 722.17 722.17 722.17 722.17 722.17 722.169 722.169 722.169 722.169 722.169 722.169
          722.168 722.168 722.168 722.168 722.168 722.167 722.167 722.167 722.167 722.167 722.166 722.166
          722.166 722.166 722.166 722.166 722.165 722.165
        </DataArray>
        <DataArray type="Float32" Name="mobG" NumberOfComponents="1" format="ascii">
          0 0 0 0 0 0 0 0 0 0 0 0
          0 0 0 0 0 0 0 0 0 0 0 0
          0 0 0 0 0 0
        </DataArray>
        <DataArray type="Float32" Name="porosity" NumberOfComponents="1" format="ascii">
          0.298673 0.298673 0.298673 0.298672 0.298672 0.298672 0.298671 0.29867 0.298668 0.298667 0.298664 0.29866
          0.298655 0.298649 0.298639 0.298627 0.29861 0.298588 0.298557 0.298515 0.298458 0.298377 0.298263 0.298093
          0.297558 0.297107 0.296229 0.294029 0.284498 0.0575298
        </DataArray>
        <DataArray type="Float32" Name="temperature" NumberOfComponents="1" format="ascii">
          281.15 281.15 281.15 281.15 281.15 281.15 281.15 281.15 281.15 281.15 281.15 281.15
          281.15 281.15 281.15 281.15 281.15 281.15 281.15 281.15 281.15 281.15 281.15 281.15
          281.15 281.15 281.15 281.15 281.15 281.15
        </DataArray>
        <DataArray type="Float32" Name="phase presence" NumberOfComponents="1" format="ascii">
          1 1 1 1 1 1 1 1 1 1 1 1
          1 1 1 1 1 1 1 1 1 1 1 1
          1 1 1 1 1 1
        </DataArray>
        <DataArray type="Float32" Name="precipitateVolumeFraction_au" NumberOfComponents="1" format="ascii">
          5.52713e-10 5.52764e-10 5.5277e-10 5.52782e-10 5.52783e-10 5.52801e-10 5.52801e-10 5.52809e-10 5.52786e-10 5.52802e-10 5.52766e-10 5.52742e-10
          5.52766e-10 5.52789e-10 5.52814e-10 5.52759e-10 5.52739e-10 5.52774e-10 5.52775e-10 5.52783e-10 5.52765e-10 5.52796e-10 5.52944e-10 8.47137e-10
          0.000269962 0.000269949 0.000269927 0.000269879 5.52198e-10 5.50955e-10
        </DataArray>
        <DataArray type="Float32" Name="precipitateVolumeFraction_nanoAu" NumberOfComponents="1" format="ascii">
          7.99383e-14 7.9956e-14 7.99584e-14 7.99613e-14 7.99612e-14 7.99646e-14 7.99639e-14 7.99645e-14 7.99594e-14 7.99614e-14 7.99546e-14 7.99497e-14
          7.9953e-14 7.99557e-14 7.99583e-14 7.99483e-14 7.99433e-14 7.99463e-14 7.99431e-14 7.99399e-14 7.9931e-14 7.99402e-14 9.13927e-14 2.05817e-11
          3.88889e-08 5.19553e-08 7.45562e-08 1.19235e-07 4.74226e-13 4.66134e-13
        </DataArray>
        <DataArray type="Float32" Name="precipitateVolumeFraction_d" NumberOfComponents="1" format="ascii">
          0.000663525 0.00066359 0.000663681 0.00066381 0.000663991 0.000664244 0.0006646 0.000665095 0.000665785 0.000666739 0.000668057 0.000669866
          0.000672342 0.000675716 0.000680297 0.0006865 0.000694885 0.000706219 0.00072157 0.00074247 0.000771198 0.000811296 0.0008686 0.000953465
          0.00108609 0.00131158 0.0017507 0.00285071 0.00775111 0.121235
        </DataArray>
        <DataArray type="Float32" Name="precipitateVolumeFraction_p" NumberOfComponents="1" format="ascii">
          0.000663525 0.00066359 0.000663681 0.00066381 0.000663991 0.000664244 0.0006646 0.000665095 0.000665785 0.000666739 0.000668057 0.000669866
          0.000672342 0.000675716 0.000680297 0.0006865 0.000694885 0.000706219 0.00072157 0.00074247 0.000771198 0.000811296 0.0008686 0.000953465
          0.00108609 0.00131158 0.0017507 0.00285071 0.00775111 0.121235
        </DataArray>
        <DataArray type="Float32" Name="K" NumberOfComponents="1" format="ascii">
          9.83057e-11 9.83056e-11 9.83053e-11 9.8305e-11 9.83045e-11 9.83039e-11 9.8303e-11 9.83017e-11 9.83e-11 9.82976e-11 9.82942e-11 9.82896e-11
          9.82834e-11 9.82748e-11 9.82632e-11 9.82475e-11 9.82262e-11 9.81975e-11 9.81586e-11 9.81057e-11 9.8033e-11 9.79316e-11 9.77869e-11 9.75728e-11
          9.69003e-11 9.63367e-11 9.52467e-11 9.25607e-11 8.16295e-11 3.89024e-13
        </DataArray>
        <DataArray type="Float32" Name="X^w_H2O" NumberOfComponents="1" format="ascii">
          0.999855 0.999855 0.999855 0.999855 0.999855 0.999855 0.999855 0.999855 0.999855 0.999855 0.999855 0.999855
          0.999855 0.999855 0.999855 0.999855 0.999855 0.999855 0.999855 0.999855 0.999855 0.999855 0.999855 0.999855
          0.999855 0.999854 0.999852 0.999848 0.999839 0.99984
        </DataArray>
        <DataArray type="Float32" Name="X^w_Air" NumberOfComponents="1" format="ascii">
          0 0 0 0 0 0 0 0 0 0 0 0
          0 0 0 0 0 0 0 0 0 0 0 0
          0 0 0 0 0 0
        </DataArray>
        <DataArray type="Float32" Name="X^w_AuComplex" NumberOfComponents="1" format="ascii">
          1.13354e-16 1.13377e-16 1.13379e-16 1.13383e-16 1.13382e-16 1.13386e-16 1.13385e-16 1.13385e-16 1.13377e-16 1.13379e-16 1.13369e-16 1.13362e-16
          1.13365e-16 1.13368e-16 1.1337e-16 1.13354e-16 1.13345e-16 1.13347e-16 1.13338e-16 1.13328e-16 1.13308e-16 1.13309e-16 1.29405e-16 2.91636e-14
          5.51144e-11 9.52257e-11 1.90173e-10 4.7501e-10 3.58557e-15 3.48208e-15
        </DataArray>
        <DataArray type="Float32" Name="X^w_nanoAu" NumberOfComponents="1" format="ascii">
          3.48166e-19 3.48242e-19 3.48252e-19 3.48265e-19 3.48265e-19 3.48279e-19 3.48276e-19 3.48279e-19 3.48256e-19 3.48265e-19 3.48235e-19 3.48214e-19
          3.48228e-19 3.48239e-19 3.4825e-19 3.48206e-19 3.48183e-19 3.48194e-19 3.48179e-19 3.48188e-19 3.50548e-19 5.73076e-19 2.11752e-17 1.92428e-15
          1.6997e-13 2.27301e-13 3.26588e-13 5.1317e-13 2.05891e-18 1.97876e-18
        </DataArray>
        <DataArray type="Float32" Name="X^w_cyanide" NumberOfComponents="1" format="ascii">
          3.26709e-06 3.26707e-06 3.26705e-06 3.26703e-06 3.26702e-06 3.267e-06 3.26698e-06 3.26696e-06 3.26694e-06 3.26692e-06 3.26689e-06 3.26687e-06
          3.26684e-06 3.2668e-06 3.26676e-06 3.2667e-06 3.26663e-06 3.26653e-06 3.26641e-06 3.26623e-06 3.26598e-06 3.26563e-06 3.2651e-06 3.26428e-06
          3.26346e-06 4.35895e-06 6.25119e-06 1.00286e-05 1.94578e-05 1.92245e-05
        </DataArray>
        <DataArray type="Float32" Name="X^w_citrate" NumberOfComponents="1" format="ascii">
          0.000141798 0.000141798 0.000141798 0.000141798 0.000141798 0.000141798 0.000141798 0.000141798 0.000141798 0.000141798 0.000141798 0.000141798
          0.000141798 0.000141798 0.000141797 0.000141797 0.000141797 0.000141796 0.000141795 0.000141794 0.000141792 0.00014179 0.000141786 0.00014178
          0.000141771 0.000141755 0.000141723 0.000141649 0.000141409 0.000139714
        </DataArray>
        <DataArray type="Float32" Name="X^w_substrate" NumberOfComponents="1" format="ascii">
          6.41686e-12 8.81544e-12 1.21099e-11 1.66348e-11 2.28498e-11 3.13864e-11 4.31133e-11 5.92252e-11 8.13681e-11 1.11812e-10 1.53693e-10 2.11357e-10
          2.90847e-10 4.00601e-10 5.52482e-10 7.633e-10 1.05712e-09 1.46889e-09 2.05019e-09 2.8789e-09 4.07591e-09 5.83566e-09 8.48537e-09 1.26092e-08
          1.93342e-08 3.10778e-08 5.38693e-08 1.06594e-07 2.76418e-07 1.47224e-06
        </DataArray>
        <DataArray type="Float32" Name="m^w_H2O" NumberOfComponents="1" format="ascii">
          55492.7 55492.6 55492.6 55492.6 55492.6 55492.6 55492.6 55492.6 55492.6 55492.6 55492.6 55492.6
          55492.6 55492.5 55492.5 55492.5 55492.5 55492.5 55492.5 55492.5 55492.5 55492.5 55492.5 55492.5
          55492.4 55492.4 55492.3 55492 55491.5 55491.6
        </DataArray>
        <DataArray type="Float32" Name="m^w_Air" NumberOfComponents="1" format="ascii">
          0 0 0 0 0 0 0 0 0 0 0 0
          0 0 0 0 0 0 0 0 0 0 0 0
          0 0 0 0 0 0
        </DataArray>
        <DataArray type="Float32" Name="m^w_AuComplex" NumberOfComponents="1" format="ascii">
          5.75407e-13 5.75522e-13 5.75534e-13 5.75551e-13 5.75547e-13 5.75568e-13 5.7556e-13 5.75561e-13 5.75522e-13 5.75533e-13 5.75482e-13 5.75442e-13
          5.75461e-13 5.75474e-13 5.75487e-13 5.75406e-13 5.75359e-13 5.75366e-13 5.75323e-13 5.75273e-13 5.75171e-13 5.75175e-13 6.56883e-13 1.48039e-10
          2.7977e-07 4.83381e-07 9.65347e-07 2.41122e-06 1.82009e-11 1.76756e-11
        </DataArray>
        <DataArray type="Float32" Name="m^w_nanoAu" NumberOfComponents="1" format="ascii">
          1.76735e-15 1.76774e-15 1.76779e-15 1.76786e-15 1.76785e-15 1.76793e-15 1.76791e-15 1.76792e-15 1.76781e-15 1.76785e-15 1.7677e-15 1.76759e-15
          1.76766e-15 1.76772e-15 1.76777e-15 1.76755e-15 1.76744e-15 1.76749e-15 1.76741e-15 1.76746e-15 1.77944e-15 2.90903e-15 1.07489e-13 9.76796e-12
          8.62798e-10 1.15382e-09 1.65781e-09 2.60493e-09 1.04514e-14 1.00445e-14
        </DataArray>
        <DataArray type="Float32" Name="m^w_cyanide" NumberOfComponents="1" format="ascii">
          0.125542 0.125542 0.125541 0.12554 0.12554 0.125539 0.125538 0.125537 0.125537 0.125536 0.125535 0.125534
          0.125533 0.125531 0.125529 0.125527 0.125524 0.125521 0.125516 0.125509 0.1255 0.125486 0.125465 0.125434
          0.125403 0.167498 0.24021 0.385361 0.747689 0.738725
        </DataArray>
        <DataArray type="Float32" Name="m^w_citrate" NumberOfComponents="1" format="ascii">
          0.749754 0.749754 0.749754 0.749753 0.749753 0.749753 0.749753 0.749753 0.749752 0.749752 0.749752 0.749751
          0.74975 0.749749 0.749748 0.749746 0.749744 0.749741 0.749736 0.74973 0.749721 0.749708 0.749688 0.749657
          0.749606 0.749521 0.749354 0.748963 0.747694 0.738728
        </DataArray>
        <DataArray type="Float32" Name="m^w_substrate" NumberOfComponents="1" format="ascii">
          3.56124e-08 4.89241e-08 6.72078e-08 9.23201e-08 1.26812e-07 1.74189e-07 2.39271e-07 3.28689e-07 4.51578e-07 6.20535e-07 8.52967e-07 1.17299e-06
          1.61414e-06 2.22326e-06 3.06617e-06 4.23617e-06 5.86683e-06 8.15205e-06 1.13781e-05 1.59773e-05 2.26205e-05 3.23867e-05 4.70921e-05 6.99785e-05
          0.000107301 0.000172475 0.000298964 0.000591572 0.00153406 0.00817064
        </DataArray>
        <DataArray type="Float32" Name="process rank" NumberOfComponents="1" format="ascii">
          0 0 0 0 0 0 0 0 0 0 0 0
          0 0 0 0 0 0 0 0 0 0 0 0
          0 0 0 0 0 0
        </DataArray>
      </CellData>
      <Points>
        <DataArray type="Float32" Name="Coordinates" NumberOfComponents="3" format="ascii">
          0 0 0 0.5 0 0 0 0.0333333 0 0.5 0.0333333 0
          0 0.0666667 0 0.5 0.0666667 0 0 0.1 0 0.5 0.1 0
          0 0.133333 0 0.5 0.133333 0 0 0.166667 0 0.5 0.166667 0
          0 0.2 0 0.5 0.2 0 0 0.233333 0 0.5 0.233333 0
          0 0.266667 0 0.5 0.266667 0 0 0.3 0 0.5 0.3 0
          0 0.333333 0 0.5 0.333333 0 0 0.366667 0 0.5 0.366667 0
          0 0.4 0 0.5 0.4 0 0 0.433333 0 0.5 0.433333 0
          0 0.466667 0 0.5 0.466667 0 0 0.5 0 0.5 0.5 0
          0 0.533333 0 0.5 0.533333 0 0 0.566667 0 0.5 0.566667 0
          0 0.6 0 0.5 0.6 0 0 0.633333 0 0.5 0.633333 0
          0 0.666667 0 0.5 0.666667 0 0 0.7 0 0.5 0.7 0
          0 0.733333 0 0.5 0.733333 0 0 0.766667 0 0.5 0.766667 0
          0 0.8 0 0.5 0.8 0 0 0.833333 0 0.5 0.833333 0
          0 0.866667 0 0.5 0.866667 0 0 0.9 0 0.5 0.9 0
          0 0.933333 0 0.5 0.933333 0 0 0.966667 0 0.5 0.966667 0
          0 1 0 0.5 1 0
        </DataArray>
      </Points>
      <Cells>
        <DataArray type="Int32" Name="connectivity" NumberOfComponents="1" format="ascii">
          0 1 3 2 2 3 5 4 4 5 7 6
          6 7 9 8 8 9 11 10 10 11 13 12
          12 13 15 14 14 15 17 16 16 17 19 18
          18 19 21 20 20 21 23 22 22 23 25 24
          24 25 27 26 26 27 29 28 28 29 31 30
          30 31 33 32 32 33 35 34 34 35 37 36
          36 37 39 38 38 39 41 40 40 41 43 42
          42 43 45 44 44 45 47 46 46 47 49 48
          48 49 51 50 50 51 53 52 52 53 55 54
          54 55 57 56 56 57 59 58 58 59 61 60
        </DataArray>
        <DataArray type="Int32" Name="offsets" NumberOfComponents="1" format="ascii">
          4 8 12 16 20 24 28 32 36 40 44 48
          52 56 60 64 68 72 76 80 84 88 92 96
          100 104 108 112 116 120
        </DataArray>
        <DataArray type="UInt8" Name="types" NumberOfComponents="1" format="ascii">
          9 9 9 9 9 9 9 9 9 9 9 9
          9 9 9 9 9 9 9 9 9 9 9 9
          9 9 9 9 9 9
        </DataArray>
      </Cells>
    </Piece>
  </UnstructuredGrid>
</VTKFile>
