<?xml version="1.0"?>
<VTKFile type="UnstructuredGrid" version="0.1" byte_order="LittleEndian">
  <UnstructuredGrid>
    <Piece NumberOfCells="30" NumberOfPoints="62">
      <CellData Scalars="Sg">
        <DataArray type="Float32" Name="Sg" NumberOfComponents="1" format="ascii">
          0 0 0 0 0 0 0 0 0 0 0 0
          0 0 0 0 0 0 0 0 0 0 0 0
          0 0 0 0 0 0
        </DataArray>
        <DataArray type="Float32" Name="Sl" NumberOfComponents="1" format="ascii">
          1 1 1 1 1 1 1 1 1 1 1 1
          1 1 1 1 1 1 1 1 1 1 1 1
          1 1 1 1 1 1
        </DataArray>
        <DataArray type="Float32" Name="pg" NumberOfComponents="1" format="ascii">
          24687.8 24360.9 24034 23707 23380.1 23053.1 22726.2 22399.3 22072.3 21745.4 21418.4 21091.5
          20764.6 20437.6 20110.7 19783.7 19456.8 19129.8 18802.9 18476 18149 17822.1 17495.1 17168.2
          16841.3 16514.3 16187.4 15860.4 15533.5 15209.3
        </DataArray>
        <DataArray type="Float32" Name="pl" NumberOfComponents="1" format="ascii">
          110628 110301 109974 109647 109320 108993 108666 108339 108012 107685 107358 107031
          106704 106377 106050 105723 105396 105070 104743 104416 104089 103762 103435 103108
          102781 102454 102127 101800 101473 101149
        </DataArray>
        <DataArray type="Float32" Name="pc" NumberOfComponents="1" format="ascii">
          -85939.7 -85939.7 -85939.7 -85939.7 -85939.7 -85939.7 -85939.7 -85939.7 -85939.7 -85939.7 -85939.7 -85939.7
          -85939.7 -85939.7 -85939.7 -85939.7 -85939.7 -85939.7 -85939.7 -85939.7 -85939.7 -85939.7 -85939.7 -85939.7
          -85939.7 -85939.7 -85939.7 -85939.7 -85939.7 -85939.7
        </DataArray>
        <DataArray type="Float32" Name="rhoL" NumberOfComponents="1" format="ascii">
          999.855 999.855 999.855 999.855 999.855 999.854 999.854 999.854 999.854 999.854 999.854 999.854
          999.853 999.853 999.853 999.853 999.853 999.853 999.852 999.852 999.852 999.852 999.852 999.852
          999.852 999.851 999.851 999.851 999.851 999.851
        </DataArray>
        <DataArray type="Float32" Name="rhoG" NumberOfComponents="1" format="ascii">
          0.30585 0.3018 0.29775 0.293699 0.289649 0.285598 0.281548 0.277498 0.273447 0.269397 0.265347 0.261296
          0.257246 0.253195 0.249145 0.245095 0.241044 0.236994 0.232944 0.228893 0.224843 0.220793 0.216742 0.212692
          0.208641 0.204591 0.200541 0.19649 0.19244 0.188423
        </DataArray>
        <DataArray type="Float32" Name="mobL" NumberOfComponents="1" format="ascii">
          722.171 722.17 722.17 722.17 722.17 722.17 722.169 722.169 722.169 722.169 722.169 722.169
          722.168 722.168 722.168 722.168 722.168 722.167 722.167 722.167 722.167 722.167 722.166 722.166
          722.166 722.166 722.166 722.166 722.165 722.165
        </DataArray>
        <DataArray type="Float32" Name="mobG" NumberOfComponents="1" format="ascii">
          0 0 0 0 0 0 0 0 0 0 0 0
          0 0 0 0 0 0 0 0 0 0 0 0
          0 0 0 0 0 0
        </DataArray>
        <DataArray type="Float32" Name="porosity" NumberOfComponents="1" format="ascii">
          0.298767 0.298767 0.298767 0.298766 0.298766 0.298766 0.298765 0.298764 0.298763 0.298761 0.298759 0.298755
          0.29875 0.298744 0.298735 0.298724 0.298708 0.298687 0.298658 0.298618 0.298564 0.298488 0.298379 0.298216
          0.297691 0.297252 0.296383 0.294133 0.283598 0.046638
        </DataArray>
        <DataArray type="Float32" Name="temperature" NumberOfComponents="1" format="ascii">
          281.15 281.15 281.15 281.15 281.15 281.15 281.15 281.15 281.15 281.15 281.15 281.15
          281.15 281.15 281.15 281.15 281.15 281.15 281.15 281.15 281.15 281.15 281.15 281.15
          281.15 281.15 281.15 281.15 281.15 281.15
        </DataArray>
        <DataArray type="Float32" Name="phase presence" NumberOfComponents="1" format="ascii">
          1 1 1 1 1 1 1 1 1 1 1 1
          1 1 1 1 1 1 1 1 1 1 1 1
          1 1 1 1 1 1
        </DataArray>
        <DataArray type="Float32" Name="precipitateVolumeFraction_au" NumberOfComponents="1" format="ascii">
          5.52714e-10 5.52764e-10 5.52771e-10 5.52782e-10 5.52784e-10 5.52802e-10 5.52802e-10 5.52809e-10 5.52786e-10 5.52802e-10 5.52767e-10 5.52742e-10
          5.52766e-10 5.52789e-10 5.52814e-10 5.5276e-10 5.52739e-10 5.52775e-10 5.52775e-10 5.52784e-10 5.52765e-10 5.52797e-10 5.53024e-10 9.88422e-10
          0.000269962 0.000269949 0.000269928 0.000269878 5.52198e-10 5.50946e-10
        </DataArray>
        <DataArray type="Float32" Name="precipitateVolumeFraction_nanoAu" NumberOfComponents="1" format="ascii">
          7.96344e-14 7.96416e-14 7.96424e-14 7.9644e-14 7.96441e-14 7.96466e-14 7.96465e-14 7.96474e-14 7.96439e-14 7.96459e-14 7.96405e-14 7.96366e-14
          7.96397e-14 7.96423e-14 7.9645e-14 7.9636e-14 7.96315e-14 7.96345e-14 7.96316e-14 7.96287e-14 7.96203e-14 7.96299e-14 9.10744e-14 2.05718e-11
          3.88717e-08 5.19353e-08 7.45352e-08 1.19224e-07 4.74102e-13 4.66281e-13
        </DataArray>
        <DataArray type="Float32" Name="precipitateVolumeFraction_d" NumberOfComponents="1" format="ascii">
          0.000616485 0.000616546 0.000616632 0.000616754 0.000616924 0.000617163 0.000617497 0.000617964 0.000618612 0.00061951 0.000620748 0.000622449
          0.000624777 0.000627949 0.000632257 0.000638094 0.000645988 0.000656668 0.000671148 0.000690892 0.000718082 0.000756127 0.000810681 0.00089185
          0.00101955 0.00123891 0.0016735 0.0027985 0.00820108 0.126681
        </DataArray>
        <DataArray type="Float32" Name="precipitateVolumeFraction_p" NumberOfComponents="1" format="ascii">
          0.000616485 0.000616546 0.000616632 0.000616754 0.000616924 0.000617163 0.000617497 0.000617964 0.000618612 0.00061951 0.000620748 0.000622449
          0.000624777 0.000627949 0.000632257 0.000638094 0.000645988 0.000656668 0.000671148 0.000690892 0.000718082 0.000756127 0.000810681 0.00089185
          0.00101955 0.00123891 0.0016735 0.0027985 0.00820108 0.126681
        </DataArray>
        <DataArray type="Float32" Name="K" NumberOfComponents="1" format="ascii">
          9.84251e-11 9.84249e-11 9.84247e-11 9.84244e-11 9.84239e-11 9.84233e-11 9.84225e-11 9.84213e-11 9.84197e-11 9.84174e-11 9.84142e-11 9.84099e-11
          9.8404e-11 9.8396e-11 9.8385e-11 9.83702e-11 9.83502e-11 9.83231e-11 9.82864e-11 9.82364e-11 9.81675e-11 9.80712e-11 9.79332e-11 9.77282e-11
          9.70672e-11 9.6518e-11 9.54376e-11 9.26868e-11 8.06543e-11 2.02552e-13
        </DataArray>
        <DataArray type="Float32" Name="X^w_H2O" NumberOfComponents="1" format="ascii">
          0.999855 0.999855 0.999855 0.999855 0.999855 0.999855 0.999855 0.999855 0.999855 0.999855 0.999855 0.999855
          0.999855 0.999855 0.999855 0.999855 0.999855 0.999855 0.999855 0.999855 0.999855 0.999855 0.999855 0.999855
          0.999855 0.999854 0.999852 0.999848 0.999839 0.99984
        </DataArray>
        <DataArray type="Float32" Name="X^w_Air" NumberOfComponents="1" format="ascii">
          0 0 0 0 0 0 0 0 0 0 0 0
          0 0 0 0 0 0 0 0 0 0 0 0
          0 0 0 0 0 0
        </DataArray>
        <DataArray type="Float32" Name="X^w_AuComplex" NumberOfComponents="1" format="ascii">
          1.12925e-16 1.12936e-16 1.12937e-16 1.12939e-16 1.12939e-16 1.12942e-16 1.12942e-16 1.12943e-16 1.12938e-16 1.12941e-16 1.12933e-16 1.12927e-16
          1.12931e-16 1.12934e-16 1.12936e-16 1.12922e-16 1.12914e-16 1.12916e-16 1.12908e-16 1.12899e-16 1.12879e-16 1.12881e-16 1.28963e-16 2.91416e-14
          5.50744e-11 9.51643e-11 1.90081e-10 4.74935e-10 3.58551e-15 3.48534e-15
        </DataArray>
        <DataArray type="Float32" Name="X^w_nanoAu" NumberOfComponents="1" format="ascii">
          3.46841e-19 3.46872e-19 3.46876e-19 3.46882e-19 3.46883e-19 3.46894e-19 3.46893e-19 3.46897e-19 3.46882e-19 3.4689e-19 3.46867e-19 3.4685e-19
          3.46862e-19 3.46874e-19 3.46884e-19 3.46844e-19 3.46824e-19 3.46835e-19 3.46821e-19 3.46831e-19 3.49189e-19 5.71364e-19 2.11487e-17 1.92271e-15
          1.69896e-13 2.27216e-13 3.26507e-13 5.13165e-13 2.05889e-18 1.98066e-18
        </DataArray>
        <DataArray type="Float32" Name="X^w_cyanide" NumberOfComponents="1" format="ascii">
          3.26558e-06 3.26558e-06 3.26557e-06 3.26557e-06 3.26557e-06 3.26557e-06 3.26556e-06 3.26556e-06 3.26555e-06 3.26554e-06 3.26553e-06 3.26552e-06
          3.2655e-06 3.26547e-06 3.26544e-06 3.26539e-06 3.26533e-06 3.26524e-06 3.26512e-06 3.26495e-06 3.26471e-06 3.26437e-06 3.26386e-06 3.26308e-06
          3.26235e-06 4.35765e-06 6.24982e-06 1.00279e-05 1.94624e-05 1.92368e-05
        </DataArray>
        <DataArray type="Float32" Name="X^w_citrate" NumberOfComponents="1" format="ascii">
          0.000141798 0.000141798 0.000141798 0.000141798 0.000141798 0.000141798 0.000141798 0.000141798 0.000141798 0.000141798 0.000141798 0.000141798
          0.000141798 0.000141798 0.000141797 0.000141797 0.000141796 0.000141796 0.000141795 0.000141794 0.000141792 0.00014179 0.000141786 0.00014178
          0.000141771 0.000141756 0.000141727 0.000141661 0.000141443 0.000139803
        </DataArray>
        <DataArray type="Float32" Name="X^w_substrate" NumberOfComponents="1" format="ascii">
          1.01047e-11 1.36231e-11 1.83655e-11 2.47576e-11 3.33734e-11 4.4987e-11 6.06428e-11 8.17515e-11 1.1022e-10 1.48629e-10 2.00481e-10 2.70538e-10
          3.65304e-10 4.93698e-10 6.68041e-10 9.05485e-10 1.23018e-09 1.6766e-09 2.29485e-09 3.15942e-09 4.38425e-09 6.15012e-09 8.75747e-09 1.27365e-08
          1.91005e-08 3.00069e-08 5.08198e-08 9.84155e-08 2.5247e-07 1.40898e-06
        </DataArray>
        <DataArray type="Float32" Name="m^w_H2O" NumberOfComponents="1" format="ascii">
          55492.7 55492.6 55492.6 55492.6 55492.6 55492.6 55492.6 55492.6 55492.6 55492.6 55492.6 55492.6
          55492.6 55492.5 55492.5 55492.5 55492.5 55492.5 55492.5 55492.5 55492.5 55492.5 55492.5 55492.5
          55492.4 55492.4 55492.3 55492 55491.5 55491.6
        </DataArray>
        <DataArray type="Float32" Name="m^w_Air" NumberOfComponents="1" format="ascii">
          0 0 0 0 0 0 0 0 0 0 0 0
          0 0 0 0 0 0 0 0 0 0 0 0
          0 0 0 0 0 0
        </DataArray>
        <DataArray type="Float32" Name="m^w_AuComplex" NumberOfComponents="1" format="ascii">
          5.7323e-13 5.73281e-13 5.73287e-13 5.73298e-13 5.73298e-13 5.73316e-13 5.73314e-13 5.7332e-13 5.73294e-13 5.73307e-13 5.73267e-13 5.73236e-13
          5.73255e-13 5.7327e-13 5.73285e-13 5.73212e-13 5.7317e-13 5.73178e-13 5.73139e-13 5.73092e-13 5.72994e-13 5.73004e-13 6.54637e-13 1.47927e-10
          2.79566e-07 4.83069e-07 9.64883e-07 2.41084e-06 1.82006e-11 1.76921e-11
        </DataArray>
        <DataArray type="Float32" Name="m^w_nanoAu" NumberOfComponents="1" format="ascii">
          1.76063e-15 1.76078e-15 1.7608e-15 1.76084e-15 1.76084e-15 1.76089e-15 1.76089e-15 1.76091e-15 1.76083e-15 1.76087e-15 1.76075e-15 1.76067e-15
          1.76073e-15 1.76079e-15 1.76084e-15 1.76064e-15 1.76054e-15 1.76059e-15 1.76052e-15 1.76057e-15 1.77254e-15 2.90034e-15 1.07354e-13 9.76e-12
          8.62418e-10 1.15339e-09 1.6574e-09 2.60491e-09 1.04512e-14 1.00541e-14
        </DataArray>
        <DataArray type="Float32" Name="m^w_cyanide" NumberOfComponents="1" format="ascii">
          0.125484 0.125484 0.125484 0.125484 0.125484 0.125484 0.125484 0.125484 0.125483 0.125483 0.125483 0.125482
          0.125481 0.12548 0.125479 0.125477 0.125475 0.125471 0.125467 0.12546 0.125451 0.125438 0.125418 0.125388
          0.12536 0.167448 0.240157 0.385336 0.747869 0.739199
        </DataArray>
        <DataArray type="Float32" Name="m^w_citrate" NumberOfComponents="1" format="ascii">
          0.749754 0.749754 0.749753 0.749753 0.749753 0.749753 0.749753 0.749752 0.749752 0.749752 0.749751 0.749751
          0.74975 0.749749 0.749747 0.749745 0.749743 0.749739 0.749735 0.749728 0.749719 0.749705 0.749686 0.749656
          0.749608 0.749529 0.749377 0.749024 0.747874 0.739202
        </DataArray>
        <DataArray type="Float32" Name="m^w_substrate" NumberOfComponents="1" format="ascii">
          5.6079e-08 7.56055e-08 1.01925e-07 1.374e-07 1.85216e-07 2.49669e-07 3.36556e-07 4.53705e-07 6.11699e-07 8.24862e-07 1.11263e-06 1.50143e-06
          2.02736e-06 2.73993e-06 3.7075e-06 5.02527e-06 6.82726e-06 9.3048e-06 1.2736e-05 1.75341e-05 2.43317e-05 3.41319e-05 4.86022e-05 7.06852e-05
          0.000106004 0.000166532 0.000282039 0.000546186 0.00140116 0.00781953
        </DataArray>
        <DataArray type="Float32" Name="process rank" NumberOfComponents="1" format="ascii">
          0 0 0 0 0 0 0 0 0 0 0 0
          0 0 0 0 0 0 0 0 0 0 0 0
          0 0 0 0 0 0
        </DataArray>
      </CellData>
      <Points>
        <DataArray type="Float32" Name="Coordinates" NumberOfComponents="3" format="ascii">
          0 0 0 0.5 0 0 0 0.0333333 0 0.5 0.0333333 0
          0 0.0666667 0 0.5 0.0666667 0 0 0.1 0 0.5 0.1 0
          0 0.133333 0 0.5 0.133333 0 0 0.166667 0 0.5 0.166667 0
          0 0.2 0 0.5 0.2 0 0 0.233333 0 0.5 0.233333 0
          0 0.266667 0 0.5 0.266667 0 0 0.3 0 0.5 0.3 0
          0 0.333333 0 0.5 0.333333 0 0 0.366667 0 0.5 0.366667 0
          0 0.4 0 0.5 0.4 0 0 0.433333 0 0.5 0.433333 0
          0 0.466667 0 0.5 0.466667 0 0 0.5 0 0.5 0.5 0
          0 0.533333 0 0.5 0.533333 0 0 0.566667 0 0.5 0.566667 0
          0 0.6 0 0.5 0.6 0 0 0.633333 0 0.5 0.633333 0
          0 0.666667 0 0.5 0.666667 0 0 0.7 0 0.5 0.7 0
          0 0.733333 0 0.5 0.733333 0 0 0.766667 0 0.5 0.766667 0
          0 0.8 0 0.5 0.8 0 0 0.833333 0 0.5 0.833333 0
          0 0.866667 0 0.5 0.866667 0 0 0.9 0 0.5 0.9 0
          0 0.933333 0 0.5 0.933333 0 0 0.966667 0 0.5 0.966667 0
          0 1 0 0.5 1 0
        </DataArray>
      </Points>
      <Cells>
        <DataArray type="Int32" Name="connectivity" NumberOfComponents="1" format="ascii">
          0 1 3 2 2 3 5 4 4 5 7 6
          6 7 9 8 8 9 11 10 10 11 13 12
          12 13 15 14 14 15 17 16 16 17 19 18
          18 19 21 20 20 21 23 22 22 23 25 24
          24 25 27 26 26 27 29 28 28 29 31 30
          30 31 33 32 32 33 35 34 34 35 37 36
          36 37 39 38 38 39 41 40 40 41 43 42
          42 43 45 44 44 45 47 46 46 47 49 48
          48 49 51 50 50 51 53 52 52 53 55 54
          54 55 57 56 56 57 59 58 58 59 61 60
        </DataArray>
        <DataArray type="Int32" Name="offsets" NumberOfComponents="1" format="ascii">
          4 8 12 16 20 24 28 32 36 40 44 48
          52 56 60 64 68 72 76 80 84 88 92 96
          100 104 108 112 116 120
        </DataArray>
        <DataArray type="UInt8" Name="types" NumberOfComponents="1" format="ascii">
          9 9 9 9 9 9 9 9 9 9 9 9
          9 9 9 9 9 9 9 9 9 9 9 9
          9 9 9 9 9 9
        </DataArray>
      </Cells>
    </Piece>
  </UnstructuredGrid>
</VTKFile>
