<?xml version="1.0"?>
<VTKFile type="UnstructuredGrid" version="0.1" byte_order="LittleEndian">
  <UnstructuredGrid>
    <Piece NumberOfCells="30" NumberOfPoints="62">
      <CellData Scalars="Sg">
        <DataArray type="Float32" Name="Sg" NumberOfComponents="1" format="ascii">
          0 0 0 0 0 0 0 0 0 0 0 0
          0 0 0 0 0 0 0 0 0 0 0 0
          0 0 0 0 0 0
        </DataArray>
        <DataArray type="Float32" Name="Sl" NumberOfComponents="1" format="ascii">
          1 1 1 1 1 1 1 1 1 1 1 1
          1 1 1 1 1 1 1 1 1 1 1 1
          1 1 1 1 1 1
        </DataArray>
        <DataArray type="Float32" Name="pg" NumberOfComponents="1" format="ascii">
          24687.8 24360.9 24034 23707 23380.1 23053.1 22726.2 22399.3 22072.3 21745.4 21418.4 21091.5
          20764.6 20437.6 20110.7 19783.7 19456.8 19129.8 18802.9 18476 18149 17822.1 17495.1 17168.2
          16841.3 16514.3 16187.4 15860.4 15533.5 15206.6
        </DataArray>
        <DataArray type="Float32" Name="pl" NumberOfComponents="1" format="ascii">
          110628 110301 109974 109647 109320 108993 108666 108339 108012 107685 107358 107031
          106704 106377 106050 105723 105396 105070 104743 104416 104089 103762 103435 103108
          102781 102454 102127 101800 101473 101146
        </DataArray>
        <DataArray type="Float32" Name="pc" NumberOfComponents="1" format="ascii">
          -85939.7 -85939.7 -85939.7 -85939.7 -85939.7 -85939.7 -85939.7 -85939.7 -85939.7 -85939.7 -85939.7 -85939.7
          -85939.7 -85939.7 -85939.7 -85939.7 -85939.7 -85939.7 -85939.7 -85939.7 -85939.7 -85939.7 -85939.7 -85939.7
          -85939.7 -85939.7 -85939.7 -85939.7 -85939.7 -85939.7
        </DataArray>
        <DataArray type="Float32" Name="rhoL" NumberOfComponents="1" format="ascii">
          999.855 999.855 999.855 999.855 999.855 999.854 999.854 999.854 999.854 999.854 999.854 999.854
          999.853 999.853 999.853 999.853 999.853 999.853 999.852 999.852 999.852 999.852 999.852 999.852
          999.852 999.851 999.851 999.851 999.851 999.851
        </DataArray>
        <DataArray type="Float32" Name="rhoG" NumberOfComponents="1" format="ascii">
          0.30585 0.3018 0.29775 0.293699 0.289649 0.285598 0.281548 0.277498 0.273447 0.269397 0.265347 0.261296
          0.257246 0.253195 0.249145 0.245095 0.241044 0.236994 0.232944 0.228893 0.224843 0.220793 0.216742 0.212692
          0.208641 0.204591 0.200541 0.19649 0.19244 0.18839
        </DataArray>
        <DataArray type="Float32" Name="mobL" NumberOfComponents="1" format="ascii">
          722.171 722.17 722.17 722.17 722.17 722.17 722.169 722.169 722.169 722.169 722.169 722.169
          722.168 722.168 722.168 722.168 722.168 722.167 722.167 722.167 722.167 722.167 722.166 722.166
          722.166 722.166 722.166 722.166 722.165 722.165
        </DataArray>
        <DataArray type="Float32" Name="mobG" NumberOfComponents="1" format="ascii">
          0 0 0 0 0 0 0 0 0 0 0 0
          0 0 0 0 0 0 0 0 0 0 0 0
          0 0 0 0 0 0
        </DataArray>
        <DataArray type="Float32" Name="porosity" NumberOfComponents="1" format="ascii">
          0.299613 0.299613 0.299613 0.299613 0.299613 0.299613 0.299613 0.299613 0.299612 0.299612 0.299612 0.299612
          0.299612 0.299612 0.299612 0.299611 0.299611 0.299609 0.299607 0.299604 0.299599 0.29959 0.299575 0.299551
          0.299239 0.299161 0.298998 0.298571 0.296822 0.211433
        </DataArray>
        <DataArray type="Float32" Name="temperature" NumberOfComponents="1" format="ascii">
          281.15 281.15 281.15 281.15 281.15 281.15 281.15 281.15 281.15 281.15 281.15 281.15
          281.15 281.15 281.15 281.15 281.15 281.15 281.15 281.15 281.15 281.15 281.15 281.15
          281.15 281.15 281.15 281.15 281.15 281.15
        </DataArray>
        <DataArray type="Float32" Name="phase presence" NumberOfComponents="1" format="ascii">
          1 1 1 1 1 1 1 1 1 1 1 1
          1 1 1 1 1 1 1 1 1 1 1 1
          1 1 1 1 1 1
        </DataArray>
        <DataArray type="Float32" Name="precipitateVolumeFraction_au" NumberOfComponents="1" format="ascii">
          5.51904e-10 5.52794e-10 5.52746e-10 5.52735e-10 5.52788e-10 5.52664e-10 5.52747e-10 5.52755e-10 5.52749e-10 5.52743e-10 5.52782e-10 5.52739e-10
          5.52736e-10 5.52752e-10 5.52744e-10 5.52751e-10 5.52748e-10 5.52747e-10 5.52754e-10 5.52763e-10 5.52742e-10 5.52769e-10 5.52932e-10 1.02217e-09
          0.00026994 0.000269924 0.0002699 0.000269852 5.5229e-10 5.51173e-10
        </DataArray>
        <DataArray type="Float32" Name="precipitateVolumeFraction_nanoAu" NumberOfComponents="1" format="ascii">
          1.23423e-13 1.23624e-13 1.23613e-13 1.2361e-13 1.23622e-13 1.23594e-13 1.23612e-13 1.23614e-13 1.23612e-13 1.23611e-13 1.23619e-13 1.23609e-13
          1.23608e-13 1.23612e-13 1.2361e-13 1.23611e-13 1.23609e-13 1.23608e-13 1.23609e-13 1.23609e-13 1.23602e-13 1.2362e-13 1.35534e-13 2.57873e-11
          6.03624e-08 7.66886e-08 1.02163e-07 1.45624e-07 4.74694e-13 4.69863e-13
        </DataArray>
        <DataArray type="Float32" Name="precipitateVolumeFraction_d" NumberOfComponents="1" format="ascii">
          0.00019373 0.00019373 0.000193731 0.000193731 0.000193732 0.000193734 0.000193736 0.000193741 0.000193748 0.000193759 0.000193778 0.00019381
          0.000193862 0.000193948 0.000194088 0.000194319 0.000194698 0.000195316 0.000196325 0.000197971 0.000200656 0.00020505 0.000212303 0.000224486
          0.000245638 0.000284744 0.000365899 0.000579606 0.00158916 0.0442837
        </DataArray>
        <DataArray type="Float32" Name="precipitateVolumeFraction_p" NumberOfComponents="1" format="ascii">
          0.00019373 0.00019373 0.000193731 0.000193731 0.000193732 0.000193734 0.000193736 0.000193741 0.000193748 0.000193759 0.000193778 0.00019381
          0.000193862 0.000193948 0.000194088 0.000194319 0.000194698 0.000195316 0.000196325 0.000197971 0.000200656 0.00020505 0.000212303 0.000224486
          0.000245638 0.000284744 0.000365899 0.000579606 0.00158916 0.0442837
        </DataArray>
        <DataArray type="Float32" Name="K" NumberOfComponents="1" format="ascii">
          9.95029e-11 9.95029e-11 9.95029e-11 9.95029e-11 9.95029e-11 9.95028e-11 9.95028e-11 9.95028e-11 9.95028e-11 9.95028e-11 9.95027e-11 9.95026e-11
          9.95025e-11 9.95023e-11 9.95019e-11 9.95013e-11 9.95004e-11 9.94988e-11 9.94962e-11 9.9492e-11 9.94851e-11 9.94739e-11 9.94553e-11 9.94241e-11
          9.90251e-11 9.89254e-11 9.87188e-11 9.81763e-11 9.59817e-11 2.75848e-11
        </DataArray>
        <DataArray type="Float32" Name="X^w_H2O" NumberOfComponents="1" format="ascii">
          0.999853 0.999853 0.999853 0.999853 0.999853 0.999853 0.999853 0.999853 0.999853 0.999853 0.999853 0.999853
          0.999853 0.999853 0.999853 0.999853 0.999853 0.999853 0.999853 0.999853 0.999853 0.999853 0.999853 0.999853
          0.999853 0.999852 0.99985 0.999846 0.999839 0.999839
        </DataArray>
        <DataArray type="Float32" Name="X^w_Air" NumberOfComponents="1" format="ascii">
          0 0 0 0 0 0 0 0 0 0 0 0
          0 0 0 0 0 0 0 0 0 0 0 0
          0 0 0 0 0 0
        </DataArray>
        <DataArray type="Float32" Name="X^w_AuComplex" NumberOfComponents="1" format="ascii">
          1.40775e-16 1.41004e-16 1.40991e-16 1.40988e-16 1.41001e-16 1.40969e-16 1.4099e-16 1.40992e-16 1.4099e-16 1.40988e-16 1.40997e-16 1.40986e-16
          1.40985e-16 1.40988e-16 1.40986e-16 1.40986e-16 1.40984e-16 1.40982e-16 1.40982e-16 1.4098e-16 1.4097e-16 1.40985e-16 1.54375e-16 2.93904e-14
          6.88327e-11 1.0738e-10 1.84459e-10 3.64281e-10 1.83935e-15 1.80817e-15
        </DataArray>
        <DataArray type="Float32" Name="X^w_nanoAu" NumberOfComponents="1" format="ascii">
          5.37557e-19 5.38424e-19 5.38376e-19 5.38365e-19 5.38414e-19 5.38294e-19 5.38374e-19 5.3838e-19 5.38374e-19 5.38368e-19 5.38404e-19 5.38361e-19
          5.38358e-19 5.38371e-19 5.38362e-19 5.38366e-19 5.3836e-19 5.38355e-19 5.38356e-19 5.38394e-19 5.42051e-19 8.83778e-19 3.25243e-17 2.95802e-15
          2.63656e-13 3.35174e-13 4.46805e-13 6.27054e-13 2.06386e-18 2.00808e-18
        </DataArray>
        <DataArray type="Float32" Name="X^w_cyanide" NumberOfComponents="1" format="ascii">
          5.06851e-06 5.06851e-06 5.0685e-06 5.0685e-06 5.06849e-06 5.06848e-06 5.06848e-06 5.06847e-06 5.06847e-06 5.06846e-06 5.06845e-06 5.06845e-06
          5.06844e-06 5.06843e-06 5.06841e-06 5.0684e-06 5.06838e-06 5.06834e-06 5.0683e-06 5.06823e-06 5.06812e-06 5.06796e-06 5.0677e-06 5.06728e-06
          5.06708e-06 6.43712e-06 8.57388e-06 1.22429e-05 1.94829e-05 1.93545e-05
        </DataArray>
        <DataArray type="Float32" Name="X^w_citrate" NumberOfComponents="1" format="ascii">
          0.000141796 0.000141796 0.000141796 0.000141796 0.000141796 0.000141796 0.000141796 0.000141796 0.000141796 0.000141796 0.000141796 0.000141796
          0.000141796 0.000141796 0.000141796 0.000141796 0.000141796 0.000141796 0.000141795 0.000141795 0.000141794 0.000141793 0.000141791 0.000141788
          0.000141783 0.000141775 0.000141759 0.000141719 0.000141591 0.000140658
        </DataArray>
        <DataArray type="Float32" Name="X^w_substrate" NumberOfComponents="1" format="ascii">
          2.39591e-13 3.70229e-13 5.72044e-13 8.83787e-13 1.36529e-12 2.10893e-12 3.25732e-12 5.03058e-12 7.76854e-12 1.19957e-11 1.85216e-11 2.8596e-11
          4.41485e-11 6.81596e-11 1.05236e-10 1.62507e-10 2.51026e-10 3.87991e-10 6.00303e-10 9.30402e-10 1.44617e-09 2.2585e-09 3.55456e-09 5.66599e-09
          9.22394e-09 1.55606e-08 2.79504e-08 5.65463e-08 1.48182e-07 8.06236e-07
        </DataArray>
        <DataArray type="Float32" Name="m^w_H2O" NumberOfComponents="1" format="ascii">
          55492.6 55492.6 55492.5 55492.5 55492.5 55492.5 55492.5 55492.5 55492.5 55492.5 55492.5 55492.5
          55492.5 55492.4 55492.4 55492.4 55492.4 55492.4 55492.4 55492.4 55492.4 55492.4 55492.4 55492.4
          55492.3 55492.3 55492.1 55491.9 55491.5 55491.5
        </DataArray>
        <DataArray type="Float32" Name="m^w_Air" NumberOfComponents="1" format="ascii">
          0 0 0 0 0 0 0 0 0 0 0 0
          0 0 0 0 0 0 0 0 0 0 0 0
          0 0 0 0 0 0
        </DataArray>
        <DataArray type="Float32" Name="m^w_AuComplex" NumberOfComponents="1" format="ascii">
          7.14598e-13 7.1576e-13 7.15696e-13 7.1568e-13 7.15746e-13 7.15583e-13 7.1569e-13 7.15698e-13 7.15688e-13 7.15679e-13 7.15727e-13 7.15669e-13
          7.15663e-13 7.1568e-13 7.15667e-13 7.15671e-13 7.1566e-13 7.1565e-13 7.15647e-13 7.1564e-13 7.15586e-13 7.15663e-13 7.83632e-13 1.4919e-10
          3.49406e-07 5.45079e-07 9.36344e-07 1.84915e-06 9.33686e-12 9.17855e-12
        </DataArray>
        <DataArray type="Float32" Name="m^w_nanoAu" NumberOfComponents="1" format="ascii">
          2.72874e-15 2.73314e-15 2.73289e-15 2.73284e-15 2.73308e-15 2.73248e-15 2.73288e-15 2.73291e-15 2.73288e-15 2.73285e-15 2.73303e-15 2.73281e-15
          2.7328e-15 2.73286e-15 2.73282e-15 2.73284e-15 2.73281e-15 2.73278e-15 2.73278e-15 2.73298e-15 2.75154e-15 4.4862e-15 1.65099e-13 1.50154e-11
          1.33836e-09 1.7014e-09 2.26806e-09 3.18302e-09 1.04765e-14 1.01933e-14
        </DataArray>
        <DataArray type="Float32" Name="m^w_cyanide" NumberOfComponents="1" format="ascii">
          0.194765 0.194765 0.194764 0.194764 0.194764 0.194763 0.194763 0.194763 0.194763 0.194762 0.194762 0.194762
          0.194761 0.194761 0.194761 0.19476 0.194759 0.194758 0.194756 0.194753 0.194749 0.194743 0.194733 0.194717
          0.194709 0.247354 0.329462 0.470451 0.748653 0.74372
        </DataArray>
        <DataArray type="Float32" Name="m^w_citrate" NumberOfComponents="1" format="ascii">
          0.749742 0.749742 0.749742 0.749742 0.749742 0.749742 0.749742 0.749741 0.749741 0.749741 0.749741 0.749741
          0.749741 0.74974 0.74974 0.749739 0.749739 0.749737 0.749736 0.749733 0.749729 0.749723 0.749713 0.749697
          0.74967 0.749628 0.749541 0.749334 0.748656 0.743722
        </DataArray>
        <DataArray type="Float32" Name="m^w_substrate" NumberOfComponents="1" format="ascii">
          1.32969e-09 2.0547e-09 3.17474e-09 4.90485e-09 7.57711e-09 1.17042e-08 1.80775e-08 2.79188e-08 4.31139e-08 6.65737e-08 1.02791e-07 1.58702e-07
          2.45016e-07 3.78272e-07 5.84039e-07 9.01879e-07 1.39314e-06 2.15328e-06 3.33157e-06 5.16355e-06 8.02594e-06 1.25342e-05 1.97271e-05 3.14451e-05
          5.1191e-05 8.63581e-05 0.000155119 0.00031382 0.000822377 0.00447444
        </DataArray>
        <DataArray type="Float32" Name="process rank" NumberOfComponents="1" format="ascii">
          0 0 0 0 0 0 0 0 0 0 0 0
          0 0 0 0 0 0 0 0 0 0 0 0
          0 0 0 0 0 0
        </DataArray>
      </CellData>
      <Points>
        <DataArray type="Float32" Name="Coordinates" NumberOfComponents="3" format="ascii">
          0 0 0 0.5 0 0 0 0.0333333 0 0.5 0.0333333 0
          0 0.0666667 0 0.5 0.0666667 0 0 0.1 0 0.5 0.1 0
          0 0.133333 0 0.5 0.133333 0 0 0.166667 0 0.5 0.166667 0
          0 0.2 0 0.5 0.2 0 0 0.233333 0 0.5 0.233333 0
          0 0.266667 0 0.5 0.266667 0 0 0.3 0 0.5 0.3 0
          0 0.333333 0 0.5 0.333333 0 0 0.366667 0 0.5 0.366667 0
          0 0.4 0 0.5 0.4 0 0 0.433333 0 0.5 0.433333 0
          0 0.466667 0 0.5 0.466667 0 0 0.5 0 0.5 0.5 0
          0 0.533333 0 0.5 0.533333 0 0 0.566667 0 0.5 0.566667 0
          0 0.6 0 0.5 0.6 0 0 0.633333 0 0.5 0.633333 0
          0 0.666667 0 0.5 0.666667 0 0 0.7 0 0.5 0.7 0
          0 0.733333 0 0.5 0.733333 0 0 0.766667 0 0.5 0.766667 0
          0 0.8 0 0.5 0.8 0 0 0.833333 0 0.5 0.833333 0
          0 0.866667 0 0.5 0.866667 0 0 0.9 0 0.5 0.9 0
          0 0.933333 0 0.5 0.933333 0 0 0.966667 0 0.5 0.966667 0
          0 1 0 0.5 1 0
        </DataArray>
      </Points>
      <Cells>
        <DataArray type="Int32" Name="connectivity" NumberOfComponents="1" format="ascii">
          0 1 3 2 2 3 5 4 4 5 7 6
          6 7 9 8 8 9 11 10 10 11 13 12
          12 13 15 14 14 15 17 16 16 17 19 18
          18 19 21 20 20 21 23 22 22 23 25 24
          24 25 27 26 26 27 29 28 28 29 31 30
          30 31 33 32 32 33 35 34 34 35 37 36
          36 37 39 38 38 39 41 40 40 41 43 42
          42 43 45 44 44 45 47 46 46 47 49 48
          48 49 51 50 50 51 53 52 52 53 55 54
          54 55 57 56 56 57 59 58 58 59 61 60
        </DataArray>
        <DataArray type="Int32" Name="offsets" NumberOfComponents="1" format="ascii">
          4 8 12 16 20 24 28 32 36 40 44 48
          52 56 60 64 68 72 76 80 84 88 92 96
          100 104 108 112 116 120
        </DataArray>
        <DataArray type="UInt8" Name="types" NumberOfComponents="1" format="ascii">
          9 9 9 9 9 9 9 9 9 9 9 9
          9 9 9 9 9 9 9 9 9 9 9 9
          9 9 9 9 9 9
        </DataArray>
      </Cells>
    </Piece>
  </UnstructuredGrid>
</VTKFile>
