<?xml version="1.0"?>
<VTKFile type="UnstructuredGrid" version="0.1" byte_order="LittleEndian">
  <UnstructuredGrid>
    <Piece NumberOfCells="30" NumberOfPoints="62">
      <CellData Scalars="Sg">
        <DataArray type="Float32" Name="Sg" NumberOfComponents="1" format="ascii">
          0 0 0 0 0 0 0 0 0 0 0 0
          0 0 0 0 0 0 0 0 0 0 0 0
          0 0 0 0 0 0
        </DataArray>
        <DataArray type="Float32" Name="Sl" NumberOfComponents="1" format="ascii">
          1 1 1 1 1 1 1 1 1 1 1 1
          1 1 1 1 1 1 1 1 1 1 1 1
          1 1 1 1 1 1
        </DataArray>
        <DataArray type="Float32" Name="pg" NumberOfComponents="1" format="ascii">
          24687.8 24360.9 24034 23707 23380.1 23053.1 22726.2 22399.3 22072.3 21745.4 21418.4 21091.5
          20764.6 20437.6 20110.7 19783.7 19456.8 19129.8 18802.9 18476 18149 17822.1 17495.1 17168.2
          16841.3 16514.3 16187.4 15860.4 15533.5 15206.6
        </DataArray>
        <DataArray type="Float32" Name="pl" NumberOfComponents="1" format="ascii">
          110628 110301 109974 109647 109320 108993 108666 108339 108012 107685 107358 107031
          106704 106377 106050 105723 105396 105070 104743 104416 104089 103762 103435 103108
          102781 102454 102127 101800 101473 101146
        </DataArray>
        <DataArray type="Float32" Name="pc" NumberOfComponents="1" format="ascii">
          -85939.7 -85939.7 -85939.7 -85939.7 -85939.7 -85939.7 -85939.7 -85939.7 -85939.7 -85939.7 -85939.7 -85939.7
          -85939.7 -85939.7 -85939.7 -85939.7 -85939.7 -85939.7 -85939.7 -85939.7 -85939.7 -85939.7 -85939.7 -85939.7
          -85939.7 -85939.7 -85939.7 -85939.7 -85939.7 -85939.7
        </DataArray>
        <DataArray type="Float32" Name="rhoL" NumberOfComponents="1" format="ascii">
          999.855 999.855 999.855 999.855 999.855 999.854 999.854 999.854 999.854 999.854 999.854 999.854
          999.853 999.853 999.853 999.853 999.853 999.853 999.852 999.852 999.852 999.852 999.852 999.852
          999.852 999.851 999.851 999.851 999.851 999.851
        </DataArray>
        <DataArray type="Float32" Name="rhoG" NumberOfComponents="1" format="ascii">
          0.30585 0.3018 0.29775 0.293699 0.289649 0.285598 0.281548 0.277498 0.273447 0.269397 0.265347 0.261296
          0.257246 0.253195 0.249145 0.245095 0.241044 0.236994 0.232944 0.228893 0.224843 0.220793 0.216742 0.212692
          0.208641 0.204591 0.200541 0.19649 0.19244 0.18839
        </DataArray>
        <DataArray type="Float32" Name="mobL" NumberOfComponents="1" format="ascii">
          722.171 722.17 722.17 722.17 722.17 722.17 722.169 722.169 722.169 722.169 722.169 722.169
          722.168 722.168 722.168 722.168 722.168 722.167 722.167 722.167 722.167 722.167 722.166 722.166
          722.166 722.166 722.166 722.166 722.165 722.165
        </DataArray>
        <DataArray type="Float32" Name="mobG" NumberOfComponents="1" format="ascii">
          0 0 0 0 0 0 0 0 0 0 0 0
          0 0 0 0 0 0 0 0 0 0 0 0
          0 0 0 0 0 0
        </DataArray>
        <DataArray type="Float32" Name="porosity" NumberOfComponents="1" format="ascii">
          0.299654 0.299654 0.299654 0.299654 0.299654 0.299654 0.299654 0.299654 0.299654 0.299654 0.299654 0.299654
          0.299654 0.299654 0.299654 0.299653 0.299653 0.299651 0.29965 0.299646 0.299641 0.299633 0.29962 0.299597
          0.299288 0.299214 0.299059 0.298639 0.29676 0.196362
        </DataArray>
        <DataArray type="Float32" Name="temperature" NumberOfComponents="1" format="ascii">
          281.15 281.15 281.15 281.15 281.15 281.15 281.15 281.15 281.15 281.15 281.15 281.15
          281.15 281.15 281.15 281.15 281.15 281.15 281.15 281.15 281.15 281.15 281.15 281.15
          281.15 281.15 281.15 281.15 281.15 281.15
        </DataArray>
        <DataArray type="Float32" Name="phase presence" NumberOfComponents="1" format="ascii">
          1 1 1 1 1 1 1 1 1 1 1 1
          1 1 1 1 1 1 1 1 1 1 1 1
          1 1 1 1 1 1
        </DataArray>
        <DataArray type="Float32" Name="precipitateVolumeFraction_au" NumberOfComponents="1" format="ascii">
          5.51904e-10 5.52794e-10 5.52746e-10 5.52735e-10 5.52788e-10 5.52664e-10 5.52747e-10 5.52755e-10 5.52749e-10 5.52743e-10 5.52782e-10 5.52739e-10
          5.52736e-10 5.52752e-10 5.52744e-10 5.52751e-10 5.52748e-10 5.52747e-10 5.52754e-10 5.52763e-10 5.52742e-10 5.52769e-10 5.53066e-10 1.30913e-09
          0.000269941 0.000269925 0.0002699 0.000269851 5.5229e-10 5.51165e-10
        </DataArray>
        <DataArray type="Float32" Name="precipitateVolumeFraction_nanoAu" NumberOfComponents="1" format="ascii">
          1.23387e-13 1.23586e-13 1.23576e-13 1.23573e-13 1.23585e-13 1.23557e-13 1.23576e-13 1.23578e-13 1.23576e-13 1.23575e-13 1.23584e-13 1.23574e-13
          1.23573e-13 1.23577e-13 1.23575e-13 1.23576e-13 1.23574e-13 1.23573e-13 1.23574e-13 1.23574e-13 1.23567e-13 1.23586e-13 1.35543e-13 2.5834e-11
          6.03489e-08 7.66741e-08 1.0215e-07 1.45622e-07 4.74823e-13 4.70498e-13
        </DataArray>
        <DataArray type="Float32" Name="precipitateVolumeFraction_d" NumberOfComponents="1" format="ascii">
          0.000172793 0.000172793 0.000172794 0.000172794 0.000172795 0.000172797 0.0001728 0.000172804 0.000172811 0.000172822 0.000172841 0.000172871
          0.000172921 0.000173003 0.000173136 0.000173354 0.00017371 0.00017429 0.000175233 0.000176767 0.000179264 0.000183348 0.00019009 0.00020143
          0.00022119 0.000257991 0.000335448 0.000545595 0.00162012 0.0518191
        </DataArray>
        <DataArray type="Float32" Name="precipitateVolumeFraction_p" NumberOfComponents="1" format="ascii">
          0.000172793 0.000172793 0.000172794 0.000172794 0.000172795 0.000172797 0.0001728 0.000172804 0.000172811 0.000172822 0.000172841 0.000172871
          0.000172921 0.000173003 0.000173136 0.000173354 0.00017371 0.00017429 0.000175233 0.000176767 0.000179264 0.000183348 0.00019009 0.00020143
          0.00022119 0.000257991 0.000335448 0.000545595 0.00162012 0.0518191
        </DataArray>
        <DataArray type="Float32" Name="K" NumberOfComponents="1" format="ascii">
          9.95565e-11 9.95565e-11 9.95565e-11 9.95565e-11 9.95565e-11 9.95565e-11 9.95565e-11 9.95565e-11 9.95564e-11 9.95564e-11 9.95564e-11 9.95563e-11
          9.95562e-11 9.95559e-11 9.95556e-11 9.9555e-11 9.95541e-11 9.95527e-11 9.95502e-11 9.95463e-11 9.95399e-11 9.95294e-11 9.95122e-11 9.94831e-11
          9.90875e-11 9.89936e-11 9.87963e-11 9.82625e-11 9.59047e-11 2.12756e-11
        </DataArray>
        <DataArray type="Float32" Name="X^w_H2O" NumberOfComponents="1" format="ascii">
          0.999853 0.999853 0.999853 0.999853 0.999853 0.999853 0.999853 0.999853 0.999853 0.999853 0.999853 0.999853
          0.999853 0.999853 0.999853 0.999853 0.999853 0.999853 0.999853 0.999853 0.999853 0.999853 0.999853 0.999853
          0.999853 0.999852 0.99985 0.999846 0.999839 0.999839
        </DataArray>
        <DataArray type="Float32" Name="X^w_Air" NumberOfComponents="1" format="ascii">
          0 0 0 0 0 0 0 0 0 0 0 0
          0 0 0 0 0 0 0 0 0 0 0 0
          0 0 0 0 0 0
        </DataArray>
        <DataArray type="Float32" Name="X^w_AuComplex" NumberOfComponents="1" format="ascii">
          1.40708e-16 1.40935e-16 1.40922e-16 1.4092e-16 1.40933e-16 1.40902e-16 1.40923e-16 1.40925e-16 1.40923e-16 1.40922e-16 1.40932e-16 1.4092e-16
          1.4092e-16 1.40923e-16 1.40921e-16 1.40922e-16 1.4092e-16 1.40918e-16 1.40918e-16 1.40916e-16 1.40906e-16 1.40921e-16 1.54359e-16 2.94386e-14
          6.88059e-11 1.07344e-10 1.84417e-10 3.64275e-10 1.84026e-15 1.81246e-15
        </DataArray>
        <DataArray type="Float32" Name="X^w_nanoAu" NumberOfComponents="1" format="ascii">
          5.37405e-19 5.38261e-19 5.38214e-19 5.38204e-19 5.38254e-19 5.38136e-19 5.38216e-19 5.38223e-19 5.38217e-19 5.38212e-19 5.38249e-19 5.38206e-19
          5.38204e-19 5.38218e-19 5.38209e-19 5.38214e-19 5.38208e-19 5.38202e-19 5.38204e-19 5.38242e-19 5.41895e-19 8.83351e-19 3.25058e-17 2.95696e-15
          2.63597e-13 3.35114e-13 4.46761e-13 6.27095e-13 2.06495e-18 2.01317e-18
        </DataArray>
        <DataArray type="Float32" Name="X^w_cyanide" NumberOfComponents="1" format="ascii">
          5.06731e-06 5.06732e-06 5.06732e-06 5.06732e-06 5.06732e-06 5.06732e-06 5.06732e-06 5.06732e-06 5.06732e-06 5.06732e-06 5.06732e-06 5.06732e-06
          5.06731e-06 5.06731e-06 5.0673e-06 5.06729e-06 5.06727e-06 5.06724e-06 5.06719e-06 5.06712e-06 5.06701e-06 5.06685e-06 5.0666e-06 5.06621e-06
          5.06606e-06 6.43601e-06 8.57288e-06 1.22428e-05 1.94875e-05 1.93774e-05
        </DataArray>
        <DataArray type="Float32" Name="X^w_citrate" NumberOfComponents="1" format="ascii">
          0.000141796 0.000141796 0.000141796 0.000141796 0.000141796 0.000141796 0.000141796 0.000141796 0.000141796 0.000141796 0.000141796 0.000141796
          0.000141796 0.000141796 0.000141796 0.000141796 0.000141796 0.000141795 0.000141795 0.000141794 0.000141794 0.000141792 0.000141791 0.000141788
          0.000141783 0.000141776 0.000141762 0.00014173 0.000141625 0.000140824
        </DataArray>
        <DataArray type="Float32" Name="X^w_substrate" NumberOfComponents="1" format="ascii">
          5.93346e-13 8.82576e-13 1.31267e-12 1.95218e-12 2.90298e-12 4.31647e-12 6.41763e-12 9.54073e-12 1.41825e-11 2.10808e-11 3.13322e-11 4.65661e-11
          6.92044e-11 1.02848e-10 1.52858e-10 2.2722e-10 3.37865e-10 5.02678e-10 7.48634e-10 1.11681e-09 1.67068e-09 2.5107e-09 3.80143e-09 5.8269e-09
          9.11569e-09 1.47635e-08 2.5429e-08 4.9307e-08 1.24586e-07 6.89004e-07
        </DataArray>
        <DataArray type="Float32" Name="m^w_H2O" NumberOfComponents="1" format="ascii">
          55492.6 55492.6 55492.5 55492.5 55492.5 55492.5 55492.5 55492.5 55492.5 55492.5 55492.5 55492.5
          55492.5 55492.4 55492.4 55492.4 55492.4 55492.4 55492.4 55492.4 55492.4 55492.4 55492.4 55492.4
          55492.3 55492.3 55492.1 55491.9 55491.5 55491.5
        </DataArray>
        <DataArray type="Float32" Name="m^w_Air" NumberOfComponents="1" format="ascii">
          0 0 0 0 0 0 0 0 0 0 0 0
          0 0 0 0 0 0 0 0 0 0 0 0
          0 0 0 0 0 0
        </DataArray>
        <DataArray type="Float32" Name="m^w_AuComplex" NumberOfComponents="1" format="ascii">
          7.14258e-13 7.1541e-13 7.15348e-13 7.15333e-13 7.15402e-13 7.15241e-13 7.15349e-13 7.15359e-13 7.15351e-13 7.15343e-13 7.15394e-13 7.15337e-13
          7.15332e-13 7.15351e-13 7.15339e-13 7.15343e-13 7.15334e-13 7.15324e-13 7.15321e-13 7.15314e-13 7.1526e-13 7.15339e-13 7.8355e-13 1.49435e-10
          3.4927e-07 5.44895e-07 9.36129e-07 1.84912e-06 9.34147e-12 9.20031e-12
        </DataArray>
        <DataArray type="Float32" Name="m^w_nanoAu" NumberOfComponents="1" format="ascii">
          2.72796e-15 2.73231e-15 2.73207e-15 2.73202e-15 2.73227e-15 2.73167e-15 2.73208e-15 2.73211e-15 2.73208e-15 2.73206e-15 2.73224e-15 2.73203e-15
          2.73201e-15 2.73208e-15 2.73204e-15 2.73206e-15 2.73203e-15 2.73201e-15 2.73201e-15 2.73221e-15 2.75075e-15 4.48404e-15 1.65005e-13 1.501e-11
          1.33806e-09 1.70109e-09 2.26783e-09 3.18323e-09 1.0482e-14 1.02192e-14
        </DataArray>
        <DataArray type="Float32" Name="m^w_cyanide" NumberOfComponents="1" format="ascii">
          0.194719 0.194719 0.194719 0.194719 0.194719 0.194719 0.194719 0.194719 0.194719 0.194719 0.194719 0.194719
          0.194718 0.194718 0.194718 0.194717 0.194716 0.194715 0.194713 0.194711 0.194707 0.1947 0.194691 0.194675
          0.19467 0.247312 0.329424 0.470447 0.74883 0.744599
        </DataArray>
        <DataArray type="Float32" Name="m^w_citrate" NumberOfComponents="1" format="ascii">
          0.749742 0.749742 0.749742 0.749742 0.749742 0.749742 0.749742 0.749741 0.749741 0.749741 0.749741 0.749741
          0.74974 0.74974 0.74974 0.749739 0.749738 0.749737 0.749735 0.749732 0.749727 0.749721 0.749711 0.749696
          0.749671 0.749634 0.74956 0.749388 0.748833 0.744601
        </DataArray>
        <DataArray type="Float32" Name="m^w_substrate" NumberOfComponents="1" format="ascii">
          3.29296e-09 4.89814e-09 7.28509e-09 1.08343e-08 1.6111e-08 2.39556e-08 3.56166e-08 5.29493e-08 7.871e-08 1.16994e-07 1.73888e-07 2.58433e-07
          3.84071e-07 5.70788e-07 8.4833e-07 1.26102e-06 1.87508e-06 2.78976e-06 4.15477e-06 6.19805e-06 9.27196e-06 1.39339e-05 2.10972e-05 3.23381e-05
          5.05902e-05 8.19347e-05 0.000141126 0.000273644 0.000691424 0.00382383
        </DataArray>
        <DataArray type="Float32" Name="process rank" NumberOfComponents="1" format="ascii">
          0 0 0 0 0 0 0 0 0 0 0 0
          0 0 0 0 0 0 0 0 0 0 0 0
          0 0 0 0 0 0
        </DataArray>
      </CellData>
      <Points>
        <DataArray type="Float32" Name="Coordinates" NumberOfComponents="3" format="ascii">
          0 0 0 0.5 0 0 0 0.0333333 0 0.5 0.0333333 0
          0 0.0666667 0 0.5 0.0666667 0 0 0.1 0 0.5 0.1 0
          0 0.133333 0 0.5 0.133333 0 0 0.166667 0 0.5 0.166667 0
          0 0.2 0 0.5 0.2 0 0 0.233333 0 0.5 0.233333 0
          0 0.266667 0 0.5 0.266667 0 0 0.3 0 0.5 0.3 0
          0 0.333333 0 0.5 0.333333 0 0 0.366667 0 0.5 0.366667 0
          0 0.4 0 0.5 0.4 0 0 0.433333 0 0.5 0.433333 0
          0 0.466667 0 0.5 0.466667 0 0 0.5 0 0.5 0.5 0
          0 0.533333 0 0.5 0.533333 0 0 0.566667 0 0.5 0.566667 0
          0 0.6 0 0.5 0.6 0 0 0.633333 0 0.5 0.633333 0
          0 0.666667 0 0.5 0.666667 0 0 0.7 0 0.5 0.7 0
          0 0.733333 0 0.5 0.733333 0 0 0.766667 0 0.5 0.766667 0
          0 0.8 0 0.5 0.8 0 0 0.833333 0 0.5 0.833333 0
          0 0.866667 0 0.5 0.866667 0 0 0.9 0 0.5 0.9 0
          0 0.933333 0 0.5 0.933333 0 0 0.966667 0 0.5 0.966667 0
          0 1 0 0.5 1 0
        </DataArray>
      </Points>
      <Cells>
        <DataArray type="Int32" Name="connectivity" NumberOfComponents="1" format="ascii">
          0 1 3 2 2 3 5 4 4 5 7 6
          6 7 9 8 8 9 11 10 10 11 13 12
          12 13 15 14 14 15 17 16 16 17 19 18
          18 19 21 20 20 21 23 22 22 23 25 24
          24 25 27 26 26 27 29 28 28 29 31 30
          30 31 33 32 32 33 35 34 34 35 37 36
          36 37 39 38 38 39 41 40 40 41 43 42
          42 43 45 44 44 45 47 46 46 47 49 48
          48 49 51 50 50 51 53 52 52 53 55 54
          54 55 57 56 56 57 59 58 58 59 61 60
        </DataArray>
        <DataArray type="Int32" Name="offsets" NumberOfComponents="1" format="ascii">
          4 8 12 16 20 24 28 32 36 40 44 48
          52 56 60 64 68 72 76 80 84 88 92 96
          100 104 108 112 116 120
        </DataArray>
        <DataArray type="UInt8" Name="types" NumberOfComponents="1" format="ascii">
          9 9 9 9 9 9 9 9 9 9 9 9
          9 9 9 9 9 9 9 9 9 9 9 9
          9 9 9 9 9 9
        </DataArray>
      </Cells>
    </Piece>
  </UnstructuredGrid>
</VTKFile>
