<?xml version="1.0"?>
<VTKFile type="UnstructuredGrid" version="0.1" byte_order="LittleEndian">
  <UnstructuredGrid>
    <Piece NumberOfCells="30" NumberOfPoints="62">
      <CellData Scalars="Sg">
        <DataArray type="Float32" Name="Sg" NumberOfComponents="1" format="ascii">
          0 0 0 0 0 0 0 0 0 0 0 0
          0 0 0 0 0 0 0 0 0 0 0 0
          0 0 0 0 0 0
        </DataArray>
        <DataArray type="Float32" Name="Sl" NumberOfComponents="1" format="ascii">
          1 1 1 1 1 1 1 1 1 1 1 1
          1 1 1 1 1 1 1 1 1 1 1 1
          1 1 1 1 1 1
        </DataArray>
        <DataArray type="Float32" Name="pg" NumberOfComponents="1" format="ascii">
          24687.8 24360.9 24034 23707 23380.1 23053.1 22726.2 22399.3 22072.3 21745.4 21418.4 21091.5
          20764.6 20437.6 20110.7 19783.7 19456.8 19129.8 18802.9 18476 18149 17822.1 17495.1 17168.2
          16841.3 16514.3 16187.4 15860.4 15533.5 15206.6
        </DataArray>
        <DataArray type="Float32" Name="pl" NumberOfComponents="1" format="ascii">
          110628 110301 109974 109647 109320 108993 108666 108339 108012 107685 107358 107031
          106704 106377 106050 105723 105396 105070 104743 104416 104089 103762 103435 103108
          102781 102454 102127 101800 101473 101146
        </DataArray>
        <DataArray type="Float32" Name="pc" NumberOfComponents="1" format="ascii">
          -85939.7 -85939.7 -85939.7 -85939.7 -85939.7 -85939.7 -85939.7 -85939.7 -85939.7 -85939.7 -85939.7 -85939.7
          -85939.7 -85939.7 -85939.7 -85939.7 -85939.7 -85939.7 -85939.7 -85939.7 -85939.7 -85939.7 -85939.7 -85939.7
          -85939.7 -85939.7 -85939.7 -85939.7 -85939.7 -85939.7
        </DataArray>
        <DataArray type="Float32" Name="rhoL" NumberOfComponents="1" format="ascii">
          999.855 999.855 999.855 999.855 999.855 999.854 999.854 999.854 999.854 999.854 999.854 999.854
          999.853 999.853 999.853 999.853 999.853 999.853 999.852 999.852 999.852 999.852 999.852 999.852
          999.852 999.851 999.851 999.851 999.851 999.851
        </DataArray>
        <DataArray type="Float32" Name="rhoG" NumberOfComponents="1" format="ascii">
          0.30585 0.3018 0.29775 0.293699 0.289649 0.285598 0.281548 0.277498 0.273447 0.269397 0.265347 0.261296
          0.257246 0.253195 0.249145 0.245095 0.241044 0.236994 0.232944 0.228893 0.224843 0.220793 0.216742 0.212692
          0.208641 0.204591 0.200541 0.19649 0.19244 0.18839
        </DataArray>
        <DataArray type="Float32" Name="mobL" NumberOfComponents="1" format="ascii">
          722.171 722.17 722.17 722.17 722.17 722.17 722.169 722.169 722.169 722.169 722.169 722.169
          722.168 722.168 722.168 722.168 722.168 722.167 722.167 722.167 722.167 722.167 722.166 722.166
          722.166 722.166 722.166 722.166 722.165 722.165
        </DataArray>
        <DataArray type="Float32" Name="mobG" NumberOfComponents="1" format="ascii">
          0 0 0 0 0 0 0 0 0 0 0 0
          0 0 0 0 0 0 0 0 0 0 0 0
          0 0 0 0 0 0
        </DataArray>
        <DataArray type="Float32" Name="porosity" NumberOfComponents="1" format="ascii">
          0.299619 0.299619 0.299619 0.299619 0.299619 0.299619 0.299619 0.299619 0.299619 0.299619 0.299619 0.299619
          0.299619 0.299619 0.299619 0.299618 0.299617 0.299616 0.299614 0.299611 0.299606 0.299597 0.299583 0.299558
          0.299247 0.299169 0.299008 0.298581 0.296806 0.207822
        </DataArray>
        <DataArray type="Float32" Name="temperature" NumberOfComponents="1" format="ascii">
          281.15 281.15 281.15 281.15 281.15 281.15 281.15 281.15 281.15 281.15 281.15 281.15
          281.15 281.15 281.15 281.15 281.15 281.15 281.15 281.15 281.15 281.15 281.15 281.15
          281.15 281.15 281.15 281.15 281.15 281.15
        </DataArray>
        <DataArray type="Float32" Name="phase presence" NumberOfComponents="1" format="ascii">
          1 1 1 1 1 1 1 1 1 1 1 1
          1 1 1 1 1 1 1 1 1 1 1 1
          1 1 1 1 1 1
        </DataArray>
        <DataArray type="Float32" Name="precipitateVolumeFraction_au" NumberOfComponents="1" format="ascii">
          5.51904e-10 5.52794e-10 5.52746e-10 5.52735e-10 5.52788e-10 5.52664e-10 5.52747e-10 5.52755e-10 5.52749e-10 5.52743e-10 5.52782e-10 5.52739e-10
          5.52736e-10 5.52752e-10 5.52744e-10 5.52751e-10 5.52748e-10 5.52747e-10 5.52754e-10 5.52763e-10 5.52742e-10 5.52769e-10 5.52953e-10 1.06633e-09
          0.00026994 0.000269924 0.0002699 0.000269852 5.5229e-10 5.51171e-10
        </DataArray>
        <DataArray type="Float32" Name="precipitateVolumeFraction_nanoAu" NumberOfComponents="1" format="ascii">
          1.23413e-13 1.23612e-13 1.23601e-13 1.23598e-13 1.2361e-13 1.23582e-13 1.23601e-13 1.23602e-13 1.23601e-13 1.23599e-13 1.23608e-13 1.23598e-13
          1.23597e-13 1.236e-13 1.23598e-13 1.23599e-13 1.23598e-13 1.23597e-13 1.23598e-13 1.23598e-13 1.23591e-13 1.23609e-13 1.35529e-13 2.57931e-11
          6.03592e-08 7.66852e-08 1.0216e-07 1.45624e-07 4.74728e-13 4.70035e-13
        </DataArray>
        <DataArray type="Float32" Name="precipitateVolumeFraction_d" NumberOfComponents="1" format="ascii">
          0.000190348 0.000190348 0.000190349 0.000190349 0.00019035 0.000190352 0.000190354 0.000190359 0.000190366 0.000190377 0.000190396 0.000190428
          0.000190479 0.000190564 0.000190703 0.000190932 0.000191307 0.000191919 0.000192918 0.000194545 0.0001972 0.000201545 0.000208718 0.00022077
          0.000241709 0.000280472 0.000361114 0.00057458 0.00159705 0.0460892
        </DataArray>
        <DataArray type="Float32" Name="precipitateVolumeFraction_p" NumberOfComponents="1" format="ascii">
          0.000190348 0.000190348 0.000190349 0.000190349 0.00019035 0.000190352 0.000190354 0.000190359 0.000190366 0.000190377 0.000190396 0.000190428
          0.000190479 0.000190564 0.000190703 0.000190932 0.000191307 0.000191919 0.000192918 0.000194545 0.0001972 0.000201545 0.000208718 0.00022077
          0.000241709 0.000280472 0.000361114 0.00057458 0.00159705 0.0460892
        </DataArray>
        <DataArray type="Float32" Name="K" NumberOfComponents="1" format="ascii">
          9.95115e-11 9.95115e-11 9.95115e-11 9.95115e-11 9.95115e-11 9.95115e-11 9.95115e-11 9.95115e-11 9.95115e-11 9.95114e-11 9.95114e-11 9.95113e-11
          9.95112e-11 9.9511e-11 9.95106e-11 9.951e-11 9.95091e-11 9.95075e-11 9.95049e-11 9.95008e-11 9.9494e-11 9.94828e-11 9.94645e-11 9.94336e-11
          9.90352e-11 9.89363e-11 9.8731e-11 9.8189e-11 9.5962e-11 2.59573e-11
        </DataArray>
        <DataArray type="Float32" Name="X^w_H2O" NumberOfComponents="1" format="ascii">
          0.999853 0.999853 0.999853 0.999853 0.999853 0.999853 0.999853 0.999853 0.999853 0.999853 0.999853 0.999853
          0.999853 0.999853 0.999853 0.999853 0.999853 0.999853 0.999853 0.999853 0.999853 0.999853 0.999853 0.999853
          0.999853 0.999852 0.99985 0.999846 0.999839 0.999839
        </DataArray>
        <DataArray type="Float32" Name="X^w_Air" NumberOfComponents="1" format="ascii">
          0 0 0 0 0 0 0 0 0 0 0 0
          0 0 0 0 0 0 0 0 0 0 0 0
          0 0 0 0 0 0
        </DataArray>
        <DataArray type="Float32" Name="X^w_AuComplex" NumberOfComponents="1" format="ascii">
          1.40756e-16 1.40983e-16 1.40971e-16 1.40968e-16 1.40981e-16 1.40949e-16 1.4097e-16 1.40972e-16 1.4097e-16 1.40968e-16 1.40978e-16 1.40967e-16
          1.40966e-16 1.40969e-16 1.40966e-16 1.40967e-16 1.40965e-16 1.40963e-16 1.40963e-16 1.40962e-16 1.40951e-16 1.40967e-16 1.54363e-16 2.93957e-14
          6.88262e-11 1.07372e-10 1.8445e-10 3.64282e-10 1.8396e-15 1.80933e-15
        </DataArray>
        <DataArray type="Float32" Name="X^w_nanoAu" NumberOfComponents="1" format="ascii">
          5.37514e-19 5.38371e-19 5.38324e-19 5.38314e-19 5.38363e-19 5.38244e-19 5.38323e-19 5.3833e-19 5.38323e-19 5.38317e-19 5.38354e-19 5.38311e-19
          5.38308e-19 5.38322e-19 5.38313e-19 5.38317e-19 5.38311e-19 5.38306e-19 5.38307e-19 5.38346e-19 5.42002e-19 8.83665e-19 3.25198e-17 2.95776e-15
          2.63642e-13 3.35161e-13 4.46797e-13 6.27069e-13 2.06415e-18 2.00945e-18
        </DataArray>
        <DataArray type="Float32" Name="X^w_cyanide" NumberOfComponents="1" format="ascii">
          5.06819e-06 5.06819e-06 5.06818e-06 5.06818e-06 5.06818e-06 5.06817e-06 5.06817e-06 5.06816e-06 5.06816e-06 5.06815e-06 5.06815e-06 5.06814e-06
          5.06814e-06 5.06813e-06 5.06812e-06 5.0681e-06 5.06808e-06 5.06805e-06 5.06801e-06 5.06794e-06 5.06783e-06 5.06767e-06 5.06742e-06 5.06702e-06
          5.06683e-06 6.43686e-06 8.57366e-06 1.2243e-05 1.94841e-05 1.93607e-05
        </DataArray>
        <DataArray type="Float32" Name="X^w_citrate" NumberOfComponents="1" format="ascii">
          0.000141796 0.000141796 0.000141796 0.000141796 0.000141796 0.000141796 0.000141796 0.000141796 0.000141796 0.000141796 0.000141796 0.000141796
          0.000141796 0.000141796 0.000141796 0.000141796 0.000141796 0.000141795 0.000141795 0.000141795 0.000141794 0.000141793 0.000141791 0.000141788
          0.000141783 0.000141776 0.00014176 0.000141722 0.0001416 0.000140703
        </DataArray>
        <DataArray type="Float32" Name="X^w_substrate" NumberOfComponents="1" format="ascii">
          2.71453e-13 4.1696e-13 6.40403e-13 9.83492e-13 1.51025e-12 2.31892e-12 3.56027e-12 5.46564e-12 8.38998e-12 1.28779e-11 1.97651e-11 3.03337e-11
          4.65518e-11 7.14408e-11 1.09644e-10 1.68302e-10 2.58425e-10 3.97041e-10 6.10631e-10 9.40741e-10 1.45346e-09 2.2562e-09 3.5294e-09 5.5914e-09
          9.04584e-09 1.51631e-08 2.70594e-08 5.43893e-08 1.41783e-07 7.74656e-07
        </DataArray>
        <DataArray type="Float32" Name="m^w_H2O" NumberOfComponents="1" format="ascii">
          55492.6 55492.6 55492.5 55492.5 55492.5 55492.5 55492.5 55492.5 55492.5 55492.5 55492.5 55492.5
          55492.5 55492.4 55492.4 55492.4 55492.4 55492.4 55492.4 55492.4 55492.4 55492.4 55492.4 55492.4
          55492.3 55492.3 55492.1 55491.9 55491.5 55491.5
        </DataArray>
        <DataArray type="Float32" Name="m^w_Air" NumberOfComponents="1" format="ascii">
          0 0 0 0 0 0 0 0 0 0 0 0
          0 0 0 0 0 0 0 0 0 0 0 0
          0 0 0 0 0 0
        </DataArray>
        <DataArray type="Float32" Name="m^w_AuComplex" NumberOfComponents="1" format="ascii">
          7.14504e-13 7.15657e-13 7.15593e-13 7.15578e-13 7.15644e-13 7.15483e-13 7.15589e-13 7.15598e-13 7.15588e-13 7.15579e-13 7.15628e-13 7.1557e-13
          7.15565e-13 7.15583e-13 7.15569e-13 7.15574e-13 7.15564e-13 7.15554e-13 7.15551e-13 7.15545e-13 7.15491e-13 7.1557e-13 7.8357e-13 1.49217e-10
          3.49373e-07 5.45035e-07 9.36296e-07 1.84915e-06 9.33808e-12 9.18445e-12
        </DataArray>
        <DataArray type="Float32" Name="m^w_nanoAu" NumberOfComponents="1" format="ascii">
          2.72852e-15 2.73287e-15 2.73263e-15 2.73258e-15 2.73282e-15 2.73222e-15 2.73262e-15 2.73266e-15 2.73262e-15 2.73259e-15 2.73278e-15 2.73256e-15
          2.73254e-15 2.73261e-15 2.73257e-15 2.73259e-15 2.73256e-15 2.73253e-15 2.73254e-15 2.73273e-15 2.75129e-15 4.48563e-15 1.65076e-13 1.5014e-11
          1.33829e-09 1.70133e-09 2.26801e-09 3.1831e-09 1.0478e-14 1.02003e-14
        </DataArray>
        <DataArray type="Float32" Name="m^w_cyanide" NumberOfComponents="1" format="ascii">
          0.194752 0.194752 0.194752 0.194752 0.194752 0.194752 0.194751 0.194751 0.194751 0.194751 0.194751 0.19475
          0.19475 0.19475 0.194749 0.194749 0.194748 0.194746 0.194745 0.194742 0.194738 0.194732 0.194722 0.194707
          0.194699 0.247344 0.329454 0.470451 0.748701 0.743957
        </DataArray>
        <DataArray type="Float32" Name="m^w_citrate" NumberOfComponents="1" format="ascii">
          0.749742 0.749742 0.749742 0.749742 0.749742 0.749742 0.749742 0.749741 0.749741 0.749741 0.749741 0.749741
          0.749741 0.74974 0.74974 0.749739 0.749739 0.749737 0.749736 0.749733 0.749729 0.749723 0.749713 0.749698
          0.749672 0.749631 0.749548 0.74935 0.748704 0.743958
        </DataArray>
        <DataArray type="Float32" Name="m^w_substrate" NumberOfComponents="1" format="ascii">
          1.50652e-09 2.31405e-09 3.55412e-09 5.4582e-09 8.3816e-09 1.28696e-08 1.97588e-08 3.03333e-08 4.65628e-08 7.147e-08 1.09692e-07 1.68346e-07
          2.58353e-07 3.96483e-07 6.085e-07 9.34042e-07 1.43421e-06 2.2035e-06 3.38888e-06 5.22093e-06 8.06641e-06 1.25215e-05 1.95875e-05 3.10312e-05
          5.02026e-05 8.41521e-05 0.000150174 0.00030185 0.000786869 0.00429918
        </DataArray>
        <DataArray type="Float32" Name="process rank" NumberOfComponents="1" format="ascii">
          0 0 0 0 0 0 0 0 0 0 0 0
          0 0 0 0 0 0 0 0 0 0 0 0
          0 0 0 0 0 0
        </DataArray>
      </CellData>
      <Points>
        <DataArray type="Float32" Name="Coordinates" NumberOfComponents="3" format="ascii">
          0 0 0 0.5 0 0 0 0.0333333 0 0.5 0.0333333 0
          0 0.0666667 0 0.5 0.0666667 0 0 0.1 0 0.5 0.1 0
          0 0.133333 0 0.5 0.133333 0 0 0.166667 0 0.5 0.166667 0
          0 0.2 0 0.5 0.2 0 0 0.233333 0 0.5 0.233333 0
          0 0.266667 0 0.5 0.266667 0 0 0.3 0 0.5 0.3 0
          0 0.333333 0 0.5 0.333333 0 0 0.366667 0 0.5 0.366667 0
          0 0.4 0 0.5 0.4 0 0 0.433333 0 0.5 0.433333 0
          0 0.466667 0 0.5 0.466667 0 0 0.5 0 0.5 0.5 0
          0 0.533333 0 0.5 0.533333 0 0 0.566667 0 0.5 0.566667 0
          0 0.6 0 0.5 0.6 0 0 0.633333 0 0.5 0.633333 0
          0 0.666667 0 0.5 0.666667 0 0 0.7 0 0.5 0.7 0
          0 0.733333 0 0.5 0.733333 0 0 0.766667 0 0.5 0.766667 0
          0 0.8 0 0.5 0.8 0 0 0.833333 0 0.5 0.833333 0
          0 0.866667 0 0.5 0.866667 0 0 0.9 0 0.5 0.9 0
          0 0.933333 0 0.5 0.933333 0 0 0.966667 0 0.5 0.966667 0
          0 1 0 0.5 1 0
        </DataArray>
      </Points>
      <Cells>
        <DataArray type="Int32" Name="connectivity" NumberOfComponents="1" format="ascii">
          0 1 3 2 2 3 5 4 4 5 7 6
          6 7 9 8 8 9 11 10 10 11 13 12
          12 13 15 14 14 15 17 16 16 17 19 18
          18 19 21 20 20 21 23 22 22 23 25 24
          24 25 27 26 26 27 29 28 28 29 31 30
          30 31 33 32 32 33 35 34 34 35 37 36
          36 37 39 38 38 39 41 40 40 41 43 42
          42 43 45 44 44 45 47 46 46 47 49 48
          48 49 51 50 50 51 53 52 52 53 55 54
          54 55 57 56 56 57 59 58 58 59 61 60
        </DataArray>
        <DataArray type="Int32" Name="offsets" NumberOfComponents="1" format="ascii">
          4 8 12 16 20 24 28 32 36 40 44 48
          52 56 60 64 68 72 76 80 84 88 92 96
          100 104 108 112 116 120
        </DataArray>
        <DataArray type="UInt8" Name="types" NumberOfComponents="1" format="ascii">
          9 9 9 9 9 9 9 9 9 9 9 9
          9 9 9 9 9 9 9 9 9 9 9 9
          9 9 9 9 9 9
        </DataArray>
      </Cells>
    </Piece>
  </UnstructuredGrid>
</VTKFile>
