<?xml version="1.0"?>
<VTKFile type="UnstructuredGrid" version="0.1" byte_order="LittleEndian">
  <UnstructuredGrid>
    <Piece NumberOfCells="30" NumberOfPoints="62">
      <CellData Scalars="Sg">
        <DataArray type="Float32" Name="Sg" NumberOfComponents="1" format="ascii">
          0 0 0 0 0 0 0 0 0 0 0 0
          0 0 0 0 0 0 0 0 0 0 0 0
          0 0 0 0 0 0
        </DataArray>
        <DataArray type="Float32" Name="Sl" NumberOfComponents="1" format="ascii">
          1 1 1 1 1 1 1 1 1 1 1 1
          1 1 1 1 1 1 1 1 1 1 1 1
          1 1 1 1 1 1
        </DataArray>
        <DataArray type="Float32" Name="pg" NumberOfComponents="1" format="ascii">
          24687.8 24360.9 24034 23707 23380.1 23053.1 22726.2 22399.3 22072.3 21745.4 21418.4 21091.5
          20764.6 20437.6 20110.7 19783.7 19456.8 19129.8 18802.9 18476 18149 17822.1 17495.1 17168.2
          16841.3 16514.3 16187.4 15860.4 15533.5 15206.6
        </DataArray>
        <DataArray type="Float32" Name="pl" NumberOfComponents="1" format="ascii">
          110628 110301 109974 109647 109320 108993 108666 108339 108012 107685 107358 107031
          106704 106377 106050 105723 105396 105070 104743 104416 104089 103762 103435 103108
          102781 102454 102127 101800 101473 101146
        </DataArray>
        <DataArray type="Float32" Name="pc" NumberOfComponents="1" format="ascii">
          -85939.7 -85939.7 -85939.7 -85939.7 -85939.7 -85939.7 -85939.7 -85939.7 -85939.7 -85939.7 -85939.7 -85939.7
          -85939.7 -85939.7 -85939.7 -85939.7 -85939.7 -85939.7 -85939.7 -85939.7 -85939.7 -85939.7 -85939.7 -85939.7
          -85939.7 -85939.7 -85939.7 -85939.7 -85939.7 -85939.7
        </DataArray>
        <DataArray type="Float32" Name="rhoL" NumberOfComponents="1" format="ascii">
          999.855 999.855 999.855 999.855 999.855 999.854 999.854 999.854 999.854 999.854 999.854 999.854
          999.853 999.853 999.853 999.853 999.853 999.853 999.852 999.852 999.852 999.852 999.852 999.852
          999.852 999.851 999.851 999.851 999.851 999.851
        </DataArray>
        <DataArray type="Float32" Name="rhoG" NumberOfComponents="1" format="ascii">
          0.30585 0.3018 0.29775 0.293699 0.289649 0.285598 0.281548 0.277498 0.273447 0.269397 0.265347 0.261296
          0.257246 0.253195 0.249145 0.245095 0.241044 0.236994 0.232944 0.228893 0.224843 0.220793 0.216742 0.212692
          0.208641 0.204591 0.200541 0.19649 0.19244 0.18839
        </DataArray>
        <DataArray type="Float32" Name="mobL" NumberOfComponents="1" format="ascii">
          722.171 722.17 722.17 722.17 722.17 722.17 722.169 722.169 722.169 722.169 722.169 722.169
          722.168 722.168 722.168 722.168 722.168 722.167 722.167 722.167 722.167 722.167 722.166 722.166
          722.166 722.166 722.166 722.166 722.165 722.165
        </DataArray>
        <DataArray type="Float32" Name="mobG" NumberOfComponents="1" format="ascii">
          0 0 0 0 0 0 0 0 0 0 0 0
          0 0 0 0 0 0 0 0 0 0 0 0
          0 0 0 0 0 0
        </DataArray>
        <DataArray type="Float32" Name="porosity" NumberOfComponents="1" format="ascii">
          0.299648 0.299648 0.299648 0.299648 0.299648 0.299648 0.299648 0.299648 0.299648 0.299648 0.299648 0.299648
          0.299648 0.299648 0.299648 0.299647 0.299646 0.299645 0.299643 0.29964 0.299635 0.299627 0.299613 0.29959
          0.29928 0.299206 0.29905 0.298628 0.296765 0.197666
        </DataArray>
        <DataArray type="Float32" Name="temperature" NumberOfComponents="1" format="ascii">
          281.15 281.15 281.15 281.15 281.15 281.15 281.15 281.15 281.15 281.15 281.15 281.15
          281.15 281.15 281.15 281.15 281.15 281.15 281.15 281.15 281.15 281.15 281.15 281.15
          281.15 281.15 281.15 281.15 281.15 281.15
        </DataArray>
        <DataArray type="Float32" Name="phase presence" NumberOfComponents="1" format="ascii">
          1 1 1 1 1 1 1 1 1 1 1 1
          1 1 1 1 1 1 1 1 1 1 1 1
          1 1 1 1 1 1
        </DataArray>
        <DataArray type="Float32" Name="precipitateVolumeFraction_au" NumberOfComponents="1" format="ascii">
          5.51904e-10 5.52794e-10 5.52746e-10 5.52735e-10 5.52788e-10 5.52664e-10 5.52747e-10 5.52755e-10 5.52749e-10 5.52743e-10 5.52782e-10 5.52739e-10
          5.52736e-10 5.52752e-10 5.52744e-10 5.52751e-10 5.52748e-10 5.52747e-10 5.52754e-10 5.52763e-10 5.52742e-10 5.52769e-10 5.53046e-10 1.265e-09
          0.000269941 0.000269925 0.0002699 0.000269851 5.5229e-10 5.51166e-10
        </DataArray>
        <DataArray type="Float32" Name="precipitateVolumeFraction_nanoAu" NumberOfComponents="1" format="ascii">
          1.2339e-13 1.23589e-13 1.23578e-13 1.23576e-13 1.23587e-13 1.2356e-13 1.23578e-13 1.2358e-13 1.23578e-13 1.23577e-13 1.23586e-13 1.23576e-13
          1.23575e-13 1.23579e-13 1.23577e-13 1.23578e-13 1.23577e-13 1.23576e-13 1.23576e-13 1.23576e-13 1.23569e-13 1.23588e-13 1.35538e-13 2.58257e-11
          6.035e-08 7.66754e-08 1.02152e-07 1.45623e-07 4.74813e-13 4.70451e-13
        </DataArray>
        <DataArray type="Float32" Name="precipitateVolumeFraction_d" NumberOfComponents="1" format="ascii">
          0.000175858 0.000175858 0.000175858 0.000175859 0.00017586 0.000175862 0.000175864 0.000175868 0.000175875 0.000175887 0.000175905 0.000175936
          0.000175986 0.000176068 0.000176203 0.000176422 0.000176781 0.000177366 0.000178319 0.000179869 0.000182394 0.000186524 0.000193341 0.000204808
          0.00022478 0.000261938 0.000339997 0.000550902 0.00161759 0.051167
        </DataArray>
        <DataArray type="Float32" Name="precipitateVolumeFraction_p" NumberOfComponents="1" format="ascii">
          0.000175858 0.000175858 0.000175858 0.000175859 0.00017586 0.000175862 0.000175864 0.000175868 0.000175875 0.000175887 0.000175905 0.000175936
          0.000175986 0.000176068 0.000176203 0.000176422 0.000176781 0.000177366 0.000178319 0.000179869 0.000182394 0.000186524 0.000193341 0.000204808
          0.00022478 0.000261938 0.000339997 0.000550902 0.00161759 0.051167
        </DataArray>
        <DataArray type="Float32" Name="K" NumberOfComponents="1" format="ascii">
          9.95486e-11 9.95486e-11 9.95486e-11 9.95486e-11 9.95486e-11 9.95486e-11 9.95486e-11 9.95486e-11 9.95486e-11 9.95486e-11 9.95485e-11 9.95484e-11
          9.95483e-11 9.95481e-11 9.95478e-11 9.95472e-11 9.95463e-11 9.95448e-11 9.95423e-11 9.95384e-11 9.95319e-11 9.95213e-11 9.95038e-11 9.94745e-11
          9.90784e-11 9.89836e-11 9.87847e-11 9.8249e-11 9.5911e-11 2.17729e-11
        </DataArray>
        <DataArray type="Float32" Name="X^w_H2O" NumberOfComponents="1" format="ascii">
          0.999853 0.999853 0.999853 0.999853 0.999853 0.999853 0.999853 0.999853 0.999853 0.999853 0.999853 0.999853
          0.999853 0.999853 0.999853 0.999853 0.999853 0.999853 0.999853 0.999853 0.999853 0.999853 0.999853 0.999853
          0.999853 0.999852 0.99985 0.999846 0.999839 0.999839
        </DataArray>
        <DataArray type="Float32" Name="X^w_Air" NumberOfComponents="1" format="ascii">
          0 0 0 0 0 0 0 0 0 0 0 0
          0 0 0 0 0 0 0 0 0 0 0 0
          0 0 0 0 0 0
        </DataArray>
        <DataArray type="Float32" Name="X^w_AuComplex" NumberOfComponents="1" format="ascii">
          1.40712e-16 1.40939e-16 1.40927e-16 1.40924e-16 1.40938e-16 1.40906e-16 1.40927e-16 1.40929e-16 1.40928e-16 1.40926e-16 1.40936e-16 1.40925e-16
          1.40924e-16 1.40928e-16 1.40925e-16 1.40926e-16 1.40924e-16 1.40922e-16 1.40922e-16 1.40921e-16 1.4091e-16 1.40926e-16 1.54355e-16 2.94296e-14
          6.88082e-11 1.07347e-10 1.84421e-10 3.64277e-10 1.8402e-15 1.81214e-15
        </DataArray>
        <DataArray type="Float32" Name="X^w_nanoAu" NumberOfComponents="1" format="ascii">
          5.37415e-19 5.38271e-19 5.38225e-19 5.38215e-19 5.38264e-19 5.38146e-19 5.38226e-19 5.38233e-19 5.38227e-19 5.38222e-19 5.38259e-19 5.38216e-19
          5.38213e-19 5.38227e-19 5.38219e-19 5.38223e-19 5.38217e-19 5.38212e-19 5.38214e-19 5.38252e-19 5.41906e-19 8.83385e-19 3.25073e-17 2.95704e-15
          2.63602e-13 3.35119e-13 4.46767e-13 6.27095e-13 2.06487e-18 2.01279e-18
        </DataArray>
        <DataArray type="Float32" Name="X^w_cyanide" NumberOfComponents="1" format="ascii">
          5.0674e-06 5.0674e-06 5.0674e-06 5.0674e-06 5.0674e-06 5.0674e-06 5.0674e-06 5.0674e-06 5.0674e-06 5.0674e-06 5.0674e-06 5.06739e-06
          5.06739e-06 5.06739e-06 5.06738e-06 5.06736e-06 5.06734e-06 5.06731e-06 5.06727e-06 5.0672e-06 5.06709e-06 5.06693e-06 5.06669e-06 5.06629e-06
          5.06615e-06 6.43611e-06 8.57298e-06 1.22429e-05 1.94871e-05 1.93757e-05
        </DataArray>
        <DataArray type="Float32" Name="X^w_citrate" NumberOfComponents="1" format="ascii">
          0.000141796 0.000141796 0.000141796 0.000141796 0.000141796 0.000141796 0.000141796 0.000141796 0.000141796 0.000141796 0.000141796 0.000141796
          0.000141796 0.000141796 0.000141796 0.000141796 0.000141796 0.000141795 0.000141795 0.000141795 0.000141794 0.000141793 0.000141791 0.000141788
          0.000141783 0.000141776 0.000141762 0.000141729 0.000141622 0.000140812
        </DataArray>
        <DataArray type="Float32" Name="X^w_substrate" NumberOfComponents="1" format="ascii">
          5.1137e-13 7.65007e-13 1.14434e-12 1.71161e-12 2.55985e-12 3.8281e-12 5.72419e-12 8.55866e-12 1.27956e-11 1.91284e-11 2.85935e-11 4.27396e-11
          6.38819e-11 9.54827e-11 1.42724e-10 2.13373e-10 3.19095e-10 4.77475e-10 7.15181e-10 1.07303e-09 1.61445e-09 2.44022e-09 3.71623e-09 5.72987e-09
          9.01765e-09 1.46947e-08 2.54715e-08 4.97115e-08 1.26341e-07 6.97785e-07
        </DataArray>
        <DataArray type="Float32" Name="m^w_H2O" NumberOfComponents="1" format="ascii">
          55492.6 55492.6 55492.5 55492.5 55492.5 55492.5 55492.5 55492.5 55492.5 55492.5 55492.5 55492.5
          55492.5 55492.4 55492.4 55492.4 55492.4 55492.4 55492.4 55492.4 55492.4 55492.4 55492.4 55492.4
          55492.3 55492.3 55492.1 55491.9 55491.5 55491.5
        </DataArray>
        <DataArray type="Float32" Name="m^w_Air" NumberOfComponents="1" format="ascii">
          0 0 0 0 0 0 0 0 0 0 0 0
          0 0 0 0 0 0 0 0 0 0 0 0
          0 0 0 0 0 0
        </DataArray>
        <DataArray type="Float32" Name="m^w_AuComplex" NumberOfComponents="1" format="ascii">
          7.14282e-13 7.15433e-13 7.1537e-13 7.15356e-13 7.15424e-13 7.15264e-13 7.15372e-13 7.15381e-13 7.15373e-13 7.15365e-13 7.15415e-13 7.15358e-13
          7.15354e-13 7.15372e-13 7.1536e-13 7.15365e-13 7.15355e-13 7.15346e-13 7.15343e-13 7.15336e-13 7.15283e-13 7.15362e-13 7.83531e-13 1.49389e-10
          3.49281e-07 5.44911e-07 9.36149e-07 1.84913e-06 9.34113e-12 9.19871e-12
        </DataArray>
        <DataArray type="Float32" Name="m^w_nanoAu" NumberOfComponents="1" format="ascii">
          2.72802e-15 2.73236e-15 2.73212e-15 2.73207e-15 2.73232e-15 2.73172e-15 2.73213e-15 2.73216e-15 2.73213e-15 2.73211e-15 2.73229e-15 2.73208e-15
          2.73206e-15 2.73213e-15 2.73209e-15 2.73211e-15 2.73208e-15 2.73206e-15 2.73206e-15 2.73226e-15 2.7508e-15 4.48421e-15 1.65012e-13 1.50104e-11
          1.33809e-09 1.70112e-09 2.26786e-09 3.18323e-09 1.04816e-14 1.02172e-14
        </DataArray>
        <DataArray type="Float32" Name="m^w_cyanide" NumberOfComponents="1" format="ascii">
          0.194722 0.194722 0.194722 0.194722 0.194722 0.194722 0.194722 0.194722 0.194722 0.194722 0.194722 0.194721
          0.194721 0.194721 0.194721 0.19472 0.194719 0.194718 0.194716 0.194714 0.19471 0.194703 0.194694 0.194679
          0.194673 0.247316 0.329427 0.470448 0.748817 0.744533
        </DataArray>
        <DataArray type="Float32" Name="m^w_citrate" NumberOfComponents="1" format="ascii">
          0.749742 0.749742 0.749742 0.749742 0.749742 0.749742 0.749742 0.749741 0.749741 0.749741 0.749741 0.749741
          0.74974 0.74974 0.74974 0.749739 0.749738 0.749737 0.749735 0.749732 0.749728 0.749722 0.749712 0.749697
          0.749672 0.749634 0.74956 0.749385 0.74882 0.744535
        </DataArray>
        <DataArray type="Float32" Name="m^w_substrate" NumberOfComponents="1" format="ascii">
          2.83801e-09 4.24565e-09 6.35088e-09 9.49912e-09 1.42067e-08 2.12453e-08 3.17682e-08 4.74989e-08 7.10131e-08 1.06159e-07 1.58689e-07 2.37197e-07
          3.54532e-07 5.2991e-07 7.92092e-07 1.18418e-06 1.77091e-06 2.64989e-06 3.96911e-06 5.95512e-06 8.95986e-06 1.35427e-05 2.06244e-05 3.17996e-05
          5.00461e-05 8.15525e-05 0.000141362 0.000275889 0.000701165 0.00387256
        </DataArray>
        <DataArray type="Float32" Name="process rank" NumberOfComponents="1" format="ascii">
          0 0 0 0 0 0 0 0 0 0 0 0
          0 0 0 0 0 0 0 0 0 0 0 0
          0 0 0 0 0 0
        </DataArray>
      </CellData>
      <Points>
        <DataArray type="Float32" Name="Coordinates" NumberOfComponents="3" format="ascii">
          0 0 0 0.5 0 0 0 0.0333333 0 0.5 0.0333333 0
          0 0.0666667 0 0.5 0.0666667 0 0 0.1 0 0.5 0.1 0
          0 0.133333 0 0.5 0.133333 0 0 0.166667 0 0.5 0.166667 0
          0 0.2 0 0.5 0.2 0 0 0.233333 0 0.5 0.233333 0
          0 0.266667 0 0.5 0.266667 0 0 0.3 0 0.5 0.3 0
          0 0.333333 0 0.5 0.333333 0 0 0.366667 0 0.5 0.366667 0
          0 0.4 0 0.5 0.4 0 0 0.433333 0 0.5 0.433333 0
          0 0.466667 0 0.5 0.466667 0 0 0.5 0 0.5 0.5 0
          0 0.533333 0 0.5 0.533333 0 0 0.566667 0 0.5 0.566667 0
          0 0.6 0 0.5 0.6 0 0 0.633333 0 0.5 0.633333 0
          0 0.666667 0 0.5 0.666667 0 0 0.7 0 0.5 0.7 0
          0 0.733333 0 0.5 0.733333 0 0 0.766667 0 0.5 0.766667 0
          0 0.8 0 0.5 0.8 0 0 0.833333 0 0.5 0.833333 0
          0 0.866667 0 0.5 0.866667 0 0 0.9 0 0.5 0.9 0
          0 0.933333 0 0.5 0.933333 0 0 0.966667 0 0.5 0.966667 0
          0 1 0 0.5 1 0
        </DataArray>
      </Points>
      <Cells>
        <DataArray type="Int32" Name="connectivity" NumberOfComponents="1" format="ascii">
          0 1 3 2 2 3 5 4 4 5 7 6
          6 7 9 8 8 9 11 10 10 11 13 12
          12 13 15 14 14 15 17 16 16 17 19 18
          18 19 21 20 20 21 23 22 22 23 25 24
          24 25 27 26 26 27 29 28 28 29 31 30
          30 31 33 32 32 33 35 34 34 35 37 36
          36 37 39 38 38 39 41 40 40 41 43 42
          42 43 45 44 44 45 47 46 46 47 49 48
          48 49 51 50 50 51 53 52 52 53 55 54
          54 55 57 56 56 57 59 58 58 59 61 60
        </DataArray>
        <DataArray type="Int32" Name="offsets" NumberOfComponents="1" format="ascii">
          4 8 12 16 20 24 28 32 36 40 44 48
          52 56 60 64 68 72 76 80 84 88 92 96
          100 104 108 112 116 120
        </DataArray>
        <DataArray type="UInt8" Name="types" NumberOfComponents="1" format="ascii">
          9 9 9 9 9 9 9 9 9 9 9 9
          9 9 9 9 9 9 9 9 9 9 9 9
          9 9 9 9 9 9
        </DataArray>
      </Cells>
    </Piece>
  </UnstructuredGrid>
</VTKFile>
