<?xml version="1.0"?>
<VTKFile type="UnstructuredGrid" version="0.1" byte_order="LittleEndian">
  <UnstructuredGrid>
    <Piece NumberOfCells="30" NumberOfPoints="62">
      <CellData Scalars="Sg">
        <DataArray type="Float32" Name="Sg" NumberOfComponents="1" format="ascii">
          0 0 0 0 0 0 0 0 0 0 0 0
          0 0 0 0 0 0 0 0 0 0 0 0
          0 0 0 0 0 0
        </DataArray>
        <DataArray type="Float32" Name="Sl" NumberOfComponents="1" format="ascii">
          1 1 1 1 1 1 1 1 1 1 1 1
          1 1 1 1 1 1 1 1 1 1 1 1
          1 1 1 1 1 1
        </DataArray>
        <DataArray type="Float32" Name="pg" NumberOfComponents="1" format="ascii">
          24687.8 24360.9 24034 23707 23380.1 23053.1 22726.2 22399.3 22072.3 21745.4 21418.4 21091.5
          20764.6 20437.6 20110.7 19783.7 19456.8 19129.8 18802.9 18476 18149 17822.1 17495.1 17168.2
          16841.3 16514.3 16187.4 15860.4 15533.5 15206.6
        </DataArray>
        <DataArray type="Float32" Name="pl" NumberOfComponents="1" format="ascii">
          110628 110301 109974 109647 109320 108993 108666 108339 108012 107685 107358 107031
          106704 106377 106050 105723 105396 105070 104743 104416 104089 103762 103435 103108
          102781 102454 102127 101800 101473 101146
        </DataArray>
        <DataArray type="Float32" Name="pc" NumberOfComponents="1" format="ascii">
          -85939.7 -85939.7 -85939.7 -85939.7 -85939.7 -85939.7 -85939.7 -85939.7 -85939.7 -85939.7 -85939.7 -85939.7
          -85939.7 -85939.7 -85939.7 -85939.7 -85939.7 -85939.7 -85939.7 -85939.7 -85939.7 -85939.7 -85939.7 -85939.7
          -85939.7 -85939.7 -85939.7 -85939.7 -85939.7 -85939.7
        </DataArray>
        <DataArray type="Float32" Name="rhoL" NumberOfComponents="1" format="ascii">
          999.855 999.855 999.855 999.855 999.855 999.854 999.854 999.854 999.854 999.854 999.854 999.854
          999.853 999.853 999.853 999.853 999.853 999.853 999.852 999.852 999.852 999.852 999.852 999.852
          999.852 999.851 999.851 999.851 999.851 999.851
        </DataArray>
        <DataArray type="Float32" Name="rhoG" NumberOfComponents="1" format="ascii">
          0.30585 0.3018 0.29775 0.293699 0.289649 0.285598 0.281548 0.277498 0.273447 0.269397 0.265347 0.261296
          0.257246 0.253195 0.249145 0.245095 0.241044 0.236994 0.232944 0.228893 0.224843 0.220793 0.216742 0.212692
          0.208641 0.204591 0.200541 0.19649 0.19244 0.18839
        </DataArray>
        <DataArray type="Float32" Name="mobL" NumberOfComponents="1" format="ascii">
          722.171 722.17 722.17 722.17 722.17 722.17 722.169 722.169 722.169 722.169 722.169 722.169
          722.168 722.168 722.168 722.168 722.168 722.167 722.167 722.167 722.167 722.167 722.166 722.166
          722.166 722.166 722.166 722.166 722.165 722.165
        </DataArray>
        <DataArray type="Float32" Name="mobG" NumberOfComponents="1" format="ascii">
          0 0 0 0 0 0 0 0 0 0 0 0
          0 0 0 0 0 0 0 0 0 0 0 0
          0 0 0 0 0 0
        </DataArray>
        <DataArray type="Float32" Name="porosity" NumberOfComponents="1" format="ascii">
          0.299623 0.299623 0.299623 0.299623 0.299623 0.299623 0.299623 0.299623 0.299623 0.299623 0.299623 0.299622
          0.299622 0.299622 0.299622 0.299621 0.299621 0.29962 0.299618 0.299614 0.299609 0.2996 0.299586 0.299562
          0.29925 0.299173 0.299013 0.298586 0.296799 0.206239
        </DataArray>
        <DataArray type="Float32" Name="temperature" NumberOfComponents="1" format="ascii">
          281.15 281.15 281.15 281.15 281.15 281.15 281.15 281.15 281.15 281.15 281.15 281.15
          281.15 281.15 281.15 281.15 281.15 281.15 281.15 281.15 281.15 281.15 281.15 281.15
          281.15 281.15 281.15 281.15 281.15 281.15
        </DataArray>
        <DataArray type="Float32" Name="phase presence" NumberOfComponents="1" format="ascii">
          1 1 1 1 1 1 1 1 1 1 1 1
          1 1 1 1 1 1 1 1 1 1 1 1
          1 1 1 1 1 1
        </DataArray>
        <DataArray type="Float32" Name="precipitateVolumeFraction_au" NumberOfComponents="1" format="ascii">
          5.51904e-10 5.52794e-10 5.52746e-10 5.52735e-10 5.52788e-10 5.52664e-10 5.52747e-10 5.52755e-10 5.52749e-10 5.52743e-10 5.52782e-10 5.52739e-10
          5.52736e-10 5.52752e-10 5.52744e-10 5.52751e-10 5.52748e-10 5.52747e-10 5.52754e-10 5.52763e-10 5.52742e-10 5.52769e-10 5.52963e-10 1.08841e-09
          0.000269941 0.000269924 0.0002699 0.000269852 5.5229e-10 5.51171e-10
        </DataArray>
        <DataArray type="Float32" Name="precipitateVolumeFraction_nanoAu" NumberOfComponents="1" format="ascii">
          1.23409e-13 1.23608e-13 1.23597e-13 1.23594e-13 1.23606e-13 1.23578e-13 1.23597e-13 1.23598e-13 1.23597e-13 1.23595e-13 1.23604e-13 1.23594e-13
          1.23593e-13 1.23596e-13 1.23594e-13 1.23595e-13 1.23594e-13 1.23593e-13 1.23594e-13 1.23594e-13 1.23587e-13 1.23606e-13 1.35528e-13 2.57962e-11
          6.03577e-08 7.66837e-08 1.02159e-07 1.45624e-07 4.74742e-13 4.70106e-13
        </DataArray>
        <DataArray type="Float32" Name="precipitateVolumeFraction_d" NumberOfComponents="1" format="ascii">
          0.00018868 0.00018868 0.00018868 0.000188681 0.000188682 0.000188684 0.000188686 0.00018869 0.000188697 0.000188709 0.000188728 0.000188759
          0.00018881 0.000188895 0.000189034 0.000189261 0.000189634 0.000190243 0.000191236 0.000192855 0.000195495 0.000199816 0.000206949 0.000218935
          0.000239766 0.000278355 0.000358728 0.000572013 0.00160039 0.0468805
        </DataArray>
        <DataArray type="Float32" Name="precipitateVolumeFraction_p" NumberOfComponents="1" format="ascii">
          0.00018868 0.00018868 0.00018868 0.000188681 0.000188682 0.000188684 0.000188686 0.00018869 0.000188697 0.000188709 0.000188728 0.000188759
          0.00018881 0.000188895 0.000189034 0.000189261 0.000189634 0.000190243 0.000191236 0.000192855 0.000195495 0.000199816 0.000206949 0.000218935
          0.000239766 0.000278355 0.000358728 0.000572013 0.00160039 0.0468805
        </DataArray>
        <DataArray type="Float32" Name="K" NumberOfComponents="1" format="ascii">
          9.95158e-11 9.95158e-11 9.95158e-11 9.95158e-11 9.95158e-11 9.95158e-11 9.95158e-11 9.95158e-11 9.95157e-11 9.95157e-11 9.95157e-11 9.95156e-11
          9.95155e-11 9.95152e-11 9.95149e-11 9.95143e-11 9.95133e-11 9.95118e-11 9.95092e-11 9.95051e-11 9.94983e-11 9.94873e-11 9.9469e-11 9.94383e-11
          9.90401e-11 9.89417e-11 9.8737e-11 9.81955e-11 9.59537e-11 2.52677e-11
        </DataArray>
        <DataArray type="Float32" Name="X^w_H2O" NumberOfComponents="1" format="ascii">
          0.999853 0.999853 0.999853 0.999853 0.999853 0.999853 0.999853 0.999853 0.999853 0.999853 0.999853 0.999853
          0.999853 0.999853 0.999853 0.999853 0.999853 0.999853 0.999853 0.999853 0.999853 0.999853 0.999853 0.999853
          0.999853 0.999852 0.99985 0.999846 0.999839 0.999839
        </DataArray>
        <DataArray type="Float32" Name="X^w_Air" NumberOfComponents="1" format="ascii">
          0 0 0 0 0 0 0 0 0 0 0 0
          0 0 0 0 0 0 0 0 0 0 0 0
          0 0 0 0 0 0
        </DataArray>
        <DataArray type="Float32" Name="X^w_AuComplex" NumberOfComponents="1" format="ascii">
          1.40749e-16 1.40976e-16 1.40963e-16 1.4096e-16 1.40973e-16 1.40942e-16 1.40963e-16 1.40964e-16 1.40963e-16 1.40961e-16 1.40971e-16 1.40959e-16
          1.40958e-16 1.40962e-16 1.40959e-16 1.4096e-16 1.40958e-16 1.40956e-16 1.40956e-16 1.40955e-16 1.40944e-16 1.4096e-16 1.54359e-16 2.93988e-14
          6.88234e-11 1.07368e-10 1.84445e-10 3.64282e-10 1.8397e-15 1.80981e-15
        </DataArray>
        <DataArray type="Float32" Name="X^w_nanoAu" NumberOfComponents="1" format="ascii">
          5.37497e-19 5.38353e-19 5.38306e-19 5.38296e-19 5.38345e-19 5.38226e-19 5.38306e-19 5.38312e-19 5.38306e-19 5.383e-19 5.38337e-19 5.38294e-19
          5.38291e-19 5.38305e-19 5.38296e-19 5.383e-19 5.38294e-19 5.38289e-19 5.3829e-19 5.38329e-19 5.41985e-19 8.83619e-19 3.25178e-17 2.95764e-15
          2.63636e-13 3.35155e-13 4.46793e-13 6.27075e-13 2.06427e-18 2.01002e-18
        </DataArray>
        <DataArray type="Float32" Name="X^w_cyanide" NumberOfComponents="1" format="ascii">
          5.06806e-06 5.06805e-06 5.06805e-06 5.06805e-06 5.06804e-06 5.06804e-06 5.06804e-06 5.06803e-06 5.06803e-06 5.06803e-06 5.06802e-06 5.06802e-06
          5.06801e-06 5.068e-06 5.06799e-06 5.06798e-06 5.06796e-06 5.06793e-06 5.06788e-06 5.06781e-06 5.06771e-06 5.06755e-06 5.0673e-06 5.0669e-06
          5.06672e-06 6.43674e-06 8.57356e-06 1.2243e-05 1.94846e-05 1.93632e-05
        </DataArray>
        <DataArray type="Float32" Name="X^w_citrate" NumberOfComponents="1" format="ascii">
          0.000141796 0.000141796 0.000141796 0.000141796 0.000141796 0.000141796 0.000141796 0.000141796 0.000141796 0.000141796 0.000141796 0.000141796
          0.000141796 0.000141796 0.000141796 0.000141796 0.000141796 0.000141795 0.000141795 0.000141795 0.000141794 0.000141793 0.000141791 0.000141788
          0.000141783 0.000141776 0.00014176 0.000141724 0.000141604 0.000140721
        </DataArray>
        <DataArray type="Float32" Name="X^w_substrate" NumberOfComponents="1" format="ascii">
          2.8982e-13 4.43847e-13 6.79669e-13 1.04069e-12 1.59332e-12 2.43919e-12 3.73378e-12 5.71496e-12 8.7466e-12 1.33853e-11 2.04828e-11 3.13416e-11
          4.79554e-11 7.33759e-11 1.12278e-10 1.71833e-10 2.63062e-10 4.02961e-10 6.17889e-10 9.49081e-10 1.46196e-09 2.26257e-09 3.52866e-09 5.57315e-09
          8.9883e-09 1.50188e-08 2.67147e-08 5.35213e-08 1.39144e-07 7.61582e-07
        </DataArray>
        <DataArray type="Float32" Name="m^w_H2O" NumberOfComponents="1" format="ascii">
          55492.6 55492.6 55492.5 55492.5 55492.5 55492.5 55492.5 55492.5 55492.5 55492.5 55492.5 55492.5
          55492.5 55492.4 55492.4 55492.4 55492.4 55492.4 55492.4 55492.4 55492.4 55492.4 55492.4 55492.4
          55492.3 55492.3 55492.1 55491.9 55491.5 55491.5
        </DataArray>
        <DataArray type="Float32" Name="m^w_Air" NumberOfComponents="1" format="ascii">
          0 0 0 0 0 0 0 0 0 0 0 0
          0 0 0 0 0 0 0 0 0 0 0 0
          0 0 0 0 0 0
        </DataArray>
        <DataArray type="Float32" Name="m^w_AuComplex" NumberOfComponents="1" format="ascii">
          7.14466e-13 7.15618e-13 7.15554e-13 7.15539e-13 7.15606e-13 7.15444e-13 7.15551e-13 7.1556e-13 7.1555e-13 7.15542e-13 7.15591e-13 7.15533e-13
          7.15528e-13 7.15546e-13 7.15533e-13 7.15537e-13 7.15527e-13 7.15518e-13 7.15515e-13 7.15509e-13 7.15455e-13 7.15534e-13 7.83551e-13 1.49233e-10
          3.49359e-07 5.45016e-07 9.36274e-07 1.84916e-06 9.3386e-12 9.1869e-12
        </DataArray>
        <DataArray type="Float32" Name="m^w_nanoAu" NumberOfComponents="1" format="ascii">
          2.72843e-15 2.73278e-15 2.73254e-15 2.73249e-15 2.73273e-15 2.73213e-15 2.73253e-15 2.73257e-15 2.73253e-15 2.7325e-15 2.73269e-15 2.73247e-15
          2.73246e-15 2.73253e-15 2.73248e-15 2.7325e-15 2.73247e-15 2.73244e-15 2.73245e-15 2.73265e-15 2.7512e-15 4.4854e-15 1.65066e-13 1.50135e-11
          1.33826e-09 1.7013e-09 2.26799e-09 3.18313e-09 1.04786e-14 1.02032e-14
        </DataArray>
        <DataArray type="Float32" Name="m^w_cyanide" NumberOfComponents="1" format="ascii">
          0.194747 0.194747 0.194747 0.194747 0.194747 0.194746 0.194746 0.194746 0.194746 0.194746 0.194746 0.194745
          0.194745 0.194745 0.194744 0.194744 0.194743 0.194742 0.19474 0.194737 0.194733 0.194727 0.194718 0.194702
          0.194695 0.24734 0.32945 0.470451 0.748721 0.744055
        </DataArray>
        <DataArray type="Float32" Name="m^w_citrate" NumberOfComponents="1" format="ascii">
          0.749742 0.749742 0.749742 0.749742 0.749742 0.749742 0.749742 0.749741 0.749741 0.749741 0.749741 0.749741
          0.749741 0.74974 0.74974 0.749739 0.749739 0.749737 0.749736 0.749733 0.749729 0.749723 0.749713 0.749698
          0.749672 0.749632 0.74955 0.749357 0.748724 0.744056
        </DataArray>
        <DataArray type="Float32" Name="m^w_substrate" NumberOfComponents="1" format="ascii">
          1.60845e-09 2.46327e-09 3.77204e-09 5.77563e-09 8.84265e-09 1.35371e-08 2.07218e-08 3.17169e-08 4.8542e-08 7.42861e-08 1.13675e-07 1.7394e-07
          2.66143e-07 4.07222e-07 6.23122e-07 9.53639e-07 1.45994e-06 2.23635e-06 3.42916e-06 5.26721e-06 8.11357e-06 1.25568e-05 1.95834e-05 3.09298e-05
          4.98833e-05 8.33513e-05 0.000148261 0.000297032 0.000772222 0.00422662
        </DataArray>
        <DataArray type="Float32" Name="process rank" NumberOfComponents="1" format="ascii">
          0 0 0 0 0 0 0 0 0 0 0 0
          0 0 0 0 0 0 0 0 0 0 0 0
          0 0 0 0 0 0
        </DataArray>
      </CellData>
      <Points>
        <DataArray type="Float32" Name="Coordinates" NumberOfComponents="3" format="ascii">
          0 0 0 0.5 0 0 0 0.0333333 0 0.5 0.0333333 0
          0 0.0666667 0 0.5 0.0666667 0 0 0.1 0 0.5 0.1 0
          0 0.133333 0 0.5 0.133333 0 0 0.166667 0 0.5 0.166667 0
          0 0.2 0 0.5 0.2 0 0 0.233333 0 0.5 0.233333 0
          0 0.266667 0 0.5 0.266667 0 0 0.3 0 0.5 0.3 0
          0 0.333333 0 0.5 0.333333 0 0 0.366667 0 0.5 0.366667 0
          0 0.4 0 0.5 0.4 0 0 0.433333 0 0.5 0.433333 0
          0 0.466667 0 0.5 0.466667 0 0 0.5 0 0.5 0.5 0
          0 0.533333 0 0.5 0.533333 0 0 0.566667 0 0.5 0.566667 0
          0 0.6 0 0.5 0.6 0 0 0.633333 0 0.5 0.633333 0
          0 0.666667 0 0.5 0.666667 0 0 0.7 0 0.5 0.7 0
          0 0.733333 0 0.5 0.733333 0 0 0.766667 0 0.5 0.766667 0
          0 0.8 0 0.5 0.8 0 0 0.833333 0 0.5 0.833333 0
          0 0.866667 0 0.5 0.866667 0 0 0.9 0 0.5 0.9 0
          0 0.933333 0 0.5 0.933333 0 0 0.966667 0 0.5 0.966667 0
          0 1 0 0.5 1 0
        </DataArray>
      </Points>
      <Cells>
        <DataArray type="Int32" Name="connectivity" NumberOfComponents="1" format="ascii">
          0 1 3 2 2 3 5 4 4 5 7 6
          6 7 9 8 8 9 11 10 10 11 13 12
          12 13 15 14 14 15 17 16 16 17 19 18
          18 19 21 20 20 21 23 22 22 23 25 24
          24 25 27 26 26 27 29 28 28 29 31 30
          30 31 33 32 32 33 35 34 34 35 37 36
          36 37 39 38 38 39 41 40 40 41 43 42
          42 43 45 44 44 45 47 46 46 47 49 48
          48 49 51 50 50 51 53 52 52 53 55 54
          54 55 57 56 56 57 59 58 58 59 61 60
        </DataArray>
        <DataArray type="Int32" Name="offsets" NumberOfComponents="1" format="ascii">
          4 8 12 16 20 24 28 32 36 40 44 48
          52 56 60 64 68 72 76 80 84 88 92 96
          100 104 108 112 116 120
        </DataArray>
        <DataArray type="UInt8" Name="types" NumberOfComponents="1" format="ascii">
          9 9 9 9 9 9 9 9 9 9 9 9
          9 9 9 9 9 9 9 9 9 9 9 9
          9 9 9 9 9 9
        </DataArray>
      </Cells>
    </Piece>
  </UnstructuredGrid>
</VTKFile>
