<?xml version="1.0"?>
<VTKFile type="UnstructuredGrid" version="0.1" byte_order="LittleEndian">
  <UnstructuredGrid>
    <Piece NumberOfCells="30" NumberOfPoints="62">
      <CellData Scalars="Sg">
        <DataArray type="Float32" Name="Sg" NumberOfComponents="1" format="ascii">
          0 0 0 0 0 0 0 0 0 0 0 0
          0 0 0 0 0 0 0 0 0 0 0 0
          0 0 0 0 0 0
        </DataArray>
        <DataArray type="Float32" Name="Sl" NumberOfComponents="1" format="ascii">
          1 1 1 1 1 1 1 1 1 1 1 1
          1 1 1 1 1 1 1 1 1 1 1 1
          1 1 1 1 1 1
        </DataArray>
        <DataArray type="Float32" Name="pg" NumberOfComponents="1" format="ascii">
          24687.8 24360.9 24034 23707 23380.1 23053.1 22726.2 22399.3 22072.3 21745.4 21418.4 21091.5
          20764.6 20437.6 20110.7 19783.7 19456.8 19129.8 18802.9 18476 18149 17822.1 17495.1 17168.2
          16841.3 16514.3 16187.4 15860.4 15533.5 15209.6
        </DataArray>
        <DataArray type="Float32" Name="pl" NumberOfComponents="1" format="ascii">
          110628 110301 109974 109647 109320 108993 108666 108339 108012 107685 107358 107031
          106704 106377 106050 105723 105396 105070 104743 104416 104089 103762 103435 103108
          102781 102454 102127 101800 101473 101149
        </DataArray>
        <DataArray type="Float32" Name="pc" NumberOfComponents="1" format="ascii">
          -85939.7 -85939.7 -85939.7 -85939.7 -85939.7 -85939.7 -85939.7 -85939.7 -85939.7 -85939.7 -85939.7 -85939.7
          -85939.7 -85939.7 -85939.7 -85939.7 -85939.7 -85939.7 -85939.7 -85939.7 -85939.7 -85939.7 -85939.7 -85939.7
          -85939.7 -85939.7 -85939.7 -85939.7 -85939.7 -85939.7
        </DataArray>
        <DataArray type="Float32" Name="rhoL" NumberOfComponents="1" format="ascii">
          999.855 999.855 999.855 999.855 999.855 999.854 999.854 999.854 999.854 999.854 999.854 999.854
          999.853 999.853 999.853 999.853 999.853 999.853 999.852 999.852 999.852 999.852 999.852 999.852
          999.852 999.851 999.851 999.851 999.851 999.851
        </DataArray>
        <DataArray type="Float32" Name="rhoG" NumberOfComponents="1" format="ascii">
          0.30585 0.3018 0.29775 0.293699 0.289649 0.285598 0.281548 0.277498 0.273447 0.269397 0.265347 0.261296
          0.257246 0.253195 0.249145 0.245095 0.241044 0.236994 0.232944 0.228893 0.224843 0.220793 0.216742 0.212692
          0.208641 0.204591 0.200541 0.19649 0.19244 0.188428
        </DataArray>
        <DataArray type="Float32" Name="mobL" NumberOfComponents="1" format="ascii">
          722.171 722.17 722.17 722.17 722.17 722.17 722.169 722.169 722.169 722.169 722.169 722.169
          722.168 722.168 722.168 722.168 722.168 722.167 722.167 722.167 722.167 722.167 722.166 722.166
          722.166 722.166 722.166 722.166 722.165 722.165
        </DataArray>
        <DataArray type="Float32" Name="mobG" NumberOfComponents="1" format="ascii">
          0 0 0 0 0 0 0 0 0 0 0 0
          0 0 0 0 0 0 0 0 0 0 0 0
          0 0 0 0 0 0
        </DataArray>
        <DataArray type="Float32" Name="porosity" NumberOfComponents="1" format="ascii">
          0.298864 0.298864 0.298864 0.298864 0.298864 0.298863 0.298863 0.298862 0.29886 0.298859 0.298856 0.298853
          0.298849 0.298843 0.298835 0.298824 0.298809 0.298789 0.298762 0.298725 0.298674 0.298602 0.298498 0.298344
          0.297829 0.297405 0.29655 0.294267 0.282796 0.0447572
        </DataArray>
        <DataArray type="Float32" Name="temperature" NumberOfComponents="1" format="ascii">
          281.15 281.15 281.15 281.15 281.15 281.15 281.15 281.15 281.15 281.15 281.15 281.15
          281.15 281.15 281.15 281.15 281.15 281.15 281.15 281.15 281.15 281.15 281.15 281.15
          281.15 281.15 281.15 281.15 281.15 281.15
        </DataArray>
        <DataArray type="Float32" Name="phase presence" NumberOfComponents="1" format="ascii">
          1 1 1 1 1 1 1 1 1 1 1 1
          1 1 1 1 1 1 1 1 1 1 1 1
          1 1 1 1 1 1
        </DataArray>
        <DataArray type="Float32" Name="precipitateVolumeFraction_au" NumberOfComponents="1" format="ascii">
          5.52636e-10 5.52777e-10 5.52753e-10 5.52763e-10 5.52761e-10 5.52757e-10 5.52747e-10 5.52748e-10 5.52737e-10 5.52747e-10 5.52743e-10 5.52644e-10
          5.52806e-10 5.52746e-10 5.52748e-10 5.52704e-10 5.52732e-10 5.52748e-10 5.52717e-10 5.52718e-10 5.52721e-10 5.52739e-10 5.53046e-10 1.32236e-09
          0.000269941 0.000269925 0.0002699 0.000269851 5.52222e-10 5.5124e-10
        </DataArray>
        <DataArray type="Float32" Name="precipitateVolumeFraction_nanoAu" NumberOfComponents="1" format="ascii">
          1.23627e-13 1.23659e-13 1.23653e-13 1.23655e-13 1.23655e-13 1.23654e-13 1.23652e-13 1.23652e-13 1.23649e-13 1.23651e-13 1.2365e-13 1.23628e-13
          1.23663e-13 1.23649e-13 1.23649e-13 1.23637e-13 1.23642e-13 1.23643e-13 1.23633e-13 1.23629e-13 1.23623e-13 1.23636e-13 1.3675e-13 2.7171e-11
          6.03625e-08 7.66848e-08 1.0215e-07 1.45564e-07 4.74202e-13 4.67192e-13
        </DataArray>
        <DataArray type="Float32" Name="precipitateVolumeFraction_d" NumberOfComponents="1" format="ascii">
          0.000567753 0.000567811 0.000567893 0.000568008 0.000568168 0.000568394 0.000568709 0.000569147 0.000569756 0.000570599 0.000571761 0.000573356
          0.000575538 0.000578511 0.000582549 0.000588019 0.000595422 0.000605442 0.00061904 0.000637606 0.000663218 0.00069914 0.000750817 0.000828054
          0.000950366 0.00116256 0.00158999 0.00273158 0.00860222 0.127621
        </DataArray>
        <DataArray type="Float32" Name="precipitateVolumeFraction_p" NumberOfComponents="1" format="ascii">
          0.000567753 0.000567811 0.000567893 0.000568008 0.000568168 0.000568394 0.000568709 0.000569147 0.000569756 0.000570599 0.000571761 0.000573356
          0.000575538 0.000578511 0.000582549 0.000588019 0.000595422 0.000605442 0.00061904 0.000637606 0.000663218 0.00069914 0.000750817 0.000828054
          0.000950366 0.00116256 0.00158999 0.00273158 0.00860222 0.127621
        </DataArray>
        <DataArray type="Float32" Name="K" NumberOfComponents="1" format="ascii">
          9.85488e-11 9.85487e-11 9.85484e-11 9.85482e-11 9.85477e-11 9.85472e-11 9.85464e-11 9.85453e-11 9.85437e-11 9.85416e-11 9.85386e-11 9.85346e-11
          9.8529e-11 9.85215e-11 9.85112e-11 9.84973e-11 9.84785e-11 9.84531e-11 9.84186e-11 9.83715e-11 9.83065e-11 9.82155e-11 9.80846e-11 9.78893e-11
          9.72409e-11 9.67089e-11 9.56444e-11 9.28486e-11 7.97929e-11 1.78317e-13
        </DataArray>
        <DataArray type="Float32" Name="X^w_H2O" NumberOfComponents="1" format="ascii">
          0.999853 0.999853 0.999853 0.999853 0.999853 0.999853 0.999853 0.999853 0.999853 0.999853 0.999853 0.999853
          0.999853 0.999853 0.999853 0.999853 0.999853 0.999853 0.999853 0.999853 0.999853 0.999853 0.999853 0.999853
          0.999853 0.999852 0.99985 0.999846 0.999839 0.99984
        </DataArray>
        <DataArray type="Float32" Name="X^w_Air" NumberOfComponents="1" format="ascii">
          0 0 0 0 0 0 0 0 0 0 0 0
          0 0 0 0 0 0 0 0 0 0 0 0
          0 0 0 0 0 0
        </DataArray>
        <DataArray type="Float32" Name="X^w_AuComplex" NumberOfComponents="1" format="ascii">
          1.48407e-16 1.48445e-16 1.48438e-16 1.48441e-16 1.4844e-16 1.48439e-16 1.48436e-16 1.48436e-16 1.48433e-16 1.48435e-16 1.48434e-16 1.48406e-16
          1.48449e-16 1.48431e-16 1.48429e-16 1.48415e-16 1.48419e-16 1.48417e-16 1.48402e-16 1.48392e-16 1.4838e-16 1.48384e-16 1.63907e-16 3.2586e-14
          7.24216e-11 1.12967e-10 1.94021e-10 3.82983e-10 1.93149e-15 1.88124e-15
        </DataArray>
        <DataArray type="Float32" Name="X^w_nanoAu" NumberOfComponents="1" format="ascii">
          5.38439e-19 5.38575e-19 5.38552e-19 5.38561e-19 5.38559e-19 5.38555e-19 5.38545e-19 5.38546e-19 5.38534e-19 5.38543e-19 5.38536e-19 5.3844e-19
          5.38592e-19 5.3853e-19 5.38527e-19 5.38478e-19 5.38496e-19 5.38497e-19 5.3845e-19 5.38466e-19 5.42128e-19 8.84226e-19 3.25716e-17 2.96281e-15
          2.63627e-13 3.35106e-13 4.46643e-13 6.26557e-13 2.0596e-18 1.98474e-18
        </DataArray>
        <DataArray type="Float32" Name="X^w_cyanide" NumberOfComponents="1" format="ascii">
          5.07046e-06 5.07046e-06 5.07046e-06 5.07047e-06 5.07047e-06 5.07047e-06 5.07046e-06 5.07046e-06 5.07046e-06 5.07045e-06 5.07044e-06 5.07042e-06
          5.0704e-06 5.07037e-06 5.07033e-06 5.07028e-06 5.07021e-06 5.07011e-06 5.06998e-06 5.0698e-06 5.06954e-06 5.06918e-06 5.06865e-06 5.06787e-06
          5.06716e-06 6.43681e-06 8.57258e-06 1.22386e-05 1.94648e-05 1.92389e-05
        </DataArray>
        <DataArray type="Float32" Name="X^w_citrate" NumberOfComponents="1" format="ascii">
          0.000141796 0.000141796 0.000141796 0.000141796 0.000141796 0.000141796 0.000141796 0.000141796 0.000141796 0.000141796 0.000141796 0.000141796
          0.000141795 0.000141795 0.000141795 0.000141794 0.000141794 0.000141793 0.000141792 0.000141791 0.000141789 0.000141786 0.000141782 0.000141777
          0.000141768 0.000141754 0.000141727 0.000141664 0.00014146 0.000139818
        </DataArray>
        <DataArray type="Float32" Name="X^w_substrate" NumberOfComponents="1" format="ascii">
          1.74705e-11 2.30766e-11 3.04801e-11 4.02568e-11 5.31677e-11 7.02185e-11 9.27386e-11 1.22488e-10 1.61797e-10 2.13759e-10 2.82487e-10 3.73466e-10
          4.94039e-10 6.54089e-10 8.67008e-10 1.1511e-09 1.53169e-09 2.04428e-09 2.73967e-09 3.69216e-09 5.01375e-09 6.87973e-09 9.57772e-09 1.36097e-08
          1.99258e-08 3.05346e-08 5.04135e-08 9.52825e-08 2.40894e-07 1.3986e-06
        </DataArray>
        <DataArray type="Float32" Name="m^w_H2O" NumberOfComponents="1" format="ascii">
          55492.6 55492.6 55492.5 55492.5 55492.5 55492.5 55492.5 55492.5 55492.5 55492.5 55492.5 55492.5
          55492.5 55492.4 55492.4 55492.4 55492.4 55492.4 55492.4 55492.4 55492.4 55492.4 55492.4 55492.4
          55492.3 55492.3 55492.1 55491.9 55491.5 55491.6
        </DataArray>
        <DataArray type="Float32" Name="m^w_Air" NumberOfComponents="1" format="ascii">
          0 0 0 0 0 0 0 0 0 0 0 0
          0 0 0 0 0 0 0 0 0 0 0 0
          0 0 0 0 0 0
        </DataArray>
        <DataArray type="Float32" Name="m^w_AuComplex" NumberOfComponents="1" format="ascii">
          7.53339e-13 7.53532e-13 7.53499e-13 7.53512e-13 7.53508e-13 7.53503e-13 7.53489e-13 7.5349e-13 7.53472e-13 7.53484e-13 7.53475e-13 7.53336e-13
          7.5355e-13 7.5346e-13 7.53453e-13 7.53378e-13 7.53398e-13 7.53391e-13 7.53313e-13 7.53264e-13 7.53199e-13 7.5322e-13 8.3202e-13 1.65412e-10
          3.67624e-07 5.73437e-07 9.84882e-07 1.94408e-06 9.80457e-12 9.54949e-12
        </DataArray>
        <DataArray type="Float32" Name="m^w_nanoAu" NumberOfComponents="1" format="ascii">
          2.73322e-15 2.7339e-15 2.73379e-15 2.73383e-15 2.73382e-15 2.7338e-15 2.73375e-15 2.73375e-15 2.73369e-15 2.73374e-15 2.7337e-15 2.73322e-15
          2.73399e-15 2.73367e-15 2.73365e-15 2.7334e-15 2.73349e-15 2.7335e-15 2.73326e-15 2.73334e-15 2.75193e-15 4.48847e-15 1.65339e-13 1.50397e-11
          1.33821e-09 1.70105e-09 2.26723e-09 3.1805e-09 1.04549e-14 1.00748e-14
        </DataArray>
        <DataArray type="Float32" Name="m^w_cyanide" NumberOfComponents="1" format="ascii">
          0.19484 0.19484 0.19484 0.19484 0.19484 0.19484 0.19484 0.194839 0.194839 0.194839 0.194838 0.194838
          0.194837 0.194836 0.194834 0.194832 0.194829 0.194826 0.194821 0.194813 0.194804 0.19479 0.19477 0.194739
          0.194712 0.247343 0.329412 0.470283 0.747958 0.739278
        </DataArray>
        <DataArray type="Float32" Name="m^w_citrate" NumberOfComponents="1" format="ascii">
          0.749742 0.749742 0.749742 0.749742 0.749741 0.749741 0.749741 0.749741 0.74974 0.74974 0.749739 0.749738
          0.749737 0.749736 0.749734 0.749732 0.749729 0.749725 0.74972 0.749712 0.749702 0.749688 0.749668 0.749638
          0.74959 0.749516 0.749372 0.749044 0.747961 0.73928
        </DataArray>
        <DataArray type="Float32" Name="m^w_substrate" NumberOfComponents="1" format="ascii">
          9.6958e-08 1.28071e-07 1.69159e-07 2.23418e-07 2.95071e-07 3.89699e-07 5.14682e-07 6.79784e-07 8.97942e-07 1.18632e-06 1.56775e-06 2.07266e-06
          2.74182e-06 3.63007e-06 4.81173e-06 6.3884e-06 8.50057e-06 1.13454e-05 1.52046e-05 2.04907e-05 2.78253e-05 3.81811e-05 5.31544e-05 7.55311e-05
          0.000110584 0.000169461 0.000279785 0.000528798 0.00133691 0.00776193
        </DataArray>
        <DataArray type="Float32" Name="process rank" NumberOfComponents="1" format="ascii">
          0 0 0 0 0 0 0 0 0 0 0 0
          0 0 0 0 0 0 0 0 0 0 0 0
          0 0 0 0 0 0
        </DataArray>
      </CellData>
      <Points>
        <DataArray type="Float32" Name="Coordinates" NumberOfComponents="3" format="ascii">
          0 0 0 0.5 0 0 0 0.0333333 0 0.5 0.0333333 0
          0 0.0666667 0 0.5 0.0666667 0 0 0.1 0 0.5 0.1 0
          0 0.133333 0 0.5 0.133333 0 0 0.166667 0 0.5 0.166667 0
          0 0.2 0 0.5 0.2 0 0 0.233333 0 0.5 0.233333 0
          0 0.266667 0 0.5 0.266667 0 0 0.3 0 0.5 0.3 0
          0 0.333333 0 0.5 0.333333 0 0 0.366667 0 0.5 0.366667 0
          0 0.4 0 0.5 0.4 0 0 0.433333 0 0.5 0.433333 0
          0 0.466667 0 0.5 0.466667 0 0 0.5 0 0.5 0.5 0
          0 0.533333 0 0.5 0.533333 0 0 0.566667 0 0.5 0.566667 0
          0 0.6 0 0.5 0.6 0 0 0.633333 0 0.5 0.633333 0
          0 0.666667 0 0.5 0.666667 0 0 0.7 0 0.5 0.7 0
          0 0.733333 0 0.5 0.733333 0 0 0.766667 0 0.5 0.766667 0
          0 0.8 0 0.5 0.8 0 0 0.833333 0 0.5 0.833333 0
          0 0.866667 0 0.5 0.866667 0 0 0.9 0 0.5 0.9 0
          0 0.933333 0 0.5 0.933333 0 0 0.966667 0 0.5 0.966667 0
          0 1 0 0.5 1 0
        </DataArray>
      </Points>
      <Cells>
        <DataArray type="Int32" Name="connectivity" NumberOfComponents="1" format="ascii">
          0 1 3 2 2 3 5 4 4 5 7 6
          6 7 9 8 8 9 11 10 10 11 13 12
          12 13 15 14 14 15 17 16 16 17 19 18
          18 19 21 20 20 21 23 22 22 23 25 24
          24 25 27 26 26 27 29 28 28 29 31 30
          30 31 33 32 32 33 35 34 34 35 37 36
          36 37 39 38 38 39 41 40 40 41 43 42
          42 43 45 44 44 45 47 46 46 47 49 48
          48 49 51 50 50 51 53 52 52 53 55 54
          54 55 57 56 56 57 59 58 58 59 61 60
        </DataArray>
        <DataArray type="Int32" Name="offsets" NumberOfComponents="1" format="ascii">
          4 8 12 16 20 24 28 32 36 40 44 48
          52 56 60 64 68 72 76 80 84 88 92 96
          100 104 108 112 116 120
        </DataArray>
        <DataArray type="UInt8" Name="types" NumberOfComponents="1" format="ascii">
          9 9 9 9 9 9 9 9 9 9 9 9
          9 9 9 9 9 9 9 9 9 9 9 9
          9 9 9 9 9 9
        </DataArray>
      </Cells>
    </Piece>
  </UnstructuredGrid>
</VTKFile>
