<?xml version="1.0"?>
<VTKFile type="UnstructuredGrid" version="0.1" byte_order="LittleEndian">
  <UnstructuredGrid>
    <Piece NumberOfCells="30" NumberOfPoints="62">
      <CellData Scalars="Sg">
        <DataArray type="Float32" Name="Sg" NumberOfComponents="1" format="ascii">
          0 0 0 0 0 0 0 0 0 0 0 0
          0 0 0 0 0 0 0 0 0 0 0 0
          0 0 0 0 0 0
        </DataArray>
        <DataArray type="Float32" Name="Sl" NumberOfComponents="1" format="ascii">
          1 1 1 1 1 1 1 1 1 1 1 1
          1 1 1 1 1 1 1 1 1 1 1 1
          1 1 1 1 1 1
        </DataArray>
        <DataArray type="Float32" Name="pg" NumberOfComponents="1" format="ascii">
          24687.8 24360.9 24034 23707 23380.1 23053.1 22726.2 22399.3 22072.3 21745.4 21418.4 21091.5
          20764.6 20437.6 20110.7 19783.7 19456.8 19129.9 18802.9 18476 18149 17822.1 17495.1 17168.2
          16841.3 16514.3 16187.4 15860.4 15533.5 15207
        </DataArray>
        <DataArray type="Float32" Name="pl" NumberOfComponents="1" format="ascii">
          110628 110301 109974 109647 109320 108993 108666 108339 108012 107685 107358 107031
          106704 106377 106050 105723 105396 105070 104743 104416 104089 103762 103435 103108
          102781 102454 102127 101800 101473 101147
        </DataArray>
        <DataArray type="Float32" Name="pc" NumberOfComponents="1" format="ascii">
          -85939.7 -85939.7 -85939.7 -85939.7 -85939.7 -85939.7 -85939.7 -85939.7 -85939.7 -85939.7 -85939.7 -85939.7
          -85939.7 -85939.7 -85939.7 -85939.7 -85939.7 -85939.7 -85939.7 -85939.7 -85939.7 -85939.7 -85939.7 -85939.7
          -85939.7 -85939.7 -85939.7 -85939.7 -85939.7 -85939.7
        </DataArray>
        <DataArray type="Float32" Name="rhoL" NumberOfComponents="1" format="ascii">
          999.855 999.855 999.855 999.855 999.855 999.854 999.854 999.854 999.854 999.854 999.854 999.854
          999.853 999.853 999.853 999.853 999.853 999.853 999.852 999.852 999.852 999.852 999.852 999.852
          999.852 999.851 999.851 999.851 999.851 999.851
        </DataArray>
        <DataArray type="Float32" Name="rhoG" NumberOfComponents="1" format="ascii">
          0.30585 0.3018 0.29775 0.293699 0.289649 0.285598 0.281548 0.277498 0.273447 0.269397 0.265347 0.261296
          0.257246 0.253195 0.249145 0.245095 0.241044 0.236994 0.232944 0.228893 0.224843 0.220793 0.216742 0.212692
          0.208641 0.204591 0.200541 0.19649 0.19244 0.188395
        </DataArray>
        <DataArray type="Float32" Name="mobL" NumberOfComponents="1" format="ascii">
          722.171 722.17 722.17 722.17 722.17 722.17 722.169 722.169 722.169 722.169 722.169 722.169
          722.168 722.168 722.168 722.168 722.168 722.167 722.167 722.167 722.167 722.167 722.166 722.166
          722.166 722.166 722.166 722.166 722.165 722.165
        </DataArray>
        <DataArray type="Float32" Name="mobG" NumberOfComponents="1" format="ascii">
          0 0 0 0 0 0 0 0 0 0 0 0
          0 0 0 0 0 0 0 0 0 0 0 0
          0 0 0 0 0 0
        </DataArray>
        <DataArray type="Float32" Name="porosity" NumberOfComponents="1" format="ascii">
          0.29861 0.29861 0.29861 0.29861 0.298609 0.298609 0.298608 0.298607 0.298606 0.298604 0.298601 0.298597
          0.298592 0.298585 0.298575 0.298562 0.298545 0.298522 0.29849 0.298446 0.298387 0.298304 0.298186 0.298012
          0.297471 0.297014 0.296136 0.293991 0.285273 0.0831247
        </DataArray>
        <DataArray type="Float32" Name="temperature" NumberOfComponents="1" format="ascii">
          281.15 281.15 281.15 281.15 281.15 281.15 281.15 281.15 281.15 281.15 281.15 281.15
          281.15 281.15 281.15 281.15 281.15 281.15 281.15 281.15 281.15 281.15 281.15 281.15
          281.15 281.15 281.15 281.15 281.15 281.15
        </DataArray>
        <DataArray type="Float32" Name="phase presence" NumberOfComponents="1" format="ascii">
          1 1 1 1 1 1 1 1 1 1 1 1
          1 1 1 1 1 1 1 1 1 1 1 1
          1 1 1 1 1 1
        </DataArray>
        <DataArray type="Float32" Name="precipitateVolumeFraction_au" NumberOfComponents="1" format="ascii">
          5.52616e-10 5.52776e-10 5.52725e-10 5.52726e-10 5.52717e-10 5.52751e-10 5.52781e-10 5.52733e-10 5.52707e-10 5.52741e-10 5.52772e-10 5.52735e-10
          5.52739e-10 5.52731e-10 5.52682e-10 5.52763e-10 5.52699e-10 5.52753e-10 5.52705e-10 5.52731e-10 5.52727e-10 5.5272e-10 5.52867e-10 8.00589e-10
          0.000269938 0.000269922 0.000269897 0.000269852 5.52227e-10 5.51324e-10
        </DataArray>
        <DataArray type="Float32" Name="precipitateVolumeFraction_nanoAu" NumberOfComponents="1" format="ascii">
          1.45897e-13 1.48152e-13 1.47586e-13 1.47599e-13 1.47539e-13 1.47741e-13 1.47863e-13 1.47618e-13 1.47527e-13 1.47623e-13 1.47693e-13 1.47598e-13
          1.47598e-13 1.4758e-13 1.47516e-13 1.47605e-13 1.47538e-13 1.47578e-13 1.47537e-13 1.47547e-13 1.47536e-13 1.47535e-13 1.59487e-13 2.61901e-11
          6.22923e-08 7.88239e-08 1.04401e-07 1.47509e-07 4.93474e-13 4.85181e-13
        </DataArray>
        <DataArray type="Float32" Name="precipitateVolumeFraction_d" NumberOfComponents="1" format="ascii">
          0.000694849 0.000694917 0.000695012 0.000695146 0.000695334 0.000695598 0.000695968 0.000696484 0.000697201 0.000698195 0.000699566 0.00070145
          0.000704026 0.000707536 0.000712301 0.00071875 0.000727463 0.000739231 0.000755157 0.000776817 0.000806545 0.00084796 0.000906997 0.00099412
          0.00112958 0.00135809 0.00179722 0.00286938 0.00736369 0.108438
        </DataArray>
        <DataArray type="Float32" Name="precipitateVolumeFraction_p" NumberOfComponents="1" format="ascii">
          0.000694849 0.000694917 0.000695012 0.000695146 0.000695334 0.000695598 0.000695968 0.000696484 0.000697201 0.000698195 0.000699566 0.00070145
          0.000704026 0.000707536 0.000712301 0.00071875 0.000727463 0.000739231 0.000755157 0.000776817 0.000806545 0.00084796 0.000906997 0.00099412
          0.00112958 0.00135809 0.00179722 0.00286938 0.00736369 0.108438
        </DataArray>
        <DataArray type="Float32" Name="K" NumberOfComponents="1" format="ascii">
          9.82263e-11 9.82262e-11 9.82259e-11 9.82256e-11 9.82251e-11 9.82244e-11 9.82235e-11 9.82222e-11 9.82204e-11 9.82179e-11 9.82144e-11 9.82096e-11
          9.82031e-11 9.81942e-11 9.81821e-11 9.81658e-11 9.81437e-11 9.81139e-11 9.80736e-11 9.80188e-11 9.79436e-11 9.7839e-11 9.769e-11 9.74704e-11
          9.67914e-11 9.62207e-11 9.51319e-11 9.25157e-11 8.24768e-11 1.23994e-12
        </DataArray>
        <DataArray type="Float32" Name="X^w_H2O" NumberOfComponents="1" format="ascii">
          0.999853 0.999853 0.999853 0.999853 0.999853 0.999853 0.999853 0.999853 0.999853 0.999853 0.999853 0.999853
          0.999853 0.999853 0.999853 0.999853 0.999853 0.999853 0.999853 0.999853 0.999853 0.999853 0.999853 0.999853
          0.999853 0.999852 0.999849 0.999846 0.999839 0.99984
        </DataArray>
        <DataArray type="Float32" Name="X^w_Air" NumberOfComponents="1" format="ascii">
          0 0 0 0 0 0 0 0 0 0 0 0
          0 0 0 0 0 0 0 0 0 0 0 0
          0 0 0 0 0 0
        </DataArray>
        <DataArray type="Float32" Name="X^w_AuComplex" NumberOfComponents="1" format="ascii">
          1.60442e-16 1.62573e-16 1.62036e-16 1.62046e-16 1.61986e-16 1.62176e-16 1.6229e-16 1.62056e-16 1.61966e-16 1.62056e-16 1.62121e-16 1.62028e-16
          1.62026e-16 1.62006e-16 1.61941e-16 1.62025e-16 1.61956e-16 1.61991e-16 1.61945e-16 1.61947e-16 1.61928e-16 1.61914e-16 1.751e-16 2.93454e-14
          6.98414e-11 1.08082e-10 1.83523e-10 3.56065e-10 1.81439e-15 1.7609e-15
        </DataArray>
        <DataArray type="Float32" Name="X^w_nanoAu" NumberOfComponents="1" format="ascii">
          6.35573e-19 6.45268e-19 6.42829e-19 6.42881e-19 6.42631e-19 6.43507e-19 6.44022e-19 6.42964e-19 6.42572e-19 6.42989e-19 6.43288e-19 6.42876e-19
          6.42878e-19 6.42797e-19 6.42524e-19 6.42902e-19 6.42614e-19 6.42783e-19 6.42601e-19 6.42677e-19 6.46441e-19 9.99756e-19 3.36887e-17 3.05322e-15
          2.72036e-13 3.4441e-13 4.56376e-13 6.34737e-13 2.1415e-18 2.056e-18
        </DataArray>
        <DataArray type="Float32" Name="X^w_cyanide" NumberOfComponents="1" format="ascii">
          5.23304e-06 5.23297e-06 5.2329e-06 5.23284e-06 5.23277e-06 5.2327e-06 5.23263e-06 5.23257e-06 5.2325e-06 5.23243e-06 5.23236e-06 5.23229e-06
          5.23221e-06 5.23213e-06 5.23204e-06 5.23193e-06 5.23182e-06 5.23167e-06 5.23149e-06 5.23126e-06 5.23095e-06 5.23051e-06 5.22987e-06 5.22891e-06
          5.22784e-06 6.61507e-06 8.76077e-06 1.24008e-05 1.94488e-05 1.91906e-05
        </DataArray>
        <DataArray type="Float32" Name="X^w_citrate" NumberOfComponents="1" format="ascii">
          0.000141796 0.000141796 0.000141796 0.000141796 0.000141796 0.000141796 0.000141796 0.000141796 0.000141796 0.000141796 0.000141796 0.000141796
          0.000141795 0.000141795 0.000141795 0.000141795 0.000141794 0.000141794 0.000141793 0.000141792 0.00014179 0.000141787 0.000141783 0.000141776
          0.000141765 0.000141747 0.00014171 0.000141624 0.000141344 0.000139467
        </DataArray>
        <DataArray type="Float32" Name="X^w_substrate" NumberOfComponents="1" format="ascii">
          5.42861e-12 7.54138e-12 1.04759e-11 1.45519e-11 2.02134e-11 2.80776e-11 3.90028e-11 5.41831e-11 7.52818e-11 1.04619e-10 1.45436e-10 2.02275e-10
          2.81519e-10 3.92184e-10 5.47082e-10 7.64559e-10 1.07117e-09 1.50583e-09 2.12663e-09 3.02208e-09 4.33082e-09 6.27783e-09 9.2448e-09 1.3918e-08
          2.16297e-08 3.5249e-08 6.19398e-08 1.24024e-07 3.22529e-07 1.64591e-06
        </DataArray>
        <DataArray type="Float32" Name="m^w_H2O" NumberOfComponents="1" format="ascii">
          55492.6 55492.5 55492.5 55492.5 55492.5 55492.5 55492.5 55492.5 55492.5 55492.5 55492.5 55492.5
          55492.4 55492.4 55492.4 55492.4 55492.4 55492.4 55492.4 55492.4 55492.4 55492.4 55492.4 55492.3
          55492.3 55492.3 55492.1 55491.9 55491.5 55491.6
        </DataArray>
        <DataArray type="Float32" Name="m^w_Air" NumberOfComponents="1" format="ascii">
          0 0 0 0 0 0 0 0 0 0 0 0
          0 0 0 0 0 0 0 0 0 0 0 0
          0 0 0 0 0 0
        </DataArray>
        <DataArray type="Float32" Name="m^w_AuComplex" NumberOfComponents="1" format="ascii">
          8.14434e-13 8.25252e-13 8.22522e-13 8.22572e-13 8.22271e-13 8.23235e-13 8.23815e-13 8.22624e-13 8.22168e-13 8.22624e-13 8.22956e-13 8.2248e-13
          8.22472e-13 8.22371e-13 8.2204e-13 8.22465e-13 8.22114e-13 8.22295e-13 8.22058e-13 8.22072e-13 8.21971e-13 8.21903e-13 8.88836e-13 1.48962e-10
          3.54526e-07 5.48643e-07 9.31591e-07 1.80744e-06 9.21014e-12 8.93858e-12
        </DataArray>
        <DataArray type="Float32" Name="m^w_nanoAu" NumberOfComponents="1" format="ascii">
          3.22628e-15 3.2755e-15 3.26312e-15 3.26338e-15 3.26211e-15 3.26656e-15 3.26917e-15 3.2638e-15 3.26181e-15 3.26392e-15 3.26544e-15 3.26335e-15
          3.26336e-15 3.26295e-15 3.26156e-15 3.26348e-15 3.26202e-15 3.26287e-15 3.26195e-15 3.26233e-15 3.28144e-15 5.07492e-15 1.7101e-13 1.54986e-11
          1.3809e-09 1.74828e-09 2.31664e-09 3.22203e-09 1.08706e-14 1.04366e-14
        </DataArray>
        <DataArray type="Float32" Name="m^w_cyanide" NumberOfComponents="1" format="ascii">
          0.201087 0.201084 0.201082 0.201079 0.201076 0.201074 0.201071 0.201069 0.201066 0.201063 0.201061 0.201058
          0.201055 0.201051 0.201048 0.201044 0.201039 0.201034 0.201027 0.201018 0.201006 0.200989 0.200965 0.200927
          0.200886 0.254193 0.336644 0.476517 0.747346 0.737424
        </DataArray>
        <DataArray type="Float32" Name="m^w_citrate" NumberOfComponents="1" format="ascii">
          0.749741 0.749741 0.749741 0.749741 0.749741 0.749741 0.74974 0.74974 0.74974 0.74974 0.749739 0.749739
          0.749738 0.749737 0.749736 0.749734 0.749732 0.749728 0.749723 0.749717 0.749707 0.749692 0.74967 0.749634
          0.749576 0.749479 0.749286 0.748828 0.747349 0.737425
        </DataArray>
        <DataArray type="Float32" Name="m^w_substrate" NumberOfComponents="1" format="ascii">
          3.01278e-08 4.18533e-08 5.81395e-08 8.07605e-08 1.12181e-07 1.55826e-07 2.16458e-07 3.00706e-07 4.178e-07 5.80615e-07 8.07142e-07 1.12259e-06
          1.56237e-06 2.17655e-06 3.0362e-06 4.24316e-06 5.94476e-06 8.35708e-06 1.18024e-05 1.67719e-05 2.40352e-05 3.48407e-05 5.13068e-05 7.72422e-05
          0.00012004 0.000195625 0.000343753 0.000688309 0.00178997 0.00913447
        </DataArray>
        <DataArray type="Float32" Name="process rank" NumberOfComponents="1" format="ascii">
          0 0 0 0 0 0 0 0 0 0 0 0
          0 0 0 0 0 0 0 0 0 0 0 0
          0 0 0 0 0 0
        </DataArray>
      </CellData>
      <Points>
        <DataArray type="Float32" Name="Coordinates" NumberOfComponents="3" format="ascii">
          0 0 0 0.5 0 0 0 0.0333333 0 0.5 0.0333333 0
          0 0.0666667 0 0.5 0.0666667 0 0 0.1 0 0.5 0.1 0
          0 0.133333 0 0.5 0.133333 0 0 0.166667 0 0.5 0.166667 0
          0 0.2 0 0.5 0.2 0 0 0.233333 0 0.5 0.233333 0
          0 0.266667 0 0.5 0.266667 0 0 0.3 0 0.5 0.3 0
          0 0.333333 0 0.5 0.333333 0 0 0.366667 0 0.5 0.366667 0
          0 0.4 0 0.5 0.4 0 0 0.433333 0 0.5 0.433333 0
          0 0.466667 0 0.5 0.466667 0 0 0.5 0 0.5 0.5 0
          0 0.533333 0 0.5 0.533333 0 0 0.566667 0 0.5 0.566667 0
          0 0.6 0 0.5 0.6 0 0 0.633333 0 0.5 0.633333 0
          0 0.666667 0 0.5 0.666667 0 0 0.7 0 0.5 0.7 0
          0 0.733333 0 0.5 0.733333 0 0 0.766667 0 0.5 0.766667 0
          0 0.8 0 0.5 0.8 0 0 0.833333 0 0.5 0.833333 0
          0 0.866667 0 0.5 0.866667 0 0 0.9 0 0.5 0.9 0
          0 0.933333 0 0.5 0.933333 0 0 0.966667 0 0.5 0.966667 0
          0 1 0 0.5 1 0
        </DataArray>
      </Points>
      <Cells>
        <DataArray type="Int32" Name="connectivity" NumberOfComponents="1" format="ascii">
          0 1 3 2 2 3 5 4 4 5 7 6
          6 7 9 8 8 9 11 10 10 11 13 12
          12 13 15 14 14 15 17 16 16 17 19 18
          18 19 21 20 20 21 23 22 22 23 25 24
          24 25 27 26 26 27 29 28 28 29 31 30
          30 31 33 32 32 33 35 34 34 35 37 36
          36 37 39 38 38 39 41 40 40 41 43 42
          42 43 45 44 44 45 47 46 46 47 49 48
          48 49 51 50 50 51 53 52 52 53 55 54
          54 55 57 56 56 57 59 58 58 59 61 60
        </DataArray>
        <DataArray type="Int32" Name="offsets" NumberOfComponents="1" format="ascii">
          4 8 12 16 20 24 28 32 36 40 44 48
          52 56 60 64 68 72 76 80 84 88 92 96
          100 104 108 112 116 120
        </DataArray>
        <DataArray type="UInt8" Name="types" NumberOfComponents="1" format="ascii">
          9 9 9 9 9 9 9 9 9 9 9 9
          9 9 9 9 9 9 9 9 9 9 9 9
          9 9 9 9 9 9
        </DataArray>
      </Cells>
    </Piece>
  </UnstructuredGrid>
</VTKFile>
