<?xml version="1.0"?>
<VTKFile type="UnstructuredGrid" version="0.1" byte_order="LittleEndian">
  <UnstructuredGrid>
    <Piece NumberOfCells="30" NumberOfPoints="62">
      <CellData Scalars="Sg">
        <DataArray type="Float32" Name="Sg" NumberOfComponents="1" format="ascii">
          0.0928554 0.0928247 0.0927939 0.0927629 0.0927318 0.0927005 0.0926687 0.0926343 0.0925883 0.0924901 0.0921611 0.0908215
          0.0851493 0.0622223 0 0 0 0 0 0 0 0 0 0
          0 0 0 0 0 0
        </DataArray>
        <DataArray type="Float32" Name="Sl" NumberOfComponents="1" format="ascii">
          0.907145 0.907175 0.907206 0.907237 0.907268 0.9073 0.907331 0.907366 0.907412 0.90751 0.907839 0.909178
          0.914851 0.937778 1 1 1 1 1 1 1 1 1 1
          1 1 1 1 1 1
        </DataArray>
        <DataArray type="Float32" Name="pg" NumberOfComponents="1" format="ascii">
          51287.7 50952 50616.2 50280.4 49944.5 49608.6 49272.6 48935.8 48595.7 48240.6 47819.4 47108.7
          45156.9 38262.2 20110.7 19783.7 19456.8 19129.8 18802.9 18476 18149 17822.1 17495.1 17168.2
          16841.3 16514.3 16187.4 15860.4 15533.5 15206.6
        </DataArray>
        <DataArray type="Float32" Name="pl" NumberOfComponents="1" format="ascii">
          110628 110301 109974 109647 109320 108993 108666 108339 108012 107685 107358 107031
          106704 106377 106050 105723 105396 105070 104743 104416 104089 103762 103435 103108
          102781 102454 102127 101800 101473 101146
        </DataArray>
        <DataArray type="Float32" Name="pc" NumberOfComponents="1" format="ascii">
          -59339.8 -59348.6 -59357.4 -59366.3 -59375.2 -59384.2 -59393.3 -59403.1 -59416.3 -59444.4 -59538.7 -59922.4
          -61547.3 -68115.1 -85939.7 -85939.7 -85939.7 -85939.7 -85939.7 -85939.7 -85939.7 -85939.7 -85939.7 -85939.7
          -85939.7 -85939.7 -85939.7 -85939.7 -85939.7 -85939.7
        </DataArray>
        <DataArray type="Float32" Name="rhoL" NumberOfComponents="1" format="ascii">
          999.855 999.855 999.855 999.855 999.855 999.854 999.854 999.854 999.854 999.854 999.854 999.854
          999.853 999.853 999.853 999.853 999.853 999.853 999.852 999.852 999.852 999.852 999.852 999.852
          999.852 999.851 999.851 999.851 999.851 999.851
        </DataArray>
        <DataArray type="Float32" Name="rhoG" NumberOfComponents="1" format="ascii">
          0.635388 0.631229 0.627069 0.622909 0.618748 0.614587 0.610423 0.606251 0.602037 0.597639 0.59242 0.583616
          0.559435 0.474019 0.249145 0.245095 0.241044 0.236994 0.232944 0.228893 0.224843 0.220793 0.216742 0.212692
          0.208641 0.204591 0.200541 0.19649 0.19244 0.18839
        </DataArray>
        <DataArray type="Float32" Name="mobL" NumberOfComponents="1" format="ascii">
          722.171 722.17 722.17 722.17 722.17 722.17 722.169 722.169 722.169 722.169 722.169 722.169
          722.168 722.168 722.168 722.168 722.168 722.167 722.167 722.167 722.167 722.167 722.166 722.166
          722.166 722.166 722.166 722.166 722.165 722.165
        </DataArray>
        <DataArray type="Float32" Name="mobG" NumberOfComponents="1" format="ascii">
          0 0 0 0 0 0 0 0 0 0 0 0
          0 0 0 0 0 0 0 0 0 0 0 0
          0 0 0 0 0 0
        </DataArray>
        <DataArray type="Float32" Name="porosity" NumberOfComponents="1" format="ascii">
          0.298503 0.298503 0.298503 0.298503 0.298502 0.298502 0.298501 0.2985 0.298498 0.298496 0.298493 0.298489
          0.298484 0.298477 0.298466 0.298453 0.298434 0.29841 0.298376 0.298331 0.298269 0.298184 0.298062 0.297886
          0.297345 0.2969 0.296082 0.294246 0.288269 0.216126
        </DataArray>
        <DataArray type="Float32" Name="temperature" NumberOfComponents="1" format="ascii">
          281.15 281.15 281.15 281.15 281.15 281.15 281.15 281.15 281.15 281.15 281.15 281.15
          281.15 281.15 281.15 281.15 281.15 281.15 281.15 281.15 281.15 281.15 281.15 281.15
          281.15 281.15 281.15 281.15 281.15 281.15
        </DataArray>
        <DataArray type="Float32" Name="phase presence" NumberOfComponents="1" format="ascii">
          3 3 3 3 3 3 3 3 3 3 3 3
          3 3 1 1 1 1 1 1 1 1 1 1
          1 1 1 1 1 1
        </DataArray>
        <DataArray type="Float32" Name="precipitateVolumeFraction_au" NumberOfComponents="1" format="ascii">
          5.33265e-10 5.33263e-10 5.33264e-10 5.33266e-10 5.33268e-10 5.3327e-10 5.33271e-10 5.33273e-10 5.33274e-10 5.33275e-10 5.33276e-10 5.33278e-10
          5.33279e-10 5.33279e-10 5.33279e-10 5.33289e-10 5.33273e-10 5.33296e-10 5.33273e-10 5.33289e-10 5.33288e-10 5.33283e-10 5.3334e-10 5.99283e-10
          0.000269936 0.00026992 0.000269896 0.000269856 5.32873e-10 5.32086e-10
        </DataArray>
        <DataArray type="Float32" Name="precipitateVolumeFraction_nanoAu" NumberOfComponents="1" format="ascii">
          1.96147e-11 1.96122e-11 1.96102e-11 1.96082e-11 1.96062e-11 1.96042e-11 1.96024e-11 1.96007e-11 1.95991e-11 1.95976e-11 1.95963e-11 1.95947e-11
          1.95934e-11 1.96028e-11 1.95499e-11 1.96212e-11 1.95734e-11 1.96044e-11 1.95793e-11 1.95888e-11 1.95871e-11 1.95832e-11 1.96025e-11 4.68736e-11
          6.43259e-08 8.06168e-08 1.05008e-07 1.44007e-07 1.98477e-11 1.97507e-11
        </DataArray>
        <DataArray type="Float32" Name="precipitateVolumeFraction_d" NumberOfComponents="1" format="ascii">
          0.000748291 0.000748362 0.000748463 0.000748605 0.000748805 0.000749085 0.000749478 0.000750025 0.000750787 0.000751841 0.000753295 0.000755291
          0.000758019 0.000761734 0.00076677 0.000773579 0.000782761 0.000795137 0.00081184 0.000834477 0.000865408 0.000908244 0.000968821 0.00105722
          0.00119245 0.00141484 0.00182405 0.00274176 0.00586558 0.041937
        </DataArray>
        <DataArray type="Float32" Name="precipitateVolumeFraction_p" NumberOfComponents="1" format="ascii">
          0.000748291 0.000748362 0.000748463 0.000748605 0.000748805 0.000749085 0.000749478 0.000750025 0.000750787 0.000751841 0.000753295 0.000755291
          0.000758019 0.000761734 0.00076677 0.000773579 0.000782761 0.000795137 0.00081184 0.000834477 0.000865408 0.000908244 0.000968821 0.00105722
          0.00119245 0.00141484 0.00182405 0.00274176 0.00586558 0.041937
        </DataArray>
        <DataArray type="Float32" Name="K" NumberOfComponents="1" format="ascii">
          9.8091e-11 9.80908e-11 9.80906e-11 9.80902e-11 9.80897e-11 9.8089e-11 9.8088e-11 9.80866e-11 9.80847e-11 9.8082e-11 9.80783e-11 9.80733e-11
          9.80664e-11 9.8057e-11 9.80442e-11 9.8027e-11 9.80038e-11 9.79725e-11 9.79303e-11 9.78731e-11 9.77949e-11 9.76868e-11 9.75341e-11 9.73116e-11
          9.66341e-11 9.60794e-11 9.50657e-11 9.28239e-11 8.5821e-11 2.98168e-11
        </DataArray>
        <DataArray type="Float32" Name="X^w_H2O" NumberOfComponents="1" format="ascii">
          0.999837 0.999837 0.999838 0.999838 0.999838 0.999838 0.999838 0.999838 0.999838 0.999838 0.999838 0.999839
          0.999839 0.999841 0.999848 0.999853 0.999853 0.999853 0.999853 0.999853 0.999853 0.999853 0.999853 0.999853
          0.999853 0.999852 0.999849 0.999846 0.999839 0.999841
        </DataArray>
        <DataArray type="Float32" Name="X^w_Air" NumberOfComponents="1" format="ascii">
          1.55653e-05 1.54612e-05 1.53571e-05 1.5253e-05 1.51489e-05 1.50448e-05 1.49406e-05 1.48362e-05 1.47308e-05 1.46207e-05 1.44902e-05 1.42699e-05
          1.36649e-05 1.15277e-05 4.45772e-06 6.37564e-08 8.94204e-10 1.23302e-11 1.66474e-13 2.19914e-15 2.84126e-17 3.58476e-19 4.38474e-21 5.148e-23
          5.64982e-25 5.94418e-27 5.54177e-29 4.03001e-31 1.50039e-33 0
        </DataArray>
        <DataArray type="Float32" Name="X^w_AuComplex" NumberOfComponents="1" format="ascii">
          1.83738e-14 1.93009e-14 1.8536e-14 1.81932e-14 1.85019e-14 1.99818e-14 1.85576e-14 1.93462e-14 1.865e-14 2.00213e-14 1.90326e-14 1.88337e-14
          1.76991e-14 2.04549e-14 1.85938e-14 1.86497e-14 1.85932e-14 1.86122e-14 1.85787e-14 1.85783e-14 1.8567e-14 1.85531e-14 1.85616e-14 4.90986e-14
          7.18948e-11 1.10873e-10 1.86026e-10 3.50495e-10 6.91552e-14 6.65562e-14
        </DataArray>
        <DataArray type="Float32" Name="X^w_nanoAu" NumberOfComponents="1" format="ascii">
          1.68251e-16 -1.18359e-16 3.30483e-16 -1.23896e-17 2.96314e-16 5.62516e-16 3.52059e-16 -7.306e-17 4.44416e-16 6.01981e-16 -3.86635e-16 -5.85555e-16
          -5.0642e-16 2.04549e-14 -2.94707e-15 8.54914e-17 8.52861e-17 8.54173e-17 8.5308e-17 8.53468e-17 8.53395e-17 8.56857e-17 1.19648e-16 3.24551e-15
          2.80751e-13 3.51884e-13 4.58183e-13 6.17913e-13 8.55682e-17 8.15032e-17
        </DataArray>
        <DataArray type="Float32" Name="X^w_cyanide" NumberOfComponents="1" format="ascii">
          5.36031e-06 5.34976e-06 5.34009e-06 5.33123e-06 5.3231e-06 5.31567e-06 5.30886e-06 5.30262e-06 5.29692e-06 5.2917e-06 5.28693e-06 5.28257e-06
          5.27857e-06 5.2749e-06 5.2715e-06 5.26814e-06 5.26498e-06 5.26204e-06 5.25928e-06 5.2566e-06 5.2539e-06 5.25101e-06 5.24766e-06 5.2434e-06
          5.23785e-06 6.65431e-06 8.83414e-06 1.24811e-05 1.93125e-05 1.86809e-05
        </DataArray>
        <DataArray type="Float32" Name="X^w_citrate" NumberOfComponents="1" format="ascii">
          0.000141794 0.000141794 0.000141794 0.000141794 0.000141794 0.000141794 0.000141794 0.000141794 0.000141794 0.000141793 0.000141793 0.000141793
          0.000141793 0.000141793 0.000141793 0.000141793 0.000141791 0.00014179 0.000141787 0.000141783 0.000141777 0.000141768 0.000141755 0.000141733
          0.000141698 0.000141635 0.000141513 0.000141229 0.000140373 0.000135772
        </DataArray>
        <DataArray type="Float32" Name="X^w_substrate" NumberOfComponents="1" format="ascii">
          1.3446e-11 1.88931e-11 2.65445e-11 3.73079e-11 5.24458e-11 7.37482e-11 1.03719e-10 1.45916e-10 2.05348e-10 2.89117e-10 4.07295e-10 5.7425e-10
          8.1053e-10 1.14425e-09 1.61212e-09 2.26886e-09 3.19984e-09 4.52991e-09 6.44503e-09 9.23106e-09 1.33396e-08 1.95089e-08 2.90001e-08 4.40918e-08
          6.92137e-08 1.13867e-07 2.01425e-07 4.02096e-07 1.00703e-06 4.25131e-06
        </DataArray>
        <DataArray type="Float32" Name="m^w_H2O" NumberOfComponents="1" format="ascii">
          55491.7 55491.7 55491.7 55491.7 55491.7 55491.7 55491.7 55491.7 55491.7 55491.7 55491.7 55491.7
          55491.7 55491.8 55492.2 55492.4 55492.4 55492.4 55492.4 55492.4 55492.4 55492.4 55492.4 55492.3
          55492.3 55492.3 55492.1 55491.9 55491.5 55491.6
        </DataArray>
        <DataArray type="Float32" Name="m^w_Air" NumberOfComponents="1" format="ascii">
          0.537396 0.533803 0.53021 0.526616 0.523021 0.519427 0.51583 0.512226 0.508586 0.504786 0.500278 0.492672
          0.471784 0.397997 0.153904 0.00220121 3.08727e-05 4.25703e-07 5.74755e-09 7.59259e-11 9.80952e-13 1.23765e-14 1.51384e-16 1.77736e-18
          1.95061e-20 2.05224e-22 1.91331e-24 1.39137e-26 5.18012e-29 2.41625e-34
        </DataArray>
        <DataArray type="Float32" Name="m^w_AuComplex" NumberOfComponents="1" format="ascii">
          9.32688e-11 9.79749e-11 9.40923e-11 9.23518e-11 9.39188e-11 1.01431e-10 9.42017e-11 9.82047e-11 9.46705e-11 1.01631e-10 9.66129e-11 9.56032e-11
          8.98439e-11 1.03833e-10 9.43854e-11 9.46693e-11 9.43822e-11 9.44787e-11 9.43084e-11 9.43063e-11 9.42493e-11 9.41788e-11 9.42217e-11 2.49232e-10
          3.64949e-07 5.62809e-07 9.443e-07 1.77917e-06 3.51043e-10 3.3785e-10
        </DataArray>
        <DataArray type="Float32" Name="m^w_nanoAu" NumberOfComponents="1" format="ascii">
          8.54073e-13 -6.00812e-13 1.67759e-12 -6.28921e-14 1.50414e-12 2.85543e-12 1.78711e-12 -3.70866e-13 2.25593e-12 3.05576e-12 -1.96263e-12 -2.97238e-12
          -2.57068e-12 1.03833e-10 -1.49598e-11 4.33969e-13 4.32926e-13 4.33593e-13 4.33038e-13 4.33235e-13 4.33197e-13 4.34955e-13 6.07353e-13 1.64747e-11
          1.42514e-09 1.78622e-09 2.32581e-09 3.13662e-09 4.34358e-13 4.13723e-13
        </DataArray>
        <DataArray type="Float32" Name="m^w_cyanide" NumberOfComponents="1" format="ascii">
          0.205977 0.205572 0.2052 0.20486 0.204548 0.204262 0.204 0.203761 0.203541 0.203341 0.203158 0.20299
          0.202836 0.202695 0.202565 0.202435 0.202314 0.202201 0.202095 0.201992 0.201888 0.201777 0.201648 0.201484
          0.201271 0.2557 0.339463 0.479603 0.742106 0.717836
        </DataArray>
        <DataArray type="Float32" Name="m^w_citrate" NumberOfComponents="1" format="ascii">
          0.749731 0.74973 0.74973 0.74973 0.74973 0.74973 0.749729 0.749729 0.749728 0.749728 0.749727 0.749725
          0.749724 0.749723 0.749725 0.749723 0.749716 0.749706 0.749691 0.74967 0.749639 0.749593 0.749522 0.749408
          0.74922 0.74889 0.74824 0.746743 0.742216 0.717889
        </DataArray>
        <DataArray type="Float32" Name="m^w_substrate" NumberOfComponents="1" format="ascii">
          7.46226e-08 1.04853e-07 1.47317e-07 2.07052e-07 2.91065e-07 4.09289e-07 5.75622e-07 8.09804e-07 1.13964e-06 1.60454e-06 2.26041e-06 3.18698e-06
          4.49828e-06 6.35039e-06 8.94696e-06 1.25917e-05 1.77585e-05 2.51401e-05 3.57686e-05 5.12305e-05 7.40319e-05 0.00010827 0.000160945 0.000244701
          0.000384122 0.000631941 0.00111787 0.00223155 0.00558881 0.0235939
        </DataArray>
        <DataArray type="Float32" Name="process rank" NumberOfComponents="1" format="ascii">
          0 0 0 0 0 0 0 0 0 0 0 0
          0 0 0 0 0 0 0 0 0 0 0 0
          0 0 0 0 0 0
        </DataArray>
      </CellData>
      <Points>
        <DataArray type="Float32" Name="Coordinates" NumberOfComponents="3" format="ascii">
          0 0 0 0.5 0 0 0 0.0333333 0 0.5 0.0333333 0
          0 0.0666667 0 0.5 0.0666667 0 0 0.1 0 0.5 0.1 0
          0 0.133333 0 0.5 0.133333 0 0 0.166667 0 0.5 0.166667 0
          0 0.2 0 0.5 0.2 0 0 0.233333 0 0.5 0.233333 0
          0 0.266667 0 0.5 0.266667 0 0 0.3 0 0.5 0.3 0
          0 0.333333 0 0.5 0.333333 0 0 0.366667 0 0.5 0.366667 0
          0 0.4 0 0.5 0.4 0 0 0.433333 0 0.5 0.433333 0
          0 0.466667 0 0.5 0.466667 0 0 0.5 0 0.5 0.5 0
          0 0.533333 0 0.5 0.533333 0 0 0.566667 0 0.5 0.566667 0
          0 0.6 0 0.5 0.6 0 0 0.633333 0 0.5 0.633333 0
          0 0.666667 0 0.5 0.666667 0 0 0.7 0 0.5 0.7 0
          0 0.733333 0 0.5 0.733333 0 0 0.766667 0 0.5 0.766667 0
          0 0.8 0 0.5 0.8 0 0 0.833333 0 0.5 0.833333 0
          0 0.866667 0 0.5 0.866667 0 0 0.9 0 0.5 0.9 0
          0 0.933333 0 0.5 0.933333 0 0 0.966667 0 0.5 0.966667 0
          0 1 0 0.5 1 0
        </DataArray>
      </Points>
      <Cells>
        <DataArray type="Int32" Name="connectivity" NumberOfComponents="1" format="ascii">
          0 1 3 2 2 3 5 4 4 5 7 6
          6 7 9 8 8 9 11 10 10 11 13 12
          12 13 15 14 14 15 17 16 16 17 19 18
          18 19 21 20 20 21 23 22 22 23 25 24
          24 25 27 26 26 27 29 28 28 29 31 30
          30 31 33 32 32 33 35 34 34 35 37 36
          36 37 39 38 38 39 41 40 40 41 43 42
          42 43 45 44 44 45 47 46 46 47 49 48
          48 49 51 50 50 51 53 52 52 53 55 54
          54 55 57 56 56 57 59 58 58 59 61 60
        </DataArray>
        <DataArray type="Int32" Name="offsets" NumberOfComponents="1" format="ascii">
          4 8 12 16 20 24 28 32 36 40 44 48
          52 56 60 64 68 72 76 80 84 88 92 96
          100 104 108 112 116 120
        </DataArray>
        <DataArray type="UInt8" Name="types" NumberOfComponents="1" format="ascii">
          9 9 9 9 9 9 9 9 9 9 9 9
          9 9 9 9 9 9 9 9 9 9 9 9
          9 9 9 9 9 9
        </DataArray>
      </Cells>
    </Piece>
  </UnstructuredGrid>
</VTKFile>
