<?xml version="1.0"?>
<VTKFile type="UnstructuredGrid" version="0.1" byte_order="LittleEndian">
  <UnstructuredGrid>
    <Piece NumberOfCells="30" NumberOfPoints="62">
      <CellData Scalars="Sg">
        <DataArray type="Float32" Name="Sg" NumberOfComponents="1" format="ascii">
          0 0 0 0 0 0 0 0 0 0 0 0
          0 0 0 0 0 0 0 0 0 0 0 0
          0 0 0 0 0 0
        </DataArray>
        <DataArray type="Float32" Name="Sl" NumberOfComponents="1" format="ascii">
          1 1 1 1 1 1 1 1 1 1 1 1
          1 1 1 1 1 1 1 1 1 1 1 1
          1 1 1 1 1 1
        </DataArray>
        <DataArray type="Float32" Name="pg" NumberOfComponents="1" format="ascii">
          24687.8 24360.9 24034 23707 23380.1 23053.1 22726.2 22399.3 22072.3 21745.4 21418.4 21091.5
          20764.6 20437.6 20110.7 19783.7 19456.8 19129.8 18802.9 18476 18149 17822.1 17495.1 17168.2
          16841.3 16514.3 16187.4 15860.4 15533.5 15209.4
        </DataArray>
        <DataArray type="Float32" Name="pl" NumberOfComponents="1" format="ascii">
          110628 110301 109974 109647 109320 108993 108666 108339 108012 107685 107358 107031
          106704 106377 106050 105723 105396 105070 104743 104416 104089 103762 103435 103108
          102781 102454 102127 101800 101473 101149
        </DataArray>
        <DataArray type="Float32" Name="pc" NumberOfComponents="1" format="ascii">
          -85939.7 -85939.7 -85939.7 -85939.7 -85939.7 -85939.7 -85939.7 -85939.7 -85939.7 -85939.7 -85939.7 -85939.7
          -85939.7 -85939.7 -85939.7 -85939.7 -85939.7 -85939.7 -85939.7 -85939.7 -85939.7 -85939.7 -85939.7 -85939.7
          -85939.7 -85939.7 -85939.7 -85939.7 -85939.7 -85939.7
        </DataArray>
        <DataArray type="Float32" Name="rhoL" NumberOfComponents="1" format="ascii">
          999.855 999.855 999.855 999.855 999.855 999.854 999.854 999.854 999.854 999.854 999.854 999.854
          999.853 999.853 999.853 999.853 999.853 999.853 999.852 999.852 999.852 999.852 999.852 999.852
          999.852 999.851 999.851 999.851 999.851 999.851
        </DataArray>
        <DataArray type="Float32" Name="rhoG" NumberOfComponents="1" format="ascii">
          0.30585 0.3018 0.29775 0.293699 0.289649 0.285598 0.281548 0.277498 0.273447 0.269397 0.265347 0.261296
          0.257246 0.253195 0.249145 0.245095 0.241044 0.236994 0.232944 0.228893 0.224843 0.220793 0.216742 0.212692
          0.208641 0.204591 0.200541 0.19649 0.19244 0.188424
        </DataArray>
        <DataArray type="Float32" Name="mobL" NumberOfComponents="1" format="ascii">
          722.171 722.17 722.17 722.17 722.17 722.17 722.169 722.169 722.169 722.169 722.169 722.169
          722.168 722.168 722.168 722.168 722.168 722.167 722.167 722.167 722.167 722.167 722.166 722.166
          722.166 722.166 722.166 722.166 722.165 722.165
        </DataArray>
        <DataArray type="Float32" Name="mobG" NumberOfComponents="1" format="ascii">
          0 0 0 0 0 0 0 0 0 0 0 0
          0 0 0 0 0 0 0 0 0 0 0 0
          0 0 0 0 0 0
        </DataArray>
        <DataArray type="Float32" Name="porosity" NumberOfComponents="1" format="ascii">
          0.298778 0.298778 0.298778 0.298778 0.298777 0.298777 0.298776 0.298775 0.298774 0.298772 0.29877 0.298766
          0.298762 0.298756 0.298747 0.298735 0.29872 0.298699 0.29867 0.298631 0.298577 0.298501 0.298392 0.298231
          0.297707 0.29727 0.296402 0.294147 0.2835 0.0461999
        </DataArray>
        <DataArray type="Float32" Name="temperature" NumberOfComponents="1" format="ascii">
          281.15 281.15 281.15 281.15 281.15 281.15 281.15 281.15 281.15 281.15 281.15 281.15
          281.15 281.15 281.15 281.15 281.15 281.15 281.15 281.15 281.15 281.15 281.15 281.15
          281.15 281.15 281.15 281.15 281.15 281.15
        </DataArray>
        <DataArray type="Float32" Name="phase presence" NumberOfComponents="1" format="ascii">
          1 1 1 1 1 1 1 1 1 1 1 1
          1 1 1 1 1 1 1 1 1 1 1 1
          1 1 1 1 1 1
        </DataArray>
        <DataArray type="Float32" Name="precipitateVolumeFraction_au" NumberOfComponents="1" format="ascii">
          5.52635e-10 5.52797e-10 5.52745e-10 5.52746e-10 5.52737e-10 5.52771e-10 5.52802e-10 5.52753e-10 5.52727e-10 5.52761e-10 5.52792e-10 5.52755e-10
          5.52759e-10 5.52751e-10 5.52702e-10 5.52783e-10 5.52719e-10 5.52773e-10 5.52725e-10 5.52751e-10 5.52747e-10 5.5274e-10 5.53031e-10 1.114e-09
          0.000269939 0.000269922 0.000269898 0.00026985 5.52246e-10 5.51334e-10
        </DataArray>
        <DataArray type="Float32" Name="precipitateVolumeFraction_nanoAu" NumberOfComponents="1" format="ascii">
          1.27425e-13 1.27462e-13 1.2745e-13 1.27451e-13 1.27449e-13 1.27456e-13 1.27463e-13 1.27452e-13 1.27446e-13 1.27453e-13 1.2746e-13 1.27451e-13
          1.27452e-13 1.27449e-13 1.27437e-13 1.27454e-13 1.27438e-13 1.27448e-13 1.27434e-13 1.27436e-13 1.27429e-13 1.27436e-13 1.39356e-13 2.61336e-11
          6.22168e-08 7.87427e-08 1.04325e-07 1.47484e-07 4.74174e-13 4.67286e-13
        </DataArray>
        <DataArray type="Float32" Name="precipitateVolumeFraction_d" NumberOfComponents="1" format="ascii">
          0.000610858 0.000610919 0.000611005 0.000611125 0.000611294 0.000611532 0.000611864 0.000612327 0.00061297 0.000613861 0.000615091 0.000616779
          0.000619089 0.000622238 0.000626514 0.000632308 0.000640144 0.000650746 0.000665124 0.00068473 0.000711737 0.000749535 0.000803758 0.000884475
          0.00101157 0.00123013 0.00166399 0.00279128 0.00824989 0.1269
        </DataArray>
        <DataArray type="Float32" Name="precipitateVolumeFraction_p" NumberOfComponents="1" format="ascii">
          0.000610858 0.000610919 0.000611005 0.000611125 0.000611294 0.000611532 0.000611864 0.000612327 0.00061297 0.000613861 0.000615091 0.000616779
          0.000619089 0.000622238 0.000626514 0.000632308 0.000640144 0.000650746 0.000665124 0.00068473 0.000711737 0.000749535 0.000803758 0.000884475
          0.00101157 0.00123013 0.00166399 0.00279128 0.00824989 0.1269
        </DataArray>
        <DataArray type="Float32" Name="K" NumberOfComponents="1" format="ascii">
          9.84393e-11 9.84392e-11 9.8439e-11 9.84387e-11 9.84382e-11 9.84376e-11 9.84368e-11 9.84356e-11 9.8434e-11 9.84317e-11 9.84286e-11 9.84243e-11
          9.84184e-11 9.84105e-11 9.83996e-11 9.83849e-11 9.8365e-11 9.83381e-11 9.83017e-11 9.8252e-11 9.81835e-11 9.80878e-11 9.79507e-11 9.77468e-11
          9.70872e-11 9.654e-11 9.54611e-11 9.27042e-11 8.0549e-11 1.96716e-13
        </DataArray>
        <DataArray type="Float32" Name="X^w_H2O" NumberOfComponents="1" format="ascii">
          0.999853 0.999853 0.999853 0.999853 0.999853 0.999853 0.999853 0.999853 0.999853 0.999853 0.999853 0.999853
          0.999853 0.999853 0.999853 0.999853 0.999853 0.999853 0.999853 0.999853 0.999853 0.999853 0.999853 0.999853
          0.999853 0.999852 0.999849 0.999846 0.999839 0.99984
        </DataArray>
        <DataArray type="Float32" Name="X^w_Air" NumberOfComponents="1" format="ascii">
          0 0 0 0 0 0 0 0 0 0 0 0
          0 0 0 0 0 0 0 0 0 0 0 0
          0 0 0 0 0 0
        </DataArray>
        <DataArray type="Float32" Name="X^w_AuComplex" NumberOfComponents="1" format="ascii">
          1.42835e-16 1.42877e-16 1.42864e-16 1.42864e-16 1.42861e-16 1.4287e-16 1.42878e-16 1.42865e-16 1.42858e-16 1.42866e-16 1.42874e-16 1.42863e-16
          1.42863e-16 1.4286e-16 1.42845e-16 1.42864e-16 1.42844e-16 1.42854e-16 1.42835e-16 1.42833e-16 1.4282e-16 1.42818e-16 1.55966e-16 2.92653e-14
          6.97045e-11 1.07899e-10 1.83299e-10 3.55957e-10 1.74801e-15 1.70308e-15
        </DataArray>
        <DataArray type="Float32" Name="X^w_nanoAu" NumberOfComponents="1" format="ascii">
          5.54982e-19 5.55142e-19 5.5509e-19 5.55091e-19 5.55082e-19 5.55115e-19 5.55145e-19 5.55095e-19 5.55069e-19 5.55102e-19 5.5513e-19 5.55091e-19
          5.55092e-19 5.55081e-19 5.55027e-19 5.55101e-19 5.5503e-19 5.5507e-19 5.55007e-19 5.5505e-19 5.58811e-19 9.10428e-19 3.34803e-17 3.04579e-15
          2.71713e-13 3.44073e-13 4.56098e-13 6.34804e-13 2.05928e-18 1.98498e-18
        </DataArray>
        <DataArray type="Float32" Name="X^w_cyanide" NumberOfComponents="1" format="ascii">
          5.22616e-06 5.22615e-06 5.22615e-06 5.22615e-06 5.22615e-06 5.22615e-06 5.22614e-06 5.22614e-06 5.22613e-06 5.22612e-06 5.22611e-06 5.2261e-06
          5.22608e-06 5.22605e-06 5.22602e-06 5.22597e-06 5.22591e-06 5.22582e-06 5.2257e-06 5.22553e-06 5.22528e-06 5.22494e-06 5.22443e-06 5.22365e-06
          5.2229e-06 6.60977e-06 8.75579e-06 1.2399e-05 1.94628e-05 1.92373e-05
        </DataArray>
        <DataArray type="Float32" Name="X^w_citrate" NumberOfComponents="1" format="ascii">
          0.000141796 0.000141796 0.000141796 0.000141796 0.000141796 0.000141796 0.000141796 0.000141796 0.000141796 0.000141796 0.000141796 0.000141795
          0.000141795 0.000141795 0.000141795 0.000141795 0.000141794 0.000141793 0.000141793 0.000141791 0.00014179 0.000141787 0.000141783 0.000141778
          0.000141769 0.000141754 0.000141726 0.000141661 0.000141446 0.000139807
        </DataArray>
        <DataArray type="Float32" Name="X^w_substrate" NumberOfComponents="1" format="ascii">
          1.07392e-11 1.44449e-11 1.94282e-11 2.61293e-11 3.51406e-11 4.72589e-11 6.35573e-11 8.54812e-11 1.1498e-10 1.54687e-10 2.08167e-10 2.80255e-10
          3.77541e-10 5.09043e-10 6.87189e-10 9.29246e-10 1.25947e-09 1.71243e-09 2.33827e-09 3.21136e-09 4.44534e-09 6.22016e-09 8.83443e-09 1.28145e-08
          1.91649e-08 3.0023e-08 5.07005e-08 9.79167e-08 2.50801e-07 1.40654e-06
        </DataArray>
        <DataArray type="Float32" Name="m^w_H2O" NumberOfComponents="1" format="ascii">
          55492.6 55492.5 55492.5 55492.5 55492.5 55492.5 55492.5 55492.5 55492.5 55492.5 55492.5 55492.5
          55492.4 55492.4 55492.4 55492.4 55492.4 55492.4 55492.4 55492.4 55492.4 55492.4 55492.4 55492.3
          55492.3 55492.3 55492.1 55491.9 55491.5 55491.6
        </DataArray>
        <DataArray type="Float32" Name="m^w_Air" NumberOfComponents="1" format="ascii">
          0 0 0 0 0 0 0 0 0 0 0 0
          0 0 0 0 0 0 0 0 0 0 0 0
          0 0 0 0 0 0
        </DataArray>
        <DataArray type="Float32" Name="m^w_AuComplex" NumberOfComponents="1" format="ascii">
          7.25058e-13 7.2527e-13 7.25202e-13 7.25202e-13 7.2519e-13 7.25233e-13 7.25272e-13 7.25207e-13 7.25171e-13 7.25213e-13 7.25251e-13 7.25198e-13
          7.25198e-13 7.25181e-13 7.25107e-13 7.25201e-13 7.25101e-13 7.25149e-13 7.25054e-13 7.25044e-13 7.24979e-13 7.24965e-13 7.91711e-13 1.48555e-10
          3.53831e-07 5.47712e-07 9.30455e-07 1.80689e-06 8.87316e-12 8.64512e-12
        </DataArray>
        <DataArray type="Float32" Name="m^w_nanoAu" NumberOfComponents="1" format="ascii">
          2.81719e-15 2.818e-15 2.81774e-15 2.81774e-15 2.8177e-15 2.81786e-15 2.81801e-15 2.81776e-15 2.81763e-15 2.81779e-15 2.81794e-15 2.81774e-15
          2.81774e-15 2.81768e-15 2.81741e-15 2.81779e-15 2.81742e-15 2.81763e-15 2.81731e-15 2.81753e-15 2.83662e-15 4.62148e-15 1.69951e-13 1.54609e-11
          1.37926e-09 1.74657e-09 2.31523e-09 3.22236e-09 1.04532e-14 1.00761e-14
        </DataArray>
        <DataArray type="Float32" Name="m^w_cyanide" NumberOfComponents="1" format="ascii">
          0.200822 0.200822 0.200822 0.200822 0.200822 0.200822 0.200822 0.200821 0.200821 0.200821 0.20082 0.20082
          0.200819 0.200818 0.200817 0.200815 0.200812 0.200809 0.200804 0.200798 0.200788 0.200775 0.200755 0.200725
          0.200697 0.253989 0.336452 0.476447 0.747884 0.739219
        </DataArray>
        <DataArray type="Float32" Name="m^w_citrate" NumberOfComponents="1" format="ascii">
          0.749741 0.749741 0.749741 0.749741 0.749741 0.74974 0.74974 0.74974 0.74974 0.749739 0.749739 0.749738
          0.749737 0.749736 0.749735 0.749733 0.74973 0.749727 0.749722 0.749715 0.749706 0.749692 0.749673 0.749643
          0.749595 0.749519 0.74937 0.749023 0.747887 0.73922
        </DataArray>
        <DataArray type="Float32" Name="m^w_substrate" NumberOfComponents="1" format="ascii">
          5.96008e-08 8.01667e-08 1.07823e-07 1.45013e-07 1.95024e-07 2.62278e-07 3.52731e-07 4.74405e-07 6.38118e-07 8.58486e-07 1.15529e-06 1.55536e-06
          2.09528e-06 2.82509e-06 3.81376e-06 5.15713e-06 6.98983e-06 9.50367e-06 1.29769e-05 1.78224e-05 2.46708e-05 3.45206e-05 4.90293e-05 7.11178e-05
          0.000106361 0.000166622 0.000281377 0.000543418 0.00139189 0.00780603
        </DataArray>
        <DataArray type="Float32" Name="process rank" NumberOfComponents="1" format="ascii">
          0 0 0 0 0 0 0 0 0 0 0 0
          0 0 0 0 0 0 0 0 0 0 0 0
          0 0 0 0 0 0
        </DataArray>
      </CellData>
      <Points>
        <DataArray type="Float32" Name="Coordinates" NumberOfComponents="3" format="ascii">
          0 0 0 0.5 0 0 0 0.0333333 0 0.5 0.0333333 0
          0 0.0666667 0 0.5 0.0666667 0 0 0.1 0 0.5 0.1 0
          0 0.133333 0 0.5 0.133333 0 0 0.166667 0 0.5 0.166667 0
          0 0.2 0 0.5 0.2 0 0 0.233333 0 0.5 0.233333 0
          0 0.266667 0 0.5 0.266667 0 0 0.3 0 0.5 0.3 0
          0 0.333333 0 0.5 0.333333 0 0 0.366667 0 0.5 0.366667 0
          0 0.4 0 0.5 0.4 0 0 0.433333 0 0.5 0.433333 0
          0 0.466667 0 0.5 0.466667 0 0 0.5 0 0.5 0.5 0
          0 0.533333 0 0.5 0.533333 0 0 0.566667 0 0.5 0.566667 0
          0 0.6 0 0.5 0.6 0 0 0.633333 0 0.5 0.633333 0
          0 0.666667 0 0.5 0.666667 0 0 0.7 0 0.5 0.7 0
          0 0.733333 0 0.5 0.733333 0 0 0.766667 0 0.5 0.766667 0
          0 0.8 0 0.5 0.8 0 0 0.833333 0 0.5 0.833333 0
          0 0.866667 0 0.5 0.866667 0 0 0.9 0 0.5 0.9 0
          0 0.933333 0 0.5 0.933333 0 0 0.966667 0 0.5 0.966667 0
          0 1 0 0.5 1 0
        </DataArray>
      </Points>
      <Cells>
        <DataArray type="Int32" Name="connectivity" NumberOfComponents="1" format="ascii">
          0 1 3 2 2 3 5 4 4 5 7 6
          6 7 9 8 8 9 11 10 10 11 13 12
          12 13 15 14 14 15 17 16 16 17 19 18
          18 19 21 20 20 21 23 22 22 23 25 24
          24 25 27 26 26 27 29 28 28 29 31 30
          30 31 33 32 32 33 35 34 34 35 37 36
          36 37 39 38 38 39 41 40 40 41 43 42
          42 43 45 44 44 45 47 46 46 47 49 48
          48 49 51 50 50 51 53 52 52 53 55 54
          54 55 57 56 56 57 59 58 58 59 61 60
        </DataArray>
        <DataArray type="Int32" Name="offsets" NumberOfComponents="1" format="ascii">
          4 8 12 16 20 24 28 32 36 40 44 48
          52 56 60 64 68 72 76 80 84 88 92 96
          100 104 108 112 116 120
        </DataArray>
        <DataArray type="UInt8" Name="types" NumberOfComponents="1" format="ascii">
          9 9 9 9 9 9 9 9 9 9 9 9
          9 9 9 9 9 9 9 9 9 9 9 9
          9 9 9 9 9 9
        </DataArray>
      </Cells>
    </Piece>
  </UnstructuredGrid>
</VTKFile>
