<?xml version="1.0"?>
<VTKFile type="UnstructuredGrid" version="0.1" byte_order="LittleEndian">
  <UnstructuredGrid>
    <Piece NumberOfCells="30" NumberOfPoints="62">
      <CellData Scalars="Sg">
        <DataArray type="Float32" Name="Sg" NumberOfComponents="1" format="ascii">
          0 0 0 0 0 0 0 0 0 0 0 0
          0 0 0 0 0 0 0 0 0 0 0 0
          0 0 0 0 0 0
        </DataArray>
        <DataArray type="Float32" Name="Sl" NumberOfComponents="1" format="ascii">
          1 1 1 1 1 1 1 1 1 1 1 1
          1 1 1 1 1 1 1 1 1 1 1 1
          1 1 1 1 1 1
        </DataArray>
        <DataArray type="Float32" Name="pg" NumberOfComponents="1" format="ascii">
          24687.8 24360.9 24034 23707 23380.1 23053.1 22726.2 22399.3 22072.3 21745.4 21418.4 21091.5
          20764.6 20437.6 20110.7 19783.7 19456.8 19129.8 18802.9 18476 18149 17822.1 17495.1 17168.2
          16841.3 16514.3 16187.4 15860.4 15533.5 15208.2
        </DataArray>
        <DataArray type="Float32" Name="pl" NumberOfComponents="1" format="ascii">
          110628 110301 109974 109647 109320 108993 108666 108339 108012 107685 107358 107031
          106704 106377 106050 105723 105396 105070 104743 104416 104089 103762 103435 103108
          102781 102454 102127 101800 101473 101148
        </DataArray>
        <DataArray type="Float32" Name="pc" NumberOfComponents="1" format="ascii">
          -85939.7 -85939.7 -85939.7 -85939.7 -85939.7 -85939.7 -85939.7 -85939.7 -85939.7 -85939.7 -85939.7 -85939.7
          -85939.7 -85939.7 -85939.7 -85939.7 -85939.7 -85939.7 -85939.7 -85939.7 -85939.7 -85939.7 -85939.7 -85939.7
          -85939.7 -85939.7 -85939.7 -85939.7 -85939.7 -85939.7
        </DataArray>
        <DataArray type="Float32" Name="rhoL" NumberOfComponents="1" format="ascii">
          999.855 999.855 999.855 999.855 999.855 999.854 999.854 999.854 999.854 999.854 999.854 999.854
          999.853 999.853 999.853 999.853 999.853 999.853 999.852 999.852 999.852 999.852 999.852 999.852
          999.852 999.851 999.851 999.851 999.851 999.851
        </DataArray>
        <DataArray type="Float32" Name="rhoG" NumberOfComponents="1" format="ascii">
          0.30585 0.3018 0.29775 0.293699 0.289649 0.285598 0.281548 0.277498 0.273447 0.269397 0.265347 0.261296
          0.257246 0.253195 0.249145 0.245095 0.241044 0.236994 0.232944 0.228893 0.224843 0.220793 0.216742 0.212692
          0.208641 0.204591 0.200541 0.19649 0.19244 0.18841
        </DataArray>
        <DataArray type="Float32" Name="mobL" NumberOfComponents="1" format="ascii">
          722.171 722.17 722.17 722.17 722.17 722.17 722.169 722.169 722.169 722.169 722.169 722.169
          722.168 722.168 722.168 722.168 722.168 722.167 722.167 722.167 722.167 722.167 722.166 722.166
          722.166 722.166 722.166 722.166 722.165 722.165
        </DataArray>
        <DataArray type="Float32" Name="mobG" NumberOfComponents="1" format="ascii">
          0 0 0 0 0 0 0 0 0 0 0 0
          0 0 0 0 0 0 0 0 0 0 0 0
          0 0 0 0 0 0
        </DataArray>
        <DataArray type="Float32" Name="porosity" NumberOfComponents="1" format="ascii">
          0.298685 0.298685 0.298685 0.298685 0.298684 0.298684 0.298683 0.298682 0.298681 0.298679 0.298676 0.298673
          0.298668 0.298661 0.298652 0.29864 0.298623 0.2986 0.29857 0.298528 0.298471 0.298392 0.298278 0.298109
          0.297575 0.297125 0.296248 0.29404 0.28437 0.0549276
        </DataArray>
        <DataArray type="Float32" Name="temperature" NumberOfComponents="1" format="ascii">
          281.15 281.15 281.15 281.15 281.15 281.15 281.15 281.15 281.15 281.15 281.15 281.15
          281.15 281.15 281.15 281.15 281.15 281.15 281.15 281.15 281.15 281.15 281.15 281.15
          281.15 281.15 281.15 281.15 281.15 281.15
        </DataArray>
        <DataArray type="Float32" Name="phase presence" NumberOfComponents="1" format="ascii">
          1 1 1 1 1 1 1 1 1 1 1 1
          1 1 1 1 1 1 1 1 1 1 1 1
          1 1 1 1 1 1
        </DataArray>
        <DataArray type="Float32" Name="precipitateVolumeFraction_au" NumberOfComponents="1" format="ascii">
          5.52634e-10 5.52796e-10 5.52745e-10 5.52746e-10 5.52737e-10 5.52771e-10 5.52802e-10 5.52753e-10 5.52727e-10 5.52761e-10 5.52792e-10 5.52755e-10
          5.52759e-10 5.52751e-10 5.52701e-10 5.52783e-10 5.52719e-10 5.52773e-10 5.52725e-10 5.52751e-10 5.52747e-10 5.5274e-10 5.52949e-10 9.35069e-10
          0.000269939 0.000269922 0.000269897 0.000269851 5.52246e-10 5.51339e-10
        </DataArray>
        <DataArray type="Float32" Name="precipitateVolumeFraction_nanoAu" NumberOfComponents="1" format="ascii">
          1.27584e-13 1.27633e-13 1.27617e-13 1.27617e-13 1.27614e-13 1.27622e-13 1.27629e-13 1.27616e-13 1.27609e-13 1.27617e-13 1.27623e-13 1.27613e-13
          1.27613e-13 1.2761e-13 1.27597e-13 1.27615e-13 1.27598e-13 1.27608e-13 1.27594e-13 1.27595e-13 1.27588e-13 1.27594e-13 1.39501e-13 2.61205e-11
          6.22364e-08 7.87639e-08 1.04345e-07 1.47491e-07 4.74166e-13 4.67074e-13
        </DataArray>
        <DataArray type="Float32" Name="precipitateVolumeFraction_d" NumberOfComponents="1" format="ascii">
          0.000657442 0.000657506 0.000657597 0.000657725 0.000657904 0.000658156 0.000658509 0.000659 0.000659684 0.000660631 0.000661938 0.000663734
          0.00066619 0.000669537 0.000674083 0.000680238 0.000688559 0.000699808 0.000715046 0.000735797 0.000764327 0.000804161 0.000861115 0.000945514
          0.00107753 0.0013023 0.00174104 0.00284507 0.0078152 0.122536
        </DataArray>
        <DataArray type="Float32" Name="precipitateVolumeFraction_p" NumberOfComponents="1" format="ascii">
          0.000657442 0.000657506 0.000657597 0.000657725 0.000657904 0.000658156 0.000658509 0.000659 0.000659684 0.000660631 0.000661938 0.000663734
          0.00066619 0.000669537 0.000674083 0.000680238 0.000688559 0.000699808 0.000715046 0.000735797 0.000764327 0.000804161 0.000861115 0.000945514
          0.00107753 0.0013023 0.00174104 0.00284507 0.0078152 0.122536
        </DataArray>
        <DataArray type="Float32" Name="K" NumberOfComponents="1" format="ascii">
          9.83211e-11 9.8321e-11 9.83208e-11 9.83204e-11 9.832e-11 9.83193e-11 9.83184e-11 9.83172e-11 9.83155e-11 9.83131e-11 9.83097e-11 9.83052e-11
          9.8299e-11 9.82905e-11 9.8279e-11 9.82634e-11 9.82423e-11 9.82138e-11 9.81752e-11 9.81226e-11 9.80504e-11 9.79497e-11 9.78058e-11 9.75929e-11
          9.69218e-11 9.63598e-11 9.52706e-11 9.25743e-11 8.149e-11 3.36724e-13
        </DataArray>
        <DataArray type="Float32" Name="X^w_H2O" NumberOfComponents="1" format="ascii">
          0.999853 0.999853 0.999853 0.999853 0.999853 0.999853 0.999853 0.999853 0.999853 0.999853 0.999853 0.999853
          0.999853 0.999853 0.999853 0.999853 0.999853 0.999853 0.999853 0.999853 0.999853 0.999853 0.999853 0.999853
          0.999853 0.999852 0.999849 0.999846 0.999839 0.99984
        </DataArray>
        <DataArray type="Float32" Name="X^w_Air" NumberOfComponents="1" format="ascii">
          0 0 0 0 0 0 0 0 0 0 0 0
          0 0 0 0 0 0 0 0 0 0 0 0
          0 0 0 0 0 0
        </DataArray>
        <DataArray type="Float32" Name="X^w_AuComplex" NumberOfComponents="1" format="ascii">
          1.4303e-16 1.43082e-16 1.43065e-16 1.43064e-16 1.43061e-16 1.43069e-16 1.43077e-16 1.43062e-16 1.43053e-16 1.43061e-16 1.43068e-16 1.43056e-16
          1.43056e-16 1.43052e-16 1.43036e-16 1.43054e-16 1.43034e-16 1.43043e-16 1.43024e-16 1.43021e-16 1.43008e-16 1.43005e-16 1.5614e-16 2.92557e-14
          6.97398e-11 1.07947e-10 1.83357e-10 3.55984e-10 1.74762e-15 1.7015e-15
        </DataArray>
        <DataArray type="Float32" Name="X^w_nanoAu" NumberOfComponents="1" format="ascii">
          5.55672e-19 5.55884e-19 5.55817e-19 5.55815e-19 5.55803e-19 5.55839e-19 5.55869e-19 5.55811e-19 5.55781e-19 5.55814e-19 5.55842e-19 5.55799e-19
          5.55798e-19 5.55784e-19 5.55728e-19 5.55802e-19 5.55728e-19 5.55769e-19 5.55703e-19 5.55746e-19 5.59511e-19 9.11553e-19 3.35107e-17 3.04758e-15
          2.71799e-13 3.44163e-13 4.56173e-13 6.34788e-13 2.0588e-18 1.98307e-18
        </DataArray>
        <DataArray type="Float32" Name="X^w_cyanide" NumberOfComponents="1" format="ascii">
          5.22781e-06 5.22779e-06 5.22777e-06 5.22775e-06 5.22773e-06 5.22771e-06 5.22769e-06 5.22767e-06 5.22765e-06 5.22763e-06 5.2276e-06 5.22758e-06
          5.22754e-06 5.22751e-06 5.22746e-06 5.2274e-06 5.22733e-06 5.22723e-06 5.22711e-06 5.22693e-06 5.22668e-06 5.22633e-06 5.2258e-06 5.22499e-06
          5.22417e-06 6.61115e-06 8.75708e-06 1.23994e-05 1.94588e-05 1.92276e-05
        </DataArray>
        <DataArray type="Float32" Name="X^w_citrate" NumberOfComponents="1" format="ascii">
          0.000141796 0.000141796 0.000141796 0.000141796 0.000141796 0.000141796 0.000141796 0.000141796 0.000141796 0.000141796 0.000141796 0.000141796
          0.000141795 0.000141795 0.000141795 0.000141795 0.000141794 0.000141794 0.000141793 0.000141792 0.00014179 0.000141788 0.000141784 0.000141778
          0.000141769 0.000141753 0.000141723 0.000141651 0.000141416 0.000139736
        </DataArray>
        <DataArray type="Float32" Name="X^w_substrate" NumberOfComponents="1" format="ascii">
          6.7467e-12 9.24691e-12 1.26729e-11 1.73675e-11 2.38004e-11 3.26157e-11 4.4697e-11 6.12569e-11 8.39621e-11 1.15106e-10 1.57849e-10 2.16561e-10
          2.97305e-10 4.08528e-10 5.62078e-10 7.74706e-10 1.07035e-09 1.48367e-09 2.06578e-09 2.89363e-09 4.0865e-09 5.83586e-09 8.46346e-09 1.25428e-08
          1.9179e-08 3.07403e-08 5.31313e-08 1.04859e-07 2.71622e-07 1.45662e-06
        </DataArray>
        <DataArray type="Float32" Name="m^w_H2O" NumberOfComponents="1" format="ascii">
          55492.6 55492.5 55492.5 55492.5 55492.5 55492.5 55492.5 55492.5 55492.5 55492.5 55492.5 55492.5
          55492.4 55492.4 55492.4 55492.4 55492.4 55492.4 55492.4 55492.4 55492.4 55492.4 55492.4 55492.3
          55492.3 55492.3 55492.1 55491.9 55491.5 55491.6
        </DataArray>
        <DataArray type="Float32" Name="m^w_Air" NumberOfComponents="1" format="ascii">
          0 0 0 0 0 0 0 0 0 0 0 0
          0 0 0 0 0 0 0 0 0 0 0 0
          0 0 0 0 0 0
        </DataArray>
        <DataArray type="Float32" Name="m^w_AuComplex" NumberOfComponents="1" format="ascii">
          7.26045e-13 7.26312e-13 7.26223e-13 7.26219e-13 7.26201e-13 7.26244e-13 7.26282e-13 7.26205e-13 7.26163e-13 7.26203e-13 7.26238e-13 7.26179e-13
          7.26175e-13 7.26154e-13 7.26075e-13 7.26169e-13 7.26064e-13 7.2611e-13 7.26012e-13 7.26001e-13 7.25932e-13 7.25915e-13 7.92593e-13 1.48507e-10
          3.54011e-07 5.47954e-07 9.30751e-07 1.80703e-06 8.87118e-12 8.63711e-12
        </DataArray>
        <DataArray type="Float32" Name="m^w_nanoAu" NumberOfComponents="1" format="ascii">
          2.82069e-15 2.82177e-15 2.82143e-15 2.82142e-15 2.82135e-15 2.82154e-15 2.82169e-15 2.82139e-15 2.82124e-15 2.82141e-15 2.82155e-15 2.82133e-15
          2.82133e-15 2.82126e-15 2.82097e-15 2.82135e-15 2.82097e-15 2.82117e-15 2.82084e-15 2.82106e-15 2.84017e-15 4.62719e-15 1.70106e-13 1.547e-11
          1.37969e-09 1.74703e-09 2.31561e-09 3.22228e-09 1.04508e-14 1.00664e-14
        </DataArray>
        <DataArray type="Float32" Name="m^w_cyanide" NumberOfComponents="1" format="ascii">
          0.200886 0.200885 0.200884 0.200884 0.200883 0.200882 0.200881 0.20088 0.20088 0.200879 0.200878 0.200877
          0.200875 0.200874 0.200872 0.20087 0.200867 0.200863 0.200858 0.200852 0.200842 0.200828 0.200808 0.200777
          0.200745 0.254042 0.336502 0.476462 0.747728 0.738843
        </DataArray>
        <DataArray type="Float32" Name="m^w_citrate" NumberOfComponents="1" format="ascii">
          0.749741 0.749741 0.749741 0.749741 0.749741 0.749741 0.74974 0.74974 0.74974 0.74974 0.749739 0.749739
          0.749738 0.749737 0.749736 0.749734 0.749732 0.749728 0.749724 0.749717 0.749708 0.749695 0.749675 0.749645
          0.749595 0.749513 0.749352 0.748971 0.74773 0.738845
        </DataArray>
        <DataArray type="Float32" Name="m^w_substrate" NumberOfComponents="1" format="ascii">
          3.7443e-08 5.13187e-08 7.03325e-08 9.63866e-08 1.32088e-07 1.81011e-07 2.4806e-07 3.39964e-07 4.65974e-07 6.38814e-07 8.7603e-07 1.20187e-06
          1.64998e-06 2.26725e-06 3.11942e-06 4.29947e-06 5.94023e-06 8.2341e-06 1.14646e-05 1.60591e-05 2.26792e-05 3.23878e-05 4.69705e-05 6.96099e-05
          0.00010644 0.000170602 0.000294868 0.000581944 0.00150745 0.00808392
        </DataArray>
        <DataArray type="Float32" Name="process rank" NumberOfComponents="1" format="ascii">
          0 0 0 0 0 0 0 0 0 0 0 0
          0 0 0 0 0 0 0 0 0 0 0 0
          0 0 0 0 0 0
        </DataArray>
      </CellData>
      <Points>
        <DataArray type="Float32" Name="Coordinates" NumberOfComponents="3" format="ascii">
          0 0 0 0.5 0 0 0 0.0333333 0 0.5 0.0333333 0
          0 0.0666667 0 0.5 0.0666667 0 0 0.1 0 0.5 0.1 0
          0 0.133333 0 0.5 0.133333 0 0 0.166667 0 0.5 0.166667 0
          0 0.2 0 0.5 0.2 0 0 0.233333 0 0.5 0.233333 0
          0 0.266667 0 0.5 0.266667 0 0 0.3 0 0.5 0.3 0
          0 0.333333 0 0.5 0.333333 0 0 0.366667 0 0.5 0.366667 0
          0 0.4 0 0.5 0.4 0 0 0.433333 0 0.5 0.433333 0
          0 0.466667 0 0.5 0.466667 0 0 0.5 0 0.5 0.5 0
          0 0.533333 0 0.5 0.533333 0 0 0.566667 0 0.5 0.566667 0
          0 0.6 0 0.5 0.6 0 0 0.633333 0 0.5 0.633333 0
          0 0.666667 0 0.5 0.666667 0 0 0.7 0 0.5 0.7 0
          0 0.733333 0 0.5 0.733333 0 0 0.766667 0 0.5 0.766667 0
          0 0.8 0 0.5 0.8 0 0 0.833333 0 0.5 0.833333 0
          0 0.866667 0 0.5 0.866667 0 0 0.9 0 0.5 0.9 0
          0 0.933333 0 0.5 0.933333 0 0 0.966667 0 0.5 0.966667 0
          0 1 0 0.5 1 0
        </DataArray>
      </Points>
      <Cells>
        <DataArray type="Int32" Name="connectivity" NumberOfComponents="1" format="ascii">
          0 1 3 2 2 3 5 4 4 5 7 6
          6 7 9 8 8 9 11 10 10 11 13 12
          12 13 15 14 14 15 17 16 16 17 19 18
          18 19 21 20 20 21 23 22 22 23 25 24
          24 25 27 26 26 27 29 28 28 29 31 30
          30 31 33 32 32 33 35 34 34 35 37 36
          36 37 39 38 38 39 41 40 40 41 43 42
          42 43 45 44 44 45 47 46 46 47 49 48
          48 49 51 50 50 51 53 52 52 53 55 54
          54 55 57 56 56 57 59 58 58 59 61 60
        </DataArray>
        <DataArray type="Int32" Name="offsets" NumberOfComponents="1" format="ascii">
          4 8 12 16 20 24 28 32 36 40 44 48
          52 56 60 64 68 72 76 80 84 88 92 96
          100 104 108 112 116 120
        </DataArray>
        <DataArray type="UInt8" Name="types" NumberOfComponents="1" format="ascii">
          9 9 9 9 9 9 9 9 9 9 9 9
          9 9 9 9 9 9 9 9 9 9 9 9
          9 9 9 9 9 9
        </DataArray>
      </Cells>
    </Piece>
  </UnstructuredGrid>
</VTKFile>
