<?xml version="1.0"?>
<VTKFile type="UnstructuredGrid" version="0.1" byte_order="LittleEndian">
  <UnstructuredGrid>
    <Piece NumberOfCells="30" NumberOfPoints="62">
      <CellData Scalars="Sg">
        <DataArray type="Float32" Name="Sg" NumberOfComponents="1" format="ascii">
          0 0 0 0 0 0 0 0 0 0 0 0
          0 0 0 0 0 0 0 0 0 0 0 0
          0 0 0 0 0 0
        </DataArray>
        <DataArray type="Float32" Name="Sl" NumberOfComponents="1" format="ascii">
          1 1 1 1 1 1 1 1 1 1 1 1
          1 1 1 1 1 1 1 1 1 1 1 1
          1 1 1 1 1 1
        </DataArray>
        <DataArray type="Float32" Name="pg" NumberOfComponents="1" format="ascii">
          24687.8 24360.9 24034 23707 23380.1 23053.1 22726.2 22399.3 22072.3 21745.4 21418.4 21091.5
          20764.6 20437.6 20110.7 19783.7 19456.8 19129.8 18802.9 18476 18149 17822.1 17495.1 17168.2
          16841.3 16514.3 16187.4 15860.4 15533.5 15209.5
        </DataArray>
        <DataArray type="Float32" Name="pl" NumberOfComponents="1" format="ascii">
          110628 110301 109974 109647 109320 108993 108666 108339 108012 107685 107358 107031
          106704 106377 106050 105723 105396 105070 104743 104416 104089 103762 103435 103108
          102781 102454 102127 101800 101473 101149
        </DataArray>
        <DataArray type="Float32" Name="pc" NumberOfComponents="1" format="ascii">
          -85939.7 -85939.7 -85939.7 -85939.7 -85939.7 -85939.7 -85939.7 -85939.7 -85939.7 -85939.7 -85939.7 -85939.7
          -85939.7 -85939.7 -85939.7 -85939.7 -85939.7 -85939.7 -85939.7 -85939.7 -85939.7 -85939.7 -85939.7 -85939.7
          -85939.7 -85939.7 -85939.7 -85939.7 -85939.7 -85939.7
        </DataArray>
        <DataArray type="Float32" Name="rhoL" NumberOfComponents="1" format="ascii">
          999.855 999.855 999.855 999.855 999.855 999.854 999.854 999.854 999.854 999.854 999.854 999.854
          999.853 999.853 999.853 999.853 999.853 999.853 999.852 999.852 999.852 999.852 999.852 999.852
          999.852 999.851 999.851 999.851 999.851 999.851
        </DataArray>
        <DataArray type="Float32" Name="rhoG" NumberOfComponents="1" format="ascii">
          0.30585 0.3018 0.29775 0.293699 0.289649 0.285598 0.281548 0.277498 0.273447 0.269397 0.265347 0.261296
          0.257246 0.253195 0.249145 0.245095 0.241044 0.236994 0.232944 0.228893 0.224843 0.220793 0.216742 0.212692
          0.208641 0.204591 0.200541 0.19649 0.19244 0.188426
        </DataArray>
        <DataArray type="Float32" Name="mobL" NumberOfComponents="1" format="ascii">
          722.171 722.17 722.17 722.17 722.17 722.17 722.169 722.169 722.169 722.169 722.169 722.169
          722.168 722.168 722.168 722.168 722.168 722.167 722.167 722.167 722.167 722.167 722.166 722.166
          722.166 722.166 722.166 722.166 722.165 722.165
        </DataArray>
        <DataArray type="Float32" Name="mobG" NumberOfComponents="1" format="ascii">
          0 0 0 0 0 0 0 0 0 0 0 0
          0 0 0 0 0 0 0 0 0 0 0 0
          0 0 0 0 0 0
        </DataArray>
        <DataArray type="Float32" Name="porosity" NumberOfComponents="1" format="ascii">
          0.2988 0.2988 0.2988 0.2988 0.2988 0.298799 0.298798 0.298798 0.298796 0.298795 0.298792 0.298789
          0.298784 0.298778 0.29877 0.298758 0.298743 0.298722 0.298693 0.298655 0.298602 0.298527 0.29842 0.29826
          0.297738 0.297304 0.29644 0.294177 0.283312 0.0455716
        </DataArray>
        <DataArray type="Float32" Name="temperature" NumberOfComponents="1" format="ascii">
          281.15 281.15 281.15 281.15 281.15 281.15 281.15 281.15 281.15 281.15 281.15 281.15
          281.15 281.15 281.15 281.15 281.15 281.15 281.15 281.15 281.15 281.15 281.15 281.15
          281.15 281.15 281.15 281.15 281.15 281.15
        </DataArray>
        <DataArray type="Float32" Name="phase presence" NumberOfComponents="1" format="ascii">
          1 1 1 1 1 1 1 1 1 1 1 1
          1 1 1 1 1 1 1 1 1 1 1 1
          1 1 1 1 1 1
        </DataArray>
        <DataArray type="Float32" Name="precipitateVolumeFraction_au" NumberOfComponents="1" format="ascii">
          5.52635e-10 5.52797e-10 5.52745e-10 5.52746e-10 5.52737e-10 5.52771e-10 5.52802e-10 5.52753e-10 5.52727e-10 5.52761e-10 5.52792e-10 5.52755e-10
          5.52759e-10 5.52751e-10 5.52702e-10 5.52783e-10 5.52719e-10 5.52773e-10 5.52725e-10 5.52751e-10 5.52747e-10 5.5274e-10 5.53051e-10 1.15871e-09
          0.000269939 0.000269922 0.000269898 0.00026985 5.52246e-10 5.51333e-10
        </DataArray>
        <DataArray type="Float32" Name="precipitateVolumeFraction_nanoAu" NumberOfComponents="1" format="ascii">
          1.27421e-13 1.27459e-13 1.27447e-13 1.27447e-13 1.27445e-13 1.27452e-13 1.27459e-13 1.27448e-13 1.27442e-13 1.2745e-13 1.27456e-13 1.27447e-13
          1.27448e-13 1.27445e-13 1.27433e-13 1.27451e-13 1.27434e-13 1.27445e-13 1.27431e-13 1.27432e-13 1.27426e-13 1.27432e-13 1.39359e-13 2.61416e-11
          6.2215e-08 7.87408e-08 1.04323e-07 1.47484e-07 4.7419e-13 4.67307e-13
        </DataArray>
        <DataArray type="Float32" Name="precipitateVolumeFraction_d" NumberOfComponents="1" format="ascii">
          0.000599767 0.000599827 0.000599912 0.000600031 0.000600198 0.000600432 0.000600759 0.000601216 0.00060185 0.000602728 0.00060394 0.000605604
          0.00060788 0.000610982 0.000615196 0.000620906 0.000628629 0.000639079 0.000653255 0.000672591 0.000699236 0.000736551 0.000790118 0.000869943
          0.00099582 0.00121278 0.00164513 0.00277662 0.00834401 0.127214
        </DataArray>
        <DataArray type="Float32" Name="precipitateVolumeFraction_p" NumberOfComponents="1" format="ascii">
          0.000599767 0.000599827 0.000599912 0.000600031 0.000600198 0.000600432 0.000600759 0.000601216 0.00060185 0.000602728 0.00060394 0.000605604
          0.00060788 0.000610982 0.000615196 0.000620906 0.000628629 0.000639079 0.000653255 0.000672591 0.000699236 0.000736551 0.000790118 0.000869943
          0.00099582 0.00121278 0.00164513 0.00277662 0.00834401 0.127214
        </DataArray>
        <DataArray type="Float32" Name="K" NumberOfComponents="1" format="ascii">
          9.84675e-11 9.84673e-11 9.84671e-11 9.84668e-11 9.84664e-11 9.84658e-11 9.8465e-11 9.84638e-11 9.84622e-11 9.846e-11 9.84569e-11 9.84527e-11
          9.84469e-11 9.8439e-11 9.84283e-11 9.84138e-11 9.83942e-11 9.83677e-11 9.83318e-11 9.82827e-11 9.82152e-11 9.81207e-11 9.79852e-11 9.77835e-11
          9.71267e-11 9.65833e-11 9.55078e-11 9.27397e-11 8.03465e-11 1.8855e-13
        </DataArray>
        <DataArray type="Float32" Name="X^w_H2O" NumberOfComponents="1" format="ascii">
          0.999853 0.999853 0.999853 0.999853 0.999853 0.999853 0.999853 0.999853 0.999853 0.999853 0.999853 0.999853
          0.999853 0.999853 0.999853 0.999853 0.999853 0.999853 0.999853 0.999853 0.999853 0.999853 0.999853 0.999853
          0.999853 0.999852 0.999849 0.999846 0.999839 0.99984
        </DataArray>
        <DataArray type="Float32" Name="X^w_Air" NumberOfComponents="1" format="ascii">
          0 0 0 0 0 0 0 0 0 0 0 0
          0 0 0 0 0 0 0 0 0 0 0 0
          0 0 0 0 0 0
        </DataArray>
        <DataArray type="Float32" Name="X^w_AuComplex" NumberOfComponents="1" format="ascii">
          1.42829e-16 1.4287e-16 1.42857e-16 1.42857e-16 1.42855e-16 1.42863e-16 1.42871e-16 1.42858e-16 1.42852e-16 1.4286e-16 1.42867e-16 1.42857e-16
          1.42857e-16 1.42854e-16 1.42839e-16 1.42858e-16 1.42838e-16 1.42847e-16 1.42829e-16 1.42827e-16 1.42814e-16 1.42811e-16 1.55967e-16 2.92738e-14
          6.97013e-11 1.07895e-10 1.83294e-10 3.55956e-10 1.74811e-15 1.70322e-15
        </DataArray>
        <DataArray type="Float32" Name="X^w_nanoAu" NumberOfComponents="1" format="ascii">
          5.54965e-19 5.55125e-19 5.55073e-19 5.55074e-19 5.55066e-19 5.55099e-19 5.55128e-19 5.55079e-19 5.55053e-19 5.55086e-19 5.55115e-19 5.55076e-19
          5.55077e-19 5.55065e-19 5.55012e-19 5.55085e-19 5.55014e-19 5.55054e-19 5.54991e-19 5.55034e-19 5.58794e-19 9.1038e-19 3.34782e-17 3.04567e-15
          2.71705e-13 3.44065e-13 4.56092e-13 6.34808e-13 2.05941e-18 1.98514e-18
        </DataArray>
        <DataArray type="Float32" Name="X^w_cyanide" NumberOfComponents="1" format="ascii">
          5.22604e-06 5.22604e-06 5.22604e-06 5.22604e-06 5.22604e-06 5.22604e-06 5.22603e-06 5.22603e-06 5.22603e-06 5.22602e-06 5.22601e-06 5.22599e-06
          5.22597e-06 5.22595e-06 5.22591e-06 5.22587e-06 5.2258e-06 5.22571e-06 5.22559e-06 5.22541e-06 5.22517e-06 5.22482e-06 5.22431e-06 5.22353e-06
          5.22279e-06 6.60964e-06 8.75567e-06 1.2399e-05 1.94634e-05 1.9238e-05
        </DataArray>
        <DataArray type="Float32" Name="X^w_citrate" NumberOfComponents="1" format="ascii">
          0.000141796 0.000141796 0.000141796 0.000141796 0.000141796 0.000141796 0.000141796 0.000141796 0.000141796 0.000141796 0.000141796 0.000141795
          0.000141795 0.000141795 0.000141795 0.000141794 0.000141794 0.000141793 0.000141792 0.000141791 0.000141789 0.000141787 0.000141783 0.000141777
          0.000141768 0.000141754 0.000141726 0.000141662 0.00014145 0.000139812
        </DataArray>
        <DataArray type="Float32" Name="X^w_substrate" NumberOfComponents="1" format="ascii">
          1.21352e-11 1.62474e-11 2.17518e-11 2.91196e-11 3.89817e-11 5.21832e-11 6.98565e-11 9.35204e-11 1.25214e-10 1.67679e-10 2.24608e-10 3.00994e-10
          4.03604e-10 5.41663e-10 7.27826e-10 9.79608e-10 1.32151e-09 1.78831e-09 2.43025e-09 3.32164e-09 4.57554e-09 6.3705e-09 9.00191e-09 1.29891e-08
          1.9321e-08 3.00981e-08 5.05367e-08 9.70703e-08 2.47846e-07 1.40307e-06
        </DataArray>
        <DataArray type="Float32" Name="m^w_H2O" NumberOfComponents="1" format="ascii">
          55492.6 55492.5 55492.5 55492.5 55492.5 55492.5 55492.5 55492.5 55492.5 55492.5 55492.5 55492.5
          55492.4 55492.4 55492.4 55492.4 55492.4 55492.4 55492.4 55492.4 55492.4 55492.4 55492.4 55492.3
          55492.3 55492.3 55492.1 55491.9 55491.5 55491.6
        </DataArray>
        <DataArray type="Float32" Name="m^w_Air" NumberOfComponents="1" format="ascii">
          0 0 0 0 0 0 0 0 0 0 0 0
          0 0 0 0 0 0 0 0 0 0 0 0
          0 0 0 0 0 0
        </DataArray>
        <DataArray type="Float32" Name="m^w_AuComplex" NumberOfComponents="1" format="ascii">
          7.25024e-13 7.25236e-13 7.25168e-13 7.25169e-13 7.25157e-13 7.252e-13 7.2524e-13 7.25174e-13 7.25139e-13 7.25181e-13 7.25219e-13 7.25166e-13
          7.25167e-13 7.25149e-13 7.25075e-13 7.2517e-13 7.25069e-13 7.25116e-13 7.25022e-13 7.25011e-13 7.24945e-13 7.24931e-13 7.91716e-13 1.48599e-10
          3.53815e-07 5.4769e-07 9.3043e-07 1.80689e-06 8.8737e-12 8.64579e-12
        </DataArray>
        <DataArray type="Float32" Name="m^w_nanoAu" NumberOfComponents="1" format="ascii">
          2.8171e-15 2.81791e-15 2.81765e-15 2.81766e-15 2.81761e-15 2.81778e-15 2.81793e-15 2.81768e-15 2.81755e-15 2.81771e-15 2.81786e-15 2.81766e-15
          2.81766e-15 2.8176e-15 2.81733e-15 2.81771e-15 2.81734e-15 2.81755e-15 2.81722e-15 2.81744e-15 2.83653e-15 4.62124e-15 1.69941e-13 1.54603e-11
          1.37922e-09 1.74653e-09 2.31519e-09 3.22239e-09 1.04539e-14 1.00769e-14
        </DataArray>
        <DataArray type="Float32" Name="m^w_cyanide" NumberOfComponents="1" format="ascii">
          0.200818 0.200818 0.200818 0.200818 0.200818 0.200818 0.200818 0.200817 0.200817 0.200817 0.200816 0.200816
          0.200815 0.200814 0.200813 0.200811 0.200808 0.200805 0.2008 0.200793 0.200784 0.20077 0.200751 0.200721
          0.200692 0.253984 0.336448 0.476448 0.747906 0.739245
        </DataArray>
        <DataArray type="Float32" Name="m^w_citrate" NumberOfComponents="1" format="ascii">
          0.749741 0.749741 0.749741 0.749741 0.749741 0.74974 0.74974 0.74974 0.74974 0.749739 0.749739 0.749738
          0.749737 0.749736 0.749734 0.749732 0.74973 0.749726 0.749721 0.749714 0.749705 0.749691 0.749671 0.749641
          0.749594 0.749518 0.749371 0.74903 0.747909 0.739246
        </DataArray>
        <DataArray type="Float32" Name="m^w_substrate" NumberOfComponents="1" format="ascii">
          6.7348e-08 9.01699e-08 1.20718e-07 1.61608e-07 2.16341e-07 2.89607e-07 3.87691e-07 5.19021e-07 6.94914e-07 9.30585e-07 1.24653e-06 1.67046e-06
          2.23992e-06 3.00612e-06 4.0393e-06 5.43663e-06 7.33412e-06 9.92476e-06 1.34874e-05 1.84344e-05 2.53933e-05 3.5355e-05 4.99588e-05 7.20867e-05
          0.000107227 0.000167038 0.000280469 0.00053872 0.00137549 0.00778676
        </DataArray>
        <DataArray type="Float32" Name="process rank" NumberOfComponents="1" format="ascii">
          0 0 0 0 0 0 0 0 0 0 0 0
          0 0 0 0 0 0 0 0 0 0 0 0
          0 0 0 0 0 0
        </DataArray>
      </CellData>
      <Points>
        <DataArray type="Float32" Name="Coordinates" NumberOfComponents="3" format="ascii">
          0 0 0 0.5 0 0 0 0.0333333 0 0.5 0.0333333 0
          0 0.0666667 0 0.5 0.0666667 0 0 0.1 0 0.5 0.1 0
          0 0.133333 0 0.5 0.133333 0 0 0.166667 0 0.5 0.166667 0
          0 0.2 0 0.5 0.2 0 0 0.233333 0 0.5 0.233333 0
          0 0.266667 0 0.5 0.266667 0 0 0.3 0 0.5 0.3 0
          0 0.333333 0 0.5 0.333333 0 0 0.366667 0 0.5 0.366667 0
          0 0.4 0 0.5 0.4 0 0 0.433333 0 0.5 0.433333 0
          0 0.466667 0 0.5 0.466667 0 0 0.5 0 0.5 0.5 0
          0 0.533333 0 0.5 0.533333 0 0 0.566667 0 0.5 0.566667 0
          0 0.6 0 0.5 0.6 0 0 0.633333 0 0.5 0.633333 0
          0 0.666667 0 0.5 0.666667 0 0 0.7 0 0.5 0.7 0
          0 0.733333 0 0.5 0.733333 0 0 0.766667 0 0.5 0.766667 0
          0 0.8 0 0.5 0.8 0 0 0.833333 0 0.5 0.833333 0
          0 0.866667 0 0.5 0.866667 0 0 0.9 0 0.5 0.9 0
          0 0.933333 0 0.5 0.933333 0 0 0.966667 0 0.5 0.966667 0
          0 1 0 0.5 1 0
        </DataArray>
      </Points>
      <Cells>
        <DataArray type="Int32" Name="connectivity" NumberOfComponents="1" format="ascii">
          0 1 3 2 2 3 5 4 4 5 7 6
          6 7 9 8 8 9 11 10 10 11 13 12
          12 13 15 14 14 15 17 16 16 17 19 18
          18 19 21 20 20 21 23 22 22 23 25 24
          24 25 27 26 26 27 29 28 28 29 31 30
          30 31 33 32 32 33 35 34 34 35 37 36
          36 37 39 38 38 39 41 40 40 41 43 42
          42 43 45 44 44 45 47 46 46 47 49 48
          48 49 51 50 50 51 53 52 52 53 55 54
          54 55 57 56 56 57 59 58 58 59 61 60
        </DataArray>
        <DataArray type="Int32" Name="offsets" NumberOfComponents="1" format="ascii">
          4 8 12 16 20 24 28 32 36 40 44 48
          52 56 60 64 68 72 76 80 84 88 92 96
          100 104 108 112 116 120
        </DataArray>
        <DataArray type="UInt8" Name="types" NumberOfComponents="1" format="ascii">
          9 9 9 9 9 9 9 9 9 9 9 9
          9 9 9 9 9 9 9 9 9 9 9 9
          9 9 9 9 9 9
        </DataArray>
      </Cells>
    </Piece>
  </UnstructuredGrid>
</VTKFile>
