<?xml version="1.0"?>
<VTKFile type="UnstructuredGrid" version="0.1" byte_order="LittleEndian">
  <UnstructuredGrid>
    <Piece NumberOfCells="30" NumberOfPoints="62">
      <CellData Scalars="Sg">
        <DataArray type="Float32" Name="Sg" NumberOfComponents="1" format="ascii">
          0 0 0 0 0 0 0 0 0 0 0 0
          0 0 0 0 0 0 0 0 0 0 0 0
          0 0 0 0 0 0
        </DataArray>
        <DataArray type="Float32" Name="Sl" NumberOfComponents="1" format="ascii">
          1 1 1 1 1 1 1 1 1 1 1 1
          1 1 1 1 1 1 1 1 1 1 1 1
          1 1 1 1 1 1
        </DataArray>
        <DataArray type="Float32" Name="pg" NumberOfComponents="1" format="ascii">
          24687.8 24360.9 24034 23707 23380.1 23053.1 22726.2 22399.3 22072.3 21745.4 21418.4 21091.5
          20764.6 20437.6 20110.7 19783.7 19456.8 19129.8 18802.9 18476 18149 17822.1 17495.1 17168.2
          16841.3 16514.3 16187.4 15860.4 15533.5 15206.6
        </DataArray>
        <DataArray type="Float32" Name="pl" NumberOfComponents="1" format="ascii">
          110628 110301 109974 109647 109320 108993 108666 108339 108012 107685 107358 107031
          106704 106377 106050 105723 105396 105070 104743 104416 104089 103762 103435 103108
          102781 102454 102127 101800 101473 101146
        </DataArray>
        <DataArray type="Float32" Name="pc" NumberOfComponents="1" format="ascii">
          -85939.7 -85939.7 -85939.7 -85939.7 -85939.7 -85939.7 -85939.7 -85939.7 -85939.7 -85939.7 -85939.7 -85939.7
          -85939.7 -85939.7 -85939.7 -85939.7 -85939.7 -85939.7 -85939.7 -85939.7 -85939.7 -85939.7 -85939.7 -85939.7
          -85939.7 -85939.7 -85939.7 -85939.7 -85939.7 -85939.7
        </DataArray>
        <DataArray type="Float32" Name="rhoL" NumberOfComponents="1" format="ascii">
          999.855 999.855 999.855 999.855 999.855 999.854 999.854 999.854 999.854 999.854 999.854 999.854
          999.853 999.853 999.853 999.853 999.853 999.853 999.852 999.852 999.852 999.852 999.852 999.852
          999.852 999.851 999.851 999.851 999.851 999.851
        </DataArray>
        <DataArray type="Float32" Name="rhoG" NumberOfComponents="1" format="ascii">
          0.30585 0.3018 0.29775 0.293699 0.289649 0.285598 0.281548 0.277498 0.273447 0.269397 0.265347 0.261296
          0.257246 0.253195 0.249145 0.245095 0.241044 0.236994 0.232944 0.228893 0.224843 0.220793 0.216742 0.212692
          0.208641 0.204591 0.200541 0.19649 0.19244 0.18839
        </DataArray>
        <DataArray type="Float32" Name="mobL" NumberOfComponents="1" format="ascii">
          722.171 722.17 722.17 722.17 722.17 722.17 722.169 722.169 722.169 722.169 722.169 722.169
          722.168 722.168 722.168 722.168 722.168 722.167 722.167 722.167 722.167 722.167 722.166 722.166
          722.166 722.166 722.166 722.166 722.165 722.165
        </DataArray>
        <DataArray type="Float32" Name="mobG" NumberOfComponents="1" format="ascii">
          0 0 0 0 0 0 0 0 0 0 0 0
          0 0 0 0 0 0 0 0 0 0 0 0
          0 0 0 0 0 0
        </DataArray>
        <DataArray type="Float32" Name="porosity" NumberOfComponents="1" format="ascii">
          0.299676 0.299676 0.299675 0.299675 0.299674 0.299673 0.299672 0.299671 0.299669 0.299668 0.299665 0.299663
          0.29966 0.299656 0.29965 0.299644 0.299636 0.299625 0.299611 0.299593 0.299568 0.299533 0.299484 0.29941
          0.299021 0.29881 0.298369 0.297131 0.291183 0.226985
        </DataArray>
        <DataArray type="Float32" Name="temperature" NumberOfComponents="1" format="ascii">
          281.15 281.15 281.15 281.15 281.15 281.15 281.15 281.15 281.15 281.15 281.15 281.15
          281.15 281.15 281.15 281.15 281.15 281.15 281.15 281.15 281.15 281.15 281.15 281.15
          281.15 281.15 281.15 281.15 281.15 281.15
        </DataArray>
        <DataArray type="Float32" Name="phase presence" NumberOfComponents="1" format="ascii">
          1 1 1 1 1 1 1 1 1 1 1 1
          1 1 1 1 1 1 1 1 1 1 1 1
          1 1 1 1 1 1
        </DataArray>
        <DataArray type="Float32" Name="precipitateVolumeFraction_au" NumberOfComponents="1" format="ascii">
          5.52619e-10 5.52768e-10 5.5245e-10 5.52797e-10 5.52737e-10 5.52765e-10 5.52773e-10 5.52755e-10 5.52757e-10 5.52727e-10 5.52798e-10 5.52796e-10
          5.52731e-10 5.52736e-10 5.52758e-10 5.52828e-10 5.52758e-10 5.52762e-10 5.52772e-10 5.52737e-10 5.52773e-10 5.52743e-10 5.5291e-10 9.30864e-10
          0.00026994 0.000269924 0.0002699 0.000269854 5.52466e-10 5.51198e-10
        </DataArray>
        <DataArray type="Float32" Name="precipitateVolumeFraction_nanoAu" NumberOfComponents="1" format="ascii">
          1.25458e-13 1.25495e-13 1.25396e-13 1.25479e-13 1.25448e-13 1.25439e-13 1.25423e-13 1.25398e-13 1.25375e-13 1.25341e-13 1.25329e-13 1.25295e-13
          1.25242e-13 1.252e-13 1.25158e-13 1.2512e-13 1.25042e-13 1.24972e-13 1.24894e-13 1.24792e-13 1.2469e-13 1.24568e-13 1.36387e-13 2.58533e-11
          6.04826e-08 7.67076e-08 1.01947e-07 1.4479e-07 4.68915e-13 4.50834e-13
        </DataArray>
        <DataArray type="Float32" Name="precipitateVolumeFraction_d" NumberOfComponents="1" format="ascii">
          0.000161939 0.000162164 0.000162424 0.000162728 0.000163085 0.000163506 0.000164006 0.000164603 0.000165323 0.000166194 0.000167259 0.000168569
          0.000170193 0.00017222 0.000174771 0.000178006 0.000182142 0.000187481 0.000194455 0.000203694 0.000216163 0.00023341 0.000258082 0.00029507
          0.000354409 0.000459887 0.000680652 0.0012994 0.00440846 0.0365074
        </DataArray>
        <DataArray type="Float32" Name="precipitateVolumeFraction_p" NumberOfComponents="1" format="ascii">
          0.000161939 0.000162164 0.000162424 0.000162728 0.000163085 0.000163506 0.000164006 0.000164603 0.000165323 0.000166194 0.000167259 0.000168569
          0.000170193 0.00017222 0.000174771 0.000178006 0.000182142 0.000187481 0.000194455 0.000203694 0.000216163 0.00023341 0.000258082 0.00029507
          0.000354409 0.000459887 0.000680652 0.0012994 0.00440846 0.0365074
        </DataArray>
        <DataArray type="Float32" Name="K" NumberOfComponents="1" format="ascii">
          9.95843e-11 9.95837e-11 9.95831e-11 9.95823e-11 9.95814e-11 9.95803e-11 9.9579e-11 9.95775e-11 9.95756e-11 9.95734e-11 9.95707e-11 9.95673e-11
          9.95631e-11 9.9558e-11 9.95514e-11 9.95431e-11 9.95325e-11 9.95189e-11 9.9501e-11 9.94773e-11 9.94454e-11 9.94013e-11 9.93382e-11 9.92436e-11
          9.8748e-11 9.84799e-11 9.79206e-11 9.63671e-11 8.9179e-11 3.5518e-11
        </DataArray>
        <DataArray type="Float32" Name="X^w_H2O" NumberOfComponents="1" format="ascii">
          0.999853 0.999853 0.999853 0.999853 0.999853 0.999853 0.999853 0.999853 0.999853 0.999853 0.999853 0.999853
          0.999853 0.999853 0.999853 0.999853 0.999853 0.999853 0.999853 0.999853 0.999853 0.999853 0.999853 0.999853
          0.999853 0.999852 0.99985 0.999846 0.99984 0.999842
        </DataArray>
        <DataArray type="Float32" Name="X^w_Air" NumberOfComponents="1" format="ascii">
          0 0 0 0 0 0 0 0 0 0 0 0
          0 0 0 0 0 0 0 0 0 0 0 0
          0 0 0 0 0 0
        </DataArray>
        <DataArray type="Float32" Name="X^w_AuComplex" NumberOfComponents="1" format="ascii">
          1.44877e-16 1.44905e-16 1.4478e-16 1.44857e-16 1.44806e-16 1.44775e-16 1.44735e-16 1.44682e-16 1.44629e-16 1.4456e-16 1.44513e-16 1.44437e-16
          1.44335e-16 1.44242e-16 1.44141e-16 1.44041e-16 1.43887e-16 1.43735e-16 1.43562e-16 1.43351e-16 1.43124e-16 1.42851e-16 1.56043e-16 2.95621e-14
          6.90785e-11 1.07418e-10 1.837e-10 3.60229e-10 1.79487e-15 1.66781e-15
        </DataArray>
        <DataArray type="Float32" Name="X^w_nanoAu" NumberOfComponents="1" format="ascii">
          5.46239e-19 5.46374e-19 5.45933e-19 5.46267e-19 5.46112e-19 5.46045e-19 5.45945e-19 5.45803e-19 5.45668e-19 5.45485e-19 5.45387e-19 5.45191e-19
          5.4491e-19 5.44673e-19 5.44424e-19 5.44187e-19 5.43771e-19 5.4338e-19 5.42937e-19 5.4242e-19 5.4552e-19 8.85485e-19 3.24442e-17 2.95147e-15
          2.6315e-13 3.33699e-13 4.43283e-13 6.18674e-13 2.01156e-18 1.84764e-18
        </DataArray>
        <DataArray type="Float32" Name="X^w_cyanide" NumberOfComponents="1" format="ascii">
          5.14366e-06 5.14316e-06 5.1426e-06 5.14197e-06 5.14127e-06 5.14048e-06 5.1396e-06 5.13861e-06 5.13751e-06 5.13629e-06 5.13493e-06 5.13341e-06
          5.13171e-06 5.12982e-06 5.12771e-06 5.12533e-06 5.12266e-06 5.11964e-06 5.11619e-06 5.11221e-06 5.10758e-06 5.10209e-06 5.09542e-06 5.08708e-06
          5.07664e-06 6.438e-06 8.55488e-06 1.21714e-05 1.92346e-05 1.85599e-05
        </DataArray>
        <DataArray type="Float32" Name="X^w_citrate" NumberOfComponents="1" format="ascii">
          0.00014175 0.000141746 0.000141741 0.000141735 0.000141729 0.000141722 0.000141714 0.000141706 0.000141697 0.000141687 0.000141676 0.000141664
          0.000141651 0.000141636 0.00014162 0.000141601 0.000141581 0.000141558 0.000141532 0.000141502 0.000141467 0.000141426 0.000141377 0.000141315
          0.000141235 0.000141124 0.000140951 0.00014063 0.000139787 0.000134883
        </DataArray>
        <DataArray type="Float32" Name="X^w_substrate" NumberOfComponents="1" format="ascii">
          3.2288e-08 3.5571e-08 3.91787e-08 4.3143e-08 4.74994e-08 5.22873e-08 5.75504e-08 6.33378e-08 6.97048e-08 7.67139e-08 8.44369e-08 9.29565e-08
          1.0237e-07 1.12792e-07 1.24361e-07 1.3725e-07 1.51672e-07 1.67905e-07 1.86314e-07 2.07398e-07 2.31861e-07 2.60733e-07 2.95608e-07 3.39093e-07
          3.95822e-07 4.74939e-07 5.97504e-07 8.24652e-07 1.42042e-06 4.87844e-06
        </DataArray>
        <DataArray type="Float32" Name="m^w_H2O" NumberOfComponents="1" format="ascii">
          55492.6 55492.5 55492.5 55492.5 55492.5 55492.5 55492.5 55492.5 55492.5 55492.5 55492.5 55492.5
          55492.5 55492.4 55492.4 55492.4 55492.4 55492.4 55492.4 55492.4 55492.4 55492.4 55492.4 55492.4
          55492.4 55492.3 55492.2 55491.9 55491.6 55491.7
        </DataArray>
        <DataArray type="Float32" Name="m^w_Air" NumberOfComponents="1" format="ascii">
          0 0 0 0 0 0 0 0 0 0 0 0
          0 0 0 0 0 0 0 0 0 0 0 0
          0 0 0 0 0 0
        </DataArray>
        <DataArray type="Float32" Name="m^w_AuComplex" NumberOfComponents="1" format="ascii">
          7.35424e-13 7.35565e-13 7.34931e-13 7.35322e-13 7.35058e-13 7.34905e-13 7.34701e-13 7.3443e-13 7.3416e-13 7.33814e-13 7.33571e-13 7.33185e-13
          7.32667e-13 7.32195e-13 7.31686e-13 7.31174e-13 7.30395e-13 7.29622e-13 7.28746e-13 7.27671e-13 7.26519e-13 7.25135e-13 7.92102e-13 1.50062e-10
          3.50654e-07 5.45272e-07 9.32493e-07 1.82858e-06 9.11103e-12 8.46608e-12
        </DataArray>
        <DataArray type="Float32" Name="m^w_nanoAu" NumberOfComponents="1" format="ascii">
          2.77281e-15 2.77349e-15 2.77126e-15 2.77295e-15 2.77216e-15 2.77182e-15 2.77131e-15 2.77059e-15 2.76991e-15 2.76898e-15 2.76848e-15 2.76748e-15
          2.76605e-15 2.76486e-15 2.76359e-15 2.76238e-15 2.76027e-15 2.75829e-15 2.75604e-15 2.75341e-15 2.76915e-15 4.49487e-15 1.64692e-13 1.49822e-11
          1.33579e-09 1.69391e-09 2.25018e-09 3.14049e-09 1.0211e-14 9.37893e-15
        </DataArray>
        <DataArray type="Float32" Name="m^w_cyanide" NumberOfComponents="1" format="ascii">
          0.197652 0.197633 0.197612 0.197588 0.19756 0.19753 0.197496 0.197458 0.197416 0.197369 0.197316 0.197258
          0.197193 0.19712 0.197039 0.196948 0.196845 0.196729 0.196596 0.196443 0.196265 0.196054 0.195798 0.195477
          0.195076 0.247388 0.328732 0.467702 0.739114 0.713185
        </DataArray>
        <DataArray type="Float32" Name="m^w_citrate" NumberOfComponents="1" format="ascii">
          0.7495 0.749476 0.749449 0.749419 0.749386 0.74935 0.74931 0.749267 0.749219 0.749166 0.749108 0.749044
          0.748974 0.748895 0.748808 0.748712 0.748603 0.748482 0.748343 0.748185 0.748002 0.747785 0.747523 0.747197
          0.746772 0.746183 0.74527 0.743575 0.739116 0.713187
        </DataArray>
        <DataArray type="Float32" Name="m^w_substrate" NumberOfComponents="1" format="ascii">
          0.000179192 0.000197412 0.000217434 0.000239436 0.000263613 0.000290185 0.000319394 0.000351513 0.000386848 0.000425748 0.000468608 0.000515891
          0.000568132 0.000625972 0.000690182 0.00076171 0.00084175 0.000931839 0.00103401 0.00115102 0.00128678 0.00144702 0.00164056 0.0018819
          0.00219673 0.00263581 0.00331603 0.00457665 0.00788302 0.0270743
        </DataArray>
        <DataArray type="Float32" Name="process rank" NumberOfComponents="1" format="ascii">
          0 0 0 0 0 0 0 0 0 0 0 0
          0 0 0 0 0 0 0 0 0 0 0 0
          0 0 0 0 0 0
        </DataArray>
      </CellData>
      <Points>
        <DataArray type="Float32" Name="Coordinates" NumberOfComponents="3" format="ascii">
          0 0 0 0.5 0 0 0 0.0333333 0 0.5 0.0333333 0
          0 0.0666667 0 0.5 0.0666667 0 0 0.1 0 0.5 0.1 0
          0 0.133333 0 0.5 0.133333 0 0 0.166667 0 0.5 0.166667 0
          0 0.2 0 0.5 0.2 0 0 0.233333 0 0.5 0.233333 0
          0 0.266667 0 0.5 0.266667 0 0 0.3 0 0.5 0.3 0
          0 0.333333 0 0.5 0.333333 0 0 0.366667 0 0.5 0.366667 0
          0 0.4 0 0.5 0.4 0 0 0.433333 0 0.5 0.433333 0
          0 0.466667 0 0.5 0.466667 0 0 0.5 0 0.5 0.5 0
          0 0.533333 0 0.5 0.533333 0 0 0.566667 0 0.5 0.566667 0
          0 0.6 0 0.5 0.6 0 0 0.633333 0 0.5 0.633333 0
          0 0.666667 0 0.5 0.666667 0 0 0.7 0 0.5 0.7 0
          0 0.733333 0 0.5 0.733333 0 0 0.766667 0 0.5 0.766667 0
          0 0.8 0 0.5 0.8 0 0 0.833333 0 0.5 0.833333 0
          0 0.866667 0 0.5 0.866667 0 0 0.9 0 0.5 0.9 0
          0 0.933333 0 0.5 0.933333 0 0 0.966667 0 0.5 0.966667 0
          0 1 0 0.5 1 0
        </DataArray>
      </Points>
      <Cells>
        <DataArray type="Int32" Name="connectivity" NumberOfComponents="1" format="ascii">
          0 1 3 2 2 3 5 4 4 5 7 6
          6 7 9 8 8 9 11 10 10 11 13 12
          12 13 15 14 14 15 17 16 16 17 19 18
          18 19 21 20 20 21 23 22 22 23 25 24
          24 25 27 26 26 27 29 28 28 29 31 30
          30 31 33 32 32 33 35 34 34 35 37 36
          36 37 39 38 38 39 41 40 40 41 43 42
          42 43 45 44 44 45 47 46 46 47 49 48
          48 49 51 50 50 51 53 52 52 53 55 54
          54 55 57 56 56 57 59 58 58 59 61 60
        </DataArray>
        <DataArray type="Int32" Name="offsets" NumberOfComponents="1" format="ascii">
          4 8 12 16 20 24 28 32 36 40 44 48
          52 56 60 64 68 72 76 80 84 88 92 96
          100 104 108 112 116 120
        </DataArray>
        <DataArray type="UInt8" Name="types" NumberOfComponents="1" format="ascii">
          9 9 9 9 9 9 9 9 9 9 9 9
          9 9 9 9 9 9 9 9 9 9 9 9
          9 9 9 9 9 9
        </DataArray>
      </Cells>
    </Piece>
  </UnstructuredGrid>
</VTKFile>
