<?xml version="1.0"?>
<VTKFile type="UnstructuredGrid" version="0.1" byte_order="LittleEndian">
  <UnstructuredGrid>
    <Piece NumberOfCells="30" NumberOfPoints="62">
      <CellData Scalars="Sg">
        <DataArray type="Float32" Name="Sg" NumberOfComponents="1" format="ascii">
          0.0948756 0.0948536 0.0948315 0.0948092 0.0947868 0.0947644 0.094742 0.0947196 0.0946973 0.0946752 0.0946531 0.0946297
          0.094599 0.0945339 0.0943171 0.0934478 0.0898177 0.0750082 0.0235494 0 0 0 0 0
          0 0 0 0 0 0
        </DataArray>
        <DataArray type="Float32" Name="Sl" NumberOfComponents="1" format="ascii">
          0.905124 0.905146 0.905169 0.905191 0.905213 0.905236 0.905258 0.90528 0.905303 0.905325 0.905347 0.90537
          0.905401 0.905466 0.905683 0.906552 0.910182 0.924992 0.976451 1 1 1 1 1
          1 1 1 1 1 1
        </DataArray>
        <DataArray type="Float32" Name="pg" NumberOfComponents="1" format="ascii">
          51866.4 51533.2 51199.9 50866.6 50533.2 50199.9 49866.5 49533.2 49199.8 48866.6 48533.3 48199.6
          47863.9 47518.3 47129.3 46553.3 45186.5 40617.1 25549 18476 18149 17822.1 17495.1 17168.2
          16841.3 16514.3 16187.4 15860.4 15533.5 15206.6
        </DataArray>
        <DataArray type="Float32" Name="pl" NumberOfComponents="1" format="ascii">
          110628 110301 109974 109647 109320 108993 108666 108339 108012 107685 107358 107031
          106704 106377 106050 105723 105396 105070 104743 104416 104089 103762 103435 103108
          102781 102454 102127 101800 101473 101146
        </DataArray>
        <DataArray type="Float32" Name="pc" NumberOfComponents="1" format="ascii">
          -58761.1 -58767.4 -58773.7 -58780.1 -58786.5 -58792.9 -58799.4 -58805.8 -58812.2 -58818.5 -58824.8 -58831.5
          -58840.3 -58859 -58921.1 -59170.1 -60210 -64452.4 -79193.6 -85939.7 -85939.7 -85939.7 -85939.7 -85939.7
          -85939.7 -85939.7 -85939.7 -85939.7 -85939.7 -85939.7
        </DataArray>
        <DataArray type="Float32" Name="rhoL" NumberOfComponents="1" format="ascii">
          999.855 999.855 999.855 999.855 999.855 999.854 999.854 999.854 999.854 999.854 999.854 999.854
          999.853 999.853 999.853 999.853 999.853 999.853 999.852 999.852 999.852 999.852 999.852 999.852
          999.852 999.851 999.851 999.851 999.851 999.851
        </DataArray>
        <DataArray type="Float32" Name="rhoG" NumberOfComponents="1" format="ascii">
          0.642558 0.638429 0.6343 0.630171 0.626041 0.621911 0.617781 0.613652 0.609522 0.605393 0.601264 0.597131
          0.592972 0.58869 0.583871 0.576735 0.559802 0.503193 0.316519 0.228893 0.224843 0.220793 0.216742 0.212692
          0.208641 0.204591 0.200541 0.19649 0.19244 0.18839
        </DataArray>
        <DataArray type="Float32" Name="mobL" NumberOfComponents="1" format="ascii">
          722.171 722.17 722.17 722.17 722.17 722.17 722.169 722.169 722.169 722.169 722.169 722.169
          722.168 722.168 722.168 722.168 722.168 722.167 722.167 722.167 722.167 722.167 722.166 722.166
          722.166 722.166 722.166 722.166 722.165 722.165
        </DataArray>
        <DataArray type="Float32" Name="mobG" NumberOfComponents="1" format="ascii">
          0 0 0 0 0 0 0 0 0 0 0 0
          0 0 0 0 0 0 0 0 0 0 0 0
          0 0 0 0 0 0
        </DataArray>
        <DataArray type="Float32" Name="porosity" NumberOfComponents="1" format="ascii">
          0.298489 0.298489 0.298489 0.298489 0.298488 0.298488 0.298487 0.298486 0.298484 0.298482 0.298479 0.298475
          0.29847 0.298462 0.298452 0.298439 0.29842 0.298396 0.298362 0.298317 0.298255 0.29817 0.29805 0.297876
          0.29734 0.296908 0.296125 0.294422 0.289314 0.242616
        </DataArray>
        <DataArray type="Float32" Name="temperature" NumberOfComponents="1" format="ascii">
          281.15 281.15 281.15 281.15 281.15 281.15 281.15 281.15 281.15 281.15 281.15 281.15
          281.15 281.15 281.15 281.15 281.15 281.15 281.15 281.15 281.15 281.15 281.15 281.15
          281.15 281.15 281.15 281.15 281.15 281.15
        </DataArray>
        <DataArray type="Float32" Name="phase presence" NumberOfComponents="1" format="ascii">
          3 3 3 3 3 3 3 3 3 3 3 3
          3 3 3 3 3 3 3 1 1 1 1 1
          1 1 1 1 1 1
        </DataArray>
        <DataArray type="Float32" Name="precipitateVolumeFraction_au" NumberOfComponents="1" format="ascii">
          5.06676e-10 5.06691e-10 5.06696e-10 5.067e-10 5.06703e-10 5.06707e-10 5.0671e-10 5.06714e-10 5.06717e-10 5.0672e-10 5.06723e-10 5.06725e-10
          5.06727e-10 5.0673e-10 5.06732e-10 5.06735e-10 5.06736e-10 5.06738e-10 5.0674e-10 5.06741e-10 5.06733e-10 5.06742e-10 5.06769e-10 5.48827e-10
          0.000269936 0.000269921 0.000269899 0.000269865 5.06423e-10 5.05711e-10
        </DataArray>
        <DataArray type="Float32" Name="precipitateVolumeFraction_nanoAu" NumberOfComponents="1" format="ascii">
          4.61862e-11 4.61828e-11 4.61783e-11 4.61742e-11 4.61702e-11 4.61665e-11 4.61627e-11 4.61592e-11 4.61558e-11 4.61523e-11 4.61491e-11 4.61462e-11
          4.61432e-11 4.61402e-11 4.61373e-11 4.61352e-11 4.61325e-11 4.613e-11 4.61317e-11 4.61261e-11 4.6101e-11 4.61185e-11 4.61398e-11 7.30773e-11
          6.47318e-08 7.98218e-08 1.01765e-07 1.35386e-07 4.63117e-11 4.61483e-11
        </DataArray>
        <DataArray type="Float32" Name="precipitateVolumeFraction_d" NumberOfComponents="1" format="ascii">
          0.000755273 0.000755345 0.000755446 0.000755588 0.000755789 0.00075607 0.000756464 0.000757013 0.000757777 0.000758835 0.000760293 0.000762295
          0.00076503 0.000768753 0.000773799 0.000780616 0.000789806 0.000802182 0.00081887 0.00084146 0.000872276 0.000914864 0.000974915 0.00106219
          0.00119491 0.00141114 0.00180273 0.00265405 0.00534296 0.0286918
        </DataArray>
        <DataArray type="Float32" Name="precipitateVolumeFraction_p" NumberOfComponents="1" format="ascii">
          0.000755273 0.000755345 0.000755446 0.000755588 0.000755789 0.00075607 0.000756464 0.000757013 0.000757777 0.000758835 0.000760293 0.000762295
          0.00076503 0.000768753 0.000773799 0.000780616 0.000789806 0.000802182 0.00081887 0.00084146 0.000872276 0.000914864 0.000974915 0.00106219
          0.00119491 0.00141114 0.00180273 0.00265405 0.00534296 0.0286918
        </DataArray>
        <DataArray type="Float32" Name="K" NumberOfComponents="1" format="ascii">
          9.80733e-11 9.80731e-11 9.80729e-11 9.80725e-11 9.8072e-11 9.80713e-11 9.80703e-11 9.80689e-11 9.8067e-11 9.80643e-11 9.80606e-11 9.80555e-11
          9.80486e-11 9.80392e-11 9.80264e-11 9.80092e-11 9.7986e-11 9.79547e-11 9.79125e-11 9.78554e-11 9.77776e-11 9.76701e-11 9.75188e-11 9.72991e-11
          9.6628e-11 9.60887e-11 9.51183e-11 9.30363e-11 8.70133e-11 4.51815e-11
        </DataArray>
        <DataArray type="Float32" Name="X^w_H2O" NumberOfComponents="1" format="ascii">
          0.999837 0.999837 0.999837 0.999837 0.999837 0.999837 0.999838 0.999838 0.999838 0.999838 0.999838 0.999838
          0.999838 0.999838 0.999839 0.999839 0.999839 0.999841 0.999845 0.999853 0.999853 0.999853 0.999853 0.999853
          0.999853 0.999852 0.999849 0.999846 0.99984 0.999843
        </DataArray>
        <DataArray type="Float32" Name="X^w_Air" NumberOfComponents="1" format="ascii">
          1.57446e-05 1.56413e-05 1.5538e-05 1.54347e-05 1.53314e-05 1.5228e-05 1.51247e-05 1.50214e-05 1.49181e-05 1.48148e-05 1.47115e-05 1.4608e-05
          1.4504e-05 1.43968e-05 1.42763e-05 1.40977e-05 1.3674e-05 1.22577e-05 7.58694e-06 2.77897e-07 3.6211e-09 4.62022e-11 5.73502e-13 6.88254e-15
          7.84865e-17 8.62541e-19 8.69068e-21 7.41997e-23 4.16393e-25 1.58656e-28
        </DataArray>
        <DataArray type="Float32" Name="X^w_AuComplex" NumberOfComponents="1" format="ascii">
          5.04395e-14 5.10495e-14 4.96504e-14 5.03201e-14 4.83102e-14 5.07678e-14 4.93194e-14 4.85939e-14 4.73726e-14 4.77718e-14 4.64504e-14 4.58642e-14
          4.64139e-14 4.5667e-14 4.64024e-14 4.66025e-14 4.47556e-14 4.73048e-14 -2.81455e-13 4.54199e-14 4.52663e-14 4.51594e-14 4.50589e-14 7.60117e-14
          7.3712e-11 1.13211e-10 1.87759e-10 3.44953e-10 1.67396e-13 1.58988e-13
        </DataArray>
        <DataArray type="Float32" Name="X^w_nanoAu" NumberOfComponents="1" format="ascii">
          -5.36014e-16 1.28762e-15 -1.11488e-16 1.77192e-15 -2.37903e-16 -1.42146e-15 -4.42453e-16 4.57621e-17 3.80949e-17 4.37323e-16 1.54335e-15 -2.56553e-16
          2.93185e-16 -4.53732e-16 2.81647e-16 4.81733e-16 1.06223e-15 1.18396e-15 -3.15438e-13 2.00954e-16 2.00836e-16 2.01261e-16 2.35384e-16 3.37639e-15
          2.82332e-13 3.48046e-13 4.43253e-13 5.79452e-13 1.98461e-16 1.86555e-16
        </DataArray>
        <DataArray type="Float32" Name="X^w_cyanide" NumberOfComponents="1" format="ascii">
          5.8797e-06 5.8086e-06 5.74459e-06 5.68685e-06 5.63465e-06 5.58736e-06 5.54443e-06 5.50541e-06 5.46987e-06 5.43747e-06 5.40789e-06 5.38084e-06
          5.35609e-06 5.33341e-06 5.3126e-06 5.29347e-06 5.27583e-06 5.25947e-06 5.24409e-06 5.22906e-06 5.21421e-06 5.19993e-06 5.18572e-06 5.17077e-06
          5.15411e-06 6.60427e-06 8.82635e-06 1.24995e-05 1.91949e-05 1.82976e-05
        </DataArray>
        <DataArray type="Float32" Name="X^w_citrate" NumberOfComponents="1" format="ascii">
          0.000141795 0.000141795 0.000141795 0.000141795 0.000141794 0.000141794 0.000141794 0.000141794 0.000141794 0.000141794 0.000141793 0.000141793
          0.000141792 0.000141792 0.00014179 0.000141789 0.000141787 0.000141783 0.000141779 0.000141774 0.000141764 0.000141749 0.000141727 0.000141692
          0.000141633 0.00014153 0.00014133 0.000140877 0.000139548 0.000133001
        </DataArray>
        <DataArray type="Float32" Name="X^w_substrate" NumberOfComponents="1" format="ascii">
          2.7102e-11 3.74989e-11 5.19325e-11 7.19942e-11 9.99019e-11 1.38749e-10 1.92875e-10 2.68351e-10 3.73696e-10 5.20892e-10 7.26827e-10 1.01535e-09
          1.42032e-09 1.98995e-09 2.79332e-09 3.93025e-09 5.5463e-09 7.85491e-09 1.11628e-08 1.58831e-08 2.27869e-08 3.30964e-08 4.88738e-08 7.38324e-08
          1.15158e-07 1.88165e-07 3.3012e-07 6.50868e-07 1.58881e-06 6.20574e-06
        </DataArray>
        <DataArray type="Float32" Name="m^w_H2O" NumberOfComponents="1" format="ascii">
          55491.6 55491.6 55491.6 55491.6 55491.6 55491.6 55491.6 55491.6 55491.6 55491.6 55491.6 55491.6
          55491.6 55491.6 55491.6 55491.6 55491.6 55491.7 55492 55492.4 55492.4 55492.4 55492.4 55492.4
          55492.3 55492.3 55492.1 55491.9 55491.6 55491.7
        </DataArray>
        <DataArray type="Float32" Name="m^w_Air" NumberOfComponents="1" format="ascii">
          0.54359 0.540023 0.536456 0.532889 0.529322 0.525754 0.522186 0.518619 0.515051 0.511485 0.507918 0.504347
          0.500754 0.497056 0.492892 0.486728 0.4721 0.423199 0.261941 0.00959446 0.000125019 1.59514e-06 1.98003e-08 2.37622e-10
          2.70977e-12 2.97794e-14 3.00048e-16 2.56176e-18 1.43761e-20 5.47763e-24
        </DataArray>
        <DataArray type="Float32" Name="m^w_AuComplex" NumberOfComponents="1" format="ascii">
          2.5604e-10 2.59136e-10 2.52034e-10 2.55434e-10 2.45231e-10 2.57706e-10 2.50354e-10 2.46671e-10 2.40471e-10 2.42498e-10 2.3579e-10 2.32815e-10
          2.35605e-10 2.31814e-10 2.35547e-10 2.36562e-10 2.27187e-10 2.40127e-10 -1.42871e-09 2.30559e-10 2.29779e-10 2.29236e-10 2.28726e-10 3.85848e-10
          3.74174e-07 5.74676e-07 9.53095e-07 1.75104e-06 8.49727e-10 8.07046e-10
        </DataArray>
        <DataArray type="Float32" Name="m^w_nanoAu" NumberOfComponents="1" format="ascii">
          -2.7209e-12 6.53617e-12 -5.65934e-13 8.9946e-12 -1.20764e-12 -7.21557e-12 -2.24597e-12 2.32296e-13 1.93376e-13 2.21993e-12 7.83433e-12 -1.30231e-12
          1.48826e-12 -2.30322e-12 1.42969e-12 2.44536e-12 5.39207e-12 6.00999e-12 -1.60122e-09 1.02007e-12 1.01948e-12 1.02163e-12 1.19485e-12 1.71391e-11
          1.43316e-09 1.76674e-09 2.25002e-09 2.94139e-09 1.00742e-12 9.46982e-13
        </DataArray>
        <DataArray type="Float32" Name="m^w_cyanide" NumberOfComponents="1" format="ascii">
          0.225936 0.223204 0.220744 0.218525 0.216519 0.214702 0.213052 0.211553 0.210187 0.208942 0.207805 0.206766
          0.205815 0.204944 0.204144 0.203409 0.202731 0.202102 0.201511 0.200933 0.200363 0.199814 0.199268 0.198694
          0.198053 0.253778 0.339163 0.480308 0.737588 0.703107
        </DataArray>
        <DataArray type="Float32" Name="m^w_citrate" NumberOfComponents="1" format="ascii">
          0.749735 0.749735 0.749734 0.749734 0.749733 0.749733 0.749732 0.749731 0.74973 0.749729 0.749727 0.749725
          0.749721 0.749717 0.749711 0.749702 0.74969 0.749674 0.749652 0.749622 0.74957 0.749493 0.749374 0.749187
          0.748877 0.748335 0.747276 0.744878 0.737854 0.703234
        </DataArray>
        <DataArray type="Float32" Name="m^w_substrate" NumberOfComponents="1" format="ascii">
          1.50411e-07 2.08112e-07 2.88216e-07 3.99554e-07 5.54437e-07 7.70028e-07 1.07042e-06 1.4893e-06 2.07394e-06 2.89085e-06 4.03375e-06 5.635e-06
          7.88253e-06 1.10438e-05 1.55024e-05 2.18121e-05 3.07809e-05 4.35932e-05 6.19515e-05 8.81482e-05 0.000126463 0.000183678 0.00027124 0.000409755
          0.000639104 0.00104428 0.0018321 0.00361219 0.00881756 0.0344406
        </DataArray>
        <DataArray type="Float32" Name="process rank" NumberOfComponents="1" format="ascii">
          0 0 0 0 0 0 0 0 0 0 0 0
          0 0 0 0 0 0 0 0 0 0 0 0
          0 0 0 0 0 0
        </DataArray>
      </CellData>
      <Points>
        <DataArray type="Float32" Name="Coordinates" NumberOfComponents="3" format="ascii">
          0 0 0 0.5 0 0 0 0.0333333 0 0.5 0.0333333 0
          0 0.0666667 0 0.5 0.0666667 0 0 0.1 0 0.5 0.1 0
          0 0.133333 0 0.5 0.133333 0 0 0.166667 0 0.5 0.166667 0
          0 0.2 0 0.5 0.2 0 0 0.233333 0 0.5 0.233333 0
          0 0.266667 0 0.5 0.266667 0 0 0.3 0 0.5 0.3 0
          0 0.333333 0 0.5 0.333333 0 0 0.366667 0 0.5 0.366667 0
          0 0.4 0 0.5 0.4 0 0 0.433333 0 0.5 0.433333 0
          0 0.466667 0 0.5 0.466667 0 0 0.5 0 0.5 0.5 0
          0 0.533333 0 0.5 0.533333 0 0 0.566667 0 0.5 0.566667 0
          0 0.6 0 0.5 0.6 0 0 0.633333 0 0.5 0.633333 0
          0 0.666667 0 0.5 0.666667 0 0 0.7 0 0.5 0.7 0
          0 0.733333 0 0.5 0.733333 0 0 0.766667 0 0.5 0.766667 0
          0 0.8 0 0.5 0.8 0 0 0.833333 0 0.5 0.833333 0
          0 0.866667 0 0.5 0.866667 0 0 0.9 0 0.5 0.9 0
          0 0.933333 0 0.5 0.933333 0 0 0.966667 0 0.5 0.966667 0
          0 1 0 0.5 1 0
        </DataArray>
      </Points>
      <Cells>
        <DataArray type="Int32" Name="connectivity" NumberOfComponents="1" format="ascii">
          0 1 3 2 2 3 5 4 4 5 7 6
          6 7 9 8 8 9 11 10 10 11 13 12
          12 13 15 14 14 15 17 16 16 17 19 18
          18 19 21 20 20 21 23 22 22 23 25 24
          24 25 27 26 26 27 29 28 28 29 31 30
          30 31 33 32 32 33 35 34 34 35 37 36
          36 37 39 38 38 39 41 40 40 41 43 42
          42 43 45 44 44 45 47 46 46 47 49 48
          48 49 51 50 50 51 53 52 52 53 55 54
          54 55 57 56 56 57 59 58 58 59 61 60
        </DataArray>
        <DataArray type="Int32" Name="offsets" NumberOfComponents="1" format="ascii">
          4 8 12 16 20 24 28 32 36 40 44 48
          52 56 60 64 68 72 76 80 84 88 92 96
          100 104 108 112 116 120
        </DataArray>
        <DataArray type="UInt8" Name="types" NumberOfComponents="1" format="ascii">
          9 9 9 9 9 9 9 9 9 9 9 9
          9 9 9 9 9 9 9 9 9 9 9 9
          9 9 9 9 9 9
        </DataArray>
      </Cells>
    </Piece>
  </UnstructuredGrid>
</VTKFile>
