<?xml version="1.0"?>
<VTKFile type="Collection"
         version="0.1"
         byte_order="LittleEndian"
         compressor="vtkZLibDataCompressor">
 <Collection>
   <DataSet timestep="0" file="AuMin-00000.vtu"/>
   <DataSet timestep="100" file="AuMin-00001.vtu"/>
   <DataSet timestep="7689231.813486625" file="AuMin-00002.vtu"/>
   <DataSet timestep="16329231.81348662" file="AuMin-00003.vtu"/>
   <DataSet timestep="24969231.81348662" file="AuMin-00004.vtu"/>
   <DataSet timestep="33609231.81348662" file="AuMin-00005.vtu"/>
   <DataSet timestep="42249231.81348662" file="AuMin-00006.vtu"/>
   <DataSet timestep="50889231.81348662" file="AuMin-00007.vtu"/>
   <DataSet timestep="59529231.81348662" file="AuMin-00008.vtu"/>
   <DataSet timestep="68169231.81348662" file="AuMin-00009.vtu"/>
   <DataSet timestep="76809231.81348662" file="AuMin-00010.vtu"/>
   <DataSet timestep="85449231.81348662" file="AuMin-00011.vtu"/>
   <DataSet timestep="94089231.81348662" file="AuMin-00012.vtu"/>
   <DataSet timestep="102729231.8134866" file="AuMin-00013.vtu"/>
   <DataSet timestep="111369231.8134866" file="AuMin-00014.vtu"/>
   <DataSet timestep="120009231.8134866" file="AuMin-00015.vtu"/>
   <DataSet timestep="128649231.8134866" file="AuMin-00016.vtu"/>
   <DataSet timestep="137289231.8134866" file="AuMin-00017.vtu"/>
   <DataSet timestep="145929231.8134866" file="AuMin-00018.vtu"/>
   <DataSet timestep="154569231.8134866" file="AuMin-00019.vtu"/>
   <DataSet timestep="163209231.8134866" file="AuMin-00020.vtu"/>
   <DataSet timestep="171849231.8134866" file="AuMin-00021.vtu"/>
   <DataSet timestep="180489231.8134866" file="AuMin-00022.vtu"/>
   <DataSet timestep="189129231.8134866" file="AuMin-00023.vtu"/>
   <DataSet timestep="197769231.8134866" file="AuMin-00024.vtu"/>
   <DataSet timestep="206409231.8134866" file="AuMin-00025.vtu"/>
   <DataSet timestep="215049231.8134866" file="AuMin-00026.vtu"/>
   <DataSet timestep="223689231.8134866" file="AuMin-00027.vtu"/>
   <DataSet timestep="232329231.8134866" file="AuMin-00028.vtu"/>
   <DataSet timestep="240969231.8134866" file="AuMin-00029.vtu"/>
   <DataSet timestep="249609231.8134866" file="AuMin-00030.vtu"/>
   <DataSet timestep="258249231.8134866" file="AuMin-00031.vtu"/>
   <DataSet timestep="266889231.8134866" file="AuMin-00032.vtu"/>
   <DataSet timestep="275529231.8134866" file="AuMin-00033.vtu"/>
   <DataSet timestep="284169231.8134866" file="AuMin-00034.vtu"/>
   <DataSet timestep="292809231.8134866" file="AuMin-00035.vtu"/>
   <DataSet timestep="301449231.8134866" file="AuMin-00036.vtu"/>
   <DataSet timestep="310089231.8134866" file="AuMin-00037.vtu"/>
   <DataSet timestep="315360000" file="AuMin-00038.vtu"/>
 </Collection>
</VTKFile>
