<?xml version="1.0"?>
<VTKFile type="UnstructuredGrid" version="0.1" byte_order="LittleEndian">
  <UnstructuredGrid>
    <Piece NumberOfCells="30" NumberOfPoints="62">
      <CellData Scalars="Sg">
        <DataArray type="Float32" Name="Sg" NumberOfComponents="1" format="ascii">
          0 0 0 0 0 0 0 0 0 0 0 0
          0 0 0 0 0 0 0 0 0 0 0 0
          0 0 0 0 0 0
        </DataArray>
        <DataArray type="Float32" Name="Sl" NumberOfComponents="1" format="ascii">
          1 1 1 1 1 1 1 1 1 1 1 1
          1 1 1 1 1 1 1 1 1 1 1 1
          1 1 1 1 1 1
        </DataArray>
        <DataArray type="Float32" Name="pg" NumberOfComponents="1" format="ascii">
          24687.8 24360.9 24034 23707 23380.1 23053.1 22726.2 22399.3 22072.3 21745.4 21418.4 21091.5
          20764.6 20437.6 20110.7 19783.7 19456.8 19129.8 18802.9 18476 18149 17822.1 17495.1 17168.2
          16841.3 16514.3 16187.4 15860.4 15533.5 15209
        </DataArray>
        <DataArray type="Float32" Name="pl" NumberOfComponents="1" format="ascii">
          110628 110301 109974 109647 109320 108993 108666 108339 108012 107685 107358 107031
          106704 106377 106050 105723 105396 105070 104743 104416 104089 103762 103435 103108
          102781 102454 102127 101800 101473 101149
        </DataArray>
        <DataArray type="Float32" Name="pc" NumberOfComponents="1" format="ascii">
          -85939.7 -85939.7 -85939.7 -85939.7 -85939.7 -85939.7 -85939.7 -85939.7 -85939.7 -85939.7 -85939.7 -85939.7
          -85939.7 -85939.7 -85939.7 -85939.7 -85939.7 -85939.7 -85939.7 -85939.7 -85939.7 -85939.7 -85939.7 -85939.7
          -85939.7 -85939.7 -85939.7 -85939.7 -85939.7 -85939.7
        </DataArray>
        <DataArray type="Float32" Name="rhoL" NumberOfComponents="1" format="ascii">
          999.855 999.855 999.855 999.855 999.855 999.854 999.854 999.854 999.854 999.854 999.854 999.854
          999.853 999.853 999.853 999.853 999.853 999.853 999.852 999.852 999.852 999.852 999.852 999.852
          999.852 999.851 999.851 999.851 999.851 999.851
        </DataArray>
        <DataArray type="Float32" Name="rhoG" NumberOfComponents="1" format="ascii">
          0.30585 0.3018 0.29775 0.293699 0.289649 0.285598 0.281548 0.277498 0.273447 0.269397 0.265347 0.261296
          0.257246 0.253195 0.249145 0.245095 0.241044 0.236994 0.232944 0.228893 0.224843 0.220793 0.216742 0.212692
          0.208641 0.204591 0.200541 0.19649 0.19244 0.18842
        </DataArray>
        <DataArray type="Float32" Name="mobL" NumberOfComponents="1" format="ascii">
          722.171 722.17 722.17 722.17 722.17 722.17 722.169 722.169 722.169 722.169 722.169 722.169
          722.168 722.168 722.168 722.168 722.168 722.167 722.167 722.167 722.167 722.167 722.166 722.166
          722.166 722.166 722.166 722.166 722.165 722.165
        </DataArray>
        <DataArray type="Float32" Name="mobG" NumberOfComponents="1" format="ascii">
          0 0 0 0 0 0 0 0 0 0 0 0
          0 0 0 0 0 0 0 0 0 0 0 0
          0 0 0 0 0 0
        </DataArray>
        <DataArray type="Float32" Name="porosity" NumberOfComponents="1" format="ascii">
          0.298744 0.298744 0.298744 0.298743 0.298743 0.298742 0.298741 0.29874 0.298739 0.298736 0.298734 0.29873
          0.298724 0.298717 0.298707 0.298694 0.298677 0.298653 0.298622 0.298579 0.298521 0.29844 0.298324 0.298152
          0.297613 0.297153 0.296247 0.293927 0.283308 0.0480095
        </DataArray>
        <DataArray type="Float32" Name="temperature" NumberOfComponents="1" format="ascii">
          281.15 281.15 281.15 281.15 281.15 281.15 281.15 281.15 281.15 281.15 281.15 281.15
          281.15 281.15 281.15 281.15 281.15 281.15 281.15 281.15 281.15 281.15 281.15 281.15
          281.15 281.15 281.15 281.15 281.15 281.15
        </DataArray>
        <DataArray type="Float32" Name="phase presence" NumberOfComponents="1" format="ascii">
          1 1 1 1 1 1 1 1 1 1 1 1
          1 1 1 1 1 1 1 1 1 1 1 1
          1 1 1 1 1 1
        </DataArray>
        <DataArray type="Float32" Name="precipitateVolumeFraction_au" NumberOfComponents="1" format="ascii">
          5.53809e-10 5.5245e-10 5.52739e-10 5.52742e-10 5.52722e-10 5.52739e-10 5.52772e-10 5.5276e-10 5.52823e-10 5.52498e-10 5.52706e-10 5.5273e-10
          5.52775e-10 5.52773e-10 5.52773e-10 5.5275e-10 5.52741e-10 5.52768e-10 5.52764e-10 5.52765e-10 5.5275e-10 5.5277e-10 5.52883e-10 1.04081e-09
          0.00026994 0.000269924 0.0002699 0.000269852 5.52263e-10 5.51401e-10
        </DataArray>
        <DataArray type="Float32" Name="precipitateVolumeFraction_nanoAu" NumberOfComponents="1" format="ascii">
          1.23927e-13 1.23622e-13 1.23686e-13 1.23687e-13 1.23682e-13 1.23686e-13 1.23693e-13 1.2369e-13 1.23704e-13 1.23631e-13 1.23676e-13 1.23681e-13
          1.23691e-13 1.2369e-13 1.23688e-13 1.23682e-13 1.23678e-13 1.23682e-13 1.23677e-13 1.23673e-13 1.23663e-13 1.23666e-13 1.34921e-13 2.57602e-11
          6.03732e-08 7.66949e-08 1.02154e-07 1.45562e-07 4.74077e-13 4.66917e-13
        </DataArray>
        <DataArray type="Float32" Name="precipitateVolumeFraction_d" NumberOfComponents="1" format="ascii">
          0.000628034 0.000628115 0.000628229 0.000628386 0.000628604 0.000628906 0.000629322 0.000629895 0.000630681 0.000631755 0.000633219 0.000635204
          0.000637888 0.000641506 0.000646366 0.000652884 0.000661617 0.000673327 0.000689081 0.00071041 0.000739598 0.000780214 0.000838172 0.000924029
          0.00105854 0.00128852 0.00174137 0.00290173 0.00834591 0.125995
        </DataArray>
        <DataArray type="Float32" Name="precipitateVolumeFraction_p" NumberOfComponents="1" format="ascii">
          0.000628034 0.000628115 0.000628229 0.000628386 0.000628604 0.000628906 0.000629322 0.000629895 0.000630681 0.000631755 0.000633219 0.000635204
          0.000637888 0.000641506 0.000646366 0.000652884 0.000661617 0.000673327 0.000689081 0.00071041 0.000739598 0.000780214 0.000838172 0.000924029
          0.00105854 0.00128852 0.00174137 0.00290173 0.00834591 0.125995
        </DataArray>
        <DataArray type="Float32" Name="K" NumberOfComponents="1" format="ascii">
          9.83957e-11 9.83955e-11 9.83953e-11 9.83949e-11 9.83943e-11 9.83935e-11 9.83925e-11 9.8391e-11 9.8389e-11 9.83863e-11 9.83826e-11 9.83776e-11
          9.83707e-11 9.83616e-11 9.83492e-11 9.83327e-11 9.83106e-11 9.82809e-11 9.82409e-11 9.81869e-11 9.8113e-11 9.80102e-11 9.78637e-11 9.7647e-11
          9.69694e-11 9.63942e-11 9.52698e-11 9.24377e-11 8.03424e-11 2.2159e-13
        </DataArray>
        <DataArray type="Float32" Name="X^w_H2O" NumberOfComponents="1" format="ascii">
          0.999853 0.999853 0.999853 0.999853 0.999853 0.999853 0.999853 0.999853 0.999853 0.999853 0.999853 0.999853
          0.999853 0.999853 0.999853 0.999853 0.999853 0.999853 0.999853 0.999853 0.999853 0.999853 0.999853 0.999853
          0.999853 0.999852 0.99985 0.999846 0.999839 0.99984
        </DataArray>
        <DataArray type="Float32" Name="X^w_Air" NumberOfComponents="1" format="ascii">
          0 0 0 0 0 0 0 0 0 0 0 0
          0 0 0 0 0 0 0 0 0 0 0 0
          0 0 0 0 0 0
        </DataArray>
        <DataArray type="Float32" Name="X^w_AuComplex" NumberOfComponents="1" format="ascii">
          1.41425e-16 1.41077e-16 1.4115e-16 1.4115e-16 1.41145e-16 1.41149e-16 1.41157e-16 1.41153e-16 1.41169e-16 1.41085e-16 1.41137e-16 1.41142e-16
          1.41152e-16 1.4115e-16 1.41148e-16 1.41139e-16 1.41133e-16 1.41135e-16 1.41126e-16 1.41117e-16 1.41099e-16 1.41093e-16 1.53842e-16 2.93734e-14
          6.88554e-11 1.07396e-10 1.84428e-10 3.63982e-10 1.83476e-15 1.78553e-15
        </DataArray>
        <DataArray type="Float32" Name="X^w_nanoAu" NumberOfComponents="1" format="ascii">
          3.39834e-19 3.39003e-19 3.3918e-19 3.3918e-19 3.39168e-19 3.39177e-19 3.39197e-19 3.39189e-19 3.39225e-19 3.39027e-19 3.39152e-19 3.39165e-19
          3.3919e-19 3.39186e-19 3.39182e-19 3.39163e-19 3.39152e-19 3.3916e-19 3.39145e-19 3.39132e-19 3.39482e-19 3.95273e-19 8.57012e-18 1.20191e-15
          1.65832e-13 2.1073e-13 2.80773e-13 3.96029e-13 1.29624e-18 1.25281e-18
        </DataArray>
        <DataArray type="Float32" Name="X^w_cyanide" NumberOfComponents="1" format="ascii">
          5.07169e-06 5.07168e-06 5.07168e-06 5.07167e-06 5.07167e-06 5.07166e-06 5.07165e-06 5.07164e-06 5.07163e-06 5.07162e-06 5.0716e-06 5.07158e-06
          5.07156e-06 5.07153e-06 5.07148e-06 5.07143e-06 5.07135e-06 5.07125e-06 5.07111e-06 5.07092e-06 5.07065e-06 5.07027e-06 5.06971e-06 5.06885e-06
          5.06798e-06 6.43764e-06 8.57311e-06 1.22377e-05 1.94585e-05 1.92218e-05
        </DataArray>
        <DataArray type="Float32" Name="X^w_citrate" NumberOfComponents="1" format="ascii">
          0.000141796 0.000141796 0.000141796 0.000141796 0.000141796 0.000141796 0.000141796 0.000141796 0.000141796 0.000141796 0.000141796 0.000141796
          0.000141795 0.000141795 0.000141795 0.000141795 0.000141794 0.000141793 0.000141792 0.000141791 0.000141789 0.000141786 0.000141782 0.000141776
          0.000141766 0.00014175 0.000141719 0.000141647 0.000141414 0.000139693
        </DataArray>
        <DataArray type="Float32" Name="X^w_substrate" NumberOfComponents="1" format="ascii">
          1.31716e-11 1.76201e-11 2.35698e-11 3.15273e-11 4.21706e-11 5.64073e-11 7.5453e-11 1.00938e-10 1.3505e-10 1.80732e-10 2.41951e-10 3.24067e-10
          4.34361e-10 5.82765e-10 7.82933e-10 1.0538e-09 1.42191e-09 1.92507e-09 2.61809e-09 3.58228e-09 4.94189e-09 6.89383e-09 9.76518e-09 1.4133e-08
          2.10994e-08 3.30095e-08 5.56834e-08 1.07356e-07 2.73284e-07 1.48641e-06
        </DataArray>
        <DataArray type="Float32" Name="m^w_H2O" NumberOfComponents="1" format="ascii">
          55492.6 55492.6 55492.5 55492.5 55492.5 55492.5 55492.5 55492.5 55492.5 55492.5 55492.5 55492.5
          55492.5 55492.4 55492.4 55492.4 55492.4 55492.4 55492.4 55492.4 55492.4 55492.4 55492.4 55492.4
          55492.3 55492.3 55492.1 55491.9 55491.5 55491.6
        </DataArray>
        <DataArray type="Float32" Name="m^w_Air" NumberOfComponents="1" format="ascii">
          0 0 0 0 0 0 0 0 0 0 0 0
          0 0 0 0 0 0 0 0 0 0 0 0
          0 0 0 0 0 0
        </DataArray>
        <DataArray type="Float32" Name="m^w_AuComplex" NumberOfComponents="1" format="ascii">
          7.17899e-13 7.1613e-13 7.16504e-13 7.16505e-13 7.16477e-13 7.16496e-13 7.16537e-13 7.16519e-13 7.16597e-13 7.16172e-13 7.16437e-13 7.16462e-13
          7.16514e-13 7.16503e-13 7.16491e-13 7.16446e-13 7.16415e-13 7.16424e-13 7.16381e-13 7.16333e-13 7.16244e-13 7.16211e-13 7.80928e-13 1.49104e-10
          3.49521e-07 5.45162e-07 9.36185e-07 1.84763e-06 9.31355e-12 9.06363e-12
        </DataArray>
        <DataArray type="Float32" Name="m^w_nanoAu" NumberOfComponents="1" format="ascii">
          1.72506e-15 1.72084e-15 1.72174e-15 1.72174e-15 1.72168e-15 1.72172e-15 1.72182e-15 1.72178e-15 1.72196e-15 1.72096e-15 1.72159e-15 1.72166e-15
          1.72179e-15 1.72177e-15 1.72175e-15 1.72165e-15 1.72159e-15 1.72163e-15 1.72156e-15 1.72149e-15 1.72326e-15 2.00647e-15 4.35033e-14 6.10109e-12
          8.41792e-10 1.0697e-09 1.42525e-09 2.01031e-09 6.5799e-15 6.35947e-15
        </DataArray>
        <DataArray type="Float32" Name="m^w_cyanide" NumberOfComponents="1" format="ascii">
          0.194887 0.194887 0.194886 0.194886 0.194886 0.194886 0.194885 0.194885 0.194884 0.194884 0.194883 0.194882
          0.194881 0.19488 0.194879 0.194876 0.194873 0.194869 0.194864 0.194857 0.194846 0.194832 0.19481 0.194777
          0.194744 0.247374 0.329432 0.470249 0.747715 0.73862
        </DataArray>
        <DataArray type="Float32" Name="m^w_citrate" NumberOfComponents="1" format="ascii">
          0.749742 0.749742 0.749742 0.749742 0.749742 0.749741 0.749741 0.749741 0.74974 0.74974 0.749739 0.749739
          0.749738 0.749736 0.749735 0.749733 0.74973 0.749726 0.749721 0.749713 0.749703 0.749688 0.749667 0.749634
          0.749581 0.749497 0.749333 0.748953 0.747718 0.738621
        </DataArray>
        <DataArray type="Float32" Name="m^w_substrate" NumberOfComponents="1" format="ascii">
          7.30999e-08 9.77882e-08 1.30808e-07 1.74971e-07 2.34039e-07 3.1305e-07 4.1875e-07 5.60186e-07 7.49503e-07 1.00303e-06 1.34278e-06 1.79851e-06
          2.41062e-06 3.23424e-06 4.34513e-06 5.84836e-06 7.89132e-06 1.06838e-05 1.45299e-05 1.9881e-05 2.74265e-05 3.82594e-05 5.41948e-05 7.84351e-05
          0.000117097 0.000183196 0.000309031 0.000595806 0.00151667 0.00824925
        </DataArray>
        <DataArray type="Float32" Name="process rank" NumberOfComponents="1" format="ascii">
          0 0 0 0 0 0 0 0 0 0 0 0
          0 0 0 0 0 0 0 0 0 0 0 0
          0 0 0 0 0 0
        </DataArray>
      </CellData>
      <Points>
        <DataArray type="Float32" Name="Coordinates" NumberOfComponents="3" format="ascii">
          0 0 0 0.5 0 0 0 0.0333333 0 0.5 0.0333333 0
          0 0.0666667 0 0.5 0.0666667 0 0 0.1 0 0.5 0.1 0
          0 0.133333 0 0.5 0.133333 0 0 0.166667 0 0.5 0.166667 0
          0 0.2 0 0.5 0.2 0 0 0.233333 0 0.5 0.233333 0
          0 0.266667 0 0.5 0.266667 0 0 0.3 0 0.5 0.3 0
          0 0.333333 0 0.5 0.333333 0 0 0.366667 0 0.5 0.366667 0
          0 0.4 0 0.5 0.4 0 0 0.433333 0 0.5 0.433333 0
          0 0.466667 0 0.5 0.466667 0 0 0.5 0 0.5 0.5 0
          0 0.533333 0 0.5 0.533333 0 0 0.566667 0 0.5 0.566667 0
          0 0.6 0 0.5 0.6 0 0 0.633333 0 0.5 0.633333 0
          0 0.666667 0 0.5 0.666667 0 0 0.7 0 0.5 0.7 0
          0 0.733333 0 0.5 0.733333 0 0 0.766667 0 0.5 0.766667 0
          0 0.8 0 0.5 0.8 0 0 0.833333 0 0.5 0.833333 0
          0 0.866667 0 0.5 0.866667 0 0 0.9 0 0.5 0.9 0
          0 0.933333 0 0.5 0.933333 0 0 0.966667 0 0.5 0.966667 0
          0 1 0 0.5 1 0
        </DataArray>
      </Points>
      <Cells>
        <DataArray type="Int32" Name="connectivity" NumberOfComponents="1" format="ascii">
          0 1 3 2 2 3 5 4 4 5 7 6
          6 7 9 8 8 9 11 10 10 11 13 12
          12 13 15 14 14 15 17 16 16 17 19 18
          18 19 21 20 20 21 23 22 22 23 25 24
          24 25 27 26 26 27 29 28 28 29 31 30
          30 31 33 32 32 33 35 34 34 35 37 36
          36 37 39 38 38 39 41 40 40 41 43 42
          42 43 45 44 44 45 47 46 46 47 49 48
          48 49 51 50 50 51 53 52 52 53 55 54
          54 55 57 56 56 57 59 58 58 59 61 60
        </DataArray>
        <DataArray type="Int32" Name="offsets" NumberOfComponents="1" format="ascii">
          4 8 12 16 20 24 28 32 36 40 44 48
          52 56 60 64 68 72 76 80 84 88 92 96
          100 104 108 112 116 120
        </DataArray>
        <DataArray type="UInt8" Name="types" NumberOfComponents="1" format="ascii">
          9 9 9 9 9 9 9 9 9 9 9 9
          9 9 9 9 9 9 9 9 9 9 9 9
          9 9 9 9 9 9
        </DataArray>
      </Cells>
    </Piece>
  </UnstructuredGrid>
</VTKFile>
