<?xml version="1.0"?>
<VTKFile type="UnstructuredGrid" version="0.1" byte_order="LittleEndian">
  <UnstructuredGrid>
    <Piece NumberOfCells="30" NumberOfPoints="62">
      <CellData Scalars="Sg">
        <DataArray type="Float32" Name="Sg" NumberOfComponents="1" format="ascii">
          0 0 0 0 0 0 0 0 0 0 0 0
          0 0 0 0 0 0 0 0 0 0 0 0
          0 0 0 0 0 0
        </DataArray>
        <DataArray type="Float32" Name="Sl" NumberOfComponents="1" format="ascii">
          1 1 1 1 1 1 1 1 1 1 1 1
          1 1 1 1 1 1 1 1 1 1 1 1
          1 1 1 1 1 1
        </DataArray>
        <DataArray type="Float32" Name="pg" NumberOfComponents="1" format="ascii">
          24687.8 24360.9 24034 23707 23380.1 23053.1 22726.2 22399.3 22072.3 21745.4 21418.4 21091.5
          20764.6 20437.6 20110.7 19783.7 19456.8 19129.8 18802.9 18476 18149 17822.1 17495.1 17168.2
          16841.3 16514.3 16187.4 15860.4 15533.5 15209.6
        </DataArray>
        <DataArray type="Float32" Name="pl" NumberOfComponents="1" format="ascii">
          110628 110301 109974 109647 109320 108993 108666 108339 108012 107685 107358 107031
          106704 106377 106050 105723 105396 105070 104743 104416 104089 103762 103435 103108
          102781 102454 102127 101800 101473 101149
        </DataArray>
        <DataArray type="Float32" Name="pc" NumberOfComponents="1" format="ascii">
          -85939.7 -85939.7 -85939.7 -85939.7 -85939.7 -85939.7 -85939.7 -85939.7 -85939.7 -85939.7 -85939.7 -85939.7
          -85939.7 -85939.7 -85939.7 -85939.7 -85939.7 -85939.7 -85939.7 -85939.7 -85939.7 -85939.7 -85939.7 -85939.7
          -85939.7 -85939.7 -85939.7 -85939.7 -85939.7 -85939.7
        </DataArray>
        <DataArray type="Float32" Name="rhoL" NumberOfComponents="1" format="ascii">
          999.855 999.855 999.855 999.855 999.855 999.854 999.854 999.854 999.854 999.854 999.854 999.854
          999.853 999.853 999.853 999.853 999.853 999.853 999.852 999.852 999.852 999.852 999.852 999.852
          999.852 999.851 999.851 999.851 999.851 999.851
        </DataArray>
        <DataArray type="Float32" Name="rhoG" NumberOfComponents="1" format="ascii">
          0.30585 0.3018 0.29775 0.293699 0.289649 0.285598 0.281548 0.277498 0.273447 0.269397 0.265347 0.261296
          0.257246 0.253195 0.249145 0.245095 0.241044 0.236994 0.232944 0.228893 0.224843 0.220793 0.216742 0.212692
          0.208641 0.204591 0.200541 0.19649 0.19244 0.188427
        </DataArray>
        <DataArray type="Float32" Name="mobL" NumberOfComponents="1" format="ascii">
          722.171 722.17 722.17 722.17 722.17 722.17 722.169 722.169 722.169 722.169 722.169 722.169
          722.168 722.168 722.168 722.168 722.168 722.167 722.167 722.167 722.167 722.167 722.166 722.166
          722.166 722.166 722.166 722.166 722.165 722.165
        </DataArray>
        <DataArray type="Float32" Name="mobG" NumberOfComponents="1" format="ascii">
          0 0 0 0 0 0 0 0 0 0 0 0
          0 0 0 0 0 0 0 0 0 0 0 0
          0 0 0 0 0 0
        </DataArray>
        <DataArray type="Float32" Name="porosity" NumberOfComponents="1" format="ascii">
          0.298843 0.298843 0.298843 0.298843 0.298842 0.298842 0.298841 0.29884 0.298838 0.298836 0.298834 0.29883
          0.298825 0.298818 0.298809 0.298797 0.29878 0.298758 0.298729 0.298689 0.298634 0.298557 0.298447 0.298284
          0.297756 0.29731 0.296418 0.294056 0.282426 0.0450177
        </DataArray>
        <DataArray type="Float32" Name="temperature" NumberOfComponents="1" format="ascii">
          281.15 281.15 281.15 281.15 281.15 281.15 281.15 281.15 281.15 281.15 281.15 281.15
          281.15 281.15 281.15 281.15 281.15 281.15 281.15 281.15 281.15 281.15 281.15 281.15
          281.15 281.15 281.15 281.15 281.15 281.15
        </DataArray>
        <DataArray type="Float32" Name="phase presence" NumberOfComponents="1" format="ascii">
          1 1 1 1 1 1 1 1 1 1 1 1
          1 1 1 1 1 1 1 1 1 1 1 1
          1 1 1 1 1 1
        </DataArray>
        <DataArray type="Float32" Name="precipitateVolumeFraction_au" NumberOfComponents="1" format="ascii">
          5.53809e-10 5.5245e-10 5.52739e-10 5.52742e-10 5.52722e-10 5.52739e-10 5.52772e-10 5.5276e-10 5.52823e-10 5.52498e-10 5.52706e-10 5.5273e-10
          5.52775e-10 5.52773e-10 5.52773e-10 5.5275e-10 5.52741e-10 5.52769e-10 5.52764e-10 5.52765e-10 5.5275e-10 5.5277e-10 5.52971e-10 1.23926e-09
          0.000269941 0.000269925 0.0002699 0.000269851 5.52263e-10 5.51396e-10
        </DataArray>
        <DataArray type="Float32" Name="precipitateVolumeFraction_nanoAu" NumberOfComponents="1" format="ascii">
          1.23906e-13 1.23602e-13 1.23667e-13 1.23667e-13 1.23663e-13 1.23666e-13 1.23674e-13 1.23671e-13 1.23685e-13 1.23612e-13 1.23658e-13 1.23663e-13
          1.23672e-13 1.23671e-13 1.2367e-13 1.23663e-13 1.2366e-13 1.23663e-13 1.23658e-13 1.23654e-13 1.23644e-13 1.23646e-13 1.34931e-13 2.57935e-11
          6.03651e-08 7.6686e-08 1.02146e-07 1.45561e-07 4.74152e-13 4.67024e-13
        </DataArray>
        <DataArray type="Float32" Name="precipitateVolumeFraction_d" NumberOfComponents="1" format="ascii">
          0.000578341 0.000578418 0.000578525 0.000578673 0.000578879 0.000579163 0.000579554 0.000580092 0.00058083 0.000581837 0.000583208 0.000585069
          0.000587583 0.000590971 0.000595523 0.00060163 0.000609816 0.000620801 0.000635594 0.000655649 0.000683145 0.000721502 0.000776423 0.000858164
          0.000987103 0.00120984 0.00165607 0.00283719 0.00878677 0.127491
        </DataArray>
        <DataArray type="Float32" Name="precipitateVolumeFraction_p" NumberOfComponents="1" format="ascii">
          0.000578341 0.000578418 0.000578525 0.000578673 0.000578879 0.000579163 0.000579554 0.000580092 0.00058083 0.000581837 0.000583208 0.000585069
          0.000587583 0.000590971 0.000595523 0.00060163 0.000609816 0.000620801 0.000635594 0.000655649 0.000683145 0.000721502 0.000776423 0.000858164
          0.000987103 0.00120984 0.00165607 0.00283719 0.00878677 0.127491
        </DataArray>
        <DataArray type="Float32" Name="K" NumberOfComponents="1" format="ascii">
          9.85219e-11 9.85217e-11 9.85214e-11 9.85211e-11 9.85205e-11 9.85198e-11 9.85188e-11 9.85175e-11 9.85156e-11 9.8513e-11 9.85095e-11 9.85048e-11
          9.84984e-11 9.84898e-11 9.84783e-11 9.84628e-11 9.8442e-11 9.84141e-11 9.83766e-11 9.83257e-11 9.8256e-11 9.81588e-11 9.80198e-11 9.78132e-11
          9.71486e-11 9.65906e-11 9.54807e-11 9.25934e-11 7.93991e-11 1.81548e-13
        </DataArray>
        <DataArray type="Float32" Name="X^w_H2O" NumberOfComponents="1" format="ascii">
          0.999853 0.999853 0.999853 0.999853 0.999853 0.999853 0.999853 0.999853 0.999853 0.999853 0.999853 0.999853
          0.999853 0.999853 0.999853 0.999853 0.999853 0.999853 0.999853 0.999853 0.999853 0.999853 0.999853 0.999853
          0.999853 0.999852 0.99985 0.999846 0.999839 0.99984
        </DataArray>
        <DataArray type="Float32" Name="X^w_Air" NumberOfComponents="1" format="ascii">
          0 0 0 0 0 0 0 0 0 0 0 0
          0 0 0 0 0 0 0 0 0 0 0 0
          0 0 0 0 0 0
        </DataArray>
        <DataArray type="Float32" Name="X^w_AuComplex" NumberOfComponents="1" format="ascii">
          1.41389e-16 1.41042e-16 1.41116e-16 1.41117e-16 1.41112e-16 1.41116e-16 1.41124e-16 1.41121e-16 1.41136e-16 1.41053e-16 1.41105e-16 1.4111e-16
          1.41121e-16 1.41119e-16 1.41116e-16 1.41107e-16 1.41101e-16 1.41102e-16 1.41093e-16 1.41083e-16 1.41065e-16 1.41058e-16 1.5384e-16 2.9409e-14
          6.88401e-11 1.07375e-10 1.84403e-10 3.63981e-10 1.8353e-15 1.78623e-15
        </DataArray>
        <DataArray type="Float32" Name="X^w_nanoAu" NumberOfComponents="1" format="ascii">
          3.39776e-19 3.38949e-19 3.39125e-19 3.39127e-19 3.39115e-19 3.39125e-19 3.39144e-19 3.39137e-19 3.39173e-19 3.38975e-19 3.39101e-19 3.39114e-19
          3.39139e-19 3.39135e-19 3.39131e-19 3.39112e-19 3.391e-19 3.39107e-19 3.39092e-19 3.39079e-19 3.39427e-19 3.95197e-19 8.56788e-18 1.20171e-15
          1.65809e-13 2.10705e-13 2.80754e-13 3.96044e-13 1.29663e-18 1.25332e-18
        </DataArray>
        <DataArray type="Float32" Name="X^w_cyanide" NumberOfComponents="1" format="ascii">
          5.07113e-06 5.07113e-06 5.07113e-06 5.07113e-06 5.07113e-06 5.07113e-06 5.07113e-06 5.07112e-06 5.07112e-06 5.07111e-06 5.07109e-06 5.07108e-06
          5.07105e-06 5.07102e-06 5.07097e-06 5.07091e-06 5.07083e-06 5.07072e-06 5.07057e-06 5.07037e-06 5.07009e-06 5.0697e-06 5.06912e-06 5.06827e-06
          5.06743e-06 6.43703e-06 8.57256e-06 1.22377e-05 1.94613e-05 1.92252e-05
        </DataArray>
        <DataArray type="Float32" Name="X^w_citrate" NumberOfComponents="1" format="ascii">
          0.000141796 0.000141796 0.000141796 0.000141796 0.000141796 0.000141796 0.000141796 0.000141796 0.000141796 0.000141796 0.000141796 0.000141795
          0.000141795 0.000141795 0.000141795 0.000141794 0.000141794 0.000141793 0.000141792 0.00014179 0.000141788 0.000141785 0.000141781 0.000141775
          0.000141765 0.00014175 0.000141721 0.000141653 0.000141434 0.000139718
        </DataArray>
        <DataArray type="Float32" Name="X^w_substrate" NumberOfComponents="1" format="ascii">
          2.23005e-11 2.92429e-11 3.83447e-11 5.02777e-11 6.59229e-11 8.64368e-11 1.13338e-10 1.48624e-10 1.94922e-10 2.55699e-10 3.35537e-10 4.40513e-10
          5.78722e-10 7.61008e-10 1.00201e-09 1.32165e-09 1.74742e-09 2.3178e-09 3.08769e-09 4.13731e-09 5.58754e-09 7.62739e-09 1.0567e-08 1.49478e-08
          2.17943e-08 3.32718e-08 5.4739e-08 1.03064e-07 2.58857e-07 1.46898e-06
        </DataArray>
        <DataArray type="Float32" Name="m^w_H2O" NumberOfComponents="1" format="ascii">
          55492.6 55492.6 55492.5 55492.5 55492.5 55492.5 55492.5 55492.5 55492.5 55492.5 55492.5 55492.5
          55492.5 55492.4 55492.4 55492.4 55492.4 55492.4 55492.4 55492.4 55492.4 55492.4 55492.4 55492.4
          55492.3 55492.3 55492.1 55491.9 55491.5 55491.6
        </DataArray>
        <DataArray type="Float32" Name="m^w_Air" NumberOfComponents="1" format="ascii">
          0 0 0 0 0 0 0 0 0 0 0 0
          0 0 0 0 0 0 0 0 0 0 0 0
          0 0 0 0 0 0
        </DataArray>
        <DataArray type="Float32" Name="m^w_AuComplex" NumberOfComponents="1" format="ascii">
          7.17716e-13 7.15956e-13 7.1633e-13 7.16333e-13 7.16307e-13 7.16328e-13 7.1637e-13 7.16353e-13 7.16433e-13 7.16009e-13 7.16274e-13 7.163e-13
          7.16352e-13 7.16342e-13 7.16329e-13 7.16284e-13 7.16252e-13 7.16258e-13 7.16213e-13 7.16163e-13 7.16071e-13 7.16035e-13 7.80917e-13 1.49285e-10
          3.49443e-07 5.45055e-07 9.36059e-07 1.84763e-06 9.31629e-12 9.06716e-12
        </DataArray>
        <DataArray type="Float32" Name="m^w_nanoAu" NumberOfComponents="1" format="ascii">
          1.72476e-15 1.72057e-15 1.72146e-15 1.72147e-15 1.72141e-15 1.72146e-15 1.72156e-15 1.72152e-15 1.7217e-15 1.7207e-15 1.72133e-15 1.7214e-15
          1.72153e-15 1.72151e-15 1.72149e-15 1.72139e-15 1.72133e-15 1.72137e-15 1.72129e-15 1.72122e-15 1.72299e-15 2.00608e-15 4.3492e-14 6.10009e-12
          8.41672e-10 1.06957e-09 1.42515e-09 2.01038e-09 6.5819e-15 6.36204e-15
        </DataArray>
        <DataArray type="Float32" Name="m^w_cyanide" NumberOfComponents="1" format="ascii">
          0.194865 0.194865 0.194865 0.194865 0.194865 0.194865 0.194865 0.194865 0.194865 0.194864 0.194864 0.194863
          0.194862 0.194861 0.194859 0.194857 0.194853 0.194849 0.194843 0.194836 0.194825 0.19481 0.194788 0.194755
          0.194722 0.247351 0.329411 0.47025 0.747823 0.738751
        </DataArray>
        <DataArray type="Float32" Name="m^w_citrate" NumberOfComponents="1" format="ascii">
          0.749742 0.749742 0.749742 0.749742 0.749741 0.749741 0.749741 0.74974 0.74974 0.749739 0.749739 0.749738
          0.749737 0.749735 0.749733 0.749731 0.749727 0.749723 0.749717 0.749709 0.749698 0.749683 0.74966 0.749628
          0.749576 0.749495 0.74934 0.748985 0.747826 0.738752
        </DataArray>
        <DataArray type="Float32" Name="m^w_substrate" NumberOfComponents="1" format="ascii">
          1.23764e-07 1.62293e-07 2.12806e-07 2.79032e-07 3.6586e-07 4.79708e-07 6.29006e-07 8.24835e-07 1.08178e-06 1.41908e-06 1.86217e-06 2.44476e-06
          3.2118e-06 4.22345e-06 5.56094e-06 7.3349e-06 9.69786e-06 1.28633e-05 1.7136e-05 2.29613e-05 3.10097e-05 4.23305e-05 5.8645e-05 8.29575e-05
          0.000120954 0.000184652 0.00030379 0.000571982 0.0014366 0.00815256
        </DataArray>
        <DataArray type="Float32" Name="process rank" NumberOfComponents="1" format="ascii">
          0 0 0 0 0 0 0 0 0 0 0 0
          0 0 0 0 0 0 0 0 0 0 0 0
          0 0 0 0 0 0
        </DataArray>
      </CellData>
      <Points>
        <DataArray type="Float32" Name="Coordinates" NumberOfComponents="3" format="ascii">
          0 0 0 0.5 0 0 0 0.0333333 0 0.5 0.0333333 0
          0 0.0666667 0 0.5 0.0666667 0 0 0.1 0 0.5 0.1 0
          0 0.133333 0 0.5 0.133333 0 0 0.166667 0 0.5 0.166667 0
          0 0.2 0 0.5 0.2 0 0 0.233333 0 0.5 0.233333 0
          0 0.266667 0 0.5 0.266667 0 0 0.3 0 0.5 0.3 0
          0 0.333333 0 0.5 0.333333 0 0 0.366667 0 0.5 0.366667 0
          0 0.4 0 0.5 0.4 0 0 0.433333 0 0.5 0.433333 0
          0 0.466667 0 0.5 0.466667 0 0 0.5 0 0.5 0.5 0
          0 0.533333 0 0.5 0.533333 0 0 0.566667 0 0.5 0.566667 0
          0 0.6 0 0.5 0.6 0 0 0.633333 0 0.5 0.633333 0
          0 0.666667 0 0.5 0.666667 0 0 0.7 0 0.5 0.7 0
          0 0.733333 0 0.5 0.733333 0 0 0.766667 0 0.5 0.766667 0
          0 0.8 0 0.5 0.8 0 0 0.833333 0 0.5 0.833333 0
          0 0.866667 0 0.5 0.866667 0 0 0.9 0 0.5 0.9 0
          0 0.933333 0 0.5 0.933333 0 0 0.966667 0 0.5 0.966667 0
          0 1 0 0.5 1 0
        </DataArray>
      </Points>
      <Cells>
        <DataArray type="Int32" Name="connectivity" NumberOfComponents="1" format="ascii">
          0 1 3 2 2 3 5 4 4 5 7 6
          6 7 9 8 8 9 11 10 10 11 13 12
          12 13 15 14 14 15 17 16 16 17 19 18
          18 19 21 20 20 21 23 22 22 23 25 24
          24 25 27 26 26 27 29 28 28 29 31 30
          30 31 33 32 32 33 35 34 34 35 37 36
          36 37 39 38 38 39 41 40 40 41 43 42
          42 43 45 44 44 45 47 46 46 47 49 48
          48 49 51 50 50 51 53 52 52 53 55 54
          54 55 57 56 56 57 59 58 58 59 61 60
        </DataArray>
        <DataArray type="Int32" Name="offsets" NumberOfComponents="1" format="ascii">
          4 8 12 16 20 24 28 32 36 40 44 48
          52 56 60 64 68 72 76 80 84 88 92 96
          100 104 108 112 116 120
        </DataArray>
        <DataArray type="UInt8" Name="types" NumberOfComponents="1" format="ascii">
          9 9 9 9 9 9 9 9 9 9 9 9
          9 9 9 9 9 9 9 9 9 9 9 9
          9 9 9 9 9 9
        </DataArray>
      </Cells>
    </Piece>
  </UnstructuredGrid>
</VTKFile>
