<?xml version="1.0"?>
<VTKFile type="UnstructuredGrid" version="0.1" byte_order="LittleEndian">
  <UnstructuredGrid>
    <Piece NumberOfCells="30" NumberOfPoints="62">
      <CellData Scalars="Sg">
        <DataArray type="Float32" Name="Sg" NumberOfComponents="1" format="ascii">
          0 0 0 0 0 0 0 0 0 0 0 0
          0 0 0 0 0 0 0 0 0 0 0 0
          0 0 0 0 0 0
        </DataArray>
        <DataArray type="Float32" Name="Sl" NumberOfComponents="1" format="ascii">
          1 1 1 1 1 1 1 1 1 1 1 1
          1 1 1 1 1 1 1 1 1 1 1 1
          1 1 1 1 1 1
        </DataArray>
        <DataArray type="Float32" Name="pg" NumberOfComponents="1" format="ascii">
          24687.8 24360.9 24034 23707 23380.1 23053.1 22726.2 22399.3 22072.3 21745.4 21418.4 21091.5
          20764.6 20437.6 20110.7 19783.7 19456.8 19129.8 18802.9 18476 18149 17822.1 17495.1 17168.2
          16841.3 16514.3 16187.4 15860.4 15533.5 15209.6
        </DataArray>
        <DataArray type="Float32" Name="pl" NumberOfComponents="1" format="ascii">
          110628 110301 109974 109647 109320 108993 108666 108339 108012 107685 107358 107031
          106704 106377 106050 105723 105396 105070 104743 104416 104089 103762 103435 103108
          102781 102454 102127 101800 101473 101149
        </DataArray>
        <DataArray type="Float32" Name="pc" NumberOfComponents="1" format="ascii">
          -85939.7 -85939.7 -85939.7 -85939.7 -85939.7 -85939.7 -85939.7 -85939.7 -85939.7 -85939.7 -85939.7 -85939.7
          -85939.7 -85939.7 -85939.7 -85939.7 -85939.7 -85939.7 -85939.7 -85939.7 -85939.7 -85939.7 -85939.7 -85939.7
          -85939.7 -85939.7 -85939.7 -85939.7 -85939.7 -85939.7
        </DataArray>
        <DataArray type="Float32" Name="rhoL" NumberOfComponents="1" format="ascii">
          999.855 999.855 999.855 999.855 999.855 999.854 999.854 999.854 999.854 999.854 999.854 999.854
          999.853 999.853 999.853 999.853 999.853 999.853 999.852 999.852 999.852 999.852 999.852 999.852
          999.852 999.851 999.851 999.851 999.851 999.851
        </DataArray>
        <DataArray type="Float32" Name="rhoG" NumberOfComponents="1" format="ascii">
          0.30585 0.3018 0.29775 0.293699 0.289649 0.285598 0.281548 0.277498 0.273447 0.269397 0.265347 0.261296
          0.257246 0.253195 0.249145 0.245095 0.241044 0.236994 0.232944 0.228893 0.224843 0.220793 0.216742 0.212692
          0.208641 0.204591 0.200541 0.19649 0.19244 0.188427
        </DataArray>
        <DataArray type="Float32" Name="mobL" NumberOfComponents="1" format="ascii">
          722.171 722.17 722.17 722.17 722.17 722.17 722.169 722.169 722.169 722.169 722.169 722.169
          722.168 722.168 722.168 722.168 722.168 722.167 722.167 722.167 722.167 722.167 722.166 722.166
          722.166 722.166 722.166 722.166 722.165 722.165
        </DataArray>
        <DataArray type="Float32" Name="mobG" NumberOfComponents="1" format="ascii">
          0 0 0 0 0 0 0 0 0 0 0 0
          0 0 0 0 0 0 0 0 0 0 0 0
          0 0 0 0 0 0
        </DataArray>
        <DataArray type="Float32" Name="porosity" NumberOfComponents="1" format="ascii">
          0.298822 0.298822 0.298822 0.298822 0.298821 0.298821 0.29882 0.298819 0.298818 0.298816 0.298814 0.298811
          0.298806 0.2988 0.298792 0.298781 0.298765 0.298745 0.298717 0.298679 0.298626 0.298552 0.298447 0.298289
          0.297769 0.297339 0.296477 0.294207 0.283132 0.0451721
        </DataArray>
        <DataArray type="Float32" Name="temperature" NumberOfComponents="1" format="ascii">
          281.15 281.15 281.15 281.15 281.15 281.15 281.15 281.15 281.15 281.15 281.15 281.15
          281.15 281.15 281.15 281.15 281.15 281.15 281.15 281.15 281.15 281.15 281.15 281.15
          281.15 281.15 281.15 281.15 281.15 281.15
        </DataArray>
        <DataArray type="Float32" Name="phase presence" NumberOfComponents="1" format="ascii">
          1 1 1 1 1 1 1 1 1 1 1 1
          1 1 1 1 1 1 1 1 1 1 1 1
          1 1 1 1 1 1
        </DataArray>
        <DataArray type="Float32" Name="precipitateVolumeFraction_au" NumberOfComponents="1" format="ascii">
          5.52709e-10 5.52793e-10 5.52825e-10 5.52756e-10 5.52807e-10 5.52752e-10 5.52774e-10 5.52788e-10 5.52819e-10 5.52795e-10 5.52765e-10 5.52728e-10
          5.52793e-10 5.5278e-10 5.52793e-10 5.52776e-10 5.52764e-10 5.52798e-10 5.52758e-10 5.52708e-10 5.52761e-10 5.5282e-10 5.53054e-10 1.26234e-09
          0.000269953 0.000269942 0.000269927 0.0002699 5.52508e-10 5.51463e-10
        </DataArray>
        <DataArray type="Float32" Name="precipitateVolumeFraction_nanoAu" NumberOfComponents="1" format="ascii">
          9.84083e-14 9.84233e-14 9.84289e-14 9.84166e-14 9.84255e-14 9.84158e-14 9.84196e-14 9.84221e-14 9.84276e-14 9.84231e-14 9.84175e-14 9.84108e-14
          9.8422e-14 9.84193e-14 9.84212e-14 9.84174e-14 9.84143e-14 9.84189e-14 9.84099e-14 9.83986e-14 9.84044e-14 9.84174e-14 1.04872e-13 1.70499e-11
          4.80479e-08 5.88048e-08 7.43538e-08 9.82416e-08 2.84095e-13 2.80034e-13
        </DataArray>
        <DataArray type="Float32" Name="precipitateVolumeFraction_d" NumberOfComponents="1" format="ascii">
          0.000588889 0.000588948 0.000589032 0.000589149 0.000589314 0.000589545 0.000589868 0.000590318 0.000590944 0.00059181 0.000593004 0.000594644
          0.000596888 0.000599946 0.000604099 0.000609727 0.00061734 0.000627643 0.000641621 0.000660694 0.000686986 0.000723826 0.000776751 0.000855699
          0.000980373 0.00119574 0.0016265 0.00276174 0.00843387 0.127414
        </DataArray>
        <DataArray type="Float32" Name="precipitateVolumeFraction_p" NumberOfComponents="1" format="ascii">
          0.000588889 0.000588948 0.000589032 0.000589149 0.000589314 0.000589545 0.000589868 0.000590318 0.000590944 0.00059181 0.000593004 0.000594644
          0.000596888 0.000599946 0.000604099 0.000609727 0.00061734 0.000627643 0.000641621 0.000660694 0.000686986 0.000723826 0.000776751 0.000855699
          0.000980373 0.00119574 0.0016265 0.00276174 0.00843387 0.127414
        </DataArray>
        <DataArray type="Float32" Name="K" NumberOfComponents="1" format="ascii">
          9.84951e-11 9.8495e-11 9.84948e-11 9.84945e-11 9.8494e-11 9.84934e-11 9.84926e-11 9.84915e-11 9.84899e-11 9.84877e-11 9.84847e-11 9.84805e-11
          9.84748e-11 9.8467e-11 9.84565e-11 9.84422e-11 9.84229e-11 9.83967e-11 9.83613e-11 9.83129e-11 9.82463e-11 9.81529e-11 9.8019e-11 9.78195e-11
          9.71655e-11 9.66259e-11 9.5554e-11 9.27756e-11 8.01535e-11 1.83482e-13
        </DataArray>
        <DataArray type="Float32" Name="X^w_H2O" NumberOfComponents="1" format="ascii">
          0.999851 0.999851 0.999851 0.999851 0.999851 0.999851 0.999851 0.999851 0.999851 0.999851 0.999851 0.999851
          0.999851 0.999851 0.999851 0.999851 0.999851 0.999851 0.999851 0.999851 0.999851 0.999851 0.999851 0.999851
          0.999851 0.99985 0.999848 0.999844 0.999839 0.99984
        </DataArray>
        <DataArray type="Float32" Name="X^w_Air" NumberOfComponents="1" format="ascii">
          0 0 0 0 0 0 0 0 0 0 0 0
          0 0 0 0 0 0 0 0 0 0 0 0
          0 0 0 0 0 0
        </DataArray>
        <DataArray type="Float32" Name="X^w_AuComplex" NumberOfComponents="1" format="ascii">
          1.55248e-16 1.55272e-16 1.55281e-16 1.55261e-16 1.55276e-16 1.5526e-16 1.55266e-16 1.5527e-16 1.55279e-16 1.55271e-16 1.55262e-16 1.55252e-16
          1.55269e-16 1.55264e-16 1.55266e-16 1.55259e-16 1.55253e-16 1.55259e-16 1.55242e-16 1.55221e-16 1.55226e-16 1.55238e-16 1.65259e-16 2.68767e-14
          7.57697e-11 1.09552e-10 1.69255e-10 2.86318e-10 1.13389e-15 1.10535e-15
        </DataArray>
        <DataArray type="Float32" Name="X^w_nanoAu" NumberOfComponents="1" format="ascii">
          4.28608e-19 4.28673e-19 4.28697e-19 4.28644e-19 4.28682e-19 4.2864e-19 4.28657e-19 4.28667e-19 4.28691e-19 4.28671e-19 4.28646e-19 4.28618e-19
          4.28665e-19 4.28653e-19 4.2866e-19 4.28642e-19 4.28628e-19 4.28645e-19 4.28603e-19 4.28582e-19 4.31514e-19 7.01261e-19 2.56854e-17 2.33756e-15
          2.0974e-13 2.56784e-13 3.24752e-13 4.22862e-13 1.23386e-18 1.18962e-18
        </DataArray>
        <DataArray type="Float32" Name="X^w_cyanide" NumberOfComponents="1" format="ascii">
          6.73945e-06 6.73945e-06 6.73945e-06 6.73945e-06 6.73945e-06 6.73945e-06 6.73945e-06 6.73944e-06 6.73944e-06 6.73943e-06 6.73942e-06 6.73941e-06
          6.73939e-06 6.73936e-06 6.73932e-06 6.73927e-06 6.73921e-06 6.73911e-06 6.73899e-06 6.73881e-06 6.73856e-06 6.73821e-06 6.7377e-06 6.73692e-06
          6.73612e-06 8.24395e-06 1.04231e-05 1.37869e-05 1.94639e-05 1.92385e-05
        </DataArray>
        <DataArray type="Float32" Name="X^w_citrate" NumberOfComponents="1" format="ascii">
          0.000141798 0.000141798 0.000141798 0.000141798 0.000141798 0.000141798 0.000141798 0.000141798 0.000141798 0.000141798 0.000141797 0.000141797
          0.000141797 0.000141797 0.000141797 0.000141796 0.000141796 0.000141795 0.000141794 0.000141793 0.000141791 0.000141789 0.000141785 0.000141779
          0.00014177 0.000141756 0.000141728 0.000141664 0.000141454 0.000139815
        </DataArray>
        <DataArray type="Float32" Name="X^w_substrate" NumberOfComponents="1" format="ascii">
          1.37119e-11 1.82748e-11 2.43546e-11 3.24557e-11 4.32499e-11 5.76333e-11 7.68012e-11 1.02349e-10 1.36411e-10 1.81841e-10 2.42469e-10 3.23445e-10
          4.31727e-10 5.76754e-10 7.71422e-10 1.0335e-09 1.38776e-09 1.86921e-09 2.52826e-09 3.43918e-09 4.71462e-09 6.53191e-09 9.18363e-09 1.31828e-08
          1.95044e-08 3.02158e-08 5.04471e-08 9.63743e-08 2.45273e-07 1.40087e-06
        </DataArray>
        <DataArray type="Float32" Name="m^w_H2O" NumberOfComponents="1" format="ascii">
          55492.5 55492.5 55492.4 55492.4 55492.4 55492.4 55492.4 55492.4 55492.4 55492.4 55492.4 55492.4
          55492.4 55492.4 55492.3 55492.3 55492.3 55492.3 55492.3 55492.3 55492.3 55492.3 55492.3 55492.3
          55492.3 55492.2 55492 55491.8 55491.5 55491.6
        </DataArray>
        <DataArray type="Float32" Name="m^w_Air" NumberOfComponents="1" format="ascii">
          0 0 0 0 0 0 0 0 0 0 0 0
          0 0 0 0 0 0 0 0 0 0 0 0
          0 0 0 0 0 0
        </DataArray>
        <DataArray type="Float32" Name="m^w_AuComplex" NumberOfComponents="1" format="ascii">
          7.88069e-13 7.88189e-13 7.88234e-13 7.88135e-13 7.88207e-13 7.88128e-13 7.88159e-13 7.88178e-13 7.88221e-13 7.88185e-13 7.88139e-13 7.88084e-13
          7.88172e-13 7.88147e-13 7.88159e-13 7.88123e-13 7.88092e-13 7.8812e-13 7.88036e-13 7.87929e-13 7.87952e-13 7.88014e-13 8.3888e-13 1.3643e-10
          3.84619e-07 5.56106e-07 8.59167e-07 1.45339e-06 5.75582e-12 5.61095e-12
        </DataArray>
        <DataArray type="Float32" Name="m^w_nanoAu" NumberOfComponents="1" format="ascii">
          2.17569e-15 2.17602e-15 2.17614e-15 2.17587e-15 2.17607e-15 2.17585e-15 2.17594e-15 2.17599e-15 2.17611e-15 2.17601e-15 2.17588e-15 2.17574e-15
          2.17598e-15 2.17592e-15 2.17595e-15 2.17586e-15 2.17579e-15 2.17587e-15 2.17566e-15 2.17556e-15 2.19044e-15 3.55971e-15 1.30383e-13 1.18659e-11
          1.06468e-09 1.30348e-09 1.64849e-09 2.14651e-09 6.26326e-15 6.0387e-15
        </DataArray>
        <DataArray type="Float32" Name="m^w_cyanide" NumberOfComponents="1" format="ascii">
          0.258973 0.258973 0.258973 0.258973 0.258973 0.258973 0.258972 0.258972 0.258972 0.258972 0.258971 0.258971
          0.25897 0.258969 0.258967 0.258966 0.258963 0.258959 0.258954 0.258948 0.258938 0.258924 0.258905 0.258875
          0.258844 0.316784 0.400521 0.529779 0.747926 0.739262
        </DataArray>
        <DataArray type="Float32" Name="m^w_citrate" NumberOfComponents="1" format="ascii">
          0.749752 0.749752 0.749751 0.749751 0.749751 0.749751 0.74975 0.74975 0.74975 0.749749 0.749749 0.749748
          0.749747 0.749746 0.749744 0.749742 0.749739 0.749736 0.749731 0.749724 0.749714 0.7497 0.74968 0.74965
          0.749603 0.749526 0.749378 0.749039 0.747928 0.739263
        </DataArray>
        <DataArray type="Float32" Name="m^w_substrate" NumberOfComponents="1" format="ascii">
          7.60985e-08 1.01422e-07 1.35164e-07 1.80123e-07 2.40029e-07 3.19854e-07 4.26232e-07 5.6802e-07 7.57055e-07 1.00918e-06 1.34565e-06 1.79506e-06
          2.396e-06 3.20087e-06 4.28124e-06 5.73574e-06 7.70181e-06 1.03738e-05 1.40314e-05 1.90868e-05 2.61652e-05 3.62508e-05 5.09673e-05 7.31619e-05
          0.000108245 0.000167692 0.000279971 0.000534858 0.00136121 0.00777456
        </DataArray>
        <DataArray type="Float32" Name="process rank" NumberOfComponents="1" format="ascii">
          0 0 0 0 0 0 0 0 0 0 0 0
          0 0 0 0 0 0 0 0 0 0 0 0
          0 0 0 0 0 0
        </DataArray>
      </CellData>
      <Points>
        <DataArray type="Float32" Name="Coordinates" NumberOfComponents="3" format="ascii">
          0 0 0 0.5 0 0 0 0.0333333 0 0.5 0.0333333 0
          0 0.0666667 0 0.5 0.0666667 0 0 0.1 0 0.5 0.1 0
          0 0.133333 0 0.5 0.133333 0 0 0.166667 0 0.5 0.166667 0
          0 0.2 0 0.5 0.2 0 0 0.233333 0 0.5 0.233333 0
          0 0.266667 0 0.5 0.266667 0 0 0.3 0 0.5 0.3 0
          0 0.333333 0 0.5 0.333333 0 0 0.366667 0 0.5 0.366667 0
          0 0.4 0 0.5 0.4 0 0 0.433333 0 0.5 0.433333 0
          0 0.466667 0 0.5 0.466667 0 0 0.5 0 0.5 0.5 0
          0 0.533333 0 0.5 0.533333 0 0 0.566667 0 0.5 0.566667 0
          0 0.6 0 0.5 0.6 0 0 0.633333 0 0.5 0.633333 0
          0 0.666667 0 0.5 0.666667 0 0 0.7 0 0.5 0.7 0
          0 0.733333 0 0.5 0.733333 0 0 0.766667 0 0.5 0.766667 0
          0 0.8 0 0.5 0.8 0 0 0.833333 0 0.5 0.833333 0
          0 0.866667 0 0.5 0.866667 0 0 0.9 0 0.5 0.9 0
          0 0.933333 0 0.5 0.933333 0 0 0.966667 0 0.5 0.966667 0
          0 1 0 0.5 1 0
        </DataArray>
      </Points>
      <Cells>
        <DataArray type="Int32" Name="connectivity" NumberOfComponents="1" format="ascii">
          0 1 3 2 2 3 5 4 4 5 7 6
          6 7 9 8 8 9 11 10 10 11 13 12
          12 13 15 14 14 15 17 16 16 17 19 18
          18 19 21 20 20 21 23 22 22 23 25 24
          24 25 27 26 26 27 29 28 28 29 31 30
          30 31 33 32 32 33 35 34 34 35 37 36
          36 37 39 38 38 39 41 40 40 41 43 42
          42 43 45 44 44 45 47 46 46 47 49 48
          48 49 51 50 50 51 53 52 52 53 55 54
          54 55 57 56 56 57 59 58 58 59 61 60
        </DataArray>
        <DataArray type="Int32" Name="offsets" NumberOfComponents="1" format="ascii">
          4 8 12 16 20 24 28 32 36 40 44 48
          52 56 60 64 68 72 76 80 84 88 92 96
          100 104 108 112 116 120
        </DataArray>
        <DataArray type="UInt8" Name="types" NumberOfComponents="1" format="ascii">
          9 9 9 9 9 9 9 9 9 9 9 9
          9 9 9 9 9 9 9 9 9 9 9 9
          9 9 9 9 9 9
        </DataArray>
      </Cells>
    </Piece>
  </UnstructuredGrid>
</VTKFile>
