<?xml version="1.0"?>
<VTKFile type="UnstructuredGrid" version="0.1" byte_order="LittleEndian">
  <UnstructuredGrid>
    <Piece NumberOfCells="30" NumberOfPoints="62">
      <CellData Scalars="Sg">
        <DataArray type="Float32" Name="Sg" NumberOfComponents="1" format="ascii">
          0 0 0 0 0 0 0 0 0 0 0 0
          0 0 0 0 0 0 0 0 0 0 0 0
          0 0 0 0 0 0
        </DataArray>
        <DataArray type="Float32" Name="Sl" NumberOfComponents="1" format="ascii">
          1 1 1 1 1 1 1 1 1 1 1 1
          1 1 1 1 1 1 1 1 1 1 1 1
          1 1 1 1 1 1
        </DataArray>
        <DataArray type="Float32" Name="pg" NumberOfComponents="1" format="ascii">
          24687.8 24360.9 24034 23707 23380.1 23053.1 22726.2 22399.3 22072.3 21745.4 21418.4 21091.5
          20764.6 20437.6 20110.7 19783.7 19456.8 19129.8 18802.9 18476 18149 17822.1 17495.1 17168.2
          16841.3 16514.3 16187.4 15860.4 15533.5 15208.4
        </DataArray>
        <DataArray type="Float32" Name="pl" NumberOfComponents="1" format="ascii">
          110628 110301 109974 109647 109320 108993 108666 108339 108012 107685 107358 107031
          106704 106377 106050 105723 105396 105070 104743 104416 104089 103762 103435 103108
          102781 102454 102127 101800 101473 101148
        </DataArray>
        <DataArray type="Float32" Name="pc" NumberOfComponents="1" format="ascii">
          -85939.7 -85939.7 -85939.7 -85939.7 -85939.7 -85939.7 -85939.7 -85939.7 -85939.7 -85939.7 -85939.7 -85939.7
          -85939.7 -85939.7 -85939.7 -85939.7 -85939.7 -85939.7 -85939.7 -85939.7 -85939.7 -85939.7 -85939.7 -85939.7
          -85939.7 -85939.7 -85939.7 -85939.7 -85939.7 -85939.7
        </DataArray>
        <DataArray type="Float32" Name="rhoL" NumberOfComponents="1" format="ascii">
          999.855 999.855 999.855 999.855 999.855 999.854 999.854 999.854 999.854 999.854 999.854 999.854
          999.853 999.853 999.853 999.853 999.853 999.853 999.852 999.852 999.852 999.852 999.852 999.852
          999.852 999.851 999.851 999.851 999.851 999.851
        </DataArray>
        <DataArray type="Float32" Name="rhoG" NumberOfComponents="1" format="ascii">
          0.30585 0.3018 0.29775 0.293699 0.289649 0.285598 0.281548 0.277498 0.273447 0.269397 0.265347 0.261296
          0.257246 0.253195 0.249145 0.245095 0.241044 0.236994 0.232944 0.228893 0.224843 0.220793 0.216742 0.212692
          0.208641 0.204591 0.200541 0.19649 0.19244 0.188412
        </DataArray>
        <DataArray type="Float32" Name="mobL" NumberOfComponents="1" format="ascii">
          722.171 722.17 722.17 722.17 722.17 722.17 722.169 722.169 722.169 722.169 722.169 722.169
          722.168 722.168 722.168 722.168 722.168 722.167 722.167 722.167 722.167 722.167 722.166 722.166
          722.166 722.166 722.166 722.166 722.165 722.165
        </DataArray>
        <DataArray type="Float32" Name="mobG" NumberOfComponents="1" format="ascii">
          0 0 0 0 0 0 0 0 0 0 0 0
          0 0 0 0 0 0 0 0 0 0 0 0
          0 0 0 0 0 0
        </DataArray>
        <DataArray type="Float32" Name="porosity" NumberOfComponents="1" format="ascii">
          0.298697 0.298697 0.298697 0.298697 0.298696 0.298696 0.298695 0.298694 0.298693 0.298691 0.298688 0.298685
          0.29868 0.298673 0.298664 0.298652 0.298635 0.298613 0.298583 0.298542 0.298485 0.298406 0.298293 0.298125
          0.297592 0.297144 0.296267 0.294052 0.284247 0.0528356
        </DataArray>
        <DataArray type="Float32" Name="temperature" NumberOfComponents="1" format="ascii">
          281.15 281.15 281.15 281.15 281.15 281.15 281.15 281.15 281.15 281.15 281.15 281.15
          281.15 281.15 281.15 281.15 281.15 281.15 281.15 281.15 281.15 281.15 281.15 281.15
          281.15 281.15 281.15 281.15 281.15 281.15
        </DataArray>
        <DataArray type="Float32" Name="phase presence" NumberOfComponents="1" format="ascii">
          1 1 1 1 1 1 1 1 1 1 1 1
          1 1 1 1 1 1 1 1 1 1 1 1
          1 1 1 1 1 1
        </DataArray>
        <DataArray type="Float32" Name="precipitateVolumeFraction_au" NumberOfComponents="1" format="ascii">
          5.52709e-10 5.52793e-10 5.52825e-10 5.52756e-10 5.52807e-10 5.52752e-10 5.52774e-10 5.52788e-10 5.52819e-10 5.52795e-10 5.52765e-10 5.52728e-10
          5.52793e-10 5.5278e-10 5.52793e-10 5.52776e-10 5.52764e-10 5.52798e-10 5.52758e-10 5.52708e-10 5.52761e-10 5.5282e-10 5.52953e-10 9.95229e-10
          0.000269953 0.000269942 0.000269927 0.000269901 5.52509e-10 5.51468e-10
        </DataArray>
        <DataArray type="Float32" Name="precipitateVolumeFraction_nanoAu" NumberOfComponents="1" format="ascii">
          9.84386e-14 9.84533e-14 9.84586e-14 9.84459e-14 9.84546e-14 9.84445e-14 9.84481e-14 9.84503e-14 9.84555e-14 9.84508e-14 9.84449e-14 9.8438e-14
          9.8449e-14 9.84461e-14 9.84477e-14 9.84438e-14 9.84405e-14 9.84451e-14 9.8436e-14 9.84246e-14 9.84305e-14 9.84433e-14 1.04872e-13 1.7016e-11
          4.80597e-08 5.88169e-08 7.4364e-08 9.82432e-08 2.84025e-13 2.79889e-13
        </DataArray>
        <DataArray type="Float32" Name="precipitateVolumeFraction_d" NumberOfComponents="1" format="ascii">
          0.000651418 0.000651482 0.000651572 0.000651699 0.000651877 0.000652127 0.000652477 0.000652965 0.000653643 0.000654583 0.00065588 0.000657661
          0.000660098 0.000663419 0.000667929 0.000674038 0.000682296 0.00069346 0.000708586 0.000729189 0.000757522 0.000797094 0.000853699 0.000937632
          0.00106904 0.00129306 0.00173136 0.00283907 0.00787642 0.123582
        </DataArray>
        <DataArray type="Float32" Name="precipitateVolumeFraction_p" NumberOfComponents="1" format="ascii">
          0.000651418 0.000651482 0.000651572 0.000651699 0.000651877 0.000652127 0.000652477 0.000652965 0.000653643 0.000654583 0.00065588 0.000657661
          0.000660098 0.000663419 0.000667929 0.000674038 0.000682296 0.00069346 0.000708586 0.000729189 0.000757522 0.000797094 0.000853699 0.000937632
          0.00106904 0.00129306 0.00173136 0.00283907 0.00787642 0.123582
        </DataArray>
        <DataArray type="Float32" Name="K" NumberOfComponents="1" format="ascii">
          9.83364e-11 9.83363e-11 9.8336e-11 9.83357e-11 9.83353e-11 9.83346e-11 9.83337e-11 9.83325e-11 9.83308e-11 9.83284e-11 9.83251e-11 9.83206e-11
          9.83144e-11 9.8306e-11 9.82946e-11 9.82791e-11 9.82581e-11 9.82298e-11 9.81915e-11 9.81393e-11 9.80676e-11 9.79675e-11 9.78245e-11 9.76127e-11
          9.69431e-11 9.63829e-11 9.52945e-11 9.25888e-11 8.13569e-11 2.98374e-13
        </DataArray>
        <DataArray type="Float32" Name="X^w_H2O" NumberOfComponents="1" format="ascii">
          0.999851 0.999851 0.999851 0.999851 0.999851 0.999851 0.999851 0.999851 0.999851 0.999851 0.999851 0.999851
          0.999851 0.999851 0.999851 0.999851 0.999851 0.999851 0.999851 0.999851 0.999851 0.999851 0.999851 0.999851
          0.999851 0.99985 0.999848 0.999844 0.999839 0.99984
        </DataArray>
        <DataArray type="Float32" Name="X^w_Air" NumberOfComponents="1" format="ascii">
          0 0 0 0 0 0 0 0 0 0 0 0
          0 0 0 0 0 0 0 0 0 0 0 0
          0 0 0 0 0 0
        </DataArray>
        <DataArray type="Float32" Name="X^w_AuComplex" NumberOfComponents="1" format="ascii">
          1.55328e-16 1.5535e-16 1.55358e-16 1.55338e-16 1.55352e-16 1.55335e-16 1.55341e-16 1.55344e-16 1.55352e-16 1.55344e-16 1.55334e-16 1.55323e-16
          1.55339e-16 1.55334e-16 1.55336e-16 1.55329e-16 1.55322e-16 1.55328e-16 1.55311e-16 1.5529e-16 1.55294e-16 1.55306e-16 1.65287e-16 2.68275e-14
          7.58009e-11 1.09591e-10 1.69296e-10 2.86325e-10 1.13338e-15 1.10435e-15
        </DataArray>
        <DataArray type="Float32" Name="X^w_nanoAu" NumberOfComponents="1" format="ascii">
          4.2874e-19 4.28804e-19 4.28826e-19 4.28772e-19 4.28809e-19 4.28765e-19 4.28781e-19 4.2879e-19 4.28813e-19 4.28792e-19 4.28766e-19 4.28736e-19
          4.28783e-19 4.2877e-19 4.28777e-19 4.28759e-19 4.28744e-19 4.28761e-19 4.28719e-19 4.28698e-19 4.31634e-19 7.0165e-19 2.57038e-17 2.33862e-15
          2.09793e-13 2.56836e-13 3.24789e-13 4.22838e-13 1.23327e-18 1.18848e-18
        </DataArray>
        <DataArray type="Float32" Name="X^w_cyanide" NumberOfComponents="1" format="ascii">
          6.74121e-06 6.74119e-06 6.74117e-06 6.74115e-06 6.74113e-06 6.74112e-06 6.7411e-06 6.74108e-06 6.74106e-06 6.74103e-06 6.74101e-06 6.74098e-06
          6.74095e-06 6.74092e-06 6.74087e-06 6.74081e-06 6.74074e-06 6.74064e-06 6.74052e-06 6.74034e-06 6.74009e-06 6.73974e-06 6.73922e-06 6.73841e-06
          6.73755e-06 8.24542e-06 1.04244e-05 1.3787e-05 1.94596e-05 1.923e-05
        </DataArray>
        <DataArray type="Float32" Name="X^w_citrate" NumberOfComponents="1" format="ascii">
          0.000141798 0.000141798 0.000141798 0.000141798 0.000141798 0.000141798 0.000141798 0.000141798 0.000141798 0.000141798 0.000141798 0.000141798
          0.000141797 0.000141797 0.000141797 0.000141797 0.000141796 0.000141796 0.000141795 0.000141794 0.000141792 0.00014179 0.000141786 0.00014178
          0.000141771 0.000141755 0.000141725 0.000141654 0.000141422 0.000139753
        </DataArray>
        <DataArray type="Float32" Name="X^w_substrate" NumberOfComponents="1" format="ascii">
          7.11446e-12 9.72806e-12 1.3301e-11 1.81854e-11 2.48627e-11 3.39913e-11 4.64724e-11 6.35402e-11 8.68864e-11 1.18834e-10 1.62576e-10 2.2252e-10
          3.04762e-10 4.1778e-10 5.73439e-10 7.88475e-10 1.08675e-09 1.50276e-09 2.08723e-09 2.91644e-09 4.10835e-09 5.85204e-09 8.46465e-09 1.25107e-08
          1.90767e-08 3.04887e-08 5.25441e-08 1.03425e-07 2.67588e-07 1.44429e-06
        </DataArray>
        <DataArray type="Float32" Name="m^w_H2O" NumberOfComponents="1" format="ascii">
          55492.5 55492.5 55492.4 55492.4 55492.4 55492.4 55492.4 55492.4 55492.4 55492.4 55492.4 55492.4
          55492.4 55492.4 55492.3 55492.3 55492.3 55492.3 55492.3 55492.3 55492.3 55492.3 55492.3 55492.3
          55492.3 55492.2 55492 55491.8 55491.5 55491.6
        </DataArray>
        <DataArray type="Float32" Name="m^w_Air" NumberOfComponents="1" format="ascii">
          0 0 0 0 0 0 0 0 0 0 0 0
          0 0 0 0 0 0 0 0 0 0 0 0
          0 0 0 0 0 0
        </DataArray>
        <DataArray type="Float32" Name="m^w_AuComplex" NumberOfComponents="1" format="ascii">
          7.88471e-13 7.88587e-13 7.88627e-13 7.88524e-13 7.88592e-13 7.8851e-13 7.88536e-13 7.88552e-13 7.88592e-13 7.88552e-13 7.88503e-13 7.88444e-13
          7.8853e-13 7.88503e-13 7.88512e-13 7.88475e-13 7.88442e-13 7.88469e-13 7.88384e-13 7.88276e-13 7.88299e-13 7.8836e-13 8.39025e-13 1.3618e-10
          3.84777e-07 5.563e-07 8.59372e-07 1.45343e-06 5.75324e-12 5.60586e-12
        </DataArray>
        <DataArray type="Float32" Name="m^w_nanoAu" NumberOfComponents="1" format="ascii">
          2.17636e-15 2.17668e-15 2.1768e-15 2.17652e-15 2.17671e-15 2.17649e-15 2.17657e-15 2.17662e-15 2.17673e-15 2.17662e-15 2.17649e-15 2.17634e-15
          2.17658e-15 2.17651e-15 2.17654e-15 2.17645e-15 2.17637e-15 2.17646e-15 2.17625e-15 2.17614e-15 2.19104e-15 3.56169e-15 1.30477e-13 1.18712e-11
          1.06494e-09 1.30374e-09 1.64868e-09 2.14639e-09 6.2603e-15 6.03292e-15
        </DataArray>
        <DataArray type="Float32" Name="m^w_cyanide" NumberOfComponents="1" format="ascii">
          0.25904 0.25904 0.259039 0.259038 0.259037 0.259037 0.259036 0.259035 0.259034 0.259033 0.259032 0.259031
          0.25903 0.259029 0.259027 0.259025 0.259022 0.259018 0.259013 0.259006 0.258997 0.258983 0.258963 0.258932
          0.258899 0.316841 0.400569 0.529784 0.747759 0.738936
        </DataArray>
        <DataArray type="Float32" Name="m^w_citrate" NumberOfComponents="1" format="ascii">
          0.749752 0.749752 0.749751 0.749751 0.749751 0.749751 0.749751 0.74975 0.74975 0.74975 0.749749 0.749749
          0.749748 0.749747 0.749746 0.749744 0.749742 0.749739 0.749734 0.749728 0.749719 0.749705 0.749686 0.749655
          0.749606 0.749524 0.749363 0.748986 0.747761 0.738937
        </DataArray>
        <DataArray type="Float32" Name="m^w_substrate" NumberOfComponents="1" format="ascii">
          3.9484e-08 5.39889e-08 7.38182e-08 1.00926e-07 1.37983e-07 1.88645e-07 2.57913e-07 3.52636e-07 4.82203e-07 6.59504e-07 9.02268e-07 1.23494e-06
          1.69137e-06 2.3186e-06 3.18248e-06 4.37588e-06 6.03125e-06 8.34002e-06 1.15837e-05 1.61857e-05 2.28005e-05 3.24776e-05 4.69771e-05 6.94319e-05
          0.000105872 0.000169206 0.000291609 0.000573988 0.00148506 0.00801552
        </DataArray>
        <DataArray type="Float32" Name="process rank" NumberOfComponents="1" format="ascii">
          0 0 0 0 0 0 0 0 0 0 0 0
          0 0 0 0 0 0 0 0 0 0 0 0
          0 0 0 0 0 0
        </DataArray>
      </CellData>
      <Points>
        <DataArray type="Float32" Name="Coordinates" NumberOfComponents="3" format="ascii">
          0 0 0 0.5 0 0 0 0.0333333 0 0.5 0.0333333 0
          0 0.0666667 0 0.5 0.0666667 0 0 0.1 0 0.5 0.1 0
          0 0.133333 0 0.5 0.133333 0 0 0.166667 0 0.5 0.166667 0
          0 0.2 0 0.5 0.2 0 0 0.233333 0 0.5 0.233333 0
          0 0.266667 0 0.5 0.266667 0 0 0.3 0 0.5 0.3 0
          0 0.333333 0 0.5 0.333333 0 0 0.366667 0 0.5 0.366667 0
          0 0.4 0 0.5 0.4 0 0 0.433333 0 0.5 0.433333 0
          0 0.466667 0 0.5 0.466667 0 0 0.5 0 0.5 0.5 0
          0 0.533333 0 0.5 0.533333 0 0 0.566667 0 0.5 0.566667 0
          0 0.6 0 0.5 0.6 0 0 0.633333 0 0.5 0.633333 0
          0 0.666667 0 0.5 0.666667 0 0 0.7 0 0.5 0.7 0
          0 0.733333 0 0.5 0.733333 0 0 0.766667 0 0.5 0.766667 0
          0 0.8 0 0.5 0.8 0 0 0.833333 0 0.5 0.833333 0
          0 0.866667 0 0.5 0.866667 0 0 0.9 0 0.5 0.9 0
          0 0.933333 0 0.5 0.933333 0 0 0.966667 0 0.5 0.966667 0
          0 1 0 0.5 1 0
        </DataArray>
      </Points>
      <Cells>
        <DataArray type="Int32" Name="connectivity" NumberOfComponents="1" format="ascii">
          0 1 3 2 2 3 5 4 4 5 7 6
          6 7 9 8 8 9 11 10 10 11 13 12
          12 13 15 14 14 15 17 16 16 17 19 18
          18 19 21 20 20 21 23 22 22 23 25 24
          24 25 27 26 26 27 29 28 28 29 31 30
          30 31 33 32 32 33 35 34 34 35 37 36
          36 37 39 38 38 39 41 40 40 41 43 42
          42 43 45 44 44 45 47 46 46 47 49 48
          48 49 51 50 50 51 53 52 52 53 55 54
          54 55 57 56 56 57 59 58 58 59 61 60
        </DataArray>
        <DataArray type="Int32" Name="offsets" NumberOfComponents="1" format="ascii">
          4 8 12 16 20 24 28 32 36 40 44 48
          52 56 60 64 68 72 76 80 84 88 92 96
          100 104 108 112 116 120
        </DataArray>
        <DataArray type="UInt8" Name="types" NumberOfComponents="1" format="ascii">
          9 9 9 9 9 9 9 9 9 9 9 9
          9 9 9 9 9 9 9 9 9 9 9 9
          9 9 9 9 9 9
        </DataArray>
      </Cells>
    </Piece>
  </UnstructuredGrid>
</VTKFile>
