<?xml version="1.0"?>
<VTKFile type="UnstructuredGrid" version="0.1" byte_order="LittleEndian">
  <UnstructuredGrid>
    <Piece NumberOfCells="30" NumberOfPoints="62">
      <CellData Scalars="Sg">
        <DataArray type="Float32" Name="Sg" NumberOfComponents="1" format="ascii">
          0 0 0 0 0 0 0 0 0 0 0 0
          0 0 0 0 0 0 0 0 0 0 0 0
          0 0 0 0 0 0
        </DataArray>
        <DataArray type="Float32" Name="Sl" NumberOfComponents="1" format="ascii">
          1 1 1 1 1 1 1 1 1 1 1 1
          1 1 1 1 1 1 1 1 1 1 1 1
          1 1 1 1 1 1
        </DataArray>
        <DataArray type="Float32" Name="pg" NumberOfComponents="1" format="ascii">
          24687.8 24360.9 24034 23707 23380.1 23053.1 22726.2 22399.3 22072.3 21745.4 21418.4 21091.5
          20764.6 20437.6 20110.7 19783.7 19456.8 19129.8 18802.9 18476 18149 17822.1 17495.1 17168.2
          16841.3 16514.3 16187.4 15860.4 15533.5 15209.6
        </DataArray>
        <DataArray type="Float32" Name="pl" NumberOfComponents="1" format="ascii">
          110628 110301 109974 109647 109320 108993 108666 108339 108012 107685 107358 107031
          106704 106377 106050 105723 105396 105070 104743 104416 104089 103762 103435 103108
          102781 102454 102127 101800 101473 101149
        </DataArray>
        <DataArray type="Float32" Name="pc" NumberOfComponents="1" format="ascii">
          -85939.7 -85939.7 -85939.7 -85939.7 -85939.7 -85939.7 -85939.7 -85939.7 -85939.7 -85939.7 -85939.7 -85939.7
          -85939.7 -85939.7 -85939.7 -85939.7 -85939.7 -85939.7 -85939.7 -85939.7 -85939.7 -85939.7 -85939.7 -85939.7
          -85939.7 -85939.7 -85939.7 -85939.7 -85939.7 -85939.7
        </DataArray>
        <DataArray type="Float32" Name="rhoL" NumberOfComponents="1" format="ascii">
          999.855 999.855 999.855 999.855 999.855 999.854 999.854 999.854 999.854 999.854 999.854 999.854
          999.853 999.853 999.853 999.853 999.853 999.853 999.852 999.852 999.852 999.852 999.852 999.852
          999.852 999.851 999.851 999.851 999.851 999.851
        </DataArray>
        <DataArray type="Float32" Name="rhoG" NumberOfComponents="1" format="ascii">
          0.30585 0.3018 0.29775 0.293699 0.289649 0.285598 0.281548 0.277498 0.273447 0.269397 0.265347 0.261296
          0.257246 0.253195 0.249145 0.245095 0.241044 0.236994 0.232944 0.228893 0.224843 0.220793 0.216742 0.212692
          0.208641 0.204591 0.200541 0.19649 0.19244 0.188427
        </DataArray>
        <DataArray type="Float32" Name="mobL" NumberOfComponents="1" format="ascii">
          722.171 722.17 722.17 722.17 722.17 722.17 722.169 722.169 722.169 722.169 722.169 722.169
          722.168 722.168 722.168 722.168 722.168 722.167 722.167 722.167 722.167 722.167 722.166 722.166
          722.166 722.166 722.166 722.166 722.165 722.165
        </DataArray>
        <DataArray type="Float32" Name="mobG" NumberOfComponents="1" format="ascii">
          0 0 0 0 0 0 0 0 0 0 0 0
          0 0 0 0 0 0 0 0 0 0 0 0
          0 0 0 0 0 0
        </DataArray>
        <DataArray type="Float32" Name="porosity" NumberOfComponents="1" format="ascii">
          0.298833 0.298833 0.298833 0.298832 0.298832 0.298832 0.298831 0.29883 0.298829 0.298827 0.298825 0.298822
          0.298817 0.298811 0.298803 0.298792 0.298776 0.298756 0.298728 0.29869 0.298638 0.298565 0.29846 0.298303
          0.297784 0.297355 0.296495 0.294222 0.283045 0.0450309
        </DataArray>
        <DataArray type="Float32" Name="temperature" NumberOfComponents="1" format="ascii">
          281.15 281.15 281.15 281.15 281.15 281.15 281.15 281.15 281.15 281.15 281.15 281.15
          281.15 281.15 281.15 281.15 281.15 281.15 281.15 281.15 281.15 281.15 281.15 281.15
          281.15 281.15 281.15 281.15 281.15 281.15
        </DataArray>
        <DataArray type="Float32" Name="phase presence" NumberOfComponents="1" format="ascii">
          1 1 1 1 1 1 1 1 1 1 1 1
          1 1 1 1 1 1 1 1 1 1 1 1
          1 1 1 1 1 1
        </DataArray>
        <DataArray type="Float32" Name="precipitateVolumeFraction_au" NumberOfComponents="1" format="ascii">
          5.52709e-10 5.52793e-10 5.52825e-10 5.52756e-10 5.52807e-10 5.52752e-10 5.52774e-10 5.52788e-10 5.52819e-10 5.52795e-10 5.52765e-10 5.52728e-10
          5.52793e-10 5.5278e-10 5.52793e-10 5.52776e-10 5.52764e-10 5.52798e-10 5.52758e-10 5.52708e-10 5.52761e-10 5.5282e-10 5.53064e-10 1.28662e-09
          0.000269953 0.000269942 0.000269927 0.0002699 5.52508e-10 5.51463e-10
        </DataArray>
        <DataArray type="Float32" Name="precipitateVolumeFraction_nanoAu" NumberOfComponents="1" format="ascii">
          9.84077e-14 9.84227e-14 9.84284e-14 9.8416e-14 9.8425e-14 9.84153e-14 9.84191e-14 9.84216e-14 9.84271e-14 9.84226e-14 9.8417e-14 9.84103e-14
          9.84215e-14 9.84188e-14 9.84207e-14 9.84168e-14 9.84137e-14 9.84183e-14 9.84093e-14 9.8398e-14 9.84038e-14 9.84168e-14 1.04875e-13 1.70539e-11
          4.80476e-08 5.88045e-08 7.43536e-08 9.82416e-08 2.84098e-13 2.80037e-13
        </DataArray>
        <DataArray type="Float32" Name="precipitateVolumeFraction_d" NumberOfComponents="1" format="ascii">
          0.000583528 0.000583587 0.00058367 0.000583787 0.000583951 0.00058418 0.000584501 0.000584949 0.00058557 0.00058643 0.000587616 0.000589244
          0.000591472 0.000594508 0.000598632 0.000604219 0.000611779 0.000622009 0.000635891 0.000654834 0.000680954 0.00071756 0.000770168 0.000848683
          0.000972761 0.00118733 0.00161728 0.00275424 0.00847733 0.127485
        </DataArray>
        <DataArray type="Float32" Name="precipitateVolumeFraction_p" NumberOfComponents="1" format="ascii">
          0.000583528 0.000583587 0.00058367 0.000583787 0.000583951 0.00058418 0.000584501 0.000584949 0.00058557 0.00058643 0.000587616 0.000589244
          0.000591472 0.000594508 0.000598632 0.000604219 0.000611779 0.000622009 0.000635891 0.000654834 0.000680954 0.00071756 0.000770168 0.000848683
          0.000972761 0.00118733 0.00161728 0.00275424 0.00847733 0.127485
        </DataArray>
        <DataArray type="Float32" Name="K" NumberOfComponents="1" format="ascii">
          9.85087e-11 9.85086e-11 9.85084e-11 9.85081e-11 9.85077e-11 9.85071e-11 9.85063e-11 9.85051e-11 9.85035e-11 9.85014e-11 9.84983e-11 9.84942e-11
          9.84886e-11 9.84808e-11 9.84704e-11 9.84562e-11 9.8437e-11 9.8411e-11 9.83758e-11 9.83278e-11 9.82615e-11 9.81688e-11 9.80356e-11 9.78372e-11
          9.71846e-11 9.66469e-11 9.55768e-11 9.27938e-11 8.00603e-11 1.81713e-13
        </DataArray>
        <DataArray type="Float32" Name="X^w_H2O" NumberOfComponents="1" format="ascii">
          0.999851 0.999851 0.999851 0.999851 0.999851 0.999851 0.999851 0.999851 0.999851 0.999851 0.999851 0.999851
          0.999851 0.999851 0.999851 0.999851 0.999851 0.999851 0.999851 0.999851 0.999851 0.999851 0.999851 0.999851
          0.999851 0.99985 0.999848 0.999844 0.999839 0.99984
        </DataArray>
        <DataArray type="Float32" Name="X^w_Air" NumberOfComponents="1" format="ascii">
          0 0 0 0 0 0 0 0 0 0 0 0
          0 0 0 0 0 0 0 0 0 0 0 0
          0 0 0 0 0 0
        </DataArray>
        <DataArray type="Float32" Name="X^w_AuComplex" NumberOfComponents="1" format="ascii">
          1.55247e-16 1.55271e-16 1.5528e-16 1.5526e-16 1.55274e-16 1.55259e-16 1.55265e-16 1.55269e-16 1.55277e-16 1.5527e-16 1.55261e-16 1.5525e-16
          1.55268e-16 1.55263e-16 1.55265e-16 1.55258e-16 1.55252e-16 1.55257e-16 1.55241e-16 1.5522e-16 1.55224e-16 1.55236e-16 1.65261e-16 2.68829e-14
          7.57689e-11 1.09551e-10 1.69254e-10 2.86318e-10 1.13392e-15 1.10537e-15
        </DataArray>
        <DataArray type="Float32" Name="X^w_nanoAu" NumberOfComponents="1" format="ascii">
          4.28606e-19 4.28671e-19 4.28694e-19 4.28642e-19 4.2868e-19 4.28638e-19 4.28654e-19 4.28665e-19 4.28689e-19 4.28669e-19 4.28644e-19 4.28615e-19
          4.28663e-19 4.28651e-19 4.28658e-19 4.2864e-19 4.28625e-19 4.28643e-19 4.28601e-19 4.2858e-19 4.31511e-19 7.01253e-19 2.56851e-17 2.33755e-15
          2.09739e-13 2.56782e-13 3.2475e-13 4.22863e-13 1.23389e-18 1.18964e-18
        </DataArray>
        <DataArray type="Float32" Name="X^w_cyanide" NumberOfComponents="1" format="ascii">
          6.73942e-06 6.73942e-06 6.73942e-06 6.73942e-06 6.73942e-06 6.73942e-06 6.73942e-06 6.73941e-06 6.73941e-06 6.7394e-06 6.73939e-06 6.73938e-06
          6.73936e-06 6.73933e-06 6.73929e-06 6.73924e-06 6.73918e-06 6.73908e-06 6.73895e-06 6.73878e-06 6.73853e-06 6.73817e-06 6.73766e-06 6.73688e-06
          6.73608e-06 8.2439e-06 1.04231e-05 1.37869e-05 1.94642e-05 1.92386e-05
        </DataArray>
        <DataArray type="Float32" Name="X^w_citrate" NumberOfComponents="1" format="ascii">
          0.000141798 0.000141798 0.000141798 0.000141798 0.000141798 0.000141798 0.000141798 0.000141798 0.000141798 0.000141798 0.000141797 0.000141797
          0.000141797 0.000141797 0.000141797 0.000141796 0.000141796 0.000141795 0.000141794 0.000141793 0.000141791 0.000141788 0.000141785 0.000141779
          0.00014177 0.000141756 0.000141728 0.000141664 0.000141455 0.000139816
        </DataArray>
        <DataArray type="Float32" Name="X^w_substrate" NumberOfComponents="1" format="ascii">
          1.45726e-11 1.93781e-11 2.57667e-11 3.426e-11 4.55513e-11 6.0563e-11 8.05232e-11 1.07067e-10 1.42377e-10 1.89365e-10 2.51931e-10 3.35308e-10
          4.46547e-10 5.95199e-10 7.94281e-10 1.0617e-09 1.42235e-09 1.91138e-09 2.57928e-09 3.50032e-09 4.78698e-09 6.61603e-09 9.27874e-09 1.32852e-08
          1.96039e-08 3.02866e-08 5.04232e-08 9.60692e-08 2.44096e-07 1.4001e-06
        </DataArray>
        <DataArray type="Float32" Name="m^w_H2O" NumberOfComponents="1" format="ascii">
          55492.5 55492.5 55492.4 55492.4 55492.4 55492.4 55492.4 55492.4 55492.4 55492.4 55492.4 55492.4
          55492.4 55492.4 55492.3 55492.3 55492.3 55492.3 55492.3 55492.3 55492.3 55492.3 55492.3 55492.3
          55492.3 55492.2 55492 55491.8 55491.5 55491.6
        </DataArray>
        <DataArray type="Float32" Name="m^w_Air" NumberOfComponents="1" format="ascii">
          0 0 0 0 0 0 0 0 0 0 0 0
          0 0 0 0 0 0 0 0 0 0 0 0
          0 0 0 0 0 0
        </DataArray>
        <DataArray type="Float32" Name="m^w_AuComplex" NumberOfComponents="1" format="ascii">
          7.88062e-13 7.88182e-13 7.88227e-13 7.88128e-13 7.882e-13 7.88122e-13 7.88152e-13 7.88172e-13 7.88215e-13 7.88178e-13 7.88133e-13 7.88077e-13
          7.88165e-13 7.88141e-13 7.88152e-13 7.88117e-13 7.88085e-13 7.88113e-13 7.88029e-13 7.87921e-13 7.87944e-13 7.88005e-13 8.38894e-13 1.36462e-10
          3.84615e-07 5.561e-07 8.59161e-07 1.4534e-06 5.75595e-12 5.61104e-12
        </DataArray>
        <DataArray type="Float32" Name="m^w_nanoAu" NumberOfComponents="1" format="ascii">
          2.17568e-15 2.17601e-15 2.17613e-15 2.17586e-15 2.17605e-15 2.17584e-15 2.17593e-15 2.17598e-15 2.1761e-15 2.176e-15 2.17587e-15 2.17573e-15
          2.17597e-15 2.1759e-15 2.17594e-15 2.17585e-15 2.17577e-15 2.17586e-15 2.17565e-15 2.17554e-15 2.19042e-15 3.55968e-15 1.30382e-13 1.18658e-11
          1.06467e-09 1.30347e-09 1.64849e-09 2.14652e-09 6.26341e-15 6.0388e-15
        </DataArray>
        <DataArray type="Float32" Name="m^w_cyanide" NumberOfComponents="1" format="ascii">
          0.258972 0.258972 0.258972 0.258972 0.258972 0.258972 0.258971 0.258971 0.258971 0.258971 0.25897 0.25897
          0.258969 0.258968 0.258966 0.258964 0.258962 0.258958 0.258953 0.258946 0.258937 0.258923 0.258903 0.258873
          0.258842 0.316782 0.400519 0.52978 0.747935 0.739268
        </DataArray>
        <DataArray type="Float32" Name="m^w_citrate" NumberOfComponents="1" format="ascii">
          0.749752 0.749752 0.749751 0.749751 0.749751 0.749751 0.74975 0.74975 0.74975 0.749749 0.749749 0.749748
          0.749747 0.749746 0.749744 0.749742 0.749739 0.749735 0.74973 0.749723 0.749713 0.7497 0.74968 0.749649
          0.749602 0.749525 0.749379 0.749041 0.747937 0.739269
        </DataArray>
        <DataArray type="Float32" Name="m^w_substrate" NumberOfComponents="1" format="ascii">
          8.08755e-08 1.07545e-07 1.43001e-07 1.90137e-07 2.52801e-07 3.36114e-07 4.46889e-07 5.94204e-07 7.90165e-07 1.05094e-06 1.39817e-06 1.86089e-06
          2.47825e-06 3.30324e-06 4.4081e-06 5.89222e-06 7.89378e-06 1.06078e-05 1.43145e-05 1.94261e-05 2.65668e-05 3.67176e-05 5.14951e-05 7.37303e-05
          0.000108798 0.000168085 0.000279839 0.000533164 0.00135468 0.00777025
        </DataArray>
        <DataArray type="Float32" Name="process rank" NumberOfComponents="1" format="ascii">
          0 0 0 0 0 0 0 0 0 0 0 0
          0 0 0 0 0 0 0 0 0 0 0 0
          0 0 0 0 0 0
        </DataArray>
      </CellData>
      <Points>
        <DataArray type="Float32" Name="Coordinates" NumberOfComponents="3" format="ascii">
          0 0 0 0.5 0 0 0 0.0333333 0 0.5 0.0333333 0
          0 0.0666667 0 0.5 0.0666667 0 0 0.1 0 0.5 0.1 0
          0 0.133333 0 0.5 0.133333 0 0 0.166667 0 0.5 0.166667 0
          0 0.2 0 0.5 0.2 0 0 0.233333 0 0.5 0.233333 0
          0 0.266667 0 0.5 0.266667 0 0 0.3 0 0.5 0.3 0
          0 0.333333 0 0.5 0.333333 0 0 0.366667 0 0.5 0.366667 0
          0 0.4 0 0.5 0.4 0 0 0.433333 0 0.5 0.433333 0
          0 0.466667 0 0.5 0.466667 0 0 0.5 0 0.5 0.5 0
          0 0.533333 0 0.5 0.533333 0 0 0.566667 0 0.5 0.566667 0
          0 0.6 0 0.5 0.6 0 0 0.633333 0 0.5 0.633333 0
          0 0.666667 0 0.5 0.666667 0 0 0.7 0 0.5 0.7 0
          0 0.733333 0 0.5 0.733333 0 0 0.766667 0 0.5 0.766667 0
          0 0.8 0 0.5 0.8 0 0 0.833333 0 0.5 0.833333 0
          0 0.866667 0 0.5 0.866667 0 0 0.9 0 0.5 0.9 0
          0 0.933333 0 0.5 0.933333 0 0 0.966667 0 0.5 0.966667 0
          0 1 0 0.5 1 0
        </DataArray>
      </Points>
      <Cells>
        <DataArray type="Int32" Name="connectivity" NumberOfComponents="1" format="ascii">
          0 1 3 2 2 3 5 4 4 5 7 6
          6 7 9 8 8 9 11 10 10 11 13 12
          12 13 15 14 14 15 17 16 16 17 19 18
          18 19 21 20 20 21 23 22 22 23 25 24
          24 25 27 26 26 27 29 28 28 29 31 30
          30 31 33 32 32 33 35 34 34 35 37 36
          36 37 39 38 38 39 41 40 40 41 43 42
          42 43 45 44 44 45 47 46 46 47 49 48
          48 49 51 50 50 51 53 52 52 53 55 54
          54 55 57 56 56 57 59 58 58 59 61 60
        </DataArray>
        <DataArray type="Int32" Name="offsets" NumberOfComponents="1" format="ascii">
          4 8 12 16 20 24 28 32 36 40 44 48
          52 56 60 64 68 72 76 80 84 88 92 96
          100 104 108 112 116 120
        </DataArray>
        <DataArray type="UInt8" Name="types" NumberOfComponents="1" format="ascii">
          9 9 9 9 9 9 9 9 9 9 9 9
          9 9 9 9 9 9 9 9 9 9 9 9
          9 9 9 9 9 9
        </DataArray>
      </Cells>
    </Piece>
  </UnstructuredGrid>
</VTKFile>
