<?xml version="1.0"?>
<VTKFile type="UnstructuredGrid" version="0.1" byte_order="LittleEndian">
  <UnstructuredGrid>
    <Piece NumberOfCells="30" NumberOfPoints="62">
      <CellData Scalars="Sg">
        <DataArray type="Float32" Name="Sg" NumberOfComponents="1" format="ascii">
          0.0948756 0.0948536 0.0948314 0.0948092 0.0947868 0.0947644 0.094742 0.0947196 0.0946973 0.0946752 0.0946531 0.0946297
          0.094599 0.0945339 0.0943171 0.0934477 0.0898176 0.0750079 0.0235486 0 0 0 0 0
          0 0 0 0 0 0
        </DataArray>
        <DataArray type="Float32" Name="Sl" NumberOfComponents="1" format="ascii">
          0.905124 0.905146 0.905169 0.905191 0.905213 0.905236 0.905258 0.90528 0.905303 0.905325 0.905347 0.90537
          0.905401 0.905466 0.905683 0.906552 0.910182 0.924992 0.976451 1 1 1 1 1
          1 1 1 1 1 1
        </DataArray>
        <DataArray type="Float32" Name="pg" NumberOfComponents="1" format="ascii">
          51866.4 51533.2 51199.9 50866.6 50533.2 50199.9 49866.5 49533.2 49199.8 48866.6 48533.3 48199.6
          47863.9 47518.3 47129.3 46553.3 45186.4 40617 25548.8 18476 18149 17822.1 17495.1 17168.2
          16841.3 16514.3 16187.4 15860.4 15533.5 15206.6
        </DataArray>
        <DataArray type="Float32" Name="pl" NumberOfComponents="1" format="ascii">
          110628 110301 109974 109647 109320 108993 108666 108339 108012 107685 107358 107031
          106704 106377 106050 105723 105396 105070 104743 104416 104089 103762 103435 103108
          102781 102454 102127 101800 101473 101146
        </DataArray>
        <DataArray type="Float32" Name="pc" NumberOfComponents="1" format="ascii">
          -58761.1 -58767.4 -58773.7 -58780.1 -58786.5 -58792.9 -58799.4 -58805.8 -58812.2 -58818.5 -58824.8 -58831.5
          -58840.3 -58859 -58921.1 -59170.1 -60210 -64452.5 -79193.8 -85939.7 -85939.7 -85939.7 -85939.7 -85939.7
          -85939.7 -85939.7 -85939.7 -85939.7 -85939.7 -85939.7
        </DataArray>
        <DataArray type="Float32" Name="rhoL" NumberOfComponents="1" format="ascii">
          999.855 999.855 999.855 999.855 999.855 999.854 999.854 999.854 999.854 999.854 999.854 999.854
          999.853 999.853 999.853 999.853 999.853 999.853 999.852 999.852 999.852 999.852 999.852 999.852
          999.852 999.851 999.851 999.851 999.851 999.851
        </DataArray>
        <DataArray type="Float32" Name="rhoG" NumberOfComponents="1" format="ascii">
          0.642558 0.638429 0.6343 0.630171 0.626041 0.621911 0.617781 0.613652 0.609522 0.605393 0.601264 0.597131
          0.592972 0.58869 0.583871 0.576735 0.559801 0.503192 0.316516 0.228893 0.224843 0.220793 0.216742 0.212692
          0.208641 0.204591 0.200541 0.19649 0.19244 0.18839
        </DataArray>
        <DataArray type="Float32" Name="mobL" NumberOfComponents="1" format="ascii">
          722.171 722.17 722.17 722.17 722.17 722.17 722.169 722.169 722.169 722.169 722.169 722.169
          722.168 722.168 722.168 722.168 722.168 722.167 722.167 722.167 722.167 722.167 722.166 722.166
          722.166 722.166 722.166 722.166 722.165 722.165
        </DataArray>
        <DataArray type="Float32" Name="mobG" NumberOfComponents="1" format="ascii">
          0 0 0 0 0 0 0 0 0 0 0 0
          0 0 0 0 0 0 0 0 0 0 0 0
          0 0 0 0 0 0
        </DataArray>
        <DataArray type="Float32" Name="porosity" NumberOfComponents="1" format="ascii">
          0.298489 0.298489 0.298489 0.298489 0.298488 0.298488 0.298487 0.298486 0.298484 0.298482 0.298479 0.298475
          0.29847 0.298462 0.298452 0.298439 0.29842 0.298396 0.298362 0.298317 0.298255 0.29817 0.29805 0.297876
          0.29734 0.296908 0.296125 0.294422 0.289314 0.242616
        </DataArray>
        <DataArray type="Float32" Name="temperature" NumberOfComponents="1" format="ascii">
          281.15 281.15 281.15 281.15 281.15 281.15 281.15 281.15 281.15 281.15 281.15 281.15
          281.15 281.15 281.15 281.15 281.15 281.15 281.15 281.15 281.15 281.15 281.15 281.15
          281.15 281.15 281.15 281.15 281.15 281.15
        </DataArray>
        <DataArray type="Float32" Name="phase presence" NumberOfComponents="1" format="ascii">
          3 3 3 3 3 3 3 3 3 3 3 3
          3 3 3 3 3 3 3 1 1 1 1 1
          1 1 1 1 1 1
        </DataArray>
        <DataArray type="Float32" Name="precipitateVolumeFraction_au" NumberOfComponents="1" format="ascii">
          5.43946e-10 5.43945e-10 5.43947e-10 5.4395e-10 5.43952e-10 5.43954e-10 5.43956e-10 5.43958e-10 5.43959e-10 5.43961e-10 5.43962e-10 5.43964e-10
          5.43965e-10 5.43966e-10 5.43967e-10 5.43968e-10 5.43968e-10 5.43969e-10 5.43969e-10 5.43955e-10 5.43964e-10 5.43999e-10 5.43997e-10 5.94974e-10
          0.000269951 0.000269941 0.000269926 0.000269904 5.43742e-10 5.42758e-10
        </DataArray>
        <DataArray type="Float32" Name="precipitateVolumeFraction_nanoAu" NumberOfComponents="1" format="ascii">
          8.93521e-12 8.93264e-12 8.92992e-12 8.92742e-12 8.92495e-12 8.92259e-12 8.92044e-12 8.9186e-12 8.9167e-12 8.91484e-12 8.91312e-12 8.91158e-12
          8.90999e-12 8.9087e-12 8.90735e-12 8.90614e-12 8.90494e-12 8.90392e-12 8.89727e-12 8.85145e-12 8.89547e-12 8.91901e-12 8.91072e-12 2.66019e-11
          4.94039e-08 5.99199e-08 7.46391e-08 9.61142e-08 9.05098e-12 9.00125e-12
        </DataArray>
        <DataArray type="Float32" Name="precipitateVolumeFraction_d" NumberOfComponents="1" format="ascii">
          0.000755273 0.000755345 0.000755446 0.000755588 0.000755789 0.00075607 0.000756464 0.000757013 0.000757777 0.000758835 0.000760293 0.000762295
          0.00076503 0.000768753 0.000773799 0.000780616 0.000789806 0.000802182 0.00081887 0.00084146 0.000872277 0.000914864 0.000974915 0.00106219
          0.00119491 0.00141114 0.00180273 0.00265405 0.00534296 0.0286918
        </DataArray>
        <DataArray type="Float32" Name="precipitateVolumeFraction_p" NumberOfComponents="1" format="ascii">
          0.000755273 0.000755345 0.000755446 0.000755588 0.000755789 0.00075607 0.000756464 0.000757013 0.000757777 0.000758835 0.000760293 0.000762295
          0.00076503 0.000768753 0.000773799 0.000780616 0.000789806 0.000802182 0.00081887 0.00084146 0.000872277 0.000914864 0.000974915 0.00106219
          0.00119491 0.00141114 0.00180273 0.00265405 0.00534296 0.0286918
        </DataArray>
        <DataArray type="Float32" Name="K" NumberOfComponents="1" format="ascii">
          9.80733e-11 9.80731e-11 9.80729e-11 9.80725e-11 9.8072e-11 9.80713e-11 9.80703e-11 9.80689e-11 9.8067e-11 9.80643e-11 9.80606e-11 9.80555e-11
          9.80486e-11 9.80392e-11 9.80264e-11 9.80092e-11 9.7986e-11 9.79547e-11 9.79125e-11 9.78554e-11 9.77776e-11 9.76701e-11 9.75188e-11 9.72991e-11
          9.6628e-11 9.60887e-11 9.51183e-11 9.30363e-11 8.70133e-11 4.51815e-11
        </DataArray>
        <DataArray type="Float32" Name="X^w_H2O" NumberOfComponents="1" format="ascii">
          0.999835 0.999835 0.999836 0.999836 0.999836 0.999836 0.999836 0.999836 0.999836 0.999837 0.999837 0.999837
          0.999837 0.999837 0.999837 0.999837 0.999838 0.999839 0.999844 0.999851 0.999851 0.999851 0.999851 0.999851
          0.999851 0.99985 0.999848 0.999845 0.99984 0.999842
        </DataArray>
        <DataArray type="Float32" Name="X^w_Air" NumberOfComponents="1" format="ascii">
          1.57446e-05 1.56413e-05 1.5538e-05 1.54347e-05 1.53314e-05 1.5228e-05 1.51247e-05 1.50214e-05 1.49181e-05 1.48148e-05 1.47114e-05 1.4608e-05
          1.4504e-05 1.43968e-05 1.42762e-05 1.40977e-05 1.3674e-05 1.22576e-05 7.58688e-06 2.77884e-07 3.62094e-09 4.62002e-11 5.73475e-13 6.88222e-15
          7.84828e-17 8.62501e-19 8.69031e-21 7.41975e-23 4.16393e-25 1.58656e-28
        </DataArray>
        <DataArray type="Float32" Name="X^w_AuComplex" NumberOfComponents="1" format="ascii">
          1.28417e-14 1.41205e-14 1.2309e-14 1.2665e-14 1.04139e-14 1.2646e-14 1.09298e-14 1.22711e-14 1.06463e-14 1.23751e-14 1.33799e-14 1.33066e-14
          1.25914e-14 1.23365e-14 1.20117e-14 1.29982e-14 1.24831e-14 1.13135e-14 3.58736e-14 1.14647e-14 1.15105e-14 1.15299e-14 1.15092e-14 3.94423e-14
          7.79118e-11 1.12054e-10 1.70913e-10 2.81247e-10 3.30472e-14 3.13211e-14
        </DataArray>
        <DataArray type="Float32" Name="X^w_nanoAu" NumberOfComponents="1" format="ascii">
          -5.08994e-16 -1.6576e-15 1.71973e-16 5.27921e-16 -5.09475e-16 5.0892e-16 -1.2072e-15 1.34027e-16 -1.49074e-15 1.45179e-15 2.9187e-17 -1.25789e-15
          4.54398e-16 1.99438e-16 1.08836e-15 -3.5254e-16 3.46095e-16 -2.03728e-15 2.25228e-14 3.85766e-17 3.87678e-17 3.91454e-17 6.49758e-17 2.45076e-15
          2.15431e-13 2.61187e-13 3.2496e-13 4.11381e-13 3.87965e-17 3.63961e-17
        </DataArray>
        <DataArray type="Float32" Name="X^w_cyanide" NumberOfComponents="1" format="ascii">
          7.19786e-06 7.14744e-06 7.10326e-06 7.06449e-06 7.03041e-06 7.00043e-06 6.97403e-06 6.95074e-06 6.93018e-06 6.91201e-06 6.89594e-06 6.88172e-06
          6.86911e-06 6.85791e-06 6.84795e-06 6.83906e-06 6.83107e-06 6.82382e-06 6.81711e-06 6.81062e-06 6.80411e-06 6.79759e-06 6.79058e-06 6.7823e-06
          6.77171e-06 8.30013e-06 1.04903e-05 1.38111e-05 1.92004e-05 1.83002e-05
        </DataArray>
        <DataArray type="Float32" Name="X^w_citrate" NumberOfComponents="1" format="ascii">
          0.000141796 0.000141796 0.000141796 0.000141796 0.000141796 0.000141796 0.000141796 0.000141795 0.000141795 0.000141795 0.000141795 0.000141794
          0.000141794 0.000141793 0.000141792 0.00014179 0.000141788 0.000141785 0.000141781 0.000141775 0.000141766 0.000141751 0.000141729 0.000141693
          0.000141635 0.000141532 0.000141331 0.000140877 0.000139548 0.000133001
        </DataArray>
        <DataArray type="Float32" Name="X^w_substrate" NumberOfComponents="1" format="ascii">
          2.71009e-11 3.74973e-11 5.19361e-11 7.19975e-11 9.98994e-11 1.38751e-10 1.92876e-10 2.68356e-10 3.73697e-10 5.20895e-10 7.26824e-10 1.01535e-09
          1.42032e-09 1.98995e-09 2.79332e-09 3.93026e-09 5.54634e-09 7.85494e-09 1.11629e-08 1.58832e-08 2.2787e-08 3.30965e-08 4.8874e-08 7.38326e-08
          1.15158e-07 1.88165e-07 3.3012e-07 6.50868e-07 1.58881e-06 6.20574e-06
        </DataArray>
        <DataArray type="Float32" Name="m^w_H2O" NumberOfComponents="1" format="ascii">
          55491.6 55491.6 55491.6 55491.6 55491.6 55491.6 55491.6 55491.6 55491.6 55491.6 55491.6 55491.6
          55491.5 55491.5 55491.5 55491.5 55491.6 55491.6 55491.9 55492.3 55492.3 55492.3 55492.3 55492.3
          55492.3 55492.2 55492 55491.9 55491.6 55491.7
        </DataArray>
        <DataArray type="Float32" Name="m^w_Air" NumberOfComponents="1" format="ascii">
          0.543589 0.540023 0.536456 0.532889 0.529321 0.525754 0.522186 0.518618 0.515051 0.511484 0.507918 0.504347
          0.500754 0.497055 0.492892 0.486728 0.4721 0.423198 0.261939 0.00959402 0.000125014 1.59507e-06 1.97994e-08 2.37611e-10
          2.70964e-12 2.97781e-14 3.00035e-16 2.56169e-18 1.43761e-20 5.47763e-24
        </DataArray>
        <DataArray type="Float32" Name="m^w_AuComplex" NumberOfComponents="1" format="ascii">
          6.5187e-11 7.16784e-11 6.24827e-11 6.42896e-11 5.28626e-11 6.41931e-11 5.54817e-11 6.22901e-11 5.40425e-11 6.28183e-11 6.79188e-11 6.75463e-11
          6.39163e-11 6.26221e-11 6.09734e-11 6.59811e-11 6.33665e-11 5.74291e-11 1.821e-10 5.81966e-11 5.84294e-11 5.85274e-11 5.84224e-11 2.00215e-10
          3.95493e-07 5.68806e-07 8.67583e-07 1.42766e-06 1.67753e-10 1.58991e-10
        </DataArray>
        <DataArray type="Float32" Name="m^w_nanoAu" NumberOfComponents="1" format="ascii">
          -2.58374e-12 -8.41428e-12 8.72968e-13 2.67982e-12 -2.58619e-12 2.58337e-12 -6.12797e-12 6.80343e-13 -7.56725e-12 7.36955e-12 1.48158e-13 -6.38527e-12
          2.3066e-12 1.01238e-12 5.52471e-12 -1.78955e-12 1.75684e-12 -1.03416e-11 1.14329e-10 1.95821e-13 1.96792e-13 1.98709e-13 3.29828e-13 1.24404e-11
          1.09356e-09 1.32583e-09 1.64955e-09 2.08823e-09 1.96937e-13 1.84752e-13
        </DataArray>
        <DataArray type="Float32" Name="m^w_cyanide" NumberOfComponents="1" format="ascii">
          0.276588 0.274651 0.272953 0.271463 0.270153 0.269001 0.267987 0.267092 0.266302 0.265603 0.264986 0.264439
          0.263955 0.263524 0.263142 0.2628 0.262493 0.262214 0.261957 0.261707 0.261457 0.261206 0.260937 0.260618
          0.260212 0.318943 0.403103 0.530708 0.7378 0.703208
        </DataArray>
        <DataArray type="Float32" Name="m^w_citrate" NumberOfComponents="1" format="ascii">
          0.749742 0.749741 0.749741 0.749741 0.74974 0.74974 0.749739 0.749738 0.749738 0.749736 0.749735 0.749732
          0.749729 0.749725 0.749719 0.74971 0.749698 0.749682 0.74966 0.749631 0.749579 0.749501 0.749383 0.749196
          0.748886 0.748342 0.747282 0.744881 0.737854 0.703234
        </DataArray>
        <DataArray type="Float32" Name="m^w_substrate" NumberOfComponents="1" format="ascii">
          1.50405e-07 2.08103e-07 2.88236e-07 3.99573e-07 5.54423e-07 7.70044e-07 1.07043e-06 1.48932e-06 2.07395e-06 2.89087e-06 4.03373e-06 5.635e-06
          7.88251e-06 1.10438e-05 1.55024e-05 2.18122e-05 3.07811e-05 4.35934e-05 6.19521e-05 8.81485e-05 0.000126463 0.000183679 0.000271241 0.000409756
          0.000639105 0.00104428 0.0018321 0.00361218 0.00881756 0.0344406
        </DataArray>
        <DataArray type="Float32" Name="process rank" NumberOfComponents="1" format="ascii">
          0 0 0 0 0 0 0 0 0 0 0 0
          0 0 0 0 0 0 0 0 0 0 0 0
          0 0 0 0 0 0
        </DataArray>
      </CellData>
      <Points>
        <DataArray type="Float32" Name="Coordinates" NumberOfComponents="3" format="ascii">
          0 0 0 0.5 0 0 0 0.0333333 0 0.5 0.0333333 0
          0 0.0666667 0 0.5 0.0666667 0 0 0.1 0 0.5 0.1 0
          0 0.133333 0 0.5 0.133333 0 0 0.166667 0 0.5 0.166667 0
          0 0.2 0 0.5 0.2 0 0 0.233333 0 0.5 0.233333 0
          0 0.266667 0 0.5 0.266667 0 0 0.3 0 0.5 0.3 0
          0 0.333333 0 0.5 0.333333 0 0 0.366667 0 0.5 0.366667 0
          0 0.4 0 0.5 0.4 0 0 0.433333 0 0.5 0.433333 0
          0 0.466667 0 0.5 0.466667 0 0 0.5 0 0.5 0.5 0
          0 0.533333 0 0.5 0.533333 0 0 0.566667 0 0.5 0.566667 0
          0 0.6 0 0.5 0.6 0 0 0.633333 0 0.5 0.633333 0
          0 0.666667 0 0.5 0.666667 0 0 0.7 0 0.5 0.7 0
          0 0.733333 0 0.5 0.733333 0 0 0.766667 0 0.5 0.766667 0
          0 0.8 0 0.5 0.8 0 0 0.833333 0 0.5 0.833333 0
          0 0.866667 0 0.5 0.866667 0 0 0.9 0 0.5 0.9 0
          0 0.933333 0 0.5 0.933333 0 0 0.966667 0 0.5 0.966667 0
          0 1 0 0.5 1 0
        </DataArray>
      </Points>
      <Cells>
        <DataArray type="Int32" Name="connectivity" NumberOfComponents="1" format="ascii">
          0 1 3 2 2 3 5 4 4 5 7 6
          6 7 9 8 8 9 11 10 10 11 13 12
          12 13 15 14 14 15 17 16 16 17 19 18
          18 19 21 20 20 21 23 22 22 23 25 24
          24 25 27 26 26 27 29 28 28 29 31 30
          30 31 33 32 32 33 35 34 34 35 37 36
          36 37 39 38 38 39 41 40 40 41 43 42
          42 43 45 44 44 45 47 46 46 47 49 48
          48 49 51 50 50 51 53 52 52 53 55 54
          54 55 57 56 56 57 59 58 58 59 61 60
        </DataArray>
        <DataArray type="Int32" Name="offsets" NumberOfComponents="1" format="ascii">
          4 8 12 16 20 24 28 32 36 40 44 48
          52 56 60 64 68 72 76 80 84 88 92 96
          100 104 108 112 116 120
        </DataArray>
        <DataArray type="UInt8" Name="types" NumberOfComponents="1" format="ascii">
          9 9 9 9 9 9 9 9 9 9 9 9
          9 9 9 9 9 9 9 9 9 9 9 9
          9 9 9 9 9 9
        </DataArray>
      </Cells>
    </Piece>
  </UnstructuredGrid>
</VTKFile>
