<?xml version="1.0"?>
<VTKFile type="UnstructuredGrid" version="0.1" byte_order="LittleEndian">
  <UnstructuredGrid>
    <Piece NumberOfCells="30" NumberOfPoints="62">
      <CellData Scalars="Sg">
        <DataArray type="Float32" Name="Sg" NumberOfComponents="1" format="ascii">
          0.0968548 0.096841 0.0968271 0.0968131 0.0967991 0.096785 0.0967709 0.0967568 0.0967427 0.0967288 0.0967151 0.0967016
          0.0966886 0.0966763 0.0966645 0.0966529 0.0966377 0.0966002 0.0964574 0.0958517 0.0932982 0.0828903 0.0443033 0
          0 0 0 0 0 0
        </DataArray>
        <DataArray type="Float32" Name="Sl" NumberOfComponents="1" format="ascii">
          0.903145 0.903159 0.903173 0.903187 0.903201 0.903215 0.903229 0.903243 0.903257 0.903271 0.903285 0.903298
          0.903311 0.903324 0.903335 0.903347 0.903362 0.9034 0.903543 0.904148 0.906702 0.91711 0.955697 1
          1 1 1 1 1 1
        </DataArray>
        <DataArray type="Float32" Name="pg" NumberOfComponents="1" format="ascii">
          52433.4 52102.5 51771.6 51440.6 51109.7 50778.7 50447.7 50116.7 49785.8 49454.8 49124 48793.2
          48462.5 48132 47801.7 47471.5 47140.2 46802.5 46434.6 45934.2 44875.7 41567.3 30186.5 17168.2
          16841.3 16514.3 16187.4 15860.4 15533.5 15206.6
        </DataArray>
        <DataArray type="Float32" Name="pl" NumberOfComponents="1" format="ascii">
          110628 110301 109974 109647 109320 108993 108666 108339 108012 107685 107358 107031
          106704 106377 106050 105723 105396 105070 104743 104416 104089 103762 103435 103108
          102781 102454 102127 101800 101473 101146
        </DataArray>
        <DataArray type="Float32" Name="pc" NumberOfComponents="1" format="ascii">
          -58194.1 -58198.1 -58202.1 -58206.1 -58210.1 -58214.1 -58218.2 -58222.2 -58226.2 -58230.2 -58234.1 -58238
          -58241.7 -58245.3 -58248.6 -58251.9 -58256.3 -58267 -58308 -58481.5 -59213 -62194.4 -73248.3 -85939.7
          -85939.7 -85939.7 -85939.7 -85939.7 -85939.7 -85939.7
        </DataArray>
        <DataArray type="Float32" Name="rhoL" NumberOfComponents="1" format="ascii">
          999.855 999.855 999.855 999.855 999.855 999.854 999.854 999.854 999.854 999.854 999.854 999.854
          999.853 999.853 999.853 999.853 999.853 999.853 999.852 999.852 999.852 999.852 999.852 999.852
          999.852 999.851 999.851 999.851 999.851 999.851
        </DataArray>
        <DataArray type="Float32" Name="rhoG" NumberOfComponents="1" format="ascii">
          0.649582 0.645482 0.641383 0.637283 0.633183 0.629082 0.624982 0.620881 0.616781 0.612681 0.608582 0.604484
          0.600388 0.596293 0.592201 0.58811 0.584005 0.579822 0.575265 0.569065 0.555952 0.514965 0.373972 0.212692
          0.208641 0.204591 0.200541 0.19649 0.19244 0.18839
        </DataArray>
        <DataArray type="Float32" Name="mobL" NumberOfComponents="1" format="ascii">
          722.171 722.17 722.17 722.17 722.17 722.17 722.169 722.169 722.169 722.169 722.169 722.169
          722.168 722.168 722.168 722.168 722.168 722.167 722.167 722.167 722.167 722.167 722.166 722.166
          722.166 722.166 722.166 722.166 722.165 722.165
        </DataArray>
        <DataArray type="Float32" Name="mobG" NumberOfComponents="1" format="ascii">
          0 0 0 0 0 0 0 0 0 0 0 0
          0 0 0 0 0 0 0 0 0 0 0 0
          0 0 0 0 0 0
        </DataArray>
        <DataArray type="Float32" Name="porosity" NumberOfComponents="1" format="ascii">
          0.298475 0.298475 0.298475 0.298475 0.298474 0.298474 0.298473 0.298472 0.29847 0.298468 0.298465 0.298461
          0.298456 0.298449 0.298439 0.298425 0.298407 0.298382 0.298349 0.298305 0.298245 0.298161 0.298045 0.297877
          0.297354 0.29695 0.296241 0.294792 0.291089 0.269714
        </DataArray>
        <DataArray type="Float32" Name="temperature" NumberOfComponents="1" format="ascii">
          281.15 281.15 281.15 281.15 281.15 281.15 281.15 281.15 281.15 281.15 281.15 281.15
          281.15 281.15 281.15 281.15 281.15 281.15 281.15 281.15 281.15 281.15 281.15 281.15
          281.15 281.15 281.15 281.15 281.15 281.15
        </DataArray>
        <DataArray type="Float32" Name="phase presence" NumberOfComponents="1" format="ascii">
          3 3 3 3 3 3 3 3 3 3 3 3
          3 3 3 3 3 3 3 3 3 3 3 1
          1 1 1 1 1 1
        </DataArray>
        <DataArray type="Float32" Name="precipitateVolumeFraction_au" NumberOfComponents="1" format="ascii">
          5.15824e-10 5.15824e-10 5.15827e-10 5.15831e-10 5.15836e-10 5.1584e-10 5.15844e-10 5.15848e-10 5.15852e-10 5.15856e-10 5.1586e-10 5.15865e-10
          5.15868e-10 5.15872e-10 5.15876e-10 5.15879e-10 5.15882e-10 5.15885e-10 5.15888e-10 5.1589e-10 5.15893e-10 5.15894e-10 5.15902e-10 5.41233e-10
          0.000269949 0.00026994 0.000269928 0.000269913 5.15737e-10 5.14843e-10
        </DataArray>
        <DataArray type="Float32" Name="precipitateVolumeFraction_nanoAu" NumberOfComponents="1" format="ascii">
          3.70571e-11 3.7053e-11 3.70491e-11 3.7045e-11 3.70408e-11 3.70366e-11 3.70322e-11 3.70278e-11 3.70231e-11 3.70187e-11 3.70144e-11 3.70103e-11
          3.7006e-11 3.70019e-11 3.69981e-11 3.69945e-11 3.69907e-11 3.69872e-11 3.69838e-11 3.69807e-11 3.69774e-11 3.69744e-11 3.69769e-11 5.45482e-11
          5.18619e-08 6.07039e-08 7.22594e-08 8.75151e-08 3.70558e-11 3.69363e-11
        </DataArray>
        <DataArray type="Float32" Name="precipitateVolumeFraction_d" NumberOfComponents="1" format="ascii">
          0.00076232 0.000762391 0.000762492 0.000762633 0.000762832 0.000763111 0.000763502 0.000764047 0.000764806 0.000765857 0.000767305 0.000769294
          0.00077201 0.000775706 0.000780711 0.000787468 0.000796565 0.000808798 0.000825261 0.000847489 0.000877716 0.00091931 0.000977628 0.00106171
          0.00118804 0.00139007 0.00174443 0.0024691 0.00445565 0.0151431
        </DataArray>
        <DataArray type="Float32" Name="precipitateVolumeFraction_p" NumberOfComponents="1" format="ascii">
          0.00076232 0.000762391 0.000762492 0.000762633 0.000762832 0.000763111 0.000763502 0.000764047 0.000764806 0.000765857 0.000767305 0.000769294
          0.00077201 0.000775706 0.000780711 0.000787468 0.000796565 0.000808798 0.000825261 0.000847489 0.000877716 0.00091931 0.000977628 0.00106171
          0.00118804 0.00139007 0.00174443 0.0024691 0.00445565 0.0151431
        </DataArray>
        <DataArray type="Float32" Name="K" NumberOfComponents="1" format="ascii">
          9.80555e-11 9.80553e-11 9.80551e-11 9.80547e-11 9.80542e-11 9.80535e-11 9.80525e-11 9.80511e-11 9.80492e-11 9.80465e-11 9.80429e-11 9.80378e-11
          9.8031e-11 9.80216e-11 9.8009e-11 9.79919e-11 9.79689e-11 9.79379e-11 9.78963e-11 9.78402e-11 9.77639e-11 9.76589e-11 9.75119e-11 9.73004e-11
          9.66451e-11 9.61411e-11 9.52622e-11 9.34854e-11 8.90686e-11 6.6766e-11
        </DataArray>
        <DataArray type="Float32" Name="X^w_H2O" NumberOfComponents="1" format="ascii">
          0.99983 0.99983 0.999831 0.999832 0.999832 0.999833 0.999833 0.999834 0.999834 0.999834 0.999835 0.999835
          0.999835 0.999836 0.999836 0.999836 0.999836 0.999837 0.999837 0.999837 0.999837 0.999839 0.999842 0.99985
          0.999851 0.99985 0.999848 0.999845 0.999841 0.999846
        </DataArray>
        <DataArray type="Float32" Name="X^w_Air" NumberOfComponents="1" format="ascii">
          1.59203e-05 1.58178e-05 1.57152e-05 1.56126e-05 1.551e-05 1.54074e-05 1.53049e-05 1.52023e-05 1.50997e-05 1.49971e-05 1.48945e-05 1.4792e-05
          1.46895e-05 1.45871e-05 1.44847e-05 1.43823e-05 1.42796e-05 1.41749e-05 1.40609e-05 1.39058e-05 1.35777e-05 1.25522e-05 9.02445e-06 9.17766e-07
          1.08666e-08 1.24006e-10 1.33346e-12 1.30084e-14 1.03707e-16 3.76575e-19
        </DataArray>
        <DataArray type="Float32" Name="X^w_AuComplex" NumberOfComponents="1" format="ascii">
          8.96262e-14 8.42945e-14 7.96173e-14 7.79889e-14 7.45415e-14 7.10369e-14 6.90755e-14 6.65931e-14 6.21278e-14 6.1567e-14 5.98442e-14 5.86877e-14
          5.75674e-14 5.639e-14 5.57603e-14 5.52166e-14 5.29679e-14 5.24696e-14 5.2399e-14 5.13299e-14 5.06643e-14 4.88141e-14 5.28845e-14 7.87613e-14
          8.39078e-11 1.17408e-10 1.71438e-10 2.62911e-10 1.32401e-13 1.20771e-13
        </DataArray>
        <DataArray type="Float32" Name="X^w_nanoAu" NumberOfComponents="1" format="ascii">
          -1.40136e-15 5.49162e-16 -4.87029e-16 1.52566e-15 5.0566e-16 -5.71516e-16 -1.31921e-15 -1.37429e-15 2.29014e-16 -3.31835e-16 1.58648e-15 1.64367e-15
          5.23347e-16 1.77337e-15 -1.28374e-15 5.99907e-16 -4.35101e-16 1.49404e-15 1.42348e-15 -8.59404e-16 -3.11278e-16 -9.47781e-16 1.90885e-15 2.68216e-15
          2.25639e-13 2.6369e-13 3.12832e-13 3.71266e-13 1.55709e-16 1.40627e-16
        </DataArray>
        <DataArray type="Float32" Name="X^w_cyanide" NumberOfComponents="1" format="ascii">
          1.25011e-05 1.19833e-05 1.14804e-05 1.09987e-05 1.05435e-05 1.01189e-05 9.72795e-06 9.37239e-06 9.05266e-06 8.76809e-06 8.51707e-06 8.29724e-06
          8.10575e-06 7.93951e-06 7.79536e-06 7.67025e-06 7.56137e-06 7.46622e-06 7.3826e-06 7.30855e-06 7.24228e-06 7.18195e-06 7.12534e-06 7.06917e-06
          7.00883e-06 8.60195e-06 1.08225e-05 1.40348e-05 1.88252e-05 1.72288e-05
        </DataArray>
        <DataArray type="Float32" Name="X^w_citrate" NumberOfComponents="1" format="ascii">
          0.000141798 0.000141798 0.000141798 0.000141797 0.000141797 0.000141796 0.000141796 0.000141795 0.000141795 0.000141794 0.000141793 0.000141791
          0.000141789 0.000141787 0.000141783 0.000141779 0.000141772 0.000141763 0.000141751 0.000141733 0.000141707 0.000141669 0.000141611 0.000141524
          0.000141382 0.000141135 0.000140667 0.000139646 0.000136852 0.000125228
        </DataArray>
        <DataArray type="Float32" Name="X^w_substrate" NumberOfComponents="1" format="ascii">
          3.351e-10 3.92136e-10 4.65697e-10 5.61234e-10 6.86096e-10 8.50255e-10 1.06721e-09 1.35532e-09 1.73962e-09 2.25434e-09 2.94653e-09 3.88107e-09
          5.14801e-09 6.87317e-09 9.23378e-09 1.24823e-08 1.69826e-08 2.3268e-08 3.21327e-08 4.4786e-08 6.31127e-08 9.01329e-08 1.30788e-07 1.93096e-07
          2.93654e-07 4.67803e-07 7.98363e-07 1.51919e-06 3.49034e-06 1.16868e-05
        </DataArray>
        <DataArray type="Float32" Name="m^w_H2O" NumberOfComponents="1" format="ascii">
          55491.3 55491.3 55491.3 55491.3 55491.4 55491.4 55491.4 55491.4 55491.4 55491.4 55491.5 55491.5
          55491.5 55491.5 55491.5 55491.5 55491.5 55491.5 55491.5 55491.5 55491.5 55491.6 55491.8 55492.2
          55492.2 55492.2 55492 55491.9 55491.6 55491.9
        </DataArray>
        <DataArray type="Float32" Name="m^w_Air" NumberOfComponents="1" format="ascii">
          0.549656 0.546115 0.542573 0.539032 0.53549 0.531948 0.528406 0.524863 0.521321 0.51778 0.514239 0.510699
          0.50716 0.503623 0.500088 0.496554 0.493008 0.489394 0.485457 0.480101 0.468774 0.433368 0.311572 0.0316861
          0.000375173 4.28132e-06 4.6038e-08 4.49117e-10 3.5805e-12 1.30014e-14
        </DataArray>
        <DataArray type="Float32" Name="m^w_AuComplex" NumberOfComponents="1" format="ascii">
          4.54959e-10 4.27894e-10 4.04151e-10 3.95885e-10 3.78386e-10 3.60596e-10 3.50639e-10 3.38038e-10 3.15372e-10 3.12525e-10 3.0378e-10 2.97909e-10
          2.92222e-10 2.86245e-10 2.83049e-10 2.80289e-10 2.68874e-10 2.66344e-10 2.65986e-10 2.60559e-10 2.5718e-10 2.47788e-10 2.6845e-10 3.99805e-10
          4.25929e-07 5.95982e-07 8.70249e-07 1.33458e-06 6.7209e-10 6.13055e-10
        </DataArray>
        <DataArray type="Float32" Name="m^w_nanoAu" NumberOfComponents="1" format="ascii">
          -7.11356e-12 2.78765e-12 -2.47225e-12 7.74455e-12 2.56682e-12 -2.90111e-12 -6.69653e-12 -6.97612e-12 1.16251e-12 -1.68445e-12 8.05327e-12 8.34357e-12
          2.6566e-12 9.00191e-12 -6.51651e-12 3.04523e-12 -2.20864e-12 7.58397e-12 7.2258e-12 -4.36248e-12 -1.5801e-12 -4.81109e-12 9.68964e-12 1.36151e-11
          1.14538e-09 1.33853e-09 1.58799e-09 1.88461e-09 7.90406e-13 7.13846e-13
        </DataArray>
        <DataArray type="Float32" Name="m^w_cyanide" NumberOfComponents="1" format="ascii">
          0.480371 0.460474 0.441152 0.422641 0.405148 0.388832 0.37381 0.360147 0.347861 0.336926 0.32728 0.318833
          0.311474 0.305086 0.299547 0.294739 0.290556 0.286899 0.283686 0.280841 0.278294 0.275976 0.2738 0.271642
          0.269323 0.330541 0.415866 0.539303 0.723383 0.662036
        </DataArray>
        <DataArray type="Float32" Name="m^w_citrate" NumberOfComponents="1" format="ascii">
          0.749755 0.749752 0.74975 0.749748 0.749746 0.749743 0.749741 0.749738 0.749734 0.749729 0.749723 0.749716
          0.749706 0.749692 0.749674 0.749649 0.749615 0.749568 0.749501 0.749406 0.749268 0.749066 0.748763 0.748302
          0.747548 0.746246 0.743772 0.738371 0.723595 0.662135
        </DataArray>
        <DataArray type="Float32" Name="m^w_substrate" NumberOfComponents="1" format="ascii">
          1.85974e-06 2.17628e-06 2.58453e-06 3.11475e-06 3.80771e-06 4.71876e-06 5.92281e-06 7.52178e-06 9.65454e-06 1.25112e-05 1.63527e-05 2.15392e-05
          2.85705e-05 3.81447e-05 5.12457e-05 6.92742e-05 9.42503e-05 0.000129133 0.00017833 0.000248553 0.000350263 0.00050022 0.000725849 0.00107165
          0.00162972 0.00259621 0.00443075 0.00843117 0.0193707 0.0648593
        </DataArray>
        <DataArray type="Float32" Name="process rank" NumberOfComponents="1" format="ascii">
          0 0 0 0 0 0 0 0 0 0 0 0
          0 0 0 0 0 0 0 0 0 0 0 0
          0 0 0 0 0 0
        </DataArray>
      </CellData>
      <Points>
        <DataArray type="Float32" Name="Coordinates" NumberOfComponents="3" format="ascii">
          0 0 0 0.5 0 0 0 0.0333333 0 0.5 0.0333333 0
          0 0.0666667 0 0.5 0.0666667 0 0 0.1 0 0.5 0.1 0
          0 0.133333 0 0.5 0.133333 0 0 0.166667 0 0.5 0.166667 0
          0 0.2 0 0.5 0.2 0 0 0.233333 0 0.5 0.233333 0
          0 0.266667 0 0.5 0.266667 0 0 0.3 0 0.5 0.3 0
          0 0.333333 0 0.5 0.333333 0 0 0.366667 0 0.5 0.366667 0
          0 0.4 0 0.5 0.4 0 0 0.433333 0 0.5 0.433333 0
          0 0.466667 0 0.5 0.466667 0 0 0.5 0 0.5 0.5 0
          0 0.533333 0 0.5 0.533333 0 0 0.566667 0 0.5 0.566667 0
          0 0.6 0 0.5 0.6 0 0 0.633333 0 0.5 0.633333 0
          0 0.666667 0 0.5 0.666667 0 0 0.7 0 0.5 0.7 0
          0 0.733333 0 0.5 0.733333 0 0 0.766667 0 0.5 0.766667 0
          0 0.8 0 0.5 0.8 0 0 0.833333 0 0.5 0.833333 0
          0 0.866667 0 0.5 0.866667 0 0 0.9 0 0.5 0.9 0
          0 0.933333 0 0.5 0.933333 0 0 0.966667 0 0.5 0.966667 0
          0 1 0 0.5 1 0
        </DataArray>
      </Points>
      <Cells>
        <DataArray type="Int32" Name="connectivity" NumberOfComponents="1" format="ascii">
          0 1 3 2 2 3 5 4 4 5 7 6
          6 7 9 8 8 9 11 10 10 11 13 12
          12 13 15 14 14 15 17 16 16 17 19 18
          18 19 21 20 20 21 23 22 22 23 25 24
          24 25 27 26 26 27 29 28 28 29 31 30
          30 31 33 32 32 33 35 34 34 35 37 36
          36 37 39 38 38 39 41 40 40 41 43 42
          42 43 45 44 44 45 47 46 46 47 49 48
          48 49 51 50 50 51 53 52 52 53 55 54
          54 55 57 56 56 57 59 58 58 59 61 60
        </DataArray>
        <DataArray type="Int32" Name="offsets" NumberOfComponents="1" format="ascii">
          4 8 12 16 20 24 28 32 36 40 44 48
          52 56 60 64 68 72 76 80 84 88 92 96
          100 104 108 112 116 120
        </DataArray>
        <DataArray type="UInt8" Name="types" NumberOfComponents="1" format="ascii">
          9 9 9 9 9 9 9 9 9 9 9 9
          9 9 9 9 9 9 9 9 9 9 9 9
          9 9 9 9 9 9
        </DataArray>
      </Cells>
    </Piece>
  </UnstructuredGrid>
</VTKFile>
