<?xml version="1.0"?>
<VTKFile type="UnstructuredGrid" version="0.1" byte_order="LittleEndian">
  <UnstructuredGrid>
    <Piece NumberOfCells="30" NumberOfPoints="62">
      <CellData Scalars="Sg">
        <DataArray type="Float32" Name="Sg" NumberOfComponents="1" format="ascii">
          0 0 0 0 0 0 0 0 0 0 0 0
          0 0 0 0 0 0 0 0 0 0 0 0
          0 0 0 0 0 0
        </DataArray>
        <DataArray type="Float32" Name="Sl" NumberOfComponents="1" format="ascii">
          1 1 1 1 1 1 1 1 1 1 1 1
          1 1 1 1 1 1 1 1 1 1 1 1
          1 1 1 1 1 1
        </DataArray>
        <DataArray type="Float32" Name="pg" NumberOfComponents="1" format="ascii">
          24687.8 24360.9 24034 23707 23380.1 23053.1 22726.2 22399.3 22072.3 21745.4 21418.4 21091.5
          20764.6 20437.6 20110.7 19783.7 19456.8 19129.8 18802.9 18476 18149 17822.1 17495.1 17168.2
          16841.3 16514.3 16187.4 15860.4 15533.5 15207.8
        </DataArray>
        <DataArray type="Float32" Name="pl" NumberOfComponents="1" format="ascii">
          110628 110301 109974 109647 109320 108993 108666 108339 108012 107685 107358 107031
          106704 106377 106050 105723 105396 105070 104743 104416 104089 103762 103435 103108
          102781 102454 102127 101800 101473 101147
        </DataArray>
        <DataArray type="Float32" Name="pc" NumberOfComponents="1" format="ascii">
          -85939.7 -85939.7 -85939.7 -85939.7 -85939.7 -85939.7 -85939.7 -85939.7 -85939.7 -85939.7 -85939.7 -85939.7
          -85939.7 -85939.7 -85939.7 -85939.7 -85939.7 -85939.7 -85939.7 -85939.7 -85939.7 -85939.7 -85939.7 -85939.7
          -85939.7 -85939.7 -85939.7 -85939.7 -85939.7 -85939.7
        </DataArray>
        <DataArray type="Float32" Name="rhoL" NumberOfComponents="1" format="ascii">
          999.855 999.855 999.855 999.855 999.855 999.854 999.854 999.854 999.854 999.854 999.854 999.854
          999.853 999.853 999.853 999.853 999.853 999.853 999.852 999.852 999.852 999.852 999.852 999.852
          999.852 999.851 999.851 999.851 999.851 999.851
        </DataArray>
        <DataArray type="Float32" Name="rhoG" NumberOfComponents="1" format="ascii">
          0.30585 0.3018 0.29775 0.293699 0.289649 0.285598 0.281548 0.277498 0.273447 0.269397 0.265347 0.261296
          0.257246 0.253195 0.249145 0.245095 0.241044 0.236994 0.232944 0.228893 0.224843 0.220793 0.216742 0.212692
          0.208641 0.204591 0.200541 0.19649 0.19244 0.188404
        </DataArray>
        <DataArray type="Float32" Name="mobL" NumberOfComponents="1" format="ascii">
          722.171 722.17 722.17 722.17 722.17 722.17 722.169 722.169 722.169 722.169 722.169 722.169
          722.168 722.168 722.168 722.168 722.168 722.167 722.167 722.167 722.167 722.167 722.166 722.166
          722.166 722.166 722.166 722.166 722.165 722.165
        </DataArray>
        <DataArray type="Float32" Name="mobG" NumberOfComponents="1" format="ascii">
          0 0 0 0 0 0 0 0 0 0 0 0
          0 0 0 0 0 0 0 0 0 0 0 0
          0 0 0 0 0 0
        </DataArray>
        <DataArray type="Float32" Name="porosity" NumberOfComponents="1" format="ascii">
          0.298661 0.298661 0.29866 0.29866 0.29866 0.298659 0.298658 0.298658 0.298656 0.298654 0.298652 0.298648
          0.298643 0.298636 0.298627 0.298614 0.298597 0.298575 0.298544 0.298502 0.298444 0.298363 0.298248 0.298077
          0.297541 0.297088 0.296209 0.294018 0.284633 0.0607593
        </DataArray>
        <DataArray type="Float32" Name="temperature" NumberOfComponents="1" format="ascii">
          281.15 281.15 281.15 281.15 281.15 281.15 281.15 281.15 281.15 281.15 281.15 281.15
          281.15 281.15 281.15 281.15 281.15 281.15 281.15 281.15 281.15 281.15 281.15 281.15
          281.15 281.15 281.15 281.15 281.15 281.15
        </DataArray>
        <DataArray type="Float32" Name="phase presence" NumberOfComponents="1" format="ascii">
          1 1 1 1 1 1 1 1 1 1 1 1
          1 1 1 1 1 1 1 1 1 1 1 1
          1 1 1 1 1 1
        </DataArray>
        <DataArray type="Float32" Name="precipitateVolumeFraction_au" NumberOfComponents="1" format="ascii">
          5.52709e-10 5.52793e-10 5.52825e-10 5.52756e-10 5.52807e-10 5.52752e-10 5.52774e-10 5.52788e-10 5.52819e-10 5.52795e-10 5.52765e-10 5.52728e-10
          5.52793e-10 5.5278e-10 5.52793e-10 5.52776e-10 5.52764e-10 5.52798e-10 5.52758e-10 5.52708e-10 5.52761e-10 5.5282e-10 5.52925e-10 9.22316e-10
          0.000269953 0.000269942 0.000269927 0.000269901 5.52509e-10 5.51469e-10
        </DataArray>
        <DataArray type="Float32" Name="precipitateVolumeFraction_nanoAu" NumberOfComponents="1" format="ascii">
          9.84689e-14 9.84835e-14 9.84885e-14 9.84755e-14 9.84839e-14 9.84735e-14 9.84768e-14 9.84787e-14 9.84837e-14 9.84787e-14 9.84725e-14 9.84653e-14
          9.84761e-14 9.84729e-14 9.84743e-14 9.84701e-14 9.84666e-14 9.84709e-14 9.84615e-14 9.84499e-14 9.84554e-14 9.84678e-14 1.04896e-13 1.70158e-11
          4.80705e-08 5.88277e-08 7.43734e-08 9.82459e-08 2.83977e-13 2.79727e-13
        </DataArray>
        <DataArray type="Float32" Name="precipitateVolumeFraction_d" NumberOfComponents="1" format="ascii">
          0.000669667 0.000669733 0.000669825 0.000669954 0.000670137 0.000670393 0.000670751 0.00067125 0.000671945 0.000672908 0.000674235 0.000676059
          0.000678555 0.000681955 0.000686573 0.000692824 0.000701274 0.000712693 0.000728158 0.00074921 0.000778137 0.000818498 0.000876153 0.000961482
          0.00109471 0.00132089 0.0017603 0.0028559 0.00768364 0.11962
        </DataArray>
        <DataArray type="Float32" Name="precipitateVolumeFraction_p" NumberOfComponents="1" format="ascii">
          0.000669667 0.000669733 0.000669825 0.000669954 0.000670137 0.000670393 0.000670751 0.00067125 0.000671945 0.000672908 0.000674235 0.000676059
          0.000678555 0.000681955 0.000686573 0.000692824 0.000701274 0.000712693 0.000728158 0.00074921 0.000778137 0.000818498 0.000876153 0.000961482
          0.00109471 0.00132089 0.0017603 0.0028559 0.00768364 0.11962
        </DataArray>
        <DataArray type="Float32" Name="K" NumberOfComponents="1" format="ascii">
          9.82902e-11 9.829e-11 9.82898e-11 9.82894e-11 9.8289e-11 9.82883e-11 9.82874e-11 9.82861e-11 9.82844e-11 9.82819e-11 9.82786e-11 9.82739e-11
          9.82676e-11 9.8259e-11 9.82473e-11 9.82315e-11 9.82101e-11 9.81811e-11 9.8142e-11 9.80887e-11 9.80155e-11 9.79134e-11 9.77678e-11 9.75526e-11
          9.68787e-11 9.63135e-11 9.5223e-11 9.25482e-11 8.17765e-11 4.61442e-13
        </DataArray>
        <DataArray type="Float32" Name="X^w_H2O" NumberOfComponents="1" format="ascii">
          0.999851 0.999851 0.999851 0.999851 0.999851 0.999851 0.999851 0.999851 0.999851 0.999851 0.999851 0.999851
          0.999851 0.999851 0.999851 0.999851 0.999851 0.999851 0.999851 0.999851 0.999851 0.999851 0.999851 0.999851
          0.999851 0.99985 0.999848 0.999844 0.999839 0.99984
        </DataArray>
        <DataArray type="Float32" Name="X^w_Air" NumberOfComponents="1" format="ascii">
          0 0 0 0 0 0 0 0 0 0 0 0
          0 0 0 0 0 0 0 0 0 0 0 0
          0 0 0 0 0 0
        </DataArray>
        <DataArray type="Float32" Name="X^w_AuComplex" NumberOfComponents="1" format="ascii">
          1.55407e-16 1.5543e-16 1.55437e-16 1.55416e-16 1.55429e-16 1.55412e-16 1.55416e-16 1.55418e-16 1.55426e-16 1.55417e-16 1.55407e-16 1.55394e-16
          1.55411e-16 1.55405e-16 1.55406e-16 1.55398e-16 1.55391e-16 1.55395e-16 1.55378e-16 1.55356e-16 1.5536e-16 1.55371e-16 1.6535e-16 2.68311e-14
          7.58293e-11 1.09625e-10 1.69333e-10 2.86338e-10 1.13304e-15 1.10324e-15
        </DataArray>
        <DataArray type="Float32" Name="X^w_nanoAu" NumberOfComponents="1" format="ascii">
          4.28872e-19 4.28935e-19 4.28956e-19 4.28901e-19 4.28936e-19 4.28892e-19 4.28906e-19 4.28914e-19 4.28935e-19 4.28913e-19 4.28886e-19 4.28855e-19
          4.28901e-19 4.28887e-19 4.28893e-19 4.28873e-19 4.28857e-19 4.28873e-19 4.2883e-19 4.28808e-19 4.31746e-19 7.02041e-19 2.57231e-17 2.33974e-15
          2.09839e-13 2.56881e-13 3.24822e-13 4.22826e-13 1.23288e-18 1.18722e-18
        </DataArray>
        <DataArray type="Float32" Name="X^w_cyanide" NumberOfComponents="1" format="ascii">
          6.74299e-06 6.74296e-06 6.74292e-06 6.74289e-06 6.74285e-06 6.74281e-06 6.74278e-06 6.74274e-06 6.7427e-06 6.74267e-06 6.74262e-06 6.74258e-06
          6.74253e-06 6.74248e-06 6.74242e-06 6.74235e-06 6.74226e-06 6.74215e-06 6.74201e-06 6.74182e-06 6.74155e-06 6.74118e-06 6.74063e-06 6.73978e-06
          6.73885e-06 8.24674e-06 1.04255e-05 1.37873e-05 1.94567e-05 1.92207e-05
        </DataArray>
        <DataArray type="Float32" Name="X^w_citrate" NumberOfComponents="1" format="ascii">
          0.000141798 0.000141798 0.000141798 0.000141798 0.000141798 0.000141798 0.000141798 0.000141798 0.000141798 0.000141798 0.000141798 0.000141798
          0.000141797 0.000141797 0.000141797 0.000141797 0.000141796 0.000141796 0.000141795 0.000141794 0.000141792 0.00014179 0.000141786 0.00014178
          0.00014177 0.000141754 0.000141722 0.000141646 0.000141401 0.000139685
        </DataArray>
        <DataArray type="Float32" Name="X^w_substrate" NumberOfComponents="1" format="ascii">
          6.1267e-12 8.43634e-12 1.1616e-11 1.59934e-11 2.20198e-11 3.03167e-11 4.17407e-11 5.74733e-11 7.91452e-11 1.09011e-10 1.50193e-10 2.07027e-10
          2.85556e-10 3.94239e-10 5.44992e-10 7.54736e-10 1.04776e-09 1.45937e-09 2.04185e-09 2.87424e-09 4.07947e-09 5.85563e-09 8.53662e-09 1.27194e-08
          1.95571e-08 3.15253e-08 5.48008e-08 1.08714e-07 2.82191e-07 1.49211e-06
        </DataArray>
        <DataArray type="Float32" Name="m^w_H2O" NumberOfComponents="1" format="ascii">
          55492.5 55492.5 55492.4 55492.4 55492.4 55492.4 55492.4 55492.4 55492.4 55492.4 55492.4 55492.4
          55492.4 55492.4 55492.3 55492.3 55492.3 55492.3 55492.3 55492.3 55492.3 55492.3 55492.3 55492.3
          55492.3 55492.2 55492 55491.8 55491.5 55491.6
        </DataArray>
        <DataArray type="Float32" Name="m^w_Air" NumberOfComponents="1" format="ascii">
          0 0 0 0 0 0 0 0 0 0 0 0
          0 0 0 0 0 0 0 0 0 0 0 0
          0 0 0 0 0 0
        </DataArray>
        <DataArray type="Float32" Name="m^w_AuComplex" NumberOfComponents="1" format="ascii">
          7.88876e-13 7.8899e-13 7.89027e-13 7.88919e-13 7.88983e-13 7.88897e-13 7.88919e-13 7.88931e-13 7.88968e-13 7.88924e-13 7.88871e-13 7.88809e-13
          7.88891e-13 7.8886e-13 7.88866e-13 7.88825e-13 7.88789e-13 7.88813e-13 7.88725e-13 7.88613e-13 7.88632e-13 7.88688e-13 8.39345e-13 1.36199e-10
          3.84922e-07 5.56476e-07 8.59559e-07 1.4535e-06 5.7515e-12 5.6002e-12
        </DataArray>
        <DataArray type="Float32" Name="m^w_nanoAu" NumberOfComponents="1" format="ascii">
          2.17703e-15 2.17735e-15 2.17746e-15 2.17718e-15 2.17736e-15 2.17713e-15 2.1772e-15 2.17724e-15 2.17735e-15 2.17724e-15 2.1771e-15 2.17694e-15
          2.17718e-15 2.1771e-15 2.17713e-15 2.17703e-15 2.17695e-15 2.17703e-15 2.17681e-15 2.1767e-15 2.19162e-15 3.56367e-15 1.30575e-13 1.18769e-11
          1.06518e-09 1.30397e-09 1.64885e-09 2.14633e-09 6.25827e-15 6.0265e-15
        </DataArray>
        <DataArray type="Float32" Name="m^w_cyanide" NumberOfComponents="1" format="ascii">
          0.259109 0.259108 0.259106 0.259105 0.259103 0.259102 0.2591 0.259099 0.259098 0.259096 0.259094 0.259093
          0.259091 0.259089 0.259087 0.259084 0.25908 0.259076 0.259071 0.259063 0.259053 0.259038 0.259017 0.258985
          0.258949 0.316891 0.400613 0.529796 0.747649 0.738578
        </DataArray>
        <DataArray type="Float32" Name="m^w_citrate" NumberOfComponents="1" format="ascii">
          0.749752 0.749752 0.749751 0.749751 0.749751 0.749751 0.749751 0.74975 0.74975 0.74975 0.749749 0.749749
          0.749748 0.749747 0.749746 0.749744 0.749742 0.749739 0.749734 0.749728 0.749719 0.749705 0.749685 0.749654
          0.749602 0.749516 0.749346 0.748946 0.747651 0.738579
        </DataArray>
        <DataArray type="Float32" Name="m^w_substrate" NumberOfComponents="1" format="ascii">
          3.40021e-08 4.68202e-08 6.44668e-08 8.87607e-08 1.22206e-07 1.68252e-07 2.31653e-07 3.18966e-07 4.39241e-07 6.0499e-07 8.33542e-07 1.14896e-06
          1.58478e-06 2.18795e-06 3.0246e-06 4.18864e-06 5.81484e-06 8.09923e-06 1.13319e-05 1.59514e-05 2.26403e-05 3.24976e-05 4.73765e-05 7.05899e-05
          0.000108538 0.000174959 0.000304133 0.000603341 0.0015661 0.00828089
        </DataArray>
        <DataArray type="Float32" Name="process rank" NumberOfComponents="1" format="ascii">
          0 0 0 0 0 0 0 0 0 0 0 0
          0 0 0 0 0 0 0 0 0 0 0 0
          0 0 0 0 0 0
        </DataArray>
      </CellData>
      <Points>
        <DataArray type="Float32" Name="Coordinates" NumberOfComponents="3" format="ascii">
          0 0 0 0.5 0 0 0 0.0333333 0 0.5 0.0333333 0
          0 0.0666667 0 0.5 0.0666667 0 0 0.1 0 0.5 0.1 0
          0 0.133333 0 0.5 0.133333 0 0 0.166667 0 0.5 0.166667 0
          0 0.2 0 0.5 0.2 0 0 0.233333 0 0.5 0.233333 0
          0 0.266667 0 0.5 0.266667 0 0 0.3 0 0.5 0.3 0
          0 0.333333 0 0.5 0.333333 0 0 0.366667 0 0.5 0.366667 0
          0 0.4 0 0.5 0.4 0 0 0.433333 0 0.5 0.433333 0
          0 0.466667 0 0.5 0.466667 0 0 0.5 0 0.5 0.5 0
          0 0.533333 0 0.5 0.533333 0 0 0.566667 0 0.5 0.566667 0
          0 0.6 0 0.5 0.6 0 0 0.633333 0 0.5 0.633333 0
          0 0.666667 0 0.5 0.666667 0 0 0.7 0 0.5 0.7 0
          0 0.733333 0 0.5 0.733333 0 0 0.766667 0 0.5 0.766667 0
          0 0.8 0 0.5 0.8 0 0 0.833333 0 0.5 0.833333 0
          0 0.866667 0 0.5 0.866667 0 0 0.9 0 0.5 0.9 0
          0 0.933333 0 0.5 0.933333 0 0 0.966667 0 0.5 0.966667 0
          0 1 0 0.5 1 0
        </DataArray>
      </Points>
      <Cells>
        <DataArray type="Int32" Name="connectivity" NumberOfComponents="1" format="ascii">
          0 1 3 2 2 3 5 4 4 5 7 6
          6 7 9 8 8 9 11 10 10 11 13 12
          12 13 15 14 14 15 17 16 16 17 19 18
          18 19 21 20 20 21 23 22 22 23 25 24
          24 25 27 26 26 27 29 28 28 29 31 30
          30 31 33 32 32 33 35 34 34 35 37 36
          36 37 39 38 38 39 41 40 40 41 43 42
          42 43 45 44 44 45 47 46 46 47 49 48
          48 49 51 50 50 51 53 52 52 53 55 54
          54 55 57 56 56 57 59 58 58 59 61 60
        </DataArray>
        <DataArray type="Int32" Name="offsets" NumberOfComponents="1" format="ascii">
          4 8 12 16 20 24 28 32 36 40 44 48
          52 56 60 64 68 72 76 80 84 88 92 96
          100 104 108 112 116 120
        </DataArray>
        <DataArray type="UInt8" Name="types" NumberOfComponents="1" format="ascii">
          9 9 9 9 9 9 9 9 9 9 9 9
          9 9 9 9 9 9 9 9 9 9 9 9
          9 9 9 9 9 9
        </DataArray>
      </Cells>
    </Piece>
  </UnstructuredGrid>
</VTKFile>
