<?xml version="1.0"?>
<VTKFile type="UnstructuredGrid" version="0.1" byte_order="LittleEndian">
  <UnstructuredGrid>
    <Piece NumberOfCells="30" NumberOfPoints="62">
      <CellData Scalars="Sg">
        <DataArray type="Float32" Name="Sg" NumberOfComponents="1" format="ascii">
          0 0 0 0 0 0 0 0 0 0 0 0
          0 0 0 0 0 0 0 0 0 0 0 0
          0 0 0 0 0 0
        </DataArray>
        <DataArray type="Float32" Name="Sl" NumberOfComponents="1" format="ascii">
          1 1 1 1 1 1 1 1 1 1 1 1
          1 1 1 1 1 1 1 1 1 1 1 1
          1 1 1 1 1 1
        </DataArray>
        <DataArray type="Float32" Name="pg" NumberOfComponents="1" format="ascii">
          24687.8 24360.9 24034 23707 23380.1 23053.1 22726.2 22399.3 22072.3 21745.4 21418.4 21091.5
          20764.6 20437.6 20110.7 19783.7 19456.8 19129.9 18802.9 18476 18149 17822.1 17495.1 17168.2
          16841.3 16514.3 16187.4 15860.4 15533.5 15207.3
        </DataArray>
        <DataArray type="Float32" Name="pl" NumberOfComponents="1" format="ascii">
          110628 110301 109974 109647 109320 108993 108666 108339 108012 107685 107358 107031
          106704 106377 106050 105723 105396 105070 104743 104416 104089 103762 103435 103108
          102781 102454 102127 101800 101473 101147
        </DataArray>
        <DataArray type="Float32" Name="pc" NumberOfComponents="1" format="ascii">
          -85939.7 -85939.7 -85939.7 -85939.7 -85939.7 -85939.7 -85939.7 -85939.7 -85939.7 -85939.7 -85939.7 -85939.7
          -85939.7 -85939.7 -85939.7 -85939.7 -85939.7 -85939.7 -85939.7 -85939.7 -85939.7 -85939.7 -85939.7 -85939.7
          -85939.7 -85939.7 -85939.7 -85939.7 -85939.7 -85939.7
        </DataArray>
        <DataArray type="Float32" Name="rhoL" NumberOfComponents="1" format="ascii">
          999.855 999.855 999.855 999.855 999.855 999.854 999.854 999.854 999.854 999.854 999.854 999.854
          999.853 999.853 999.853 999.853 999.853 999.853 999.852 999.852 999.852 999.852 999.852 999.852
          999.852 999.851 999.851 999.851 999.851 999.851
        </DataArray>
        <DataArray type="Float32" Name="rhoG" NumberOfComponents="1" format="ascii">
          0.30585 0.3018 0.29775 0.293699 0.289649 0.285598 0.281548 0.277498 0.273447 0.269397 0.265347 0.261296
          0.257246 0.253195 0.249145 0.245095 0.241044 0.236994 0.232944 0.228893 0.224843 0.220793 0.216742 0.212692
          0.208641 0.204591 0.200541 0.19649 0.19244 0.188399
        </DataArray>
        <DataArray type="Float32" Name="mobL" NumberOfComponents="1" format="ascii">
          722.171 722.17 722.17 722.17 722.17 722.17 722.169 722.169 722.169 722.169 722.169 722.169
          722.168 722.168 722.168 722.168 722.168 722.167 722.167 722.167 722.167 722.167 722.166 722.166
          722.166 722.166 722.166 722.166 722.165 722.165
        </DataArray>
        <DataArray type="Float32" Name="mobG" NumberOfComponents="1" format="ascii">
          0 0 0 0 0 0 0 0 0 0 0 0
          0 0 0 0 0 0 0 0 0 0 0 0
          0 0 0 0 0 0
        </DataArray>
        <DataArray type="Float32" Name="porosity" NumberOfComponents="1" format="ascii">
          0.298636 0.298636 0.298635 0.298635 0.298635 0.298634 0.298634 0.298633 0.298631 0.298629 0.298626 0.298623
          0.298618 0.298611 0.298601 0.298589 0.298572 0.298548 0.298517 0.298474 0.298416 0.298334 0.298217 0.298045
          0.297506 0.297051 0.296172 0.294001 0.284929 0.0696842
        </DataArray>
        <DataArray type="Float32" Name="temperature" NumberOfComponents="1" format="ascii">
          281.15 281.15 281.15 281.15 281.15 281.15 281.15 281.15 281.15 281.15 281.15 281.15
          281.15 281.15 281.15 281.15 281.15 281.15 281.15 281.15 281.15 281.15 281.15 281.15
          281.15 281.15 281.15 281.15 281.15 281.15
        </DataArray>
        <DataArray type="Float32" Name="phase presence" NumberOfComponents="1" format="ascii">
          1 1 1 1 1 1 1 1 1 1 1 1
          1 1 1 1 1 1 1 1 1 1 1 1
          1 1 1 1 1 1
        </DataArray>
        <DataArray type="Float32" Name="precipitateVolumeFraction_au" NumberOfComponents="1" format="ascii">
          5.52646e-10 5.5279e-10 5.52735e-10 5.52772e-10 5.52745e-10 5.52782e-10 5.52735e-10 5.52766e-10 5.52753e-10 5.52768e-10 5.52753e-10 5.52779e-10
          5.5274e-10 5.52738e-10 5.52758e-10 5.52723e-10 5.52745e-10 5.52753e-10 5.52715e-10 5.52797e-10 5.52722e-10 5.52763e-10 5.52842e-10 8.42222e-10
          0.00026994 0.000269924 0.000269899 0.000269853 5.5222e-10 5.51207e-10
        </DataArray>
        <DataArray type="Float32" Name="precipitateVolumeFraction_nanoAu" NumberOfComponents="1" format="ascii">
          1.2707e-13 1.27457e-13 1.27342e-13 1.27405e-13 1.27361e-13 1.27405e-13 1.27347e-13 1.27376e-13 1.27361e-13 1.27368e-13 1.27357e-13 1.27369e-13
          1.27347e-13 1.27343e-13 1.2735e-13 1.27334e-13 1.27339e-13 1.27338e-13 1.27322e-13 1.27341e-13 1.27312e-13 1.27321e-13 1.38599e-13 2.57821e-11
          6.0415e-08 7.6741e-08 1.022e-07 1.45589e-07 4.77394e-13 4.69673e-13
        </DataArray>
        <DataArray type="Float32" Name="precipitateVolumeFraction_d" NumberOfComponents="1" format="ascii">
          0.000682135 0.000682201 0.000682295 0.000682426 0.000682612 0.000682871 0.000683235 0.000683743 0.000684449 0.000685427 0.000686776 0.00068863
          0.000691165 0.00069462 0.000699311 0.00070566 0.000714241 0.000725834 0.000741529 0.000762884 0.000792212 0.000833103 0.000891456 0.0009777
          0.00111209 0.00133955 0.00177917 0.00286446 0.00753576 0.115158
        </DataArray>
        <DataArray type="Float32" Name="precipitateVolumeFraction_p" NumberOfComponents="1" format="ascii">
          0.000682135 0.000682201 0.000682295 0.000682426 0.000682612 0.000682871 0.000683235 0.000683743 0.000684449 0.000685427 0.000686776 0.00068863
          0.000691165 0.00069462 0.000699311 0.00070566 0.000714241 0.000725834 0.000741529 0.000762884 0.000792212 0.000833103 0.000891456 0.0009777
          0.00111209 0.00133955 0.00177917 0.00286446 0.00753576 0.115158
        </DataArray>
        <DataArray type="Float32" Name="K" NumberOfComponents="1" format="ascii">
          9.82585e-11 9.82584e-11 9.82581e-11 9.82578e-11 9.82573e-11 9.82567e-11 9.82558e-11 9.82545e-11 9.82527e-11 9.82502e-11 9.82468e-11 9.82421e-11
          9.82357e-11 9.82269e-11 9.8215e-11 9.81989e-11 9.81772e-11 9.81478e-11 9.81081e-11 9.80541e-11 9.79799e-11 9.78765e-11 9.77292e-11 9.75118e-11
          9.68352e-11 9.62669e-11 9.51764e-11 9.25275e-11 8.20996e-11 7.09535e-13
        </DataArray>
        <DataArray type="Float32" Name="X^w_H2O" NumberOfComponents="1" format="ascii">
          0.999853 0.999853 0.999853 0.999853 0.999853 0.999853 0.999853 0.999853 0.999853 0.999853 0.999853 0.999853
          0.999853 0.999853 0.999853 0.999853 0.999853 0.999853 0.999853 0.999853 0.999853 0.999853 0.999853 0.999853
          0.999853 0.999852 0.99985 0.999846 0.999839 0.99984
        </DataArray>
        <DataArray type="Float32" Name="X^w_Air" NumberOfComponents="1" format="ascii">
          0 0 0 0 0 0 0 0 0 0 0 0
          0 0 0 0 0 0 0 0 0 0 0 0
          0 0 0 0 0 0
        </DataArray>
        <DataArray type="Float32" Name="X^w_AuComplex" NumberOfComponents="1" format="ascii">
          1.44498e-16 1.44875e-16 1.44762e-16 1.44822e-16 1.44777e-16 1.4482e-16 1.44761e-16 1.44789e-16 1.44772e-16 1.44778e-16 1.44766e-16 1.44777e-16
          1.44752e-16 1.44747e-16 1.44752e-16 1.44733e-16 1.44737e-16 1.44733e-16 1.44711e-16 1.44727e-16 1.44688e-16 1.44687e-16 1.57466e-16 2.94084e-14
          6.89317e-11 1.07502e-10 1.84567e-10 3.64099e-10 1.84655e-15 1.79444e-15
        </DataArray>
        <DataArray type="Float32" Name="X^w_nanoAu" NumberOfComponents="1" format="ascii">
          3.48467e-19 3.49519e-19 3.49209e-19 3.49378e-19 3.49259e-19 3.49379e-19 3.49221e-19 3.493e-19 3.49258e-19 3.49278e-19 3.49248e-19 3.49279e-19
          3.49219e-19 3.49209e-19 3.49226e-19 3.49183e-19 3.49196e-19 3.49192e-19 3.49146e-19 3.49196e-19 3.49495e-19 4.05467e-19 8.59812e-18 1.20363e-15
          1.65949e-13 2.10857e-13 2.80894e-13 3.9607e-13 1.30497e-18 1.25939e-18
        </DataArray>
        <DataArray type="Float32" Name="X^w_cyanide" NumberOfComponents="1" format="ascii">
          5.07508e-06 5.07503e-06 5.07499e-06 5.07494e-06 5.0749e-06 5.07485e-06 5.07481e-06 5.07476e-06 5.07471e-06 5.07467e-06 5.07462e-06 5.07457e-06
          5.07451e-06 5.07445e-06 5.07438e-06 5.0743e-06 5.0742e-06 5.07408e-06 5.07393e-06 5.07372e-06 5.07345e-06 5.07305e-06 5.07247e-06 5.07158e-06
          5.07064e-06 6.4406e-06 8.57612e-06 1.22396e-05 1.94536e-05 1.92094e-05
        </DataArray>
        <DataArray type="Float32" Name="X^w_citrate" NumberOfComponents="1" format="ascii">
          0.000141796 0.000141796 0.000141796 0.000141796 0.000141796 0.000141796 0.000141796 0.000141796 0.000141796 0.000141796 0.000141796 0.000141796
          0.000141796 0.000141796 0.000141795 0.000141795 0.000141795 0.000141794 0.000141793 0.000141792 0.00014179 0.000141788 0.000141784 0.000141777
          0.000141767 0.00014175 0.000141717 0.000141637 0.000141379 0.000139603
        </DataArray>
        <DataArray type="Float32" Name="X^w_substrate" NumberOfComponents="1" format="ascii">
          5.67474e-12 7.8495e-12 1.08571e-11 1.50166e-11 2.07691e-11 2.8725e-11 3.97298e-11 5.49542e-11 7.60223e-11 1.05189e-10 1.45592e-10 2.01608e-10
          2.79363e-10 3.87471e-10 5.38121e-10 7.48696e-10 1.04425e-09 1.46137e-09 2.05442e-09 2.90594e-09 4.14478e-09 5.97926e-09 8.76171e-09 1.31239e-08
          2.02891e-08 3.28881e-08 5.74885e-08 1.14605e-07 2.97906e-07 1.5499e-06
        </DataArray>
        <DataArray type="Float32" Name="m^w_H2O" NumberOfComponents="1" format="ascii">
          55492.6 55492.6 55492.5 55492.5 55492.5 55492.5 55492.5 55492.5 55492.5 55492.5 55492.5 55492.5
          55492.5 55492.4 55492.4 55492.4 55492.4 55492.4 55492.4 55492.4 55492.4 55492.4 55492.4 55492.4
          55492.3 55492.3 55492.1 55491.9 55491.5 55491.6
        </DataArray>
        <DataArray type="Float32" Name="m^w_Air" NumberOfComponents="1" format="ascii">
          0 0 0 0 0 0 0 0 0 0 0 0
          0 0 0 0 0 0 0 0 0 0 0 0
          0 0 0 0 0 0
        </DataArray>
        <DataArray type="Float32" Name="m^w_AuComplex" NumberOfComponents="1" format="ascii">
          7.33498e-13 7.35412e-13 7.34836e-13 7.35141e-13 7.34913e-13 7.35131e-13 7.34832e-13 7.34973e-13 7.34889e-13 7.3492e-13 7.34856e-13 7.34911e-13
          7.34787e-13 7.34762e-13 7.34786e-13 7.34691e-13 7.34707e-13 7.34687e-13 7.34578e-13 7.34656e-13 7.3446e-13 7.34456e-13 7.99322e-13 1.49282e-10
          3.49909e-07 5.45698e-07 9.36893e-07 1.84822e-06 9.37336e-12 9.10885e-12
        </DataArray>
        <DataArray type="Float32" Name="m^w_nanoAu" NumberOfComponents="1" format="ascii">
          1.76888e-15 1.77422e-15 1.77265e-15 1.77351e-15 1.7729e-15 1.77351e-15 1.77271e-15 1.77311e-15 1.7729e-15 1.77299e-15 1.77284e-15 1.773e-15
          1.77269e-15 1.77265e-15 1.77273e-15 1.77251e-15 1.77258e-15 1.77256e-15 1.77232e-15 1.77258e-15 1.7741e-15 2.05822e-15 4.36454e-14 6.1098e-12
          8.42382e-10 1.07035e-09 1.42586e-09 2.01051e-09 6.62425e-15 6.39288e-15
        </DataArray>
        <DataArray type="Float32" Name="m^w_cyanide" NumberOfComponents="1" format="ascii">
          0.195017 0.195015 0.195013 0.195012 0.19501 0.195008 0.195006 0.195005 0.195003 0.195001 0.194999 0.194997
          0.194995 0.194992 0.19499 0.194987 0.194983 0.194978 0.194972 0.194964 0.194954 0.194939 0.194916 0.194882
          0.194846 0.247488 0.329548 0.47032 0.747531 0.738144
        </DataArray>
        <DataArray type="Float32" Name="m^w_citrate" NumberOfComponents="1" format="ascii">
          0.749742 0.749742 0.749742 0.749742 0.749742 0.749742 0.749741 0.749741 0.749741 0.749741 0.74974 0.74974
          0.749739 0.749738 0.749737 0.749735 0.749733 0.749729 0.749725 0.749718 0.749709 0.749695 0.749674 0.749641
          0.749587 0.749498 0.749319 0.748899 0.747533 0.738145
        </DataArray>
        <DataArray type="Float32" Name="m^w_substrate" NumberOfComponents="1" format="ascii">
          3.14938e-08 4.35633e-08 6.02552e-08 8.33394e-08 1.15264e-07 1.59419e-07 2.20493e-07 3.04986e-07 4.2191e-07 5.8378e-07 8.0801e-07 1.11889e-06
          1.55041e-06 2.15039e-06 2.98647e-06 4.15512e-06 5.79538e-06 8.11032e-06 1.14016e-05 1.61274e-05 2.30027e-05 3.31837e-05 4.86258e-05 7.28347e-05
          0.0001126 0.000182522 0.000319049 0.000636034 0.00165332 0.00860164
        </DataArray>
        <DataArray type="Float32" Name="process rank" NumberOfComponents="1" format="ascii">
          0 0 0 0 0 0 0 0 0 0 0 0
          0 0 0 0 0 0 0 0 0 0 0 0
          0 0 0 0 0 0
        </DataArray>
      </CellData>
      <Points>
        <DataArray type="Float32" Name="Coordinates" NumberOfComponents="3" format="ascii">
          0 0 0 0.5 0 0 0 0.0333333 0 0.5 0.0333333 0
          0 0.0666667 0 0.5 0.0666667 0 0 0.1 0 0.5 0.1 0
          0 0.133333 0 0.5 0.133333 0 0 0.166667 0 0.5 0.166667 0
          0 0.2 0 0.5 0.2 0 0 0.233333 0 0.5 0.233333 0
          0 0.266667 0 0.5 0.266667 0 0 0.3 0 0.5 0.3 0
          0 0.333333 0 0.5 0.333333 0 0 0.366667 0 0.5 0.366667 0
          0 0.4 0 0.5 0.4 0 0 0.433333 0 0.5 0.433333 0
          0 0.466667 0 0.5 0.466667 0 0 0.5 0 0.5 0.5 0
          0 0.533333 0 0.5 0.533333 0 0 0.566667 0 0.5 0.566667 0
          0 0.6 0 0.5 0.6 0 0 0.633333 0 0.5 0.633333 0
          0 0.666667 0 0.5 0.666667 0 0 0.7 0 0.5 0.7 0
          0 0.733333 0 0.5 0.733333 0 0 0.766667 0 0.5 0.766667 0
          0 0.8 0 0.5 0.8 0 0 0.833333 0 0.5 0.833333 0
          0 0.866667 0 0.5 0.866667 0 0 0.9 0 0.5 0.9 0
          0 0.933333 0 0.5 0.933333 0 0 0.966667 0 0.5 0.966667 0
          0 1 0 0.5 1 0
        </DataArray>
      </Points>
      <Cells>
        <DataArray type="Int32" Name="connectivity" NumberOfComponents="1" format="ascii">
          0 1 3 2 2 3 5 4 4 5 7 6
          6 7 9 8 8 9 11 10 10 11 13 12
          12 13 15 14 14 15 17 16 16 17 19 18
          18 19 21 20 20 21 23 22 22 23 25 24
          24 25 27 26 26 27 29 28 28 29 31 30
          30 31 33 32 32 33 35 34 34 35 37 36
          36 37 39 38 38 39 41 40 40 41 43 42
          42 43 45 44 44 45 47 46 46 47 49 48
          48 49 51 50 50 51 53 52 52 53 55 54
          54 55 57 56 56 57 59 58 58 59 61 60
        </DataArray>
        <DataArray type="Int32" Name="offsets" NumberOfComponents="1" format="ascii">
          4 8 12 16 20 24 28 32 36 40 44 48
          52 56 60 64 68 72 76 80 84 88 92 96
          100 104 108 112 116 120
        </DataArray>
        <DataArray type="UInt8" Name="types" NumberOfComponents="1" format="ascii">
          9 9 9 9 9 9 9 9 9 9 9 9
          9 9 9 9 9 9 9 9 9 9 9 9
          9 9 9 9 9 9
        </DataArray>
      </Cells>
    </Piece>
  </UnstructuredGrid>
</VTKFile>
