<?xml version="1.0"?>
<VTKFile type="UnstructuredGrid" version="0.1" byte_order="LittleEndian">
  <UnstructuredGrid>
    <Piece NumberOfCells="30" NumberOfPoints="62">
      <CellData Scalars="Sg">
        <DataArray type="Float32" Name="Sg" NumberOfComponents="1" format="ascii">
          0 0 0 0 0 0 0 0 0 0 0 0
          0 0 0 0 0 0 0 0 0 0 0 0
          0 0 0 0 0 0
        </DataArray>
        <DataArray type="Float32" Name="Sl" NumberOfComponents="1" format="ascii">
          1 1 1 1 1 1 1 1 1 1 1 1
          1 1 1 1 1 1 1 1 1 1 1 1
          1 1 1 1 1 1
        </DataArray>
        <DataArray type="Float32" Name="pg" NumberOfComponents="1" format="ascii">
          24687.8 24360.9 24034 23707 23380.1 23053.1 22726.2 22399.3 22072.3 21745.4 21418.4 21091.5
          20764.6 20437.6 20110.7 19783.7 19456.8 19129.8 18802.9 18476 18149 17822.1 17495.1 17168.2
          16841.3 16514.3 16187.4 15860.4 15533.5 15208.9
        </DataArray>
        <DataArray type="Float32" Name="pl" NumberOfComponents="1" format="ascii">
          110628 110301 109974 109647 109320 108993 108666 108339 108012 107685 107358 107031
          106704 106377 106050 105723 105396 105070 104743 104416 104089 103762 103435 103108
          102781 102454 102127 101800 101473 101149
        </DataArray>
        <DataArray type="Float32" Name="pc" NumberOfComponents="1" format="ascii">
          -85939.7 -85939.7 -85939.7 -85939.7 -85939.7 -85939.7 -85939.7 -85939.7 -85939.7 -85939.7 -85939.7 -85939.7
          -85939.7 -85939.7 -85939.7 -85939.7 -85939.7 -85939.7 -85939.7 -85939.7 -85939.7 -85939.7 -85939.7 -85939.7
          -85939.7 -85939.7 -85939.7 -85939.7 -85939.7 -85939.7
        </DataArray>
        <DataArray type="Float32" Name="rhoL" NumberOfComponents="1" format="ascii">
          999.855 999.855 999.855 999.855 999.855 999.854 999.854 999.854 999.854 999.854 999.854 999.854
          999.853 999.853 999.853 999.853 999.853 999.853 999.852 999.852 999.852 999.852 999.852 999.852
          999.852 999.851 999.851 999.851 999.851 999.851
        </DataArray>
        <DataArray type="Float32" Name="rhoG" NumberOfComponents="1" format="ascii">
          0.30585 0.3018 0.29775 0.293699 0.289649 0.285598 0.281548 0.277498 0.273447 0.269397 0.265347 0.261296
          0.257246 0.253195 0.249145 0.245095 0.241044 0.236994 0.232944 0.228893 0.224843 0.220793 0.216742 0.212692
          0.208641 0.204591 0.200541 0.19649 0.19244 0.188419
        </DataArray>
        <DataArray type="Float32" Name="mobL" NumberOfComponents="1" format="ascii">
          722.171 722.17 722.17 722.17 722.17 722.17 722.169 722.169 722.169 722.169 722.169 722.169
          722.168 722.168 722.168 722.168 722.168 722.167 722.167 722.167 722.167 722.167 722.166 722.166
          722.166 722.166 722.166 722.166 722.165 722.165
        </DataArray>
        <DataArray type="Float32" Name="mobG" NumberOfComponents="1" format="ascii">
          0 0 0 0 0 0 0 0 0 0 0 0
          0 0 0 0 0 0 0 0 0 0 0 0
          0 0 0 0 0 0
        </DataArray>
        <DataArray type="Float32" Name="porosity" NumberOfComponents="1" format="ascii">
          0.298733 0.298732 0.298732 0.298732 0.298732 0.298731 0.298731 0.29873 0.298728 0.298726 0.298724 0.29872
          0.298716 0.298709 0.2987 0.298688 0.298672 0.29865 0.298621 0.29858 0.298525 0.298447 0.298336 0.298171
          0.297642 0.297199 0.296325 0.294091 0.283907 0.0487354
        </DataArray>
        <DataArray type="Float32" Name="temperature" NumberOfComponents="1" format="ascii">
          281.15 281.15 281.15 281.15 281.15 281.15 281.15 281.15 281.15 281.15 281.15 281.15
          281.15 281.15 281.15 281.15 281.15 281.15 281.15 281.15 281.15 281.15 281.15 281.15
          281.15 281.15 281.15 281.15 281.15 281.15
        </DataArray>
        <DataArray type="Float32" Name="phase presence" NumberOfComponents="1" format="ascii">
          1 1 1 1 1 1 1 1 1 1 1 1
          1 1 1 1 1 1 1 1 1 1 1 1
          1 1 1 1 1 1
        </DataArray>
        <DataArray type="Float32" Name="precipitateVolumeFraction_au" NumberOfComponents="1" format="ascii">
          5.52649e-10 5.52794e-10 5.52739e-10 5.52776e-10 5.52749e-10 5.52786e-10 5.52739e-10 5.5277e-10 5.52757e-10 5.52771e-10 5.52757e-10 5.52783e-10
          5.52744e-10 5.52742e-10 5.52761e-10 5.52727e-10 5.52749e-10 5.52757e-10 5.52718e-10 5.528e-10 5.52725e-10 5.52766e-10 5.52923e-10 1.01883e-09
          0.00026994 0.000269924 0.0002699 0.000269853 5.52223e-10 5.51205e-10
        </DataArray>
        <DataArray type="Float32" Name="precipitateVolumeFraction_nanoAu" NumberOfComponents="1" format="ascii">
          1.23658e-13 1.2369e-13 1.23678e-13 1.23686e-13 1.23679e-13 1.23687e-13 1.23677e-13 1.23683e-13 1.2368e-13 1.23683e-13 1.23679e-13 1.23684e-13
          1.23675e-13 1.23674e-13 1.23677e-13 1.23668e-13 1.23672e-13 1.23671e-13 1.2366e-13 1.23674e-13 1.23651e-13 1.2366e-13 1.34925e-13 2.57558e-11
          6.03724e-08 7.6695e-08 1.02156e-07 1.45571e-07 4.74113e-13 4.67057e-13
        </DataArray>
        <DataArray type="Float32" Name="precipitateVolumeFraction_d" NumberOfComponents="1" format="ascii">
          0.000633697 0.000633759 0.000633847 0.000633971 0.000634145 0.000634389 0.000634731 0.000635208 0.000635871 0.000636789 0.000638056 0.000639796
          0.000642177 0.000645422 0.00064983 0.000655799 0.000663872 0.000674789 0.000689587 0.000709753 0.000737506 0.000776304 0.000831872 0.000914413
          0.00104397 0.00126569 0.0017023 0.00281953 0.00804647 0.125632
        </DataArray>
        <DataArray type="Float32" Name="precipitateVolumeFraction_p" NumberOfComponents="1" format="ascii">
          0.000633697 0.000633759 0.000633847 0.000633971 0.000634145 0.000634389 0.000634731 0.000635208 0.000635871 0.000636789 0.000638056 0.000639796
          0.000642177 0.000645422 0.00064983 0.000655799 0.000663872 0.000674789 0.000689587 0.000709753 0.000737506 0.000776304 0.000831872 0.000914413
          0.00104397 0.00126569 0.0017023 0.00281953 0.00804647 0.125632
        </DataArray>
        <DataArray type="Float32" Name="K" NumberOfComponents="1" format="ascii">
          9.83814e-11 9.83812e-11 9.8381e-11 9.83807e-11 9.83802e-11 9.83796e-11 9.83788e-11 9.83775e-11 9.83759e-11 9.83735e-11 9.83703e-11 9.83659e-11
          9.83599e-11 9.83516e-11 9.83405e-11 9.83253e-11 9.83048e-11 9.82772e-11 9.82397e-11 9.81886e-11 9.81183e-11 9.80201e-11 9.78796e-11 9.76713e-11
          9.70059e-11 9.64512e-11 9.53664e-11 9.2636e-11 8.09883e-11 2.32147e-13
        </DataArray>
        <DataArray type="Float32" Name="X^w_H2O" NumberOfComponents="1" format="ascii">
          0.999853 0.999853 0.999853 0.999853 0.999853 0.999853 0.999853 0.999853 0.999853 0.999853 0.999853 0.999853
          0.999853 0.999853 0.999853 0.999853 0.999853 0.999853 0.999853 0.999853 0.999853 0.999853 0.999853 0.999853
          0.999853 0.999852 0.99985 0.999846 0.999839 0.99984
        </DataArray>
        <DataArray type="Float32" Name="X^w_Air" NumberOfComponents="1" format="ascii">
          0 0 0 0 0 0 0 0 0 0 0 0
          0 0 0 0 0 0 0 0 0 0 0 0
          0 0 0 0 0 0
        </DataArray>
        <DataArray type="Float32" Name="X^w_AuComplex" NumberOfComponents="1" format="ascii">
          1.41106e-16 1.41143e-16 1.41128e-16 1.41137e-16 1.4113e-16 1.41139e-16 1.41126e-16 1.41134e-16 1.4113e-16 1.41133e-16 1.41128e-16 1.41134e-16
          1.41123e-16 1.41121e-16 1.41124e-16 1.41112e-16 1.41115e-16 1.41112e-16 1.41096e-16 1.41108e-16 1.41077e-16 1.41078e-16 1.53839e-16 2.93673e-14
          6.88532e-11 1.07396e-10 1.84435e-10 3.64025e-10 1.83516e-15 1.7872e-15
        </DataArray>
        <DataArray type="Float32" Name="X^w_nanoAu" NumberOfComponents="1" format="ascii">
          3.39102e-19 3.3919e-19 3.39156e-19 3.39178e-19 3.39161e-19 3.39182e-19 3.39153e-19 3.39171e-19 3.39162e-19 3.39169e-19 3.39159e-19 3.39173e-19
          3.39148e-19 3.39144e-19 3.39153e-19 3.39127e-19 3.39135e-19 3.39132e-19 3.39099e-19 3.39137e-19 3.39452e-19 3.95265e-19 8.57058e-18 1.20194e-15
          1.65834e-13 2.10737e-13 2.80791e-13 3.96081e-13 1.29653e-18 1.25402e-18
        </DataArray>
        <DataArray type="Float32" Name="X^w_cyanide" NumberOfComponents="1" format="ascii">
          5.07121e-06 5.0712e-06 5.07119e-06 5.07119e-06 5.07118e-06 5.07117e-06 5.07116e-06 5.07116e-06 5.07114e-06 5.07113e-06 5.07112e-06 5.0711e-06
          5.07108e-06 5.07105e-06 5.07101e-06 5.07097e-06 5.0709e-06 5.07081e-06 5.07069e-06 5.07052e-06 5.07028e-06 5.06994e-06 5.06943e-06 5.06865e-06
          5.06788e-06 6.43761e-06 8.57327e-06 1.22384e-05 1.94613e-05 1.92346e-05
        </DataArray>
        <DataArray type="Float32" Name="X^w_citrate" NumberOfComponents="1" format="ascii">
          0.000141796 0.000141796 0.000141796 0.000141796 0.000141796 0.000141796 0.000141796 0.000141796 0.000141796 0.000141796 0.000141796 0.000141796
          0.000141796 0.000141795 0.000141795 0.000141795 0.000141794 0.000141794 0.000141793 0.000141792 0.00014179 0.000141788 0.000141784 0.000141778
          0.000141769 0.000141754 0.000141725 0.000141657 0.000141435 0.000139787
        </DataArray>
        <DataArray type="Float32" Name="X^w_substrate" NumberOfComponents="1" format="ascii">
          8.43984e-12 1.14589e-11 1.55571e-11 2.11199e-11 2.86709e-11 3.89211e-11 5.28366e-11 7.17315e-11 9.73943e-11 1.32263e-10 1.79669e-10 2.44172e-10
          3.32042e-10 4.51938e-10 6.15896e-10 8.40784e-10 1.1505e-09 1.57937e-09 2.17757e-09 3.02013e-09 4.22243e-09 5.96844e-09 8.56532e-09 1.25574e-08
          1.89885e-08 3.00873e-08 5.14016e-08 1.0036e-07 2.58612e-07 1.42073e-06
        </DataArray>
        <DataArray type="Float32" Name="m^w_H2O" NumberOfComponents="1" format="ascii">
          55492.6 55492.6 55492.5 55492.5 55492.5 55492.5 55492.5 55492.5 55492.5 55492.5 55492.5 55492.5
          55492.5 55492.4 55492.4 55492.4 55492.4 55492.4 55492.4 55492.4 55492.4 55492.4 55492.4 55492.4
          55492.3 55492.3 55492.1 55491.9 55491.5 55491.6
        </DataArray>
        <DataArray type="Float32" Name="m^w_Air" NumberOfComponents="1" format="ascii">
          0 0 0 0 0 0 0 0 0 0 0 0
          0 0 0 0 0 0 0 0 0 0 0 0
          0 0 0 0 0 0
        </DataArray>
        <DataArray type="Float32" Name="m^w_AuComplex" NumberOfComponents="1" format="ascii">
          7.16279e-13 7.16466e-13 7.16392e-13 7.16438e-13 7.16401e-13 7.16446e-13 7.16382e-13 7.1642e-13 7.164e-13 7.16415e-13 7.16392e-13 7.1642e-13
          7.16364e-13 7.16354e-13 7.16369e-13 7.16311e-13 7.16322e-13 7.16309e-13 7.16227e-13 7.16289e-13 7.16129e-13 7.16134e-13 7.80911e-13 1.49073e-10
          3.4951e-07 5.4516e-07 9.36222e-07 1.84785e-06 9.31558e-12 9.07213e-12
        </DataArray>
        <DataArray type="Float32" Name="m^w_nanoAu" NumberOfComponents="1" format="ascii">
          1.72134e-15 1.72179e-15 1.72162e-15 1.72173e-15 1.72164e-15 1.72175e-15 1.7216e-15 1.72169e-15 1.72164e-15 1.72168e-15 1.72163e-15 1.7217e-15
          1.72157e-15 1.72155e-15 1.7216e-15 1.72147e-15 1.72151e-15 1.72149e-15 1.72132e-15 1.72152e-15 1.72312e-15 2.00643e-15 4.35057e-14 6.10125e-12
          8.41798e-10 1.06973e-09 1.42534e-09 2.01057e-09 6.58141e-15 6.36562e-15
        </DataArray>
        <DataArray type="Float32" Name="m^w_cyanide" NumberOfComponents="1" format="ascii">
          0.194868 0.194868 0.194868 0.194867 0.194867 0.194867 0.194866 0.194866 0.194866 0.194865 0.194865 0.194864
          0.194863 0.194862 0.19486 0.194859 0.194856 0.194853 0.194848 0.194841 0.194832 0.194819 0.194799 0.194769
          0.19474 0.247373 0.329439 0.470277 0.747825 0.739112
        </DataArray>
        <DataArray type="Float32" Name="m^w_citrate" NumberOfComponents="1" format="ascii">
          0.749742 0.749742 0.749742 0.749742 0.749742 0.749741 0.749741 0.749741 0.749741 0.74974 0.74974 0.749739
          0.749738 0.749737 0.749736 0.749734 0.749732 0.749729 0.749724 0.749717 0.749708 0.749695 0.749676 0.749645
          0.749597 0.749519 0.749365 0.749005 0.747828 0.739114
        </DataArray>
        <DataArray type="Float32" Name="m^w_substrate" NumberOfComponents="1" format="ascii">
          4.68396e-08 6.3595e-08 8.6339e-08 1.17212e-07 1.59118e-07 2.16005e-07 2.93233e-07 3.98096e-07 5.4052e-07 7.34036e-07 9.97127e-07 1.35511e-06
          1.84277e-06 2.50817e-06 3.4181e-06 4.66619e-06 6.38505e-06 8.76519e-06 1.20851e-05 1.67611e-05 2.34337e-05 3.31237e-05 4.75358e-05 6.9691e-05
          0.000105383 0.000166979 0.000285268 0.00055698 0.00143525 0.00788477
        </DataArray>
        <DataArray type="Float32" Name="process rank" NumberOfComponents="1" format="ascii">
          0 0 0 0 0 0 0 0 0 0 0 0
          0 0 0 0 0 0 0 0 0 0 0 0
          0 0 0 0 0 0
        </DataArray>
      </CellData>
      <Points>
        <DataArray type="Float32" Name="Coordinates" NumberOfComponents="3" format="ascii">
          0 0 0 0.5 0 0 0 0.0333333 0 0.5 0.0333333 0
          0 0.0666667 0 0.5 0.0666667 0 0 0.1 0 0.5 0.1 0
          0 0.133333 0 0.5 0.133333 0 0 0.166667 0 0.5 0.166667 0
          0 0.2 0 0.5 0.2 0 0 0.233333 0 0.5 0.233333 0
          0 0.266667 0 0.5 0.266667 0 0 0.3 0 0.5 0.3 0
          0 0.333333 0 0.5 0.333333 0 0 0.366667 0 0.5 0.366667 0
          0 0.4 0 0.5 0.4 0 0 0.433333 0 0.5 0.433333 0
          0 0.466667 0 0.5 0.466667 0 0 0.5 0 0.5 0.5 0
          0 0.533333 0 0.5 0.533333 0 0 0.566667 0 0.5 0.566667 0
          0 0.6 0 0.5 0.6 0 0 0.633333 0 0.5 0.633333 0
          0 0.666667 0 0.5 0.666667 0 0 0.7 0 0.5 0.7 0
          0 0.733333 0 0.5 0.733333 0 0 0.766667 0 0.5 0.766667 0
          0 0.8 0 0.5 0.8 0 0 0.833333 0 0.5 0.833333 0
          0 0.866667 0 0.5 0.866667 0 0 0.9 0 0.5 0.9 0
          0 0.933333 0 0.5 0.933333 0 0 0.966667 0 0.5 0.966667 0
          0 1 0 0.5 1 0
        </DataArray>
      </Points>
      <Cells>
        <DataArray type="Int32" Name="connectivity" NumberOfComponents="1" format="ascii">
          0 1 3 2 2 3 5 4 4 5 7 6
          6 7 9 8 8 9 11 10 10 11 13 12
          12 13 15 14 14 15 17 16 16 17 19 18
          18 19 21 20 20 21 23 22 22 23 25 24
          24 25 27 26 26 27 29 28 28 29 31 30
          30 31 33 32 32 33 35 34 34 35 37 36
          36 37 39 38 38 39 41 40 40 41 43 42
          42 43 45 44 44 45 47 46 46 47 49 48
          48 49 51 50 50 51 53 52 52 53 55 54
          54 55 57 56 56 57 59 58 58 59 61 60
        </DataArray>
        <DataArray type="Int32" Name="offsets" NumberOfComponents="1" format="ascii">
          4 8 12 16 20 24 28 32 36 40 44 48
          52 56 60 64 68 72 76 80 84 88 92 96
          100 104 108 112 116 120
        </DataArray>
        <DataArray type="UInt8" Name="types" NumberOfComponents="1" format="ascii">
          9 9 9 9 9 9 9 9 9 9 9 9
          9 9 9 9 9 9 9 9 9 9 9 9
          9 9 9 9 9 9
        </DataArray>
      </Cells>
    </Piece>
  </UnstructuredGrid>
</VTKFile>
