<?xml version="1.0"?>
<VTKFile type="UnstructuredGrid" version="0.1" byte_order="LittleEndian">
  <UnstructuredGrid>
    <Piece NumberOfCells="30" NumberOfPoints="62">
      <CellData Scalars="Sg">
        <DataArray type="Float32" Name="Sg" NumberOfComponents="1" format="ascii">
          0.0907902 0.0907501 0.0907089 0.0906633 0.0905983 0.0904457 0.0898967 0.0875599 0.0773015 0.0356719 0 0
          0 0 0 0 0 0 0 0 0 0 0 0
          0 0 0 0 0 0
        </DataArray>
        <DataArray type="Float32" Name="Sl" NumberOfComponents="1" format="ascii">
          0.90921 0.90925 0.909291 0.909337 0.909402 0.909554 0.910103 0.91244 0.922698 0.964328 1 1
          1 1 1 1 1 1 1 1 1 1 1 1
          1 1 1 1 1 1
        </DataArray>
        <DataArray type="Float32" Name="pg" NumberOfComponents="1" format="ascii">
          50696.1 50357.7 50018.9 49678.9 49333.4 48962.7 48478.5 47482.2 44216.6 31964.2 21418.4 21091.5
          20764.6 20437.6 20110.7 19783.7 19456.8 19129.8 18802.9 18476 18149 17822.1 17495.1 17168.2
          16841.3 16514.3 16187.4 15860.4 15533.5 15206.6
        </DataArray>
        <DataArray type="Float32" Name="pl" NumberOfComponents="1" format="ascii">
          110628 110301 109974 109647 109320 108993 108666 108339 108012 107685 107358 107031
          106704 106377 106050 105723 105396 105070 104743 104416 104089 103762 103435 103108
          102781 102454 102127 101800 101473 101146
        </DataArray>
        <DataArray type="Float32" Name="pc" NumberOfComponents="1" format="ascii">
          -59931.4 -59942.9 -59954.7 -59967.8 -59986.4 -60030.1 -60187.4 -60856.8 -63795.4 -75720.9 -85939.7 -85939.7
          -85939.7 -85939.7 -85939.7 -85939.7 -85939.7 -85939.7 -85939.7 -85939.7 -85939.7 -85939.7 -85939.7 -85939.7
          -85939.7 -85939.7 -85939.7 -85939.7 -85939.7 -85939.7
        </DataArray>
        <DataArray type="Float32" Name="rhoL" NumberOfComponents="1" format="ascii">
          999.855 999.855 999.855 999.855 999.855 999.854 999.854 999.854 999.854 999.854 999.854 999.854
          999.853 999.853 999.853 999.853 999.853 999.853 999.852 999.852 999.852 999.852 999.852 999.852
          999.852 999.851 999.851 999.851 999.851 999.851
        </DataArray>
        <DataArray type="Float32" Name="rhoG" NumberOfComponents="1" format="ascii">
          0.628059 0.623866 0.61967 0.615457 0.611177 0.606585 0.600586 0.588242 0.547786 0.395994 0.265347 0.261296
          0.257246 0.253195 0.249145 0.245095 0.241044 0.236994 0.232944 0.228893 0.224843 0.220793 0.216742 0.212692
          0.208641 0.204591 0.200541 0.19649 0.19244 0.18839
        </DataArray>
        <DataArray type="Float32" Name="mobL" NumberOfComponents="1" format="ascii">
          722.171 722.17 722.17 722.17 722.17 722.17 722.169 722.169 722.169 722.169 722.169 722.169
          722.168 722.168 722.168 722.168 722.168 722.167 722.167 722.167 722.167 722.167 722.166 722.166
          722.166 722.166 722.166 722.166 722.165 722.165
        </DataArray>
        <DataArray type="Float32" Name="mobG" NumberOfComponents="1" format="ascii">
          0 0 0 0 0 0 0 0 0 0 0 0
          0 0 0 0 0 0 0 0 0 0 0 0
          0 0 0 0 0 0
        </DataArray>
        <DataArray type="Float32" Name="porosity" NumberOfComponents="1" format="ascii">
          0.298517 0.298517 0.298517 0.298517 0.298516 0.298516 0.298515 0.298514 0.298512 0.29851 0.298507 0.298503
          0.298498 0.29849 0.29848 0.298467 0.298449 0.298424 0.298391 0.298345 0.298284 0.298198 0.298077 0.297899
          0.297356 0.296905 0.296066 0.294146 0.287548 0.191303
        </DataArray>
        <DataArray type="Float32" Name="temperature" NumberOfComponents="1" format="ascii">
          281.15 281.15 281.15 281.15 281.15 281.15 281.15 281.15 281.15 281.15 281.15 281.15
          281.15 281.15 281.15 281.15 281.15 281.15 281.15 281.15 281.15 281.15 281.15 281.15
          281.15 281.15 281.15 281.15 281.15 281.15
        </DataArray>
        <DataArray type="Float32" Name="phase presence" NumberOfComponents="1" format="ascii">
          3 3 3 3 3 3 3 3 3 3 1 1
          1 1 1 1 1 1 1 1 1 1 1 1
          1 1 1 1 1 1
        </DataArray>
        <DataArray type="Float32" Name="precipitateVolumeFraction_au" NumberOfComponents="1" format="ascii">
          5.44511e-10 5.44508e-10 5.44509e-10 5.4451e-10 5.44511e-10 5.44511e-10 5.44512e-10 5.44512e-10 5.44512e-10 5.44515e-10 5.4451e-10 5.44518e-10
          5.4453e-10 5.44499e-10 5.44508e-10 5.44488e-10 5.445e-10 5.44465e-10 5.44451e-10 5.44539e-10 5.44497e-10 5.44493e-10 5.44559e-10 6.33969e-10
          0.000269939 0.000269923 0.000269899 0.000269859 5.44097e-10 5.4294e-10
        </DataArray>
        <DataArray type="Float32" Name="precipitateVolumeFraction_nanoAu" NumberOfComponents="1" format="ascii">
          8.36787e-12 8.36685e-12 8.36583e-12 8.36515e-12 8.36402e-12 8.36352e-12 8.36262e-12 8.36226e-12 8.36175e-12 8.37875e-12 8.35215e-12 8.37829e-12
          8.38702e-12 8.34556e-12 8.35466e-12 8.34461e-12 8.35208e-12 8.34223e-12 8.34189e-12 8.36038e-12 8.35306e-12 8.35249e-12 8.36799e-12 3.54694e-11
          6.2075e-08 7.79531e-08 1.01953e-07 1.40908e-07 8.64128e-12 8.57912e-12
        </DataArray>
        <DataArray type="Float32" Name="precipitateVolumeFraction_d" NumberOfComponents="1" format="ascii">
          0.000741377 0.000741448 0.000741549 0.00074169 0.000741888 0.000742167 0.000742557 0.000743102 0.000743859 0.000744907 0.000746353 0.000748338
          0.000751053 0.000754748 0.000759761 0.000766539 0.000775684 0.000788015 0.000804668 0.000827256 0.000858152 0.000900999 0.000961704 0.00105053
          0.00118692 0.00141259 0.00183213 0.00279221 0.00622578 0.0543486
        </DataArray>
        <DataArray type="Float32" Name="precipitateVolumeFraction_p" NumberOfComponents="1" format="ascii">
          0.000741377 0.000741448 0.000741549 0.00074169 0.000741888 0.000742167 0.000742557 0.000743102 0.000743859 0.000744907 0.000746353 0.000748338
          0.000751053 0.000754748 0.000759761 0.000766539 0.000775684 0.000788015 0.000804668 0.000827256 0.000858152 0.000900999 0.000961704 0.00105053
          0.00118692 0.00141259 0.00183213 0.00279221 0.00622578 0.0543486
        </DataArray>
        <DataArray type="Float32" Name="K" NumberOfComponents="1" format="ascii">
          9.81085e-11 9.81083e-11 9.81081e-11 9.81077e-11 9.81072e-11 9.81065e-11 9.81055e-11 9.81041e-11 9.81022e-11 9.80996e-11 9.80959e-11 9.80909e-11
          9.8084e-11 9.80746e-11 9.8062e-11 9.80448e-11 9.80217e-11 9.79905e-11 9.79484e-11 9.78913e-11 9.78133e-11 9.77051e-11 9.75521e-11 9.73285e-11
          9.6648e-11 9.6085e-11 9.50457e-11 9.2702e-11 8.5007e-11 1.94278e-11
        </DataArray>
        <DataArray type="Float32" Name="X^w_H2O" NumberOfComponents="1" format="ascii">
          0.999837 0.999838 0.999838 0.999838 0.999838 0.999838 0.999838 0.999838 0.999839 0.999843 0.999852 0.999853
          0.999853 0.999853 0.999853 0.999853 0.999853 0.999853 0.999853 0.999853 0.999853 0.999853 0.999853 0.999853
          0.999853 0.999851 0.999849 0.999846 0.999839 0.999841
        </DataArray>
        <DataArray type="Float32" Name="X^w_Air" NumberOfComponents="1" format="ascii">
          1.53819e-05 1.5277e-05 1.5172e-05 1.50666e-05 1.49595e-05 1.48446e-05 1.46945e-05 1.43856e-05 1.33734e-05 9.57547e-06 7.38464e-07 1.13054e-08
          1.70512e-10 2.51841e-12 3.65957e-14 5.20518e-16 7.26192e-18 9.949e-20 1.33384e-21 1.74843e-23 2.23852e-25 2.79069e-27 3.35858e-29 3.8472e-31
          4.05833e-33 4.06556e-35 3.47422e-37 0 0 0
        </DataArray>
        <DataArray type="Float32" Name="X^w_AuComplex" NumberOfComponents="1" format="ascii">
          6.91455e-15 8.46639e-15 7.63188e-15 9.51644e-15 8.94588e-15 8.9499e-15 7.6929e-15 7.56402e-15 8.69621e-15 -8.02485e-14 8.18496e-15 8.20965e-15
          8.21744e-15 8.17626e-15 8.18457e-15 8.1742e-15 8.18098e-15 8.17081e-15 8.16988e-15 8.18721e-15 8.1791e-15 8.17718e-15 8.19237e-15 3.93905e-14
          7.15065e-11 1.09705e-10 1.83379e-10 3.45419e-10 3.02362e-14 2.92454e-14
        </DataArray>
        <DataArray type="Float32" Name="X^w_nanoAu" NumberOfComponents="1" format="ascii">
          -3.67671e-16 -2.95388e-17 1.56336e-15 -1.93197e-16 4.49954e-16 4.53972e-16 4.10673e-16 2.81795e-16 2.00272e-16 -8.51034e-14 3.6394e-17 3.6507e-17
          3.65426e-17 3.63643e-17 3.64029e-17 3.63598e-17 3.63913e-17 3.63485e-17 3.63474e-17 3.6426e-17 3.63972e-17 3.67485e-17 6.95392e-17 3.08943e-15
          2.70986e-13 3.40386e-13 4.45158e-13 6.05295e-13 3.73567e-17 3.57596e-17
        </DataArray>
        <DataArray type="Float32" Name="X^w_cyanide" NumberOfComponents="1" format="ascii">
          5.43336e-06 5.43178e-06 5.43037e-06 5.42909e-06 5.42795e-06 5.42693e-06 5.42602e-06 5.42522e-06 5.4245e-06 5.42388e-06 5.42334e-06 5.42278e-06
          5.42228e-06 5.42185e-06 5.42146e-06 5.4211e-06 5.42075e-06 5.42039e-06 5.41999e-06 5.41951e-06 5.41887e-06 5.41797e-06 5.41663e-06 5.41452e-06
          5.41155e-06 6.82452e-06 8.98899e-06 1.25988e-05 1.93662e-05 1.88708e-05
        </DataArray>
        <DataArray type="Float32" Name="X^w_citrate" NumberOfComponents="1" format="ascii">
          0.000141794 0.000141794 0.000141794 0.000141794 0.000141794 0.000141794 0.000141794 0.000141794 0.000141794 0.000141794 0.000141796 0.000141796
          0.000141795 0.000141795 0.000141794 0.000141794 0.000141793 0.000141792 0.00014179 0.000141787 0.000141783 0.000141776 0.000141767 0.000141751
          0.000141726 0.000141681 0.000141592 0.000141387 0.000140752 0.000137147
        </DataArray>
        <DataArray type="Float32" Name="X^w_substrate" NumberOfComponents="1" format="ascii">
          9.41906e-12 1.32815e-11 1.87292e-11 2.64163e-11 3.7265e-11 5.25803e-11 7.41921e-11 1.04655e-10 1.47538e-10 2.07632e-10 2.91081e-10 4.08077e-10
          5.72736e-10 8.04741e-10 1.13244e-09 1.59682e-09 2.25776e-09 3.20389e-09 4.5687e-09 6.55753e-09 9.49498e-09 1.39121e-08 2.07168e-08 3.15513e-08
          4.96139e-08 8.17874e-08 1.451e-07 2.91274e-07 7.39899e-07 3.28203e-06
        </DataArray>
        <DataArray type="Float32" Name="m^w_H2O" NumberOfComponents="1" format="ascii">
          55491.7 55491.7 55491.7 55491.7 55491.7 55491.7 55491.7 55491.7 55491.7 55491.9 55492.4 55492.4
          55492.4 55492.4 55492.4 55492.4 55492.4 55492.4 55492.4 55492.4 55492.4 55492.4 55492.3 55492.3
          55492.3 55492.2 55492.1 55491.9 55491.5 55491.6
        </DataArray>
        <DataArray type="Float32" Name="m^w_Air" NumberOfComponents="1" format="ascii">
          0.531065 0.527443 0.523818 0.520179 0.516481 0.512514 0.507332 0.496669 0.461721 0.330597 0.0254957 0.000390322
          5.88698e-06 8.6949e-08 1.26348e-09 1.7971e-11 2.5072e-13 3.43492e-15 4.60514e-17 6.03649e-19 7.72855e-21 9.63494e-23 1.15956e-24 1.32826e-26
          1.40115e-28 1.40364e-30 1.19948e-32 7.33471e-35 1.77529e-37 0
        </DataArray>
        <DataArray type="Float32" Name="m^w_AuComplex" NumberOfComponents="1" format="ascii">
          3.50995e-11 4.29769e-11 3.87408e-11 4.83071e-11 4.54109e-11 4.54313e-11 3.90505e-11 3.83963e-11 4.41435e-11 -4.07355e-10 4.15482e-11 4.16736e-11
          4.17131e-11 4.15041e-11 4.15463e-11 4.14936e-11 4.1528e-11 4.14764e-11 4.14717e-11 4.15596e-11 4.15184e-11 4.15087e-11 4.15858e-11 1.99953e-10
          3.62978e-07 5.56881e-07 9.3086e-07 1.7534e-06 1.53484e-10 1.48454e-10
        </DataArray>
        <DataArray type="Float32" Name="m^w_nanoAu" NumberOfComponents="1" format="ascii">
          -1.86636e-12 -1.49944e-13 7.93587e-12 -9.80702e-13 2.28404e-12 2.30444e-12 2.08465e-12 1.43044e-12 1.01661e-12 -4.31999e-10 1.84742e-13 1.85316e-13
          1.85497e-13 1.84591e-13 1.84787e-13 1.84568e-13 1.84728e-13 1.84511e-13 1.84505e-13 1.84905e-13 1.84758e-13 1.86541e-13 3.52992e-13 1.56825e-11
          1.37557e-09 1.72786e-09 2.25969e-09 3.07258e-09 1.89629e-13 1.81521e-13
        </DataArray>
        <DataArray type="Float32" Name="m^w_cyanide" NumberOfComponents="1" format="ascii">
          0.208784 0.208724 0.208669 0.20862 0.208577 0.208537 0.208502 0.208471 0.208444 0.20842 0.208399 0.208378
          0.208358 0.208342 0.208327 0.208313 0.208299 0.208286 0.20827 0.208252 0.208227 0.208192 0.208141 0.20806
          0.207946 0.262241 0.345413 0.484124 0.744171 0.725134
        </DataArray>
        <DataArray type="Float32" Name="m^w_citrate" NumberOfComponents="1" format="ascii">
          0.749731 0.749731 0.749731 0.749731 0.74973 0.74973 0.74973 0.74973 0.74973 0.749733 0.749739 0.749738
          0.749737 0.749735 0.749732 0.749729 0.749724 0.749716 0.749706 0.749691 0.749669 0.749636 0.749585 0.749503
          0.749368 0.749131 0.748663 0.747574 0.744219 0.725157
        </DataArray>
        <DataArray type="Float32" Name="m^w_substrate" NumberOfComponents="1" format="ascii">
          5.2274e-08 7.37098e-08 1.03944e-07 1.46606e-07 2.06814e-07 2.91811e-07 4.11752e-07 5.80815e-07 8.18807e-07 1.15232e-06 1.61544e-06 2.26475e-06
          3.17857e-06 4.46616e-06 6.28483e-06 8.86204e-06 1.25301e-05 1.7781e-05 2.53554e-05 3.6393e-05 5.26952e-05 7.72095e-05 0.000114974 0.000175103
          0.000275347 0.000453904 0.000805273 0.00161651 0.00410629 0.0182146
        </DataArray>
        <DataArray type="Float32" Name="process rank" NumberOfComponents="1" format="ascii">
          0 0 0 0 0 0 0 0 0 0 0 0
          0 0 0 0 0 0 0 0 0 0 0 0
          0 0 0 0 0 0
        </DataArray>
      </CellData>
      <Points>
        <DataArray type="Float32" Name="Coordinates" NumberOfComponents="3" format="ascii">
          0 0 0 0.5 0 0 0 0.0333333 0 0.5 0.0333333 0
          0 0.0666667 0 0.5 0.0666667 0 0 0.1 0 0.5 0.1 0
          0 0.133333 0 0.5 0.133333 0 0 0.166667 0 0.5 0.166667 0
          0 0.2 0 0.5 0.2 0 0 0.233333 0 0.5 0.233333 0
          0 0.266667 0 0.5 0.266667 0 0 0.3 0 0.5 0.3 0
          0 0.333333 0 0.5 0.333333 0 0 0.366667 0 0.5 0.366667 0
          0 0.4 0 0.5 0.4 0 0 0.433333 0 0.5 0.433333 0
          0 0.466667 0 0.5 0.466667 0 0 0.5 0 0.5 0.5 0
          0 0.533333 0 0.5 0.533333 0 0 0.566667 0 0.5 0.566667 0
          0 0.6 0 0.5 0.6 0 0 0.633333 0 0.5 0.633333 0
          0 0.666667 0 0.5 0.666667 0 0 0.7 0 0.5 0.7 0
          0 0.733333 0 0.5 0.733333 0 0 0.766667 0 0.5 0.766667 0
          0 0.8 0 0.5 0.8 0 0 0.833333 0 0.5 0.833333 0
          0 0.866667 0 0.5 0.866667 0 0 0.9 0 0.5 0.9 0
          0 0.933333 0 0.5 0.933333 0 0 0.966667 0 0.5 0.966667 0
          0 1 0 0.5 1 0
        </DataArray>
      </Points>
      <Cells>
        <DataArray type="Int32" Name="connectivity" NumberOfComponents="1" format="ascii">
          0 1 3 2 2 3 5 4 4 5 7 6
          6 7 9 8 8 9 11 10 10 11 13 12
          12 13 15 14 14 15 17 16 16 17 19 18
          18 19 21 20 20 21 23 22 22 23 25 24
          24 25 27 26 26 27 29 28 28 29 31 30
          30 31 33 32 32 33 35 34 34 35 37 36
          36 37 39 38 38 39 41 40 40 41 43 42
          42 43 45 44 44 45 47 46 46 47 49 48
          48 49 51 50 50 51 53 52 52 53 55 54
          54 55 57 56 56 57 59 58 58 59 61 60
        </DataArray>
        <DataArray type="Int32" Name="offsets" NumberOfComponents="1" format="ascii">
          4 8 12 16 20 24 28 32 36 40 44 48
          52 56 60 64 68 72 76 80 84 88 92 96
          100 104 108 112 116 120
        </DataArray>
        <DataArray type="UInt8" Name="types" NumberOfComponents="1" format="ascii">
          9 9 9 9 9 9 9 9 9 9 9 9
          9 9 9 9 9 9 9 9 9 9 9 9
          9 9 9 9 9 9
        </DataArray>
      </Cells>
    </Piece>
  </UnstructuredGrid>
</VTKFile>
