<?xml version="1.0"?>
<VTKFile type="UnstructuredGrid" version="0.1" byte_order="LittleEndian">
  <UnstructuredGrid>
    <Piece NumberOfCells="30" NumberOfPoints="62">
      <CellData Scalars="Sg">
        <DataArray type="Float32" Name="Sg" NumberOfComponents="1" format="ascii">
          0 0 0 0 0 0 0 0 0 0 0 0
          0 0 0 0 0 0 0 0 0 0 0 0
          0 0 0 0 0 0
        </DataArray>
        <DataArray type="Float32" Name="Sl" NumberOfComponents="1" format="ascii">
          1 1 1 1 1 1 1 1 1 1 1 1
          1 1 1 1 1 1 1 1 1 1 1 1
          1 1 1 1 1 1
        </DataArray>
        <DataArray type="Float32" Name="pg" NumberOfComponents="1" format="ascii">
          24687.8 24360.9 24034 23707 23380.1 23053.1 22726.2 22399.3 22072.3 21745.4 21418.4 21091.5
          20764.6 20437.6 20110.7 19783.7 19456.8 19129.8 18802.9 18476 18149 17822.1 17495.1 17168.2
          16841.3 16514.3 16187.4 15860.4 15533.5 15208.8
        </DataArray>
        <DataArray type="Float32" Name="pl" NumberOfComponents="1" format="ascii">
          110628 110301 109974 109647 109320 108993 108666 108339 108012 107685 107358 107031
          106704 106377 106050 105723 105396 105070 104743 104416 104089 103762 103435 103108
          102781 102454 102127 101800 101473 101148
        </DataArray>
        <DataArray type="Float32" Name="pc" NumberOfComponents="1" format="ascii">
          -85939.7 -85939.7 -85939.7 -85939.7 -85939.7 -85939.7 -85939.7 -85939.7 -85939.7 -85939.7 -85939.7 -85939.7
          -85939.7 -85939.7 -85939.7 -85939.7 -85939.7 -85939.7 -85939.7 -85939.7 -85939.7 -85939.7 -85939.7 -85939.7
          -85939.7 -85939.7 -85939.7 -85939.7 -85939.7 -85939.7
        </DataArray>
        <DataArray type="Float32" Name="rhoL" NumberOfComponents="1" format="ascii">
          999.855 999.855 999.855 999.855 999.855 999.854 999.854 999.854 999.854 999.854 999.854 999.854
          999.853 999.853 999.853 999.853 999.853 999.853 999.852 999.852 999.852 999.852 999.852 999.852
          999.852 999.851 999.851 999.851 999.851 999.851
        </DataArray>
        <DataArray type="Float32" Name="rhoG" NumberOfComponents="1" format="ascii">
          0.30585 0.3018 0.29775 0.293699 0.289649 0.285598 0.281548 0.277498 0.273447 0.269397 0.265347 0.261296
          0.257246 0.253195 0.249145 0.245095 0.241044 0.236994 0.232944 0.228893 0.224843 0.220793 0.216742 0.212692
          0.208641 0.204591 0.200541 0.19649 0.19244 0.188417
        </DataArray>
        <DataArray type="Float32" Name="mobL" NumberOfComponents="1" format="ascii">
          722.171 722.17 722.17 722.17 722.17 722.17 722.169 722.169 722.169 722.169 722.169 722.169
          722.168 722.168 722.168 722.168 722.168 722.167 722.167 722.167 722.167 722.167 722.166 722.166
          722.166 722.166 722.166 722.166 722.165 722.165
        </DataArray>
        <DataArray type="Float32" Name="mobG" NumberOfComponents="1" format="ascii">
          0 0 0 0 0 0 0 0 0 0 0 0
          0 0 0 0 0 0 0 0 0 0 0 0
          0 0 0 0 0 0
        </DataArray>
        <DataArray type="Float32" Name="porosity" NumberOfComponents="1" format="ascii">
          0.298721 0.298721 0.298721 0.29872 0.29872 0.29872 0.298719 0.298718 0.298717 0.298715 0.298712 0.298709
          0.298704 0.298697 0.298688 0.298676 0.29866 0.298638 0.298608 0.298568 0.298512 0.298434 0.298322 0.298156
          0.297625 0.297181 0.296306 0.294077 0.284016 0.0498118
        </DataArray>
        <DataArray type="Float32" Name="temperature" NumberOfComponents="1" format="ascii">
          281.15 281.15 281.15 281.15 281.15 281.15 281.15 281.15 281.15 281.15 281.15 281.15
          281.15 281.15 281.15 281.15 281.15 281.15 281.15 281.15 281.15 281.15 281.15 281.15
          281.15 281.15 281.15 281.15 281.15 281.15
        </DataArray>
        <DataArray type="Float32" Name="phase presence" NumberOfComponents="1" format="ascii">
          1 1 1 1 1 1 1 1 1 1 1 1
          1 1 1 1 1 1 1 1 1 1 1 1
          1 1 1 1 1 1
        </DataArray>
        <DataArray type="Float32" Name="precipitateVolumeFraction_au" NumberOfComponents="1" format="ascii">
          5.53782e-10 5.52814e-10 5.52786e-10 5.52728e-10 5.52731e-10 5.52772e-10 5.52721e-10 5.528e-10 5.52725e-10 5.52767e-10 5.52737e-10 5.52771e-10
          5.52792e-10 5.5272e-10 5.52738e-10 5.52707e-10 5.52727e-10 5.52682e-10 5.52668e-10 5.52774e-10 5.52725e-10 5.52721e-10 5.5296e-10 1.0062e-09
          0.00026994 0.000269924 0.0002699 0.000269856 5.52288e-10 5.51057e-10
        </DataArray>
        <DataArray type="Float32" Name="precipitateVolumeFraction_nanoAu" NumberOfComponents="1" format="ascii">
          1.25512e-13 1.25286e-13 1.25279e-13 1.25266e-13 1.25266e-13 1.25275e-13 1.25263e-13 1.25281e-13 1.25263e-13 1.25273e-13 1.25265e-13 1.25273e-13
          1.25277e-13 1.25259e-13 1.25263e-13 1.25254e-13 1.25257e-13 1.25245e-13 1.25239e-13 1.25259e-13 1.25242e-13 1.2525e-13 1.3757e-13 2.64007e-11
          6.11479e-08 7.70227e-08 1.01402e-07 1.42065e-07 4.50453e-13 4.43582e-13
        </DataArray>
        <DataArray type="Float32" Name="precipitateVolumeFraction_d" NumberOfComponents="1" format="ascii">
          0.000639547 0.000639609 0.000639698 0.000639823 0.000639998 0.000640244 0.000640589 0.000641069 0.000641737 0.000642663 0.000643939 0.000645693
          0.000648092 0.000651362 0.000655803 0.000661819 0.000669952 0.000680951 0.000695857 0.000716167 0.000744112 0.000783166 0.000839077 0.00092208
          0.00105225 0.00127475 0.00171197 0.00282625 0.00799176 0.125094
        </DataArray>
        <DataArray type="Float32" Name="precipitateVolumeFraction_p" NumberOfComponents="1" format="ascii">
          0.000639547 0.000639609 0.000639698 0.000639823 0.000639998 0.000640244 0.000640589 0.000641069 0.000641737 0.000642663 0.000643939 0.000645693
          0.000648092 0.000651362 0.000655803 0.000661819 0.000669952 0.000680951 0.000695857 0.000716167 0.000744112 0.000783166 0.000839077 0.00092208
          0.00105225 0.00127475 0.00171197 0.00282625 0.00799176 0.125094
        </DataArray>
        <DataArray type="Float32" Name="K" NumberOfComponents="1" format="ascii">
          9.83665e-11 9.83664e-11 9.83662e-11 9.83658e-11 9.83654e-11 9.83648e-11 9.83639e-11 9.83627e-11 9.8361e-11 9.83586e-11 9.83554e-11 9.83509e-11
          9.83449e-11 9.83366e-11 9.83253e-11 9.831e-11 9.82894e-11 9.82615e-11 9.82238e-11 9.81723e-11 9.81016e-11 9.80028e-11 9.78614e-11 9.76519e-11
          9.69851e-11 9.64285e-11 9.53424e-11 9.26198e-11 8.11067e-11 2.48434e-13
        </DataArray>
        <DataArray type="Float32" Name="X^w_H2O" NumberOfComponents="1" format="ascii">
          0.999853 0.999853 0.999853 0.999853 0.999853 0.999853 0.999853 0.999853 0.999853 0.999853 0.999853 0.999853
          0.999853 0.999853 0.999853 0.999853 0.999853 0.999853 0.999853 0.999853 0.999853 0.999853 0.999853 0.999853
          0.999853 0.999851 0.999849 0.999846 0.999839 0.99984
        </DataArray>
        <DataArray type="Float32" Name="X^w_Air" NumberOfComponents="1" format="ascii">
          0 0 0 0 0 0 0 0 0 0 0 0
          0 0 0 0 0 0 0 0 0 0 0 0
          0 0 0 0 0 0
        </DataArray>
        <DataArray type="Float32" Name="X^w_AuComplex" NumberOfComponents="1" format="ascii">
          1.44766e-16 1.44507e-16 1.44499e-16 1.44483e-16 1.44483e-16 1.44494e-16 1.44479e-16 1.445e-16 1.44479e-16 1.44489e-16 1.44481e-16 1.44489e-16
          1.44493e-16 1.44472e-16 1.44475e-16 1.44464e-16 1.44466e-16 1.4445e-16 1.4444e-16 1.4446e-16 1.44435e-16 1.44434e-16 1.58435e-16 3.0422e-14
          7.04928e-11 1.08258e-10 1.81861e-10 3.47301e-10 1.66039e-15 1.61639e-15
        </DataArray>
        <DataArray type="Float32" Name="X^w_nanoAu" NumberOfComponents="1" format="ascii">
          5.46637e-19 5.45665e-19 5.45634e-19 5.45576e-19 5.45578e-19 5.45617e-19 5.45565e-19 5.45641e-19 5.45566e-19 5.45604e-19 5.45573e-19 5.45604e-19
          5.4562e-19 5.45546e-19 5.45558e-19 5.45522e-19 5.45532e-19 5.45476e-19 5.45448e-19 5.45569e-19 5.49227e-19 8.95307e-19 3.29475e-17 2.99674e-15
          2.67028e-13 3.36526e-13 4.43254e-13 6.11457e-13 1.95604e-18 1.8839e-18
        </DataArray>
        <DataArray type="Float32" Name="X^w_cyanide" NumberOfComponents="1" format="ascii">
          5.40651e-06 5.4065e-06 5.40649e-06 5.40648e-06 5.40647e-06 5.40646e-06 5.40645e-06 5.40644e-06 5.40643e-06 5.40641e-06 5.4064e-06 5.40638e-06
          5.40635e-06 5.40632e-06 5.40629e-06 5.40624e-06 5.40617e-06 5.40608e-06 5.40596e-06 5.40579e-06 5.40555e-06 5.4052e-06 5.40469e-06 5.4039e-06
          5.40315e-06 6.80547e-06 8.95818e-06 1.25718e-05 1.94608e-05 1.92334e-05
        </DataArray>
        <DataArray type="Float32" Name="X^w_citrate" NumberOfComponents="1" format="ascii">
          0.000141796 0.000141796 0.000141796 0.000141796 0.000141796 0.000141796 0.000141796 0.000141796 0.000141796 0.000141796 0.000141796 0.000141796
          0.000141796 0.000141795 0.000141795 0.000141795 0.000141794 0.000141794 0.000141793 0.000141792 0.00014179 0.000141788 0.000141784 0.000141778
          0.000141769 0.000141754 0.000141725 0.000141656 0.000141431 0.000139778
        </DataArray>
        <DataArray type="Float32" Name="X^w_substrate" NumberOfComponents="1" format="ascii">
          7.96102e-12 1.08344e-11 1.47439e-11 2.00632e-11 2.73007e-11 3.71486e-11 5.05497e-11 6.8789e-11 9.36201e-11 1.27439e-10 1.73525e-10 2.36382e-10
          3.22212e-10 4.39603e-10 6.00517e-10 8.21755e-10 1.12717e-09 1.5511e-09 2.14383e-09 2.98071e-09 4.17779e-09 5.92048e-09 8.51877e-09 1.25229e-08
          1.8989e-08 3.01746e-08 5.17011e-08 1.0122e-07 2.61194e-07 1.42684e-06
        </DataArray>
        <DataArray type="Float32" Name="m^w_H2O" NumberOfComponents="1" format="ascii">
          55492.5 55492.5 55492.5 55492.5 55492.5 55492.5 55492.5 55492.5 55492.5 55492.5 55492.5 55492.4
          55492.4 55492.4 55492.4 55492.4 55492.4 55492.4 55492.4 55492.4 55492.4 55492.4 55492.3 55492.3
          55492.3 55492.2 55492.1 55491.9 55491.5 55491.6
        </DataArray>
        <DataArray type="Float32" Name="m^w_Air" NumberOfComponents="1" format="ascii">
          0 0 0 0 0 0 0 0 0 0 0 0
          0 0 0 0 0 0 0 0 0 0 0 0
          0 0 0 0 0 0
        </DataArray>
        <DataArray type="Float32" Name="m^w_AuComplex" NumberOfComponents="1" format="ascii">
          7.3486e-13 7.33543e-13 7.33502e-13 7.33422e-13 7.33423e-13 7.33475e-13 7.33403e-13 7.33505e-13 7.33401e-13 7.33453e-13 7.33408e-13 7.33449e-13
          7.3347e-13 7.33366e-13 7.3338e-13 7.33326e-13 7.33335e-13 7.33252e-13 7.33203e-13 7.33301e-13 7.33175e-13 7.33171e-13 8.04243e-13 1.54427e-10
          3.57833e-07 5.49535e-07 9.23154e-07 1.76295e-06 8.42843e-12 8.20503e-12
        </DataArray>
        <DataArray type="Float32" Name="m^w_nanoAu" NumberOfComponents="1" format="ascii">
          2.77483e-15 2.76989e-15 2.76974e-15 2.76944e-15 2.76945e-15 2.76965e-15 2.76939e-15 2.76977e-15 2.76939e-15 2.76958e-15 2.76942e-15 2.76958e-15
          2.76966e-15 2.76928e-15 2.76935e-15 2.76916e-15 2.76921e-15 2.76893e-15 2.76878e-15 2.7694e-15 2.78797e-15 4.54472e-15 1.67247e-13 1.5212e-11
          1.35548e-09 1.70826e-09 2.25003e-09 3.10385e-09 9.92916e-15 9.56296e-15
        </DataArray>
        <DataArray type="Float32" Name="m^w_cyanide" NumberOfComponents="1" format="ascii">
          0.207753 0.207752 0.207752 0.207752 0.207751 0.207751 0.20775 0.20775 0.207749 0.207749 0.207748 0.207747
          0.207746 0.207745 0.207744 0.207742 0.207739 0.207736 0.207731 0.207724 0.207715 0.207702 0.207682 0.207652
          0.207623 0.261509 0.344229 0.483087 0.747806 0.739067
        </DataArray>
        <DataArray type="Float32" Name="m^w_citrate" NumberOfComponents="1" format="ascii">
          0.749742 0.749742 0.749742 0.749742 0.749742 0.749742 0.749741 0.749741 0.749741 0.74974 0.74974 0.749739
          0.749739 0.749738 0.749736 0.749735 0.749732 0.749729 0.749724 0.749718 0.749709 0.749696 0.749676 0.749646
          0.749597 0.749518 0.749363 0.748999 0.747809 0.739068
        </DataArray>
        <DataArray type="Float32" Name="m^w_substrate" NumberOfComponents="1" format="ascii">
          4.41822e-08 6.01287e-08 8.1826e-08 1.11347e-07 1.51514e-07 2.06168e-07 2.80541e-07 3.81766e-07 5.19574e-07 7.0726e-07 9.63031e-07 1.31187e-06
          1.78821e-06 2.43971e-06 3.33275e-06 4.56058e-06 6.25558e-06 8.6083e-06 1.18979e-05 1.65423e-05 2.31859e-05 3.28575e-05 4.72775e-05 6.94993e-05
          0.000105385 0.000167463 0.000286931 0.000561749 0.00144957 0.00791868
        </DataArray>
        <DataArray type="Float32" Name="process rank" NumberOfComponents="1" format="ascii">
          0 0 0 0 0 0 0 0 0 0 0 0
          0 0 0 0 0 0 0 0 0 0 0 0
          0 0 0 0 0 0
        </DataArray>
      </CellData>
      <Points>
        <DataArray type="Float32" Name="Coordinates" NumberOfComponents="3" format="ascii">
          0 0 0 0.5 0 0 0 0.0333333 0 0.5 0.0333333 0
          0 0.0666667 0 0.5 0.0666667 0 0 0.1 0 0.5 0.1 0
          0 0.133333 0 0.5 0.133333 0 0 0.166667 0 0.5 0.166667 0
          0 0.2 0 0.5 0.2 0 0 0.233333 0 0.5 0.233333 0
          0 0.266667 0 0.5 0.266667 0 0 0.3 0 0.5 0.3 0
          0 0.333333 0 0.5 0.333333 0 0 0.366667 0 0.5 0.366667 0
          0 0.4 0 0.5 0.4 0 0 0.433333 0 0.5 0.433333 0
          0 0.466667 0 0.5 0.466667 0 0 0.5 0 0.5 0.5 0
          0 0.533333 0 0.5 0.533333 0 0 0.566667 0 0.5 0.566667 0
          0 0.6 0 0.5 0.6 0 0 0.633333 0 0.5 0.633333 0
          0 0.666667 0 0.5 0.666667 0 0 0.7 0 0.5 0.7 0
          0 0.733333 0 0.5 0.733333 0 0 0.766667 0 0.5 0.766667 0
          0 0.8 0 0.5 0.8 0 0 0.833333 0 0.5 0.833333 0
          0 0.866667 0 0.5 0.866667 0 0 0.9 0 0.5 0.9 0
          0 0.933333 0 0.5 0.933333 0 0 0.966667 0 0.5 0.966667 0
          0 1 0 0.5 1 0
        </DataArray>
      </Points>
      <Cells>
        <DataArray type="Int32" Name="connectivity" NumberOfComponents="1" format="ascii">
          0 1 3 2 2 3 5 4 4 5 7 6
          6 7 9 8 8 9 11 10 10 11 13 12
          12 13 15 14 14 15 17 16 16 17 19 18
          18 19 21 20 20 21 23 22 22 23 25 24
          24 25 27 26 26 27 29 28 28 29 31 30
          30 31 33 32 32 33 35 34 34 35 37 36
          36 37 39 38 38 39 41 40 40 41 43 42
          42 43 45 44 44 45 47 46 46 47 49 48
          48 49 51 50 50 51 53 52 52 53 55 54
          54 55 57 56 56 57 59 58 58 59 61 60
        </DataArray>
        <DataArray type="Int32" Name="offsets" NumberOfComponents="1" format="ascii">
          4 8 12 16 20 24 28 32 36 40 44 48
          52 56 60 64 68 72 76 80 84 88 92 96
          100 104 108 112 116 120
        </DataArray>
        <DataArray type="UInt8" Name="types" NumberOfComponents="1" format="ascii">
          9 9 9 9 9 9 9 9 9 9 9 9
          9 9 9 9 9 9 9 9 9 9 9 9
          9 9 9 9 9 9
        </DataArray>
      </Cells>
    </Piece>
  </UnstructuredGrid>
</VTKFile>
