<?xml version="1.0"?>
<VTKFile type="UnstructuredGrid" version="0.1" byte_order="LittleEndian">
  <UnstructuredGrid>
    <Piece NumberOfCells="30" NumberOfPoints="62">
      <CellData Scalars="Sg">
        <DataArray type="Float32" Name="Sg" NumberOfComponents="1" format="ascii">
          0 0 0 0 0 0 0 0 0 0 0 0
          0 0 0 0 0 0 0 0 0 0 0 0
          0 0 0 0 0 0
        </DataArray>
        <DataArray type="Float32" Name="Sl" NumberOfComponents="1" format="ascii">
          1 1 1 1 1 1 1 1 1 1 1 1
          1 1 1 1 1 1 1 1 1 1 1 1
          1 1 1 1 1 1
        </DataArray>
        <DataArray type="Float32" Name="pg" NumberOfComponents="1" format="ascii">
          24687.8 24360.9 24034 23707 23380.1 23053.1 22726.2 22399.3 22072.3 21745.4 21418.4 21091.5
          20764.6 20437.6 20110.7 19783.7 19456.8 19129.8 18802.9 18476 18149 17822.1 17495.1 17168.2
          16841.3 16514.3 16187.4 15860.4 15533.5 15209.6
        </DataArray>
        <DataArray type="Float32" Name="pl" NumberOfComponents="1" format="ascii">
          110628 110301 109974 109647 109320 108993 108666 108339 108012 107685 107358 107031
          106704 106377 106050 105723 105396 105070 104743 104416 104089 103762 103435 103108
          102781 102454 102127 101800 101473 101149
        </DataArray>
        <DataArray type="Float32" Name="pc" NumberOfComponents="1" format="ascii">
          -85939.7 -85939.7 -85939.7 -85939.7 -85939.7 -85939.7 -85939.7 -85939.7 -85939.7 -85939.7 -85939.7 -85939.7
          -85939.7 -85939.7 -85939.7 -85939.7 -85939.7 -85939.7 -85939.7 -85939.7 -85939.7 -85939.7 -85939.7 -85939.7
          -85939.7 -85939.7 -85939.7 -85939.7 -85939.7 -85939.7
        </DataArray>
        <DataArray type="Float32" Name="rhoL" NumberOfComponents="1" format="ascii">
          999.855 999.855 999.855 999.855 999.855 999.854 999.854 999.854 999.854 999.854 999.854 999.854
          999.853 999.853 999.853 999.853 999.853 999.853 999.852 999.852 999.852 999.852 999.852 999.852
          999.852 999.851 999.851 999.851 999.851 999.851
        </DataArray>
        <DataArray type="Float32" Name="rhoG" NumberOfComponents="1" format="ascii">
          0.30585 0.3018 0.29775 0.293699 0.289649 0.285598 0.281548 0.277498 0.273447 0.269397 0.265347 0.261296
          0.257246 0.253195 0.249145 0.245095 0.241044 0.236994 0.232944 0.228893 0.224843 0.220793 0.216742 0.212692
          0.208641 0.204591 0.200541 0.19649 0.19244 0.188427
        </DataArray>
        <DataArray type="Float32" Name="mobL" NumberOfComponents="1" format="ascii">
          722.171 722.17 722.17 722.17 722.17 722.17 722.169 722.169 722.169 722.169 722.169 722.169
          722.168 722.168 722.168 722.168 722.168 722.167 722.167 722.167 722.167 722.167 722.166 722.166
          722.166 722.166 722.166 722.166 722.165 722.165
        </DataArray>
        <DataArray type="Float32" Name="mobG" NumberOfComponents="1" format="ascii">
          0 0 0 0 0 0 0 0 0 0 0 0
          0 0 0 0 0 0 0 0 0 0 0 0
          0 0 0 0 0 0
        </DataArray>
        <DataArray type="Float32" Name="porosity" NumberOfComponents="1" format="ascii">
          0.298833 0.298833 0.298833 0.298832 0.298832 0.298832 0.298831 0.29883 0.298829 0.298827 0.298825 0.298822
          0.298817 0.298811 0.298803 0.298792 0.298776 0.298756 0.298728 0.29869 0.298638 0.298565 0.29846 0.298303
          0.297784 0.297355 0.296495 0.294222 0.283045 0.0450309
        </DataArray>
        <DataArray type="Float32" Name="temperature" NumberOfComponents="1" format="ascii">
          281.15 281.15 281.15 281.15 281.15 281.15 281.15 281.15 281.15 281.15 281.15 281.15
          281.15 281.15 281.15 281.15 281.15 281.15 281.15 281.15 281.15 281.15 281.15 281.15
          281.15 281.15 281.15 281.15 281.15 281.15
        </DataArray>
        <DataArray type="Float32" Name="phase presence" NumberOfComponents="1" format="ascii">
          1 1 1 1 1 1 1 1 1 1 1 1
          1 1 1 1 1 1 1 1 1 1 1 1
          1 1 1 1 1 1
        </DataArray>
        <DataArray type="Float32" Name="precipitateVolumeFraction_au" NumberOfComponents="1" format="ascii">
          5.53782e-10 5.52814e-10 5.52786e-10 5.52728e-10 5.52731e-10 5.52773e-10 5.52721e-10 5.528e-10 5.52725e-10 5.52767e-10 5.52737e-10 5.52771e-10
          5.52792e-10 5.5272e-10 5.52738e-10 5.52707e-10 5.52727e-10 5.52682e-10 5.52668e-10 5.52774e-10 5.52725e-10 5.52721e-10 5.53066e-10 1.23224e-09
          0.00026994 0.000269924 0.000269901 0.000269855 5.52288e-10 5.51052e-10
        </DataArray>
        <DataArray type="Float32" Name="precipitateVolumeFraction_nanoAu" NumberOfComponents="1" format="ascii">
          1.25468e-13 1.25249e-13 1.25243e-13 1.2523e-13 1.2523e-13 1.2524e-13 1.25228e-13 1.25246e-13 1.25229e-13 1.25238e-13 1.25231e-13 1.25238e-13
          1.25242e-13 1.25225e-13 1.25229e-13 1.25221e-13 1.25223e-13 1.25211e-13 1.25205e-13 1.25225e-13 1.25208e-13 1.25216e-13 1.37568e-13 2.64353e-11
          6.11363e-08 7.70101e-08 1.0139e-07 1.42062e-07 4.50532e-13 4.43734e-13
        </DataArray>
        <DataArray type="Float32" Name="precipitateVolumeFraction_d" NumberOfComponents="1" format="ascii">
          0.000583529 0.000583588 0.00058367 0.000583787 0.000583951 0.00058418 0.000584501 0.000584949 0.00058557 0.00058643 0.000587616 0.000589244
          0.000591472 0.000594508 0.000598632 0.000604219 0.000611779 0.000622009 0.000635891 0.000654834 0.000680954 0.00071756 0.000770168 0.000848683
          0.000972761 0.00118733 0.00161728 0.00275424 0.00847733 0.127485
        </DataArray>
        <DataArray type="Float32" Name="precipitateVolumeFraction_p" NumberOfComponents="1" format="ascii">
          0.000583529 0.000583588 0.00058367 0.000583787 0.000583951 0.00058418 0.000584501 0.000584949 0.00058557 0.00058643 0.000587616 0.000589244
          0.000591472 0.000594508 0.000598632 0.000604219 0.000611779 0.000622009 0.000635891 0.000654834 0.000680954 0.00071756 0.000770168 0.000848683
          0.000972761 0.00118733 0.00161728 0.00275424 0.00847733 0.127485
        </DataArray>
        <DataArray type="Float32" Name="K" NumberOfComponents="1" format="ascii">
          9.85087e-11 9.85086e-11 9.85084e-11 9.85081e-11 9.85077e-11 9.85071e-11 9.85063e-11 9.85051e-11 9.85035e-11 9.85014e-11 9.84983e-11 9.84942e-11
          9.84886e-11 9.84808e-11 9.84704e-11 9.84562e-11 9.8437e-11 9.8411e-11 9.83758e-11 9.83278e-11 9.82615e-11 9.81688e-11 9.80356e-11 9.78372e-11
          9.71846e-11 9.66469e-11 9.55768e-11 9.27938e-11 8.00603e-11 1.81713e-13
        </DataArray>
        <DataArray type="Float32" Name="X^w_H2O" NumberOfComponents="1" format="ascii">
          0.999853 0.999853 0.999853 0.999853 0.999853 0.999853 0.999853 0.999853 0.999853 0.999853 0.999853 0.999853
          0.999853 0.999853 0.999853 0.999853 0.999853 0.999853 0.999853 0.999853 0.999853 0.999853 0.999853 0.999853
          0.999853 0.999851 0.999849 0.999846 0.999839 0.99984
        </DataArray>
        <DataArray type="Float32" Name="X^w_Air" NumberOfComponents="1" format="ascii">
          0 0 0 0 0 0 0 0 0 0 0 0
          0 0 0 0 0 0 0 0 0 0 0 0
          0 0 0 0 0 0
        </DataArray>
        <DataArray type="Float32" Name="X^w_AuComplex" NumberOfComponents="1" format="ascii">
          1.44699e-16 1.44447e-16 1.44439e-16 1.44424e-16 1.44425e-16 1.44436e-16 1.44422e-16 1.44443e-16 1.44423e-16 1.44433e-16 1.44425e-16 1.44433e-16
          1.44438e-16 1.44418e-16 1.4442e-16 1.4441e-16 1.44412e-16 1.44395e-16 1.44385e-16 1.44405e-16 1.44379e-16 1.44378e-16 1.58415e-16 3.04585e-14
          7.0471e-11 1.08229e-10 1.81826e-10 3.47293e-10 1.66096e-15 1.61734e-15
        </DataArray>
        <DataArray type="Float32" Name="X^w_nanoAu" NumberOfComponents="1" format="ascii">
          5.46447e-19 5.45503e-19 5.45474e-19 5.45418e-19 5.45422e-19 5.45461e-19 5.45411e-19 5.45487e-19 5.45413e-19 5.45453e-19 5.45422e-19 5.45454e-19
          5.45471e-19 5.45397e-19 5.4541e-19 5.45373e-19 5.45383e-19 5.45327e-19 5.45298e-19 5.45419e-19 5.49073e-19 8.94926e-19 3.29318e-17 2.99582e-15
          2.66976e-13 3.36471e-13 4.4321e-13 6.11479e-13 1.95673e-18 1.88505e-18
        </DataArray>
        <DataArray type="Float32" Name="X^w_cyanide" NumberOfComponents="1" format="ascii">
          5.4056e-06 5.4056e-06 5.4056e-06 5.4056e-06 5.4056e-06 5.4056e-06 5.4056e-06 5.4056e-06 5.40559e-06 5.40559e-06 5.40558e-06 5.40556e-06
          5.40554e-06 5.40552e-06 5.40548e-06 5.40543e-06 5.40536e-06 5.40527e-06 5.40514e-06 5.40496e-06 5.40471e-06 5.40436e-06 5.40384e-06 5.40306e-06
          5.40234e-06 6.80459e-06 8.95738e-06 1.25717e-05 1.94642e-05 1.92386e-05
        </DataArray>
        <DataArray type="Float32" Name="X^w_citrate" NumberOfComponents="1" format="ascii">
          0.000141796 0.000141796 0.000141796 0.000141796 0.000141796 0.000141796 0.000141796 0.000141796 0.000141796 0.000141796 0.000141796 0.000141796
          0.000141795 0.000141795 0.000141795 0.000141795 0.000141794 0.000141793 0.000141792 0.000141791 0.000141789 0.000141787 0.000141783 0.000141777
          0.000141768 0.000141754 0.000141727 0.000141663 0.000141455 0.000139816
        </DataArray>
        <DataArray type="Float32" Name="X^w_substrate" NumberOfComponents="1" format="ascii">
          1.45725e-11 1.93779e-11 2.57665e-11 3.42597e-11 4.55509e-11 6.05626e-11 8.05226e-11 1.07067e-10 1.42376e-10 1.89364e-10 2.51929e-10 3.35306e-10
          4.46545e-10 5.95196e-10 7.94277e-10 1.06169e-09 1.42235e-09 1.91138e-09 2.57927e-09 3.50031e-09 4.78697e-09 6.61601e-09 9.27872e-09 1.32852e-08
          1.96039e-08 3.02866e-08 5.04232e-08 9.60692e-08 2.44096e-07 1.4001e-06
        </DataArray>
        <DataArray type="Float32" Name="m^w_H2O" NumberOfComponents="1" format="ascii">
          55492.5 55492.5 55492.5 55492.5 55492.5 55492.5 55492.5 55492.5 55492.5 55492.5 55492.5 55492.4
          55492.4 55492.4 55492.4 55492.4 55492.4 55492.4 55492.4 55492.4 55492.4 55492.4 55492.3 55492.3
          55492.3 55492.2 55492.1 55491.9 55491.5 55491.6
        </DataArray>
        <DataArray type="Float32" Name="m^w_Air" NumberOfComponents="1" format="ascii">
          0 0 0 0 0 0 0 0 0 0 0 0
          0 0 0 0 0 0 0 0 0 0 0 0
          0 0 0 0 0 0
        </DataArray>
        <DataArray type="Float32" Name="m^w_AuComplex" NumberOfComponents="1" format="ascii">
          7.34521e-13 7.33238e-13 7.332e-13 7.33124e-13 7.33128e-13 7.33182e-13 7.33113e-13 7.33217e-13 7.33116e-13 7.33169e-13 7.33126e-13 7.33169e-13
          7.33191e-13 7.33088e-13 7.33103e-13 7.33049e-13 7.33058e-13 7.32975e-13 7.32925e-13 7.33021e-13 7.32894e-13 7.32888e-13 8.04139e-13 1.54612e-10
          3.57722e-07 5.49386e-07 9.22978e-07 1.76291e-06 8.43128e-12 8.20987e-12
        </DataArray>
        <DataArray type="Float32" Name="m^w_nanoAu" NumberOfComponents="1" format="ascii">
          2.77386e-15 2.76907e-15 2.76893e-15 2.76864e-15 2.76866e-15 2.76886e-15 2.7686e-15 2.76899e-15 2.76861e-15 2.76881e-15 2.76866e-15 2.76882e-15
          2.7689e-15 2.76853e-15 2.76859e-15 2.76841e-15 2.76846e-15 2.76817e-15 2.76802e-15 2.76864e-15 2.78718e-15 4.54279e-15 1.67167e-13 1.52073e-11
          1.35521e-09 1.70798e-09 2.24981e-09 3.10396e-09 9.93265e-15 9.56883e-15
        </DataArray>
        <DataArray type="Float32" Name="m^w_cyanide" NumberOfComponents="1" format="ascii">
          0.207718 0.207718 0.207718 0.207718 0.207718 0.207718 0.207718 0.207718 0.207717 0.207717 0.207717 0.207716
          0.207715 0.207714 0.207713 0.207711 0.207708 0.207704 0.2077 0.207693 0.207683 0.207669 0.207649 0.20762
          0.207592 0.261475 0.344199 0.483084 0.747934 0.739267
        </DataArray>
        <DataArray type="Float32" Name="m^w_citrate" NumberOfComponents="1" format="ascii">
          0.749742 0.749742 0.749742 0.749742 0.749742 0.749741 0.749741 0.749741 0.74974 0.74974 0.749739 0.749739
          0.749738 0.749736 0.749735 0.749733 0.74973 0.749726 0.749721 0.749714 0.749704 0.74969 0.74967 0.74964
          0.749593 0.749518 0.749373 0.749038 0.747937 0.739269
        </DataArray>
        <DataArray type="Float32" Name="m^w_substrate" NumberOfComponents="1" format="ascii">
          8.08747e-08 1.07544e-07 1.42999e-07 1.90135e-07 2.52799e-07 3.36111e-07 4.46885e-07 5.942e-07 7.9016e-07 1.05093e-06 1.39816e-06 1.86088e-06
          2.47824e-06 3.30322e-06 4.40808e-06 5.89219e-06 7.89375e-06 1.06078e-05 1.43145e-05 1.9426e-05 2.65667e-05 3.67176e-05 5.1495e-05 7.37302e-05
          0.000108797 0.000168084 0.000279839 0.000533164 0.00135468 0.00777025
        </DataArray>
        <DataArray type="Float32" Name="process rank" NumberOfComponents="1" format="ascii">
          0 0 0 0 0 0 0 0 0 0 0 0
          0 0 0 0 0 0 0 0 0 0 0 0
          0 0 0 0 0 0
        </DataArray>
      </CellData>
      <Points>
        <DataArray type="Float32" Name="Coordinates" NumberOfComponents="3" format="ascii">
          0 0 0 0.5 0 0 0 0.0333333 0 0.5 0.0333333 0
          0 0.0666667 0 0.5 0.0666667 0 0 0.1 0 0.5 0.1 0
          0 0.133333 0 0.5 0.133333 0 0 0.166667 0 0.5 0.166667 0
          0 0.2 0 0.5 0.2 0 0 0.233333 0 0.5 0.233333 0
          0 0.266667 0 0.5 0.266667 0 0 0.3 0 0.5 0.3 0
          0 0.333333 0 0.5 0.333333 0 0 0.366667 0 0.5 0.366667 0
          0 0.4 0 0.5 0.4 0 0 0.433333 0 0.5 0.433333 0
          0 0.466667 0 0.5 0.466667 0 0 0.5 0 0.5 0.5 0
          0 0.533333 0 0.5 0.533333 0 0 0.566667 0 0.5 0.566667 0
          0 0.6 0 0.5 0.6 0 0 0.633333 0 0.5 0.633333 0
          0 0.666667 0 0.5 0.666667 0 0 0.7 0 0.5 0.7 0
          0 0.733333 0 0.5 0.733333 0 0 0.766667 0 0.5 0.766667 0
          0 0.8 0 0.5 0.8 0 0 0.833333 0 0.5 0.833333 0
          0 0.866667 0 0.5 0.866667 0 0 0.9 0 0.5 0.9 0
          0 0.933333 0 0.5 0.933333 0 0 0.966667 0 0.5 0.966667 0
          0 1 0 0.5 1 0
        </DataArray>
      </Points>
      <Cells>
        <DataArray type="Int32" Name="connectivity" NumberOfComponents="1" format="ascii">
          0 1 3 2 2 3 5 4 4 5 7 6
          6 7 9 8 8 9 11 10 10 11 13 12
          12 13 15 14 14 15 17 16 16 17 19 18
          18 19 21 20 20 21 23 22 22 23 25 24
          24 25 27 26 26 27 29 28 28 29 31 30
          30 31 33 32 32 33 35 34 34 35 37 36
          36 37 39 38 38 39 41 40 40 41 43 42
          42 43 45 44 44 45 47 46 46 47 49 48
          48 49 51 50 50 51 53 52 52 53 55 54
          54 55 57 56 56 57 59 58 58 59 61 60
        </DataArray>
        <DataArray type="Int32" Name="offsets" NumberOfComponents="1" format="ascii">
          4 8 12 16 20 24 28 32 36 40 44 48
          52 56 60 64 68 72 76 80 84 88 92 96
          100 104 108 112 116 120
        </DataArray>
        <DataArray type="UInt8" Name="types" NumberOfComponents="1" format="ascii">
          9 9 9 9 9 9 9 9 9 9 9 9
          9 9 9 9 9 9 9 9 9 9 9 9
          9 9 9 9 9 9
        </DataArray>
      </Cells>
    </Piece>
  </UnstructuredGrid>
</VTKFile>
