<?xml version="1.0"?>
<VTKFile type="UnstructuredGrid" version="0.1" byte_order="LittleEndian">
  <UnstructuredGrid>
    <Piece NumberOfCells="30" NumberOfPoints="62">
      <CellData Scalars="Sg">
        <DataArray type="Float32" Name="Sg" NumberOfComponents="1" format="ascii">
          0 0 0 0 0 0 0 0 0 0 0 0
          0 0 0 0 0 0 0 0 0 0 0 0
          0 0 0 0 0 0
        </DataArray>
        <DataArray type="Float32" Name="Sl" NumberOfComponents="1" format="ascii">
          1 1 1 1 1 1 1 1 1 1 1 1
          1 1 1 1 1 1 1 1 1 1 1 1
          1 1 1 1 1 1
        </DataArray>
        <DataArray type="Float32" Name="pg" NumberOfComponents="1" format="ascii">
          24687.8 24360.9 24034 23707 23380.1 23053.1 22726.2 22399.3 22072.3 21745.4 21418.4 21091.5
          20764.6 20437.6 20110.7 19783.7 19456.8 19129.8 18802.9 18476 18149 17822.1 17495.1 17168.2
          16841.3 16514.3 16187.4 15860.4 15533.5 15209.7
        </DataArray>
        <DataArray type="Float32" Name="pl" NumberOfComponents="1" format="ascii">
          110628 110301 109974 109647 109320 108993 108666 108339 108012 107685 107358 107031
          106704 106377 106050 105723 105396 105070 104743 104416 104089 103762 103435 103108
          102781 102454 102127 101800 101473 101149
        </DataArray>
        <DataArray type="Float32" Name="pc" NumberOfComponents="1" format="ascii">
          -85939.7 -85939.7 -85939.7 -85939.7 -85939.7 -85939.7 -85939.7 -85939.7 -85939.7 -85939.7 -85939.7 -85939.7
          -85939.7 -85939.7 -85939.7 -85939.7 -85939.7 -85939.7 -85939.7 -85939.7 -85939.7 -85939.7 -85939.7 -85939.7
          -85939.7 -85939.7 -85939.7 -85939.7 -85939.7 -85939.7
        </DataArray>
        <DataArray type="Float32" Name="rhoL" NumberOfComponents="1" format="ascii">
          999.855 999.855 999.855 999.855 999.855 999.854 999.854 999.854 999.854 999.854 999.854 999.854
          999.853 999.853 999.853 999.853 999.853 999.853 999.852 999.852 999.852 999.852 999.852 999.852
          999.852 999.851 999.851 999.851 999.851 999.851
        </DataArray>
        <DataArray type="Float32" Name="rhoG" NumberOfComponents="1" format="ascii">
          0.30585 0.3018 0.29775 0.293699 0.289649 0.285598 0.281548 0.277498 0.273447 0.269397 0.265347 0.261296
          0.257246 0.253195 0.249145 0.245095 0.241044 0.236994 0.232944 0.228893 0.224843 0.220793 0.216742 0.212692
          0.208641 0.204591 0.200541 0.19649 0.19244 0.188428
        </DataArray>
        <DataArray type="Float32" Name="mobL" NumberOfComponents="1" format="ascii">
          722.171 722.17 722.17 722.17 722.17 722.17 722.169 722.169 722.169 722.169 722.169 722.169
          722.168 722.168 722.168 722.168 722.168 722.167 722.167 722.167 722.167 722.167 722.166 722.166
          722.166 722.166 722.166 722.166 722.165 722.165
        </DataArray>
        <DataArray type="Float32" Name="mobG" NumberOfComponents="1" format="ascii">
          0 0 0 0 0 0 0 0 0 0 0 0
          0 0 0 0 0 0 0 0 0 0 0 0
          0 0 0 0 0 0
        </DataArray>
        <DataArray type="Float32" Name="porosity" NumberOfComponents="1" format="ascii">
          0.298875 0.298875 0.298875 0.298874 0.298874 0.298874 0.298873 0.298872 0.298871 0.298869 0.298867 0.298864
          0.298859 0.298853 0.298845 0.298835 0.29882 0.2988 0.298773 0.298736 0.298685 0.298614 0.298511 0.298357
          0.297844 0.297421 0.296568 0.294282 0.282716 0.0447003
        </DataArray>
        <DataArray type="Float32" Name="temperature" NumberOfComponents="1" format="ascii">
          281.15 281.15 281.15 281.15 281.15 281.15 281.15 281.15 281.15 281.15 281.15 281.15
          281.15 281.15 281.15 281.15 281.15 281.15 281.15 281.15 281.15 281.15 281.15 281.15
          281.15 281.15 281.15 281.15 281.15 281.15
        </DataArray>
        <DataArray type="Float32" Name="phase presence" NumberOfComponents="1" format="ascii">
          1 1 1 1 1 1 1 1 1 1 1 1
          1 1 1 1 1 1 1 1 1 1 1 1
          1 1 1 1 1 1
        </DataArray>
        <DataArray type="Float32" Name="precipitateVolumeFraction_au" NumberOfComponents="1" format="ascii">
          5.53782e-10 5.52814e-10 5.52786e-10 5.52728e-10 5.52731e-10 5.52773e-10 5.52721e-10 5.528e-10 5.52725e-10 5.52767e-10 5.52737e-10 5.52771e-10
          5.52792e-10 5.5272e-10 5.52738e-10 5.52707e-10 5.52727e-10 5.52682e-10 5.52668e-10 5.52774e-10 5.52725e-10 5.52721e-10 5.53109e-10 1.32263e-09
          0.00026994 0.000269924 0.000269901 0.000269855 5.52288e-10 5.5105e-10
        </DataArray>
        <DataArray type="Float32" Name="precipitateVolumeFraction_nanoAu" NumberOfComponents="1" format="ascii">
          1.25467e-13 1.25248e-13 1.25241e-13 1.25228e-13 1.25229e-13 1.25238e-13 1.25226e-13 1.25244e-13 1.25227e-13 1.25236e-13 1.25229e-13 1.25237e-13
          1.25241e-13 1.25224e-13 1.25227e-13 1.25219e-13 1.25222e-13 1.25209e-13 1.25203e-13 1.25223e-13 1.25206e-13 1.25213e-13 1.37582e-13 2.64541e-11
          6.11349e-08 7.70085e-08 1.01389e-07 1.42063e-07 4.50552e-13 4.43743e-13
        </DataArray>
        <DataArray type="Float32" Name="precipitateVolumeFraction_d" NumberOfComponents="1" format="ascii">
          0.000562595 0.000562653 0.000562734 0.000562848 0.000563008 0.000563232 0.000563545 0.000563981 0.000564587 0.000565424 0.000566578 0.000568163
          0.000570329 0.000573282 0.000577292 0.000582725 0.000590077 0.000600028 0.000613535 0.000631978 0.000657424 0.000693123 0.000744497 0.000821315
          0.000943047 0.00115445 0.00158102 0.00272399 0.00864212 0.12765
        </DataArray>
        <DataArray type="Float32" Name="precipitateVolumeFraction_p" NumberOfComponents="1" format="ascii">
          0.000562595 0.000562653 0.000562734 0.000562848 0.000563008 0.000563232 0.000563545 0.000563981 0.000564587 0.000565424 0.000566578 0.000568163
          0.000570329 0.000573282 0.000577292 0.000582725 0.000590077 0.000600028 0.000613535 0.000631978 0.000657424 0.000693123 0.000744497 0.000821315
          0.000943047 0.00115445 0.00158102 0.00272399 0.00864212 0.12765
        </DataArray>
        <DataArray type="Float32" Name="K" NumberOfComponents="1" format="ascii">
          9.85619e-11 9.85618e-11 9.85616e-11 9.85613e-11 9.85609e-11 9.85603e-11 9.85595e-11 9.85584e-11 9.85569e-11 9.85547e-11 9.85518e-11 9.85478e-11
          9.85423e-11 9.85348e-11 9.85246e-11 9.85108e-11 9.84921e-11 9.84668e-11 9.84325e-11 9.83857e-11 9.83212e-11 9.82307e-11 9.81006e-11 9.79063e-11
          9.72593e-11 9.67292e-11 9.56667e-11 9.28669e-11 7.97076e-11 1.77616e-13
        </DataArray>
        <DataArray type="Float32" Name="X^w_H2O" NumberOfComponents="1" format="ascii">
          0.999853 0.999853 0.999853 0.999853 0.999853 0.999853 0.999853 0.999853 0.999853 0.999853 0.999853 0.999853
          0.999853 0.999853 0.999853 0.999853 0.999853 0.999853 0.999853 0.999853 0.999853 0.999853 0.999853 0.999853
          0.999853 0.999851 0.999849 0.999846 0.999839 0.99984
        </DataArray>
        <DataArray type="Float32" Name="X^w_Air" NumberOfComponents="1" format="ascii">
          0 0 0 0 0 0 0 0 0 0 0 0
          0 0 0 0 0 0 0 0 0 0 0 0
          0 0 0 0 0 0
        </DataArray>
        <DataArray type="Float32" Name="X^w_AuComplex" NumberOfComponents="1" format="ascii">
          1.44697e-16 1.44444e-16 1.44437e-16 1.44422e-16 1.44423e-16 1.44433e-16 1.4442e-16 1.4444e-16 1.4442e-16 1.44431e-16 1.44423e-16 1.44431e-16
          1.44435e-16 1.44415e-16 1.44418e-16 1.44407e-16 1.44408e-16 1.44392e-16 1.44382e-16 1.444e-16 1.44375e-16 1.44373e-16 1.58429e-16 3.04797e-14
          7.04683e-11 1.08225e-10 1.81822e-10 3.47295e-10 1.6611e-15 1.6174e-15
        </DataArray>
        <DataArray type="Float32" Name="X^w_nanoAu" NumberOfComponents="1" format="ascii">
          5.46441e-19 5.45496e-19 5.45468e-19 5.45412e-19 5.45415e-19 5.45454e-19 5.45405e-19 5.45481e-19 5.45407e-19 5.45446e-19 5.45416e-19 5.45448e-19
          5.45464e-19 5.4539e-19 5.45402e-19 5.45365e-19 5.45374e-19 5.45318e-19 5.45288e-19 5.45408e-19 5.49061e-19 8.949e-19 3.29311e-17 2.99579e-15
          2.66969e-13 3.36463e-13 4.43205e-13 6.11487e-13 1.95689e-18 1.88513e-18
        </DataArray>
        <DataArray type="Float32" Name="X^w_cyanide" NumberOfComponents="1" format="ascii">
          5.40556e-06 5.40556e-06 5.40556e-06 5.40557e-06 5.40557e-06 5.40556e-06 5.40556e-06 5.40556e-06 5.40555e-06 5.40555e-06 5.40554e-06 5.40552e-06
          5.4055e-06 5.40547e-06 5.40543e-06 5.40538e-06 5.4053e-06 5.40521e-06 5.40507e-06 5.40489e-06 5.40463e-06 5.40426e-06 5.40374e-06 5.40295e-06
          5.40223e-06 6.80446e-06 8.95727e-06 1.25718e-05 1.9465e-05 1.9239e-05
        </DataArray>
        <DataArray type="Float32" Name="X^w_citrate" NumberOfComponents="1" format="ascii">
          0.000141796 0.000141796 0.000141796 0.000141796 0.000141796 0.000141796 0.000141796 0.000141796 0.000141796 0.000141796 0.000141796 0.000141796
          0.000141795 0.000141795 0.000141795 0.000141794 0.000141794 0.000141793 0.000141792 0.000141791 0.000141789 0.000141786 0.000141782 0.000141777
          0.000141768 0.000141754 0.000141727 0.000141665 0.000141461 0.000139818
        </DataArray>
        <DataArray type="Float32" Name="X^w_substrate" NumberOfComponents="1" format="ascii">
          1.85497e-11 2.44484e-11 3.2221e-11 4.24627e-11 5.59579e-11 7.37411e-11 9.71772e-11 1.28068e-10 1.68797e-10 2.22517e-10 2.93414e-10 3.87059e-10
          5.10893e-10 6.74911e-10 8.92629e-10 1.18249e-09 1.56994e-09 2.09064e-09 2.79546e-09 3.75872e-09 5.0923e-09 6.971e-09 9.68131e-09 1.37227e-08
          2.00395e-08 3.06268e-08 5.04269e-08 9.5055e-08 2.39916e-07 1.39829e-06
        </DataArray>
        <DataArray type="Float32" Name="m^w_H2O" NumberOfComponents="1" format="ascii">
          55492.5 55492.5 55492.5 55492.5 55492.5 55492.5 55492.5 55492.5 55492.5 55492.5 55492.5 55492.4
          55492.4 55492.4 55492.4 55492.4 55492.4 55492.4 55492.4 55492.4 55492.4 55492.4 55492.3 55492.3
          55492.3 55492.2 55492.1 55491.9 55491.5 55491.6
        </DataArray>
        <DataArray type="Float32" Name="m^w_Air" NumberOfComponents="1" format="ascii">
          0 0 0 0 0 0 0 0 0 0 0 0
          0 0 0 0 0 0 0 0 0 0 0 0
          0 0 0 0 0 0
        </DataArray>
        <DataArray type="Float32" Name="m^w_AuComplex" NumberOfComponents="1" format="ascii">
          7.34508e-13 7.33225e-13 7.33187e-13 7.33111e-13 7.33115e-13 7.33169e-13 7.33101e-13 7.33205e-13 7.33103e-13 7.33157e-13 7.33114e-13 7.33156e-13
          7.33177e-13 7.33074e-13 7.33088e-13 7.33034e-13 7.33042e-13 7.32957e-13 7.32905e-13 7.33e-13 7.32871e-13 7.32863e-13 8.04211e-13 1.5472e-10
          3.57708e-07 5.49366e-07 9.22957e-07 1.76293e-06 8.43199e-12 8.21018e-12
        </DataArray>
        <DataArray type="Float32" Name="m^w_nanoAu" NumberOfComponents="1" format="ascii">
          2.77383e-15 2.76904e-15 2.76889e-15 2.76861e-15 2.76862e-15 2.76882e-15 2.76857e-15 2.76896e-15 2.76858e-15 2.76878e-15 2.76862e-15 2.76879e-15
          2.76887e-15 2.76849e-15 2.76855e-15 2.76837e-15 2.76841e-15 2.76812e-15 2.76797e-15 2.76858e-15 2.78712e-15 4.54266e-15 1.67163e-13 1.52071e-11
          1.35518e-09 1.70794e-09 2.24978e-09 3.104e-09 9.9335e-15 9.56921e-15
        </DataArray>
        <DataArray type="Float32" Name="m^w_cyanide" NumberOfComponents="1" format="ascii">
          0.207716 0.207716 0.207716 0.207716 0.207716 0.207716 0.207716 0.207716 0.207716 0.207715 0.207715 0.207714
          0.207714 0.207712 0.207711 0.207709 0.207706 0.207702 0.207697 0.20769 0.20768 0.207666 0.207646 0.207615
          0.207588 0.26147 0.344194 0.483086 0.747966 0.739281
        </DataArray>
        <DataArray type="Float32" Name="m^w_citrate" NumberOfComponents="1" format="ascii">
          0.749742 0.749742 0.749742 0.749742 0.749742 0.749741 0.749741 0.749741 0.74974 0.74974 0.749739 0.749738
          0.749737 0.749736 0.749734 0.749732 0.749729 0.749725 0.749719 0.749712 0.749702 0.749688 0.749667 0.749637
          0.749589 0.749515 0.749373 0.749045 0.747968 0.739282
        </DataArray>
        <DataArray type="Float32" Name="m^w_substrate" NumberOfComponents="1" format="ascii">
          1.02948e-07 1.35684e-07 1.78821e-07 2.3566e-07 3.10556e-07 4.0925e-07 5.39315e-07 7.10755e-07 9.3679e-07 1.23493e-06 1.62839e-06 2.1481e-06
          2.83536e-06 3.74563e-06 4.95392e-06 6.56258e-06 8.71287e-06 1.16026e-05 1.55142e-05 2.08602e-05 2.82612e-05 3.86876e-05 5.37293e-05 7.61581e-05
          0.000111215 0.000169972 0.000279859 0.000527536 0.00133149 0.0077602
        </DataArray>
        <DataArray type="Float32" Name="process rank" NumberOfComponents="1" format="ascii">
          0 0 0 0 0 0 0 0 0 0 0 0
          0 0 0 0 0 0 0 0 0 0 0 0
          0 0 0 0 0 0
        </DataArray>
      </CellData>
      <Points>
        <DataArray type="Float32" Name="Coordinates" NumberOfComponents="3" format="ascii">
          0 0 0 0.5 0 0 0 0.0333333 0 0.5 0.0333333 0
          0 0.0666667 0 0.5 0.0666667 0 0 0.1 0 0.5 0.1 0
          0 0.133333 0 0.5 0.133333 0 0 0.166667 0 0.5 0.166667 0
          0 0.2 0 0.5 0.2 0 0 0.233333 0 0.5 0.233333 0
          0 0.266667 0 0.5 0.266667 0 0 0.3 0 0.5 0.3 0
          0 0.333333 0 0.5 0.333333 0 0 0.366667 0 0.5 0.366667 0
          0 0.4 0 0.5 0.4 0 0 0.433333 0 0.5 0.433333 0
          0 0.466667 0 0.5 0.466667 0 0 0.5 0 0.5 0.5 0
          0 0.533333 0 0.5 0.533333 0 0 0.566667 0 0.5 0.566667 0
          0 0.6 0 0.5 0.6 0 0 0.633333 0 0.5 0.633333 0
          0 0.666667 0 0.5 0.666667 0 0 0.7 0 0.5 0.7 0
          0 0.733333 0 0.5 0.733333 0 0 0.766667 0 0.5 0.766667 0
          0 0.8 0 0.5 0.8 0 0 0.833333 0 0.5 0.833333 0
          0 0.866667 0 0.5 0.866667 0 0 0.9 0 0.5 0.9 0
          0 0.933333 0 0.5 0.933333 0 0 0.966667 0 0.5 0.966667 0
          0 1 0 0.5 1 0
        </DataArray>
      </Points>
      <Cells>
        <DataArray type="Int32" Name="connectivity" NumberOfComponents="1" format="ascii">
          0 1 3 2 2 3 5 4 4 5 7 6
          6 7 9 8 8 9 11 10 10 11 13 12
          12 13 15 14 14 15 17 16 16 17 19 18
          18 19 21 20 20 21 23 22 22 23 25 24
          24 25 27 26 26 27 29 28 28 29 31 30
          30 31 33 32 32 33 35 34 34 35 37 36
          36 37 39 38 38 39 41 40 40 41 43 42
          42 43 45 44 44 45 47 46 46 47 49 48
          48 49 51 50 50 51 53 52 52 53 55 54
          54 55 57 56 56 57 59 58 58 59 61 60
        </DataArray>
        <DataArray type="Int32" Name="offsets" NumberOfComponents="1" format="ascii">
          4 8 12 16 20 24 28 32 36 40 44 48
          52 56 60 64 68 72 76 80 84 88 92 96
          100 104 108 112 116 120
        </DataArray>
        <DataArray type="UInt8" Name="types" NumberOfComponents="1" format="ascii">
          9 9 9 9 9 9 9 9 9 9 9 9
          9 9 9 9 9 9 9 9 9 9 9 9
          9 9 9 9 9 9
        </DataArray>
      </Cells>
    </Piece>
  </UnstructuredGrid>
</VTKFile>
