<?xml version="1.0"?>
<VTKFile type="UnstructuredGrid" version="0.1" byte_order="LittleEndian">
  <UnstructuredGrid>
    <Piece NumberOfCells="30" NumberOfPoints="62">
      <CellData Scalars="Sg">
        <DataArray type="Float32" Name="Sg" NumberOfComponents="1" format="ascii">
          0.0928554 0.0928247 0.0927939 0.0927629 0.0927318 0.0927005 0.0926687 0.0926343 0.0925883 0.0924901 0.0921611 0.0908215
          0.0851493 0.0622222 0 0 0 0 0 0 0 0 0 0
          0 0 0 0 0 0
        </DataArray>
        <DataArray type="Float32" Name="Sl" NumberOfComponents="1" format="ascii">
          0.907145 0.907175 0.907206 0.907237 0.907268 0.9073 0.907331 0.907366 0.907412 0.90751 0.907839 0.909178
          0.914851 0.937778 1 1 1 1 1 1 1 1 1 1
          1 1 1 1 1 1
        </DataArray>
        <DataArray type="Float32" Name="pg" NumberOfComponents="1" format="ascii">
          51287.7 50952 50616.2 50280.4 49944.5 49608.6 49272.6 48935.8 48595.7 48240.6 47819.4 47108.7
          45156.9 38262.1 20110.7 19783.7 19456.8 19129.8 18802.9 18476 18149 17822.1 17495.1 17168.2
          16841.3 16514.3 16187.4 15860.4 15533.5 15206.6
        </DataArray>
        <DataArray type="Float32" Name="pl" NumberOfComponents="1" format="ascii">
          110628 110301 109974 109647 109320 108993 108666 108339 108012 107685 107358 107031
          106704 106377 106050 105723 105396 105070 104743 104416 104089 103762 103435 103108
          102781 102454 102127 101800 101473 101146
        </DataArray>
        <DataArray type="Float32" Name="pc" NumberOfComponents="1" format="ascii">
          -59339.8 -59348.6 -59357.4 -59366.3 -59375.2 -59384.2 -59393.3 -59403.1 -59416.3 -59444.4 -59538.7 -59922.4
          -61547.3 -68115.2 -85939.7 -85939.7 -85939.7 -85939.7 -85939.7 -85939.7 -85939.7 -85939.7 -85939.7 -85939.7
          -85939.7 -85939.7 -85939.7 -85939.7 -85939.7 -85939.7
        </DataArray>
        <DataArray type="Float32" Name="rhoL" NumberOfComponents="1" format="ascii">
          999.855 999.855 999.855 999.855 999.855 999.854 999.854 999.854 999.854 999.854 999.854 999.854
          999.853 999.853 999.853 999.853 999.853 999.853 999.852 999.852 999.852 999.852 999.852 999.852
          999.852 999.851 999.851 999.851 999.851 999.851
        </DataArray>
        <DataArray type="Float32" Name="rhoG" NumberOfComponents="1" format="ascii">
          0.635388 0.631229 0.627069 0.622909 0.618748 0.614587 0.610423 0.606251 0.602037 0.597639 0.59242 0.583616
          0.559435 0.474018 0.249145 0.245095 0.241044 0.236994 0.232944 0.228893 0.224843 0.220793 0.216742 0.212692
          0.208641 0.204591 0.200541 0.19649 0.19244 0.18839
        </DataArray>
        <DataArray type="Float32" Name="mobL" NumberOfComponents="1" format="ascii">
          722.171 722.17 722.17 722.17 722.17 722.17 722.169 722.169 722.169 722.169 722.169 722.169
          722.168 722.168 722.168 722.168 722.168 722.167 722.167 722.167 722.167 722.167 722.166 722.166
          722.166 722.166 722.166 722.166 722.165 722.165
        </DataArray>
        <DataArray type="Float32" Name="mobG" NumberOfComponents="1" format="ascii">
          0 0 0 0 0 0 0 0 0 0 0 0
          0 0 0 0 0 0 0 0 0 0 0 0
          0 0 0 0 0 0
        </DataArray>
        <DataArray type="Float32" Name="porosity" NumberOfComponents="1" format="ascii">
          0.298503 0.298503 0.298503 0.298503 0.298502 0.298502 0.298501 0.2985 0.298498 0.298496 0.298493 0.298489
          0.298484 0.298477 0.298466 0.298453 0.298434 0.29841 0.298376 0.298331 0.298269 0.298184 0.298062 0.297886
          0.297345 0.2969 0.296082 0.294246 0.288269 0.216126
        </DataArray>
        <DataArray type="Float32" Name="temperature" NumberOfComponents="1" format="ascii">
          281.15 281.15 281.15 281.15 281.15 281.15 281.15 281.15 281.15 281.15 281.15 281.15
          281.15 281.15 281.15 281.15 281.15 281.15 281.15 281.15 281.15 281.15 281.15 281.15
          281.15 281.15 281.15 281.15 281.15 281.15
        </DataArray>
        <DataArray type="Float32" Name="phase presence" NumberOfComponents="1" format="ascii">
          3 3 3 3 3 3 3 3 3 3 3 3
          3 3 1 1 1 1 1 1 1 1 1 1
          1 1 1 1 1 1
        </DataArray>
        <DataArray type="Float32" Name="precipitateVolumeFraction_au" NumberOfComponents="1" format="ascii">
          5.33268e-10 5.33266e-10 5.33268e-10 5.3327e-10 5.33272e-10 5.33273e-10 5.33275e-10 5.33276e-10 5.33277e-10 5.33279e-10 5.33278e-10 5.33278e-10
          5.3328e-10 5.33281e-10 5.33282e-10 5.33275e-10 5.33277e-10 5.33255e-10 5.33242e-10 5.33305e-10 5.33272e-10 5.33269e-10 5.3332e-10 5.99158e-10
          0.000269937 0.000269922 0.000269899 0.000269862 5.32909e-10 5.31811e-10
        </DataArray>
        <DataArray type="Float32" Name="precipitateVolumeFraction_nanoAu" NumberOfComponents="1" format="ascii">
          1.96112e-11 1.9609e-11 1.96069e-11 1.96049e-11 1.96032e-11 1.96012e-11 1.95996e-11 1.95981e-11 1.95965e-11 1.95948e-11 1.95935e-11 1.95921e-11
          1.95909e-11 1.96005e-11 1.95811e-11 1.95573e-11 1.95751e-11 1.95518e-11 1.9551e-11 1.95948e-11 1.95775e-11 1.95762e-11 1.95954e-11 4.70946e-11
          6.31878e-08 7.88035e-08 1.01988e-07 1.38625e-07 1.98292e-11 1.97214e-11
        </DataArray>
        <DataArray type="Float32" Name="precipitateVolumeFraction_d" NumberOfComponents="1" format="ascii">
          0.000748291 0.000748362 0.000748463 0.000748605 0.000748805 0.000749085 0.000749478 0.000750025 0.000750787 0.000751841 0.000753295 0.000755291
          0.000758019 0.000761734 0.00076677 0.000773579 0.000782761 0.000795137 0.00081184 0.000834477 0.000865408 0.000908244 0.000968821 0.00105722
          0.00119245 0.00141484 0.00182405 0.00274176 0.00586558 0.041937
        </DataArray>
        <DataArray type="Float32" Name="precipitateVolumeFraction_p" NumberOfComponents="1" format="ascii">
          0.000748291 0.000748362 0.000748463 0.000748605 0.000748805 0.000749085 0.000749478 0.000750025 0.000750787 0.000751841 0.000753295 0.000755291
          0.000758019 0.000761734 0.00076677 0.000773579 0.000782761 0.000795137 0.00081184 0.000834477 0.000865408 0.000908244 0.000968821 0.00105722
          0.00119245 0.00141484 0.00182405 0.00274176 0.00586558 0.041937
        </DataArray>
        <DataArray type="Float32" Name="K" NumberOfComponents="1" format="ascii">
          9.8091e-11 9.80908e-11 9.80906e-11 9.80902e-11 9.80897e-11 9.8089e-11 9.8088e-11 9.80866e-11 9.80847e-11 9.8082e-11 9.80783e-11 9.80733e-11
          9.80664e-11 9.8057e-11 9.80442e-11 9.8027e-11 9.80038e-11 9.79725e-11 9.79303e-11 9.78731e-11 9.77949e-11 9.76868e-11 9.75341e-11 9.73116e-11
          9.66341e-11 9.60794e-11 9.50657e-11 9.28239e-11 8.5821e-11 2.98168e-11
        </DataArray>
        <DataArray type="Float32" Name="X^w_H2O" NumberOfComponents="1" format="ascii">
          0.999837 0.999837 0.999837 0.999837 0.999838 0.999838 0.999838 0.999838 0.999838 0.999838 0.999838 0.999838
          0.999839 0.999841 0.999848 0.999853 0.999853 0.999853 0.999853 0.999853 0.999853 0.999853 0.999853 0.999853
          0.999853 0.999851 0.999849 0.999846 0.999839 0.999841
        </DataArray>
        <DataArray type="Float32" Name="X^w_Air" NumberOfComponents="1" format="ascii">
          1.55653e-05 1.54612e-05 1.53571e-05 1.5253e-05 1.51489e-05 1.50448e-05 1.49406e-05 1.48362e-05 1.47308e-05 1.46207e-05 1.44902e-05 1.42699e-05
          1.36649e-05 1.15277e-05 4.45767e-06 6.37558e-08 8.94195e-10 1.233e-11 1.66472e-13 2.19911e-15 2.84123e-17 3.58472e-19 4.38469e-21 5.14794e-23
          5.64975e-25 5.94411e-27 5.54171e-29 4.02998e-31 1.50039e-33 0
        </DataArray>
        <DataArray type="Float32" Name="X^w_AuComplex" NumberOfComponents="1" format="ascii">
          1.9433e-14 1.93538e-14 1.87221e-14 1.96529e-14 2.00031e-14 1.93266e-14 2.06649e-14 1.91701e-14 2.02959e-14 1.84704e-14 1.90321e-14 1.97926e-14
          1.939e-14 2.16066e-14 1.92748e-14 1.92387e-14 1.92439e-14 1.92098e-14 1.91984e-14 1.9231e-14 1.92038e-14 1.91915e-14 1.92e-14 5.09106e-14
          7.27087e-11 1.11208e-10 1.84457e-10 3.41749e-10 6.90871e-14 6.64536e-14
        </DataArray>
        <DataArray type="Float32" Name="X^w_nanoAu" NumberOfComponents="1" format="ascii">
          1.37601e-17 -6.54855e-17 -6.97135e-16 2.33681e-16 1.79752e-15 -9.26168e-17 3.19279e-17 -2.492e-16 -3.37095e-16 2.64813e-16 -3.8719e-16 1.58708e-15
          1.18444e-15 2.03929e-14 -2.94531e-15 8.52166e-17 8.5291e-17 8.51896e-17 8.51867e-17 8.5372e-17 8.5298e-17 8.56491e-17 1.19042e-16 3.19241e-15
          2.75765e-13 3.43937e-13 4.44948e-13 5.94822e-13 8.54883e-17 8.13824e-17
        </DataArray>
        <DataArray type="Float32" Name="X^w_cyanide" NumberOfComponents="1" format="ascii">
          5.55088e-06 5.53974e-06 5.52952e-06 5.52012e-06 5.51151e-06 5.5036e-06 5.49634e-06 5.48968e-06 5.48358e-06 5.47799e-06 5.47286e-06 5.46816e-06
          5.46385e-06 5.45987e-06 5.45618e-06 5.45253e-06 5.44909e-06 5.44589e-06 5.44288e-06 5.43996e-06 5.43705e-06 5.43395e-06 5.43041e-06 5.42597e-06
          5.42028e-06 6.85272e-06 9.03903e-06 1.26547e-05 1.93125e-05 1.86809e-05
        </DataArray>
        <DataArray type="Float32" Name="X^w_citrate" NumberOfComponents="1" format="ascii">
          0.000141794 0.000141794 0.000141794 0.000141794 0.000141794 0.000141794 0.000141794 0.000141794 0.000141794 0.000141794 0.000141793 0.000141793
          0.000141793 0.000141793 0.000141793 0.000141793 0.000141792 0.00014179 0.000141787 0.000141783 0.000141777 0.000141768 0.000141755 0.000141734
          0.000141698 0.000141636 0.000141513 0.000141229 0.000140373 0.000135772
        </DataArray>
        <DataArray type="Float32" Name="X^w_substrate" NumberOfComponents="1" format="ascii">
          1.34469e-11 1.88909e-11 2.65446e-11 3.73037e-11 5.24438e-11 7.37365e-11 1.03704e-10 1.45898e-10 2.05329e-10 2.89102e-10 4.07312e-10 5.74374e-10
          8.10877e-10 1.14507e-09 1.61358e-09 2.26885e-09 3.19985e-09 4.52992e-09 6.44503e-09 9.23106e-09 1.33396e-08 1.95089e-08 2.90001e-08 4.40918e-08
          6.92137e-08 1.13867e-07 2.01425e-07 4.02096e-07 1.00703e-06 4.25131e-06
        </DataArray>
        <DataArray type="Float32" Name="m^w_H2O" NumberOfComponents="1" format="ascii">
          55491.7 55491.7 55491.7 55491.7 55491.7 55491.7 55491.7 55491.6 55491.6 55491.6 55491.6 55491.6
          55491.7 55491.8 55492.2 55492.4 55492.4 55492.4 55492.4 55492.4 55492.4 55492.4 55492.3 55492.3
          55492.3 55492.2 55492.1 55491.9 55491.5 55491.6
        </DataArray>
        <DataArray type="Float32" Name="m^w_Air" NumberOfComponents="1" format="ascii">
          0.537396 0.533803 0.53021 0.526616 0.523021 0.519427 0.51583 0.512226 0.508586 0.504786 0.500278 0.492672
          0.471784 0.397997 0.153903 0.00220119 3.08724e-05 4.25698e-07 5.74749e-09 7.59251e-11 9.80941e-13 1.23763e-14 1.51383e-16 1.77734e-18
          1.95059e-20 2.05222e-22 1.91329e-24 1.39136e-26 5.18012e-29 2.41625e-34
        </DataArray>
        <DataArray type="Float32" Name="m^w_AuComplex" NumberOfComponents="1" format="ascii">
          9.86455e-11 9.82432e-11 9.50369e-11 9.97618e-11 1.01539e-10 9.81055e-11 1.04899e-10 9.73106e-11 1.03025e-10 9.37588e-11 9.66101e-11 1.00471e-10
          9.8427e-11 1.09679e-10 9.78421e-11 9.76586e-11 9.76852e-11 9.7512e-11 9.74542e-11 9.76197e-11 9.74814e-11 9.74194e-11 9.74623e-11 2.5843e-10
          3.69081e-07 5.64512e-07 9.36331e-07 1.73477e-06 3.50697e-10 3.37329e-10
        </DataArray>
        <DataArray type="Float32" Name="m^w_nanoAu" NumberOfComponents="1" format="ascii">
          6.98487e-14 -3.32416e-13 -3.53878e-12 1.18621e-12 9.12452e-12 -4.70139e-13 1.62072e-13 -1.26499e-12 -1.71115e-12 1.34423e-12 -1.96545e-12 8.05629e-12
          6.01244e-12 1.03518e-10 -1.49509e-11 4.32574e-13 4.32951e-13 4.32437e-13 4.32422e-13 4.33363e-13 4.32987e-13 4.34769e-13 6.04278e-13 1.62052e-11
          1.39983e-09 1.74588e-09 2.25862e-09 3.01941e-09 4.33952e-13 4.1311e-13
        </DataArray>
        <DataArray type="Float32" Name="m^w_cyanide" NumberOfComponents="1" format="ascii">
          0.213301 0.212872 0.212479 0.212119 0.211787 0.211483 0.211204 0.210949 0.210714 0.210499 0.210302 0.210121
          0.209956 0.209803 0.209661 0.209521 0.209388 0.209265 0.20915 0.209038 0.208925 0.208807 0.208671 0.2085
          0.208281 0.263324 0.347336 0.486274 0.742107 0.717837
        </DataArray>
        <DataArray type="Float32" Name="m^w_citrate" NumberOfComponents="1" format="ascii">
          0.749732 0.749731 0.749731 0.749731 0.749731 0.749731 0.74973 0.74973 0.749729 0.749729 0.749728 0.749726
          0.749725 0.749724 0.749726 0.749724 0.749717 0.749707 0.749692 0.749671 0.74964 0.749594 0.749523 0.749409
          0.749221 0.748891 0.748241 0.746743 0.742216 0.717889
        </DataArray>
        <DataArray type="Float32" Name="m^w_substrate" NumberOfComponents="1" format="ascii">
          7.4628e-08 1.04841e-07 1.47318e-07 2.07029e-07 2.91054e-07 4.09224e-07 5.7554e-07 8.09705e-07 1.13954e-06 1.60446e-06 2.2605e-06 3.18766e-06
          4.50021e-06 6.35489e-06 8.95506e-06 1.25917e-05 1.77585e-05 2.51401e-05 3.57687e-05 5.12306e-05 7.4032e-05 0.00010827 0.000160945 0.000244701
          0.000384122 0.000631941 0.00111787 0.00223155 0.00558881 0.0235939
        </DataArray>
        <DataArray type="Float32" Name="process rank" NumberOfComponents="1" format="ascii">
          0 0 0 0 0 0 0 0 0 0 0 0
          0 0 0 0 0 0 0 0 0 0 0 0
          0 0 0 0 0 0
        </DataArray>
      </CellData>
      <Points>
        <DataArray type="Float32" Name="Coordinates" NumberOfComponents="3" format="ascii">
          0 0 0 0.5 0 0 0 0.0333333 0 0.5 0.0333333 0
          0 0.0666667 0 0.5 0.0666667 0 0 0.1 0 0.5 0.1 0
          0 0.133333 0 0.5 0.133333 0 0 0.166667 0 0.5 0.166667 0
          0 0.2 0 0.5 0.2 0 0 0.233333 0 0.5 0.233333 0
          0 0.266667 0 0.5 0.266667 0 0 0.3 0 0.5 0.3 0
          0 0.333333 0 0.5 0.333333 0 0 0.366667 0 0.5 0.366667 0
          0 0.4 0 0.5 0.4 0 0 0.433333 0 0.5 0.433333 0
          0 0.466667 0 0.5 0.466667 0 0 0.5 0 0.5 0.5 0
          0 0.533333 0 0.5 0.533333 0 0 0.566667 0 0.5 0.566667 0
          0 0.6 0 0.5 0.6 0 0 0.633333 0 0.5 0.633333 0
          0 0.666667 0 0.5 0.666667 0 0 0.7 0 0.5 0.7 0
          0 0.733333 0 0.5 0.733333 0 0 0.766667 0 0.5 0.766667 0
          0 0.8 0 0.5 0.8 0 0 0.833333 0 0.5 0.833333 0
          0 0.866667 0 0.5 0.866667 0 0 0.9 0 0.5 0.9 0
          0 0.933333 0 0.5 0.933333 0 0 0.966667 0 0.5 0.966667 0
          0 1 0 0.5 1 0
        </DataArray>
      </Points>
      <Cells>
        <DataArray type="Int32" Name="connectivity" NumberOfComponents="1" format="ascii">
          0 1 3 2 2 3 5 4 4 5 7 6
          6 7 9 8 8 9 11 10 10 11 13 12
          12 13 15 14 14 15 17 16 16 17 19 18
          18 19 21 20 20 21 23 22 22 23 25 24
          24 25 27 26 26 27 29 28 28 29 31 30
          30 31 33 32 32 33 35 34 34 35 37 36
          36 37 39 38 38 39 41 40 40 41 43 42
          42 43 45 44 44 45 47 46 46 47 49 48
          48 49 51 50 50 51 53 52 52 53 55 54
          54 55 57 56 56 57 59 58 58 59 61 60
        </DataArray>
        <DataArray type="Int32" Name="offsets" NumberOfComponents="1" format="ascii">
          4 8 12 16 20 24 28 32 36 40 44 48
          52 56 60 64 68 72 76 80 84 88 92 96
          100 104 108 112 116 120
        </DataArray>
        <DataArray type="UInt8" Name="types" NumberOfComponents="1" format="ascii">
          9 9 9 9 9 9 9 9 9 9 9 9
          9 9 9 9 9 9 9 9 9 9 9 9
          9 9 9 9 9 9
        </DataArray>
      </Cells>
    </Piece>
  </UnstructuredGrid>
</VTKFile>
