<?xml version="1.0"?>
<VTKFile type="UnstructuredGrid" version="0.1" byte_order="LittleEndian">
  <UnstructuredGrid>
    <Piece NumberOfCells="30" NumberOfPoints="62">
      <CellData Scalars="Sg">
        <DataArray type="Float32" Name="Sg" NumberOfComponents="1" format="ascii">
          0.0886303 0.0883661 0.0873126 0.0826332 0.0623562 0 0 0 0 0 0 0
          0 0 0 0 0 0 0 0 0 0 0 0
          0 0 0 0 0 0
        </DataArray>
        <DataArray type="Float32" Name="Sl" NumberOfComponents="1" format="ascii">
          0.91137 0.911634 0.912687 0.917367 0.937644 1 1 1 1 1 1 1
          1 1 1 1 1 1 1 1 1 1 1 1
          1 1 1 1 1 1
        </DataArray>
        <DataArray type="Float32" Name="pg" NumberOfComponents="1" format="ascii">
          50077.4 49674.8 49046 47378.6 41243 23053.1 22726.2 22399.3 22072.3 21745.4 21418.4 21091.5
          20764.6 20437.6 20110.7 19783.7 19456.8 19129.9 18802.9 18476 18149 17822.1 17495.1 17168.2
          16841.3 16514.3 16187.4 15860.4 15533.5 15206.6
        </DataArray>
        <DataArray type="Float32" Name="pl" NumberOfComponents="1" format="ascii">
          110628 110301 109974 109647 109320 108993 108666 108339 108012 107685 107358 107031
          106704 106377 106050 105723 105396 105070 104743 104416 104089 103762 103435 103108
          102781 102454 102127 101800 101473 101146
        </DataArray>
        <DataArray type="Float32" Name="pc" NumberOfComponents="1" format="ascii">
          -60550.1 -60625.8 -60927.6 -62268.1 -68076.8 -85939.7 -85939.7 -85939.7 -85939.7 -85939.7 -85939.7 -85939.7
          -85939.7 -85939.7 -85939.7 -85939.7 -85939.7 -85939.7 -85939.7 -85939.7 -85939.7 -85939.7 -85939.7 -85939.7
          -85939.7 -85939.7 -85939.7 -85939.7 -85939.7 -85939.7
        </DataArray>
        <DataArray type="Float32" Name="rhoL" NumberOfComponents="1" format="ascii">
          999.855 999.855 999.855 999.855 999.855 999.854 999.854 999.854 999.854 999.854 999.854 999.854
          999.853 999.853 999.853 999.853 999.853 999.853 999.852 999.852 999.852 999.852 999.852 999.852
          999.852 999.851 999.851 999.851 999.851 999.851
        </DataArray>
        <DataArray type="Float32" Name="rhoG" NumberOfComponents="1" format="ascii">
          0.620394 0.615406 0.607617 0.586959 0.510947 0.285598 0.281548 0.277498 0.273447 0.269397 0.265347 0.261296
          0.257246 0.253195 0.249145 0.245095 0.241044 0.236994 0.232944 0.228893 0.224843 0.220793 0.216742 0.212692
          0.208641 0.204591 0.200541 0.19649 0.19244 0.18839
        </DataArray>
        <DataArray type="Float32" Name="mobL" NumberOfComponents="1" format="ascii">
          722.171 722.17 722.17 722.17 722.17 722.17 722.169 722.169 722.169 722.169 722.169 722.169
          722.168 722.168 722.168 722.168 722.168 722.167 722.167 722.167 722.167 722.167 722.166 722.166
          722.166 722.166 722.166 722.166 722.165 722.165
        </DataArray>
        <DataArray type="Float32" Name="mobG" NumberOfComponents="1" format="ascii">
          0 0 0 0 0 0 0 0 0 0 0 0
          0 0 0 0 0 0 0 0 0 0 0 0
          0 0 0 0 0 0
        </DataArray>
        <DataArray type="Float32" Name="porosity" NumberOfComponents="1" format="ascii">
          0.298464 0.298464 0.298463 0.298463 0.298463 0.298462 0.298461 0.29846 0.298458 0.298456 0.298453 0.298449
          0.298443 0.298435 0.298424 0.298409 0.29839 0.298364 0.298328 0.29828 0.298215 0.298124 0.297996 0.297808
          0.29725 0.29677 0.295873 0.293789 0.286339 0.1627
        </DataArray>
        <DataArray type="Float32" Name="temperature" NumberOfComponents="1" format="ascii">
          281.15 281.15 281.15 281.15 281.15 281.15 281.15 281.15 281.15 281.15 281.15 281.15
          281.15 281.15 281.15 281.15 281.15 281.15 281.15 281.15 281.15 281.15 281.15 281.15
          281.15 281.15 281.15 281.15 281.15 281.15
        </DataArray>
        <DataArray type="Float32" Name="phase presence" NumberOfComponents="1" format="ascii">
          3 3 3 3 3 1 1 1 1 1 1 1
          1 1 1 1 1 1 1 1 1 1 1 1
          1 1 1 1 1 1
        </DataArray>
        <DataArray type="Float32" Name="precipitateVolumeFraction_au" NumberOfComponents="1" format="ascii">
          5.49269e-10 5.49265e-10 5.49265e-10 5.49265e-10 5.49266e-10 5.49266e-10 5.49261e-10 5.49264e-10 5.49271e-10 5.49238e-10 5.4927e-10 5.49266e-10
          5.49267e-10 5.49243e-10 5.49231e-10 5.49277e-10 5.49279e-10 5.49268e-10 5.49255e-10 5.49251e-10 5.49249e-10 5.49227e-10 5.49272e-10 6.60868e-10
          0.00026994 0.000269923 0.000269898 0.000269855 5.48815e-10 5.47858e-10
        </DataArray>
        <DataArray type="Float32" Name="precipitateVolumeFraction_nanoAu" NumberOfComponents="1" format="ascii">
          3.61057e-12 3.61005e-12 3.60961e-12 3.60948e-12 3.6094e-12 3.62131e-12 3.59182e-12 3.60214e-12 3.612e-12 3.58412e-12 3.60971e-12 3.60599e-12
          3.60685e-12 3.60078e-12 3.59885e-12 3.60785e-12 3.60749e-12 3.60601e-12 3.60457e-12 3.60429e-12 3.60407e-12 3.60292e-12 3.6154e-12 2.98128e-11
          6.08279e-08 7.72031e-08 1.02561e-07 1.4521e-07 3.93475e-12 3.89801e-12
        </DataArray>
        <DataArray type="Float32" Name="precipitateVolumeFraction_d" NumberOfComponents="1" format="ascii">
          0.000768087 0.000768167 0.00076828 0.000768438 0.00076866 0.00076897 0.000769403 0.000770004 0.000770837 0.000771987 0.000773566 0.000775725
          0.000778667 0.000782656 0.000788046 0.000795309 0.000805075 0.000818204 0.000835887 0.000859818 0.000892496 0.000937764 0.00100188 0.00109575
          0.00124015 0.00147992 0.00192874 0.00297032 0.0068306 0.06865
        </DataArray>
        <DataArray type="Float32" Name="precipitateVolumeFraction_p" NumberOfComponents="1" format="ascii">
          0.000768087 0.000768167 0.00076828 0.000768438 0.00076866 0.00076897 0.000769403 0.000770004 0.000770837 0.000771987 0.000773566 0.000775725
          0.000778667 0.000782656 0.000788046 0.000795309 0.000805075 0.000818204 0.000835887 0.000859818 0.000892496 0.000937764 0.00100188 0.00109575
          0.00124015 0.00147992 0.00192874 0.00297032 0.0068306 0.06865
        </DataArray>
        <DataArray type="Float32" Name="K" NumberOfComponents="1" format="ascii">
          9.80409e-11 9.80407e-11 9.80404e-11 9.804e-11 9.80395e-11 9.80387e-11 9.80376e-11 9.8036e-11 9.80339e-11 9.8031e-11 9.8027e-11 9.80216e-11
          9.80141e-11 9.8004e-11 9.79904e-11 9.7972e-11 9.79474e-11 9.79142e-11 9.78695e-11 9.78091e-11 9.77266e-11 9.76124e-11 9.74509e-11 9.72148e-11
          9.65149e-11 9.59176e-11 9.48077e-11 9.22724e-11 8.36544e-11 1.11489e-11
        </DataArray>
        <DataArray type="Float32" Name="X^w_H2O" NumberOfComponents="1" format="ascii">
          0.999838 0.999838 0.999838 0.999839 0.999841 0.999848 0.999853 0.999853 0.999853 0.999853 0.999853 0.999853
          0.999853 0.999853 0.999853 0.999853 0.999853 0.999853 0.999853 0.999853 0.999853 0.999853 0.999853 0.999853
          0.999853 0.999852 0.99985 0.999846 0.999839 0.99984
        </DataArray>
        <DataArray type="Float32" Name="X^w_Air" NumberOfComponents="1" format="ascii">
          1.51901e-05 1.50653e-05 1.48704e-05 1.43535e-05 1.24517e-05 5.55861e-06 9.26219e-08 1.51795e-09 2.44547e-11 3.86887e-13 6.00495e-15 9.15155e-17
          1.37213e-18 2.01533e-20 2.91159e-22 4.11801e-24 5.70712e-26 7.75338e-28 1.03147e-29 1.34048e-31 1.69837e-33 2.08581e-35 2.45969e-37 0
          0 0 0 0 0 0
        </DataArray>
        <DataArray type="Float32" Name="X^w_AuComplex" NumberOfComponents="1" format="ascii">
          3.68799e-15 3.4279e-15 1.71585e-15 2.69931e-15 5.3238e-15 3.51348e-15 3.48513e-15 3.49517e-15 3.50475e-15 3.47796e-15 3.50271e-15 3.4992e-15
          3.50011e-15 3.49433e-15 3.49251e-15 3.50124e-15 3.5009e-15 3.49945e-15 3.498e-15 3.49758e-15 3.49714e-15 3.49562e-15 3.50898e-15 3.33709e-14
          6.94245e-11 1.08243e-10 1.85456e-10 3.63494e-10 1.45601e-14 1.41113e-14
        </DataArray>
        <DataArray type="Float32" Name="X^w_nanoAu" NumberOfComponents="1" format="ascii">
          4.68732e-17 -2.13217e-16 5.02142e-16 1.48561e-15 2.89638e-15 3.22839e-16 1.5651e-17 1.56959e-17 1.57371e-17 1.56181e-17 1.57282e-17 1.57122e-17
          1.57157e-17 1.56894e-17 1.56814e-17 1.57202e-17 1.57184e-17 1.57119e-17 1.57055e-17 1.5704e-17 1.57065e-17 1.60487e-17 4.81466e-17 3.00599e-15
          2.65607e-13 3.37244e-13 4.48105e-13 6.24145e-13 1.70346e-17 1.63386e-17
        </DataArray>
        <DataArray type="Float32" Name="X^w_cyanide" NumberOfComponents="1" format="ascii">
          5.08212e-06 5.08218e-06 5.08226e-06 5.08235e-06 5.08246e-06 5.08259e-06 5.08273e-06 5.08285e-06 5.08297e-06 5.08309e-06 5.08321e-06 5.08333e-06
          5.08343e-06 5.08353e-06 5.08361e-06 5.08366e-06 5.08368e-06 5.08365e-06 5.08356e-06 5.08336e-06 5.08301e-06 5.08242e-06 5.08146e-06 5.07986e-06
          5.07764e-06 6.45107e-06 8.59013e-06 1.22489e-05 1.9395e-05 1.89777e-05
        </DataArray>
        <DataArray type="Float32" Name="X^w_citrate" NumberOfComponents="1" format="ascii">
          0.000141794 0.000141794 0.000141794 0.000141794 0.000141794 0.000141795 0.000141796 0.000141796 0.000141796 0.000141796 0.000141796 0.000141796
          0.000141795 0.000141795 0.000141795 0.000141794 0.000141793 0.000141792 0.000141791 0.000141789 0.000141785 0.00014178 0.000141773 0.00014176
          0.00014174 0.000141705 0.000141634 0.00014147 0.000140956 0.000137922
        </DataArray>
        <DataArray type="Float32" Name="X^w_substrate" NumberOfComponents="1" format="ascii">
          7.97184e-12 1.1232e-11 1.58408e-11 2.2347e-11 3.1518e-11 4.42961e-11 6.15787e-11 8.61133e-11 1.2045e-10 1.68532e-10 2.35911e-10 3.30425e-10
          4.63183e-10 6.5e-10 9.13536e-10 1.28652e-09 1.81673e-09 2.57484e-09 3.66717e-09 5.25719e-09 7.60316e-09 1.11274e-08 1.65519e-08 2.51822e-08
          3.95633e-08 6.51804e-08 1.15652e-07 2.32646e-07 5.95902e-07 2.73566e-06
        </DataArray>
        <DataArray type="Float32" Name="m^w_H2O" NumberOfComponents="1" format="ascii">
          55491.7 55491.7 55491.7 55491.7 55491.8 55492.2 55492.5 55492.5 55492.5 55492.5 55492.5 55492.5
          55492.5 55492.4 55492.4 55492.4 55492.4 55492.4 55492.4 55492.4 55492.4 55492.4 55492.4 55492.4
          55492.3 55492.3 55492.1 55491.9 55491.5 55491.6
        </DataArray>
        <DataArray type="Float32" Name="m^w_Air" NumberOfComponents="1" format="ascii">
          0.524444 0.520134 0.513406 0.495561 0.429898 0.191913 0.0031978 5.24077e-05 8.44305e-07 1.33574e-08 2.07323e-10 3.1596e-12
          4.73731e-14 6.958e-16 1.00524e-17 1.42175e-19 1.9704e-21 2.67688e-23 3.56117e-25 4.62804e-27 5.86365e-29 7.20133e-31 8.49216e-33 9.43671e-35
          9.49887e-37 0 0 0 0 0
        </DataArray>
        <DataArray type="Float32" Name="m^w_AuComplex" NumberOfComponents="1" format="ascii">
          1.87209e-11 1.74006e-11 8.70994e-12 1.37022e-11 2.70245e-11 1.78351e-11 1.76912e-11 1.77421e-11 1.77907e-11 1.76547e-11 1.77804e-11 1.77626e-11
          1.77672e-11 1.77378e-11 1.77286e-11 1.77729e-11 1.77712e-11 1.77638e-11 1.77564e-11 1.77543e-11 1.77521e-11 1.77444e-11 1.78121e-11 1.69396e-10
          3.5241e-07 5.49456e-07 9.41405e-07 1.84516e-06 7.39095e-11 7.16313e-11
        </DataArray>
        <DataArray type="Float32" Name="m^w_nanoAu" NumberOfComponents="1" format="ascii">
          2.37937e-13 -1.08233e-12 2.54896e-12 7.54122e-12 1.47026e-11 1.63879e-12 7.94471e-14 7.96753e-14 7.98843e-14 7.92803e-14 7.98392e-14 7.97579e-14
          7.97754e-14 7.9642e-14 7.96015e-14 7.97981e-14 7.97895e-14 7.97561e-14 7.97236e-14 7.97162e-14 7.97286e-14 8.14658e-14 2.444e-13 1.52589e-11
          1.34826e-09 1.71191e-09 2.27465e-09 3.16826e-09 8.64705e-14 8.29372e-14
        </DataArray>
        <DataArray type="Float32" Name="m^w_cyanide" NumberOfComponents="1" format="ascii">
          0.195288 0.19529 0.195293 0.195296 0.1953 0.195306 0.195311 0.195316 0.19532 0.195325 0.195329 0.195334
          0.195338 0.195341 0.195344 0.195346 0.195347 0.195346 0.195342 0.195335 0.195321 0.195299 0.195261 0.1952
          0.195115 0.247891 0.330087 0.470677 0.745276 0.729243
        </DataArray>
        <DataArray type="Float32" Name="m^w_citrate" NumberOfComponents="1" format="ascii">
          0.749731 0.749731 0.749731 0.749731 0.749732 0.749737 0.749741 0.749741 0.749741 0.74974 0.749739 0.749739
          0.749738 0.749736 0.749734 0.749731 0.749727 0.749721 0.749713 0.749701 0.749683 0.749656 0.749616 0.749551
          0.749443 0.749256 0.748883 0.748014 0.745299 0.729254
        </DataArray>
        <DataArray type="Float32" Name="m^w_substrate" NumberOfComponents="1" format="ascii">
          4.42422e-08 6.23357e-08 8.79136e-08 1.24022e-07 1.74919e-07 2.45835e-07 3.4175e-07 4.77913e-07 6.68476e-07 9.35322e-07 1.30926e-06 1.8338e-06
          2.57058e-06 3.60737e-06 5.06995e-06 7.13995e-06 1.00825e-05 1.42899e-05 2.0352e-05 2.91763e-05 4.2196e-05 6.17551e-05 9.18595e-05 0.000139756
          0.000219568 0.000361738 0.000641845 0.00129114 0.00330713 0.0151824
        </DataArray>
        <DataArray type="Float32" Name="process rank" NumberOfComponents="1" format="ascii">
          0 0 0 0 0 0 0 0 0 0 0 0
          0 0 0 0 0 0 0 0 0 0 0 0
          0 0 0 0 0 0
        </DataArray>
      </CellData>
      <Points>
        <DataArray type="Float32" Name="Coordinates" NumberOfComponents="3" format="ascii">
          0 0 0 0.5 0 0 0 0.0333333 0 0.5 0.0333333 0
          0 0.0666667 0 0.5 0.0666667 0 0 0.1 0 0.5 0.1 0
          0 0.133333 0 0.5 0.133333 0 0 0.166667 0 0.5 0.166667 0
          0 0.2 0 0.5 0.2 0 0 0.233333 0 0.5 0.233333 0
          0 0.266667 0 0.5 0.266667 0 0 0.3 0 0.5 0.3 0
          0 0.333333 0 0.5 0.333333 0 0 0.366667 0 0.5 0.366667 0
          0 0.4 0 0.5 0.4 0 0 0.433333 0 0.5 0.433333 0
          0 0.466667 0 0.5 0.466667 0 0 0.5 0 0.5 0.5 0
          0 0.533333 0 0.5 0.533333 0 0 0.566667 0 0.5 0.566667 0
          0 0.6 0 0.5 0.6 0 0 0.633333 0 0.5 0.633333 0
          0 0.666667 0 0.5 0.666667 0 0 0.7 0 0.5 0.7 0
          0 0.733333 0 0.5 0.733333 0 0 0.766667 0 0.5 0.766667 0
          0 0.8 0 0.5 0.8 0 0 0.833333 0 0.5 0.833333 0
          0 0.866667 0 0.5 0.866667 0 0 0.9 0 0.5 0.9 0
          0 0.933333 0 0.5 0.933333 0 0 0.966667 0 0.5 0.966667 0
          0 1 0 0.5 1 0
        </DataArray>
      </Points>
      <Cells>
        <DataArray type="Int32" Name="connectivity" NumberOfComponents="1" format="ascii">
          0 1 3 2 2 3 5 4 4 5 7 6
          6 7 9 8 8 9 11 10 10 11 13 12
          12 13 15 14 14 15 17 16 16 17 19 18
          18 19 21 20 20 21 23 22 22 23 25 24
          24 25 27 26 26 27 29 28 28 29 31 30
          30 31 33 32 32 33 35 34 34 35 37 36
          36 37 39 38 38 39 41 40 40 41 43 42
          42 43 45 44 44 45 47 46 46 47 49 48
          48 49 51 50 50 51 53 52 52 53 55 54
          54 55 57 56 56 57 59 58 58 59 61 60
        </DataArray>
        <DataArray type="Int32" Name="offsets" NumberOfComponents="1" format="ascii">
          4 8 12 16 20 24 28 32 36 40 44 48
          52 56 60 64 68 72 76 80 84 88 92 96
          100 104 108 112 116 120
        </DataArray>
        <DataArray type="UInt8" Name="types" NumberOfComponents="1" format="ascii">
          9 9 9 9 9 9 9 9 9 9 9 9
          9 9 9 9 9 9 9 9 9 9 9 9
          9 9 9 9 9 9
        </DataArray>
      </Cells>
    </Piece>
  </UnstructuredGrid>
</VTKFile>
