<?xml version="1.0"?>
<VTKFile type="UnstructuredGrid" version="0.1" byte_order="LittleEndian">
  <UnstructuredGrid>
    <Piece NumberOfCells="30" NumberOfPoints="62">
      <CellData Scalars="Sg">
        <DataArray type="Float32" Name="Sg" NumberOfComponents="1" format="ascii">
          0 0 0 0 0 0 0 0 0 0 0 0
          0 0 0 0 0 0 0 0 0 0 0 0
          0 0 0 0 0 0
        </DataArray>
        <DataArray type="Float32" Name="Sl" NumberOfComponents="1" format="ascii">
          1 1 1 1 1 1 1 1 1 1 1 1
          1 1 1 1 1 1 1 1 1 1 1 1
          1 1 1 1 1 1
        </DataArray>
        <DataArray type="Float32" Name="pg" NumberOfComponents="1" format="ascii">
          24687.8 24360.9 24034 23707 23380.1 23053.1 22726.2 22399.3 22072.3 21745.4 21418.4 21091.5
          20764.6 20437.6 20110.7 19783.7 19456.8 19129.9 18802.9 18476 18149 17822.1 17495.1 17168.2
          16841.3 16514.3 16187.4 15860.4 15533.5 15208
        </DataArray>
        <DataArray type="Float32" Name="pl" NumberOfComponents="1" format="ascii">
          110628 110301 109974 109647 109320 108993 108666 108339 108012 107685 107358 107031
          106704 106377 106050 105723 105396 105070 104743 104416 104089 103762 103435 103108
          102781 102454 102127 101800 101473 101148
        </DataArray>
        <DataArray type="Float32" Name="pc" NumberOfComponents="1" format="ascii">
          -85939.7 -85939.7 -85939.7 -85939.7 -85939.7 -85939.7 -85939.7 -85939.7 -85939.7 -85939.7 -85939.7 -85939.7
          -85939.7 -85939.7 -85939.7 -85939.7 -85939.7 -85939.7 -85939.7 -85939.7 -85939.7 -85939.7 -85939.7 -85939.7
          -85939.7 -85939.7 -85939.7 -85939.7 -85939.7 -85939.7
        </DataArray>
        <DataArray type="Float32" Name="rhoL" NumberOfComponents="1" format="ascii">
          999.855 999.855 999.855 999.855 999.855 999.854 999.854 999.854 999.854 999.854 999.854 999.854
          999.853 999.853 999.853 999.853 999.853 999.853 999.852 999.852 999.852 999.852 999.852 999.852
          999.852 999.851 999.851 999.851 999.851 999.851
        </DataArray>
        <DataArray type="Float32" Name="rhoG" NumberOfComponents="1" format="ascii">
          0.30585 0.3018 0.29775 0.293699 0.289649 0.285598 0.281548 0.277498 0.273447 0.269397 0.265347 0.261296
          0.257246 0.253195 0.249145 0.245095 0.241044 0.236994 0.232944 0.228893 0.224843 0.220793 0.216742 0.212692
          0.208641 0.204591 0.200541 0.19649 0.19244 0.188408
        </DataArray>
        <DataArray type="Float32" Name="mobL" NumberOfComponents="1" format="ascii">
          722.171 722.17 722.17 722.17 722.17 722.17 722.169 722.169 722.169 722.169 722.169 722.169
          722.168 722.168 722.168 722.168 722.168 722.167 722.167 722.167 722.167 722.167 722.166 722.166
          722.166 722.166 722.166 722.166 722.165 722.165
        </DataArray>
        <DataArray type="Float32" Name="mobG" NumberOfComponents="1" format="ascii">
          0 0 0 0 0 0 0 0 0 0 0 0
          0 0 0 0 0 0 0 0 0 0 0 0
          0 0 0 0 0 0
        </DataArray>
        <DataArray type="Float32" Name="porosity" NumberOfComponents="1" format="ascii">
          0.298587 0.298587 0.298586 0.298586 0.298586 0.298585 0.298584 0.298583 0.298582 0.29858 0.298577 0.298573
          0.298567 0.29856 0.29855 0.298536 0.298518 0.298493 0.29846 0.298415 0.298353 0.298267 0.298144 0.297963
          0.297411 0.296933 0.296007 0.29371 0.283976 0.0569617
        </DataArray>
        <DataArray type="Float32" Name="temperature" NumberOfComponents="1" format="ascii">
          281.15 281.15 281.15 281.15 281.15 281.15 281.15 281.15 281.15 281.15 281.15 281.15
          281.15 281.15 281.15 281.15 281.15 281.15 281.15 281.15 281.15 281.15 281.15 281.15
          281.15 281.15 281.15 281.15 281.15 281.15
        </DataArray>
        <DataArray type="Float32" Name="phase presence" NumberOfComponents="1" format="ascii">
          1 1 1 1 1 1 1 1 1 1 1 1
          1 1 1 1 1 1 1 1 1 1 1 1
          1 1 1 1 1 1
        </DataArray>
        <DataArray type="Float32" Name="precipitateVolumeFraction_au" NumberOfComponents="1" format="ascii">
          5.52475e-10 5.52762e-10 5.52557e-10 5.52715e-10 5.52723e-10 5.52762e-10 5.52728e-10 5.5274e-10 5.52757e-10 5.52696e-10 5.52754e-10 5.52747e-10
          5.52749e-10 5.52719e-10 5.52704e-10 5.5276e-10 5.52761e-10 5.52749e-10 5.52735e-10 5.5273e-10 5.52728e-10 5.52704e-10 5.52843e-10 8.64634e-10
          0.00026994 0.000269924 0.000269899 0.000269853 5.52274e-10 5.51279e-10
        </DataArray>
        <DataArray type="Float32" Name="precipitateVolumeFraction_nanoAu" NumberOfComponents="1" format="ascii">
          1.24919e-13 1.25297e-13 1.25117e-13 1.25252e-13 1.25261e-13 1.25287e-13 1.25265e-13 1.25271e-13 1.25278e-13 1.25251e-13 1.25274e-13 1.25269e-13
          1.25269e-13 1.25258e-13 1.25252e-13 1.25266e-13 1.25264e-13 1.25257e-13 1.2525e-13 1.25244e-13 1.25236e-13 1.25237e-13 1.37167e-13 2.58068e-11
          6.04058e-08 7.67309e-08 1.0219e-07 1.45582e-07 4.75432e-13 4.67815e-13
        </DataArray>
        <DataArray type="Float32" Name="precipitateVolumeFraction_d" NumberOfComponents="1" format="ascii">
          0.00070657 0.000706645 0.00070675 0.000706897 0.000707103 0.000707392 0.000707794 0.000708354 0.000709129 0.000710199 0.000711669 0.000713681
          0.000716422 0.000720142 0.000725173 0.000731959 0.000741098 0.000753405 0.000770018 0.000792564 0.000823462 0.000866471 0.000927777 0.00101833
          0.00115946 0.00139854 0.00186161 0.0030102 0.00801192 0.121519
        </DataArray>
        <DataArray type="Float32" Name="precipitateVolumeFraction_p" NumberOfComponents="1" format="ascii">
          0.00070657 0.000706645 0.00070675 0.000706897 0.000707103 0.000707392 0.000707794 0.000708354 0.000709129 0.000710199 0.000711669 0.000713681
          0.000716422 0.000720142 0.000725173 0.000731959 0.000741098 0.000753405 0.000770018 0.000792564 0.000823462 0.000866471 0.000927777 0.00101833
          0.00115946 0.00139854 0.00186161 0.0030102 0.00801192 0.121519
        </DataArray>
        <DataArray type="Float32" Name="K" NumberOfComponents="1" format="ascii">
          9.81966e-11 9.81964e-11 9.81962e-11 9.81958e-11 9.81953e-11 9.81945e-11 9.81935e-11 9.81921e-11 9.81902e-11 9.81874e-11 9.81837e-11 9.81786e-11
          9.81717e-11 9.81623e-11 9.81495e-11 9.81323e-11 9.81092e-11 9.8078e-11 9.8036e-11 9.7979e-11 9.79009e-11 9.77923e-11 9.76376e-11 9.74095e-11
          9.67166e-11 9.612e-11 9.4973e-11 9.21765e-11 8.10631e-11 3.77157e-13
        </DataArray>
        <DataArray type="Float32" Name="X^w_H2O" NumberOfComponents="1" format="ascii">
          0.999853 0.999853 0.999853 0.999853 0.999853 0.999853 0.999853 0.999853 0.999853 0.999853 0.999853 0.999853
          0.999853 0.999853 0.999853 0.999853 0.999853 0.999853 0.999853 0.999853 0.999853 0.999853 0.999853 0.999853
          0.999853 0.999852 0.99985 0.999846 0.999839 0.99984
        </DataArray>
        <DataArray type="Float32" Name="X^w_Air" NumberOfComponents="1" format="ascii">
          0 0 0 0 0 0 0 0 0 0 0 0
          0 0 0 0 0 0 0 0 0 0 0 0
          0 0 0 0 0 0
        </DataArray>
        <DataArray type="Float32" Name="X^w_AuComplex" NumberOfComponents="1" format="ascii">
          1.42399e-16 1.42773e-16 1.4259e-16 1.42726e-16 1.42733e-16 1.42759e-16 1.42735e-16 1.42741e-16 1.42747e-16 1.42718e-16 1.4274e-16 1.42735e-16
          1.42733e-16 1.42719e-16 1.42711e-16 1.42725e-16 1.42721e-16 1.42711e-16 1.42699e-16 1.42687e-16 1.42672e-16 1.42662e-16 1.5607e-16 2.94281e-14
          6.89145e-11 1.07479e-10 1.84536e-10 3.64069e-10 1.83938e-15 1.78775e-15
        </DataArray>
        <DataArray type="Float32" Name="X^w_nanoAu" NumberOfComponents="1" format="ascii">
          5.44087e-19 5.45707e-19 5.44937e-19 5.4552e-19 5.45557e-19 5.4567e-19 5.45577e-19 5.45603e-19 5.45631e-19 5.45516e-19 5.45613e-19 5.45594e-19
          5.4559e-19 5.45542e-19 5.45516e-19 5.45577e-19 5.45564e-19 5.45534e-19 5.45498e-19 5.45506e-19 5.49163e-19 8.91415e-19 3.25757e-17 2.96096e-15
          2.63815e-13 3.353e-13 4.46788e-13 6.26516e-13 2.06378e-18 1.98441e-18
        </DataArray>
        <DataArray type="Float32" Name="X^w_cyanide" NumberOfComponents="1" format="ascii">
          5.07428e-06 5.07424e-06 5.0742e-06 5.07416e-06 5.07413e-06 5.07409e-06 5.07405e-06 5.07402e-06 5.07398e-06 5.07394e-06 5.0739e-06 5.07385e-06
          5.0738e-06 5.07375e-06 5.07369e-06 5.07361e-06 5.07352e-06 5.07341e-06 5.07326e-06 5.07307e-06 5.07279e-06 5.0724e-06 5.07183e-06 5.07096e-06
          5.07003e-06 6.43992e-06 8.57543e-06 1.22391e-05 1.94543e-05 1.92101e-05
        </DataArray>
        <DataArray type="Float32" Name="X^w_citrate" NumberOfComponents="1" format="ascii">
          0.000141796 0.000141796 0.000141796 0.000141796 0.000141796 0.000141796 0.000141796 0.000141796 0.000141796 0.000141796 0.000141796 0.000141796
          0.000141796 0.000141795 0.000141795 0.000141795 0.000141795 0.000141794 0.000141793 0.000141792 0.00014179 0.000141787 0.000141784 0.000141777
          0.000141767 0.000141751 0.000141717 0.000141639 0.000141383 0.000139609
        </DataArray>
        <DataArray type="Float32" Name="X^w_substrate" NumberOfComponents="1" format="ascii">
          6.22533e-12 8.57595e-12 1.18135e-11 1.62727e-11 2.24145e-11 3.08744e-11 4.25287e-11 5.85865e-11 8.07182e-11 1.11235e-10 1.53339e-10 2.11484e-10
          2.9188e-10 4.0323e-10 5.57811e-10 7.73081e-10 1.07413e-09 1.4975e-09 2.09738e-09 2.95583e-09 4.20072e-09 6.03838e-09 8.81724e-09 1.31611e-08
          2.02765e-08 3.27565e-08 5.70732e-08 1.13466e-07 2.94714e-07 1.54607e-06
        </DataArray>
        <DataArray type="Float32" Name="m^w_H2O" NumberOfComponents="1" format="ascii">
          55492.6 55492.6 55492.5 55492.5 55492.5 55492.5 55492.5 55492.5 55492.5 55492.5 55492.5 55492.5
          55492.5 55492.4 55492.4 55492.4 55492.4 55492.4 55492.4 55492.4 55492.4 55492.4 55492.4 55492.4
          55492.3 55492.3 55492.1 55491.9 55491.5 55491.6
        </DataArray>
        <DataArray type="Float32" Name="m^w_Air" NumberOfComponents="1" format="ascii">
          0 0 0 0 0 0 0 0 0 0 0 0
          0 0 0 0 0 0 0 0 0 0 0 0
          0 0 0 0 0 0
        </DataArray>
        <DataArray type="Float32" Name="m^w_AuComplex" NumberOfComponents="1" format="ascii">
          7.22841e-13 7.2474e-13 7.23812e-13 7.245e-13 7.24537e-13 7.24668e-13 7.2455e-13 7.24577e-13 7.24608e-13 7.24459e-13 7.24575e-13 7.24545e-13
          7.24535e-13 7.24468e-13 7.24427e-13 7.24498e-13 7.24473e-13 7.24423e-13 7.24361e-13 7.24302e-13 7.24225e-13 7.24174e-13 7.92237e-13 1.49382e-10
          3.49821e-07 5.45578e-07 9.36733e-07 1.84807e-06 9.33697e-12 9.0749e-12
        </DataArray>
        <DataArray type="Float32" Name="m^w_nanoAu" NumberOfComponents="1" format="ascii">
          2.76188e-15 2.77011e-15 2.7662e-15 2.76916e-15 2.76935e-15 2.76992e-15 2.76944e-15 2.76958e-15 2.76972e-15 2.76914e-15 2.76963e-15 2.76953e-15
          2.76951e-15 2.76926e-15 2.76913e-15 2.76944e-15 2.76938e-15 2.76922e-15 2.76904e-15 2.76908e-15 2.78764e-15 4.52497e-15 1.65359e-13 1.50303e-11
          1.33917e-09 1.70204e-09 2.26796e-09 3.1803e-09 1.04761e-14 1.00732e-14
        </DataArray>
        <DataArray type="Float32" Name="m^w_cyanide" NumberOfComponents="1" format="ascii">
          0.194986 0.194985 0.194983 0.194982 0.19498 0.194979 0.194977 0.194976 0.194974 0.194973 0.194971 0.19497
          0.194968 0.194966 0.194963 0.19496 0.194957 0.194952 0.194947 0.194939 0.194929 0.194914 0.194892 0.194858
          0.194822 0.247462 0.329522 0.470301 0.747554 0.738173
        </DataArray>
        <DataArray type="Float32" Name="m^w_citrate" NumberOfComponents="1" format="ascii">
          0.749742 0.749742 0.749742 0.749742 0.749742 0.749742 0.749741 0.749741 0.749741 0.74974 0.74974 0.749739
          0.749739 0.749738 0.749737 0.749735 0.749732 0.749729 0.749725 0.749718 0.749709 0.749695 0.749674 0.749641
          0.749587 0.749499 0.749323 0.748907 0.747557 0.738174
        </DataArray>
        <DataArray type="Float32" Name="m^w_substrate" NumberOfComponents="1" format="ascii">
          3.45495e-08 4.7595e-08 6.55629e-08 9.03105e-08 1.24396e-07 1.71347e-07 2.36026e-07 3.25144e-07 4.47971e-07 6.17332e-07 8.51005e-07 1.1737e-06
          1.61988e-06 2.23785e-06 3.09574e-06 4.29045e-06 5.96121e-06 8.31086e-06 1.164e-05 1.64043e-05 2.33131e-05 3.35118e-05 4.89339e-05 7.30414e-05
          0.000112531 0.000181792 0.000316744 0.000629714 0.0016356 0.00858038
        </DataArray>
        <DataArray type="Float32" Name="process rank" NumberOfComponents="1" format="ascii">
          0 0 0 0 0 0 0 0 0 0 0 0
          0 0 0 0 0 0 0 0 0 0 0 0
          0 0 0 0 0 0
        </DataArray>
      </CellData>
      <Points>
        <DataArray type="Float32" Name="Coordinates" NumberOfComponents="3" format="ascii">
          0 0 0 0.5 0 0 0 0.0333333 0 0.5 0.0333333 0
          0 0.0666667 0 0.5 0.0666667 0 0 0.1 0 0.5 0.1 0
          0 0.133333 0 0.5 0.133333 0 0 0.166667 0 0.5 0.166667 0
          0 0.2 0 0.5 0.2 0 0 0.233333 0 0.5 0.233333 0
          0 0.266667 0 0.5 0.266667 0 0 0.3 0 0.5 0.3 0
          0 0.333333 0 0.5 0.333333 0 0 0.366667 0 0.5 0.366667 0
          0 0.4 0 0.5 0.4 0 0 0.433333 0 0.5 0.433333 0
          0 0.466667 0 0.5 0.466667 0 0 0.5 0 0.5 0.5 0
          0 0.533333 0 0.5 0.533333 0 0 0.566667 0 0.5 0.566667 0
          0 0.6 0 0.5 0.6 0 0 0.633333 0 0.5 0.633333 0
          0 0.666667 0 0.5 0.666667 0 0 0.7 0 0.5 0.7 0
          0 0.733333 0 0.5 0.733333 0 0 0.766667 0 0.5 0.766667 0
          0 0.8 0 0.5 0.8 0 0 0.833333 0 0.5 0.833333 0
          0 0.866667 0 0.5 0.866667 0 0 0.9 0 0.5 0.9 0
          0 0.933333 0 0.5 0.933333 0 0 0.966667 0 0.5 0.966667 0
          0 1 0 0.5 1 0
        </DataArray>
      </Points>
      <Cells>
        <DataArray type="Int32" Name="connectivity" NumberOfComponents="1" format="ascii">
          0 1 3 2 2 3 5 4 4 5 7 6
          6 7 9 8 8 9 11 10 10 11 13 12
          12 13 15 14 14 15 17 16 16 17 19 18
          18 19 21 20 20 21 23 22 22 23 25 24
          24 25 27 26 26 27 29 28 28 29 31 30
          30 31 33 32 32 33 35 34 34 35 37 36
          36 37 39 38 38 39 41 40 40 41 43 42
          42 43 45 44 44 45 47 46 46 47 49 48
          48 49 51 50 50 51 53 52 52 53 55 54
          54 55 57 56 56 57 59 58 58 59 61 60
        </DataArray>
        <DataArray type="Int32" Name="offsets" NumberOfComponents="1" format="ascii">
          4 8 12 16 20 24 28 32 36 40 44 48
          52 56 60 64 68 72 76 80 84 88 92 96
          100 104 108 112 116 120
        </DataArray>
        <DataArray type="UInt8" Name="types" NumberOfComponents="1" format="ascii">
          9 9 9 9 9 9 9 9 9 9 9 9
          9 9 9 9 9 9 9 9 9 9 9 9
          9 9 9 9 9 9
        </DataArray>
      </Cells>
    </Piece>
  </UnstructuredGrid>
</VTKFile>
