<?xml version="1.0"?>
<VTKFile type="UnstructuredGrid" version="0.1" byte_order="LittleEndian">
  <UnstructuredGrid>
    <Piece NumberOfCells="30" NumberOfPoints="62">
      <CellData Scalars="Sg">
        <DataArray type="Float32" Name="Sg" NumberOfComponents="1" format="ascii">
          0.0928659 0.0928352 0.0928043 0.0927733 0.0927422 0.092711 0.0926793 0.092645 0.092599 0.0925004 0.092169 0.0908188
          0.0851005 0.0619791 0 0 0 0 0 0 0 0 0 0
          0 0 0 0 0 0
        </DataArray>
        <DataArray type="Float32" Name="Sl" NumberOfComponents="1" format="ascii">
          0.907134 0.907165 0.907196 0.907227 0.907258 0.907289 0.907321 0.907355 0.907401 0.9075 0.907831 0.909181
          0.9149 0.938021 1 1 1 1 1 1 1 1 1 1
          1 1 1 1 1 1
        </DataArray>
        <DataArray type="Float32" Name="pg" NumberOfComponents="1" format="ascii">
          51290.7 50955 50619.2 50283.4 49947.5 49611.7 49275.6 48938.9 48598.7 48243.6 47821.7 47107.9
          45142.9 38192.5 20110.7 19783.7 19456.8 19129.8 18802.9 18476 18149 17822.1 17495.1 17168.2
          16841.3 16514.3 16187.4 15860.4 15533.5 15206.6
        </DataArray>
        <DataArray type="Float32" Name="pl" NumberOfComponents="1" format="ascii">
          110628 110301 109974 109647 109320 108993 108666 108339 108012 107685 107358 107031
          106704 106377 106050 105723 105396 105070 104743 104416 104089 103762 103435 103108
          102781 102454 102127 101800 101473 101146
        </DataArray>
        <DataArray type="Float32" Name="pc" NumberOfComponents="1" format="ascii">
          -59336.8 -59345.6 -59354.4 -59363.3 -59372.2 -59381.2 -59390.3 -59400.1 -59413.2 -59441.5 -59536.4 -59923.2
          -61561.3 -68184.8 -85939.7 -85939.7 -85939.7 -85939.7 -85939.7 -85939.7 -85939.7 -85939.7 -85939.7 -85939.7
          -85939.7 -85939.7 -85939.7 -85939.7 -85939.7 -85939.7
        </DataArray>
        <DataArray type="Float32" Name="rhoL" NumberOfComponents="1" format="ascii">
          999.855 999.855 999.855 999.855 999.855 999.854 999.854 999.854 999.854 999.854 999.854 999.854
          999.853 999.853 999.853 999.853 999.853 999.853 999.852 999.852 999.852 999.852 999.852 999.852
          999.852 999.851 999.851 999.851 999.851 999.851
        </DataArray>
        <DataArray type="Float32" Name="rhoG" NumberOfComponents="1" format="ascii">
          0.635425 0.631266 0.627106 0.622946 0.618785 0.614624 0.610461 0.606289 0.602075 0.597675 0.592449 0.583606
          0.559262 0.473155 0.249145 0.245095 0.241044 0.236994 0.232944 0.228893 0.224843 0.220793 0.216742 0.212692
          0.208641 0.204591 0.200541 0.19649 0.19244 0.18839
        </DataArray>
        <DataArray type="Float32" Name="mobL" NumberOfComponents="1" format="ascii">
          722.171 722.17 722.17 722.17 722.17 722.17 722.169 722.169 722.169 722.169 722.169 722.169
          722.168 722.168 722.168 722.168 722.168 722.167 722.167 722.167 722.167 722.167 722.166 722.166
          722.166 722.166 722.166 722.166 722.165 722.165
        </DataArray>
        <DataArray type="Float32" Name="mobG" NumberOfComponents="1" format="ascii">
          0 0 0 0 0 0 0 0 0 0 0 0
          0 0 0 0 0 0 0 0 0 0 0 0
          0 0 0 0 0 0
        </DataArray>
        <DataArray type="Float32" Name="porosity" NumberOfComponents="1" format="ascii">
          0.298435 0.298435 0.298435 0.298434 0.298434 0.298433 0.298432 0.298431 0.298429 0.298427 0.298424 0.298419
          0.298414 0.298405 0.298395 0.29838 0.29836 0.298334 0.298298 0.29825 0.298184 0.298093 0.297965 0.297779
          0.297223 0.296755 0.295893 0.293962 0.287667 0.212205
        </DataArray>
        <DataArray type="Float32" Name="temperature" NumberOfComponents="1" format="ascii">
          281.15 281.15 281.15 281.15 281.15 281.15 281.15 281.15 281.15 281.15 281.15 281.15
          281.15 281.15 281.15 281.15 281.15 281.15 281.15 281.15 281.15 281.15 281.15 281.15
          281.15 281.15 281.15 281.15 281.15 281.15
        </DataArray>
        <DataArray type="Float32" Name="phase presence" NumberOfComponents="1" format="ascii">
          3 3 3 3 3 3 3 3 3 3 3 3
          3 3 1 1 1 1 1 1 1 1 1 1
          1 1 1 1 1 1
        </DataArray>
        <DataArray type="Float32" Name="precipitateVolumeFraction_au" NumberOfComponents="1" format="ascii">
          5.33267e-10 5.33266e-10 5.33267e-10 5.33269e-10 5.33271e-10 5.33273e-10 5.33274e-10 5.33276e-10 5.33277e-10 5.33278e-10 5.33279e-10 5.3328e-10
          5.33281e-10 5.33282e-10 5.33282e-10 5.33287e-10 5.3329e-10 5.33286e-10 5.3328e-10 5.33277e-10 5.33276e-10 5.33259e-10 5.33282e-10 5.98995e-10
          0.000269938 0.000269922 0.000269898 0.000269858 5.329e-10 5.32032e-10
        </DataArray>
        <DataArray type="Float32" Name="precipitateVolumeFraction_nanoAu" NumberOfComponents="1" format="ascii">
          1.96117e-11 1.96092e-11 1.96072e-11 1.96049e-11 1.96031e-11 1.96013e-11 1.95993e-11 1.95979e-11 1.95961e-11 1.95943e-11 1.95928e-11 1.95915e-11
          1.95901e-11 1.95881e-11 1.95475e-11 1.95978e-11 1.95959e-11 1.95876e-11 1.95796e-11 1.95781e-11 1.9577e-11 1.95706e-11 1.9584e-11 4.66177e-11
          6.24612e-08 7.85793e-08 1.02899e-07 1.42195e-07 1.98491e-11 1.97458e-11
        </DataArray>
        <DataArray type="Float32" Name="precipitateVolumeFraction_d" NumberOfComponents="1" format="ascii">
          0.000782521 0.000782602 0.000782716 0.000782876 0.000783101 0.000783415 0.000783853 0.000784462 0.000785306 0.00078647 0.000788069 0.000790255
          0.000793232 0.000797267 0.000802718 0.000810058 0.000819921 0.000833169 0.000850992 0.00087508 0.00090791 0.00095328 0.00101733 0.00111067
          0.00125329 0.00148765 0.00191852 0.00288388 0.00616625 0.0438973
        </DataArray>
        <DataArray type="Float32" Name="precipitateVolumeFraction_p" NumberOfComponents="1" format="ascii">
          0.000782521 0.000782602 0.000782716 0.000782876 0.000783101 0.000783415 0.000783853 0.000784462 0.000785306 0.00078647 0.000788069 0.000790255
          0.000793232 0.000797267 0.000802718 0.000810058 0.000819921 0.000833169 0.000850992 0.00087508 0.00090791 0.00095328 0.00101733 0.00111067
          0.00125329 0.00148765 0.00191852 0.00288388 0.00616625 0.0438973
        </DataArray>
        <DataArray type="Float32" Name="K" NumberOfComponents="1" format="ascii">
          9.80044e-11 9.80042e-11 9.80039e-11 9.80035e-11 9.80029e-11 9.80021e-11 9.8001e-11 9.79995e-11 9.79973e-11 9.79944e-11 9.79904e-11 9.79848e-11
          9.79773e-11 9.79671e-11 9.79533e-11 9.79348e-11 9.79098e-11 9.78764e-11 9.78313e-11 9.77705e-11 9.76877e-11 9.75733e-11 9.7412e-11 9.71773e-11
          9.64821e-11 9.58984e-11 9.48329e-11 9.24807e-11 8.51411e-11 2.79431e-11
        </DataArray>
        <DataArray type="Float32" Name="X^w_H2O" NumberOfComponents="1" format="ascii">
          0.999837 0.999838 0.999838 0.999838 0.999838 0.999838 0.999838 0.999838 0.999838 0.999838 0.999839 0.999839
          0.999839 0.999842 0.999849 0.999853 0.999853 0.999853 0.999853 0.999853 0.999853 0.999853 0.999853 0.999853
          0.999853 0.999852 0.99985 0.999846 0.999839 0.999841
        </DataArray>
        <DataArray type="Float32" Name="X^w_Air" NumberOfComponents="1" format="ascii">
          1.55662e-05 1.54621e-05 1.5358e-05 1.52539e-05 1.51498e-05 1.50457e-05 1.49416e-05 1.48372e-05 1.47317e-05 1.46216e-05 1.44909e-05 1.42696e-05
          1.36605e-05 1.15061e-05 4.35341e-06 6.22909e-08 8.73348e-10 1.20132e-11 1.62139e-13 2.14119e-15 2.76726e-17 3.48623e-19 4.25737e-21 4.99007e-23
          5.45863e-25 5.71763e-27 5.28915e-29 3.78972e-31 1.36022e-33 0
        </DataArray>
        <DataArray type="Float32" Name="X^w_AuComplex" NumberOfComponents="1" format="ascii">
          1.90278e-14 1.906e-14 1.94895e-14 1.86033e-14 1.89742e-14 1.90362e-14 1.93163e-14 1.9765e-14 1.77501e-14 1.94235e-14 1.7943e-14 1.88244e-14
          1.8695e-14 2.19744e-14 1.89774e-14 1.90147e-14 1.90019e-14 1.89838e-14 1.89666e-14 1.89558e-14 1.89454e-14 1.89291e-14 1.89323e-14 4.97246e-14
          7.10361e-11 1.10412e-10 1.873e-10 3.58596e-10 7.27902e-14 7.00199e-14
        </DataArray>
        <DataArray type="Float32" Name="X^w_nanoAu" NumberOfComponents="1" format="ascii">
          -3.91431e-16 -3.593e-16 7.0208e-17 3.97728e-16 -4.45083e-16 -3.83024e-16 -1.03006e-16 -8.68016e-16 -4.55454e-16 4.27804e-18 -2.62516e-16 -5.94851e-16
          4.89382e-16 2.5551e-15 -2.97659e-15 8.5392e-17 8.53823e-17 8.53452e-17 8.5309e-17 8.52999e-17 8.52951e-17 8.562e-17 1.18615e-16 3.15692e-15
          2.72626e-13 3.43014e-13 4.49024e-13 6.10121e-13 8.55677e-17 8.14623e-17
        </DataArray>
        <DataArray type="Float32" Name="X^w_cyanide" NumberOfComponents="1" format="ascii">
          5.19657e-06 5.18642e-06 5.17714e-06 5.16865e-06 5.16089e-06 5.1538e-06 5.14732e-06 5.1414e-06 5.13601e-06 5.13108e-06 5.12659e-06 5.1225e-06
          5.11876e-06 5.11534e-06 5.11218e-06 5.10906e-06 5.10612e-06 5.10341e-06 5.10085e-06 5.09837e-06 5.09585e-06 5.09313e-06 5.08994e-06 5.08581e-06
          5.08039e-06 6.47959e-06 8.64983e-06 1.23211e-05 1.9311e-05 1.86762e-05
        </DataArray>
        <DataArray type="Float32" Name="X^w_citrate" NumberOfComponents="1" format="ascii">
          0.000141794 0.000141794 0.000141794 0.000141794 0.000141794 0.000141794 0.000141794 0.000141794 0.000141794 0.000141794 0.000141793 0.000141793
          0.000141793 0.000141793 0.000141793 0.000141793 0.000141791 0.00014179 0.000141787 0.000141783 0.000141777 0.000141768 0.000141754 0.000141733
          0.000141697 0.000141634 0.00014151 0.000141225 0.000140364 0.000135739
        </DataArray>
        <DataArray type="Float32" Name="X^w_substrate" NumberOfComponents="1" format="ascii">
          1.41581e-11 1.98476e-11 2.78331e-11 3.90345e-11 5.47553e-11 7.68302e-11 1.07831e-10 1.51382e-10 2.12596e-10 2.98699e-10 4.19931e-10 5.90862e-10
          8.32196e-10 1.17281e-09 1.64959e-09 2.31678e-09 3.26189e-09 4.61028e-09 6.54939e-09 9.36718e-09 1.35185e-08 1.97468e-08 2.9322e-08 4.45383e-08
          6.98558e-08 1.14841e-07 2.03025e-07 4.05077e-07 1.01388e-06 4.2751e-06
        </DataArray>
        <DataArray type="Float32" Name="m^w_H2O" NumberOfComponents="1" format="ascii">
          55491.7 55491.7 55491.7 55491.7 55491.7 55491.7 55491.7 55491.7 55491.7 55491.7 55491.7 55491.7
          55491.7 55491.8 55492.2 55492.4 55492.4 55492.4 55492.4 55492.4 55492.4 55492.4 55492.4 55492.4
          55492.3 55492.3 55492.1 55491.9 55491.5 55491.6
        </DataArray>
        <DataArray type="Float32" Name="m^w_Air" NumberOfComponents="1" format="ascii">
          0.537428 0.533835 0.530242 0.526648 0.523054 0.519459 0.515863 0.512259 0.508619 0.504817 0.500302 0.492664
          0.471634 0.397251 0.150303 0.00215061 3.01526e-05 4.14759e-07 5.59789e-09 7.39253e-11 9.55405e-13 1.20363e-14 1.46987e-16 1.72284e-18
          1.88461e-20 1.97402e-22 1.82609e-24 1.30841e-26 4.69619e-29 1.46443e-34
        </DataArray>
        <DataArray type="Float32" Name="m^w_AuComplex" NumberOfComponents="1" format="ascii">
          9.65887e-11 9.67518e-11 9.8932e-11 9.44336e-11 9.63163e-11 9.66313e-11 9.80527e-11 1.0033e-10 9.01026e-11 9.85973e-11 9.1082e-11 9.5556e-11
          9.48988e-11 1.11546e-10 9.63327e-11 9.6522e-11 9.64569e-11 9.63651e-11 9.62775e-11 9.6223e-11 9.617e-11 9.60872e-11 9.61034e-11 2.5241e-10
          3.60591e-07 5.6047e-07 9.50766e-07 1.82029e-06 3.69495e-10 3.55432e-10
        </DataArray>
        <DataArray type="Float32" Name="m^w_nanoAu" NumberOfComponents="1" format="ascii">
          -1.98698e-12 -1.82387e-12 3.56388e-13 2.01894e-12 -2.25932e-12 -1.94429e-12 -5.22878e-13 -4.4062e-12 -2.31196e-12 2.17161e-14 -1.33258e-12 -3.01957e-12
          2.48419e-12 1.29701e-11 -1.51097e-11 4.33464e-13 4.33415e-13 4.33227e-13 4.33043e-13 4.32996e-13 4.32972e-13 4.34621e-13 6.02109e-13 1.60251e-11
          1.38389e-09 1.74119e-09 2.27932e-09 3.09707e-09 4.34355e-13 4.13515e-13
        </DataArray>
        <DataArray type="Float32" Name="m^w_cyanide" NumberOfComponents="1" format="ascii">
          0.199686 0.199296 0.198939 0.198613 0.198314 0.198042 0.197793 0.197566 0.197358 0.197169 0.196996 0.196839
          0.196695 0.196564 0.196442 0.196322 0.196209 0.196105 0.196007 0.195911 0.195815 0.19571 0.195587 0.195429
          0.19522 0.248986 0.332381 0.473455 0.742049 0.717655
        </DataArray>
        <DataArray type="Float32" Name="m^w_citrate" NumberOfComponents="1" format="ascii">
          0.749731 0.749731 0.749731 0.749731 0.749731 0.74973 0.74973 0.74973 0.749729 0.749728 0.749727 0.749726
          0.749725 0.749724 0.749725 0.749723 0.749716 0.749706 0.749691 0.74967 0.749639 0.749592 0.74952 0.749406
          0.749216 0.748884 0.748229 0.746721 0.742165 0.71771
        </DataArray>
        <DataArray type="Float32" Name="m^w_substrate" NumberOfComponents="1" format="ascii">
          7.85751e-08 1.1015e-07 1.54468e-07 2.16634e-07 3.03882e-07 4.26393e-07 5.9844e-07 8.40143e-07 1.17987e-06 1.65772e-06 2.33053e-06 3.27917e-06
          4.61853e-06 6.50885e-06 9.15489e-06 1.28577e-05 1.81028e-05 2.55862e-05 3.63478e-05 5.1986e-05 7.50248e-05 0.000109591 0.000162731 0.000247179
          0.000387686 0.000637346 0.00112675 0.0022481 0.00562683 0.0237259
        </DataArray>
        <DataArray type="Float32" Name="process rank" NumberOfComponents="1" format="ascii">
          0 0 0 0 0 0 0 0 0 0 0 0
          0 0 0 0 0 0 0 0 0 0 0 0
          0 0 0 0 0 0
        </DataArray>
      </CellData>
      <Points>
        <DataArray type="Float32" Name="Coordinates" NumberOfComponents="3" format="ascii">
          0 0 0 0.5 0 0 0 0.0333333 0 0.5 0.0333333 0
          0 0.0666667 0 0.5 0.0666667 0 0 0.1 0 0.5 0.1 0
          0 0.133333 0 0.5 0.133333 0 0 0.166667 0 0.5 0.166667 0
          0 0.2 0 0.5 0.2 0 0 0.233333 0 0.5 0.233333 0
          0 0.266667 0 0.5 0.266667 0 0 0.3 0 0.5 0.3 0
          0 0.333333 0 0.5 0.333333 0 0 0.366667 0 0.5 0.366667 0
          0 0.4 0 0.5 0.4 0 0 0.433333 0 0.5 0.433333 0
          0 0.466667 0 0.5 0.466667 0 0 0.5 0 0.5 0.5 0
          0 0.533333 0 0.5 0.533333 0 0 0.566667 0 0.5 0.566667 0
          0 0.6 0 0.5 0.6 0 0 0.633333 0 0.5 0.633333 0
          0 0.666667 0 0.5 0.666667 0 0 0.7 0 0.5 0.7 0
          0 0.733333 0 0.5 0.733333 0 0 0.766667 0 0.5 0.766667 0
          0 0.8 0 0.5 0.8 0 0 0.833333 0 0.5 0.833333 0
          0 0.866667 0 0.5 0.866667 0 0 0.9 0 0.5 0.9 0
          0 0.933333 0 0.5 0.933333 0 0 0.966667 0 0.5 0.966667 0
          0 1 0 0.5 1 0
        </DataArray>
      </Points>
      <Cells>
        <DataArray type="Int32" Name="connectivity" NumberOfComponents="1" format="ascii">
          0 1 3 2 2 3 5 4 4 5 7 6
          6 7 9 8 8 9 11 10 10 11 13 12
          12 13 15 14 14 15 17 16 16 17 19 18
          18 19 21 20 20 21 23 22 22 23 25 24
          24 25 27 26 26 27 29 28 28 29 31 30
          30 31 33 32 32 33 35 34 34 35 37 36
          36 37 39 38 38 39 41 40 40 41 43 42
          42 43 45 44 44 45 47 46 46 47 49 48
          48 49 51 50 50 51 53 52 52 53 55 54
          54 55 57 56 56 57 59 58 58 59 61 60
        </DataArray>
        <DataArray type="Int32" Name="offsets" NumberOfComponents="1" format="ascii">
          4 8 12 16 20 24 28 32 36 40 44 48
          52 56 60 64 68 72 76 80 84 88 92 96
          100 104 108 112 116 120
        </DataArray>
        <DataArray type="UInt8" Name="types" NumberOfComponents="1" format="ascii">
          9 9 9 9 9 9 9 9 9 9 9 9
          9 9 9 9 9 9 9 9 9 9 9 9
          9 9 9 9 9 9
        </DataArray>
      </Cells>
    </Piece>
  </UnstructuredGrid>
</VTKFile>
