<?xml version="1.0"?>
<VTKFile type="UnstructuredGrid" version="0.1" byte_order="LittleEndian">
  <UnstructuredGrid>
    <Piece NumberOfCells="30" NumberOfPoints="62">
      <CellData Scalars="Sg">
        <DataArray type="Float32" Name="Sg" NumberOfComponents="1" format="ascii">
          0 0 0 0 0 0 0 0 0 0 0 0
          0 0 0 0 0 0 0 0 0 0 0 0
          0 0 0 0 0 0
        </DataArray>
        <DataArray type="Float32" Name="Sl" NumberOfComponents="1" format="ascii">
          1 1 1 1 1 1 1 1 1 1 1 1
          1 1 1 1 1 1 1 1 1 1 1 1
          1 1 1 1 1 1
        </DataArray>
        <DataArray type="Float32" Name="pg" NumberOfComponents="1" format="ascii">
          24687.8 24360.9 24034 23707 23380.1 23053.1 22726.2 22399.3 22072.3 21745.4 21418.4 21091.5
          20764.6 20437.6 20110.7 19783.7 19456.8 19129.8 18802.9 18476 18149 17822.1 17495.1 17168.2
          16841.3 16514.3 16187.4 15860.4 15533.5 15211.3
        </DataArray>
        <DataArray type="Float32" Name="pl" NumberOfComponents="1" format="ascii">
          110628 110301 109974 109647 109320 108993 108666 108339 108012 107685 107358 107031
          106704 106377 106050 105723 105396 105070 104743 104416 104089 103762 103435 103108
          102781 102454 102127 101800 101473 101151
        </DataArray>
        <DataArray type="Float32" Name="pc" NumberOfComponents="1" format="ascii">
          -85939.7 -85939.7 -85939.7 -85939.7 -85939.7 -85939.7 -85939.7 -85939.7 -85939.7 -85939.7 -85939.7 -85939.7
          -85939.7 -85939.7 -85939.7 -85939.7 -85939.7 -85939.7 -85939.7 -85939.7 -85939.7 -85939.7 -85939.7 -85939.7
          -85939.7 -85939.7 -85939.7 -85939.7 -85939.7 -85939.7
        </DataArray>
        <DataArray type="Float32" Name="rhoL" NumberOfComponents="1" format="ascii">
          999.855 999.855 999.855 999.855 999.855 999.854 999.854 999.854 999.854 999.854 999.854 999.854
          999.853 999.853 999.853 999.853 999.853 999.853 999.852 999.852 999.852 999.852 999.852 999.852
          999.852 999.851 999.851 999.851 999.851 999.851
        </DataArray>
        <DataArray type="Float32" Name="rhoG" NumberOfComponents="1" format="ascii">
          0.30585 0.3018 0.29775 0.293699 0.289649 0.285598 0.281548 0.277498 0.273447 0.269397 0.265347 0.261296
          0.257246 0.253195 0.249145 0.245095 0.241044 0.236994 0.232944 0.228893 0.224843 0.220793 0.216742 0.212692
          0.208641 0.204591 0.200541 0.19649 0.19244 0.188449
        </DataArray>
        <DataArray type="Float32" Name="mobL" NumberOfComponents="1" format="ascii">
          722.171 722.17 722.17 722.17 722.17 722.17 722.169 722.169 722.169 722.169 722.169 722.169
          722.168 722.168 722.168 722.168 722.168 722.167 722.167 722.167 722.167 722.167 722.166 722.166
          722.166 722.166 722.166 722.166 722.165 722.165
        </DataArray>
        <DataArray type="Float32" Name="mobG" NumberOfComponents="1" format="ascii">
          0 0 0 0 0 0 0 0 0 0 0 0
          0 0 0 0 0 0 0 0 0 0 0 0
          0 0 0 0 0 0
        </DataArray>
        <DataArray type="Float32" Name="porosity" NumberOfComponents="1" format="ascii">
          0.298735 0.298735 0.298734 0.298734 0.298734 0.298733 0.298733 0.298732 0.29873 0.298728 0.298726 0.298722
          0.298717 0.29871 0.298701 0.298689 0.298672 0.298649 0.298619 0.298578 0.298521 0.298441 0.298327 0.298158
          0.297621 0.297162 0.296248 0.293866 0.282507 0.0388549
        </DataArray>
        <DataArray type="Float32" Name="temperature" NumberOfComponents="1" format="ascii">
          281.15 281.15 281.15 281.15 281.15 281.15 281.15 281.15 281.15 281.15 281.15 281.15
          281.15 281.15 281.15 281.15 281.15 281.15 281.15 281.15 281.15 281.15 281.15 281.15
          281.15 281.15 281.15 281.15 281.15 281.15
        </DataArray>
        <DataArray type="Float32" Name="phase presence" NumberOfComponents="1" format="ascii">
          1 1 1 1 1 1 1 1 1 1 1 1
          1 1 1 1 1 1 1 1 1 1 1 1
          1 1 1 1 1 1
        </DataArray>
        <DataArray type="Float32" Name="precipitateVolumeFraction_au" NumberOfComponents="1" format="ascii">
          5.52476e-10 5.52764e-10 5.52559e-10 5.52717e-10 5.52724e-10 5.52764e-10 5.52729e-10 5.52742e-10 5.52759e-10 5.52698e-10 5.52756e-10 5.52749e-10
          5.52751e-10 5.52721e-10 5.52706e-10 5.52761e-10 5.52763e-10 5.52751e-10 5.52736e-10 5.52732e-10 5.5273e-10 5.52706e-10 5.52969e-10 1.12977e-09
          0.000269941 0.000269924 0.0002699 0.000269852 5.52275e-10 5.51272e-10
        </DataArray>
        <DataArray type="Float32" Name="precipitateVolumeFraction_nanoAu" NumberOfComponents="1" format="ascii">
          1.23602e-13 1.23666e-13 1.2362e-13 1.23655e-13 1.23657e-13 1.23666e-13 1.23658e-13 1.23661e-13 1.23664e-13 1.2365e-13 1.23663e-13 1.23661e-13
          1.23661e-13 1.23654e-13 1.23649e-13 1.23661e-13 1.23659e-13 1.23654e-13 1.23648e-13 1.23643e-13 1.23636e-13 1.23639e-13 1.35574e-13 2.58067e-11
          6.03662e-08 7.66879e-08 1.02149e-07 1.45567e-07 4.74178e-13 4.67053e-13
        </DataArray>
        <DataArray type="Float32" Name="precipitateVolumeFraction_d" NumberOfComponents="1" format="ascii">
          0.00063259 0.000632658 0.000632754 0.000632889 0.000633077 0.000633341 0.000633708 0.000634218 0.000634925 0.000635899 0.000637238 0.000639071
          0.000641567 0.000644957 0.000649544 0.000655735 0.00066408 0.000675333 0.000690549 0.000711247 0.000739696 0.000779449 0.000836407 0.000921147
          0.00105457 0.0012842 0.00174084 0.00293189 0.00874672 0.130573
        </DataArray>
        <DataArray type="Float32" Name="precipitateVolumeFraction_p" NumberOfComponents="1" format="ascii">
          0.00063259 0.000632658 0.000632754 0.000632889 0.000633077 0.000633341 0.000633708 0.000634218 0.000634925 0.000635899 0.000637238 0.000639071
          0.000641567 0.000644957 0.000649544 0.000655735 0.00066408 0.000675333 0.000690549 0.000711247 0.000739696 0.000779449 0.000836407 0.000921147
          0.00105457 0.0012842 0.00174084 0.00293189 0.00874672 0.130573
        </DataArray>
        <DataArray type="Float32" Name="K" NumberOfComponents="1" format="ascii">
          9.83842e-11 9.8384e-11 9.83838e-11 9.83834e-11 9.83829e-11 9.83823e-11 9.83814e-11 9.83801e-11 9.83783e-11 9.83758e-11 9.83724e-11 9.83677e-11
          9.83614e-11 9.83528e-11 9.83412e-11 9.83255e-11 9.83043e-11 9.82758e-11 9.82372e-11 9.81848e-11 9.81127e-11 9.80122e-11 9.78682e-11 9.76543e-11
          9.69793e-11 9.6405e-11 9.52711e-11 9.2365e-11 7.94844e-11 1.15237e-13
        </DataArray>
        <DataArray type="Float32" Name="X^w_H2O" NumberOfComponents="1" format="ascii">
          0.999853 0.999853 0.999853 0.999853 0.999853 0.999853 0.999853 0.999853 0.999853 0.999853 0.999853 0.999853
          0.999853 0.999853 0.999853 0.999853 0.999853 0.999853 0.999853 0.999853 0.999853 0.999853 0.999853 0.999853
          0.999853 0.999852 0.99985 0.999846 0.999839 0.99984
        </DataArray>
        <DataArray type="Float32" Name="X^w_Air" NumberOfComponents="1" format="ascii">
          0 0 0 0 0 0 0 0 0 0 0 0
          0 0 0 0 0 0 0 0 0 0 0 0
          0 0 0 0 0 0
        </DataArray>
        <DataArray type="Float32" Name="X^w_AuComplex" NumberOfComponents="1" format="ascii">
          1.41034e-16 1.41108e-16 1.41055e-16 1.41095e-16 1.41097e-16 1.41107e-16 1.41098e-16 1.41101e-16 1.41105e-16 1.41089e-16 1.41103e-16 1.41101e-16
          1.411e-16 1.41091e-16 1.41086e-16 1.41097e-16 1.41094e-16 1.41086e-16 1.41076e-16 1.41066e-16 1.41053e-16 1.41045e-16 1.54457e-16 2.94175e-14
          6.88419e-11 1.0738e-10 1.84413e-10 3.64005e-10 1.83547e-15 1.78688e-15
        </DataArray>
        <DataArray type="Float32" Name="X^w_nanoAu" NumberOfComponents="1" format="ascii">
          5.38331e-19 5.38606e-19 5.3841e-19 5.38562e-19 5.38569e-19 5.38606e-19 5.38573e-19 5.38584e-19 5.38599e-19 5.3854e-19 5.38593e-19 5.38585e-19
          5.38583e-19 5.38551e-19 5.38532e-19 5.38579e-19 5.38571e-19 5.38547e-19 5.38517e-19 5.38529e-19 5.42179e-19 8.8356e-19 3.25073e-17 2.95722e-15
          2.63644e-13 3.35119e-13 4.46635e-13 6.2654e-13 2.05919e-18 1.98334e-18
        </DataArray>
        <DataArray type="Float32" Name="X^w_cyanide" NumberOfComponents="1" format="ascii">
          5.07082e-06 5.07082e-06 5.07082e-06 5.07082e-06 5.07082e-06 5.07081e-06 5.07081e-06 5.07081e-06 5.0708e-06 5.07079e-06 5.07078e-06 5.07077e-06
          5.07075e-06 5.07072e-06 5.07069e-06 5.07064e-06 5.07057e-06 5.07048e-06 5.07035e-06 5.07018e-06 5.06993e-06 5.06957e-06 5.06905e-06 5.06826e-06
          5.06748e-06 6.43715e-06 8.5728e-06 1.22381e-05 1.9462e-05 1.9231e-05
        </DataArray>
        <DataArray type="Float32" Name="X^w_citrate" NumberOfComponents="1" format="ascii">
          0.000141796 0.000141796 0.000141796 0.000141796 0.000141796 0.000141796 0.000141796 0.000141796 0.000141796 0.000141796 0.000141796 0.000141796
          0.000141795 0.000141795 0.000141795 0.000141795 0.000141794 0.000141793 0.000141793 0.000141791 0.000141789 0.000141787 0.000141783 0.000141777
          0.000141768 0.000141753 0.000141725 0.000141658 0.00014144 0.000139761
        </DataArray>
        <DataArray type="Float32" Name="X^w_substrate" NumberOfComponents="1" format="ascii">
          1.21301e-11 1.62486e-11 2.17642e-11 2.91507e-11 3.9043e-11 5.22917e-11 7.00376e-11 9.38118e-11 1.25671e-10 1.68383e-10 2.25679e-10 3.02608e-10
          4.06021e-10 5.45267e-10 7.33191e-10 9.87586e-10 1.33339e-09 1.80604e-09 2.45683e-09 3.36174e-09 4.63655e-09 6.46438e-09 9.14866e-09 1.32235e-08
          1.97076e-08 3.07664e-08 5.1782e-08 9.97114e-08 2.55066e-07 1.43892e-06
        </DataArray>
        <DataArray type="Float32" Name="m^w_H2O" NumberOfComponents="1" format="ascii">
          55492.6 55492.6 55492.5 55492.5 55492.5 55492.5 55492.5 55492.5 55492.5 55492.5 55492.5 55492.5
          55492.5 55492.4 55492.4 55492.4 55492.4 55492.4 55492.4 55492.4 55492.4 55492.4 55492.4 55492.4
          55492.3 55492.3 55492.1 55491.9 55491.5 55491.6
        </DataArray>
        <DataArray type="Float32" Name="m^w_Air" NumberOfComponents="1" format="ascii">
          0 0 0 0 0 0 0 0 0 0 0 0
          0 0 0 0 0 0 0 0 0 0 0 0
          0 0 0 0 0 0
        </DataArray>
        <DataArray type="Float32" Name="m^w_AuComplex" NumberOfComponents="1" format="ascii">
          7.15915e-13 7.16288e-13 7.16022e-13 7.16226e-13 7.16235e-13 7.16285e-13 7.16239e-13 7.16254e-13 7.16275e-13 7.16193e-13 7.16265e-13 7.16252e-13
          7.16249e-13 7.16203e-13 7.16174e-13 7.16233e-13 7.16217e-13 7.16178e-13 7.16126e-13 7.16075e-13 7.16008e-13 7.1597e-13 7.84048e-13 1.49328e-10
          3.49453e-07 5.45078e-07 9.36112e-07 1.84775e-06 9.31716e-12 9.07047e-12
        </DataArray>
        <DataArray type="Float32" Name="m^w_nanoAu" NumberOfComponents="1" format="ascii">
          2.73267e-15 2.73406e-15 2.73306e-15 2.73383e-15 2.73387e-15 2.73406e-15 2.73389e-15 2.73395e-15 2.73402e-15 2.73372e-15 2.73399e-15 2.73395e-15
          2.73394e-15 2.73378e-15 2.73368e-15 2.73392e-15 2.73388e-15 2.73375e-15 2.7336e-15 2.73366e-15 2.75219e-15 4.4851e-15 1.65013e-13 1.50113e-11
          1.3383e-09 1.70112e-09 2.26719e-09 3.18041e-09 1.04528e-14 1.00677e-14
        </DataArray>
        <DataArray type="Float32" Name="m^w_cyanide" NumberOfComponents="1" format="ascii">
          0.194853 0.194853 0.194853 0.194853 0.194853 0.194853 0.194853 0.194853 0.194852 0.194852 0.194852 0.194851
          0.19485 0.194849 0.194848 0.194846 0.194843 0.19484 0.194835 0.194828 0.194819 0.194805 0.194785 0.194754
          0.194725 0.247356 0.329421 0.470266 0.747852 0.738976
        </DataArray>
        <DataArray type="Float32" Name="m^w_citrate" NumberOfComponents="1" format="ascii">
          0.749742 0.749742 0.749742 0.749742 0.749742 0.749741 0.749741 0.749741 0.74974 0.74974 0.749739 0.749739
          0.749738 0.749737 0.749735 0.749733 0.74973 0.749727 0.749722 0.749715 0.749705 0.749691 0.749671 0.74964
          0.749592 0.749514 0.749362 0.74901 0.747855 0.738977
        </DataArray>
        <DataArray type="Float32" Name="m^w_substrate" NumberOfComponents="1" format="ascii">
          6.732e-08 9.01768e-08 1.20787e-07 1.61781e-07 2.16681e-07 2.90209e-07 3.88696e-07 5.20638e-07 6.9745e-07 9.34492e-07 1.25248e-06 1.67942e-06
          2.25334e-06 3.02613e-06 4.06907e-06 5.48091e-06 7.40004e-06 1.00232e-05 1.36349e-05 1.8657e-05 2.57319e-05 3.5876e-05 5.07732e-05 7.3388e-05
          0.000109373 0.000170747 0.000287379 0.000553378 0.00141556 0.00798569
        </DataArray>
        <DataArray type="Float32" Name="process rank" NumberOfComponents="1" format="ascii">
          0 0 0 0 0 0 0 0 0 0 0 0
          0 0 0 0 0 0 0 0 0 0 0 0
          0 0 0 0 0 0
        </DataArray>
      </CellData>
      <Points>
        <DataArray type="Float32" Name="Coordinates" NumberOfComponents="3" format="ascii">
          0 0 0 0.5 0 0 0 0.0333333 0 0.5 0.0333333 0
          0 0.0666667 0 0.5 0.0666667 0 0 0.1 0 0.5 0.1 0
          0 0.133333 0 0.5 0.133333 0 0 0.166667 0 0.5 0.166667 0
          0 0.2 0 0.5 0.2 0 0 0.233333 0 0.5 0.233333 0
          0 0.266667 0 0.5 0.266667 0 0 0.3 0 0.5 0.3 0
          0 0.333333 0 0.5 0.333333 0 0 0.366667 0 0.5 0.366667 0
          0 0.4 0 0.5 0.4 0 0 0.433333 0 0.5 0.433333 0
          0 0.466667 0 0.5 0.466667 0 0 0.5 0 0.5 0.5 0
          0 0.533333 0 0.5 0.533333 0 0 0.566667 0 0.5 0.566667 0
          0 0.6 0 0.5 0.6 0 0 0.633333 0 0.5 0.633333 0
          0 0.666667 0 0.5 0.666667 0 0 0.7 0 0.5 0.7 0
          0 0.733333 0 0.5 0.733333 0 0 0.766667 0 0.5 0.766667 0
          0 0.8 0 0.5 0.8 0 0 0.833333 0 0.5 0.833333 0
          0 0.866667 0 0.5 0.866667 0 0 0.9 0 0.5 0.9 0
          0 0.933333 0 0.5 0.933333 0 0 0.966667 0 0.5 0.966667 0
          0 1 0 0.5 1 0
        </DataArray>
      </Points>
      <Cells>
        <DataArray type="Int32" Name="connectivity" NumberOfComponents="1" format="ascii">
          0 1 3 2 2 3 5 4 4 5 7 6
          6 7 9 8 8 9 11 10 10 11 13 12
          12 13 15 14 14 15 17 16 16 17 19 18
          18 19 21 20 20 21 23 22 22 23 25 24
          24 25 27 26 26 27 29 28 28 29 31 30
          30 31 33 32 32 33 35 34 34 35 37 36
          36 37 39 38 38 39 41 40 40 41 43 42
          42 43 45 44 44 45 47 46 46 47 49 48
          48 49 51 50 50 51 53 52 52 53 55 54
          54 55 57 56 56 57 59 58 58 59 61 60
        </DataArray>
        <DataArray type="Int32" Name="offsets" NumberOfComponents="1" format="ascii">
          4 8 12 16 20 24 28 32 36 40 44 48
          52 56 60 64 68 72 76 80 84 88 92 96
          100 104 108 112 116 120
        </DataArray>
        <DataArray type="UInt8" Name="types" NumberOfComponents="1" format="ascii">
          9 9 9 9 9 9 9 9 9 9 9 9
          9 9 9 9 9 9 9 9 9 9 9 9
          9 9 9 9 9 9
        </DataArray>
      </Cells>
    </Piece>
  </UnstructuredGrid>
</VTKFile>
