<?xml version="1.0"?>
<VTKFile type="UnstructuredGrid" version="0.1" byte_order="LittleEndian">
  <UnstructuredGrid>
    <Piece NumberOfCells="30" NumberOfPoints="62">
      <CellData Scalars="Sg">
        <DataArray type="Float32" Name="Sg" NumberOfComponents="1" format="ascii">
          0 0 0 0 0 0 0 0 0 0 0 0
          0 0 0 0 0 0 0 0 0 0 0 0
          0 0 0 0 0 0
        </DataArray>
        <DataArray type="Float32" Name="Sl" NumberOfComponents="1" format="ascii">
          1 1 1 1 1 1 1 1 1 1 1 1
          1 1 1 1 1 1 1 1 1 1 1 1
          1 1 1 1 1 1
        </DataArray>
        <DataArray type="Float32" Name="pg" NumberOfComponents="1" format="ascii">
          24687.8 24360.9 24034 23707 23380.1 23053.1 22726.2 22399.3 22072.3 21745.4 21418.4 21091.5
          20764.6 20437.6 20110.7 19783.7 19456.8 19129.9 18802.9 18476 18149 17822.1 17495.1 17168.2
          16841.3 16514.3 16187.4 15860.4 15533.5 15207.2
        </DataArray>
        <DataArray type="Float32" Name="pl" NumberOfComponents="1" format="ascii">
          110628 110301 109974 109647 109320 108993 108666 108339 108012 107685 107358 107031
          106704 106377 106050 105723 105396 105070 104743 104416 104089 103762 103435 103108
          102781 102454 102127 101800 101473 101147
        </DataArray>
        <DataArray type="Float32" Name="pc" NumberOfComponents="1" format="ascii">
          -85939.7 -85939.7 -85939.7 -85939.7 -85939.7 -85939.7 -85939.7 -85939.7 -85939.7 -85939.7 -85939.7 -85939.7
          -85939.7 -85939.7 -85939.7 -85939.7 -85939.7 -85939.7 -85939.7 -85939.7 -85939.7 -85939.7 -85939.7 -85939.7
          -85939.7 -85939.7 -85939.7 -85939.7 -85939.7 -85939.7
        </DataArray>
        <DataArray type="Float32" Name="rhoL" NumberOfComponents="1" format="ascii">
          999.855 999.855 999.855 999.855 999.855 999.854 999.854 999.854 999.854 999.854 999.854 999.854
          999.853 999.853 999.853 999.853 999.853 999.853 999.852 999.852 999.852 999.852 999.852 999.852
          999.852 999.851 999.851 999.851 999.851 999.851
        </DataArray>
        <DataArray type="Float32" Name="rhoG" NumberOfComponents="1" format="ascii">
          0.30585 0.3018 0.29775 0.293699 0.289649 0.285598 0.281548 0.277498 0.273447 0.269397 0.265347 0.261296
          0.257246 0.253195 0.249145 0.245095 0.241044 0.236994 0.232944 0.228893 0.224843 0.220793 0.216742 0.212692
          0.208641 0.204591 0.200541 0.19649 0.19244 0.188397
        </DataArray>
        <DataArray type="Float32" Name="mobL" NumberOfComponents="1" format="ascii">
          722.171 722.17 722.17 722.17 722.17 722.17 722.169 722.169 722.169 722.169 722.169 722.169
          722.168 722.168 722.168 722.168 722.168 722.167 722.167 722.167 722.167 722.167 722.166 722.166
          722.166 722.166 722.166 722.166 722.165 722.165
        </DataArray>
        <DataArray type="Float32" Name="mobG" NumberOfComponents="1" format="ascii">
          0 0 0 0 0 0 0 0 0 0 0 0
          0 0 0 0 0 0 0 0 0 0 0 0
          0 0 0 0 0 0
        </DataArray>
        <DataArray type="Float32" Name="porosity" NumberOfComponents="1" format="ascii">
          0.298547 0.298547 0.298547 0.298546 0.298546 0.298545 0.298545 0.298543 0.298542 0.29854 0.298537 0.298532
          0.298527 0.298519 0.298509 0.298495 0.298476 0.298451 0.298417 0.298371 0.298308 0.29822 0.298096 0.297912
          0.297356 0.296874 0.295949 0.293692 0.284505 0.0751654
        </DataArray>
        <DataArray type="Float32" Name="temperature" NumberOfComponents="1" format="ascii">
          281.15 281.15 281.15 281.15 281.15 281.15 281.15 281.15 281.15 281.15 281.15 281.15
          281.15 281.15 281.15 281.15 281.15 281.15 281.15 281.15 281.15 281.15 281.15 281.15
          281.15 281.15 281.15 281.15 281.15 281.15
        </DataArray>
        <DataArray type="Float32" Name="phase presence" NumberOfComponents="1" format="ascii">
          1 1 1 1 1 1 1 1 1 1 1 1
          1 1 1 1 1 1 1 1 1 1 1 1
          1 1 1 1 1 1
        </DataArray>
        <DataArray type="Float32" Name="precipitateVolumeFraction_au" NumberOfComponents="1" format="ascii">
          5.5246e-10 5.52744e-10 5.5254e-10 5.52697e-10 5.52704e-10 5.52744e-10 5.52709e-10 5.52722e-10 5.52739e-10 5.52678e-10 5.52735e-10 5.52728e-10
          5.5273e-10 5.52701e-10 5.52686e-10 5.52741e-10 5.52742e-10 5.5273e-10 5.52716e-10 5.52712e-10 5.52709e-10 5.52686e-10 5.52794e-10 7.98168e-10
          0.00026994 0.000269924 0.000269899 0.000269854 5.52256e-10 5.51263e-10
        </DataArray>
        <DataArray type="Float32" Name="precipitateVolumeFraction_nanoAu" NumberOfComponents="1" format="ascii">
          1.39746e-13 1.43973e-13 1.42162e-13 1.43534e-13 1.43637e-13 1.4389e-13 1.43712e-13 1.43772e-13 1.4383e-13 1.43656e-13 1.43813e-13 1.43788e-13
          1.43791e-13 1.43748e-13 1.43731e-13 1.43792e-13 1.43787e-13 1.43772e-13 1.43756e-13 1.43747e-13 1.43737e-13 1.4373e-13 1.55693e-13 2.58634e-11
          6.04416e-08 7.67696e-08 1.02226e-07 1.45594e-07 4.93475e-13 4.84973e-13
        </DataArray>
        <DataArray type="Float32" Name="precipitateVolumeFraction_d" NumberOfComponents="1" format="ascii">
          0.000726469 0.000726546 0.000726653 0.000726804 0.000727016 0.000727311 0.000727724 0.000728297 0.000729092 0.000730188 0.000731695 0.000733756
          0.000736564 0.000740374 0.000745526 0.000752474 0.000761827 0.000774417 0.000791401 0.000814436 0.000845975 0.000889822 0.000952222 0.00104419
          0.00118705 0.00142787 0.00189038 0.00301907 0.00774772 0.112417
        </DataArray>
        <DataArray type="Float32" Name="precipitateVolumeFraction_p" NumberOfComponents="1" format="ascii">
          0.000726469 0.000726546 0.000726653 0.000726804 0.000727016 0.000727311 0.000727724 0.000728297 0.000729092 0.000730188 0.000731695 0.000733756
          0.000736564 0.000740374 0.000745526 0.000752474 0.000761827 0.000774417 0.000791401 0.000814436 0.000845975 0.000889822 0.000952222 0.00104419
          0.00118705 0.00142787 0.00189038 0.00301907 0.00774772 0.112417
        </DataArray>
        <DataArray type="Float32" Name="K" NumberOfComponents="1" format="ascii">
          9.81462e-11 9.8146e-11 9.81458e-11 9.81454e-11 9.81449e-11 9.81441e-11 9.81431e-11 9.81416e-11 9.81396e-11 9.81368e-11 9.8133e-11 9.81278e-11
          9.81207e-11 9.8111e-11 9.8098e-11 9.80804e-11 9.80567e-11 9.80249e-11 9.79819e-11 9.79237e-11 9.7844e-11 9.77333e-11 9.7576e-11 9.73444e-11
          9.66476e-11 9.6047e-11 9.49021e-11 9.21552e-11 8.16369e-11 9.01067e-13
        </DataArray>
        <DataArray type="Float32" Name="X^w_H2O" NumberOfComponents="1" format="ascii">
          0.999853 0.999853 0.999853 0.999853 0.999853 0.999853 0.999853 0.999853 0.999853 0.999853 0.999853 0.999853
          0.999853 0.999853 0.999853 0.999853 0.999853 0.999853 0.999853 0.999853 0.999853 0.999853 0.999853 0.999853
          0.999853 0.999852 0.99985 0.999846 0.999839 0.99984
        </DataArray>
        <DataArray type="Float32" Name="X^w_Air" NumberOfComponents="1" format="ascii">
          0 0 0 0 0 0 0 0 0 0 0 0
          0 0 0 0 0 0 0 0 0 0 0 0
          0 0 0 0 0 0
        </DataArray>
        <DataArray type="Float32" Name="X^w_AuComplex" NumberOfComponents="1" format="ascii">
          1.56774e-16 1.60854e-16 1.591e-16 1.60425e-16 1.60523e-16 1.60766e-16 1.60591e-16 1.60647e-16 1.60702e-16 1.60529e-16 1.6068e-16 1.60654e-16
          1.60655e-16 1.60609e-16 1.60589e-16 1.60647e-16 1.60638e-16 1.60619e-16 1.60597e-16 1.60581e-16 1.60561e-16 1.6054e-16 1.73984e-16 2.94994e-14
          6.89809e-11 1.07568e-10 1.84647e-10 3.64125e-10 1.90533e-15 1.84794e-15
        </DataArray>
        <DataArray type="Float32" Name="X^w_nanoAu" NumberOfComponents="1" format="ascii">
          6.08873e-19 6.27008e-19 6.19267e-19 6.25183e-19 6.25639e-19 6.26722e-19 6.25958e-19 6.2622e-19 6.26462e-19 6.25717e-19 6.26392e-19 6.26285e-19
          6.26297e-19 6.26107e-19 6.26037e-19 6.26298e-19 6.26274e-19 6.26206e-19 6.26132e-19 6.26128e-19 6.29784e-19 9.72832e-19 3.27146e-17 2.9646e-15
          2.63967e-13 3.35459e-13 4.4692e-13 6.26483e-13 2.14138e-18 2.05459e-18
        </DataArray>
        <DataArray type="Float32" Name="X^w_cyanide" NumberOfComponents="1" format="ascii">
          5.07766e-06 5.07759e-06 5.07752e-06 5.07745e-06 5.07739e-06 5.07732e-06 5.07725e-06 5.07718e-06 5.07711e-06 5.07704e-06 5.07697e-06 5.0769e-06
          5.07682e-06 5.07674e-06 5.07665e-06 5.07654e-06 5.07642e-06 5.07628e-06 5.07609e-06 5.07586e-06 5.07554e-06 5.0751e-06 5.07445e-06 5.07347e-06
          5.07238e-06 6.44244e-06 8.57782e-06 1.224e-05 1.94478e-05 1.91857e-05
        </DataArray>
        <DataArray type="Float32" Name="X^w_citrate" NumberOfComponents="1" format="ascii">
          0.000141796 0.000141796 0.000141796 0.000141796 0.000141796 0.000141796 0.000141796 0.000141796 0.000141796 0.000141796 0.000141796 0.000141796
          0.000141796 0.000141795 0.000141795 0.000141795 0.000141795 0.000141794 0.000141793 0.000141792 0.00014179 0.000141787 0.000141783 0.000141776
          0.000141765 0.000141746 0.000141709 0.000141621 0.000141337 0.000139431
        </DataArray>
        <DataArray type="Float32" Name="X^w_substrate" NumberOfComponents="1" format="ascii">
          5.73199e-12 7.94806e-12 1.10204e-11 1.528e-11 2.11856e-11 2.93739e-11 4.07287e-11 5.64776e-11 7.83277e-11 1.08656e-10 1.5078e-10 2.0934e-10
          2.90852e-10 4.04505e-10 5.63347e-10 7.86047e-10 1.0996e-09 1.54358e-09 2.17698e-09 3.0897e-09 4.42255e-09 6.40396e-09 9.4215e-09 1.4172e-08
          2.20082e-08 3.58439e-08 6.29548e-08 1.26012e-07 3.27612e-07 1.67119e-06
        </DataArray>
        <DataArray type="Float32" Name="m^w_H2O" NumberOfComponents="1" format="ascii">
          55492.6 55492.5 55492.5 55492.5 55492.5 55492.5 55492.5 55492.5 55492.5 55492.5 55492.5 55492.5
          55492.5 55492.4 55492.4 55492.4 55492.4 55492.4 55492.4 55492.4 55492.4 55492.4 55492.4 55492.4
          55492.3 55492.3 55492.1 55491.9 55491.5 55491.6
        </DataArray>
        <DataArray type="Float32" Name="m^w_Air" NumberOfComponents="1" format="ascii">
          0 0 0 0 0 0 0 0 0 0 0 0
          0 0 0 0 0 0 0 0 0 0 0 0
          0 0 0 0 0 0
        </DataArray>
        <DataArray type="Float32" Name="m^w_AuComplex" NumberOfComponents="1" format="ascii">
          7.95815e-13 8.16526e-13 8.07621e-13 8.14347e-13 8.14841e-13 8.16076e-13 8.15189e-13 8.15474e-13 8.1575e-13 8.14873e-13 8.15641e-13 8.15506e-13
          8.1551e-13 8.15277e-13 8.15178e-13 8.15471e-13 8.15427e-13 8.15327e-13 8.15215e-13 8.15134e-13 8.15033e-13 8.14928e-13 8.83173e-13 1.49744e-10
          3.50158e-07 5.46032e-07 9.37296e-07 1.84836e-06 9.67175e-12 9.38043e-12
        </DataArray>
        <DataArray type="Float32" Name="m^w_nanoAu" NumberOfComponents="1" format="ascii">
          3.09075e-15 3.18281e-15 3.14351e-15 3.17354e-15 3.17585e-15 3.18135e-15 3.17747e-15 3.1788e-15 3.18003e-15 3.17625e-15 3.17968e-15 3.17913e-15
          3.17919e-15 3.17823e-15 3.17787e-15 3.1792e-15 3.17907e-15 3.17872e-15 3.17835e-15 3.17833e-15 3.19689e-15 4.93826e-15 1.66064e-13 1.50488e-11
          1.33994e-09 1.70284e-09 2.26864e-09 3.18013e-09 1.087e-14 1.04294e-14
        </DataArray>
        <DataArray type="Float32" Name="m^w_cyanide" NumberOfComponents="1" format="ascii">
          0.195116 0.195113 0.195111 0.195108 0.195106 0.195103 0.1951 0.195098 0.195095 0.195092 0.19509 0.195087
          0.195084 0.19508 0.195077 0.195073 0.195068 0.195063 0.195056 0.195046 0.195034 0.195017 0.194992 0.194954
          0.194913 0.247559 0.329613 0.470338 0.747308 0.737234
        </DataArray>
        <DataArray type="Float32" Name="m^w_citrate" NumberOfComponents="1" format="ascii">
          0.749742 0.749742 0.749742 0.749742 0.749742 0.749742 0.749741 0.749741 0.749741 0.74974 0.74974 0.74974
          0.749739 0.749738 0.749736 0.749735 0.749732 0.749729 0.749724 0.749717 0.749707 0.749692 0.749669 0.749633
          0.749575 0.749476 0.749278 0.748813 0.747311 0.737236
        </DataArray>
        <DataArray type="Float32" Name="m^w_substrate" NumberOfComponents="1" format="ascii">
          3.18115e-08 4.41103e-08 6.11614e-08 8.48011e-08 1.17576e-07 1.6302e-07 2.26037e-07 3.1344e-07 4.34704e-07 6.03022e-07 8.36802e-07 1.1618e-06
          1.61417e-06 2.24493e-06 3.12647e-06 4.36241e-06 6.10257e-06 8.56657e-06 1.20818e-05 1.71472e-05 2.45443e-05 3.55407e-05 5.22874e-05 7.86518e-05
          0.000122141 0.000198927 0.000349386 0.00069934 0.00181818 0.00927476
        </DataArray>
        <DataArray type="Float32" Name="process rank" NumberOfComponents="1" format="ascii">
          0 0 0 0 0 0 0 0 0 0 0 0
          0 0 0 0 0 0 0 0 0 0 0 0
          0 0 0 0 0 0
        </DataArray>
      </CellData>
      <Points>
        <DataArray type="Float32" Name="Coordinates" NumberOfComponents="3" format="ascii">
          0 0 0 0.5 0 0 0 0.0333333 0 0.5 0.0333333 0
          0 0.0666667 0 0.5 0.0666667 0 0 0.1 0 0.5 0.1 0
          0 0.133333 0 0.5 0.133333 0 0 0.166667 0 0.5 0.166667 0
          0 0.2 0 0.5 0.2 0 0 0.233333 0 0.5 0.233333 0
          0 0.266667 0 0.5 0.266667 0 0 0.3 0 0.5 0.3 0
          0 0.333333 0 0.5 0.333333 0 0 0.366667 0 0.5 0.366667 0
          0 0.4 0 0.5 0.4 0 0 0.433333 0 0.5 0.433333 0
          0 0.466667 0 0.5 0.466667 0 0 0.5 0 0.5 0.5 0
          0 0.533333 0 0.5 0.533333 0 0 0.566667 0 0.5 0.566667 0
          0 0.6 0 0.5 0.6 0 0 0.633333 0 0.5 0.633333 0
          0 0.666667 0 0.5 0.666667 0 0 0.7 0 0.5 0.7 0
          0 0.733333 0 0.5 0.733333 0 0 0.766667 0 0.5 0.766667 0
          0 0.8 0 0.5 0.8 0 0 0.833333 0 0.5 0.833333 0
          0 0.866667 0 0.5 0.866667 0 0 0.9 0 0.5 0.9 0
          0 0.933333 0 0.5 0.933333 0 0 0.966667 0 0.5 0.966667 0
          0 1 0 0.5 1 0
        </DataArray>
      </Points>
      <Cells>
        <DataArray type="Int32" Name="connectivity" NumberOfComponents="1" format="ascii">
          0 1 3 2 2 3 5 4 4 5 7 6
          6 7 9 8 8 9 11 10 10 11 13 12
          12 13 15 14 14 15 17 16 16 17 19 18
          18 19 21 20 20 21 23 22 22 23 25 24
          24 25 27 26 26 27 29 28 28 29 31 30
          30 31 33 32 32 33 35 34 34 35 37 36
          36 37 39 38 38 39 41 40 40 41 43 42
          42 43 45 44 44 45 47 46 46 47 49 48
          48 49 51 50 50 51 53 52 52 53 55 54
          54 55 57 56 56 57 59 58 58 59 61 60
        </DataArray>
        <DataArray type="Int32" Name="offsets" NumberOfComponents="1" format="ascii">
          4 8 12 16 20 24 28 32 36 40 44 48
          52 56 60 64 68 72 76 80 84 88 92 96
          100 104 108 112 116 120
        </DataArray>
        <DataArray type="UInt8" Name="types" NumberOfComponents="1" format="ascii">
          9 9 9 9 9 9 9 9 9 9 9 9
          9 9 9 9 9 9 9 9 9 9 9 9
          9 9 9 9 9 9
        </DataArray>
      </Cells>
    </Piece>
  </UnstructuredGrid>
</VTKFile>
