<?xml version="1.0"?>
<VTKFile type="UnstructuredGrid" version="0.1" byte_order="LittleEndian">
  <UnstructuredGrid>
    <Piece NumberOfCells="30" NumberOfPoints="62">
      <CellData Scalars="Sg">
        <DataArray type="Float32" Name="Sg" NumberOfComponents="1" format="ascii">
          0.0886222 0.0883606 0.0873197 0.0826975 0.0626828 0 0 0 0 0 0 0
          0 0 0 0 0 0 0 0 0 0 0 0
          0 0 0 0 0 0
        </DataArray>
        <DataArray type="Float32" Name="Sl" NumberOfComponents="1" format="ascii">
          0.911378 0.911639 0.91268 0.917302 0.937317 1 1 1 1 1 1 1
          1 1 1 1 1 1 1 1 1 1 1 1
          1 1 1 1 1 1
        </DataArray>
        <DataArray type="Float32" Name="pg" NumberOfComponents="1" format="ascii">
          50075.1 49673.2 49048.1 47397 41336.6 23053.1 22726.2 22399.3 22072.3 21745.4 21418.4 21091.5
          20764.6 20437.6 20110.7 19783.7 19456.8 19129.9 18802.9 18476 18149 17822.1 17495.1 17168.2
          16841.3 16514.3 16187.4 15860.4 15533.5 15206.6
        </DataArray>
        <DataArray type="Float32" Name="pl" NumberOfComponents="1" format="ascii">
          110628 110301 109974 109647 109320 108993 108666 108339 108012 107685 107358 107031
          106704 106377 106050 105723 105396 105070 104743 104416 104089 103762 103435 103108
          102781 102454 102127 101800 101473 101146
        </DataArray>
        <DataArray type="Float32" Name="pc" NumberOfComponents="1" format="ascii">
          -60552.5 -60627.4 -60925.6 -62249.7 -67983.2 -85939.7 -85939.7 -85939.7 -85939.7 -85939.7 -85939.7 -85939.7
          -85939.7 -85939.7 -85939.7 -85939.7 -85939.7 -85939.7 -85939.7 -85939.7 -85939.7 -85939.7 -85939.7 -85939.7
          -85939.7 -85939.7 -85939.7 -85939.7 -85939.7 -85939.7
        </DataArray>
        <DataArray type="Float32" Name="rhoL" NumberOfComponents="1" format="ascii">
          999.855 999.855 999.855 999.855 999.855 999.854 999.854 999.854 999.854 999.854 999.854 999.854
          999.853 999.853 999.853 999.853 999.853 999.853 999.852 999.852 999.852 999.852 999.852 999.852
          999.852 999.851 999.851 999.851 999.851 999.851
        </DataArray>
        <DataArray type="Float32" Name="rhoG" NumberOfComponents="1" format="ascii">
          0.620365 0.615386 0.607642 0.587188 0.512106 0.285598 0.281548 0.277498 0.273447 0.269397 0.265347 0.261296
          0.257246 0.253195 0.249145 0.245095 0.241044 0.236994 0.232944 0.228893 0.224843 0.220793 0.216742 0.212692
          0.208641 0.204591 0.200541 0.19649 0.19244 0.18839
        </DataArray>
        <DataArray type="Float32" Name="mobL" NumberOfComponents="1" format="ascii">
          722.171 722.17 722.17 722.17 722.17 722.17 722.169 722.169 722.169 722.169 722.169 722.169
          722.168 722.168 722.168 722.168 722.168 722.167 722.167 722.167 722.167 722.167 722.166 722.166
          722.166 722.166 722.166 722.166 722.165 722.165
        </DataArray>
        <DataArray type="Float32" Name="mobG" NumberOfComponents="1" format="ascii">
          0 0 0 0 0 0 0 0 0 0 0 0
          0 0 0 0 0 0 0 0 0 0 0 0
          0 0 0 0 0 0
        </DataArray>
        <DataArray type="Float32" Name="porosity" NumberOfComponents="1" format="ascii">
          0.298531 0.298531 0.298531 0.29853 0.29853 0.298529 0.298529 0.298528 0.298526 0.298524 0.298521 0.298517
          0.298512 0.298504 0.298494 0.298481 0.298463 0.298438 0.298405 0.29836 0.298298 0.298213 0.298092 0.297914
          0.29737 0.296915 0.296063 0.294083 0.287009 0.168682
        </DataArray>
        <DataArray type="Float32" Name="temperature" NumberOfComponents="1" format="ascii">
          281.15 281.15 281.15 281.15 281.15 281.15 281.15 281.15 281.15 281.15 281.15 281.15
          281.15 281.15 281.15 281.15 281.15 281.15 281.15 281.15 281.15 281.15 281.15 281.15
          281.15 281.15 281.15 281.15 281.15 281.15
        </DataArray>
        <DataArray type="Float32" Name="phase presence" NumberOfComponents="1" format="ascii">
          3 3 3 3 3 1 1 1 1 1 1 1
          1 1 1 1 1 1 1 1 1 1 1 1
          1 1 1 1 1 1
        </DataArray>
        <DataArray type="Float32" Name="precipitateVolumeFraction_au" NumberOfComponents="1" format="ascii">
          5.49097e-10 5.49093e-10 5.49092e-10 5.49093e-10 5.49093e-10 5.49093e-10 5.49095e-10 5.49105e-10 5.49097e-10 5.49103e-10 5.49105e-10 5.49091e-10
          5.49057e-10 5.49122e-10 5.49098e-10 5.4905e-10 5.49086e-10 5.4904e-10 5.49107e-10 5.49103e-10 5.49102e-10 5.49099e-10 5.49157e-10 6.36128e-10
          0.000269851 0.000269835 0.000269818 0.000269797 5.48823e-10 5.47877e-10
        </DataArray>
        <DataArray type="Float32" Name="precipitateVolumeFraction_nanoAu" NumberOfComponents="1" format="ascii">
          3.78694e-12 3.78644e-12 3.78612e-12 3.78593e-12 3.78575e-12 3.8053e-12 3.78993e-12 3.8062e-12 3.78711e-12 3.78962e-12 3.79132e-12 3.7824e-12
          3.77054e-12 3.79038e-12 3.78367e-12 3.77542e-12 3.78155e-12 3.77659e-12 3.78331e-12 3.7827e-12 3.78212e-12 3.78183e-12 3.78953e-12 2.84874e-11
          1.49831e-07 1.65142e-07 1.82921e-07 2.03596e-07 3.93516e-12 3.91361e-12
        </DataArray>
        <DataArray type="Float32" Name="precipitateVolumeFraction_d" NumberOfComponents="1" format="ascii">
          0.000734532 0.000734602 0.000734702 0.000734842 0.000735039 0.000735316 0.000735704 0.000736244 0.000736996 0.000738038 0.000739474 0.000741447
          0.000744144 0.000747816 0.000752799 0.000759537 0.000768631 0.000780898 0.000797472 0.000819967 0.000850759 0.000893505 0.00095415 0.00104306
          0.00117997 0.00140749 0.00183369 0.00282357 0.0064953 0.0656589
        </DataArray>
        <DataArray type="Float32" Name="precipitateVolumeFraction_p" NumberOfComponents="1" format="ascii">
          0.000734532 0.000734602 0.000734702 0.000734842 0.000735039 0.000735316 0.000735704 0.000736244 0.000736996 0.000738038 0.000739474 0.000741447
          0.000744144 0.000747816 0.000752799 0.000759537 0.000768631 0.000780898 0.000797472 0.000819967 0.000850759 0.000893505 0.00095415 0.00104306
          0.00117997 0.00140749 0.00183369 0.00282357 0.0064953 0.0656589
        </DataArray>
        <DataArray type="Float32" Name="K" NumberOfComponents="1" format="ascii">
          9.81258e-11 9.81256e-11 9.81254e-11 9.8125e-11 9.81245e-11 9.81238e-11 9.81229e-11 9.81215e-11 9.81196e-11 9.81169e-11 9.81133e-11 9.81083e-11
          9.81015e-11 9.80922e-11 9.80796e-11 9.80625e-11 9.80395e-11 9.80085e-11 9.79666e-11 9.79097e-11 9.78319e-11 9.7724e-11 9.75711e-11 9.73473e-11
          9.66653e-11 9.60977e-11 9.50419e-11 9.26262e-11 8.44021e-11 1.26039e-11
        </DataArray>
        <DataArray type="Float32" Name="X^w_H2O" NumberOfComponents="1" format="ascii">
          0.99983 0.99983 0.999831 0.999831 0.999833 0.99984 0.999846 0.999846 0.999846 0.999846 0.999846 0.999846
          0.999846 0.999846 0.999846 0.999846 0.999846 0.999846 0.999846 0.999846 0.999846 0.999846 0.999846 0.999846
          0.999846 0.999844 0.999843 0.999841 0.999839 0.99984
        </DataArray>
        <DataArray type="Float32" Name="X^w_Air" NumberOfComponents="1" format="ascii">
          1.51893e-05 1.50648e-05 1.4871e-05 1.43592e-05 1.24806e-05 5.74617e-06 9.5841e-08 1.56978e-09 2.52799e-11 4.0045e-13 6.22264e-15 9.48503e-17
          1.4226e-18 2.09124e-20 3.02114e-22 4.27361e-24 5.92937e-26 8.07018e-28 1.07424e-29 1.39688e-31 1.77124e-33 2.17999e-35 2.57736e-37 0
          0 0 0 0 0 0
        </DataArray>
        <DataArray type="Float32" Name="X^w_AuComplex" NumberOfComponents="1" format="ascii">
          8.70144e-16 9.24036e-16 2.51467e-15 3.03009e-15 8.89072e-16 1.16962e-15 1.06355e-15 1.0677e-15 1.06245e-15 1.06295e-15 1.06325e-15 1.06072e-15
          1.05742e-15 1.06256e-15 1.06064e-15 1.05831e-15 1.05982e-15 1.05837e-15 1.06004e-15 1.05975e-15 1.05946e-15 1.05923e-15 1.06183e-15 1.2059e-14
          6.66334e-11 7.80905e-11 9.25228e-11 1.10895e-10 1.69287e-15 1.64753e-15
        </DataArray>
        <DataArray type="Float32" Name="X^w_nanoAu" NumberOfComponents="1" format="ascii">
          8.70144e-16 -2.89665e-16 8.72644e-17 6.02684e-16 -3.24631e-16 1.58902e-14 1.65133e-17 1.65825e-17 1.65004e-17 1.65113e-17 1.65182e-17 1.64791e-17
          1.64289e-17 1.65141e-17 1.64848e-17 1.64494e-17 1.64755e-17 1.64543e-17 1.64831e-17 1.64803e-17 1.64864e-17 1.73183e-17 9.42847e-17 7.19643e-15
          6.53009e-13 7.19606e-13 7.96618e-13 8.75109e-13 1.70379e-17 1.64072e-17
        </DataArray>
        <DataArray type="Float32" Name="X^w_cyanide" NumberOfComponents="1" format="ascii">
          1.2642e-05 1.26395e-05 1.2637e-05 1.26347e-05 1.26325e-05 1.26304e-05 1.26283e-05 1.26261e-05 1.26241e-05 1.26221e-05 1.26202e-05 1.26184e-05
          1.26167e-05 1.26151e-05 1.26135e-05 1.26119e-05 1.26104e-05 1.26089e-05 1.26074e-05 1.26059e-05 1.26043e-05 1.26025e-05 1.26003e-05 1.25976e-05
          1.2594e-05 1.39113e-05 1.54512e-05 1.7265e-05 1.93964e-05 1.89816e-05
        </DataArray>
        <DataArray type="Float32" Name="X^w_citrate" NumberOfComponents="1" format="ascii">
          0.000141787 0.000141787 0.000141787 0.000141787 0.000141787 0.000141788 0.000141789 0.000141789 0.000141789 0.000141789 0.000141789 0.000141789
          0.000141788 0.000141788 0.000141788 0.000141787 0.000141786 0.000141785 0.000141784 0.000141782 0.000141778 0.000141773 0.000141766 0.000141754
          0.000141733 0.0001417 0.000141632 0.000141471 0.000140963 0.000137948
        </DataArray>
        <DataArray type="Float32" Name="X^w_substrate" NumberOfComponents="1" format="ascii">
          7.5918e-12 1.07124e-11 1.51122e-11 2.12982e-11 2.99475e-11 4.15626e-11 5.93464e-11 8.31512e-11 1.1653e-10 1.63356e-10 2.29094e-10 3.2147e-10
          4.51447e-10 6.34652e-10 8.93501e-10 1.2604e-09 1.78268e-09 2.5304e-09 3.60901e-09 5.18069e-09 7.50171e-09 1.09912e-08 1.63656e-08 2.49208e-08
          3.91826e-08 6.45948e-08 1.14673e-07 2.30777e-07 5.91385e-07 2.71731e-06
        </DataArray>
        <DataArray type="Float32" Name="m^w_H2O" NumberOfComponents="1" format="ascii">
          55491.3 55491.3 55491.3 55491.3 55491.4 55491.8 55492.1 55492.1 55492.1 55492.1 55492.1 55492
          55492 55492 55492 55492 55492 55492 55492 55492 55492 55492 55491.9 55491.9
          55491.9 55491.9 55491.8 55491.6 55491.5 55491.6
        </DataArray>
        <DataArray type="Float32" Name="m^w_Air" NumberOfComponents="1" format="ascii">
          0.524417 0.520116 0.513426 0.495757 0.430899 0.198388 0.00330895 5.41971e-05 8.72796e-07 1.38257e-08 2.14839e-10 3.27474e-12
          4.91157e-14 7.22006e-16 1.04306e-17 1.47548e-19 2.04713e-21 2.78625e-23 3.70884e-25 4.82276e-27 6.11525e-29 7.52647e-31 8.89842e-33 9.92227e-35
          1.00441e-36 0 0 0 0 0
        </DataArray>
        <DataArray type="Float32" Name="m^w_AuComplex" NumberOfComponents="1" format="ascii">
          4.41701e-12 4.69057e-12 1.27649e-11 1.53813e-11 4.51309e-12 5.93722e-12 5.39878e-12 5.41984e-12 5.39318e-12 5.39573e-12 5.39722e-12 5.3844e-12
          5.36765e-12 5.39374e-12 5.384e-12 5.37218e-12 5.37982e-12 5.37248e-12 5.38094e-12 5.37946e-12 5.37797e-12 5.37681e-12 5.39003e-12 6.12135e-11
          3.38242e-07 3.964e-07 4.6966e-07 5.62923e-07 8.59325e-12 8.3631e-12
        </DataArray>
        <DataArray type="Float32" Name="m^w_nanoAu" NumberOfComponents="1" format="ascii">
          4.41701e-12 -1.47039e-12 4.4297e-13 3.05933e-12 -1.64788e-12 8.06612e-11 8.38244e-14 8.41758e-14 8.37589e-14 8.38141e-14 8.3849e-14 8.36509e-14
          8.33961e-14 8.38283e-14 8.36794e-14 8.35e-14 8.36324e-14 8.3525e-14 8.3671e-14 8.36567e-14 8.36877e-14 8.79105e-14 4.78604e-13 3.65303e-11
          3.31478e-09 3.65283e-09 4.04376e-09 4.44219e-09 8.64872e-14 8.32855e-14
        </DataArray>
        <DataArray type="Float32" Name="m^w_cyanide" NumberOfComponents="1" format="ascii">
          0.485787 0.48569 0.485596 0.485507 0.485421 0.485341 0.485259 0.485176 0.485097 0.485022 0.48495 0.484881
          0.484814 0.484751 0.484689 0.48463 0.484572 0.484514 0.484457 0.484398 0.484335 0.484265 0.484184 0.48408
          0.48394 0.534558 0.593734 0.66343 0.74533 0.72939
        </DataArray>
        <DataArray type="Float32" Name="m^w_citrate" NumberOfComponents="1" format="ascii">
          0.749694 0.749694 0.749694 0.749694 0.749695 0.7497 0.749704 0.749704 0.749704 0.749703 0.749702 0.749702
          0.7497 0.749699 0.749697 0.749694 0.74969 0.749684 0.749676 0.749664 0.749646 0.74962 0.74958 0.749515
          0.749408 0.749232 0.748872 0.748018 0.745333 0.729392
        </DataArray>
        <DataArray type="Float32" Name="m^w_substrate" NumberOfComponents="1" format="ascii">
          4.21331e-08 5.94519e-08 8.38697e-08 1.18201e-07 1.66203e-07 2.30665e-07 3.29361e-07 4.61473e-07 6.46717e-07 9.06595e-07 1.27143e-06 1.7841e-06
          2.50544e-06 3.5222e-06 4.95876e-06 6.99497e-06 9.89352e-06 1.40432e-05 2.00293e-05 2.87518e-05 4.1633e-05 6.0999e-05 9.08257e-05 0.000138305
          0.000217455 0.000358488 0.000636413 0.00128076 0.00328207 0.0150805
        </DataArray>
        <DataArray type="Float32" Name="process rank" NumberOfComponents="1" format="ascii">
          0 0 0 0 0 0 0 0 0 0 0 0
          0 0 0 0 0 0 0 0 0 0 0 0
          0 0 0 0 0 0
        </DataArray>
      </CellData>
      <Points>
        <DataArray type="Float32" Name="Coordinates" NumberOfComponents="3" format="ascii">
          0 0 0 0.5 0 0 0 0.0333333 0 0.5 0.0333333 0
          0 0.0666667 0 0.5 0.0666667 0 0 0.1 0 0.5 0.1 0
          0 0.133333 0 0.5 0.133333 0 0 0.166667 0 0.5 0.166667 0
          0 0.2 0 0.5 0.2 0 0 0.233333 0 0.5 0.233333 0
          0 0.266667 0 0.5 0.266667 0 0 0.3 0 0.5 0.3 0
          0 0.333333 0 0.5 0.333333 0 0 0.366667 0 0.5 0.366667 0
          0 0.4 0 0.5 0.4 0 0 0.433333 0 0.5 0.433333 0
          0 0.466667 0 0.5 0.466667 0 0 0.5 0 0.5 0.5 0
          0 0.533333 0 0.5 0.533333 0 0 0.566667 0 0.5 0.566667 0
          0 0.6 0 0.5 0.6 0 0 0.633333 0 0.5 0.633333 0
          0 0.666667 0 0.5 0.666667 0 0 0.7 0 0.5 0.7 0
          0 0.733333 0 0.5 0.733333 0 0 0.766667 0 0.5 0.766667 0
          0 0.8 0 0.5 0.8 0 0 0.833333 0 0.5 0.833333 0
          0 0.866667 0 0.5 0.866667 0 0 0.9 0 0.5 0.9 0
          0 0.933333 0 0.5 0.933333 0 0 0.966667 0 0.5 0.966667 0
          0 1 0 0.5 1 0
        </DataArray>
      </Points>
      <Cells>
        <DataArray type="Int32" Name="connectivity" NumberOfComponents="1" format="ascii">
          0 1 3 2 2 3 5 4 4 5 7 6
          6 7 9 8 8 9 11 10 10 11 13 12
          12 13 15 14 14 15 17 16 16 17 19 18
          18 19 21 20 20 21 23 22 22 23 25 24
          24 25 27 26 26 27 29 28 28 29 31 30
          30 31 33 32 32 33 35 34 34 35 37 36
          36 37 39 38 38 39 41 40 40 41 43 42
          42 43 45 44 44 45 47 46 46 47 49 48
          48 49 51 50 50 51 53 52 52 53 55 54
          54 55 57 56 56 57 59 58 58 59 61 60
        </DataArray>
        <DataArray type="Int32" Name="offsets" NumberOfComponents="1" format="ascii">
          4 8 12 16 20 24 28 32 36 40 44 48
          52 56 60 64 68 72 76 80 84 88 92 96
          100 104 108 112 116 120
        </DataArray>
        <DataArray type="UInt8" Name="types" NumberOfComponents="1" format="ascii">
          9 9 9 9 9 9 9 9 9 9 9 9
          9 9 9 9 9 9 9 9 9 9 9 9
          9 9 9 9 9 9
        </DataArray>
      </Cells>
    </Piece>
  </UnstructuredGrid>
</VTKFile>
