<?xml version="1.0"?>
<VTKFile type="UnstructuredGrid" version="0.1" byte_order="LittleEndian">
  <UnstructuredGrid>
    <Piece NumberOfCells="30" NumberOfPoints="62">
      <CellData Scalars="Sg">
        <DataArray type="Float32" Name="Sg" NumberOfComponents="1" format="ascii">
          0 0 0 0 0 0 0 0 0 0 0 0
          0 0 0 0 0 0 0 0 0 0 0 0
          0 0 0 0 0 0
        </DataArray>
        <DataArray type="Float32" Name="Sl" NumberOfComponents="1" format="ascii">
          1 1 1 1 1 1 1 1 1 1 1 1
          1 1 1 1 1 1 1 1 1 1 1 1
          1 1 1 1 1 1
        </DataArray>
        <DataArray type="Float32" Name="pg" NumberOfComponents="1" format="ascii">
          24687.8 24360.9 24034 23707 23380.1 23053.1 22726.2 22399.3 22072.3 21745.4 21418.4 21091.5
          20764.6 20437.6 20110.7 19783.7 19456.8 19129.8 18802.9 18476 18149 17822.1 17495.1 17168.2
          16841.3 16514.3 16187.4 15860.4 15533.5 15209.7
        </DataArray>
        <DataArray type="Float32" Name="pl" NumberOfComponents="1" format="ascii">
          110628 110301 109974 109647 109320 108993 108666 108339 108012 107685 107358 107031
          106704 106377 106050 105723 105396 105070 104743 104416 104089 103762 103435 103108
          102781 102454 102127 101800 101473 101149
        </DataArray>
        <DataArray type="Float32" Name="pc" NumberOfComponents="1" format="ascii">
          -85939.7 -85939.7 -85939.7 -85939.7 -85939.7 -85939.7 -85939.7 -85939.7 -85939.7 -85939.7 -85939.7 -85939.7
          -85939.7 -85939.7 -85939.7 -85939.7 -85939.7 -85939.7 -85939.7 -85939.7 -85939.7 -85939.7 -85939.7 -85939.7
          -85939.7 -85939.7 -85939.7 -85939.7 -85939.7 -85939.7
        </DataArray>
        <DataArray type="Float32" Name="rhoL" NumberOfComponents="1" format="ascii">
          999.855 999.855 999.855 999.855 999.855 999.854 999.854 999.854 999.854 999.854 999.854 999.854
          999.853 999.853 999.853 999.853 999.853 999.853 999.852 999.852 999.852 999.852 999.852 999.852
          999.852 999.851 999.851 999.851 999.851 999.851
        </DataArray>
        <DataArray type="Float32" Name="rhoG" NumberOfComponents="1" format="ascii">
          0.30585 0.3018 0.29775 0.293699 0.289649 0.285598 0.281548 0.277498 0.273447 0.269397 0.265347 0.261296
          0.257246 0.253195 0.249145 0.245095 0.241044 0.236994 0.232944 0.228893 0.224843 0.220793 0.216742 0.212692
          0.208641 0.204591 0.200541 0.19649 0.19244 0.188428
        </DataArray>
        <DataArray type="Float32" Name="mobL" NumberOfComponents="1" format="ascii">
          722.171 722.17 722.17 722.17 722.17 722.17 722.169 722.169 722.169 722.169 722.169 722.169
          722.168 722.168 722.168 722.168 722.168 722.167 722.167 722.167 722.167 722.167 722.166 722.166
          722.166 722.166 722.166 722.166 722.165 722.165
        </DataArray>
        <DataArray type="Float32" Name="mobG" NumberOfComponents="1" format="ascii">
          0 0 0 0 0 0 0 0 0 0 0 0
          0 0 0 0 0 0 0 0 0 0 0 0
          0 0 0 0 0 0
        </DataArray>
        <DataArray type="Float32" Name="porosity" NumberOfComponents="1" format="ascii">
          0.298885 0.298885 0.298885 0.298885 0.298884 0.298884 0.298883 0.298882 0.298881 0.298879 0.298877 0.298874
          0.29887 0.298864 0.298856 0.298845 0.29883 0.298811 0.298784 0.298747 0.298697 0.298626 0.298524 0.298371
          0.297858 0.297437 0.296586 0.294297 0.282638 0.0446549
        </DataArray>
        <DataArray type="Float32" Name="temperature" NumberOfComponents="1" format="ascii">
          281.15 281.15 281.15 281.15 281.15 281.15 281.15 281.15 281.15 281.15 281.15 281.15
          281.15 281.15 281.15 281.15 281.15 281.15 281.15 281.15 281.15 281.15 281.15 281.15
          281.15 281.15 281.15 281.15 281.15 281.15
        </DataArray>
        <DataArray type="Float32" Name="phase presence" NumberOfComponents="1" format="ascii">
          1 1 1 1 1 1 1 1 1 1 1 1
          1 1 1 1 1 1 1 1 1 1 1 1
          1 1 1 1 1 1
        </DataArray>
        <DataArray type="Float32" Name="precipitateVolumeFraction_au" NumberOfComponents="1" format="ascii">
          5.5243e-10 5.52589e-10 5.52473e-10 5.52572e-10 5.52567e-10 5.52593e-10 5.52579e-10 5.52605e-10 5.52578e-10 5.52586e-10 5.5259e-10 5.52567e-10
          5.52521e-10 5.52606e-10 5.52575e-10 5.52519e-10 5.52561e-10 5.52511e-10 5.52584e-10 5.5258e-10 5.52577e-10 5.52575e-10 5.52808e-10 1.28262e-09
          0.000269851 0.000269835 0.000269817 0.000269794 5.52284e-10 5.5132e-10
        </DataArray>
        <DataArray type="Float32" Name="precipitateVolumeFraction_nanoAu" NumberOfComponents="1" format="ascii">
          3.06226e-13 3.06314e-13 3.0625e-13 3.06305e-13 3.06302e-13 3.06316e-13 3.06308e-13 3.06323e-13 3.06308e-13 3.06312e-13 3.06314e-13 3.06301e-13
          3.06275e-13 3.06321e-13 3.06303e-13 3.0627e-13 3.06292e-13 3.06261e-13 3.06299e-13 3.06292e-13 3.06284e-13 3.06303e-13 3.13121e-13 2.54932e-11
          1.49545e-07 1.65261e-07 1.83699e-07 2.05509e-07 4.74283e-13 4.67858e-13
        </DataArray>
        <DataArray type="Float32" Name="precipitateVolumeFraction_d" NumberOfComponents="1" format="ascii">
          0.000557487 0.000557544 0.000557625 0.000557739 0.000557898 0.00055812 0.000558432 0.000558865 0.000559466 0.000560299 0.000561445 0.000563019
          0.000565171 0.000568104 0.000572087 0.000577483 0.000584784 0.000594668 0.000608085 0.000626406 0.00065169 0.000687168 0.00073824 0.000814643
          0.000935799 0.00114641 0.00157212 0.00271638 0.0086812 0.127673
        </DataArray>
        <DataArray type="Float32" Name="precipitateVolumeFraction_p" NumberOfComponents="1" format="ascii">
          0.000557487 0.000557544 0.000557625 0.000557739 0.000557898 0.00055812 0.000558432 0.000558865 0.000559466 0.000560299 0.000561445 0.000563019
          0.000565171 0.000568104 0.000572087 0.000577483 0.000584784 0.000594668 0.000608085 0.000626406 0.00065169 0.000687168 0.00073824 0.000814643
          0.000935799 0.00114641 0.00157212 0.00271638 0.0086812 0.127673
        </DataArray>
        <DataArray type="Float32" Name="K" NumberOfComponents="1" format="ascii">
          9.85749e-11 9.85747e-11 9.85745e-11 9.85743e-11 9.85738e-11 9.85733e-11 9.85725e-11 9.85714e-11 9.85699e-11 9.85677e-11 9.85648e-11 9.85608e-11
          9.85554e-11 9.85479e-11 9.85378e-11 9.85241e-11 9.85055e-11 9.84804e-11 9.84464e-11 9.83999e-11 9.83357e-11 9.82458e-11 9.81164e-11 9.79232e-11
          9.72775e-11 9.67493e-11 9.56888e-11 9.28854e-11 7.96242e-11 1.7706e-13
        </DataArray>
        <DataArray type="Float32" Name="X^w_H2O" NumberOfComponents="1" format="ascii">
          0.999846 0.999846 0.999846 0.999846 0.999846 0.999846 0.999846 0.999846 0.999846 0.999846 0.999846 0.999846
          0.999846 0.999846 0.999846 0.999846 0.999846 0.999846 0.999846 0.999846 0.999846 0.999846 0.999846 0.999846
          0.999846 0.999844 0.999843 0.999841 0.999839 0.99984
        </DataArray>
        <DataArray type="Float32" Name="X^w_Air" NumberOfComponents="1" format="ascii">
          0 0 0 0 0 0 0 0 0 0 0 0
          0 0 0 0 0 0 0 0 0 0 0 0
          0 0 0 0 0 0
        </DataArray>
        <DataArray type="Float32" Name="X^w_AuComplex" NumberOfComponents="1" format="ascii">
          1.35954e-16 1.35993e-16 1.35964e-16 1.35989e-16 1.35987e-16 1.35994e-16 1.3599e-16 1.35997e-16 1.3599e-16 1.35992e-16 1.35992e-16 1.35987e-16
          1.35975e-16 1.35995e-16 1.35987e-16 1.35972e-16 1.35981e-16 1.35967e-16 1.35983e-16 1.35978e-16 1.35973e-16 1.35974e-16 1.38535e-16 1.12764e-14
          6.63809e-11 7.79577e-11 9.26553e-11 1.11616e-10 2.79544e-16 2.73439e-16
        </DataArray>
        <DataArray type="Float32" Name="X^w_nanoAu" NumberOfComponents="1" format="ascii">
          1.33366e-18 1.33403e-18 1.33376e-18 1.334e-18 1.33398e-18 1.33404e-18 1.33401e-18 1.33407e-18 1.33401e-18 1.33402e-18 1.33403e-18 1.33397e-18
          1.33386e-18 1.33406e-18 1.33397e-18 1.33383e-18 1.33392e-18 1.33378e-18 1.33393e-18 1.33398e-18 1.34283e-18 2.16685e-18 7.84974e-17 7.14691e-15
          6.51903e-13 7.20401e-13 8.00577e-13 8.84571e-13 2.06002e-18 1.98758e-18
        </DataArray>
        <DataArray type="Float32" Name="X^w_cyanide" NumberOfComponents="1" format="ascii">
          1.25643e-05 1.25643e-05 1.25643e-05 1.25643e-05 1.25643e-05 1.25643e-05 1.25643e-05 1.25643e-05 1.25643e-05 1.25643e-05 1.25643e-05 1.25643e-05
          1.25643e-05 1.25642e-05 1.25642e-05 1.25641e-05 1.25641e-05 1.2564e-05 1.25638e-05 1.25636e-05 1.25634e-05 1.2563e-05 1.25625e-05 1.25617e-05
          1.25606e-05 1.38814e-05 1.54311e-05 1.72689e-05 1.94652e-05 1.9239e-05
        </DataArray>
        <DataArray type="Float32" Name="X^w_citrate" NumberOfComponents="1" format="ascii">
          0.000141789 0.000141789 0.000141789 0.000141789 0.000141789 0.000141789 0.000141789 0.000141789 0.000141789 0.000141789 0.000141788 0.000141788
          0.000141788 0.000141788 0.000141788 0.000141787 0.000141787 0.000141786 0.000141785 0.000141783 0.000141782 0.000141779 0.000141775 0.000141769
          0.00014176 0.000141748 0.000141723 0.000141663 0.000141462 0.000139819
        </DataArray>
        <DataArray type="Float32" Name="X^w_substrate" NumberOfComponents="1" format="ascii">
          1.96908e-11 2.58957e-11 3.40539e-11 4.47802e-11 5.88831e-11 7.74267e-11 1.01811e-10 1.33883e-10 1.76075e-10 2.31605e-10 3.04732e-10 4.0111e-10
          5.2828e-10 6.9635e-10 9.1896e-10 1.21469e-09 1.60912e-09 2.13803e-09 2.8524e-09 3.82657e-09 5.17227e-09 7.06385e-09 9.78671e-09 1.38378e-08
          2.01559e-08 3.07229e-08 5.0447e-08 9.48418e-08 2.38976e-07 1.39804e-06
        </DataArray>
        <DataArray type="Float32" Name="m^w_H2O" NumberOfComponents="1" format="ascii">
          55492.1 55492.1 55492.1 55492.1 55492.1 55492.1 55492.1 55492.1 55492.1 55492.1 55492.1 55492
          55492 55492 55492 55492 55492 55492 55492 55492 55492 55492 55491.9 55491.9
          55491.9 55491.9 55491.8 55491.6 55491.5 55491.6
        </DataArray>
        <DataArray type="Float32" Name="m^w_Air" NumberOfComponents="1" format="ascii">
          0 0 0 0 0 0 0 0 0 0 0 0
          0 0 0 0 0 0 0 0 0 0 0 0
          0 0 0 0 0 0
        </DataArray>
        <DataArray type="Float32" Name="m^w_AuComplex" NumberOfComponents="1" format="ascii">
          6.90126e-13 6.90324e-13 6.90179e-13 6.90303e-13 6.90297e-13 6.90328e-13 6.9031e-13 6.90343e-13 6.90308e-13 6.90318e-13 6.90321e-13 6.90291e-13
          6.90232e-13 6.90335e-13 6.90292e-13 6.90217e-13 6.90263e-13 6.90191e-13 6.9027e-13 6.90249e-13 6.90223e-13 6.90227e-13 7.03226e-13 5.72407e-11
          3.3696e-07 3.95726e-07 4.70333e-07 5.66581e-07 1.41901e-12 1.38802e-12
        </DataArray>
        <DataArray type="Float32" Name="m^w_nanoAu" NumberOfComponents="1" format="ascii">
          6.76989e-15 6.77179e-15 6.7704e-15 6.7716e-15 6.77154e-15 6.77184e-15 6.77168e-15 6.77199e-15 6.77165e-15 6.77174e-15 6.77177e-15 6.77147e-15
          6.7709e-15 6.7719e-15 6.77147e-15 6.77075e-15 6.77118e-15 6.77049e-15 6.77126e-15 6.77153e-15 6.81643e-15 1.09993e-14 3.98465e-13 3.62789e-11
          3.30917e-09 3.65687e-09 4.06386e-09 4.49022e-09 1.0457e-14 1.00893e-14
        </DataArray>
        <DataArray type="Float32" Name="m^w_cyanide" NumberOfComponents="1" format="ascii">
          0.482803 0.482802 0.482802 0.482802 0.482802 0.482802 0.482802 0.482802 0.482801 0.482801 0.4828 0.4828
          0.482799 0.482798 0.482796 0.482794 0.482791 0.482787 0.482781 0.482774 0.482764 0.48275 0.48273 0.482699
          0.482657 0.53341 0.592959 0.663578 0.747975 0.739284
        </DataArray>
        <DataArray type="Float32" Name="m^w_citrate" NumberOfComponents="1" format="ascii">
          0.749704 0.749704 0.749704 0.749704 0.749704 0.749703 0.749703 0.749703 0.749702 0.749702 0.749701 0.7497
          0.749699 0.749698 0.749696 0.749694 0.74969 0.749686 0.749681 0.749673 0.749663 0.749649 0.749628 0.749598
          0.74955 0.749485 0.749353 0.749037 0.747975 0.739284
        </DataArray>
        <DataArray type="Float32" Name="m^w_substrate" NumberOfComponents="1" format="ascii">
          1.0928e-07 1.43716e-07 1.88993e-07 2.48522e-07 3.2679e-07 4.29704e-07 5.65034e-07 7.43025e-07 9.77185e-07 1.28537e-06 1.6912e-06 2.22608e-06
          2.93185e-06 3.86461e-06 5.10005e-06 6.74127e-06 8.93028e-06 1.18657e-05 1.58303e-05 2.12367e-05 2.87051e-05 3.9203e-05 5.43143e-05 7.67969e-05
          0.000111861 0.000170506 0.000279971 0.000526353 0.00132627 0.00775882
        </DataArray>
        <DataArray type="Float32" Name="process rank" NumberOfComponents="1" format="ascii">
          0 0 0 0 0 0 0 0 0 0 0 0
          0 0 0 0 0 0 0 0 0 0 0 0
          0 0 0 0 0 0
        </DataArray>
      </CellData>
      <Points>
        <DataArray type="Float32" Name="Coordinates" NumberOfComponents="3" format="ascii">
          0 0 0 0.5 0 0 0 0.0333333 0 0.5 0.0333333 0
          0 0.0666667 0 0.5 0.0666667 0 0 0.1 0 0.5 0.1 0
          0 0.133333 0 0.5 0.133333 0 0 0.166667 0 0.5 0.166667 0
          0 0.2 0 0.5 0.2 0 0 0.233333 0 0.5 0.233333 0
          0 0.266667 0 0.5 0.266667 0 0 0.3 0 0.5 0.3 0
          0 0.333333 0 0.5 0.333333 0 0 0.366667 0 0.5 0.366667 0
          0 0.4 0 0.5 0.4 0 0 0.433333 0 0.5 0.433333 0
          0 0.466667 0 0.5 0.466667 0 0 0.5 0 0.5 0.5 0
          0 0.533333 0 0.5 0.533333 0 0 0.566667 0 0.5 0.566667 0
          0 0.6 0 0.5 0.6 0 0 0.633333 0 0.5 0.633333 0
          0 0.666667 0 0.5 0.666667 0 0 0.7 0 0.5 0.7 0
          0 0.733333 0 0.5 0.733333 0 0 0.766667 0 0.5 0.766667 0
          0 0.8 0 0.5 0.8 0 0 0.833333 0 0.5 0.833333 0
          0 0.866667 0 0.5 0.866667 0 0 0.9 0 0.5 0.9 0
          0 0.933333 0 0.5 0.933333 0 0 0.966667 0 0.5 0.966667 0
          0 1 0 0.5 1 0
        </DataArray>
      </Points>
      <Cells>
        <DataArray type="Int32" Name="connectivity" NumberOfComponents="1" format="ascii">
          0 1 3 2 2 3 5 4 4 5 7 6
          6 7 9 8 8 9 11 10 10 11 13 12
          12 13 15 14 14 15 17 16 16 17 19 18
          18 19 21 20 20 21 23 22 22 23 25 24
          24 25 27 26 26 27 29 28 28 29 31 30
          30 31 33 32 32 33 35 34 34 35 37 36
          36 37 39 38 38 39 41 40 40 41 43 42
          42 43 45 44 44 45 47 46 46 47 49 48
          48 49 51 50 50 51 53 52 52 53 55 54
          54 55 57 56 56 57 59 58 58 59 61 60
        </DataArray>
        <DataArray type="Int32" Name="offsets" NumberOfComponents="1" format="ascii">
          4 8 12 16 20 24 28 32 36 40 44 48
          52 56 60 64 68 72 76 80 84 88 92 96
          100 104 108 112 116 120
        </DataArray>
        <DataArray type="UInt8" Name="types" NumberOfComponents="1" format="ascii">
          9 9 9 9 9 9 9 9 9 9 9 9
          9 9 9 9 9 9 9 9 9 9 9 9
          9 9 9 9 9 9
        </DataArray>
      </Cells>
    </Piece>
  </UnstructuredGrid>
</VTKFile>
