<?xml version="1.0"?>
<VTKFile type="UnstructuredGrid" version="0.1" byte_order="LittleEndian">
  <UnstructuredGrid>
    <Piece NumberOfCells="30" NumberOfPoints="62">
      <CellData Scalars="Sg">
        <DataArray type="Float32" Name="Sg" NumberOfComponents="1" format="ascii">
          0 0 0 0 0 0 0 0 0 0 0 0
          0 0 0 0 0 0 0 0 0 0 0 0
          0 0 0 0 0 0
        </DataArray>
        <DataArray type="Float32" Name="Sl" NumberOfComponents="1" format="ascii">
          1 1 1 1 1 1 1 1 1 1 1 1
          1 1 1 1 1 1 1 1 1 1 1 1
          1 1 1 1 1 1
        </DataArray>
        <DataArray type="Float32" Name="pg" NumberOfComponents="1" format="ascii">
          24687.8 24360.9 24034 23707 23380.1 23053.1 22726.2 22399.3 22072.3 21745.4 21418.4 21091.5
          20764.6 20437.6 20110.7 19783.7 19456.8 19129.8 18802.9 18476 18149 17822.1 17495.1 17168.2
          16841.3 16514.3 16187.4 15860.4 15533.5 15209.6
        </DataArray>
        <DataArray type="Float32" Name="pl" NumberOfComponents="1" format="ascii">
          110628 110301 109974 109647 109320 108993 108666 108339 108012 107685 107358 107031
          106704 106377 106050 105723 105396 105070 104743 104416 104089 103762 103435 103108
          102781 102454 102127 101800 101473 101149
        </DataArray>
        <DataArray type="Float32" Name="pc" NumberOfComponents="1" format="ascii">
          -85939.7 -85939.7 -85939.7 -85939.7 -85939.7 -85939.7 -85939.7 -85939.7 -85939.7 -85939.7 -85939.7 -85939.7
          -85939.7 -85939.7 -85939.7 -85939.7 -85939.7 -85939.7 -85939.7 -85939.7 -85939.7 -85939.7 -85939.7 -85939.7
          -85939.7 -85939.7 -85939.7 -85939.7 -85939.7 -85939.7
        </DataArray>
        <DataArray type="Float32" Name="rhoL" NumberOfComponents="1" format="ascii">
          999.855 999.855 999.855 999.855 999.855 999.854 999.854 999.854 999.854 999.854 999.854 999.854
          999.853 999.853 999.853 999.853 999.853 999.853 999.852 999.852 999.852 999.852 999.852 999.852
          999.852 999.851 999.851 999.851 999.851 999.851
        </DataArray>
        <DataArray type="Float32" Name="rhoG" NumberOfComponents="1" format="ascii">
          0.30585 0.3018 0.29775 0.293699 0.289649 0.285598 0.281548 0.277498 0.273447 0.269397 0.265347 0.261296
          0.257246 0.253195 0.249145 0.245095 0.241044 0.236994 0.232944 0.228893 0.224843 0.220793 0.216742 0.212692
          0.208641 0.204591 0.200541 0.19649 0.19244 0.188427
        </DataArray>
        <DataArray type="Float32" Name="mobL" NumberOfComponents="1" format="ascii">
          722.171 722.17 722.17 722.17 722.17 722.17 722.169 722.169 722.169 722.169 722.169 722.169
          722.168 722.168 722.168 722.168 722.168 722.167 722.167 722.167 722.167 722.167 722.166 722.166
          722.166 722.166 722.166 722.166 722.165 722.165
        </DataArray>
        <DataArray type="Float32" Name="mobG" NumberOfComponents="1" format="ascii">
          0 0 0 0 0 0 0 0 0 0 0 0
          0 0 0 0 0 0 0 0 0 0 0 0
          0 0 0 0 0 0
        </DataArray>
        <DataArray type="Float32" Name="porosity" NumberOfComponents="1" format="ascii">
          0.298833 0.298833 0.298833 0.298832 0.298832 0.298832 0.298831 0.29883 0.298829 0.298827 0.298825 0.298822
          0.298817 0.298811 0.298803 0.298792 0.298776 0.298756 0.298728 0.29869 0.298638 0.298565 0.29846 0.298303
          0.297784 0.297355 0.296495 0.294222 0.283045 0.0450309
        </DataArray>
        <DataArray type="Float32" Name="temperature" NumberOfComponents="1" format="ascii">
          281.15 281.15 281.15 281.15 281.15 281.15 281.15 281.15 281.15 281.15 281.15 281.15
          281.15 281.15 281.15 281.15 281.15 281.15 281.15 281.15 281.15 281.15 281.15 281.15
          281.15 281.15 281.15 281.15 281.15 281.15
        </DataArray>
        <DataArray type="Float32" Name="phase presence" NumberOfComponents="1" format="ascii">
          1 1 1 1 1 1 1 1 1 1 1 1
          1 1 1 1 1 1 1 1 1 1 1 1
          1 1 1 1 1 1
        </DataArray>
        <DataArray type="Float32" Name="precipitateVolumeFraction_au" NumberOfComponents="1" format="ascii">
          5.5243e-10 5.52589e-10 5.52473e-10 5.52572e-10 5.52567e-10 5.52593e-10 5.52579e-10 5.52605e-10 5.52578e-10 5.52586e-10 5.5259e-10 5.52567e-10
          5.52521e-10 5.52606e-10 5.52575e-10 5.52519e-10 5.52561e-10 5.52511e-10 5.52584e-10 5.5258e-10 5.52577e-10 5.52575e-10 5.52779e-10 1.17556e-09
          0.000269851 0.000269835 0.000269817 0.000269794 5.52284e-10 5.5132e-10
        </DataArray>
        <DataArray type="Float32" Name="precipitateVolumeFraction_nanoAu" NumberOfComponents="1" format="ascii">
          3.06229e-13 3.06317e-13 3.06253e-13 3.06308e-13 3.06305e-13 3.06319e-13 3.06311e-13 3.06326e-13 3.06311e-13 3.06315e-13 3.06317e-13 3.06304e-13
          3.06278e-13 3.06324e-13 3.06306e-13 3.06274e-13 3.06295e-13 3.06265e-13 3.06302e-13 3.06296e-13 3.06289e-13 3.06307e-13 3.131e-13 2.5435e-11
          1.49547e-07 1.65263e-07 1.837e-07 2.05507e-07 4.74258e-13 4.67845e-13
        </DataArray>
        <DataArray type="Float32" Name="precipitateVolumeFraction_d" NumberOfComponents="1" format="ascii">
          0.000583528 0.000583587 0.00058367 0.000583787 0.000583951 0.00058418 0.000584501 0.000584949 0.00058557 0.00058643 0.000587616 0.000589244
          0.000591472 0.000594508 0.000598632 0.000604219 0.000611779 0.00062201 0.000635891 0.000654835 0.000680954 0.000717561 0.000770169 0.000848683
          0.000972761 0.00118733 0.00161728 0.00275424 0.00847733 0.127485
        </DataArray>
        <DataArray type="Float32" Name="precipitateVolumeFraction_p" NumberOfComponents="1" format="ascii">
          0.000583528 0.000583587 0.00058367 0.000583787 0.000583951 0.00058418 0.000584501 0.000584949 0.00058557 0.00058643 0.000587616 0.000589244
          0.000591472 0.000594508 0.000598632 0.000604219 0.000611779 0.00062201 0.000635891 0.000654835 0.000680954 0.000717561 0.000770169 0.000848683
          0.000972761 0.00118733 0.00161728 0.00275424 0.00847733 0.127485
        </DataArray>
        <DataArray type="Float32" Name="K" NumberOfComponents="1" format="ascii">
          9.85087e-11 9.85086e-11 9.85084e-11 9.85081e-11 9.85077e-11 9.85071e-11 9.85063e-11 9.85051e-11 9.85035e-11 9.85014e-11 9.84983e-11 9.84942e-11
          9.84886e-11 9.84808e-11 9.84704e-11 9.84562e-11 9.8437e-11 9.8411e-11 9.83758e-11 9.83278e-11 9.82615e-11 9.81688e-11 9.80356e-11 9.78372e-11
          9.71846e-11 9.66469e-11 9.55768e-11 9.27938e-11 8.00603e-11 1.81713e-13
        </DataArray>
        <DataArray type="Float32" Name="X^w_H2O" NumberOfComponents="1" format="ascii">
          0.999846 0.999846 0.999846 0.999846 0.999846 0.999846 0.999846 0.999846 0.999846 0.999846 0.999846 0.999846
          0.999846 0.999846 0.999846 0.999846 0.999846 0.999846 0.999846 0.999846 0.999846 0.999846 0.999846 0.999846
          0.999846 0.999844 0.999843 0.999841 0.999839 0.99984
        </DataArray>
        <DataArray type="Float32" Name="X^w_Air" NumberOfComponents="1" format="ascii">
          0 0 0 0 0 0 0 0 0 0 0 0
          0 0 0 0 0 0 0 0 0 0 0 0
          0 0 0 0 0 0
        </DataArray>
        <DataArray type="Float32" Name="X^w_AuComplex" NumberOfComponents="1" format="ascii">
          1.35956e-16 1.35995e-16 1.35966e-16 1.35991e-16 1.35989e-16 1.35995e-16 1.35992e-16 1.35998e-16 1.35992e-16 1.35993e-16 1.35994e-16 1.35988e-16
          1.35977e-16 1.35997e-16 1.35989e-16 1.35974e-16 1.35983e-16 1.35969e-16 1.35985e-16 1.35981e-16 1.35976e-16 1.35977e-16 1.38527e-16 1.12506e-14
          6.63825e-11 7.79592e-11 9.26562e-11 1.11614e-10 2.7952e-16 2.73428e-16
        </DataArray>
        <DataArray type="Float32" Name="X^w_nanoAu" NumberOfComponents="1" format="ascii">
          1.33367e-18 1.33405e-18 1.33377e-18 1.33401e-18 1.334e-18 1.33406e-18 1.33402e-18 1.33409e-18 1.33402e-18 1.33404e-18 1.33404e-18 1.33399e-18
          1.33387e-18 1.33407e-18 1.33399e-18 1.33385e-18 1.33393e-18 1.3338e-18 1.33395e-18 1.33401e-18 1.34285e-18 2.16689e-18 7.84984e-17 7.14691e-15
          6.51917e-13 7.20413e-13 8.00582e-13 8.84551e-13 2.0598e-18 1.98748e-18
        </DataArray>
        <DataArray type="Float32" Name="X^w_cyanide" NumberOfComponents="1" format="ascii">
          1.25644e-05 1.25644e-05 1.25644e-05 1.25644e-05 1.25644e-05 1.25644e-05 1.25644e-05 1.25644e-05 1.25644e-05 1.25644e-05 1.25644e-05 1.25644e-05
          1.25644e-05 1.25643e-05 1.25643e-05 1.25642e-05 1.25642e-05 1.25641e-05 1.2564e-05 1.25638e-05 1.25635e-05 1.25632e-05 1.25627e-05 1.25619e-05
          1.25608e-05 1.38816e-05 1.54312e-05 1.72687e-05 1.94642e-05 1.92386e-05
        </DataArray>
        <DataArray type="Float32" Name="X^w_citrate" NumberOfComponents="1" format="ascii">
          0.000141789 0.000141789 0.000141789 0.000141789 0.000141789 0.000141789 0.000141789 0.000141789 0.000141789 0.000141789 0.000141789 0.000141788
          0.000141788 0.000141788 0.000141788 0.000141787 0.000141787 0.000141786 0.000141785 0.000141784 0.000141782 0.000141779 0.000141776 0.00014177
          0.000141761 0.000141749 0.000141723 0.000141662 0.000141455 0.000139816
        </DataArray>
        <DataArray type="Float32" Name="X^w_substrate" NumberOfComponents="1" format="ascii">
          1.45732e-11 1.93788e-11 2.57677e-11 3.42612e-11 4.55528e-11 6.0565e-11 8.05257e-11 1.07071e-10 1.42381e-10 1.8937e-10 2.51937e-10 3.35316e-10
          4.46557e-10 5.95211e-10 7.94296e-10 1.06172e-09 1.42238e-09 1.91141e-09 2.57932e-09 3.50036e-09 4.78703e-09 6.61609e-09 9.27881e-09 1.32853e-08
          1.9604e-08 3.02867e-08 5.04232e-08 9.60691e-08 2.44096e-07 1.4001e-06
        </DataArray>
        <DataArray type="Float32" Name="m^w_H2O" NumberOfComponents="1" format="ascii">
          55492.1 55492.1 55492.1 55492.1 55492.1 55492.1 55492.1 55492.1 55492.1 55492.1 55492.1 55492
          55492 55492 55492 55492 55492 55492 55492 55492 55492 55492 55491.9 55491.9
          55491.9 55491.9 55491.8 55491.6 55491.5 55491.6
        </DataArray>
        <DataArray type="Float32" Name="m^w_Air" NumberOfComponents="1" format="ascii">
          0 0 0 0 0 0 0 0 0 0 0 0
          0 0 0 0 0 0 0 0 0 0 0 0
          0 0 0 0 0 0
        </DataArray>
        <DataArray type="Float32" Name="m^w_AuComplex" NumberOfComponents="1" format="ascii">
          6.90135e-13 6.90333e-13 6.90188e-13 6.90312e-13 6.90305e-13 6.90337e-13 6.90319e-13 6.90352e-13 6.90317e-13 6.90326e-13 6.9033e-13 6.903e-13
          6.90241e-13 6.90344e-13 6.90302e-13 6.90227e-13 6.90274e-13 6.90202e-13 6.90282e-13 6.90261e-13 6.90237e-13 6.90242e-13 7.03184e-13 5.71099e-11
          3.36968e-07 3.95734e-07 4.70338e-07 5.66572e-07 1.41889e-12 1.38797e-12
        </DataArray>
        <DataArray type="Float32" Name="m^w_nanoAu" NumberOfComponents="1" format="ascii">
          6.76996e-15 6.77186e-15 6.77047e-15 6.77167e-15 6.77161e-15 6.77191e-15 6.77174e-15 6.77205e-15 6.77171e-15 6.77181e-15 6.77184e-15 6.77154e-15
          6.77097e-15 6.77197e-15 6.77155e-15 6.77083e-15 6.77127e-15 6.77058e-15 6.77136e-15 6.77164e-15 6.81655e-15 1.09995e-14 3.98471e-13 3.62789e-11
          3.30924e-09 3.65693e-09 4.06388e-09 4.49012e-09 1.04559e-14 1.00888e-14
        </DataArray>
        <DataArray type="Float32" Name="m^w_cyanide" NumberOfComponents="1" format="ascii">
          0.482806 0.482806 0.482806 0.482806 0.482806 0.482806 0.482805 0.482805 0.482805 0.482804 0.482804 0.482803
          0.482802 0.482801 0.4828 0.482798 0.482795 0.482791 0.482786 0.482779 0.48277 0.482756 0.482736 0.482706
          0.482664 0.533416 0.592963 0.663572 0.747936 0.739268
        </DataArray>
        <DataArray type="Float32" Name="m^w_citrate" NumberOfComponents="1" format="ascii">
          0.749704 0.749704 0.749704 0.749704 0.749704 0.749703 0.749703 0.749703 0.749702 0.749702 0.749701 0.749701
          0.7497 0.749698 0.749697 0.749695 0.749692 0.749688 0.749683 0.749676 0.749666 0.749652 0.749632 0.749602
          0.749555 0.749489 0.749353 0.749028 0.747937 0.739269
        </DataArray>
        <DataArray type="Float32" Name="m^w_substrate" NumberOfComponents="1" format="ascii">
          8.08787e-08 1.07549e-07 1.43006e-07 1.90143e-07 2.5281e-07 3.36124e-07 4.46902e-07 5.94221e-07 7.90187e-07 1.05097e-06 1.3982e-06 1.86094e-06
          2.47831e-06 3.30331e-06 4.40819e-06 5.89233e-06 7.89391e-06 1.0608e-05 1.43147e-05 1.94263e-05 2.65671e-05 3.6718e-05 5.14955e-05 7.37308e-05
          0.000108798 0.000168085 0.000279839 0.000533164 0.00135468 0.00777025
        </DataArray>
        <DataArray type="Float32" Name="process rank" NumberOfComponents="1" format="ascii">
          0 0 0 0 0 0 0 0 0 0 0 0
          0 0 0 0 0 0 0 0 0 0 0 0
          0 0 0 0 0 0
        </DataArray>
      </CellData>
      <Points>
        <DataArray type="Float32" Name="Coordinates" NumberOfComponents="3" format="ascii">
          0 0 0 0.5 0 0 0 0.0333333 0 0.5 0.0333333 0
          0 0.0666667 0 0.5 0.0666667 0 0 0.1 0 0.5 0.1 0
          0 0.133333 0 0.5 0.133333 0 0 0.166667 0 0.5 0.166667 0
          0 0.2 0 0.5 0.2 0 0 0.233333 0 0.5 0.233333 0
          0 0.266667 0 0.5 0.266667 0 0 0.3 0 0.5 0.3 0
          0 0.333333 0 0.5 0.333333 0 0 0.366667 0 0.5 0.366667 0
          0 0.4 0 0.5 0.4 0 0 0.433333 0 0.5 0.433333 0
          0 0.466667 0 0.5 0.466667 0 0 0.5 0 0.5 0.5 0
          0 0.533333 0 0.5 0.533333 0 0 0.566667 0 0.5 0.566667 0
          0 0.6 0 0.5 0.6 0 0 0.633333 0 0.5 0.633333 0
          0 0.666667 0 0.5 0.666667 0 0 0.7 0 0.5 0.7 0
          0 0.733333 0 0.5 0.733333 0 0 0.766667 0 0.5 0.766667 0
          0 0.8 0 0.5 0.8 0 0 0.833333 0 0.5 0.833333 0
          0 0.866667 0 0.5 0.866667 0 0 0.9 0 0.5 0.9 0
          0 0.933333 0 0.5 0.933333 0 0 0.966667 0 0.5 0.966667 0
          0 1 0 0.5 1 0
        </DataArray>
      </Points>
      <Cells>
        <DataArray type="Int32" Name="connectivity" NumberOfComponents="1" format="ascii">
          0 1 3 2 2 3 5 4 4 5 7 6
          6 7 9 8 8 9 11 10 10 11 13 12
          12 13 15 14 14 15 17 16 16 17 19 18
          18 19 21 20 20 21 23 22 22 23 25 24
          24 25 27 26 26 27 29 28 28 29 31 30
          30 31 33 32 32 33 35 34 34 35 37 36
          36 37 39 38 38 39 41 40 40 41 43 42
          42 43 45 44 44 45 47 46 46 47 49 48
          48 49 51 50 50 51 53 52 52 53 55 54
          54 55 57 56 56 57 59 58 58 59 61 60
        </DataArray>
        <DataArray type="Int32" Name="offsets" NumberOfComponents="1" format="ascii">
          4 8 12 16 20 24 28 32 36 40 44 48
          52 56 60 64 68 72 76 80 84 88 92 96
          100 104 108 112 116 120
        </DataArray>
        <DataArray type="UInt8" Name="types" NumberOfComponents="1" format="ascii">
          9 9 9 9 9 9 9 9 9 9 9 9
          9 9 9 9 9 9 9 9 9 9 9 9
          9 9 9 9 9 9
        </DataArray>
      </Cells>
    </Piece>
  </UnstructuredGrid>
</VTKFile>
