<?xml version="1.0"?>
<VTKFile type="UnstructuredGrid" version="0.1" byte_order="LittleEndian">
  <UnstructuredGrid>
    <Piece NumberOfCells="30" NumberOfPoints="62">
      <CellData Scalars="Sg">
        <DataArray type="Float32" Name="Sg" NumberOfComponents="1" format="ascii">
          0 0 0 0 0 0 0 0 0 0 0 0
          0 0 0 0 0 0 0 0 0 0 0 0
          0 0 0 0 0 0
        </DataArray>
        <DataArray type="Float32" Name="Sl" NumberOfComponents="1" format="ascii">
          1 1 1 1 1 1 1 1 1 1 1 1
          1 1 1 1 1 1 1 1 1 1 1 1
          1 1 1 1 1 1
        </DataArray>
        <DataArray type="Float32" Name="pg" NumberOfComponents="1" format="ascii">
          24687.8 24360.9 24034 23707 23380.1 23053.1 22726.2 22399.3 22072.3 21745.4 21418.4 21091.5
          20764.6 20437.6 20110.7 19783.7 19456.8 19129.8 18802.9 18476 18149 17822.1 17495.1 17168.2
          16841.3 16514.3 16187.4 15860.4 15533.5 15209.6
        </DataArray>
        <DataArray type="Float32" Name="pl" NumberOfComponents="1" format="ascii">
          110628 110301 109974 109647 109320 108993 108666 108339 108012 107685 107358 107031
          106704 106377 106050 105723 105396 105070 104743 104416 104089 103762 103435 103108
          102781 102454 102127 101800 101473 101149
        </DataArray>
        <DataArray type="Float32" Name="pc" NumberOfComponents="1" format="ascii">
          -85939.7 -85939.7 -85939.7 -85939.7 -85939.7 -85939.7 -85939.7 -85939.7 -85939.7 -85939.7 -85939.7 -85939.7
          -85939.7 -85939.7 -85939.7 -85939.7 -85939.7 -85939.7 -85939.7 -85939.7 -85939.7 -85939.7 -85939.7 -85939.7
          -85939.7 -85939.7 -85939.7 -85939.7 -85939.7 -85939.7
        </DataArray>
        <DataArray type="Float32" Name="rhoL" NumberOfComponents="1" format="ascii">
          999.855 999.855 999.855 999.855 999.855 999.854 999.854 999.854 999.854 999.854 999.854 999.854
          999.853 999.853 999.853 999.853 999.853 999.853 999.852 999.852 999.852 999.852 999.852 999.852
          999.852 999.851 999.851 999.851 999.851 999.851
        </DataArray>
        <DataArray type="Float32" Name="rhoG" NumberOfComponents="1" format="ascii">
          0.30585 0.3018 0.29775 0.293699 0.289649 0.285598 0.281548 0.277498 0.273447 0.269397 0.265347 0.261296
          0.257246 0.253195 0.249145 0.245095 0.241044 0.236994 0.232944 0.228893 0.224843 0.220793 0.216742 0.212692
          0.208641 0.204591 0.200541 0.19649 0.19244 0.188428
        </DataArray>
        <DataArray type="Float32" Name="mobL" NumberOfComponents="1" format="ascii">
          722.171 722.17 722.17 722.17 722.17 722.17 722.169 722.169 722.169 722.169 722.169 722.169
          722.168 722.168 722.168 722.168 722.168 722.167 722.167 722.167 722.167 722.167 722.166 722.166
          722.166 722.166 722.166 722.166 722.165 722.165
        </DataArray>
        <DataArray type="Float32" Name="mobG" NumberOfComponents="1" format="ascii">
          0 0 0 0 0 0 0 0 0 0 0 0
          0 0 0 0 0 0 0 0 0 0 0 0
          0 0 0 0 0 0
        </DataArray>
        <DataArray type="Float32" Name="porosity" NumberOfComponents="1" format="ascii">
          0.298864 0.298864 0.298864 0.298864 0.298864 0.298863 0.298863 0.298862 0.29886 0.298859 0.298856 0.298853
          0.298849 0.298843 0.298835 0.298824 0.298809 0.298789 0.298762 0.298725 0.298674 0.298602 0.298498 0.298344
          0.297829 0.297405 0.29655 0.294267 0.282796 0.0447572
        </DataArray>
        <DataArray type="Float32" Name="temperature" NumberOfComponents="1" format="ascii">
          281.15 281.15 281.15 281.15 281.15 281.15 281.15 281.15 281.15 281.15 281.15 281.15
          281.15 281.15 281.15 281.15 281.15 281.15 281.15 281.15 281.15 281.15 281.15 281.15
          281.15 281.15 281.15 281.15 281.15 281.15
        </DataArray>
        <DataArray type="Float32" Name="phase presence" NumberOfComponents="1" format="ascii">
          1 1 1 1 1 1 1 1 1 1 1 1
          1 1 1 1 1 1 1 1 1 1 1 1
          1 1 1 1 1 1
        </DataArray>
        <DataArray type="Float32" Name="precipitateVolumeFraction_au" NumberOfComponents="1" format="ascii">
          5.5243e-10 5.52589e-10 5.52473e-10 5.52572e-10 5.52567e-10 5.52593e-10 5.52579e-10 5.52605e-10 5.52578e-10 5.52586e-10 5.5259e-10 5.52567e-10
          5.52521e-10 5.52606e-10 5.52575e-10 5.52519e-10 5.52561e-10 5.52511e-10 5.52584e-10 5.5258e-10 5.52577e-10 5.52575e-10 5.52796e-10 1.2398e-09
          0.000269851 0.000269835 0.000269817 0.000269794 5.52284e-10 5.5132e-10
        </DataArray>
        <DataArray type="Float32" Name="precipitateVolumeFraction_nanoAu" NumberOfComponents="1" format="ascii">
          3.06227e-13 3.06315e-13 3.06251e-13 3.06306e-13 3.06303e-13 3.06317e-13 3.06309e-13 3.06324e-13 3.06308e-13 3.06313e-13 3.06315e-13 3.06302e-13
          3.06276e-13 3.06322e-13 3.06304e-13 3.06271e-13 3.06293e-13 3.06262e-13 3.063e-13 3.06293e-13 3.06286e-13 3.06304e-13 3.13112e-13 2.54698e-11
          1.49546e-07 1.65262e-07 1.83699e-07 2.05508e-07 4.74274e-13 4.67855e-13
        </DataArray>
        <DataArray type="Float32" Name="precipitateVolumeFraction_d" NumberOfComponents="1" format="ascii">
          0.000567753 0.000567811 0.000567893 0.000568008 0.000568168 0.000568394 0.000568709 0.000569147 0.000569757 0.000570599 0.000571761 0.000573356
          0.000575538 0.000578511 0.000582549 0.00058802 0.000595422 0.000605442 0.000619041 0.000637606 0.000663218 0.00069914 0.000750818 0.000828054
          0.000950366 0.00116256 0.00158999 0.00273158 0.00860222 0.127621
        </DataArray>
        <DataArray type="Float32" Name="precipitateVolumeFraction_p" NumberOfComponents="1" format="ascii">
          0.000567753 0.000567811 0.000567893 0.000568008 0.000568168 0.000568394 0.000568709 0.000569147 0.000569757 0.000570599 0.000571761 0.000573356
          0.000575538 0.000578511 0.000582549 0.00058802 0.000595422 0.000605442 0.000619041 0.000637606 0.000663218 0.00069914 0.000750818 0.000828054
          0.000950366 0.00116256 0.00158999 0.00273158 0.00860222 0.127621
        </DataArray>
        <DataArray type="Float32" Name="K" NumberOfComponents="1" format="ascii">
          9.85488e-11 9.85487e-11 9.85484e-11 9.85482e-11 9.85477e-11 9.85472e-11 9.85464e-11 9.85453e-11 9.85437e-11 9.85416e-11 9.85386e-11 9.85346e-11
          9.8529e-11 9.85215e-11 9.85112e-11 9.84973e-11 9.84785e-11 9.84531e-11 9.84186e-11 9.83715e-11 9.83065e-11 9.82155e-11 9.80846e-11 9.78893e-11
          9.72409e-11 9.67089e-11 9.56444e-11 9.28486e-11 7.97929e-11 1.78317e-13
        </DataArray>
        <DataArray type="Float32" Name="X^w_H2O" NumberOfComponents="1" format="ascii">
          0.999846 0.999846 0.999846 0.999846 0.999846 0.999846 0.999846 0.999846 0.999846 0.999846 0.999846 0.999846
          0.999846 0.999846 0.999846 0.999846 0.999846 0.999846 0.999846 0.999846 0.999846 0.999846 0.999846 0.999846
          0.999846 0.999844 0.999843 0.999841 0.999839 0.99984
        </DataArray>
        <DataArray type="Float32" Name="X^w_Air" NumberOfComponents="1" format="ascii">
          0 0 0 0 0 0 0 0 0 0 0 0
          0 0 0 0 0 0 0 0 0 0 0 0
          0 0 0 0 0 0
        </DataArray>
        <DataArray type="Float32" Name="X^w_AuComplex" NumberOfComponents="1" format="ascii">
          1.35954e-16 1.35993e-16 1.35965e-16 1.35989e-16 1.35988e-16 1.35994e-16 1.35991e-16 1.35997e-16 1.3599e-16 1.35992e-16 1.35993e-16 1.35987e-16
          1.35975e-16 1.35996e-16 1.35987e-16 1.35973e-16 1.35982e-16 1.35968e-16 1.35983e-16 1.35979e-16 1.35974e-16 1.35975e-16 1.38531e-16 1.1266e-14
          6.63815e-11 7.79583e-11 9.26556e-11 1.11615e-10 2.79535e-16 2.73436e-16
        </DataArray>
        <DataArray type="Float32" Name="X^w_nanoAu" NumberOfComponents="1" format="ascii">
          1.33366e-18 1.33404e-18 1.33376e-18 1.334e-18 1.33399e-18 1.33405e-18 1.33401e-18 1.33408e-18 1.33401e-18 1.33403e-18 1.33403e-18 1.33398e-18
          1.33386e-18 1.33406e-18 1.33398e-18 1.33384e-18 1.33392e-18 1.33379e-18 1.33394e-18 1.33399e-18 1.34284e-18 2.16686e-18 7.84974e-17 7.14689e-15
          6.51908e-13 7.20405e-13 8.00579e-13 8.84564e-13 2.05994e-18 1.98755e-18
        </DataArray>
        <DataArray type="Float32" Name="X^w_cyanide" NumberOfComponents="1" format="ascii">
          1.25644e-05 1.25644e-05 1.25644e-05 1.25644e-05 1.25644e-05 1.25644e-05 1.25644e-05 1.25644e-05 1.25644e-05 1.25643e-05 1.25643e-05 1.25643e-05
          1.25643e-05 1.25643e-05 1.25642e-05 1.25642e-05 1.25641e-05 1.2564e-05 1.25639e-05 1.25637e-05 1.25634e-05 1.25631e-05 1.25625e-05 1.25618e-05
          1.25607e-05 1.38815e-05 1.54311e-05 1.72688e-05 1.94648e-05 1.92389e-05
        </DataArray>
        <DataArray type="Float32" Name="X^w_citrate" NumberOfComponents="1" format="ascii">
          0.000141789 0.000141789 0.000141789 0.000141789 0.000141789 0.000141789 0.000141789 0.000141789 0.000141789 0.000141789 0.000141788 0.000141788
          0.000141788 0.000141788 0.000141788 0.000141787 0.000141787 0.000141786 0.000141785 0.000141784 0.000141782 0.000141779 0.000141775 0.00014177
          0.000141761 0.000141748 0.000141723 0.000141663 0.00014146 0.000139818
        </DataArray>
        <DataArray type="Float32" Name="X^w_substrate" NumberOfComponents="1" format="ascii">
          1.74714e-11 2.30778e-11 3.04815e-11 4.02586e-11 5.317e-11 7.02213e-11 9.27423e-11 1.22492e-10 1.61803e-10 2.13766e-10 2.82496e-10 3.73477e-10
          4.94053e-10 6.54107e-10 8.6703e-10 1.15113e-09 1.53172e-09 2.04432e-09 2.73972e-09 3.69222e-09 5.01382e-09 6.87981e-09 9.57782e-09 1.36098e-08
          1.99259e-08 3.05347e-08 5.04135e-08 9.52824e-08 2.40894e-07 1.3986e-06
        </DataArray>
        <DataArray type="Float32" Name="m^w_H2O" NumberOfComponents="1" format="ascii">
          55492.1 55492.1 55492.1 55492.1 55492.1 55492.1 55492.1 55492.1 55492.1 55492.1 55492.1 55492
          55492 55492 55492 55492 55492 55492 55492 55492 55492 55492 55491.9 55491.9
          55491.9 55491.9 55491.8 55491.6 55491.5 55491.6
        </DataArray>
        <DataArray type="Float32" Name="m^w_Air" NumberOfComponents="1" format="ascii">
          0 0 0 0 0 0 0 0 0 0 0 0
          0 0 0 0 0 0 0 0 0 0 0 0
          0 0 0 0 0 0
        </DataArray>
        <DataArray type="Float32" Name="m^w_AuComplex" NumberOfComponents="1" format="ascii">
          6.90128e-13 6.90326e-13 6.90181e-13 6.90306e-13 6.90299e-13 6.9033e-13 6.90313e-13 6.90345e-13 6.9031e-13 6.9032e-13 6.90324e-13 6.90294e-13
          6.90234e-13 6.90338e-13 6.90295e-13 6.9022e-13 6.90267e-13 6.90194e-13 6.90274e-13 6.90253e-13 6.90228e-13 6.90232e-13 7.03208e-13 5.71881e-11
          3.36963e-07 3.95729e-07 4.70335e-07 5.66577e-07 1.41896e-12 1.388e-12
        </DataArray>
        <DataArray type="Float32" Name="m^w_nanoAu" NumberOfComponents="1" format="ascii">
          6.76991e-15 6.77181e-15 6.77042e-15 6.77162e-15 6.77156e-15 6.77186e-15 6.77169e-15 6.77201e-15 6.77167e-15 6.77176e-15 6.77179e-15 6.77149e-15
          6.77092e-15 6.77192e-15 6.7715e-15 6.77077e-15 6.77121e-15 6.77052e-15 6.77129e-15 6.77156e-15 6.81647e-15 1.09993e-14 3.98466e-13 3.62788e-11
          3.30919e-09 3.65689e-09 4.06387e-09 4.49019e-09 1.04566e-14 1.00891e-14
        </DataArray>
        <DataArray type="Float32" Name="m^w_cyanide" NumberOfComponents="1" format="ascii">
          0.482803 0.482803 0.482803 0.482803 0.482803 0.482803 0.482803 0.482803 0.482802 0.482802 0.482801 0.482801
          0.4828 0.482799 0.482797 0.482795 0.482792 0.482788 0.482783 0.482776 0.482766 0.482752 0.482732 0.482702
          0.482659 0.533412 0.592961 0.663576 0.74796 0.73928
        </DataArray>
        <DataArray type="Float32" Name="m^w_citrate" NumberOfComponents="1" format="ascii">
          0.749704 0.749704 0.749704 0.749704 0.749704 0.749703 0.749703 0.749703 0.749702 0.749702 0.749701 0.7497
          0.749699 0.749698 0.749696 0.749694 0.749691 0.749687 0.749682 0.749674 0.749664 0.74965 0.74963 0.7496
          0.749552 0.749487 0.749353 0.749034 0.747961 0.73928
        </DataArray>
        <DataArray type="Float32" Name="m^w_substrate" NumberOfComponents="1" format="ascii">
          9.69628e-08 1.28077e-07 1.69167e-07 2.23428e-07 2.95084e-07 3.89715e-07 5.14702e-07 6.7981e-07 8.97974e-07 1.18636e-06 1.5678e-06 2.07273e-06
          2.7419e-06 3.63017e-06 4.81185e-06 6.38854e-06 8.50075e-06 1.13456e-05 1.52049e-05 2.04911e-05 2.78257e-05 3.81816e-05 5.3155e-05 7.55317e-05
          0.000110585 0.000169461 0.000279785 0.000528798 0.00133691 0.00776193
        </DataArray>
        <DataArray type="Float32" Name="process rank" NumberOfComponents="1" format="ascii">
          0 0 0 0 0 0 0 0 0 0 0 0
          0 0 0 0 0 0 0 0 0 0 0 0
          0 0 0 0 0 0
        </DataArray>
      </CellData>
      <Points>
        <DataArray type="Float32" Name="Coordinates" NumberOfComponents="3" format="ascii">
          0 0 0 0.5 0 0 0 0.0333333 0 0.5 0.0333333 0
          0 0.0666667 0 0.5 0.0666667 0 0 0.1 0 0.5 0.1 0
          0 0.133333 0 0.5 0.133333 0 0 0.166667 0 0.5 0.166667 0
          0 0.2 0 0.5 0.2 0 0 0.233333 0 0.5 0.233333 0
          0 0.266667 0 0.5 0.266667 0 0 0.3 0 0.5 0.3 0
          0 0.333333 0 0.5 0.333333 0 0 0.366667 0 0.5 0.366667 0
          0 0.4 0 0.5 0.4 0 0 0.433333 0 0.5 0.433333 0
          0 0.466667 0 0.5 0.466667 0 0 0.5 0 0.5 0.5 0
          0 0.533333 0 0.5 0.533333 0 0 0.566667 0 0.5 0.566667 0
          0 0.6 0 0.5 0.6 0 0 0.633333 0 0.5 0.633333 0
          0 0.666667 0 0.5 0.666667 0 0 0.7 0 0.5 0.7 0
          0 0.733333 0 0.5 0.733333 0 0 0.766667 0 0.5 0.766667 0
          0 0.8 0 0.5 0.8 0 0 0.833333 0 0.5 0.833333 0
          0 0.866667 0 0.5 0.866667 0 0 0.9 0 0.5 0.9 0
          0 0.933333 0 0.5 0.933333 0 0 0.966667 0 0.5 0.966667 0
          0 1 0 0.5 1 0
        </DataArray>
      </Points>
      <Cells>
        <DataArray type="Int32" Name="connectivity" NumberOfComponents="1" format="ascii">
          0 1 3 2 2 3 5 4 4 5 7 6
          6 7 9 8 8 9 11 10 10 11 13 12
          12 13 15 14 14 15 17 16 16 17 19 18
          18 19 21 20 20 21 23 22 22 23 25 24
          24 25 27 26 26 27 29 28 28 29 31 30
          30 31 33 32 32 33 35 34 34 35 37 36
          36 37 39 38 38 39 41 40 40 41 43 42
          42 43 45 44 44 45 47 46 46 47 49 48
          48 49 51 50 50 51 53 52 52 53 55 54
          54 55 57 56 56 57 59 58 58 59 61 60
        </DataArray>
        <DataArray type="Int32" Name="offsets" NumberOfComponents="1" format="ascii">
          4 8 12 16 20 24 28 32 36 40 44 48
          52 56 60 64 68 72 76 80 84 88 92 96
          100 104 108 112 116 120
        </DataArray>
        <DataArray type="UInt8" Name="types" NumberOfComponents="1" format="ascii">
          9 9 9 9 9 9 9 9 9 9 9 9
          9 9 9 9 9 9 9 9 9 9 9 9
          9 9 9 9 9 9
        </DataArray>
      </Cells>
    </Piece>
  </UnstructuredGrid>
</VTKFile>
