<?xml version="1.0"?>
<VTKFile type="UnstructuredGrid" version="0.1" byte_order="LittleEndian">
  <UnstructuredGrid>
    <Piece NumberOfCells="30" NumberOfPoints="62">
      <CellData Scalars="Sg">
        <DataArray type="Float32" Name="Sg" NumberOfComponents="1" format="ascii">
          0 0 0 0 0 0 0 0 0 0 0 0
          0 0 0 0 0 0 0 0 0 0 0 0
          0 0 0 0 0 0
        </DataArray>
        <DataArray type="Float32" Name="Sl" NumberOfComponents="1" format="ascii">
          1 1 1 1 1 1 1 1 1 1 1 1
          1 1 1 1 1 1 1 1 1 1 1 1
          1 1 1 1 1 1
        </DataArray>
        <DataArray type="Float32" Name="pg" NumberOfComponents="1" format="ascii">
          24687.8 24360.9 24034 23707 23380.1 23053.1 22726.2 22399.3 22072.3 21745.4 21418.4 21091.5
          20764.6 20437.6 20110.7 19783.7 19456.8 19129.8 18802.9 18476 18149 17822.1 17495.1 17168.2
          16841.3 16514.3 16187.4 15860.4 15533.5 15206.6
        </DataArray>
        <DataArray type="Float32" Name="pl" NumberOfComponents="1" format="ascii">
          110628 110301 109974 109647 109320 108993 108666 108339 108012 107685 107358 107031
          106704 106377 106050 105723 105396 105070 104743 104416 104089 103762 103435 103108
          102781 102454 102127 101800 101473 101146
        </DataArray>
        <DataArray type="Float32" Name="pc" NumberOfComponents="1" format="ascii">
          -85939.7 -85939.7 -85939.7 -85939.7 -85939.7 -85939.7 -85939.7 -85939.7 -85939.7 -85939.7 -85939.7 -85939.7
          -85939.7 -85939.7 -85939.7 -85939.7 -85939.7 -85939.7 -85939.7 -85939.7 -85939.7 -85939.7 -85939.7 -85939.7
          -85939.7 -85939.7 -85939.7 -85939.7 -85939.7 -85939.7
        </DataArray>
        <DataArray type="Float32" Name="rhoL" NumberOfComponents="1" format="ascii">
          999.855 999.855 999.855 999.855 999.855 999.854 999.854 999.854 999.854 999.854 999.854 999.854
          999.853 999.853 999.853 999.853 999.853 999.853 999.852 999.852 999.852 999.852 999.852 999.852
          999.852 999.851 999.851 999.851 999.851 999.851
        </DataArray>
        <DataArray type="Float32" Name="rhoG" NumberOfComponents="1" format="ascii">
          0.30585 0.3018 0.29775 0.293699 0.289649 0.285598 0.281548 0.277498 0.273447 0.269397 0.265347 0.261296
          0.257246 0.253195 0.249145 0.245095 0.241044 0.236994 0.232944 0.228893 0.224843 0.220793 0.216742 0.212692
          0.208641 0.204591 0.200541 0.19649 0.19244 0.18839
        </DataArray>
        <DataArray type="Float32" Name="mobL" NumberOfComponents="1" format="ascii">
          722.171 722.17 722.17 722.17 722.17 722.17 722.169 722.169 722.169 722.169 722.169 722.169
          722.168 722.168 722.168 722.168 722.168 722.167 722.167 722.167 722.167 722.167 722.166 722.166
          722.166 722.166 722.166 722.166 722.165 722.165
        </DataArray>
        <DataArray type="Float32" Name="mobG" NumberOfComponents="1" format="ascii">
          0 0 0 0 0 0 0 0 0 0 0 0
          0 0 0 0 0 0 0 0 0 0 0 0
          0 0 0 0 0 0
        </DataArray>
        <DataArray type="Float32" Name="porosity" NumberOfComponents="1" format="ascii">
          0.299569 0.299569 0.299569 0.299569 0.299569 0.299569 0.299569 0.299569 0.299569 0.299569 0.299569 0.299569
          0.299569 0.299569 0.299569 0.299568 0.299567 0.299566 0.299564 0.29956 0.299555 0.299545 0.29953 0.299504
          0.29919 0.299109 0.298944 0.29853 0.297063 0.249653
        </DataArray>
        <DataArray type="Float32" Name="temperature" NumberOfComponents="1" format="ascii">
          281.15 281.15 281.15 281.15 281.15 281.15 281.15 281.15 281.15 281.15 281.15 281.15
          281.15 281.15 281.15 281.15 281.15 281.15 281.15 281.15 281.15 281.15 281.15 281.15
          281.15 281.15 281.15 281.15 281.15 281.15
        </DataArray>
        <DataArray type="Float32" Name="phase presence" NumberOfComponents="1" format="ascii">
          1 1 1 1 1 1 1 1 1 1 1 1
          1 1 1 1 1 1 1 1 1 1 1 1
          1 1 1 1 1 1
        </DataArray>
        <DataArray type="Float32" Name="precipitateVolumeFraction_au" NumberOfComponents="1" format="ascii">
          5.51864e-10 5.5268e-10 5.52635e-10 5.52624e-10 5.52675e-10 5.52555e-10 5.52636e-10 5.52643e-10 5.52637e-10 5.52632e-10 5.5267e-10 5.52627e-10
          5.52625e-10 5.5264e-10 5.52633e-10 5.52639e-10 5.52636e-10 5.52635e-10 5.52642e-10 5.52651e-10 5.5263e-10 5.52658e-10 5.52697e-10 7.5686e-10
          0.00026994 0.000269924 0.000269899 0.000269854 5.5218e-10 5.51074e-10
        </DataArray>
        <DataArray type="Float32" Name="precipitateVolumeFraction_nanoAu" NumberOfComponents="1" format="ascii">
          1.63751e-13 2.38115e-13 2.34971e-13 2.34513e-13 2.36686e-13 2.32429e-13 2.35144e-13 2.35275e-13 2.35179e-13 2.35098e-13 2.35546e-13 2.35062e-13
          2.35048e-13 2.35167e-13 2.35116e-13 2.35148e-13 2.35127e-13 2.35117e-13 2.35133e-13 2.35142e-13 2.35091e-13 2.35138e-13 2.46982e-13 2.58958e-11
          6.04063e-08 7.67348e-08 1.02196e-07 1.45576e-07 5.84487e-13 5.75457e-13
        </DataArray>
        <DataArray type="Float32" Name="precipitateVolumeFraction_d" NumberOfComponents="1" format="ascii">
          0.000215349 0.000215349 0.00021535 0.00021535 0.000215351 0.000215353 0.000215355 0.00021536 0.000215367 0.000215379 0.000215399 0.000215432
          0.000215486 0.000215576 0.000215725 0.000215968 0.000216369 0.000217024 0.000218095 0.000219842 0.000222693 0.000227356 0.00023504 0.000247898
          0.000270079 0.000310619 0.000392953 0.00060023 0.00146863 0.0251736
        </DataArray>
        <DataArray type="Float32" Name="precipitateVolumeFraction_p" NumberOfComponents="1" format="ascii">
          0.000215349 0.000215349 0.00021535 0.00021535 0.000215351 0.000215353 0.000215355 0.00021536 0.000215367 0.000215379 0.000215399 0.000215432
          0.000215486 0.000215576 0.000215725 0.000215968 0.000216369 0.000217024 0.000218095 0.000219842 0.000222693 0.000227356 0.00023504 0.000247898
          0.000270079 0.000310619 0.000392953 0.00060023 0.00146863 0.0251736
        </DataArray>
        <DataArray type="Float32" Name="K" NumberOfComponents="1" format="ascii">
          9.94475e-11 9.94475e-11 9.94475e-11 9.94475e-11 9.94475e-11 9.94475e-11 9.94475e-11 9.94475e-11 9.94475e-11 9.94474e-11 9.94474e-11 9.94473e-11
          9.94472e-11 9.94469e-11 9.94465e-11 9.94459e-11 9.94449e-11 9.94432e-11 9.94405e-11 9.9436e-11 9.94287e-11 9.94168e-11 9.93971e-11 9.93642e-11
          9.89628e-11 9.88595e-11 9.865e-11 9.81241e-11 9.62817e-11 5.01553e-11
        </DataArray>
        <DataArray type="Float32" Name="X^w_H2O" NumberOfComponents="1" format="ascii">
          0.999853 0.999853 0.999853 0.999853 0.999853 0.999853 0.999853 0.999853 0.999853 0.999853 0.999853 0.999853
          0.999853 0.999853 0.999853 0.999853 0.999853 0.999853 0.999853 0.999853 0.999853 0.999853 0.999853 0.999853
          0.999853 0.999852 0.99985 0.999846 0.999839 0.99984
        </DataArray>
        <DataArray type="Float32" Name="X^w_Air" NumberOfComponents="1" format="ascii">
          5.48021e-29 9.80455e-31 1.72317e-32 2.97879e-34 5.06665e-36 8.47712e-38 0 0 0 0 0 0
          0 0 0 0 0 0 0 0 0 0 0 0
          0 0 0 0 0 0
        </DataArray>
        <DataArray type="Float32" Name="X^w_AuComplex" NumberOfComponents="1" format="ascii">
          1.7972e-16 2.51311e-16 2.48282e-16 2.47839e-16 2.49931e-16 2.45829e-16 2.48443e-16 2.48568e-16 2.48474e-16 2.48394e-16 2.48825e-16 2.48357e-16
          2.48341e-16 2.48455e-16 2.48404e-16 2.48432e-16 2.4841e-16 2.48397e-16 2.48408e-16 2.48412e-16 2.48352e-16 2.48386e-16 2.617e-16 2.95089e-14
          6.89157e-11 1.07487e-10 1.84559e-10 3.64096e-10 2.24217e-15 2.18259e-15
        </DataArray>
        <DataArray type="Float32" Name="X^w_nanoAu" NumberOfComponents="1" format="ascii">
          7.16775e-19 1.03716e-18 1.02358e-18 1.02171e-18 1.03088e-18 1.01265e-18 1.02436e-18 1.02492e-18 1.0245e-18 1.02417e-18 1.02608e-18 1.024e-18
          1.02394e-18 1.02445e-18 1.02423e-18 1.02437e-18 1.02428e-18 1.02423e-18 1.0243e-18 1.02437e-18 1.02784e-18 1.37032e-18 3.30565e-17 2.96158e-15
          2.63831e-13 3.35337e-13 4.46846e-13 6.26548e-13 2.53785e-18 2.44436e-18
        </DataArray>
        <DataArray type="Float32" Name="X^w_cyanide" NumberOfComponents="1" format="ascii">
          5.07325e-06 5.07322e-06 5.07319e-06 5.07316e-06 5.07314e-06 5.07311e-06 5.07308e-06 5.07305e-06 5.07302e-06 5.073e-06 5.07297e-06 5.07293e-06
          5.0729e-06 5.07287e-06 5.07283e-06 5.07279e-06 5.07274e-06 5.07267e-06 5.07258e-06 5.07246e-06 5.07228e-06 5.072e-06 5.07156e-06 5.07083e-06
          5.07008e-06 6.44017e-06 8.57605e-06 1.22404e-05 1.94574e-05 1.92351e-05
        </DataArray>
        <DataArray type="Float32" Name="X^w_citrate" NumberOfComponents="1" format="ascii">
          0.000141796 0.000141796 0.000141796 0.000141796 0.000141796 0.000141796 0.000141796 0.000141796 0.000141796 0.000141796 0.000141796 0.000141796
          0.000141796 0.000141796 0.000141796 0.000141796 0.000141796 0.000141795 0.000141795 0.000141794 0.000141793 0.000141791 0.000141788 0.000141783
          0.000141774 0.000141759 0.000141728 0.000141652 0.000141407 0.00013979
        </DataArray>
        <DataArray type="Float32" Name="X^w_substrate" NumberOfComponents="1" format="ascii">
          1.67512e-13 2.68228e-13 4.29463e-13 6.87561e-13 1.10068e-12 1.76187e-12 2.82003e-12 4.51334e-12 7.22285e-12 1.15581e-11 1.84944e-11 2.95918e-11
          4.73467e-11 7.57553e-11 1.21218e-10 1.93998e-10 3.10582e-10 4.97532e-10 7.97858e-10 1.28175e-09 2.0652e-09 3.34372e-09 5.45688e-09 9.02198e-09
          1.52394e-08 2.66845e-08 4.97454e-08 1.04174e-07 2.78441e-07 1.41815e-06
        </DataArray>
        <DataArray type="Float32" Name="m^w_H2O" NumberOfComponents="1" format="ascii">
          55492.6 55492.6 55492.5 55492.5 55492.5 55492.5 55492.5 55492.5 55492.5 55492.5 55492.5 55492.5
          55492.5 55492.4 55492.4 55492.4 55492.4 55492.4 55492.4 55492.4 55492.4 55492.4 55492.4 55492.4
          55492.3 55492.3 55492.1 55491.9 55491.5 55491.6
        </DataArray>
        <DataArray type="Float32" Name="m^w_Air" NumberOfComponents="1" format="ascii">
          1.89206e-24 3.38506e-26 5.9493e-28 1.02844e-29 1.74928e-31 2.92676e-33 4.81485e-35 7.78557e-37 1.23655e-38 0 0 0
          0 0 0 0 0 0 0 0 0 0 0 0
          0 0 0 0 0 0
        </DataArray>
        <DataArray type="Float32" Name="m^w_AuComplex" NumberOfComponents="1" format="ascii">
          9.12291e-13 1.2757e-12 1.26032e-12 1.25808e-12 1.2687e-12 1.24787e-12 1.26114e-12 1.26177e-12 1.2613e-12 1.26089e-12 1.26308e-12 1.2607e-12
          1.26062e-12 1.2612e-12 1.26094e-12 1.26108e-12 1.26097e-12 1.2609e-12 1.26096e-12 1.26098e-12 1.26068e-12 1.26085e-12 1.32843e-12 1.49792e-10
          3.49827e-07 5.45623e-07 9.36849e-07 1.84821e-06 1.13816e-11 1.10792e-11
        </DataArray>
        <DataArray type="Float32" Name="m^w_nanoAu" NumberOfComponents="1" format="ascii">
          3.63848e-15 5.26479e-15 5.19588e-15 5.18636e-15 5.23292e-15 5.14041e-15 5.19983e-15 5.20267e-15 5.20057e-15 5.19889e-15 5.20857e-15 5.19799e-15
          5.1977e-15 5.20029e-15 5.19918e-15 5.19987e-15 5.19941e-15 5.19918e-15 5.19952e-15 5.19989e-15 5.2175e-15 6.95598e-15 1.678e-13 1.50335e-11
          1.33925e-09 1.70223e-09 2.26826e-09 3.18046e-09 1.28825e-14 1.2408e-14
        </DataArray>
        <DataArray type="Float32" Name="m^w_cyanide" NumberOfComponents="1" format="ascii">
          0.194947 0.194946 0.194944 0.194943 0.194942 0.194941 0.19494 0.194939 0.194938 0.194937 0.194936 0.194934
          0.194933 0.194932 0.19493 0.194929 0.194927 0.194924 0.194921 0.194916 0.194909 0.194898 0.194881 0.194853
          0.194824 0.247472 0.329545 0.470354 0.747676 0.739132
        </DataArray>
        <DataArray type="Float32" Name="m^w_citrate" NumberOfComponents="1" format="ascii">
          0.749742 0.749742 0.749742 0.749742 0.749742 0.749742 0.749742 0.749741 0.749741 0.749741 0.749741 0.749741
          0.749741 0.74974 0.74974 0.749739 0.749738 0.749737 0.749734 0.749731 0.749725 0.749715 0.749699 0.749672
          0.749625 0.749544 0.749378 0.748977 0.747679 0.739133
        </DataArray>
        <DataArray type="Float32" Name="m^w_substrate" NumberOfComponents="1" format="ascii">
          9.29661e-10 1.48862e-09 2.38344e-09 3.81584e-09 6.10857e-09 9.77807e-09 1.56506e-08 2.50482e-08 4.00854e-08 6.41455e-08 1.0264e-07 1.64229e-07
          2.62765e-07 4.20427e-07 6.72737e-07 1.07665e-06 1.72367e-06 2.7612e-06 4.42795e-06 7.11346e-06 1.14615e-05 1.8557e-05 3.02846e-05 5.00702e-05
          8.45756e-05 0.000148094 0.000276077 0.000578145 0.00154529 0.00787041
        </DataArray>
        <DataArray type="Float32" Name="process rank" NumberOfComponents="1" format="ascii">
          0 0 0 0 0 0 0 0 0 0 0 0
          0 0 0 0 0 0 0 0 0 0 0 0
          0 0 0 0 0 0
        </DataArray>
      </CellData>
      <Points>
        <DataArray type="Float32" Name="Coordinates" NumberOfComponents="3" format="ascii">
          0 0 0 0.5 0 0 0 0.0333333 0 0.5 0.0333333 0
          0 0.0666667 0 0.5 0.0666667 0 0 0.1 0 0.5 0.1 0
          0 0.133333 0 0.5 0.133333 0 0 0.166667 0 0.5 0.166667 0
          0 0.2 0 0.5 0.2 0 0 0.233333 0 0.5 0.233333 0
          0 0.266667 0 0.5 0.266667 0 0 0.3 0 0.5 0.3 0
          0 0.333333 0 0.5 0.333333 0 0 0.366667 0 0.5 0.366667 0
          0 0.4 0 0.5 0.4 0 0 0.433333 0 0.5 0.433333 0
          0 0.466667 0 0.5 0.466667 0 0 0.5 0 0.5 0.5 0
          0 0.533333 0 0.5 0.533333 0 0 0.566667 0 0.5 0.566667 0
          0 0.6 0 0.5 0.6 0 0 0.633333 0 0.5 0.633333 0
          0 0.666667 0 0.5 0.666667 0 0 0.7 0 0.5 0.7 0
          0 0.733333 0 0.5 0.733333 0 0 0.766667 0 0.5 0.766667 0
          0 0.8 0 0.5 0.8 0 0 0.833333 0 0.5 0.833333 0
          0 0.866667 0 0.5 0.866667 0 0 0.9 0 0.5 0.9 0
          0 0.933333 0 0.5 0.933333 0 0 0.966667 0 0.5 0.966667 0
          0 1 0 0.5 1 0
        </DataArray>
      </Points>
      <Cells>
        <DataArray type="Int32" Name="connectivity" NumberOfComponents="1" format="ascii">
          0 1 3 2 2 3 5 4 4 5 7 6
          6 7 9 8 8 9 11 10 10 11 13 12
          12 13 15 14 14 15 17 16 16 17 19 18
          18 19 21 20 20 21 23 22 22 23 25 24
          24 25 27 26 26 27 29 28 28 29 31 30
          30 31 33 32 32 33 35 34 34 35 37 36
          36 37 39 38 38 39 41 40 40 41 43 42
          42 43 45 44 44 45 47 46 46 47 49 48
          48 49 51 50 50 51 53 52 52 53 55 54
          54 55 57 56 56 57 59 58 58 59 61 60
        </DataArray>
        <DataArray type="Int32" Name="offsets" NumberOfComponents="1" format="ascii">
          4 8 12 16 20 24 28 32 36 40 44 48
          52 56 60 64 68 72 76 80 84 88 92 96
          100 104 108 112 116 120
        </DataArray>
        <DataArray type="UInt8" Name="types" NumberOfComponents="1" format="ascii">
          9 9 9 9 9 9 9 9 9 9 9 9
          9 9 9 9 9 9 9 9 9 9 9 9
          9 9 9 9 9 9
        </DataArray>
      </Cells>
    </Piece>
  </UnstructuredGrid>
</VTKFile>
