<?xml version="1.0"?>
<VTKFile type="UnstructuredGrid" version="0.1" byte_order="LittleEndian">
  <UnstructuredGrid>
    <Piece NumberOfCells="30" NumberOfPoints="62">
      <CellData Scalars="Sg">
        <DataArray type="Float32" Name="Sg" NumberOfComponents="1" format="ascii">
          0 0 0 0 0 0 0 0 0 0 0 0
          0 0 0 0 0 0 0 0 0 0 0 0
          0 0 0 0 0 0
        </DataArray>
        <DataArray type="Float32" Name="Sl" NumberOfComponents="1" format="ascii">
          1 1 1 1 1 1 1 1 1 1 1 1
          1 1 1 1 1 1 1 1 1 1 1 1
          1 1 1 1 1 1
        </DataArray>
        <DataArray type="Float32" Name="pg" NumberOfComponents="1" format="ascii">
          24687.8 24360.9 24034 23707 23380.1 23053.1 22726.2 22399.3 22072.3 21745.4 21418.4 21091.5
          20764.6 20437.6 20110.7 19783.7 19456.8 19129.8 18802.9 18476 18149 17822.1 17495.1 17168.2
          16841.3 16514.3 16187.4 15860.4 15533.5 15206.6
        </DataArray>
        <DataArray type="Float32" Name="pl" NumberOfComponents="1" format="ascii">
          110628 110301 109974 109647 109320 108993 108666 108339 108012 107685 107358 107031
          106704 106377 106050 105723 105396 105070 104743 104416 104089 103762 103435 103108
          102781 102454 102127 101800 101473 101146
        </DataArray>
        <DataArray type="Float32" Name="pc" NumberOfComponents="1" format="ascii">
          -85939.7 -85939.7 -85939.7 -85939.7 -85939.7 -85939.7 -85939.7 -85939.7 -85939.7 -85939.7 -85939.7 -85939.7
          -85939.7 -85939.7 -85939.7 -85939.7 -85939.7 -85939.7 -85939.7 -85939.7 -85939.7 -85939.7 -85939.7 -85939.7
          -85939.7 -85939.7 -85939.7 -85939.7 -85939.7 -85939.7
        </DataArray>
        <DataArray type="Float32" Name="rhoL" NumberOfComponents="1" format="ascii">
          999.855 999.855 999.855 999.855 999.855 999.854 999.854 999.854 999.854 999.854 999.854 999.854
          999.853 999.853 999.853 999.853 999.853 999.853 999.852 999.852 999.852 999.852 999.852 999.852
          999.852 999.851 999.851 999.851 999.851 999.851
        </DataArray>
        <DataArray type="Float32" Name="rhoG" NumberOfComponents="1" format="ascii">
          0.30585 0.3018 0.29775 0.293699 0.289649 0.285598 0.281548 0.277498 0.273447 0.269397 0.265347 0.261296
          0.257246 0.253195 0.249145 0.245095 0.241044 0.236994 0.232944 0.228893 0.224843 0.220793 0.216742 0.212692
          0.208641 0.204591 0.200541 0.19649 0.19244 0.18839
        </DataArray>
        <DataArray type="Float32" Name="mobL" NumberOfComponents="1" format="ascii">
          722.171 722.17 722.17 722.17 722.17 722.17 722.169 722.169 722.169 722.169 722.169 722.169
          722.168 722.168 722.168 722.168 722.168 722.167 722.167 722.167 722.167 722.167 722.166 722.166
          722.166 722.166 722.166 722.166 722.165 722.165
        </DataArray>
        <DataArray type="Float32" Name="mobG" NumberOfComponents="1" format="ascii">
          0 0 0 0 0 0 0 0 0 0 0 0
          0 0 0 0 0 0 0 0 0 0 0 0
          0 0 0 0 0 0
        </DataArray>
        <DataArray type="Float32" Name="porosity" NumberOfComponents="1" format="ascii">
          0.299565 0.299565 0.299565 0.299565 0.299565 0.299565 0.299565 0.299565 0.299565 0.299565 0.299565 0.299565
          0.299565 0.299565 0.299565 0.299564 0.299563 0.299562 0.29956 0.299556 0.299551 0.299541 0.299526 0.2995
          0.299186 0.299105 0.298941 0.29853 0.297108 0.254317
        </DataArray>
        <DataArray type="Float32" Name="temperature" NumberOfComponents="1" format="ascii">
          281.15 281.15 281.15 281.15 281.15 281.15 281.15 281.15 281.15 281.15 281.15 281.15
          281.15 281.15 281.15 281.15 281.15 281.15 281.15 281.15 281.15 281.15 281.15 281.15
          281.15 281.15 281.15 281.15 281.15 281.15
        </DataArray>
        <DataArray type="Float32" Name="phase presence" NumberOfComponents="1" format="ascii">
          1 1 1 1 1 1 1 1 1 1 1 1
          1 1 1 1 1 1 1 1 1 1 1 1
          1 1 1 1 1 1
        </DataArray>
        <DataArray type="Float32" Name="precipitateVolumeFraction_au" NumberOfComponents="1" format="ascii">
          5.51809e-10 5.52524e-10 5.52483e-10 5.52473e-10 5.52521e-10 5.52407e-10 5.52484e-10 5.52491e-10 5.52485e-10 5.5248e-10 5.52518e-10 5.52475e-10
          5.52473e-10 5.52488e-10 5.52481e-10 5.52487e-10 5.52484e-10 5.52483e-10 5.5249e-10 5.52499e-10 5.52478e-10 5.52505e-10 5.52535e-10 7.34569e-10
          0.00026994 0.000269924 0.000269899 0.000269854 5.5203e-10 5.50926e-10
        </DataArray>
        <DataArray type="Float32" Name="precipitateVolumeFraction_nanoAu" NumberOfComponents="1" format="ascii">
          2.18561e-13 3.94163e-13 3.86742e-13 3.85661e-13 3.90789e-13 3.80758e-13 3.87152e-13 3.87461e-13 3.87238e-13 3.87047e-13 3.88096e-13 3.86967e-13
          3.86935e-13 3.87212e-13 3.87096e-13 3.8717e-13 3.87125e-13 3.87103e-13 3.87142e-13 3.87165e-13 3.87056e-13 3.87146e-13 3.9892e-13 2.60625e-11
          6.04174e-08 7.67484e-08 1.02207e-07 1.45555e-07 7.35326e-13 7.24107e-13
        </DataArray>
        <DataArray type="Float32" Name="precipitateVolumeFraction_d" NumberOfComponents="1" format="ascii">
          0.000217258 0.000217258 0.000217259 0.000217259 0.00021726 0.000217262 0.000217265 0.000217269 0.000217276 0.000217288 0.000217308 0.000217341
          0.000217396 0.000217486 0.000217635 0.000217879 0.000218281 0.000218938 0.000220013 0.000221767 0.000224627 0.000229305 0.00023701 0.000249898
          0.00027211 0.00031264 0.000394707 0.000600033 0.00144618 0.0228417
        </DataArray>
        <DataArray type="Float32" Name="precipitateVolumeFraction_p" NumberOfComponents="1" format="ascii">
          0.000217258 0.000217258 0.000217259 0.000217259 0.00021726 0.000217262 0.000217265 0.000217269 0.000217276 0.000217288 0.000217308 0.000217341
          0.000217396 0.000217486 0.000217635 0.000217879 0.000218281 0.000218938 0.000220013 0.000221767 0.000224627 0.000229305 0.00023701 0.000249898
          0.00027211 0.00031264 0.000394707 0.000600033 0.00144618 0.0228417
        </DataArray>
        <DataArray type="Float32" Name="K" NumberOfComponents="1" format="ascii">
          9.94426e-11 9.94426e-11 9.94426e-11 9.94426e-11 9.94426e-11 9.94426e-11 9.94426e-11 9.94426e-11 9.94426e-11 9.94425e-11 9.94425e-11 9.94424e-11
          9.94423e-11 9.9442e-11 9.94417e-11 9.9441e-11 9.944e-11 9.94383e-11 9.94356e-11 9.94311e-11 9.94238e-11 9.94118e-11 9.93921e-11 9.93591e-11
          9.89576e-11 9.88544e-11 9.86455e-11 9.81246e-11 9.63377e-11 5.36843e-11
        </DataArray>
        <DataArray type="Float32" Name="X^w_H2O" NumberOfComponents="1" format="ascii">
          0.999853 0.999853 0.999853 0.999853 0.999853 0.999853 0.999853 0.999853 0.999853 0.999853 0.999853 0.999853
          0.999853 0.999853 0.999853 0.999853 0.999853 0.999853 0.999853 0.999853 0.999853 0.999853 0.999853 0.999853
          0.999853 0.999852 0.99985 0.999846 0.999839 0.99984
        </DataArray>
        <DataArray type="Float32" Name="X^w_Air" NumberOfComponents="1" format="ascii">
          5.56303e-21 1.00078e-22 1.7677e-24 3.07042e-26 5.24755e-28 8.82222e-30 1.45838e-31 2.36993e-33 3.78233e-35 5.92899e-37 0 0
          0 0 0 0 0 0 0 0 0 0 0 0
          0 0 0 0 0 0
        </DataArray>
        <DataArray type="Float32" Name="X^w_AuComplex" NumberOfComponents="1" format="ascii">
          2.32495e-16 4.0152e-16 3.94375e-16 3.93334e-16 3.9827e-16 3.8861e-16 3.94766e-16 3.95062e-16 3.94846e-16 3.94661e-16 3.9567e-16 3.94579e-16
          3.94547e-16 3.94812e-16 3.94698e-16 3.94766e-16 3.94719e-16 3.94692e-16 3.94723e-16 3.94736e-16 3.94615e-16 3.94681e-16 4.07912e-16 2.96722e-14
          6.89317e-11 1.07511e-10 1.84581e-10 3.64027e-10 2.79796e-15 2.72082e-15
        </DataArray>
        <DataArray type="Float32" Name="X^w_nanoAu" NumberOfComponents="1" format="ascii">
          9.60366e-19 1.7169e-18 1.68487e-18 1.68045e-18 1.70209e-18 1.65915e-18 1.68672e-18 1.68804e-18 1.68707e-18 1.6863e-18 1.69077e-18 1.6859e-18
          1.68577e-18 1.68696e-18 1.68646e-18 1.68678e-18 1.68658e-18 1.68648e-18 1.68665e-18 1.68678e-18 1.68999e-18 2.03274e-18 3.37266e-17 2.96288e-15
          2.63875e-13 3.35386e-13 4.46865e-13 6.26382e-13 3.19196e-18 3.07147e-18
        </DataArray>
        <DataArray type="Float32" Name="X^w_cyanide" NumberOfComponents="1" format="ascii">
          5.07378e-06 5.07376e-06 5.07375e-06 5.07374e-06 5.07373e-06 5.07371e-06 5.0737e-06 5.07368e-06 5.07366e-06 5.07364e-06 5.07362e-06 5.0736e-06
          5.07357e-06 5.07355e-06 5.07351e-06 5.07348e-06 5.07343e-06 5.07336e-06 5.07327e-06 5.07314e-06 5.07295e-06 5.07265e-06 5.07216e-06 5.07136e-06
          5.07048e-06 6.44057e-06 8.57629e-06 1.22397e-05 1.94511e-05 1.92068e-05
        </DataArray>
        <DataArray type="Float32" Name="X^w_citrate" NumberOfComponents="1" format="ascii">
          0.000141796 0.000141796 0.000141796 0.000141796 0.000141796 0.000141796 0.000141796 0.000141796 0.000141796 0.000141796 0.000141796 0.000141796
          0.000141796 0.000141796 0.000141796 0.000141796 0.000141796 0.000141795 0.000141795 0.000141794 0.000141793 0.000141791 0.000141788 0.000141782
          0.000141772 0.000141755 0.00014172 0.000141635 0.000141361 0.000139585
        </DataArray>
        <DataArray type="Float32" Name="X^w_substrate" NumberOfComponents="1" format="ascii">
          1.7398e-13 2.79334e-13 4.48451e-13 7.19898e-13 1.15556e-12 1.85473e-12 2.9767e-12 4.77702e-12 7.66562e-12 1.23001e-11 1.97353e-11 3.16634e-11
          5.07999e-11 8.15031e-11 1.30773e-10 2.09865e-10 3.36907e-10 5.4119e-10 8.70262e-10 1.40193e-09 2.2651e-09 3.67753e-09 6.01834e-09 9.97796e-09
          1.69009e-08 2.96745e-08 5.54597e-08 1.1636e-07 3.10818e-07 1.56288e-06
        </DataArray>
        <DataArray type="Float32" Name="m^w_H2O" NumberOfComponents="1" format="ascii">
          55492.6 55492.6 55492.5 55492.5 55492.5 55492.5 55492.5 55492.5 55492.5 55492.5 55492.5 55492.5
          55492.5 55492.4 55492.4 55492.4 55492.4 55492.4 55492.4 55492.4 55492.4 55492.4 55492.4 55492.4
          55492.3 55492.3 55492.1 55491.9 55491.5 55491.6
        </DataArray>
        <DataArray type="Float32" Name="m^w_Air" NumberOfComponents="1" format="ascii">
          1.92066e-16 3.45522e-18 6.10305e-20 1.06008e-21 1.81173e-23 3.0459e-25 5.03512e-27 8.18227e-29 1.30586e-30 2.04701e-32 3.15402e-34 4.77623e-36
          7.10258e-38 0 0 0 0 0 0 0 0 0 0 0
          0 0 0 0 0 0
        </DataArray>
        <DataArray type="Float32" Name="m^w_AuComplex" NumberOfComponents="1" format="ascii">
          1.18019e-12 2.03819e-12 2.00192e-12 1.99663e-12 2.02169e-12 1.97265e-12 2.0039e-12 2.0054e-12 2.00431e-12 2.00337e-12 2.00849e-12 2.00295e-12
          2.00279e-12 2.00413e-12 2.00355e-12 2.0039e-12 2.00366e-12 2.00352e-12 2.00368e-12 2.00375e-12 2.00313e-12 2.00346e-12 2.07063e-12 1.50621e-10
          3.49909e-07 5.45742e-07 9.36965e-07 1.84786e-06 1.42029e-11 1.38113e-11
        </DataArray>
        <DataArray type="Float32" Name="m^w_nanoAu" NumberOfComponents="1" format="ascii">
          4.87499e-15 8.71532e-15 8.5527e-15 8.53024e-15 8.64009e-15 8.42211e-15 8.5621e-15 8.56879e-15 8.56387e-15 8.55994e-15 8.58262e-15 8.5579e-15
          8.55727e-15 8.56331e-15 8.56077e-15 8.56238e-15 8.56137e-15 8.56087e-15 8.5617e-15 8.56236e-15 8.57869e-15 1.03185e-14 1.71202e-13 1.504e-11
          1.33947e-09 1.70248e-09 2.26836e-09 3.17961e-09 1.62029e-14 1.55912e-14
        </DataArray>
        <DataArray type="Float32" Name="m^w_cyanide" NumberOfComponents="1" format="ascii">
          0.194967 0.194967 0.194966 0.194966 0.194965 0.194964 0.194964 0.194963 0.194962 0.194962 0.194961 0.19496
          0.194959 0.194958 0.194957 0.194955 0.194953 0.194951 0.194947 0.194942 0.194935 0.194923 0.194904 0.194874
          0.19484 0.247487 0.329555 0.470327 0.747432 0.738046
        </DataArray>
        <DataArray type="Float32" Name="m^w_citrate" NumberOfComponents="1" format="ascii">
          0.749742 0.749742 0.749742 0.749742 0.749742 0.749742 0.749742 0.749741 0.749741 0.749741 0.749741 0.749741
          0.749741 0.74974 0.74974 0.749739 0.749738 0.749736 0.749734 0.74973 0.749723 0.749712 0.749695 0.749665
          0.749613 0.749522 0.749335 0.748886 0.747437 0.738048
        </DataArray>
        <DataArray type="Float32" Name="m^w_substrate" NumberOfComponents="1" format="ascii">
          9.65559e-10 1.55026e-09 2.48882e-09 3.9953e-09 6.41315e-09 1.02934e-08 1.65201e-08 2.65116e-08 4.25427e-08 6.82631e-08 1.09527e-07 1.75726e-07
          2.8193e-07 4.52326e-07 7.25765e-07 1.16471e-06 1.86977e-06 3.0035e-06 4.82978e-06 7.78043e-06 1.25708e-05 2.04096e-05 3.34006e-05 5.53757e-05
          9.37968e-05 0.000164687 0.00030779 0.000645772 0.00172498 0.00867367
        </DataArray>
        <DataArray type="Float32" Name="process rank" NumberOfComponents="1" format="ascii">
          0 0 0 0 0 0 0 0 0 0 0 0
          0 0 0 0 0 0 0 0 0 0 0 0
          0 0 0 0 0 0
        </DataArray>
      </CellData>
      <Points>
        <DataArray type="Float32" Name="Coordinates" NumberOfComponents="3" format="ascii">
          0 0 0 0.5 0 0 0 0.0333333 0 0.5 0.0333333 0
          0 0.0666667 0 0.5 0.0666667 0 0 0.1 0 0.5 0.1 0
          0 0.133333 0 0.5 0.133333 0 0 0.166667 0 0.5 0.166667 0
          0 0.2 0 0.5 0.2 0 0 0.233333 0 0.5 0.233333 0
          0 0.266667 0 0.5 0.266667 0 0 0.3 0 0.5 0.3 0
          0 0.333333 0 0.5 0.333333 0 0 0.366667 0 0.5 0.366667 0
          0 0.4 0 0.5 0.4 0 0 0.433333 0 0.5 0.433333 0
          0 0.466667 0 0.5 0.466667 0 0 0.5 0 0.5 0.5 0
          0 0.533333 0 0.5 0.533333 0 0 0.566667 0 0.5 0.566667 0
          0 0.6 0 0.5 0.6 0 0 0.633333 0 0.5 0.633333 0
          0 0.666667 0 0.5 0.666667 0 0 0.7 0 0.5 0.7 0
          0 0.733333 0 0.5 0.733333 0 0 0.766667 0 0.5 0.766667 0
          0 0.8 0 0.5 0.8 0 0 0.833333 0 0.5 0.833333 0
          0 0.866667 0 0.5 0.866667 0 0 0.9 0 0.5 0.9 0
          0 0.933333 0 0.5 0.933333 0 0 0.966667 0 0.5 0.966667 0
          0 1 0 0.5 1 0
        </DataArray>
      </Points>
      <Cells>
        <DataArray type="Int32" Name="connectivity" NumberOfComponents="1" format="ascii">
          0 1 3 2 2 3 5 4 4 5 7 6
          6 7 9 8 8 9 11 10 10 11 13 12
          12 13 15 14 14 15 17 16 16 17 19 18
          18 19 21 20 20 21 23 22 22 23 25 24
          24 25 27 26 26 27 29 28 28 29 31 30
          30 31 33 32 32 33 35 34 34 35 37 36
          36 37 39 38 38 39 41 40 40 41 43 42
          42 43 45 44 44 45 47 46 46 47 49 48
          48 49 51 50 50 51 53 52 52 53 55 54
          54 55 57 56 56 57 59 58 58 59 61 60
        </DataArray>
        <DataArray type="Int32" Name="offsets" NumberOfComponents="1" format="ascii">
          4 8 12 16 20 24 28 32 36 40 44 48
          52 56 60 64 68 72 76 80 84 88 92 96
          100 104 108 112 116 120
        </DataArray>
        <DataArray type="UInt8" Name="types" NumberOfComponents="1" format="ascii">
          9 9 9 9 9 9 9 9 9 9 9 9
          9 9 9 9 9 9 9 9 9 9 9 9
          9 9 9 9 9 9
        </DataArray>
      </Cells>
    </Piece>
  </UnstructuredGrid>
</VTKFile>
