<?xml version="1.0"?>
<VTKFile type="UnstructuredGrid" version="0.1" byte_order="LittleEndian">
  <UnstructuredGrid>
    <Piece NumberOfCells="30" NumberOfPoints="62">
      <CellData Scalars="Sg">
        <DataArray type="Float32" Name="Sg" NumberOfComponents="1" format="ascii">
          0.1 0.1 0.1 0.1 0.1 0.1 0.1 0.1 0.1 0.1 0.1 0.1
          0.1 0.1 0.1 0.1 0.1 0.1 0.1 0.1 0.1 0.1 0.1 0.1
          0.1 0.1 0.1 0.1 0.1 0.1
        </DataArray>
        <DataArray type="Float32" Name="Sl" NumberOfComponents="1" format="ascii">
          0.9 0.9 0.9 0.9 0.9 0.9 0.9 0.9 0.9 0.9 0.9 0.9
          0.9 0.9 0.9 0.9 0.9 0.9 0.9 0.9 0.9 0.9 0.9 0.9
          0.9 0.9 0.9 0.9 0.9 0.9
        </DataArray>
        <DataArray type="Float32" Name="pg" NumberOfComponents="1" format="ascii">
          53497.9 53170.9 52843.9 52516.9 52189.9 51862.9 51535.9 51208.9 50881.9 50554.9 50227.9 49900.9
          49573.9 49246.9 48919.9 48592.9 48265.9 47938.9 47611.9 47284.9 46957.9 46630.9 46303.9 45976.9
          45649.9 45322.9 44995.9 44668.9 44341.9 44014.9
        </DataArray>
        <DataArray type="Float32" Name="pl" NumberOfComponents="1" format="ascii">
          110791 110464 110137 109810 109483 109156 108829 108502 108175 107848 107521 107194
          106867 106540 106213 105886 105559 105232 104905 104578 104251 103924 103597 103270
          102943 102616 102289 101962 101635 101308
        </DataArray>
        <DataArray type="Float32" Name="pc" NumberOfComponents="1" format="ascii">
          -57293.1 -57293.1 -57293.1 -57293.1 -57293.1 -57293.1 -57293.1 -57293.1 -57293.1 -57293.1 -57293.1 -57293.1
          -57293.1 -57293.1 -57293.1 -57293.1 -57293.1 -57293.1 -57293.1 -57293.1 -57293.1 -57293.1 -57293.1 -57293.1
          -57293.1 -57293.1 -57293.1 -57293.1 -57293.1 -57293.1
        </DataArray>
        <DataArray type="Float32" Name="rhoL" NumberOfComponents="1" format="ascii">
          999.855 999.855 999.855 999.855 999.855 999.855 999.854 999.854 999.854 999.854 999.854 999.854
          999.853 999.853 999.853 999.853 999.853 999.853 999.852 999.852 999.852 999.852 999.852 999.852
          999.852 999.851 999.851 999.851 999.851 999.851
        </DataArray>
        <DataArray type="Float32" Name="rhoG" NumberOfComponents="1" format="ascii">
          0.662769 0.658718 0.654667 0.650616 0.646565 0.642514 0.638463 0.634412 0.63036 0.626309 0.622258 0.618207
          0.614156 0.610105 0.606054 0.602003 0.597952 0.593901 0.589849 0.585798 0.581747 0.577696 0.573645 0.569594
          0.565543 0.561492 0.557441 0.553389 0.549338 0.545287
        </DataArray>
        <DataArray type="Float32" Name="mobL" NumberOfComponents="1" format="ascii">
          722.171 722.17 722.17 722.17 722.17 722.17 722.169 722.169 722.169 722.169 722.169 722.169
          722.168 722.168 722.168 722.168 722.168 722.167 722.167 722.167 722.167 722.167 722.167 722.166
          722.166 722.166 722.166 722.166 722.165 722.165
        </DataArray>
        <DataArray type="Float32" Name="mobG" NumberOfComponents="1" format="ascii">
          0 0 0 0 0 0 0 0 0 0 0 0
          0 0 0 0 0 0 0 0 0 0 0 0
          0 0 0 0 0 0
        </DataArray>
        <DataArray type="Float32" Name="porosity" NumberOfComponents="1" format="ascii">
          0.2998 0.2998 0.2998 0.2998 0.2998 0.2998 0.2998 0.2998 0.2998 0.2998 0.2998 0.2998
          0.2998 0.2998 0.2998 0.2998 0.2998 0.2998 0.2998 0.2998 0.2998 0.2998 0.2998 0.2998
          0.29953 0.29953 0.29953 0.29953 0.2998 0.2998
        </DataArray>
        <DataArray type="Float32" Name="temperature" NumberOfComponents="1" format="ascii">
          281.15 281.15 281.15 281.15 281.15 281.15 281.15 281.15 281.15 281.15 281.15 281.15
          281.15 281.15 281.15 281.15 281.15 281.15 281.15 281.15 281.15 281.15 281.15 281.15
          281.15 281.15 281.15 281.15 281.15 281.15
        </DataArray>
        <DataArray type="Float32" Name="phase presence" NumberOfComponents="1" format="ascii">
          3 3 3 3 3 3 3 3 3 3 3 3
          3 3 3 3 3 3 3 3 3 3 3 3
          3 3 3 3 3 3
        </DataArray>
        <DataArray type="Float32" Name="precipitateVolumeFraction_au" NumberOfComponents="1" format="ascii">
          0 0 0 0 0 0 0 0 0 0 0 0
          0 0 0 0 0 0 0 0 0 0 0 0
          0.00027 0.00027 0.00027 0.00027 0 0
        </DataArray>
        <DataArray type="Float32" Name="precipitateVolumeFraction_nanoAu" NumberOfComponents="1" format="ascii">
          3.9e-10 3.9e-10 3.9e-10 3.9e-10 3.9e-10 3.9e-10 3.9e-10 3.9e-10 3.9e-10 3.9e-10 3.9e-10 3.9e-10
          3.9e-10 3.9e-10 3.9e-10 3.9e-10 3.9e-10 3.9e-10 3.9e-10 3.9e-10 3.9e-10 3.9e-10 3.9e-10 3.9e-10
          3.9e-10 3.9e-10 3.9e-10 3.9e-10 3.9e-10 3.9e-10
        </DataArray>
        <DataArray type="Float32" Name="precipitateVolumeFraction_d" NumberOfComponents="1" format="ascii">
          0.0001 0.0001 0.0001 0.0001 0.0001 0.0001 0.0001 0.0001 0.0001 0.0001 0.0001 0.0001
          0.0001 0.0001 0.0001 0.0001 0.0001 0.0001 0.0001 0.0001 0.0001 0.0001 0.0001 0.0001
          0.0001 0.0001 0.0001 0.0001 0.0001 0.0001
        </DataArray>
        <DataArray type="Float32" Name="precipitateVolumeFraction_p" NumberOfComponents="1" format="ascii">
          0.0001 0.0001 0.0001 0.0001 0.0001 0.0001 0.0001 0.0001 0.0001 0.0001 0.0001 0.0001
          0.0001 0.0001 0.0001 0.0001 0.0001 0.0001 0.0001 0.0001 0.0001 0.0001 0.0001 0.0001
          0.0001 0.0001 0.0001 0.0001 0.0001 0.0001
        </DataArray>
        <DataArray type="Float32" Name="K" NumberOfComponents="1" format="ascii">
          9.97431e-11 9.97431e-11 9.97431e-11 9.97431e-11 9.97431e-11 9.97431e-11 9.97431e-11 9.97431e-11 9.97431e-11 9.97431e-11 9.97431e-11 9.97431e-11
          9.97431e-11 9.97431e-11 9.97431e-11 9.97431e-11 9.97431e-11 9.97431e-11 9.97431e-11 9.97431e-11 9.97431e-11 9.97431e-11 9.97431e-11 9.97431e-11
          9.93972e-11 9.93972e-11 9.93972e-11 9.93972e-11 9.97431e-11 9.97431e-11
        </DataArray>
        <DataArray type="Float32" Name="X^w_H2O" NumberOfComponents="1" format="ascii">
          0.999884 0.999884 0.999884 0.999884 0.999884 0.999884 0.999884 0.999884 0.999885 0.999885 0.999885 0.999885
          0.999885 0.999885 0.999885 0.999885 0.999885 0.999885 0.999886 0.999886 0.999886 0.999886 0.999886 0.999886
          0.999886 0.999886 0.999886 0.999886 0.999887 0.999887
        </DataArray>
        <DataArray type="Float32" Name="X^w_Air" NumberOfComponents="1" format="ascii">
          1.6251e-05 1.61496e-05 1.60483e-05 1.59469e-05 1.58455e-05 1.57442e-05 1.56428e-05 1.55414e-05 1.54401e-05 1.53387e-05 1.52373e-05 1.5136e-05
          1.50346e-05 1.49332e-05 1.48319e-05 1.47305e-05 1.46291e-05 1.45278e-05 1.44264e-05 1.43251e-05 1.42237e-05 1.41223e-05 1.4021e-05 1.39196e-05
          1.38182e-05 1.37169e-05 1.36155e-05 1.35141e-05 1.34128e-05 1.33114e-05
        </DataArray>
        <DataArray type="Float32" Name="X^w_AuComplex" NumberOfComponents="1" format="ascii">
          5.82703e-09 5.82703e-09 5.82703e-09 5.82703e-09 5.82703e-09 5.82703e-09 5.82703e-09 5.82703e-09 5.82703e-09 5.82703e-09 5.82703e-09 5.82703e-09
          5.82703e-09 5.82703e-09 5.82703e-09 5.82703e-09 5.82703e-09 5.82703e-09 5.82703e-09 5.82703e-09 5.82703e-09 5.82703e-09 5.82703e-09 5.82703e-09
          5.82703e-09 5.82703e-09 5.82703e-09 5.82703e-09 5.82703e-09 5.82703e-09
        </DataArray>
        <DataArray type="Float32" Name="X^w_nanoAu" NumberOfComponents="1" format="ascii">
          5.82703e-09 5.82703e-09 5.82703e-09 5.82703e-09 5.82703e-09 5.82703e-09 5.82703e-09 5.82703e-09 5.82703e-09 5.82703e-09 5.82703e-09 5.82703e-09
          5.82703e-09 5.82703e-09 5.82703e-09 5.82703e-09 5.82703e-09 5.82703e-09 5.82703e-09 5.82703e-09 5.82703e-09 5.82703e-09 5.82703e-09 5.82703e-09
          5.82703e-09 5.82703e-09 5.82703e-09 5.82703e-09 5.82703e-09 5.82703e-09
        </DataArray>
        <DataArray type="Float32" Name="X^w_cyanide" NumberOfComponents="1" format="ascii">
          1.4442e-10 1.4442e-10 1.4442e-10 1.4442e-10 1.4442e-10 1.4442e-10 1.4442e-10 1.4442e-10 1.4442e-10 1.4442e-10 1.4442e-10 1.4442e-10
          1.4442e-10 1.4442e-10 1.4442e-10 1.4442e-10 1.4442e-10 1.4442e-10 1.4442e-10 1.4442e-10 1.4442e-10 1.4442e-10 1.4442e-10 1.4442e-10
          1.4442e-10 1.4442e-10 1.4442e-10 1.4442e-10 1.4442e-10 1.4442e-10
        </DataArray>
        <DataArray type="Float32" Name="X^w_citrate" NumberOfComponents="1" format="ascii">
          1.88922e-08 1.88922e-08 1.88922e-08 1.88922e-08 1.88922e-08 1.88922e-08 1.88922e-08 1.88922e-08 1.88922e-08 1.88922e-08 1.88922e-08 1.88922e-08
          1.88922e-08 1.88922e-08 1.88922e-08 1.88922e-08 1.88922e-08 1.88922e-08 1.88922e-08 1.88922e-08 1.88922e-08 1.88922e-08 1.88922e-08 1.88922e-08
          1.88922e-08 1.88922e-08 1.88922e-08 1.88922e-08 1.88922e-08 1.88922e-08
        </DataArray>
        <DataArray type="Float32" Name="X^w_substrate" NumberOfComponents="1" format="ascii">
          9.99949e-05 9.99949e-05 9.99949e-05 9.99949e-05 9.99949e-05 9.9995e-05 9.9995e-05 9.9995e-05 9.9995e-05 9.9995e-05 9.9995e-05 9.9995e-05
          9.9995e-05 9.9995e-05 9.9995e-05 9.9995e-05 9.9995e-05 9.9995e-05 9.9995e-05 9.9995e-05 9.9995e-05 9.9995e-05 9.9995e-05 9.9995e-05
          9.9995e-05 9.9995e-05 9.9995e-05 9.9995e-05 9.9995e-05 9.9995e-05
        </DataArray>
        <DataArray type="Float32" Name="m^w_H2O" NumberOfComponents="1" format="ascii">
          55494.3 55494.3 55494.3 55494.2 55494.2 55494.2 55494.2 55494.2 55494.2 55494.2 55494.2 55494.2
          55494.2 55494.2 55494.2 55494.2 55494.2 55494.2 55494.2 55494.2 55494.2 55494.2 55494.2 55494.2
          55494.2 55494.2 55494.2 55494.2 55494.2 55494.2
        </DataArray>
        <DataArray type="Float32" Name="m^w_Air" NumberOfComponents="1" format="ascii">
          0.561072 0.557572 0.554072 0.550572 0.547073 0.543573 0.540073 0.536573 0.533074 0.529574 0.526074 0.522574
          0.519075 0.515575 0.512075 0.508575 0.505076 0.501576 0.498076 0.494577 0.491077 0.487577 0.484077 0.480578
          0.477078 0.473578 0.470078 0.466579 0.463079 0.459579
        </DataArray>
        <DataArray type="Float32" Name="m^w_AuComplex" NumberOfComponents="1" format="ascii">
          2.9579e-05 2.9579e-05 2.9579e-05 2.9579e-05 2.9579e-05 2.9579e-05 2.9579e-05 2.9579e-05 2.9579e-05 2.9579e-05 2.9579e-05 2.9579e-05
          2.9579e-05 2.9579e-05 2.9579e-05 2.9579e-05 2.9579e-05 2.9579e-05 2.9579e-05 2.9579e-05 2.9579e-05 2.9579e-05 2.9579e-05 2.9579e-05
          2.9579e-05 2.95789e-05 2.95789e-05 2.95789e-05 2.95789e-05 2.95789e-05
        </DataArray>
        <DataArray type="Float32" Name="m^w_nanoAu" NumberOfComponents="1" format="ascii">
          2.9579e-05 2.9579e-05 2.9579e-05 2.9579e-05 2.9579e-05 2.9579e-05 2.9579e-05 2.9579e-05 2.9579e-05 2.9579e-05 2.9579e-05 2.9579e-05
          2.9579e-05 2.9579e-05 2.9579e-05 2.9579e-05 2.9579e-05 2.9579e-05 2.9579e-05 2.9579e-05 2.9579e-05 2.9579e-05 2.9579e-05 2.9579e-05
          2.9579e-05 2.95789e-05 2.95789e-05 2.95789e-05 2.95789e-05 2.95789e-05
        </DataArray>
        <DataArray type="Float32" Name="m^w_cyanide" NumberOfComponents="1" format="ascii">
          5.54954e-06 5.54954e-06 5.54953e-06 5.54954e-06 5.54954e-06 5.54953e-06 5.54953e-06 5.54954e-06 5.54953e-06 5.54953e-06 5.54953e-06 5.54953e-06
          5.54953e-06 5.54953e-06 5.54953e-06 5.54953e-06 5.54952e-06 5.54953e-06 5.54953e-06 5.54952e-06 5.54952e-06 5.54953e-06 5.54952e-06 5.54952e-06
          5.54952e-06 5.54952e-06 5.54952e-06 5.54952e-06 5.54952e-06 5.54952e-06
        </DataArray>
        <DataArray type="Float32" Name="m^w_citrate" NumberOfComponents="1" format="ascii">
          9.98917e-05 9.98917e-05 9.98917e-05 9.98916e-05 9.98916e-05 9.98916e-05 9.98916e-05 9.98916e-05 9.98916e-05 9.98916e-05 9.98916e-05 9.98915e-05
          9.98915e-05 9.98915e-05 9.98915e-05 9.98915e-05 9.98915e-05 9.98915e-05 9.98915e-05 9.98914e-05 9.98914e-05 9.98914e-05 9.98914e-05 9.98914e-05
          9.98914e-05 9.98914e-05 9.98914e-05 9.98914e-05 9.98913e-05 9.98913e-05
        </DataArray>
        <DataArray type="Float32" Name="m^w_substrate" NumberOfComponents="1" format="ascii">
          0.554954 0.554954 0.554954 0.554954 0.554954 0.554953 0.554953 0.554953 0.554953 0.554953 0.554953 0.554953
          0.554953 0.554953 0.554953 0.554953 0.554953 0.554953 0.554953 0.554953 0.554952 0.554952 0.554952 0.554952
          0.554952 0.554952 0.554952 0.554952 0.554952 0.554952
        </DataArray>
        <DataArray type="Float32" Name="process rank" NumberOfComponents="1" format="ascii">
          0 0 0 0 0 0 0 0 0 0 0 0
          0 0 0 0 0 0 0 0 0 0 0 0
          0 0 0 0 0 0
        </DataArray>
      </CellData>
      <Points>
        <DataArray type="Float32" Name="Coordinates" NumberOfComponents="3" format="ascii">
          0 0 0 0.5 0 0 0 0.0333333 0 0.5 0.0333333 0
          0 0.0666667 0 0.5 0.0666667 0 0 0.1 0 0.5 0.1 0
          0 0.133333 0 0.5 0.133333 0 0 0.166667 0 0.5 0.166667 0
          0 0.2 0 0.5 0.2 0 0 0.233333 0 0.5 0.233333 0
          0 0.266667 0 0.5 0.266667 0 0 0.3 0 0.5 0.3 0
          0 0.333333 0 0.5 0.333333 0 0 0.366667 0 0.5 0.366667 0
          0 0.4 0 0.5 0.4 0 0 0.433333 0 0.5 0.433333 0
          0 0.466667 0 0.5 0.466667 0 0 0.5 0 0.5 0.5 0
          0 0.533333 0 0.5 0.533333 0 0 0.566667 0 0.5 0.566667 0
          0 0.6 0 0.5 0.6 0 0 0.633333 0 0.5 0.633333 0
          0 0.666667 0 0.5 0.666667 0 0 0.7 0 0.5 0.7 0
          0 0.733333 0 0.5 0.733333 0 0 0.766667 0 0.5 0.766667 0
          0 0.8 0 0.5 0.8 0 0 0.833333 0 0.5 0.833333 0
          0 0.866667 0 0.5 0.866667 0 0 0.9 0 0.5 0.9 0
          0 0.933333 0 0.5 0.933333 0 0 0.966667 0 0.5 0.966667 0
          0 1 0 0.5 1 0
        </DataArray>
      </Points>
      <Cells>
        <DataArray type="Int32" Name="connectivity" NumberOfComponents="1" format="ascii">
          0 1 3 2 2 3 5 4 4 5 7 6
          6 7 9 8 8 9 11 10 10 11 13 12
          12 13 15 14 14 15 17 16 16 17 19 18
          18 19 21 20 20 21 23 22 22 23 25 24
          24 25 27 26 26 27 29 28 28 29 31 30
          30 31 33 32 32 33 35 34 34 35 37 36
          36 37 39 38 38 39 41 40 40 41 43 42
          42 43 45 44 44 45 47 46 46 47 49 48
          48 49 51 50 50 51 53 52 52 53 55 54
          54 55 57 56 56 57 59 58 58 59 61 60
        </DataArray>
        <DataArray type="Int32" Name="offsets" NumberOfComponents="1" format="ascii">
          4 8 12 16 20 24 28 32 36 40 44 48
          52 56 60 64 68 72 76 80 84 88 92 96
          100 104 108 112 116 120
        </DataArray>
        <DataArray type="UInt8" Name="types" NumberOfComponents="1" format="ascii">
          9 9 9 9 9 9 9 9 9 9 9 9
          9 9 9 9 9 9 9 9 9 9 9 9
          9 9 9 9 9 9
        </DataArray>
      </Cells>
    </Piece>
  </UnstructuredGrid>
</VTKFile>
