<?xml version="1.0"?>
<VTKFile type="UnstructuredGrid" version="0.1" byte_order="LittleEndian">
  <UnstructuredGrid>
    <Piece NumberOfCells="30" NumberOfPoints="62">
      <CellData Scalars="Sg">
        <DataArray type="Float32" Name="Sg" NumberOfComponents="1" format="ascii">
          0 0 0 0 0 0 0 0 0 0 0 0
          0 0 0 0 0 0 0 0 0 0 0 0
          0 0 0 0 0 0
        </DataArray>
        <DataArray type="Float32" Name="Sl" NumberOfComponents="1" format="ascii">
          1 1 1 1 1 1 1 1 1 1 1 1
          1 1 1 1 1 1 1 1 1 1 1 1
          1 1 1 1 1 1
        </DataArray>
        <DataArray type="Float32" Name="pg" NumberOfComponents="1" format="ascii">
          24687.8 24360.9 24034 23707 23380.1 23053.1 22726.2 22399.3 22072.3 21745.4 21418.4 21091.5
          20764.6 20437.6 20110.7 19783.7 19456.8 19129.8 18802.9 18476 18149 17822.1 17495.1 17168.2
          16841.3 16514.3 16187.4 15860.4 15533.5 15211.7
        </DataArray>
        <DataArray type="Float32" Name="pl" NumberOfComponents="1" format="ascii">
          110628 110301 109974 109647 109320 108993 108666 108339 108012 107685 107358 107031
          106704 106377 106050 105723 105396 105070 104743 104416 104089 103762 103435 103108
          102781 102454 102127 101800 101473 101151
        </DataArray>
        <DataArray type="Float32" Name="pc" NumberOfComponents="1" format="ascii">
          -85939.7 -85939.7 -85939.7 -85939.7 -85939.7 -85939.7 -85939.7 -85939.7 -85939.7 -85939.7 -85939.7 -85939.7
          -85939.7 -85939.7 -85939.7 -85939.7 -85939.7 -85939.7 -85939.7 -85939.7 -85939.7 -85939.7 -85939.7 -85939.7
          -85939.7 -85939.7 -85939.7 -85939.7 -85939.7 -85939.7
        </DataArray>
        <DataArray type="Float32" Name="rhoL" NumberOfComponents="1" format="ascii">
          999.855 999.855 999.855 999.855 999.855 999.854 999.854 999.854 999.854 999.854 999.854 999.854
          999.853 999.853 999.853 999.853 999.853 999.853 999.852 999.852 999.852 999.852 999.852 999.852
          999.852 999.851 999.851 999.851 999.851 999.851
        </DataArray>
        <DataArray type="Float32" Name="rhoG" NumberOfComponents="1" format="ascii">
          0.30585 0.3018 0.29775 0.293699 0.289649 0.285598 0.281548 0.277498 0.273447 0.269397 0.265347 0.261296
          0.257246 0.253195 0.249145 0.245095 0.241044 0.236994 0.232944 0.228893 0.224843 0.220793 0.216742 0.212692
          0.208641 0.204591 0.200541 0.19649 0.19244 0.188453
        </DataArray>
        <DataArray type="Float32" Name="mobL" NumberOfComponents="1" format="ascii">
          722.171 722.17 722.17 722.17 722.17 722.17 722.169 722.169 722.169 722.169 722.169 722.169
          722.168 722.168 722.168 722.168 722.168 722.167 722.167 722.167 722.167 722.167 722.166 722.166
          722.166 722.166 722.166 722.166 722.165 722.165
        </DataArray>
        <DataArray type="Float32" Name="mobG" NumberOfComponents="1" format="ascii">
          0 0 0 0 0 0 0 0 0 0 0 0
          0 0 0 0 0 0 0 0 0 0 0 0
          0 0 0 0 0 0
        </DataArray>
        <DataArray type="Float32" Name="porosity" NumberOfComponents="1" format="ascii">
          0.298847 0.298847 0.298847 0.298846 0.298846 0.298846 0.298845 0.298844 0.298843 0.298841 0.298839 0.298836
          0.298831 0.298825 0.298817 0.298806 0.298791 0.298771 0.298743 0.298706 0.298654 0.298581 0.298476 0.29832
          0.297803 0.297374 0.296512 0.294213 0.282685 0.0378851
        </DataArray>
        <DataArray type="Float32" Name="temperature" NumberOfComponents="1" format="ascii">
          281.15 281.15 281.15 281.15 281.15 281.15 281.15 281.15 281.15 281.15 281.15 281.15
          281.15 281.15 281.15 281.15 281.15 281.15 281.15 281.15 281.15 281.15 281.15 281.15
          281.15 281.15 281.15 281.15 281.15 281.15
        </DataArray>
        <DataArray type="Float32" Name="phase presence" NumberOfComponents="1" format="ascii">
          1 1 1 1 1 1 1 1 1 1 1 1
          1 1 1 1 1 1 1 1 1 1 1 1
          1 1 1 1 1 1
        </DataArray>
        <DataArray type="Float32" Name="precipitateVolumeFraction_au" NumberOfComponents="1" format="ascii">
          5.52607e-10 5.52799e-10 5.52705e-10 5.52754e-10 5.52729e-10 5.52753e-10 5.52769e-10 5.52767e-10 5.52767e-10 5.52745e-10 5.52764e-10 5.52772e-10
          5.52745e-10 5.52767e-10 5.52739e-10 5.5273e-10 5.52724e-10 5.52769e-10 5.52779e-10 5.5279e-10 5.52742e-10 5.52719e-10 5.53119e-10 1.28444e-09
          0.000269941 0.000269925 0.0002699 0.000269851 5.52532e-10 5.51065e-10
        </DataArray>
        <DataArray type="Float32" Name="precipitateVolumeFraction_nanoAu" NumberOfComponents="1" format="ascii">
          1.23615e-13 1.23657e-13 1.23637e-13 1.23648e-13 1.23642e-13 1.23647e-13 1.23651e-13 1.2365e-13 1.2365e-13 1.23645e-13 1.23649e-13 1.2365e-13
          1.23644e-13 1.23648e-13 1.23641e-13 1.23638e-13 1.23635e-13 1.23643e-13 1.23642e-13 1.2364e-13 1.23624e-13 1.23627e-13 1.35604e-13 2.58357e-11
          6.03609e-08 7.66828e-08 1.02146e-07 1.45573e-07 4.74506e-13 4.67251e-13
        </DataArray>
        <DataArray type="Float32" Name="precipitateVolumeFraction_d" NumberOfComponents="1" format="ascii">
          0.000576516 0.000576574 0.000576656 0.000576772 0.000576935 0.000577162 0.00057748 0.000577923 0.000578539 0.000579391 0.000580566 0.00058218
          0.000584387 0.000587395 0.000591481 0.000597018 0.000604511 0.000614653 0.000628417 0.000647208 0.000673127 0.000709475 0.000761752 0.000839858
          0.000963486 0.0011778 0.00160903 0.00275864 0.00865728 0.131057
        </DataArray>
        <DataArray type="Float32" Name="precipitateVolumeFraction_p" NumberOfComponents="1" format="ascii">
          0.000576516 0.000576574 0.000576656 0.000576772 0.000576935 0.000577162 0.00057748 0.000577923 0.000578539 0.000579391 0.000580566 0.00058218
          0.000584387 0.000587395 0.000591481 0.000597018 0.000604511 0.000614653 0.000628417 0.000647208 0.000673127 0.000709475 0.000761752 0.000839858
          0.000963486 0.0011778 0.00160903 0.00275864 0.00865728 0.131057
        </DataArray>
        <DataArray type="Float32" Name="K" NumberOfComponents="1" format="ascii">
          9.85265e-11 9.85264e-11 9.85262e-11 9.85259e-11 9.85255e-11 9.85249e-11 9.85241e-11 9.8523e-11 9.85214e-11 9.85192e-11 9.85163e-11 9.85122e-11
          9.85066e-11 9.84989e-11 9.84885e-11 9.84745e-11 9.84555e-11 9.84297e-11 9.83948e-11 9.83471e-11 9.82814e-11 9.81893e-11 9.80569e-11 9.78595e-11
          9.72079e-11 9.66707e-11 9.55973e-11 9.27831e-11 7.96752e-11 1.06607e-13
        </DataArray>
        <DataArray type="Float32" Name="X^w_H2O" NumberOfComponents="1" format="ascii">
          0.999853 0.999853 0.999853 0.999853 0.999853 0.999853 0.999853 0.999853 0.999853 0.999853 0.999853 0.999853
          0.999853 0.999853 0.999853 0.999853 0.999853 0.999853 0.999853 0.999853 0.999853 0.999853 0.999853 0.999853
          0.999853 0.999852 0.99985 0.999846 0.999839 0.99984
        </DataArray>
        <DataArray type="Float32" Name="X^w_Air" NumberOfComponents="1" format="ascii">
          0 0 0 0 0 0 0 0 0 0 0 0
          0 0 0 0 0 0 0 0 0 0 0 0
          0 0 0 0 0 0
        </DataArray>
        <DataArray type="Float32" Name="X^w_AuComplex" NumberOfComponents="1" format="ascii">
          1.41035e-16 1.41084e-16 1.4106e-16 1.41073e-16 1.41066e-16 1.41072e-16 1.41076e-16 1.41076e-16 1.41076e-16 1.41069e-16 1.41074e-16 1.41075e-16
          1.41067e-16 1.41071e-16 1.41063e-16 1.41058e-16 1.41053e-16 1.4106e-16 1.41056e-16 1.4105e-16 1.41025e-16 1.41019e-16 1.54477e-16 2.94483e-14
          6.88314e-11 1.07367e-10 1.84404e-10 3.64039e-10 1.83712e-15 1.78893e-15
        </DataArray>
        <DataArray type="Float32" Name="X^w_nanoAu" NumberOfComponents="1" format="ascii">
          5.38387e-19 5.3857e-19 5.3848e-19 5.38527e-19 5.38503e-19 5.38526e-19 5.38541e-19 5.38539e-19 5.38538e-19 5.38515e-19 5.38532e-19 5.38538e-19
          5.3851e-19 5.38526e-19 5.38495e-19 5.3848e-19 5.38466e-19 5.38496e-19 5.3849e-19 5.38517e-19 5.42124e-19 8.83463e-19 3.25042e-17 2.95702e-15
          2.63623e-13 3.35102e-13 4.46639e-13 6.26619e-13 2.06107e-18 1.98573e-18
        </DataArray>
        <DataArray type="Float32" Name="X^w_cyanide" NumberOfComponents="1" format="ascii">
          5.07022e-06 5.07022e-06 5.07022e-06 5.07022e-06 5.07022e-06 5.07022e-06 5.07022e-06 5.07022e-06 5.07021e-06 5.0702e-06 5.0702e-06 5.07018e-06
          5.07016e-06 5.07014e-06 5.0701e-06 5.07005e-06 5.06999e-06 5.06989e-06 5.06977e-06 5.0696e-06 5.06936e-06 5.06902e-06 5.06852e-06 5.06777e-06
          5.06709e-06 6.43676e-06 8.57259e-06 1.22388e-05 1.94662e-05 1.92461e-05
        </DataArray>
        <DataArray type="Float32" Name="X^w_citrate" NumberOfComponents="1" format="ascii">
          0.000141796 0.000141796 0.000141796 0.000141796 0.000141796 0.000141796 0.000141796 0.000141796 0.000141796 0.000141796 0.000141796 0.000141796
          0.000141795 0.000141795 0.000141795 0.000141795 0.000141794 0.000141793 0.000141792 0.000141791 0.000141789 0.000141787 0.000141783 0.000141778
          0.000141769 0.000141756 0.00014173 0.00014167 0.00014147 0.00013987
        </DataArray>
        <DataArray type="Float32" Name="X^w_substrate" NumberOfComponents="1" format="ascii">
          1.51278e-11 2.00544e-11 2.65841e-11 3.52384e-11 4.67085e-11 6.19117e-11 8.20649e-11 1.08784e-10 1.44219e-10 1.91231e-10 2.53639e-10 3.36555e-10
          4.46845e-10 5.93784e-10 7.8998e-10 1.05273e-09 1.40602e-09 1.88362e-09 2.53396e-09 3.42809e-09 4.67341e-09 6.43844e-09 9.00035e-09 1.28441e-08
          1.88893e-08 2.90845e-08 4.82672e-08 9.17401e-08 2.3333e-07 1.36194e-06
        </DataArray>
        <DataArray type="Float32" Name="m^w_H2O" NumberOfComponents="1" format="ascii">
          55492.6 55492.6 55492.5 55492.5 55492.5 55492.5 55492.5 55492.5 55492.5 55492.5 55492.5 55492.5
          55492.5 55492.4 55492.4 55492.4 55492.4 55492.4 55492.4 55492.4 55492.4 55492.4 55492.4 55492.4
          55492.3 55492.3 55492.1 55491.9 55491.5 55491.5
        </DataArray>
        <DataArray type="Float32" Name="m^w_Air" NumberOfComponents="1" format="ascii">
          0 0 0 0 0 0 0 0 0 0 0 0
          0 0 0 0 0 0 0 0 0 0 0 0
          0 0 0 0 0 0
        </DataArray>
        <DataArray type="Float32" Name="m^w_AuComplex" NumberOfComponents="1" format="ascii">
          7.1592e-13 7.16168e-13 7.16047e-13 7.16111e-13 7.16077e-13 7.16109e-13 7.16128e-13 7.16125e-13 7.16124e-13 7.16093e-13 7.16115e-13 7.16121e-13
          7.16082e-13 7.16103e-13 7.16058e-13 7.16033e-13 7.16008e-13 7.16042e-13 7.16023e-13 7.15993e-13 7.15868e-13 7.15835e-13 7.84152e-13 1.49484e-10
          3.49399e-07 5.45013e-07 9.36066e-07 1.84792e-06 9.32553e-12 9.08088e-12
        </DataArray>
        <DataArray type="Float32" Name="m^w_nanoAu" NumberOfComponents="1" format="ascii">
          2.73295e-15 2.73388e-15 2.73342e-15 2.73366e-15 2.73354e-15 2.73365e-15 2.73373e-15 2.73372e-15 2.73371e-15 2.7336e-15 2.73368e-15 2.73371e-15
          2.73357e-15 2.73365e-15 2.73349e-15 2.73341e-15 2.73334e-15 2.7335e-15 2.73346e-15 2.7336e-15 2.75191e-15 4.4846e-15 1.64997e-13 1.50103e-11
          1.33819e-09 1.70103e-09 2.26721e-09 3.18082e-09 1.04623e-14 1.00799e-14
        </DataArray>
        <DataArray type="Float32" Name="m^w_cyanide" NumberOfComponents="1" format="ascii">
          0.19483 0.19483 0.19483 0.19483 0.19483 0.19483 0.19483 0.19483 0.19483 0.19483 0.194829 0.194829
          0.194828 0.194827 0.194825 0.194823 0.194821 0.194817 0.194813 0.194806 0.194797 0.194783 0.194764 0.194736
          0.194709 0.247341 0.329413 0.470289 0.748015 0.739553
        </DataArray>
        <DataArray type="Float32" Name="m^w_citrate" NumberOfComponents="1" format="ascii">
          0.749742 0.749742 0.749742 0.749742 0.749742 0.749741 0.749741 0.749741 0.74974 0.74974 0.749739 0.749739
          0.749738 0.749736 0.749735 0.749733 0.74973 0.749726 0.749721 0.749714 0.749705 0.749692 0.749672 0.749643
          0.749598 0.749526 0.749389 0.74907 0.748018 0.739555
        </DataArray>
        <DataArray type="Float32" Name="m^w_substrate" NumberOfComponents="1" format="ascii">
          8.39565e-08 1.11298e-07 1.47537e-07 1.95566e-07 2.59224e-07 3.43599e-07 4.55445e-07 6.03733e-07 8.00389e-07 1.0613e-06 1.40765e-06 1.86781e-06
          2.4799e-06 3.29539e-06 4.38423e-06 5.84243e-06 7.80313e-06 1.04537e-05 1.4063e-05 1.90252e-05 2.59365e-05 3.5732e-05 4.99502e-05 7.12819e-05
          0.000104832 0.000161413 0.000267873 0.000509139 0.00129493 0.0075585
        </DataArray>
        <DataArray type="Float32" Name="process rank" NumberOfComponents="1" format="ascii">
          0 0 0 0 0 0 0 0 0 0 0 0
          0 0 0 0 0 0 0 0 0 0 0 0
          0 0 0 0 0 0
        </DataArray>
      </CellData>
      <Points>
        <DataArray type="Float32" Name="Coordinates" NumberOfComponents="3" format="ascii">
          0 0 0 0.5 0 0 0 0.0333333 0 0.5 0.0333333 0
          0 0.0666667 0 0.5 0.0666667 0 0 0.1 0 0.5 0.1 0
          0 0.133333 0 0.5 0.133333 0 0 0.166667 0 0.5 0.166667 0
          0 0.2 0 0.5 0.2 0 0 0.233333 0 0.5 0.233333 0
          0 0.266667 0 0.5 0.266667 0 0 0.3 0 0.5 0.3 0
          0 0.333333 0 0.5 0.333333 0 0 0.366667 0 0.5 0.366667 0
          0 0.4 0 0.5 0.4 0 0 0.433333 0 0.5 0.433333 0
          0 0.466667 0 0.5 0.466667 0 0 0.5 0 0.5 0.5 0
          0 0.533333 0 0.5 0.533333 0 0 0.566667 0 0.5 0.566667 0
          0 0.6 0 0.5 0.6 0 0 0.633333 0 0.5 0.633333 0
          0 0.666667 0 0.5 0.666667 0 0 0.7 0 0.5 0.7 0
          0 0.733333 0 0.5 0.733333 0 0 0.766667 0 0.5 0.766667 0
          0 0.8 0 0.5 0.8 0 0 0.833333 0 0.5 0.833333 0
          0 0.866667 0 0.5 0.866667 0 0 0.9 0 0.5 0.9 0
          0 0.933333 0 0.5 0.933333 0 0 0.966667 0 0.5 0.966667 0
          0 1 0 0.5 1 0
        </DataArray>
      </Points>
      <Cells>
        <DataArray type="Int32" Name="connectivity" NumberOfComponents="1" format="ascii">
          0 1 3 2 2 3 5 4 4 5 7 6
          6 7 9 8 8 9 11 10 10 11 13 12
          12 13 15 14 14 15 17 16 16 17 19 18
          18 19 21 20 20 21 23 22 22 23 25 24
          24 25 27 26 26 27 29 28 28 29 31 30
          30 31 33 32 32 33 35 34 34 35 37 36
          36 37 39 38 38 39 41 40 40 41 43 42
          42 43 45 44 44 45 47 46 46 47 49 48
          48 49 51 50 50 51 53 52 52 53 55 54
          54 55 57 56 56 57 59 58 58 59 61 60
        </DataArray>
        <DataArray type="Int32" Name="offsets" NumberOfComponents="1" format="ascii">
          4 8 12 16 20 24 28 32 36 40 44 48
          52 56 60 64 68 72 76 80 84 88 92 96
          100 104 108 112 116 120
        </DataArray>
        <DataArray type="UInt8" Name="types" NumberOfComponents="1" format="ascii">
          9 9 9 9 9 9 9 9 9 9 9 9
          9 9 9 9 9 9 9 9 9 9 9 9
          9 9 9 9 9 9
        </DataArray>
      </Cells>
    </Piece>
  </UnstructuredGrid>
</VTKFile>
