<?xml version="1.0"?>
<VTKFile type="UnstructuredGrid" version="0.1" byte_order="LittleEndian">
  <UnstructuredGrid>
    <Piece NumberOfCells="30" NumberOfPoints="62">
      <CellData Scalars="Sg">
        <DataArray type="Float32" Name="Sg" NumberOfComponents="1" format="ascii">
          0 0 0 0 0 0 0 0 0 0 0 0
          0 0 0 0 0 0 0 0 0 0 0 0
          0 0 0 0 0 0
        </DataArray>
        <DataArray type="Float32" Name="Sl" NumberOfComponents="1" format="ascii">
          1 1 1 1 1 1 1 1 1 1 1 1
          1 1 1 1 1 1 1 1 1 1 1 1
          1 1 1 1 1 1
        </DataArray>
        <DataArray type="Float32" Name="pg" NumberOfComponents="1" format="ascii">
          24687.8 24360.9 24034 23707 23380.1 23053.1 22726.2 22399.3 22072.3 21745.4 21418.4 21091.5
          20764.6 20437.6 20110.7 19783.7 19456.8 19129.8 18802.9 18476 18149 17822.1 17495.1 17168.2
          16841.3 16514.3 16187.4 15860.4 15533.5 15211.6
        </DataArray>
        <DataArray type="Float32" Name="pl" NumberOfComponents="1" format="ascii">
          110628 110301 109974 109647 109320 108993 108666 108339 108012 107685 107358 107031
          106704 106377 106050 105723 105396 105070 104743 104416 104089 103762 103435 103108
          102781 102454 102127 101800 101473 101151
        </DataArray>
        <DataArray type="Float32" Name="pc" NumberOfComponents="1" format="ascii">
          -85939.7 -85939.7 -85939.7 -85939.7 -85939.7 -85939.7 -85939.7 -85939.7 -85939.7 -85939.7 -85939.7 -85939.7
          -85939.7 -85939.7 -85939.7 -85939.7 -85939.7 -85939.7 -85939.7 -85939.7 -85939.7 -85939.7 -85939.7 -85939.7
          -85939.7 -85939.7 -85939.7 -85939.7 -85939.7 -85939.7
        </DataArray>
        <DataArray type="Float32" Name="rhoL" NumberOfComponents="1" format="ascii">
          999.855 999.855 999.855 999.855 999.855 999.854 999.854 999.854 999.854 999.854 999.854 999.854
          999.853 999.853 999.853 999.853 999.853 999.853 999.852 999.852 999.852 999.852 999.852 999.852
          999.852 999.851 999.851 999.851 999.851 999.851
        </DataArray>
        <DataArray type="Float32" Name="rhoG" NumberOfComponents="1" format="ascii">
          0.30585 0.3018 0.29775 0.293699 0.289649 0.285598 0.281548 0.277498 0.273447 0.269397 0.265347 0.261296
          0.257246 0.253195 0.249145 0.245095 0.241044 0.236994 0.232944 0.228893 0.224843 0.220793 0.216742 0.212692
          0.208641 0.204591 0.200541 0.19649 0.19244 0.188452
        </DataArray>
        <DataArray type="Float32" Name="mobL" NumberOfComponents="1" format="ascii">
          722.171 722.17 722.17 722.17 722.17 722.17 722.169 722.169 722.169 722.169 722.169 722.169
          722.168 722.168 722.168 722.168 722.168 722.167 722.167 722.167 722.167 722.167 722.166 722.166
          722.166 722.166 722.166 722.166 722.165 722.165
        </DataArray>
        <DataArray type="Float32" Name="mobG" NumberOfComponents="1" format="ascii">
          0 0 0 0 0 0 0 0 0 0 0 0
          0 0 0 0 0 0 0 0 0 0 0 0
          0 0 0 0 0 0
        </DataArray>
        <DataArray type="Float32" Name="porosity" NumberOfComponents="1" format="ascii">
          0.298817 0.298816 0.298816 0.298816 0.298816 0.298815 0.298815 0.298814 0.298812 0.298811 0.298808 0.298805
          0.2988 0.298794 0.298786 0.298775 0.298759 0.298739 0.298711 0.298672 0.29862 0.298545 0.298439 0.29828
          0.29776 0.297327 0.29646 0.294171 0.282942 0.0382127
        </DataArray>
        <DataArray type="Float32" Name="temperature" NumberOfComponents="1" format="ascii">
          281.15 281.15 281.15 281.15 281.15 281.15 281.15 281.15 281.15 281.15 281.15 281.15
          281.15 281.15 281.15 281.15 281.15 281.15 281.15 281.15 281.15 281.15 281.15 281.15
          281.15 281.15 281.15 281.15 281.15 281.15
        </DataArray>
        <DataArray type="Float32" Name="phase presence" NumberOfComponents="1" format="ascii">
          1 1 1 1 1 1 1 1 1 1 1 1
          1 1 1 1 1 1 1 1 1 1 1 1
          1 1 1 1 1 1
        </DataArray>
        <DataArray type="Float32" Name="precipitateVolumeFraction_au" NumberOfComponents="1" format="ascii">
          5.52607e-10 5.52799e-10 5.52705e-10 5.52754e-10 5.52729e-10 5.52753e-10 5.52769e-10 5.52767e-10 5.52767e-10 5.52745e-10 5.52764e-10 5.52772e-10
          5.52745e-10 5.52767e-10 5.52739e-10 5.5273e-10 5.52724e-10 5.52769e-10 5.52779e-10 5.5279e-10 5.52742e-10 5.52719e-10 5.53088e-10 1.21822e-09
          0.000269941 0.000269925 0.0002699 0.000269852 5.52533e-10 5.51067e-10
        </DataArray>
        <DataArray type="Float32" Name="precipitateVolumeFraction_nanoAu" NumberOfComponents="1" format="ascii">
          1.23616e-13 1.23659e-13 1.23638e-13 1.23649e-13 1.23643e-13 1.23649e-13 1.23652e-13 1.23652e-13 1.23652e-13 1.23646e-13 1.23651e-13 1.23652e-13
          1.23646e-13 1.2365e-13 1.23643e-13 1.2364e-13 1.23637e-13 1.23645e-13 1.23644e-13 1.23642e-13 1.23626e-13 1.23629e-13 1.35594e-13 2.58223e-11
          6.03621e-08 7.66841e-08 1.02148e-07 1.45573e-07 4.7449e-13 4.67241e-13
        </DataArray>
        <DataArray type="Float32" Name="precipitateVolumeFraction_d" NumberOfComponents="1" format="ascii">
          0.000591736 0.000591795 0.000591879 0.000591996 0.000592162 0.000592393 0.000592717 0.000593169 0.000593797 0.000594666 0.000595864 0.00059751
          0.000599763 0.000602832 0.000607002 0.000612652 0.000620297 0.000630643 0.000644681 0.000663838 0.000690248 0.000727256 0.00078043 0.000859763
          0.000985078 0.00120165 0.00163515 0.00277964 0.00852885 0.130894
        </DataArray>
        <DataArray type="Float32" Name="precipitateVolumeFraction_p" NumberOfComponents="1" format="ascii">
          0.000591736 0.000591795 0.000591879 0.000591996 0.000592162 0.000592393 0.000592717 0.000593169 0.000593797 0.000594666 0.000595864 0.00059751
          0.000599763 0.000602832 0.000607002 0.000612652 0.000620297 0.000630643 0.000644681 0.000663838 0.000690248 0.000727256 0.00078043 0.000859763
          0.000985078 0.00120165 0.00163515 0.00277964 0.00852885 0.130894
        </DataArray>
        <DataArray type="Float32" Name="K" NumberOfComponents="1" format="ascii">
          9.84879e-11 9.84877e-11 9.84875e-11 9.84872e-11 9.84868e-11 9.84862e-11 9.84854e-11 9.84842e-11 9.84827e-11 9.84804e-11 9.84774e-11 9.84732e-11
          9.84675e-11 9.84597e-11 9.84491e-11 9.84348e-11 9.84154e-11 9.83891e-11 9.83535e-11 9.83049e-11 9.8238e-11 9.81442e-11 9.80097e-11 9.78092e-11
          9.71537e-11 9.66111e-11 9.55325e-11 9.27324e-11 7.99499e-11 1.0947e-13
        </DataArray>
        <DataArray type="Float32" Name="X^w_H2O" NumberOfComponents="1" format="ascii">
          0.999853 0.999853 0.999853 0.999853 0.999853 0.999853 0.999853 0.999853 0.999853 0.999853 0.999853 0.999853
          0.999853 0.999853 0.999853 0.999853 0.999853 0.999853 0.999853 0.999853 0.999853 0.999853 0.999853 0.999853
          0.999853 0.999852 0.99985 0.999846 0.999839 0.99984
        </DataArray>
        <DataArray type="Float32" Name="X^w_Air" NumberOfComponents="1" format="ascii">
          0 0 0 0 0 0 0 0 0 0 0 0
          0 0 0 0 0 0 0 0 0 0 0 0
          0 0 0 0 0 0
        </DataArray>
        <DataArray type="Float32" Name="X^w_AuComplex" NumberOfComponents="1" format="ascii">
          1.41038e-16 1.41087e-16 1.41063e-16 1.41076e-16 1.41069e-16 1.41075e-16 1.41079e-16 1.41079e-16 1.41078e-16 1.41072e-16 1.41077e-16 1.41078e-16
          1.4107e-16 1.41074e-16 1.41066e-16 1.41061e-16 1.41056e-16 1.41063e-16 1.4106e-16 1.41054e-16 1.4103e-16 1.41023e-16 1.54468e-16 2.94334e-14
          6.88337e-11 1.0737e-10 1.84408e-10 3.64038e-10 1.83701e-15 1.78886e-15
        </DataArray>
        <DataArray type="Float32" Name="X^w_nanoAu" NumberOfComponents="1" format="ascii">
          5.38394e-19 5.38578e-19 5.38488e-19 5.38535e-19 5.3851e-19 5.38533e-19 5.38548e-19 5.38546e-19 5.38545e-19 5.38522e-19 5.3854e-19 5.38545e-19
          5.38517e-19 5.38534e-19 5.38503e-19 5.38488e-19 5.38474e-19 5.38505e-19 5.38499e-19 5.38527e-19 5.42135e-19 8.83487e-19 3.2505e-17 2.95706e-15
          2.63629e-13 3.35109e-13 4.46644e-13 6.26612e-13 2.06093e-18 1.98565e-18
        </DataArray>
        <DataArray type="Float32" Name="X^w_cyanide" NumberOfComponents="1" format="ascii">
          5.07027e-06 5.07027e-06 5.07027e-06 5.07027e-06 5.07027e-06 5.07027e-06 5.07027e-06 5.07026e-06 5.07026e-06 5.07025e-06 5.07024e-06 5.07023e-06
          5.07021e-06 5.07019e-06 5.07015e-06 5.07011e-06 5.07004e-06 5.06995e-06 5.06983e-06 5.06967e-06 5.06943e-06 5.0691e-06 5.0686e-06 5.06786e-06
          5.06717e-06 6.43686e-06 8.57268e-06 1.22387e-05 1.94656e-05 1.92457e-05
        </DataArray>
        <DataArray type="Float32" Name="X^w_citrate" NumberOfComponents="1" format="ascii">
          0.000141796 0.000141796 0.000141796 0.000141796 0.000141796 0.000141796 0.000141796 0.000141796 0.000141796 0.000141796 0.000141796 0.000141796
          0.000141795 0.000141795 0.000141795 0.000141795 0.000141794 0.000141794 0.000141793 0.000141791 0.00014179 0.000141787 0.000141784 0.000141778
          0.00014177 0.000141756 0.00014173 0.000141668 0.000141466 0.000139868
        </DataArray>
        <DataArray type="Float32" Name="X^w_substrate" NumberOfComponents="1" format="ascii">
          1.27248e-11 1.69777e-11 2.26506e-11 3.02179e-11 4.0312e-11 5.37775e-11 7.17423e-11 9.57138e-11 1.27709e-10 1.70431e-10 2.2751e-10 3.03834e-10
          4.0601e-10 5.43016e-10 7.2713e-10 9.75289e-10 1.31112e-09 1.76807e-09 2.39433e-09 3.26096e-09 4.47589e-09 6.20914e-09 8.74151e-09 1.25659e-08
          1.86199e-08 2.88944e-08 4.83363e-08 9.25765e-08 2.3654e-07 1.36365e-06
        </DataArray>
        <DataArray type="Float32" Name="m^w_H2O" NumberOfComponents="1" format="ascii">
          55492.6 55492.6 55492.5 55492.5 55492.5 55492.5 55492.5 55492.5 55492.5 55492.5 55492.5 55492.5
          55492.5 55492.4 55492.4 55492.4 55492.4 55492.4 55492.4 55492.4 55492.4 55492.4 55492.4 55492.4
          55492.3 55492.3 55492.1 55491.9 55491.5 55491.5
        </DataArray>
        <DataArray type="Float32" Name="m^w_Air" NumberOfComponents="1" format="ascii">
          0 0 0 0 0 0 0 0 0 0 0 0
          0 0 0 0 0 0 0 0 0 0 0 0
          0 0 0 0 0 0
        </DataArray>
        <DataArray type="Float32" Name="m^w_AuComplex" NumberOfComponents="1" format="ascii">
          7.15936e-13 7.16184e-13 7.16063e-13 7.16126e-13 7.16092e-13 7.16123e-13 7.16143e-13 7.1614e-13 7.16138e-13 7.16107e-13 7.16129e-13 7.16136e-13
          7.16097e-13 7.16118e-13 7.16074e-13 7.16049e-13 7.16025e-13 7.1606e-13 7.16042e-13 7.16013e-13 7.1589e-13 7.15857e-13 7.84107e-13 1.49409e-10
          3.49411e-07 5.45029e-07 9.36084e-07 1.84791e-06 9.32493e-12 9.08055e-12
        </DataArray>
        <DataArray type="Float32" Name="m^w_nanoAu" NumberOfComponents="1" format="ascii">
          2.73299e-15 2.73392e-15 2.73346e-15 2.7337e-15 2.73357e-15 2.73369e-15 2.73376e-15 2.73375e-15 2.73375e-15 2.73363e-15 2.73372e-15 2.73375e-15
          2.7336e-15 2.73369e-15 2.73353e-15 2.73345e-15 2.73338e-15 2.73354e-15 2.73351e-15 2.73365e-15 2.75197e-15 4.48472e-15 1.65001e-13 1.50105e-11
          1.33822e-09 1.70107e-09 2.26723e-09 3.18078e-09 1.04616e-14 1.00795e-14
        </DataArray>
        <DataArray type="Float32" Name="m^w_cyanide" NumberOfComponents="1" format="ascii">
          0.194832 0.194832 0.194832 0.194832 0.194832 0.194832 0.194832 0.194832 0.194832 0.194831 0.194831 0.19483
          0.19483 0.194829 0.194827 0.194825 0.194823 0.19482 0.194815 0.194809 0.194799 0.194786 0.194768 0.194739
          0.194713 0.247345 0.329416 0.470288 0.747991 0.73954
        </DataArray>
        <DataArray type="Float32" Name="m^w_citrate" NumberOfComponents="1" format="ascii">
          0.749742 0.749742 0.749742 0.749742 0.749742 0.749741 0.749741 0.749741 0.74974 0.74974 0.749739 0.749739
          0.749738 0.749737 0.749735 0.749733 0.749731 0.749727 0.749722 0.749716 0.749706 0.749693 0.749674 0.749645
          0.7496 0.749528 0.749388 0.749064 0.747993 0.739542
        </DataArray>
        <DataArray type="Float32" Name="m^w_substrate" NumberOfComponents="1" format="ascii">
          7.06206e-08 9.4223e-08 1.25707e-07 1.67704e-07 2.23724e-07 2.98455e-07 3.98156e-07 5.31194e-07 7.08761e-07 9.45861e-07 1.26264e-06 1.68622e-06
          2.25328e-06 3.01363e-06 4.03543e-06 5.41267e-06 7.27648e-06 9.81245e-06 1.3288e-05 1.80977e-05 2.48403e-05 3.44595e-05 4.85136e-05 6.97381e-05
          0.000103337 0.000160358 0.000268257 0.000513781 0.00131275 0.00756796
        </DataArray>
        <DataArray type="Float32" Name="process rank" NumberOfComponents="1" format="ascii">
          0 0 0 0 0 0 0 0 0 0 0 0
          0 0 0 0 0 0 0 0 0 0 0 0
          0 0 0 0 0 0
        </DataArray>
      </CellData>
      <Points>
        <DataArray type="Float32" Name="Coordinates" NumberOfComponents="3" format="ascii">
          0 0 0 0.5 0 0 0 0.0333333 0 0.5 0.0333333 0
          0 0.0666667 0 0.5 0.0666667 0 0 0.1 0 0.5 0.1 0
          0 0.133333 0 0.5 0.133333 0 0 0.166667 0 0.5 0.166667 0
          0 0.2 0 0.5 0.2 0 0 0.233333 0 0.5 0.233333 0
          0 0.266667 0 0.5 0.266667 0 0 0.3 0 0.5 0.3 0
          0 0.333333 0 0.5 0.333333 0 0 0.366667 0 0.5 0.366667 0
          0 0.4 0 0.5 0.4 0 0 0.433333 0 0.5 0.433333 0
          0 0.466667 0 0.5 0.466667 0 0 0.5 0 0.5 0.5 0
          0 0.533333 0 0.5 0.533333 0 0 0.566667 0 0.5 0.566667 0
          0 0.6 0 0.5 0.6 0 0 0.633333 0 0.5 0.633333 0
          0 0.666667 0 0.5 0.666667 0 0 0.7 0 0.5 0.7 0
          0 0.733333 0 0.5 0.733333 0 0 0.766667 0 0.5 0.766667 0
          0 0.8 0 0.5 0.8 0 0 0.833333 0 0.5 0.833333 0
          0 0.866667 0 0.5 0.866667 0 0 0.9 0 0.5 0.9 0
          0 0.933333 0 0.5 0.933333 0 0 0.966667 0 0.5 0.966667 0
          0 1 0 0.5 1 0
        </DataArray>
      </Points>
      <Cells>
        <DataArray type="Int32" Name="connectivity" NumberOfComponents="1" format="ascii">
          0 1 3 2 2 3 5 4 4 5 7 6
          6 7 9 8 8 9 11 10 10 11 13 12
          12 13 15 14 14 15 17 16 16 17 19 18
          18 19 21 20 20 21 23 22 22 23 25 24
          24 25 27 26 26 27 29 28 28 29 31 30
          30 31 33 32 32 33 35 34 34 35 37 36
          36 37 39 38 38 39 41 40 40 41 43 42
          42 43 45 44 44 45 47 46 46 47 49 48
          48 49 51 50 50 51 53 52 52 53 55 54
          54 55 57 56 56 57 59 58 58 59 61 60
        </DataArray>
        <DataArray type="Int32" Name="offsets" NumberOfComponents="1" format="ascii">
          4 8 12 16 20 24 28 32 36 40 44 48
          52 56 60 64 68 72 76 80 84 88 92 96
          100 104 108 112 116 120
        </DataArray>
        <DataArray type="UInt8" Name="types" NumberOfComponents="1" format="ascii">
          9 9 9 9 9 9 9 9 9 9 9 9
          9 9 9 9 9 9 9 9 9 9 9 9
          9 9 9 9 9 9
        </DataArray>
      </Cells>
    </Piece>
  </UnstructuredGrid>
</VTKFile>
