<?xml version="1.0"?>
<VTKFile type="UnstructuredGrid" version="0.1" byte_order="LittleEndian">
  <UnstructuredGrid>
    <Piece NumberOfCells="30" NumberOfPoints="62">
      <CellData Scalars="Sg">
        <DataArray type="Float32" Name="Sg" NumberOfComponents="1" format="ascii">
          0 0 0 0 0 0 0 0 0 0 0 0
          0 0 0 0 0 0 0 0 0 0 0 0
          0 0 0 0 0 0
        </DataArray>
        <DataArray type="Float32" Name="Sl" NumberOfComponents="1" format="ascii">
          1 1 1 1 1 1 1 1 1 1 1 1
          1 1 1 1 1 1 1 1 1 1 1 1
          1 1 1 1 1 1
        </DataArray>
        <DataArray type="Float32" Name="pg" NumberOfComponents="1" format="ascii">
          24687.8 24360.9 24034 23707 23380.1 23053.1 22726.2 22399.3 22072.3 21745.4 21418.4 21091.5
          20764.6 20437.6 20110.7 19783.7 19456.8 19129.9 18802.9 18476 18149 17822.1 17495.1 17168.2
          16841.3 16514.3 16187.4 15860.4 15533.5 15206.7
        </DataArray>
        <DataArray type="Float32" Name="pl" NumberOfComponents="1" format="ascii">
          110628 110301 109974 109647 109320 108993 108666 108339 108012 107685 107358 107031
          106704 106377 106050 105723 105396 105070 104743 104416 104089 103762 103435 103108
          102781 102454 102127 101800 101473 101146
        </DataArray>
        <DataArray type="Float32" Name="pc" NumberOfComponents="1" format="ascii">
          -85939.7 -85939.7 -85939.7 -85939.7 -85939.7 -85939.7 -85939.7 -85939.7 -85939.7 -85939.7 -85939.7 -85939.7
          -85939.7 -85939.7 -85939.7 -85939.7 -85939.7 -85939.7 -85939.7 -85939.7 -85939.7 -85939.7 -85939.7 -85939.7
          -85939.7 -85939.7 -85939.7 -85939.7 -85939.7 -85939.7
        </DataArray>
        <DataArray type="Float32" Name="rhoL" NumberOfComponents="1" format="ascii">
          999.855 999.855 999.855 999.855 999.855 999.854 999.854 999.854 999.854 999.854 999.854 999.854
          999.853 999.853 999.853 999.853 999.853 999.853 999.852 999.852 999.852 999.852 999.852 999.852
          999.852 999.851 999.851 999.851 999.851 999.851
        </DataArray>
        <DataArray type="Float32" Name="rhoG" NumberOfComponents="1" format="ascii">
          0.30585 0.3018 0.29775 0.293699 0.289649 0.285598 0.281548 0.277498 0.273447 0.269397 0.265347 0.261296
          0.257246 0.253195 0.249145 0.245095 0.241044 0.236994 0.232944 0.228893 0.224843 0.220793 0.216742 0.212692
          0.208641 0.204591 0.200541 0.19649 0.19244 0.188391
        </DataArray>
        <DataArray type="Float32" Name="mobL" NumberOfComponents="1" format="ascii">
          722.171 722.17 722.17 722.17 722.17 722.17 722.169 722.169 722.169 722.169 722.169 722.169
          722.168 722.168 722.168 722.168 722.168 722.167 722.167 722.167 722.167 722.167 722.166 722.166
          722.166 722.166 722.166 722.166 722.165 722.165
        </DataArray>
        <DataArray type="Float32" Name="mobG" NumberOfComponents="1" format="ascii">
          0 0 0 0 0 0 0 0 0 0 0 0
          0 0 0 0 0 0 0 0 0 0 0 0
          0 0 0 0 0 0
        </DataArray>
        <DataArray type="Float32" Name="porosity" NumberOfComponents="1" format="ascii">
          0.298558 0.298558 0.298558 0.298557 0.298557 0.298556 0.298556 0.298555 0.298553 0.298551 0.298548 0.298544
          0.298539 0.298532 0.298522 0.298509 0.298491 0.298466 0.298434 0.298389 0.298328 0.298243 0.298123 0.297946
          0.297402 0.296944 0.296076 0.294017 0.286237 0.130905
        </DataArray>
        <DataArray type="Float32" Name="temperature" NumberOfComponents="1" format="ascii">
          281.15 281.15 281.15 281.15 281.15 281.15 281.15 281.15 281.15 281.15 281.15 281.15
          281.15 281.15 281.15 281.15 281.15 281.15 281.15 281.15 281.15 281.15 281.15 281.15
          281.15 281.15 281.15 281.15 281.15 281.15
        </DataArray>
        <DataArray type="Float32" Name="phase presence" NumberOfComponents="1" format="ascii">
          1 1 1 1 1 1 1 1 1 1 1 1
          1 1 1 1 1 1 1 1 1 1 1 1
          1 1 1 1 1 1
        </DataArray>
        <DataArray type="Float32" Name="precipitateVolumeFraction_au" NumberOfComponents="1" format="ascii">
          5.52058e-10 5.51968e-10 5.52113e-10 5.52141e-10 5.52156e-10 5.52109e-10 5.52161e-10 5.5217e-10 5.52145e-10 5.52187e-10 5.52117e-10 5.52152e-10
          5.52124e-10 5.52118e-10 5.52094e-10 5.52149e-10 5.52082e-10 5.52126e-10 5.52119e-10 5.52111e-10 5.52087e-10 5.5213e-10 5.52189e-10 7.06532e-10
          0.000269941 0.000269924 0.000269898 0.000269851 5.51551e-10 5.50629e-10
        </DataArray>
        <DataArray type="Float32" Name="precipitateVolumeFraction_nanoAu" NumberOfComponents="1" format="ascii">
          6.86401e-13 6.72683e-13 7.38388e-13 7.50533e-13 7.53415e-13 7.41438e-13 7.51329e-13 7.51298e-13 7.4755e-13 7.50526e-13 7.44774e-13 7.46816e-13
          7.45255e-13 7.44993e-13 7.44265e-13 7.45838e-13 7.44294e-13 7.45214e-13 7.45068e-13 7.44926e-13 7.44697e-13 7.4506e-13 7.56686e-13 2.59929e-11
          5.97414e-08 7.64869e-08 1.02947e-07 1.48848e-07 1.11489e-12 1.09809e-12
        </DataArray>
        <DataArray type="Float32" Name="precipitateVolumeFraction_d" NumberOfComponents="1" format="ascii">
          0.000721042 0.000721112 0.00072121 0.000721348 0.000721542 0.000721815 0.000722197 0.00072273 0.00072347 0.000724496 0.000725911 0.000727855
          0.000730514 0.000734134 0.000739047 0.000745694 0.000754668 0.000766781 0.000783158 0.000805404 0.000835889 0.000878273 0.000938526 0.00102711
          0.00116407 0.00139314 0.00182695 0.00285634 0.00688153 0.0845475
        </DataArray>
        <DataArray type="Float32" Name="precipitateVolumeFraction_p" NumberOfComponents="1" format="ascii">
          0.000721042 0.000721112 0.00072121 0.000721348 0.000721542 0.000721815 0.000722197 0.00072273 0.00072347 0.000724496 0.000725911 0.000727855
          0.000730514 0.000734134 0.000739047 0.000745694 0.000754668 0.000766781 0.000783158 0.000805404 0.000835889 0.000878273 0.000938526 0.00102711
          0.00116407 0.00139314 0.00182695 0.00285634 0.00688153 0.0845475
        </DataArray>
        <DataArray type="Float32" Name="K" NumberOfComponents="1" format="ascii">
          9.816e-11 9.81598e-11 9.81595e-11 9.81592e-11 9.81587e-11 9.8158e-11 9.81571e-11 9.81557e-11 9.81538e-11 9.81512e-11 9.81476e-11 9.81427e-11
          9.8136e-11 9.81268e-11 9.81144e-11 9.80976e-11 9.80749e-11 9.80442e-11 9.80028e-11 9.79465e-11 9.78695e-11 9.77625e-11 9.76105e-11 9.73874e-11
          9.67051e-11 9.61334e-11 9.50585e-11 9.25471e-11 8.35413e-11 5.38971e-12
        </DataArray>
        <DataArray type="Float32" Name="X^w_H2O" NumberOfComponents="1" format="ascii">
          0.999853 0.999853 0.999853 0.999853 0.999853 0.999853 0.999853 0.999853 0.999853 0.999853 0.999853 0.999853
          0.999853 0.999853 0.999853 0.999853 0.999853 0.999853 0.999853 0.999853 0.999853 0.999853 0.999853 0.999853
          0.999853 0.999852 0.99985 0.999846 0.999839 0.99984
        </DataArray>
        <DataArray type="Float32" Name="X^w_Air" NumberOfComponents="1" format="ascii">
          2.77157e-13 4.98167e-15 8.80958e-17 1.52921e-18 2.61051e-20 4.38629e-22 7.24132e-24 1.17471e-25 1.8737e-27 2.93691e-29 4.51722e-31 6.82177e-33
          1.01228e-34 1.47329e-36 2.10428e-38 0 0 0 0 0 0 0 0 0
          0 0 0 0 0 0
        </DataArray>
        <DataArray type="Float32" Name="X^w_AuComplex" NumberOfComponents="1" format="ascii">
          6.75031e-16 6.61979e-16 7.24501e-16 7.36056e-16 7.38796e-16 7.27395e-16 7.36804e-16 7.3677e-16 7.33198e-16 7.36025e-16 7.30542e-16 7.32479e-16
          7.30983e-16 7.30722e-16 7.30016e-16 7.31499e-16 7.30007e-16 7.30859e-16 7.30687e-16 7.30508e-16 7.30229e-16 7.30491e-16 7.43312e-16 2.92203e-14
          6.74652e-11 1.06747e-10 1.87033e-10 3.80151e-10 4.40263e-15 4.26345e-15
        </DataArray>
        <DataArray type="Float32" Name="X^w_nanoAu" NumberOfComponents="1" format="ascii">
          2.99002e-18 2.93397e-18 3.21774e-18 3.27021e-18 3.28208e-18 3.23092e-18 3.27354e-18 3.27324e-18 3.25722e-18 3.26977e-18 3.24507e-18 3.2538e-18
          3.24706e-18 3.24589e-18 3.24282e-18 3.24952e-18 3.24289e-18 3.24683e-18 3.24617e-18 3.24555e-18 3.24821e-18 3.59007e-18 3.50383e-17 2.93602e-15
          2.60922e-13 3.34239e-13 4.50082e-13 6.40198e-13 4.83361e-18 4.63177e-18
        </DataArray>
        <DataArray type="Float32" Name="X^w_cyanide" NumberOfComponents="1" format="ascii">
          4.77741e-06 4.7774e-06 4.77739e-06 4.77738e-06 4.77736e-06 4.77734e-06 4.77732e-06 4.77729e-06 4.77725e-06 4.77721e-06 4.77717e-06 4.77711e-06
          4.77705e-06 4.77698e-06 4.7769e-06 4.77679e-06 4.77666e-06 4.7765e-06 4.77629e-06 4.776e-06 4.77561e-06 4.77504e-06 4.77421e-06 4.77291e-06
          4.77129e-06 6.10842e-06 8.22266e-06 1.19229e-05 1.94263e-05 1.90999e-05
        </DataArray>
        <DataArray type="Float32" Name="X^w_citrate" NumberOfComponents="1" format="ascii">
          0.000141796 0.000141796 0.000141796 0.000141796 0.000141796 0.000141796 0.000141796 0.000141796 0.000141796 0.000141796 0.000141796 0.000141796
          0.000141796 0.000141795 0.000141795 0.000141795 0.000141794 0.000141793 0.000141792 0.000141791 0.000141788 0.000141784 0.000141779 0.00014177
          0.000141755 0.00014173 0.000141679 0.00014156 0.000141181 0.000138808
        </DataArray>
        <DataArray type="Float32" Name="X^w_substrate" NumberOfComponents="1" format="ascii">
          6.03912e-12 8.44771e-12 1.18167e-11 1.65293e-11 2.31216e-11 3.23442e-11 4.52483e-11 6.33075e-11 8.85893e-11 1.23998e-10 1.73623e-10 2.43235e-10
          3.41003e-10 4.78554e-10 6.72524e-10 9.46913e-10 1.3367e-09 1.89355e-09 2.69504e-09 3.86022e-09 5.57681e-09 8.15123e-09 1.21063e-08 1.83865e-08
          2.88321e-08 4.7413e-08 8.40222e-08 1.69211e-07 4.37751e-07 2.11069e-06
        </DataArray>
        <DataArray type="Float32" Name="m^w_H2O" NumberOfComponents="1" format="ascii">
          55492.6 55492.6 55492.6 55492.5 55492.5 55492.5 55492.5 55492.5 55492.5 55492.5 55492.5 55492.5
          55492.5 55492.5 55492.5 55492.4 55492.4 55492.4 55492.4 55492.4 55492.4 55492.4 55492.4 55492.4
          55492.4 55492.3 55492.2 55491.9 55491.5 55491.6
        </DataArray>
        <DataArray type="Float32" Name="m^w_Air" NumberOfComponents="1" format="ascii">
          9.56894e-09 1.71994e-10 3.04154e-12 5.27966e-14 9.0129e-16 1.51438e-17 2.50009e-19 4.05574e-21 6.469e-23 1.01398e-24 1.55958e-26 2.35524e-28
          3.49493e-30 5.08659e-32 7.2651e-34 1.01645e-35 1.39401e-37 0 0 0 0 0 0 0
          0 0 0 0 0 0
        </DataArray>
        <DataArray type="Float32" Name="m^w_AuComplex" NumberOfComponents="1" format="ascii">
          3.42658e-12 3.36032e-12 3.6777e-12 3.73635e-12 3.75026e-12 3.69239e-12 3.74015e-12 3.73998e-12 3.72184e-12 3.73619e-12 3.70836e-12 3.71819e-12
          3.7106e-12 3.70927e-12 3.70569e-12 3.71321e-12 3.70564e-12 3.70996e-12 3.70909e-12 3.70818e-12 3.70676e-12 3.70809e-12 3.77317e-12 1.48327e-10
          3.42464e-07 5.41863e-07 9.4941e-07 1.92971e-06 2.23484e-11 2.1642e-11
        </DataArray>
        <DataArray type="Float32" Name="m^w_nanoAu" NumberOfComponents="1" format="ascii">
          1.51779e-14 1.48934e-14 1.63338e-14 1.66002e-14 1.66604e-14 1.64007e-14 1.66171e-14 1.66155e-14 1.65342e-14 1.65979e-14 1.64726e-14 1.65169e-14
          1.64826e-14 1.64767e-14 1.64611e-14 1.64951e-14 1.64615e-14 1.64815e-14 1.64781e-14 1.6475e-14 1.64885e-14 1.82238e-14 1.7786e-13 1.49037e-11
          1.32448e-09 1.69665e-09 2.28469e-09 3.24975e-09 2.45362e-14 2.35116e-14
        </DataArray>
        <DataArray type="Float32" Name="m^w_cyanide" NumberOfComponents="1" format="ascii">
          0.183579 0.183578 0.183578 0.183578 0.183577 0.183576 0.183575 0.183574 0.183572 0.183571 0.183569 0.183567
          0.183565 0.183562 0.183559 0.183555 0.18355 0.183543 0.183535 0.183524 0.183509 0.183487 0.183455 0.183405
          0.183343 0.234724 0.315966 0.458152 0.746478 0.733937
        </DataArray>
        <DataArray type="Float32" Name="m^w_citrate" NumberOfComponents="1" format="ascii">
          0.749742 0.749742 0.749742 0.749742 0.749742 0.749742 0.749741 0.749741 0.749741 0.74974 0.74974 0.749739
          0.749738 0.749737 0.749736 0.749734 0.74973 0.749726 0.74972 0.749711 0.749698 0.749679 0.749649 0.749602
          0.749523 0.749389 0.74912 0.748489 0.746485 0.73394
        </DataArray>
        <DataArray type="Float32" Name="m^w_substrate" NumberOfComponents="1" format="ascii">
          3.3516e-08 4.68832e-08 6.55807e-08 9.17348e-08 1.28321e-07 1.79504e-07 2.5112e-07 3.51345e-07 4.91654e-07 6.88167e-07 9.63576e-07 1.34991e-06
          1.8925e-06 2.65588e-06 3.73238e-06 5.25518e-06 7.41843e-06 1.05088e-05 1.49569e-05 2.14234e-05 3.09502e-05 4.52377e-05 6.71875e-05 0.000102042
          0.000160012 0.000263132 0.000466306 0.000939088 0.00242943 0.0117139
        </DataArray>
        <DataArray type="Float32" Name="process rank" NumberOfComponents="1" format="ascii">
          0 0 0 0 0 0 0 0 0 0 0 0
          0 0 0 0 0 0 0 0 0 0 0 0
          0 0 0 0 0 0
        </DataArray>
      </CellData>
      <Points>
        <DataArray type="Float32" Name="Coordinates" NumberOfComponents="3" format="ascii">
          0 0 0 0.5 0 0 0 0.0333333 0 0.5 0.0333333 0
          0 0.0666667 0 0.5 0.0666667 0 0 0.1 0 0.5 0.1 0
          0 0.133333 0 0.5 0.133333 0 0 0.166667 0 0.5 0.166667 0
          0 0.2 0 0.5 0.2 0 0 0.233333 0 0.5 0.233333 0
          0 0.266667 0 0.5 0.266667 0 0 0.3 0 0.5 0.3 0
          0 0.333333 0 0.5 0.333333 0 0 0.366667 0 0.5 0.366667 0
          0 0.4 0 0.5 0.4 0 0 0.433333 0 0.5 0.433333 0
          0 0.466667 0 0.5 0.466667 0 0 0.5 0 0.5 0.5 0
          0 0.533333 0 0.5 0.533333 0 0 0.566667 0 0.5 0.566667 0
          0 0.6 0 0.5 0.6 0 0 0.633333 0 0.5 0.633333 0
          0 0.666667 0 0.5 0.666667 0 0 0.7 0 0.5 0.7 0
          0 0.733333 0 0.5 0.733333 0 0 0.766667 0 0.5 0.766667 0
          0 0.8 0 0.5 0.8 0 0 0.833333 0 0.5 0.833333 0
          0 0.866667 0 0.5 0.866667 0 0 0.9 0 0.5 0.9 0
          0 0.933333 0 0.5 0.933333 0 0 0.966667 0 0.5 0.966667 0
          0 1 0 0.5 1 0
        </DataArray>
      </Points>
      <Cells>
        <DataArray type="Int32" Name="connectivity" NumberOfComponents="1" format="ascii">
          0 1 3 2 2 3 5 4 4 5 7 6
          6 7 9 8 8 9 11 10 10 11 13 12
          12 13 15 14 14 15 17 16 16 17 19 18
          18 19 21 20 20 21 23 22 22 23 25 24
          24 25 27 26 26 27 29 28 28 29 31 30
          30 31 33 32 32 33 35 34 34 35 37 36
          36 37 39 38 38 39 41 40 40 41 43 42
          42 43 45 44 44 45 47 46 46 47 49 48
          48 49 51 50 50 51 53 52 52 53 55 54
          54 55 57 56 56 57 59 58 58 59 61 60
        </DataArray>
        <DataArray type="Int32" Name="offsets" NumberOfComponents="1" format="ascii">
          4 8 12 16 20 24 28 32 36 40 44 48
          52 56 60 64 68 72 76 80 84 88 92 96
          100 104 108 112 116 120
        </DataArray>
        <DataArray type="UInt8" Name="types" NumberOfComponents="1" format="ascii">
          9 9 9 9 9 9 9 9 9 9 9 9
          9 9 9 9 9 9 9 9 9 9 9 9
          9 9 9 9 9 9
        </DataArray>
      </Cells>
    </Piece>
  </UnstructuredGrid>
</VTKFile>
