<?xml version="1.0"?>
<VTKFile type="UnstructuredGrid" version="0.1" byte_order="LittleEndian">
  <UnstructuredGrid>
    <Piece NumberOfCells="30" NumberOfPoints="62">
      <CellData Scalars="Sg">
        <DataArray type="Float32" Name="Sg" NumberOfComponents="1" format="ascii">
          0 0 0 0 0 0 0 0 0 0 0 0
          0 0 0 0 0 0 0 0 0 0 0 0
          0 0 0 0 0 0
        </DataArray>
        <DataArray type="Float32" Name="Sl" NumberOfComponents="1" format="ascii">
          1 1 1 1 1 1 1 1 1 1 1 1
          1 1 1 1 1 1 1 1 1 1 1 1
          1 1 1 1 1 1
        </DataArray>
        <DataArray type="Float32" Name="pg" NumberOfComponents="1" format="ascii">
          24687.8 24360.9 24034 23707 23380.1 23053.1 22726.2 22399.3 22072.3 21745.4 21418.4 21091.5
          20764.6 20437.6 20110.7 19783.7 19456.8 19129.8 18802.9 18476 18149 17822.1 17495.1 17168.2
          16841.3 16514.3 16187.4 15860.4 15533.5 15208.6
        </DataArray>
        <DataArray type="Float32" Name="pl" NumberOfComponents="1" format="ascii">
          110628 110301 109974 109647 109320 108993 108666 108339 108012 107685 107358 107031
          106704 106377 106050 105723 105396 105070 104743 104416 104089 103762 103435 103108
          102781 102454 102127 101800 101473 101148
        </DataArray>
        <DataArray type="Float32" Name="pc" NumberOfComponents="1" format="ascii">
          -85939.7 -85939.7 -85939.7 -85939.7 -85939.7 -85939.7 -85939.7 -85939.7 -85939.7 -85939.7 -85939.7 -85939.7
          -85939.7 -85939.7 -85939.7 -85939.7 -85939.7 -85939.7 -85939.7 -85939.7 -85939.7 -85939.7 -85939.7 -85939.7
          -85939.7 -85939.7 -85939.7 -85939.7 -85939.7 -85939.7
        </DataArray>
        <DataArray type="Float32" Name="rhoL" NumberOfComponents="1" format="ascii">
          999.855 999.855 999.855 999.855 999.855 999.854 999.854 999.854 999.854 999.854 999.854 999.854
          999.853 999.853 999.853 999.853 999.853 999.853 999.852 999.852 999.852 999.852 999.852 999.852
          999.852 999.851 999.851 999.851 999.851 999.851
        </DataArray>
        <DataArray type="Float32" Name="rhoG" NumberOfComponents="1" format="ascii">
          0.30585 0.3018 0.29775 0.293699 0.289649 0.285598 0.281548 0.277498 0.273447 0.269397 0.265347 0.261296
          0.257246 0.253195 0.249145 0.245095 0.241044 0.236994 0.232944 0.228893 0.224843 0.220793 0.216742 0.212692
          0.208641 0.204591 0.200541 0.19649 0.19244 0.188415
        </DataArray>
        <DataArray type="Float32" Name="mobL" NumberOfComponents="1" format="ascii">
          722.171 722.17 722.17 722.17 722.17 722.17 722.169 722.169 722.169 722.169 722.169 722.169
          722.168 722.168 722.168 722.168 722.168 722.167 722.167 722.167 722.167 722.167 722.166 722.166
          722.166 722.166 722.166 722.166 722.165 722.165
        </DataArray>
        <DataArray type="Float32" Name="mobG" NumberOfComponents="1" format="ascii">
          0 0 0 0 0 0 0 0 0 0 0 0
          0 0 0 0 0 0 0 0 0 0 0 0
          0 0 0 0 0 0
        </DataArray>
        <DataArray type="Float32" Name="porosity" NumberOfComponents="1" format="ascii">
          0.298709 0.298709 0.298709 0.298709 0.298708 0.298708 0.298707 0.298706 0.298705 0.298703 0.2987 0.298697
          0.298692 0.298685 0.298676 0.298664 0.298648 0.298626 0.298596 0.298555 0.298498 0.29842 0.298307 0.29814
          0.297609 0.297162 0.296287 0.294064 0.28413 0.0511569
        </DataArray>
        <DataArray type="Float32" Name="temperature" NumberOfComponents="1" format="ascii">
          281.15 281.15 281.15 281.15 281.15 281.15 281.15 281.15 281.15 281.15 281.15 281.15
          281.15 281.15 281.15 281.15 281.15 281.15 281.15 281.15 281.15 281.15 281.15 281.15
          281.15 281.15 281.15 281.15 281.15 281.15
        </DataArray>
        <DataArray type="Float32" Name="phase presence" NumberOfComponents="1" format="ascii">
          1 1 1 1 1 1 1 1 1 1 1 1
          1 1 1 1 1 1 1 1 1 1 1 1
          1 1 1 1 1 1
        </DataArray>
        <DataArray type="Float32" Name="precipitateVolumeFraction_au" NumberOfComponents="1" format="ascii">
          5.52623e-10 5.52519e-10 5.52729e-10 5.5277e-10 5.52788e-10 5.52728e-10 5.5279e-10 5.52799e-10 5.5277e-10 5.52815e-10 5.5274e-10 5.52777e-10
          5.52747e-10 5.52741e-10 5.52716e-10 5.52772e-10 5.52705e-10 5.52749e-10 5.52742e-10 5.52734e-10 5.5271e-10 5.52753e-10 5.52932e-10 9.66597e-10
          0.000269941 0.000269925 0.000269899 0.000269849 5.52168e-10 5.51228e-10
        </DataArray>
        <DataArray type="Float32" Name="precipitateVolumeFraction_nanoAu" NumberOfComponents="1" format="ascii">
          1.22038e-13 1.22014e-13 1.22062e-13 1.22071e-13 1.22075e-13 1.22061e-13 1.22075e-13 1.22076e-13 1.22069e-13 1.22079e-13 1.22061e-13 1.22069e-13
          1.22061e-13 1.22059e-13 1.22053e-13 1.22064e-13 1.22047e-13 1.22054e-13 1.22049e-13 1.22043e-13 1.22032e-13 1.22048e-13 1.33567e-13 2.51614e-11
          5.9573e-08 7.62937e-08 1.02764e-07 1.48859e-07 4.97751e-13 4.90319e-13
        </DataArray>
        <DataArray type="Float32" Name="precipitateVolumeFraction_d" NumberOfComponents="1" format="ascii">
          0.000645454 0.000645517 0.000645606 0.000645732 0.000645909 0.000646157 0.000646504 0.000646988 0.000647661 0.000648594 0.00064988 0.000651647
          0.000654066 0.000657361 0.000661837 0.000667898 0.000676094 0.000687174 0.00070219 0.000722646 0.000750783 0.000790096 0.000846353 0.00092982
          0.00106061 0.00128388 0.00172166 0.00283278 0.00793516 0.124422
        </DataArray>
        <DataArray type="Float32" Name="precipitateVolumeFraction_p" NumberOfComponents="1" format="ascii">
          0.000645454 0.000645517 0.000645606 0.000645732 0.000645909 0.000646157 0.000646504 0.000646988 0.000647661 0.000648594 0.00064988 0.000651647
          0.000654066 0.000657361 0.000661837 0.000667898 0.000676094 0.000687174 0.00070219 0.000722646 0.000750783 0.000790096 0.000846353 0.00092982
          0.00106061 0.00128388 0.00172166 0.00283278 0.00793516 0.124422
        </DataArray>
        <DataArray type="Float32" Name="K" NumberOfComponents="1" format="ascii">
          9.83516e-11 9.83514e-11 9.83512e-11 9.83508e-11 9.83504e-11 9.83498e-11 9.83489e-11 9.83477e-11 9.8346e-11 9.83436e-11 9.83403e-11 9.83358e-11
          9.83297e-11 9.83214e-11 9.831e-11 9.82946e-11 9.82739e-11 9.82458e-11 9.82077e-11 9.81559e-11 9.80847e-11 9.79852e-11 9.78431e-11 9.76324e-11
          9.69642e-11 9.64058e-11 9.53185e-11 9.2604e-11 8.12294e-11 2.69871e-13
        </DataArray>
        <DataArray type="Float32" Name="X^w_H2O" NumberOfComponents="1" format="ascii">
          0.999853 0.999853 0.999853 0.999853 0.999853 0.999853 0.999853 0.999853 0.999853 0.999853 0.999853 0.999853
          0.999853 0.999853 0.999853 0.999853 0.999853 0.999853 0.999853 0.999853 0.999853 0.999853 0.999853 0.999853
          0.999853 0.999852 0.99985 0.999846 0.999839 0.99984
        </DataArray>
        <DataArray type="Float32" Name="X^w_Air" NumberOfComponents="1" format="ascii">
          0 0 0 0 0 0 0 0 0 0 0 0
          0 0 0 0 0 0 0 0 0 0 0 0
          0 0 0 0 0 0
        </DataArray>
        <DataArray type="Float32" Name="X^w_AuComplex" NumberOfComponents="1" format="ascii">
          1.37704e-16 1.37677e-16 1.37731e-16 1.3774e-16 1.37744e-16 1.37728e-16 1.37743e-16 1.37745e-16 1.37736e-16 1.37747e-16 1.37727e-16 1.37735e-16
          1.37726e-16 1.37723e-16 1.37714e-16 1.37725e-16 1.37705e-16 1.37711e-16 1.37703e-16 1.37691e-16 1.37673e-16 1.37681e-16 1.50473e-16 2.8362e-14
          6.71812e-11 1.06343e-10 1.86517e-10 3.8006e-10 2.01842e-15 1.96538e-15
        </DataArray>
        <DataArray type="Float32" Name="X^w_nanoAu" NumberOfComponents="1" format="ascii">
          5.31517e-19 5.31417e-19 5.31625e-19 5.31663e-19 5.31678e-19 5.31619e-19 5.31677e-19 5.31683e-19 5.31654e-19 5.31693e-19 5.31619e-19 5.31651e-19
          5.31618e-19 5.31608e-19 5.31579e-19 5.31625e-19 5.31551e-19 5.3158e-19 5.31556e-19 5.31564e-19 5.35147e-19 8.72174e-19 3.20809e-17 2.91794e-15
          2.60211e-13 3.33453e-13 4.49436e-13 6.40693e-13 2.16137e-18 2.08223e-18
        </DataArray>
        <DataArray type="Float32" Name="X^w_cyanide" NumberOfComponents="1" format="ascii">
          4.76594e-06 4.76593e-06 4.76592e-06 4.7659e-06 4.76589e-06 4.76588e-06 4.76587e-06 4.76586e-06 4.76584e-06 4.76583e-06 4.76581e-06 4.76579e-06
          4.76576e-06 4.76573e-06 4.76569e-06 4.76564e-06 4.76557e-06 4.76548e-06 4.76536e-06 4.76519e-06 4.76495e-06 4.7646e-06 4.76409e-06 4.76329e-06
          4.76249e-06 6.09874e-06 8.21314e-06 1.19192e-05 1.94602e-05 1.92319e-05
        </DataArray>
        <DataArray type="Float32" Name="X^w_citrate" NumberOfComponents="1" format="ascii">
          0.000141796 0.000141796 0.000141796 0.000141796 0.000141796 0.000141796 0.000141796 0.000141796 0.000141796 0.000141796 0.000141796 0.000141796
          0.000141796 0.000141795 0.000141795 0.000141795 0.000141794 0.000141794 0.000141793 0.000141792 0.00014179 0.000141788 0.000141784 0.000141778
          0.000141769 0.000141754 0.000141724 0.000141655 0.000141427 0.000139767
        </DataArray>
        <DataArray type="Float32" Name="X^w_substrate" NumberOfComponents="1" format="ascii">
          7.51921e-12 1.02573e-11 1.39916e-11 1.90845e-11 2.60304e-11 3.55038e-11 4.84258e-11 6.60548e-11 9.01117e-11 1.22954e-10 1.67815e-10 2.29147e-10
          3.13093e-10 4.2818e-10 5.86311e-10 8.04243e-10 1.10581e-09 1.52541e-09 2.1135e-09 2.94583e-09 4.13932e-09 5.88103e-09 8.48426e-09 1.25059e-08
          1.90162e-08 3.03048e-08 5.20756e-08 1.02229e-07 2.64153e-07 1.43455e-06
        </DataArray>
        <DataArray type="Float32" Name="m^w_H2O" NumberOfComponents="1" format="ascii">
          55492.6 55492.6 55492.6 55492.5 55492.5 55492.5 55492.5 55492.5 55492.5 55492.5 55492.5 55492.5
          55492.5 55492.5 55492.5 55492.4 55492.4 55492.4 55492.4 55492.4 55492.4 55492.4 55492.4 55492.4
          55492.4 55492.3 55492.2 55491.9 55491.5 55491.6
        </DataArray>
        <DataArray type="Float32" Name="m^w_Air" NumberOfComponents="1" format="ascii">
          0 0 0 0 0 0 0 0 0 0 0 0
          0 0 0 0 0 0 0 0 0 0 0 0
          0 0 0 0 0 0
        </DataArray>
        <DataArray type="Float32" Name="m^w_AuComplex" NumberOfComponents="1" format="ascii">
          6.99009e-13 6.98872e-13 6.99145e-13 6.99194e-13 6.99214e-13 6.99133e-13 6.99209e-13 6.99215e-13 6.99174e-13 6.99226e-13 6.99125e-13 6.99165e-13
          6.9912e-13 6.99103e-13 6.99061e-13 6.99118e-13 6.99013e-13 6.99045e-13 6.99002e-13 6.98945e-13 6.98849e-13 6.98891e-13 7.63823e-13 1.4397e-10
          3.41022e-07 5.39813e-07 9.46792e-07 1.92925e-06 1.02458e-11 9.97657e-12
        </DataArray>
        <DataArray type="Float32" Name="m^w_nanoAu" NumberOfComponents="1" format="ascii">
          2.69807e-15 2.69757e-15 2.69862e-15 2.69882e-15 2.69889e-15 2.69859e-15 2.69889e-15 2.69892e-15 2.69877e-15 2.69897e-15 2.69859e-15 2.69875e-15
          2.69858e-15 2.69853e-15 2.69839e-15 2.69862e-15 2.69824e-15 2.69839e-15 2.69827e-15 2.69831e-15 2.7165e-15 4.4273e-15 1.62848e-13 1.48119e-11
          1.32087e-09 1.69266e-09 2.28141e-09 3.25226e-09 1.09714e-14 1.05697e-14
        </DataArray>
        <DataArray type="Float32" Name="m^w_cyanide" NumberOfComponents="1" format="ascii">
          0.183138 0.183137 0.183137 0.183137 0.183136 0.183136 0.183135 0.183135 0.183134 0.183133 0.183133 0.183132
          0.183131 0.18313 0.183128 0.183126 0.183123 0.18312 0.183115 0.183109 0.183099 0.183086 0.183066 0.183036
          0.183005 0.234352 0.3156 0.45801 0.747783 0.739009
        </DataArray>
        <DataArray type="Float32" Name="m^w_citrate" NumberOfComponents="1" format="ascii">
          0.749742 0.749742 0.749742 0.749742 0.749742 0.749741 0.749741 0.749741 0.749741 0.74974 0.74974 0.749739
          0.749739 0.749738 0.749736 0.749735 0.749732 0.749729 0.749724 0.749718 0.749709 0.749696 0.749676 0.749646
          0.749597 0.749517 0.74936 0.748991 0.747786 0.73901
        </DataArray>
        <DataArray type="Float32" Name="m^w_substrate" NumberOfComponents="1" format="ascii">
          4.17303e-08 5.6926e-08 7.76507e-08 1.05915e-07 1.44464e-07 1.97039e-07 2.68754e-07 3.66592e-07 5.00103e-07 6.82369e-07 9.31342e-07 1.27172e-06
          1.73761e-06 2.37632e-06 3.25391e-06 4.46339e-06 6.13705e-06 8.46573e-06 1.17295e-05 1.63488e-05 2.29724e-05 3.26385e-05 4.70859e-05 6.9405e-05
          0.000105536 0.000168185 0.000289009 0.000567348 0.001466 0.00796147
        </DataArray>
        <DataArray type="Float32" Name="process rank" NumberOfComponents="1" format="ascii">
          0 0 0 0 0 0 0 0 0 0 0 0
          0 0 0 0 0 0 0 0 0 0 0 0
          0 0 0 0 0 0
        </DataArray>
      </CellData>
      <Points>
        <DataArray type="Float32" Name="Coordinates" NumberOfComponents="3" format="ascii">
          0 0 0 0.5 0 0 0 0.0333333 0 0.5 0.0333333 0
          0 0.0666667 0 0.5 0.0666667 0 0 0.1 0 0.5 0.1 0
          0 0.133333 0 0.5 0.133333 0 0 0.166667 0 0.5 0.166667 0
          0 0.2 0 0.5 0.2 0 0 0.233333 0 0.5 0.233333 0
          0 0.266667 0 0.5 0.266667 0 0 0.3 0 0.5 0.3 0
          0 0.333333 0 0.5 0.333333 0 0 0.366667 0 0.5 0.366667 0
          0 0.4 0 0.5 0.4 0 0 0.433333 0 0.5 0.433333 0
          0 0.466667 0 0.5 0.466667 0 0 0.5 0 0.5 0.5 0
          0 0.533333 0 0.5 0.533333 0 0 0.566667 0 0.5 0.566667 0
          0 0.6 0 0.5 0.6 0 0 0.633333 0 0.5 0.633333 0
          0 0.666667 0 0.5 0.666667 0 0 0.7 0 0.5 0.7 0
          0 0.733333 0 0.5 0.733333 0 0 0.766667 0 0.5 0.766667 0
          0 0.8 0 0.5 0.8 0 0 0.833333 0 0.5 0.833333 0
          0 0.866667 0 0.5 0.866667 0 0 0.9 0 0.5 0.9 0
          0 0.933333 0 0.5 0.933333 0 0 0.966667 0 0.5 0.966667 0
          0 1 0 0.5 1 0
        </DataArray>
      </Points>
      <Cells>
        <DataArray type="Int32" Name="connectivity" NumberOfComponents="1" format="ascii">
          0 1 3 2 2 3 5 4 4 5 7 6
          6 7 9 8 8 9 11 10 10 11 13 12
          12 13 15 14 14 15 17 16 16 17 19 18
          18 19 21 20 20 21 23 22 22 23 25 24
          24 25 27 26 26 27 29 28 28 29 31 30
          30 31 33 32 32 33 35 34 34 35 37 36
          36 37 39 38 38 39 41 40 40 41 43 42
          42 43 45 44 44 45 47 46 46 47 49 48
          48 49 51 50 50 51 53 52 52 53 55 54
          54 55 57 56 56 57 59 58 58 59 61 60
        </DataArray>
        <DataArray type="Int32" Name="offsets" NumberOfComponents="1" format="ascii">
          4 8 12 16 20 24 28 32 36 40 44 48
          52 56 60 64 68 72 76 80 84 88 92 96
          100 104 108 112 116 120
        </DataArray>
        <DataArray type="UInt8" Name="types" NumberOfComponents="1" format="ascii">
          9 9 9 9 9 9 9 9 9 9 9 9
          9 9 9 9 9 9 9 9 9 9 9 9
          9 9 9 9 9 9
        </DataArray>
      </Cells>
    </Piece>
  </UnstructuredGrid>
</VTKFile>
