<?xml version="1.0"?>
<VTKFile type="UnstructuredGrid" version="0.1" byte_order="LittleEndian">
  <UnstructuredGrid>
    <Piece NumberOfCells="30" NumberOfPoints="62">
      <CellData Scalars="Sg">
        <DataArray type="Float32" Name="Sg" NumberOfComponents="1" format="ascii">
          0 0 0 0 0 0 0 0 0 0 0 0
          0 0 0 0 0 0 0 0 0 0 0 0
          0 0 0 0 0 0
        </DataArray>
        <DataArray type="Float32" Name="Sl" NumberOfComponents="1" format="ascii">
          1 1 1 1 1 1 1 1 1 1 1 1
          1 1 1 1 1 1 1 1 1 1 1 1
          1 1 1 1 1 1
        </DataArray>
        <DataArray type="Float32" Name="pg" NumberOfComponents="1" format="ascii">
          24687.8 24360.9 24034 23707 23380.1 23053.1 22726.2 22399.3 22072.3 21745.4 21418.4 21091.5
          20764.6 20437.6 20110.7 19783.7 19456.8 19129.8 18802.9 18476 18149 17822.1 17495.1 17168.2
          16841.3 16514.3 16187.4 15860.4 15533.5 15209.4
        </DataArray>
        <DataArray type="Float32" Name="pl" NumberOfComponents="1" format="ascii">
          110628 110301 109974 109647 109320 108993 108666 108339 108012 107685 107358 107031
          106704 106377 106050 105723 105396 105070 104743 104416 104089 103762 103435 103108
          102781 102454 102127 101800 101473 101149
        </DataArray>
        <DataArray type="Float32" Name="pc" NumberOfComponents="1" format="ascii">
          -85939.7 -85939.7 -85939.7 -85939.7 -85939.7 -85939.7 -85939.7 -85939.7 -85939.7 -85939.7 -85939.7 -85939.7
          -85939.7 -85939.7 -85939.7 -85939.7 -85939.7 -85939.7 -85939.7 -85939.7 -85939.7 -85939.7 -85939.7 -85939.7
          -85939.7 -85939.7 -85939.7 -85939.7 -85939.7 -85939.7
        </DataArray>
        <DataArray type="Float32" Name="rhoL" NumberOfComponents="1" format="ascii">
          999.855 999.855 999.855 999.855 999.855 999.854 999.854 999.854 999.854 999.854 999.854 999.854
          999.853 999.853 999.853 999.853 999.853 999.853 999.852 999.852 999.852 999.852 999.852 999.852
          999.852 999.851 999.851 999.851 999.851 999.851
        </DataArray>
        <DataArray type="Float32" Name="rhoG" NumberOfComponents="1" format="ascii">
          0.30585 0.3018 0.29775 0.293699 0.289649 0.285598 0.281548 0.277498 0.273447 0.269397 0.265347 0.261296
          0.257246 0.253195 0.249145 0.245095 0.241044 0.236994 0.232944 0.228893 0.224843 0.220793 0.216742 0.212692
          0.208641 0.204591 0.200541 0.19649 0.19244 0.188425
        </DataArray>
        <DataArray type="Float32" Name="mobL" NumberOfComponents="1" format="ascii">
          722.171 722.17 722.17 722.17 722.17 722.17 722.169 722.169 722.169 722.169 722.169 722.169
          722.168 722.168 722.168 722.168 722.168 722.167 722.167 722.167 722.167 722.167 722.166 722.166
          722.166 722.166 722.166 722.166 722.165 722.165
        </DataArray>
        <DataArray type="Float32" Name="mobG" NumberOfComponents="1" format="ascii">
          0 0 0 0 0 0 0 0 0 0 0 0
          0 0 0 0 0 0 0 0 0 0 0 0
          0 0 0 0 0 0
        </DataArray>
        <DataArray type="Float32" Name="porosity" NumberOfComponents="1" format="ascii">
          0.298789 0.298789 0.298789 0.298789 0.298789 0.298788 0.298787 0.298787 0.298785 0.298783 0.298781 0.298778
          0.298773 0.298767 0.298758 0.298747 0.298731 0.29871 0.298682 0.298643 0.298589 0.298514 0.298406 0.298246
          0.297723 0.297287 0.296421 0.294162 0.283405 0.0458503
        </DataArray>
        <DataArray type="Float32" Name="temperature" NumberOfComponents="1" format="ascii">
          281.15 281.15 281.15 281.15 281.15 281.15 281.15 281.15 281.15 281.15 281.15 281.15
          281.15 281.15 281.15 281.15 281.15 281.15 281.15 281.15 281.15 281.15 281.15 281.15
          281.15 281.15 281.15 281.15 281.15 281.15
        </DataArray>
        <DataArray type="Float32" Name="phase presence" NumberOfComponents="1" format="ascii">
          1 1 1 1 1 1 1 1 1 1 1 1
          1 1 1 1 1 1 1 1 1 1 1 1
          1 1 1 1 1 1
        </DataArray>
        <DataArray type="Float32" Name="precipitateVolumeFraction_au" NumberOfComponents="1" format="ascii">
          5.53783e-10 5.52809e-10 5.52745e-10 5.52762e-10 5.52759e-10 5.52714e-10 5.52732e-10 5.52692e-10 5.52789e-10 5.52752e-10 5.52744e-10 5.52776e-10
          5.52766e-10 5.52755e-10 5.52774e-10 5.52775e-10 5.5276e-10 5.52761e-10 5.52764e-10 5.528e-10 5.52758e-10 5.52777e-10 5.52997e-10 1.12987e-09
          0.000269941 0.000269924 0.0002699 0.000269852 5.52257e-10 5.51247e-10
        </DataArray>
        <DataArray type="Float32" Name="precipitateVolumeFraction_nanoAu" NumberOfComponents="1" format="ascii">
          1.2389e-13 1.23673e-13 1.23658e-13 1.23662e-13 1.23661e-13 1.23651e-13 1.23655e-13 1.23646e-13 1.23667e-13 1.23659e-13 1.23657e-13 1.23664e-13
          1.23661e-13 1.23658e-13 1.23661e-13 1.2366e-13 1.23655e-13 1.23653e-13 1.23651e-13 1.23655e-13 1.2364e-13 1.23652e-13 1.35578e-13 2.58064e-11
          6.03655e-08 7.66874e-08 1.02149e-07 1.45569e-07 4.74191e-13 4.67193e-13
        </DataArray>
        <DataArray type="Float32" Name="precipitateVolumeFraction_d" NumberOfComponents="1" format="ascii">
          0.000605286 0.000605346 0.000605431 0.000605551 0.000605719 0.000605955 0.000606284 0.000606744 0.000607383 0.000608268 0.000609488 0.000611164
          0.000613457 0.000616582 0.000620827 0.000626579 0.000634358 0.000644884 0.000659159 0.00067863 0.000705455 0.00074301 0.000796903 0.000877173
          0.00100366 0.00122142 0.00165453 0.00278398 0.00829751 0.127075
        </DataArray>
        <DataArray type="Float32" Name="precipitateVolumeFraction_p" NumberOfComponents="1" format="ascii">
          0.000605286 0.000605346 0.000605431 0.000605551 0.000605719 0.000605955 0.000606284 0.000606744 0.000607383 0.000608268 0.000609488 0.000611164
          0.000613457 0.000616582 0.000620827 0.000626579 0.000634358 0.000644884 0.000659159 0.00067863 0.000705455 0.00074301 0.000796903 0.000877173
          0.00100366 0.00122142 0.00165453 0.00278398 0.00829751 0.127075
        </DataArray>
        <DataArray type="Float32" Name="K" NumberOfComponents="1" format="ascii">
          9.84535e-11 9.84533e-11 9.84531e-11 9.84528e-11 9.84524e-11 9.84518e-11 9.84509e-11 9.84498e-11 9.84482e-11 9.84459e-11 9.84428e-11 9.84386e-11
          9.84327e-11 9.84248e-11 9.8414e-11 9.83994e-11 9.83797e-11 9.8353e-11 9.83168e-11 9.82674e-11 9.81995e-11 9.81044e-11 9.7968e-11 9.77652e-11
          9.71071e-11 9.65617e-11 9.54846e-11 9.27219e-11 8.04465e-11 1.92144e-13
        </DataArray>
        <DataArray type="Float32" Name="X^w_H2O" NumberOfComponents="1" format="ascii">
          0.999853 0.999853 0.999853 0.999853 0.999853 0.999853 0.999853 0.999853 0.999853 0.999853 0.999853 0.999853
          0.999853 0.999853 0.999853 0.999853 0.999853 0.999853 0.999853 0.999853 0.999853 0.999853 0.999853 0.999853
          0.999853 0.999852 0.99985 0.999846 0.999839 0.99984
        </DataArray>
        <DataArray type="Float32" Name="X^w_Air" NumberOfComponents="1" format="ascii">
          0 0 0 0 0 0 0 0 0 0 0 0
          0 0 0 0 0 0 0 0 0 0 0 0
          0 0 0 0 0 0
        </DataArray>
        <DataArray type="Float32" Name="X^w_AuComplex" NumberOfComponents="1" format="ascii">
          1.4136e-16 1.41112e-16 1.41095e-16 1.41099e-16 1.41099e-16 1.41087e-16 1.41091e-16 1.41081e-16 1.41105e-16 1.41095e-16 1.41093e-16 1.411e-16
          1.41097e-16 1.41093e-16 1.41096e-16 1.41093e-16 1.41086e-16 1.41082e-16 1.41076e-16 1.41077e-16 1.41054e-16 1.41058e-16 1.54458e-16 2.94167e-14
          6.88404e-11 1.07379e-10 1.84414e-10 3.64018e-10 1.83563e-15 1.78799e-15
        </DataArray>
        <DataArray type="Float32" Name="X^w_nanoAu" NumberOfComponents="1" format="ascii">
          5.39575e-19 5.38637e-19 5.38575e-19 5.3859e-19 5.38587e-19 5.38543e-19 5.38559e-19 5.38521e-19 5.38613e-19 5.38576e-19 5.38568e-19 5.38597e-19
          5.38584e-19 5.3857e-19 5.38583e-19 5.38577e-19 5.38555e-19 5.38543e-19 5.3853e-19 5.38581e-19 5.42195e-19 8.83619e-19 3.25074e-17 2.95721e-15
          2.63642e-13 3.35119e-13 4.46641e-13 6.26565e-13 2.05938e-18 1.98462e-18
        </DataArray>
        <DataArray type="Float32" Name="X^w_cyanide" NumberOfComponents="1" format="ascii">
          5.07067e-06 5.07067e-06 5.07067e-06 5.07067e-06 5.07067e-06 5.07067e-06 5.07066e-06 5.07066e-06 5.07065e-06 5.07065e-06 5.07064e-06 5.07062e-06
          5.0706e-06 5.07058e-06 5.07054e-06 5.0705e-06 5.07043e-06 5.07034e-06 5.07022e-06 5.07005e-06 5.0698e-06 5.06946e-06 5.06895e-06 5.06817e-06
          5.06743e-06 6.43711e-06 8.57281e-06 1.22383e-05 1.94631e-05 1.92377e-05
        </DataArray>
        <DataArray type="Float32" Name="X^w_citrate" NumberOfComponents="1" format="ascii">
          0.000141796 0.000141796 0.000141796 0.000141796 0.000141796 0.000141796 0.000141796 0.000141796 0.000141796 0.000141796 0.000141796 0.000141796
          0.000141796 0.000141795 0.000141795 0.000141795 0.000141794 0.000141794 0.000141793 0.000141791 0.00014179 0.000141787 0.000141783 0.000141778
          0.000141769 0.000141754 0.000141726 0.000141661 0.000141448 0.000139809
        </DataArray>
        <DataArray type="Float32" Name="X^w_substrate" NumberOfComponents="1" format="ascii">
          1.14155e-11 1.5319e-11 2.05562e-11 2.75824e-11 3.70091e-11 4.96567e-11 6.66276e-11 8.94033e-11 1.19978e-10 1.61037e-10 2.1621e-10 2.90409e-10
          3.90311e-10 5.25037e-10 7.07126e-10 9.53967e-10 1.28994e-09 1.7497e-09 2.38345e-09 3.2655e-09 4.50921e-09 6.29376e-09 8.91612e-09 1.2899e-08
          1.92389e-08 3.00543e-08 5.06076e-08 9.74713e-08 2.49267e-07 1.40461e-06
        </DataArray>
        <DataArray type="Float32" Name="m^w_H2O" NumberOfComponents="1" format="ascii">
          55492.6 55492.6 55492.5 55492.5 55492.5 55492.5 55492.5 55492.5 55492.5 55492.5 55492.5 55492.5
          55492.5 55492.4 55492.4 55492.4 55492.4 55492.4 55492.4 55492.4 55492.4 55492.4 55492.4 55492.4
          55492.3 55492.3 55492.1 55491.9 55491.5 55491.6
        </DataArray>
        <DataArray type="Float32" Name="m^w_Air" NumberOfComponents="1" format="ascii">
          0 0 0 0 0 0 0 0 0 0 0 0
          0 0 0 0 0 0 0 0 0 0 0 0
          0 0 0 0 0 0
        </DataArray>
        <DataArray type="Float32" Name="m^w_AuComplex" NumberOfComponents="1" format="ascii">
          7.1757e-13 7.16309e-13 7.16225e-13 7.16246e-13 7.16242e-13 7.16182e-13 7.16205e-13 7.16151e-13 7.16276e-13 7.16225e-13 7.16212e-13 7.1625e-13
          7.16231e-13 7.16211e-13 7.16225e-13 7.16214e-13 7.16178e-13 7.16155e-13 7.16127e-13 7.16129e-13 7.16012e-13 7.16031e-13 7.84056e-13 1.49324e-10
          3.49445e-07 5.45071e-07 9.36114e-07 1.84781e-06 9.31793e-12 9.07611e-12
        </DataArray>
        <DataArray type="Float32" Name="m^w_nanoAu" NumberOfComponents="1" format="ascii">
          2.73898e-15 2.73422e-15 2.7339e-15 2.73398e-15 2.73396e-15 2.73374e-15 2.73382e-15 2.73363e-15 2.7341e-15 2.73391e-15 2.73386e-15 2.73401e-15
          2.73394e-15 2.73387e-15 2.73394e-15 2.73391e-15 2.73379e-15 2.73373e-15 2.73367e-15 2.73393e-15 2.75227e-15 4.48539e-15 1.65013e-13 1.50113e-11
          1.33829e-09 1.70112e-09 2.26722e-09 3.18054e-09 1.04537e-14 1.00742e-14
        </DataArray>
        <DataArray type="Float32" Name="m^w_cyanide" NumberOfComponents="1" format="ascii">
          0.194848 0.194848 0.194848 0.194848 0.194848 0.194847 0.194847 0.194847 0.194847 0.194847 0.194846 0.194846
          0.194845 0.194844 0.194842 0.19484 0.194838 0.194835 0.19483 0.194823 0.194814 0.1948 0.194781 0.194751
          0.194722 0.247354 0.329421 0.470274 0.747895 0.739233
        </DataArray>
        <DataArray type="Float32" Name="m^w_citrate" NumberOfComponents="1" format="ascii">
          0.749742 0.749742 0.749742 0.749742 0.749742 0.749741 0.749741 0.749741 0.749741 0.74974 0.74974 0.749739
          0.749738 0.749737 0.749735 0.749733 0.749731 0.749727 0.749722 0.749716 0.749706 0.749693 0.749673 0.749643
          0.749595 0.749519 0.749371 0.749027 0.747898 0.739235
        </DataArray>
        <DataArray type="Float32" Name="m^w_substrate" NumberOfComponents="1" format="ascii">
          6.33538e-08 8.50178e-08 1.14083e-07 1.53077e-07 2.05394e-07 2.75586e-07 3.69771e-07 4.96172e-07 6.65853e-07 8.93725e-07 1.19992e-06 1.61171e-06
          2.16615e-06 2.91385e-06 3.92441e-06 5.29433e-06 7.1589e-06 9.7105e-06 1.32277e-05 1.81229e-05 2.50252e-05 3.49291e-05 4.94827e-05 7.15868e-05
          0.000106772 0.000166795 0.000280862 0.000540946 0.00138338 0.0077953
        </DataArray>
        <DataArray type="Float32" Name="process rank" NumberOfComponents="1" format="ascii">
          0 0 0 0 0 0 0 0 0 0 0 0
          0 0 0 0 0 0 0 0 0 0 0 0
          0 0 0 0 0 0
        </DataArray>
      </CellData>
      <Points>
        <DataArray type="Float32" Name="Coordinates" NumberOfComponents="3" format="ascii">
          0 0 0 0.5 0 0 0 0.0333333 0 0.5 0.0333333 0
          0 0.0666667 0 0.5 0.0666667 0 0 0.1 0 0.5 0.1 0
          0 0.133333 0 0.5 0.133333 0 0 0.166667 0 0.5 0.166667 0
          0 0.2 0 0.5 0.2 0 0 0.233333 0 0.5 0.233333 0
          0 0.266667 0 0.5 0.266667 0 0 0.3 0 0.5 0.3 0
          0 0.333333 0 0.5 0.333333 0 0 0.366667 0 0.5 0.366667 0
          0 0.4 0 0.5 0.4 0 0 0.433333 0 0.5 0.433333 0
          0 0.466667 0 0.5 0.466667 0 0 0.5 0 0.5 0.5 0
          0 0.533333 0 0.5 0.533333 0 0 0.566667 0 0.5 0.566667 0
          0 0.6 0 0.5 0.6 0 0 0.633333 0 0.5 0.633333 0
          0 0.666667 0 0.5 0.666667 0 0 0.7 0 0.5 0.7 0
          0 0.733333 0 0.5 0.733333 0 0 0.766667 0 0.5 0.766667 0
          0 0.8 0 0.5 0.8 0 0 0.833333 0 0.5 0.833333 0
          0 0.866667 0 0.5 0.866667 0 0 0.9 0 0.5 0.9 0
          0 0.933333 0 0.5 0.933333 0 0 0.966667 0 0.5 0.966667 0
          0 1 0 0.5 1 0
        </DataArray>
      </Points>
      <Cells>
        <DataArray type="Int32" Name="connectivity" NumberOfComponents="1" format="ascii">
          0 1 3 2 2 3 5 4 4 5 7 6
          6 7 9 8 8 9 11 10 10 11 13 12
          12 13 15 14 14 15 17 16 16 17 19 18
          18 19 21 20 20 21 23 22 22 23 25 24
          24 25 27 26 26 27 29 28 28 29 31 30
          30 31 33 32 32 33 35 34 34 35 37 36
          36 37 39 38 38 39 41 40 40 41 43 42
          42 43 45 44 44 45 47 46 46 47 49 48
          48 49 51 50 50 51 53 52 52 53 55 54
          54 55 57 56 56 57 59 58 58 59 61 60
        </DataArray>
        <DataArray type="Int32" Name="offsets" NumberOfComponents="1" format="ascii">
          4 8 12 16 20 24 28 32 36 40 44 48
          52 56 60 64 68 72 76 80 84 88 92 96
          100 104 108 112 116 120
        </DataArray>
        <DataArray type="UInt8" Name="types" NumberOfComponents="1" format="ascii">
          9 9 9 9 9 9 9 9 9 9 9 9
          9 9 9 9 9 9 9 9 9 9 9 9
          9 9 9 9 9 9
        </DataArray>
      </Cells>
    </Piece>
  </UnstructuredGrid>
</VTKFile>
