<?xml version="1.0"?>
<VTKFile type="UnstructuredGrid" version="0.1" byte_order="LittleEndian">
  <UnstructuredGrid>
    <Piece NumberOfCells="30" NumberOfPoints="62">
      <CellData Scalars="Sg">
        <DataArray type="Float32" Name="Sg" NumberOfComponents="1" format="ascii">
          0 0 0 0 0 0 0 0 0 0 0 0
          0 0 0 0 0 0 0 0 0 0 0 0
          0 0 0 0 0 0
        </DataArray>
        <DataArray type="Float32" Name="Sl" NumberOfComponents="1" format="ascii">
          1 1 1 1 1 1 1 1 1 1 1 1
          1 1 1 1 1 1 1 1 1 1 1 1
          1 1 1 1 1 1
        </DataArray>
        <DataArray type="Float32" Name="pg" NumberOfComponents="1" format="ascii">
          24687.8 24360.9 24034 23707 23380.1 23053.1 22726.2 22399.3 22072.3 21745.4 21418.4 21091.5
          20764.6 20437.6 20110.7 19783.7 19456.8 19129.8 18802.9 18476 18149 17822.1 17495.1 17168.2
          16841.3 16514.3 16187.4 15860.4 15533.5 15209.5
        </DataArray>
        <DataArray type="Float32" Name="pl" NumberOfComponents="1" format="ascii">
          110628 110301 109974 109647 109320 108993 108666 108339 108012 107685 107358 107031
          106704 106377 106050 105723 105396 105070 104743 104416 104089 103762 103435 103108
          102781 102454 102127 101800 101473 101149
        </DataArray>
        <DataArray type="Float32" Name="pc" NumberOfComponents="1" format="ascii">
          -85939.7 -85939.7 -85939.7 -85939.7 -85939.7 -85939.7 -85939.7 -85939.7 -85939.7 -85939.7 -85939.7 -85939.7
          -85939.7 -85939.7 -85939.7 -85939.7 -85939.7 -85939.7 -85939.7 -85939.7 -85939.7 -85939.7 -85939.7 -85939.7
          -85939.7 -85939.7 -85939.7 -85939.7 -85939.7 -85939.7
        </DataArray>
        <DataArray type="Float32" Name="rhoL" NumberOfComponents="1" format="ascii">
          999.855 999.855 999.855 999.855 999.855 999.854 999.854 999.854 999.854 999.854 999.854 999.854
          999.853 999.853 999.853 999.853 999.853 999.853 999.852 999.852 999.852 999.852 999.852 999.852
          999.852 999.851 999.851 999.851 999.851 999.851
        </DataArray>
        <DataArray type="Float32" Name="rhoG" NumberOfComponents="1" format="ascii">
          0.30585 0.3018 0.29775 0.293699 0.289649 0.285598 0.281548 0.277498 0.273447 0.269397 0.265347 0.261296
          0.257246 0.253195 0.249145 0.245095 0.241044 0.236994 0.232944 0.228893 0.224843 0.220793 0.216742 0.212692
          0.208641 0.204591 0.200541 0.19649 0.19244 0.188426
        </DataArray>
        <DataArray type="Float32" Name="mobL" NumberOfComponents="1" format="ascii">
          722.171 722.17 722.17 722.17 722.17 722.17 722.169 722.169 722.169 722.169 722.169 722.169
          722.168 722.168 722.168 722.168 722.168 722.167 722.167 722.167 722.167 722.167 722.166 722.166
          722.166 722.166 722.166 722.166 722.165 722.165
        </DataArray>
        <DataArray type="Float32" Name="mobG" NumberOfComponents="1" format="ascii">
          0 0 0 0 0 0 0 0 0 0 0 0
          0 0 0 0 0 0 0 0 0 0 0 0
          0 0 0 0 0 0
        </DataArray>
        <DataArray type="Float32" Name="porosity" NumberOfComponents="1" format="ascii">
          0.2988 0.2988 0.2988 0.2988 0.2988 0.298799 0.298798 0.298798 0.298796 0.298795 0.298792 0.298789
          0.298784 0.298778 0.29877 0.298758 0.298743 0.298722 0.298693 0.298655 0.298602 0.298527 0.29842 0.29826
          0.297738 0.297304 0.29644 0.294177 0.283312 0.0455716
        </DataArray>
        <DataArray type="Float32" Name="temperature" NumberOfComponents="1" format="ascii">
          281.15 281.15 281.15 281.15 281.15 281.15 281.15 281.15 281.15 281.15 281.15 281.15
          281.15 281.15 281.15 281.15 281.15 281.15 281.15 281.15 281.15 281.15 281.15 281.15
          281.15 281.15 281.15 281.15 281.15 281.15
        </DataArray>
        <DataArray type="Float32" Name="phase presence" NumberOfComponents="1" format="ascii">
          1 1 1 1 1 1 1 1 1 1 1 1
          1 1 1 1 1 1 1 1 1 1 1 1
          1 1 1 1 1 1
        </DataArray>
        <DataArray type="Float32" Name="precipitateVolumeFraction_au" NumberOfComponents="1" format="ascii">
          5.53782e-10 5.52814e-10 5.52786e-10 5.52728e-10 5.52731e-10 5.52773e-10 5.52721e-10 5.528e-10 5.52725e-10 5.52767e-10 5.52737e-10 5.52771e-10
          5.52792e-10 5.5272e-10 5.52738e-10 5.52707e-10 5.52727e-10 5.52682e-10 5.52668e-10 5.52774e-10 5.52725e-10 5.52721e-10 5.53035e-10 1.16444e-09
          0.00026994 0.000269924 0.000269901 0.000269856 5.52288e-10 5.51053e-10
        </DataArray>
        <DataArray type="Float32" Name="precipitateVolumeFraction_nanoAu" NumberOfComponents="1" format="ascii">
          1.25471e-13 1.25252e-13 1.25246e-13 1.25233e-13 1.25233e-13 1.25243e-13 1.25231e-13 1.25249e-13 1.25231e-13 1.25241e-13 1.25234e-13 1.25241e-13
          1.25245e-13 1.25228e-13 1.25232e-13 1.25223e-13 1.25226e-13 1.25214e-13 1.25208e-13 1.25228e-13 1.25212e-13 1.25219e-13 1.3756e-13 2.64221e-11
          6.11379e-08 7.7012e-08 1.01392e-07 1.42062e-07 4.50514e-13 4.43717e-13
        </DataArray>
        <DataArray type="Float32" Name="precipitateVolumeFraction_d" NumberOfComponents="1" format="ascii">
          0.000599768 0.000599827 0.000599912 0.000600031 0.000600198 0.000600432 0.000600759 0.000601216 0.00060185 0.000602728 0.00060394 0.000605604
          0.00060788 0.000610982 0.000615196 0.000620906 0.000628629 0.000639079 0.000653255 0.000672591 0.000699236 0.00073655 0.000790118 0.000869943
          0.00099582 0.00121278 0.00164513 0.00277662 0.00834401 0.127214
        </DataArray>
        <DataArray type="Float32" Name="precipitateVolumeFraction_p" NumberOfComponents="1" format="ascii">
          0.000599768 0.000599827 0.000599912 0.000600031 0.000600198 0.000600432 0.000600759 0.000601216 0.00060185 0.000602728 0.00060394 0.000605604
          0.00060788 0.000610982 0.000615196 0.000620906 0.000628629 0.000639079 0.000653255 0.000672591 0.000699236 0.00073655 0.000790118 0.000869943
          0.00099582 0.00121278 0.00164513 0.00277662 0.00834401 0.127214
        </DataArray>
        <DataArray type="Float32" Name="K" NumberOfComponents="1" format="ascii">
          9.84675e-11 9.84673e-11 9.84671e-11 9.84668e-11 9.84664e-11 9.84658e-11 9.8465e-11 9.84638e-11 9.84622e-11 9.846e-11 9.84569e-11 9.84527e-11
          9.84469e-11 9.8439e-11 9.84283e-11 9.84138e-11 9.83942e-11 9.83677e-11 9.83318e-11 9.82827e-11 9.82152e-11 9.81207e-11 9.79852e-11 9.77835e-11
          9.71267e-11 9.65833e-11 9.55078e-11 9.27397e-11 8.03465e-11 1.8855e-13
        </DataArray>
        <DataArray type="Float32" Name="X^w_H2O" NumberOfComponents="1" format="ascii">
          0.999853 0.999853 0.999853 0.999853 0.999853 0.999853 0.999853 0.999853 0.999853 0.999853 0.999853 0.999853
          0.999853 0.999853 0.999853 0.999853 0.999853 0.999853 0.999853 0.999853 0.999853 0.999853 0.999853 0.999853
          0.999853 0.999851 0.999849 0.999846 0.999839 0.99984
        </DataArray>
        <DataArray type="Float32" Name="X^w_Air" NumberOfComponents="1" format="ascii">
          0 0 0 0 0 0 0 0 0 0 0 0
          0 0 0 0 0 0 0 0 0 0 0 0
          0 0 0 0 0 0
        </DataArray>
        <DataArray type="Float32" Name="X^w_AuComplex" NumberOfComponents="1" format="ascii">
          1.44705e-16 1.44452e-16 1.44445e-16 1.4443e-16 1.4443e-16 1.44441e-16 1.44427e-16 1.44448e-16 1.44428e-16 1.44439e-16 1.4443e-16 1.44438e-16
          1.44443e-16 1.44423e-16 1.44426e-16 1.44415e-16 1.44417e-16 1.44401e-16 1.44391e-16 1.4441e-16 1.44386e-16 1.44385e-16 1.58408e-16 3.04438e-14
          7.04742e-11 1.08233e-10 1.81831e-10 3.47292e-10 1.66083e-15 1.61723e-15
        </DataArray>
        <DataArray type="Float32" Name="X^w_nanoAu" NumberOfComponents="1" format="ascii">
          5.46461e-19 5.45516e-19 5.45488e-19 5.45431e-19 5.45434e-19 5.45474e-19 5.45424e-19 5.455e-19 5.45426e-19 5.45465e-19 5.45435e-19 5.45467e-19
          5.45483e-19 5.4541e-19 5.45423e-19 5.45386e-19 5.45396e-19 5.45341e-19 5.45313e-19 5.45434e-19 5.49089e-19 8.94966e-19 3.29334e-17 2.99591e-15
          2.66984e-13 3.3648e-13 4.43217e-13 6.11472e-13 1.95657e-18 1.88492e-18
        </DataArray>
        <DataArray type="Float32" Name="X^w_cyanide" NumberOfComponents="1" format="ascii">
          5.4057e-06 5.4057e-06 5.4057e-06 5.40569e-06 5.40569e-06 5.40569e-06 5.40569e-06 5.40569e-06 5.40568e-06 5.40567e-06 5.40566e-06 5.40565e-06
          5.40563e-06 5.4056e-06 5.40557e-06 5.40552e-06 5.40545e-06 5.40536e-06 5.40524e-06 5.40507e-06 5.40482e-06 5.40448e-06 5.40396e-06 5.40319e-06
          5.40246e-06 6.80472e-06 8.9575e-06 1.25717e-05 1.94634e-05 1.9238e-05
        </DataArray>
        <DataArray type="Float32" Name="X^w_citrate" NumberOfComponents="1" format="ascii">
          0.000141796 0.000141796 0.000141796 0.000141796 0.000141796 0.000141796 0.000141796 0.000141796 0.000141796 0.000141796 0.000141796 0.000141796
          0.000141795 0.000141795 0.000141795 0.000141795 0.000141794 0.000141794 0.000141793 0.000141791 0.00014179 0.000141787 0.000141783 0.000141778
          0.000141769 0.000141754 0.000141727 0.000141662 0.00014145 0.000139812
        </DataArray>
        <DataArray type="Float32" Name="X^w_substrate" NumberOfComponents="1" format="ascii">
          1.21352e-11 1.62474e-11 2.17518e-11 2.91196e-11 3.89817e-11 5.21833e-11 6.98566e-11 9.35205e-11 1.25214e-10 1.67679e-10 2.24609e-10 3.00994e-10
          4.03604e-10 5.41663e-10 7.27827e-10 9.79609e-10 1.32151e-09 1.78831e-09 2.43025e-09 3.32164e-09 4.57554e-09 6.3705e-09 9.00191e-09 1.29891e-08
          1.9321e-08 3.00981e-08 5.05367e-08 9.70703e-08 2.47846e-07 1.40307e-06
        </DataArray>
        <DataArray type="Float32" Name="m^w_H2O" NumberOfComponents="1" format="ascii">
          55492.5 55492.5 55492.5 55492.5 55492.5 55492.5 55492.5 55492.5 55492.5 55492.5 55492.5 55492.4
          55492.4 55492.4 55492.4 55492.4 55492.4 55492.4 55492.4 55492.4 55492.4 55492.4 55492.3 55492.3
          55492.3 55492.2 55492.1 55491.9 55491.5 55491.6
        </DataArray>
        <DataArray type="Float32" Name="m^w_Air" NumberOfComponents="1" format="ascii">
          0 0 0 0 0 0 0 0 0 0 0 0
          0 0 0 0 0 0 0 0 0 0 0 0
          0 0 0 0 0 0
        </DataArray>
        <DataArray type="Float32" Name="m^w_AuComplex" NumberOfComponents="1" format="ascii">
          7.34549e-13 7.33265e-13 7.33227e-13 7.33151e-13 7.33154e-13 7.33208e-13 7.33139e-13 7.33243e-13 7.33142e-13 7.33195e-13 7.33152e-13 7.33194e-13
          7.33217e-13 7.33114e-13 7.33129e-13 7.33076e-13 7.33086e-13 7.33003e-13 7.32954e-13 7.33051e-13 7.32925e-13 7.32921e-13 8.04104e-13 1.54538e-10
          3.57738e-07 5.49408e-07 9.23004e-07 1.76291e-06 8.43064e-12 8.20933e-12
        </DataArray>
        <DataArray type="Float32" Name="m^w_nanoAu" NumberOfComponents="1" format="ascii">
          2.77393e-15 2.76914e-15 2.76899e-15 2.76871e-15 2.76872e-15 2.76892e-15 2.76867e-15 2.76905e-15 2.76868e-15 2.76888e-15 2.76872e-15 2.76888e-15
          2.76897e-15 2.76859e-15 2.76866e-15 2.76847e-15 2.76852e-15 2.76824e-15 2.7681e-15 2.76871e-15 2.78727e-15 4.54299e-15 1.67175e-13 1.52077e-11
          1.35525e-09 1.70803e-09 2.24984e-09 3.10393e-09 9.93187e-15 9.56817e-15
        </DataArray>
        <DataArray type="Float32" Name="m^w_cyanide" NumberOfComponents="1" format="ascii">
          0.207722 0.207721 0.207721 0.207721 0.207721 0.207721 0.207721 0.207721 0.207721 0.20772 0.20772 0.207719
          0.207719 0.207718 0.207716 0.207714 0.207712 0.207708 0.207703 0.207697 0.207687 0.207674 0.207654 0.207624
          0.207596 0.26148 0.344203 0.483083 0.747906 0.739245
        </DataArray>
        <DataArray type="Float32" Name="m^w_citrate" NumberOfComponents="1" format="ascii">
          0.749742 0.749742 0.749742 0.749742 0.749742 0.749741 0.749741 0.749741 0.749741 0.74974 0.74974 0.749739
          0.749738 0.749737 0.749735 0.749733 0.749731 0.749727 0.749722 0.749715 0.749706 0.749692 0.749672 0.749642
          0.749595 0.749519 0.749372 0.74903 0.747909 0.739246
        </DataArray>
        <DataArray type="Float32" Name="m^w_substrate" NumberOfComponents="1" format="ascii">
          6.73481e-08 9.017e-08 1.20718e-07 1.61608e-07 2.16341e-07 2.89607e-07 3.87691e-07 5.19021e-07 6.94914e-07 9.30586e-07 1.24654e-06 1.67046e-06
          2.23992e-06 3.00612e-06 4.0393e-06 5.43664e-06 7.33413e-06 9.92476e-06 1.34874e-05 1.84344e-05 2.53933e-05 3.5355e-05 4.99588e-05 7.20868e-05
          0.000107228 0.000167038 0.000280469 0.00053872 0.00137549 0.00778676
        </DataArray>
        <DataArray type="Float32" Name="process rank" NumberOfComponents="1" format="ascii">
          0 0 0 0 0 0 0 0 0 0 0 0
          0 0 0 0 0 0 0 0 0 0 0 0
          0 0 0 0 0 0
        </DataArray>
      </CellData>
      <Points>
        <DataArray type="Float32" Name="Coordinates" NumberOfComponents="3" format="ascii">
          0 0 0 0.5 0 0 0 0.0333333 0 0.5 0.0333333 0
          0 0.0666667 0 0.5 0.0666667 0 0 0.1 0 0.5 0.1 0
          0 0.133333 0 0.5 0.133333 0 0 0.166667 0 0.5 0.166667 0
          0 0.2 0 0.5 0.2 0 0 0.233333 0 0.5 0.233333 0
          0 0.266667 0 0.5 0.266667 0 0 0.3 0 0.5 0.3 0
          0 0.333333 0 0.5 0.333333 0 0 0.366667 0 0.5 0.366667 0
          0 0.4 0 0.5 0.4 0 0 0.433333 0 0.5 0.433333 0
          0 0.466667 0 0.5 0.466667 0 0 0.5 0 0.5 0.5 0
          0 0.533333 0 0.5 0.533333 0 0 0.566667 0 0.5 0.566667 0
          0 0.6 0 0.5 0.6 0 0 0.633333 0 0.5 0.633333 0
          0 0.666667 0 0.5 0.666667 0 0 0.7 0 0.5 0.7 0
          0 0.733333 0 0.5 0.733333 0 0 0.766667 0 0.5 0.766667 0
          0 0.8 0 0.5 0.8 0 0 0.833333 0 0.5 0.833333 0
          0 0.866667 0 0.5 0.866667 0 0 0.9 0 0.5 0.9 0
          0 0.933333 0 0.5 0.933333 0 0 0.966667 0 0.5 0.966667 0
          0 1 0 0.5 1 0
        </DataArray>
      </Points>
      <Cells>
        <DataArray type="Int32" Name="connectivity" NumberOfComponents="1" format="ascii">
          0 1 3 2 2 3 5 4 4 5 7 6
          6 7 9 8 8 9 11 10 10 11 13 12
          12 13 15 14 14 15 17 16 16 17 19 18
          18 19 21 20 20 21 23 22 22 23 25 24
          24 25 27 26 26 27 29 28 28 29 31 30
          30 31 33 32 32 33 35 34 34 35 37 36
          36 37 39 38 38 39 41 40 40 41 43 42
          42 43 45 44 44 45 47 46 46 47 49 48
          48 49 51 50 50 51 53 52 52 53 55 54
          54 55 57 56 56 57 59 58 58 59 61 60
        </DataArray>
        <DataArray type="Int32" Name="offsets" NumberOfComponents="1" format="ascii">
          4 8 12 16 20 24 28 32 36 40 44 48
          52 56 60 64 68 72 76 80 84 88 92 96
          100 104 108 112 116 120
        </DataArray>
        <DataArray type="UInt8" Name="types" NumberOfComponents="1" format="ascii">
          9 9 9 9 9 9 9 9 9 9 9 9
          9 9 9 9 9 9 9 9 9 9 9 9
          9 9 9 9 9 9
        </DataArray>
      </Cells>
    </Piece>
  </UnstructuredGrid>
</VTKFile>
