<?xml version="1.0"?>
<VTKFile type="UnstructuredGrid" version="0.1" byte_order="LittleEndian">
  <UnstructuredGrid>
    <Piece NumberOfCells="30" NumberOfPoints="62">
      <CellData Scalars="Sg">
        <DataArray type="Float32" Name="Sg" NumberOfComponents="1" format="ascii">
          0 0 0 0 0 0 0 0 0 0 0 0
          0 0 0 0 0 0 0 0 0 0 0 0
          0 0 0 0 0 0
        </DataArray>
        <DataArray type="Float32" Name="Sl" NumberOfComponents="1" format="ascii">
          1 1 1 1 1 1 1 1 1 1 1 1
          1 1 1 1 1 1 1 1 1 1 1 1
          1 1 1 1 1 1
        </DataArray>
        <DataArray type="Float32" Name="pg" NumberOfComponents="1" format="ascii">
          24687.8 24360.9 24034 23707 23380.1 23053.1 22726.2 22399.3 22072.3 21745.4 21418.4 21091.5
          20764.6 20437.6 20110.7 19783.7 19456.8 19129.8 18802.9 18476 18149 17822.1 17495.1 17168.2
          16841.3 16514.3 16187.4 15860.4 15533.5 15208.9
        </DataArray>
        <DataArray type="Float32" Name="pl" NumberOfComponents="1" format="ascii">
          110628 110301 109974 109647 109320 108993 108666 108339 108012 107685 107358 107031
          106704 106377 106050 105723 105396 105070 104743 104416 104089 103762 103435 103108
          102781 102454 102127 101800 101473 101149
        </DataArray>
        <DataArray type="Float32" Name="pc" NumberOfComponents="1" format="ascii">
          -85939.7 -85939.7 -85939.7 -85939.7 -85939.7 -85939.7 -85939.7 -85939.7 -85939.7 -85939.7 -85939.7 -85939.7
          -85939.7 -85939.7 -85939.7 -85939.7 -85939.7 -85939.7 -85939.7 -85939.7 -85939.7 -85939.7 -85939.7 -85939.7
          -85939.7 -85939.7 -85939.7 -85939.7 -85939.7 -85939.7
        </DataArray>
        <DataArray type="Float32" Name="rhoL" NumberOfComponents="1" format="ascii">
          999.855 999.855 999.855 999.855 999.855 999.854 999.854 999.854 999.854 999.854 999.854 999.854
          999.853 999.853 999.853 999.853 999.853 999.853 999.852 999.852 999.852 999.852 999.852 999.852
          999.852 999.851 999.851 999.851 999.851 999.851
        </DataArray>
        <DataArray type="Float32" Name="rhoG" NumberOfComponents="1" format="ascii">
          0.30585 0.3018 0.29775 0.293699 0.289649 0.285598 0.281548 0.277498 0.273447 0.269397 0.265347 0.261296
          0.257246 0.253195 0.249145 0.245095 0.241044 0.236994 0.232944 0.228893 0.224843 0.220793 0.216742 0.212692
          0.208641 0.204591 0.200541 0.19649 0.19244 0.188419
        </DataArray>
        <DataArray type="Float32" Name="mobL" NumberOfComponents="1" format="ascii">
          722.171 722.17 722.17 722.17 722.17 722.17 722.169 722.169 722.169 722.169 722.169 722.169
          722.168 722.168 722.168 722.168 722.168 722.167 722.167 722.167 722.167 722.167 722.166 722.166
          722.166 722.166 722.166 722.166 722.165 722.165
        </DataArray>
        <DataArray type="Float32" Name="mobG" NumberOfComponents="1" format="ascii">
          0 0 0 0 0 0 0 0 0 0 0 0
          0 0 0 0 0 0 0 0 0 0 0 0
          0 0 0 0 0 0
        </DataArray>
        <DataArray type="Float32" Name="porosity" NumberOfComponents="1" format="ascii">
          0.298733 0.298732 0.298732 0.298732 0.298732 0.298731 0.298731 0.29873 0.298728 0.298726 0.298724 0.29872
          0.298716 0.298709 0.2987 0.298688 0.298672 0.29865 0.298621 0.29858 0.298525 0.298447 0.298336 0.298171
          0.297642 0.297199 0.296325 0.294091 0.283907 0.0487354
        </DataArray>
        <DataArray type="Float32" Name="temperature" NumberOfComponents="1" format="ascii">
          281.15 281.15 281.15 281.15 281.15 281.15 281.15 281.15 281.15 281.15 281.15 281.15
          281.15 281.15 281.15 281.15 281.15 281.15 281.15 281.15 281.15 281.15 281.15 281.15
          281.15 281.15 281.15 281.15 281.15 281.15
        </DataArray>
        <DataArray type="Float32" Name="phase presence" NumberOfComponents="1" format="ascii">
          1 1 1 1 1 1 1 1 1 1 1 1
          1 1 1 1 1 1 1 1 1 1 1 1
          1 1 1 1 1 1
        </DataArray>
        <DataArray type="Float32" Name="precipitateVolumeFraction_au" NumberOfComponents="1" format="ascii">
          5.53782e-10 5.52814e-10 5.52786e-10 5.52728e-10 5.52731e-10 5.52772e-10 5.52721e-10 5.528e-10 5.52725e-10 5.52767e-10 5.52737e-10 5.52771e-10
          5.52792e-10 5.5272e-10 5.52738e-10 5.52707e-10 5.52727e-10 5.52682e-10 5.52668e-10 5.52774e-10 5.52725e-10 5.52721e-10 5.52971e-10 1.02881e-09
          0.00026994 0.000269924 0.0002699 0.000269856 5.52288e-10 5.51056e-10
        </DataArray>
        <DataArray type="Float32" Name="precipitateVolumeFraction_nanoAu" NumberOfComponents="1" format="ascii">
          1.25497e-13 1.25275e-13 1.25268e-13 1.25255e-13 1.25255e-13 1.25264e-13 1.25252e-13 1.2527e-13 1.25253e-13 1.25262e-13 1.25254e-13 1.25262e-13
          1.25266e-13 1.25249e-13 1.25252e-13 1.25244e-13 1.25247e-13 1.25234e-13 1.25228e-13 1.25248e-13 1.25232e-13 1.2524e-13 1.37562e-13 2.64023e-11
          6.11455e-08 7.70201e-08 1.01399e-07 1.42064e-07 4.50462e-13 4.43615e-13
        </DataArray>
        <DataArray type="Float32" Name="precipitateVolumeFraction_d" NumberOfComponents="1" format="ascii">
          0.000633697 0.000633759 0.000633847 0.000633971 0.000634145 0.000634389 0.000634731 0.000635208 0.000635871 0.000636789 0.000638056 0.000639796
          0.000642177 0.000645422 0.00064983 0.000655799 0.000663872 0.000674789 0.000689587 0.000709753 0.000737506 0.000776304 0.000831872 0.000914413
          0.00104397 0.00126569 0.0017023 0.00281953 0.00804647 0.125632
        </DataArray>
        <DataArray type="Float32" Name="precipitateVolumeFraction_p" NumberOfComponents="1" format="ascii">
          0.000633697 0.000633759 0.000633847 0.000633971 0.000634145 0.000634389 0.000634731 0.000635208 0.000635871 0.000636789 0.000638056 0.000639796
          0.000642177 0.000645422 0.00064983 0.000655799 0.000663872 0.000674789 0.000689587 0.000709753 0.000737506 0.000776304 0.000831872 0.000914413
          0.00104397 0.00126569 0.0017023 0.00281953 0.00804647 0.125632
        </DataArray>
        <DataArray type="Float32" Name="K" NumberOfComponents="1" format="ascii">
          9.83814e-11 9.83812e-11 9.8381e-11 9.83807e-11 9.83802e-11 9.83796e-11 9.83788e-11 9.83775e-11 9.83759e-11 9.83735e-11 9.83703e-11 9.83659e-11
          9.83599e-11 9.83516e-11 9.83405e-11 9.83253e-11 9.83048e-11 9.82772e-11 9.82397e-11 9.81886e-11 9.81183e-11 9.80201e-11 9.78796e-11 9.76713e-11
          9.70059e-11 9.64512e-11 9.53664e-11 9.2636e-11 8.09883e-11 2.32147e-13
        </DataArray>
        <DataArray type="Float32" Name="X^w_H2O" NumberOfComponents="1" format="ascii">
          0.999853 0.999853 0.999853 0.999853 0.999853 0.999853 0.999853 0.999853 0.999853 0.999853 0.999853 0.999853
          0.999853 0.999853 0.999853 0.999853 0.999853 0.999853 0.999853 0.999853 0.999853 0.999853 0.999853 0.999853
          0.999853 0.999851 0.999849 0.999846 0.999839 0.99984
        </DataArray>
        <DataArray type="Float32" Name="X^w_Air" NumberOfComponents="1" format="ascii">
          0 0 0 0 0 0 0 0 0 0 0 0
          0 0 0 0 0 0 0 0 0 0 0 0
          0 0 0 0 0 0
        </DataArray>
        <DataArray type="Float32" Name="X^w_AuComplex" NumberOfComponents="1" format="ascii">
          1.44746e-16 1.4449e-16 1.44482e-16 1.44467e-16 1.44467e-16 1.44477e-16 1.44463e-16 1.44484e-16 1.44463e-16 1.44474e-16 1.44465e-16 1.44473e-16
          1.44477e-16 1.44457e-16 1.4446e-16 1.44449e-16 1.44451e-16 1.44435e-16 1.44425e-16 1.44445e-16 1.4442e-16 1.44419e-16 1.58422e-16 3.04232e-14
          7.04884e-11 1.08252e-10 1.81854e-10 3.47298e-10 1.66047e-15 1.6166e-15
        </DataArray>
        <DataArray type="Float32" Name="X^w_nanoAu" NumberOfComponents="1" format="ascii">
          5.46571e-19 5.45614e-19 5.45585e-19 5.45527e-19 5.4553e-19 5.45568e-19 5.45517e-19 5.45593e-19 5.45518e-19 5.45557e-19 5.45526e-19 5.45557e-19
          5.45573e-19 5.45499e-19 5.45512e-19 5.45476e-19 5.45486e-19 5.4543e-19 5.45402e-19 5.45524e-19 5.49181e-19 8.95209e-19 3.29438e-17 2.99653e-15
          2.67018e-13 3.36516e-13 4.43245e-13 6.11459e-13 1.95613e-18 1.88415e-18
        </DataArray>
        <DataArray type="Float32" Name="X^w_cyanide" NumberOfComponents="1" format="ascii">
          5.4063e-06 5.40629e-06 5.40629e-06 5.40628e-06 5.40627e-06 5.40627e-06 5.40626e-06 5.40625e-06 5.40624e-06 5.40622e-06 5.40621e-06 5.40619e-06
          5.40617e-06 5.40614e-06 5.40611e-06 5.40606e-06 5.40599e-06 5.4059e-06 5.40578e-06 5.40561e-06 5.40537e-06 5.40503e-06 5.40452e-06 5.40373e-06
          5.40299e-06 6.8053e-06 8.95802e-06 1.25718e-05 1.94613e-05 1.92346e-05
        </DataArray>
        <DataArray type="Float32" Name="X^w_citrate" NumberOfComponents="1" format="ascii">
          0.000141796 0.000141796 0.000141796 0.000141796 0.000141796 0.000141796 0.000141796 0.000141796 0.000141796 0.000141796 0.000141796 0.000141796
          0.000141796 0.000141795 0.000141795 0.000141795 0.000141794 0.000141794 0.000141793 0.000141792 0.00014179 0.000141788 0.000141784 0.000141778
          0.000141769 0.000141754 0.000141725 0.000141657 0.000141435 0.000139787
        </DataArray>
        <DataArray type="Float32" Name="X^w_substrate" NumberOfComponents="1" format="ascii">
          8.43986e-12 1.1459e-11 1.55571e-11 2.112e-11 2.8671e-11 3.89211e-11 5.28367e-11 7.17317e-11 9.73945e-11 1.32263e-10 1.79669e-10 2.44172e-10
          3.32042e-10 4.51939e-10 6.15897e-10 8.40785e-10 1.1505e-09 1.57937e-09 2.17758e-09 3.02014e-09 4.22244e-09 5.96845e-09 8.56532e-09 1.25574e-08
          1.89885e-08 3.00874e-08 5.14016e-08 1.0036e-07 2.58612e-07 1.42073e-06
        </DataArray>
        <DataArray type="Float32" Name="m^w_H2O" NumberOfComponents="1" format="ascii">
          55492.5 55492.5 55492.5 55492.5 55492.5 55492.5 55492.5 55492.5 55492.5 55492.5 55492.5 55492.4
          55492.4 55492.4 55492.4 55492.4 55492.4 55492.4 55492.4 55492.4 55492.4 55492.4 55492.3 55492.3
          55492.3 55492.2 55492.1 55491.9 55491.5 55491.6
        </DataArray>
        <DataArray type="Float32" Name="m^w_Air" NumberOfComponents="1" format="ascii">
          0 0 0 0 0 0 0 0 0 0 0 0
          0 0 0 0 0 0 0 0 0 0 0 0
          0 0 0 0 0 0
        </DataArray>
        <DataArray type="Float32" Name="m^w_AuComplex" NumberOfComponents="1" format="ascii">
          7.34756e-13 7.33458e-13 7.33418e-13 7.33339e-13 7.33341e-13 7.33393e-13 7.33322e-13 7.33425e-13 7.33322e-13 7.33373e-13 7.33329e-13 7.3337e-13
          7.33392e-13 7.33288e-13 7.33303e-13 7.33249e-13 7.33258e-13 7.33176e-13 7.33127e-13 7.33225e-13 7.331e-13 7.33096e-13 8.04177e-13 1.54433e-10
          3.5781e-07 5.49505e-07 9.23118e-07 1.76294e-06 8.42881e-12 8.2061e-12
        </DataArray>
        <DataArray type="Float32" Name="m^w_nanoAu" NumberOfComponents="1" format="ascii">
          2.77449e-15 2.76964e-15 2.76949e-15 2.76919e-15 2.7692e-15 2.7694e-15 2.76914e-15 2.76952e-15 2.76914e-15 2.76934e-15 2.76918e-15 2.76934e-15
          2.76942e-15 2.76905e-15 2.76911e-15 2.76893e-15 2.76898e-15 2.76869e-15 2.76855e-15 2.76917e-15 2.78773e-15 4.54423e-15 1.67228e-13 1.52109e-11
          1.35543e-09 1.70821e-09 2.24998e-09 3.10386e-09 9.92963e-15 9.56426e-15
        </DataArray>
        <DataArray type="Float32" Name="m^w_cyanide" NumberOfComponents="1" format="ascii">
          0.207745 0.207744 0.207744 0.207744 0.207744 0.207743 0.207743 0.207742 0.207742 0.207742 0.207741 0.20774
          0.207739 0.207738 0.207737 0.207735 0.207732 0.207729 0.207724 0.207718 0.207708 0.207695 0.207676 0.207645
          0.207617 0.261502 0.344223 0.483085 0.747825 0.739113
        </DataArray>
        <DataArray type="Float32" Name="m^w_citrate" NumberOfComponents="1" format="ascii">
          0.749742 0.749742 0.749742 0.749742 0.749742 0.749742 0.749741 0.749741 0.749741 0.74974 0.74974 0.749739
          0.749739 0.749738 0.749736 0.749734 0.749732 0.749729 0.749724 0.749718 0.749708 0.749695 0.749676 0.749646
          0.749597 0.749519 0.749365 0.749006 0.747828 0.739114
        </DataArray>
        <DataArray type="Float32" Name="m^w_substrate" NumberOfComponents="1" format="ascii">
          4.68397e-08 6.35951e-08 8.63392e-08 1.17212e-07 1.59118e-07 2.16005e-07 2.93234e-07 3.98097e-07 5.40521e-07 7.34037e-07 9.97129e-07 1.35511e-06
          1.84277e-06 2.50817e-06 3.41811e-06 4.6662e-06 6.38506e-06 8.7652e-06 1.20851e-05 1.67612e-05 2.34337e-05 3.31237e-05 4.75358e-05 6.96911e-05
          0.000105383 0.000166979 0.000285268 0.000556979 0.00143525 0.00788477
        </DataArray>
        <DataArray type="Float32" Name="process rank" NumberOfComponents="1" format="ascii">
          0 0 0 0 0 0 0 0 0 0 0 0
          0 0 0 0 0 0 0 0 0 0 0 0
          0 0 0 0 0 0
        </DataArray>
      </CellData>
      <Points>
        <DataArray type="Float32" Name="Coordinates" NumberOfComponents="3" format="ascii">
          0 0 0 0.5 0 0 0 0.0333333 0 0.5 0.0333333 0
          0 0.0666667 0 0.5 0.0666667 0 0 0.1 0 0.5 0.1 0
          0 0.133333 0 0.5 0.133333 0 0 0.166667 0 0.5 0.166667 0
          0 0.2 0 0.5 0.2 0 0 0.233333 0 0.5 0.233333 0
          0 0.266667 0 0.5 0.266667 0 0 0.3 0 0.5 0.3 0
          0 0.333333 0 0.5 0.333333 0 0 0.366667 0 0.5 0.366667 0
          0 0.4 0 0.5 0.4 0 0 0.433333 0 0.5 0.433333 0
          0 0.466667 0 0.5 0.466667 0 0 0.5 0 0.5 0.5 0
          0 0.533333 0 0.5 0.533333 0 0 0.566667 0 0.5 0.566667 0
          0 0.6 0 0.5 0.6 0 0 0.633333 0 0.5 0.633333 0
          0 0.666667 0 0.5 0.666667 0 0 0.7 0 0.5 0.7 0
          0 0.733333 0 0.5 0.733333 0 0 0.766667 0 0.5 0.766667 0
          0 0.8 0 0.5 0.8 0 0 0.833333 0 0.5 0.833333 0
          0 0.866667 0 0.5 0.866667 0 0 0.9 0 0.5 0.9 0
          0 0.933333 0 0.5 0.933333 0 0 0.966667 0 0.5 0.966667 0
          0 1 0 0.5 1 0
        </DataArray>
      </Points>
      <Cells>
        <DataArray type="Int32" Name="connectivity" NumberOfComponents="1" format="ascii">
          0 1 3 2 2 3 5 4 4 5 7 6
          6 7 9 8 8 9 11 10 10 11 13 12
          12 13 15 14 14 15 17 16 16 17 19 18
          18 19 21 20 20 21 23 22 22 23 25 24
          24 25 27 26 26 27 29 28 28 29 31 30
          30 31 33 32 32 33 35 34 34 35 37 36
          36 37 39 38 38 39 41 40 40 41 43 42
          42 43 45 44 44 45 47 46 46 47 49 48
          48 49 51 50 50 51 53 52 52 53 55 54
          54 55 57 56 56 57 59 58 58 59 61 60
        </DataArray>
        <DataArray type="Int32" Name="offsets" NumberOfComponents="1" format="ascii">
          4 8 12 16 20 24 28 32 36 40 44 48
          52 56 60 64 68 72 76 80 84 88 92 96
          100 104 108 112 116 120
        </DataArray>
        <DataArray type="UInt8" Name="types" NumberOfComponents="1" format="ascii">
          9 9 9 9 9 9 9 9 9 9 9 9
          9 9 9 9 9 9 9 9 9 9 9 9
          9 9 9 9 9 9
        </DataArray>
      </Cells>
    </Piece>
  </UnstructuredGrid>
</VTKFile>
