<?xml version="1.0"?>
<VTKFile type="UnstructuredGrid" version="0.1" byte_order="LittleEndian">
  <UnstructuredGrid>
    <Piece NumberOfCells="30" NumberOfPoints="62">
      <CellData Scalars="Sg">
        <DataArray type="Float32" Name="Sg" NumberOfComponents="1" format="ascii">
          0.0886223 0.0883607 0.0873201 0.0826987 0.062688 0 0 0 0 0 0 0
          0 0 0 0 0 0 0 0 0 0 0 0
          0 0 0 0 0 0
        </DataArray>
        <DataArray type="Float32" Name="Sl" NumberOfComponents="1" format="ascii">
          0.911378 0.911639 0.91268 0.917301 0.937312 1 1 1 1 1 1 1
          1 1 1 1 1 1 1 1 1 1 1 1
          1 1 1 1 1 1
        </DataArray>
        <DataArray type="Float32" Name="pg" NumberOfComponents="1" format="ascii">
          50075.1 49673.2 49048.2 47397.4 41338 23053.1 22726.2 22399.3 22072.3 21745.4 21418.4 21091.5
          20764.6 20437.6 20110.7 19783.7 19456.8 19129.9 18802.9 18476 18149 17822.1 17495.1 17168.2
          16841.3 16514.3 16187.4 15860.4 15533.5 15206.6
        </DataArray>
        <DataArray type="Float32" Name="pl" NumberOfComponents="1" format="ascii">
          110628 110301 109974 109647 109320 108993 108666 108339 108012 107685 107358 107031
          106704 106377 106050 105723 105396 105070 104743 104416 104089 103762 103435 103108
          102781 102454 102127 101800 101473 101146
        </DataArray>
        <DataArray type="Float32" Name="pc" NumberOfComponents="1" format="ascii">
          -60552.5 -60627.4 -60925.5 -62249.3 -67981.7 -85939.7 -85939.7 -85939.7 -85939.7 -85939.7 -85939.7 -85939.7
          -85939.7 -85939.7 -85939.7 -85939.7 -85939.7 -85939.7 -85939.7 -85939.7 -85939.7 -85939.7 -85939.7 -85939.7
          -85939.7 -85939.7 -85939.7 -85939.7 -85939.7 -85939.7
        </DataArray>
        <DataArray type="Float32" Name="rhoL" NumberOfComponents="1" format="ascii">
          999.855 999.855 999.855 999.855 999.855 999.854 999.854 999.854 999.854 999.854 999.854 999.854
          999.853 999.853 999.853 999.853 999.853 999.853 999.852 999.852 999.852 999.852 999.852 999.852
          999.852 999.851 999.851 999.851 999.851 999.851
        </DataArray>
        <DataArray type="Float32" Name="rhoG" NumberOfComponents="1" format="ascii">
          0.620365 0.615387 0.607643 0.587192 0.512125 0.285598 0.281548 0.277498 0.273447 0.269397 0.265347 0.261296
          0.257246 0.253195 0.249145 0.245095 0.241044 0.236994 0.232944 0.228893 0.224843 0.220793 0.216742 0.212692
          0.208641 0.204591 0.200541 0.19649 0.19244 0.18839
        </DataArray>
        <DataArray type="Float32" Name="mobL" NumberOfComponents="1" format="ascii">
          722.171 722.17 722.17 722.17 722.17 722.17 722.169 722.169 722.169 722.169 722.169 722.169
          722.168 722.168 722.168 722.168 722.168 722.167 722.167 722.167 722.167 722.167 722.166 722.166
          722.166 722.166 722.166 722.166 722.165 722.165
        </DataArray>
        <DataArray type="Float32" Name="mobG" NumberOfComponents="1" format="ascii">
          0 0 0 0 0 0 0 0 0 0 0 0
          0 0 0 0 0 0 0 0 0 0 0 0
          0 0 0 0 0 0
        </DataArray>
        <DataArray type="Float32" Name="porosity" NumberOfComponents="1" format="ascii">
          0.298531 0.298531 0.298531 0.29853 0.29853 0.298529 0.298529 0.298528 0.298526 0.298524 0.298521 0.298517
          0.298512 0.298504 0.298494 0.298481 0.298463 0.298438 0.298405 0.29836 0.298298 0.298213 0.298092 0.297914
          0.29737 0.296915 0.296063 0.294083 0.287009 0.168682
        </DataArray>
        <DataArray type="Float32" Name="temperature" NumberOfComponents="1" format="ascii">
          281.15 281.15 281.15 281.15 281.15 281.15 281.15 281.15 281.15 281.15 281.15 281.15
          281.15 281.15 281.15 281.15 281.15 281.15 281.15 281.15 281.15 281.15 281.15 281.15
          281.15 281.15 281.15 281.15 281.15 281.15
        </DataArray>
        <DataArray type="Float32" Name="phase presence" NumberOfComponents="1" format="ascii">
          3 3 3 3 3 1 1 1 1 1 1 1
          1 1 1 1 1 1 1 1 1 1 1 1
          1 1 1 1 1 1
        </DataArray>
        <DataArray type="Float32" Name="precipitateVolumeFraction_au" NumberOfComponents="1" format="ascii">
          5.49268e-10 5.49264e-10 5.49264e-10 5.49264e-10 5.49265e-10 5.49264e-10 5.49261e-10 5.49283e-10 5.49254e-10 5.49276e-10 5.49257e-10 5.49281e-10
          5.49297e-10 5.49243e-10 5.49257e-10 5.49231e-10 5.49247e-10 5.49206e-10 5.49192e-10 5.49291e-10 5.49245e-10 5.4924e-10 5.49319e-10 6.61975e-10
          0.000269939 0.000269923 0.000269899 0.000269858 5.48827e-10 5.47637e-10
        </DataArray>
        <DataArray type="Float32" Name="precipitateVolumeFraction_nanoAu" NumberOfComponents="1" format="ascii">
          3.61175e-12 3.6113e-12 3.61081e-12 3.61052e-12 3.61059e-12 3.63318e-12 3.58542e-12 3.64313e-12 3.59614e-12 3.61576e-12 3.60511e-12 3.61616e-12
          3.61985e-12 3.60231e-12 3.60616e-12 3.60191e-12 3.60506e-12 3.60089e-12 3.60075e-12 3.60858e-12 3.60547e-12 3.60523e-12 3.61905e-12 3.03991e-11
          6.15981e-08 7.7514e-08 1.01773e-07 1.41677e-07 3.91211e-12 3.87538e-12
        </DataArray>
        <DataArray type="Float32" Name="precipitateVolumeFraction_d" NumberOfComponents="1" format="ascii">
          0.000734532 0.000734602 0.000734702 0.000734842 0.000735039 0.000735316 0.000735704 0.000736244 0.000736996 0.000738038 0.000739474 0.000741447
          0.000744144 0.000747816 0.000752798 0.000759536 0.000768631 0.000780898 0.000797472 0.000819967 0.000850759 0.000893504 0.00095415 0.00104306
          0.00117997 0.00140749 0.00183369 0.00282357 0.0064953 0.0656589
        </DataArray>
        <DataArray type="Float32" Name="precipitateVolumeFraction_p" NumberOfComponents="1" format="ascii">
          0.000734532 0.000734602 0.000734702 0.000734842 0.000735039 0.000735316 0.000735704 0.000736244 0.000736996 0.000738038 0.000739474 0.000741447
          0.000744144 0.000747816 0.000752798 0.000759536 0.000768631 0.000780898 0.000797472 0.000819967 0.000850759 0.000893504 0.00095415 0.00104306
          0.00117997 0.00140749 0.00183369 0.00282357 0.0064953 0.0656589
        </DataArray>
        <DataArray type="Float32" Name="K" NumberOfComponents="1" format="ascii">
          9.81258e-11 9.81256e-11 9.81254e-11 9.8125e-11 9.81245e-11 9.81238e-11 9.81229e-11 9.81215e-11 9.81196e-11 9.81169e-11 9.81133e-11 9.81083e-11
          9.81015e-11 9.80922e-11 9.80796e-11 9.80625e-11 9.80395e-11 9.80085e-11 9.79666e-11 9.79097e-11 9.78319e-11 9.7724e-11 9.75711e-11 9.73473e-11
          9.66653e-11 9.60977e-11 9.50419e-11 9.26262e-11 8.44021e-11 1.26039e-11
        </DataArray>
        <DataArray type="Float32" Name="X^w_H2O" NumberOfComponents="1" format="ascii">
          0.999838 0.999838 0.999838 0.999838 0.99984 0.999847 0.999853 0.999853 0.999853 0.999853 0.999853 0.999853
          0.999853 0.999853 0.999853 0.999853 0.999853 0.999853 0.999853 0.999853 0.999853 0.999853 0.999853 0.999853
          0.999853 0.999851 0.999849 0.999846 0.999839 0.99984
        </DataArray>
        <DataArray type="Float32" Name="X^w_Air" NumberOfComponents="1" format="ascii">
          1.51894e-05 1.50648e-05 1.4871e-05 1.43594e-05 1.24811e-05 5.74952e-06 9.58969e-08 1.57069e-09 2.52935e-11 4.00674e-13 6.22625e-15 9.49066e-17
          1.42343e-18 2.09249e-20 3.02292e-22 4.27612e-24 5.93292e-26 8.07517e-28 1.0749e-29 1.39774e-31 1.77232e-33 2.18134e-35 2.57898e-37 0
          0 0 0 0 0 0
        </DataArray>
        <DataArray type="Float32" Name="X^w_AuComplex" NumberOfComponents="1" format="ascii">
          2.42039e-15 4.06086e-15 3.52838e-15 4.23706e-15 4.53193e-15 3.67207e-15 3.52347e-15 3.57985e-15 3.53401e-15 3.5532e-15 3.54284e-15 3.55368e-15
          3.55732e-15 3.54022e-15 3.544e-15 3.53986e-15 3.54294e-15 3.53882e-15 3.5386e-15 3.5461e-15 3.54282e-15 3.54219e-15 3.5571e-15 3.44166e-14
          7.106e-11 1.09078e-10 1.82804e-10 3.46699e-10 1.37536e-14 1.33309e-14
        </DataArray>
        <DataArray type="Float32" Name="X^w_nanoAu" NumberOfComponents="1" format="ascii">
          -7.01895e-18 4.19748e-16 1.10098e-15 5.95944e-16 8.90815e-16 1.59879e-14 1.56253e-17 1.58718e-17 1.56703e-17 1.57543e-17 1.57089e-17 1.57567e-17
          1.57718e-17 1.56963e-17 1.57127e-17 1.56944e-17 1.57077e-17 1.56896e-17 1.56892e-17 1.57226e-17 1.57126e-17 1.60632e-17 4.85721e-17 3.04422e-15
          2.68939e-13 3.38546e-13 4.44555e-13 6.08975e-13 1.69375e-17 1.6247e-17
        </DataArray>
        <DataArray type="Float32" Name="X^w_cyanide" NumberOfComponents="1" format="ascii">
          5.41857e-06 5.41853e-06 5.41852e-06 5.41853e-06 5.41856e-06 5.41862e-06 5.41869e-06 5.41873e-06 5.41879e-06 5.41885e-06 5.41891e-06 5.41897e-06
          5.41903e-06 5.41908e-06 5.41912e-06 5.41913e-06 5.41912e-06 5.41906e-06 5.41894e-06 5.41871e-06 5.41834e-06 5.41774e-06 5.41676e-06 5.41516e-06
          5.41297e-06 6.81909e-06 8.97509e-06 1.25818e-05 1.93959e-05 1.89813e-05
        </DataArray>
        <DataArray type="Float32" Name="X^w_citrate" NumberOfComponents="1" format="ascii">
          0.000141794 0.000141794 0.000141794 0.000141794 0.000141794 0.000141795 0.000141796 0.000141796 0.000141796 0.000141796 0.000141796 0.000141796
          0.000141795 0.000141795 0.000141795 0.000141794 0.000141794 0.000141792 0.000141791 0.000141789 0.000141785 0.00014178 0.000141773 0.000141761
          0.000141741 0.000141705 0.000141636 0.000141472 0.000140963 0.000137948
        </DataArray>
        <DataArray type="Float32" Name="X^w_substrate" NumberOfComponents="1" format="ascii">
          7.5344e-12 1.0642e-11 1.50443e-11 2.1296e-11 3.02228e-11 4.29347e-11 5.93356e-11 8.31476e-11 1.16525e-10 1.6335e-10 2.29086e-10 3.21459e-10
          4.51432e-10 6.34633e-10 8.93476e-10 1.26037e-09 1.78264e-09 2.53034e-09 3.60894e-09 5.1806e-09 7.50159e-09 1.09911e-08 1.63654e-08 2.49206e-08
          3.91823e-08 6.45946e-08 1.14673e-07 2.30777e-07 5.91385e-07 2.71731e-06
        </DataArray>
        <DataArray type="Float32" Name="m^w_H2O" NumberOfComponents="1" format="ascii">
          55491.7 55491.7 55491.7 55491.7 55491.8 55492.2 55492.5 55492.5 55492.5 55492.5 55492.4 55492.4
          55492.4 55492.4 55492.4 55492.4 55492.4 55492.4 55492.4 55492.4 55492.4 55492.4 55492.3 55492.3
          55492.3 55492.2 55492.1 55491.9 55491.5 55491.6
        </DataArray>
        <DataArray type="Float32" Name="m^w_Air" NumberOfComponents="1" format="ascii">
          0.524419 0.520118 0.513429 0.495762 0.430915 0.198504 0.00331088 5.42286e-05 8.73266e-07 1.38334e-08 2.14963e-10 3.27668e-12
          4.91444e-14 7.22438e-16 1.04367e-17 1.47634e-19 2.04836e-21 2.78798e-23 3.71113e-25 4.82574e-27 6.119e-29 7.53115e-31 8.90398e-33 9.92845e-35
          1.00503e-36 0 0 0 0 0
        </DataArray>
        <DataArray type="Float32" Name="m^w_AuComplex" NumberOfComponents="1" format="ascii">
          1.22863e-11 2.06137e-11 1.79107e-11 2.15081e-11 2.30049e-11 1.86401e-11 1.78858e-11 1.81719e-11 1.79393e-11 1.80367e-11 1.79841e-11 1.80391e-11
          1.80576e-11 1.79708e-11 1.799e-11 1.79689e-11 1.79845e-11 1.79636e-11 1.79625e-11 1.80006e-11 1.79839e-11 1.79807e-11 1.80564e-11 1.74704e-10
          3.60712e-07 5.53699e-07 9.27942e-07 1.7599e-06 6.98156e-11 6.76697e-11
        </DataArray>
        <DataArray type="Float32" Name="m^w_nanoAu" NumberOfComponents="1" format="ascii">
          -3.56294e-14 2.13072e-12 5.58875e-12 3.02512e-12 4.52193e-12 8.11576e-11 7.93167e-14 8.05683e-14 7.95449e-14 7.99716e-14 7.9741e-14 7.99836e-14
          8.00601e-14 7.96771e-14 7.97601e-14 7.96674e-14 7.97351e-14 7.96432e-14 7.9641e-14 7.98105e-14 7.97599e-14 8.15394e-14 2.4656e-13 1.54529e-11
          1.36518e-09 1.71851e-09 2.25663e-09 3.09125e-09 8.59772e-14 8.24722e-14
        </DataArray>
        <DataArray type="Float32" Name="m^w_cyanide" NumberOfComponents="1" format="ascii">
          0.208216 0.208215 0.208214 0.208215 0.208216 0.208218 0.208221 0.208222 0.208224 0.208227 0.208229 0.208231
          0.208233 0.208235 0.208237 0.208237 0.208237 0.208235 0.20823 0.208221 0.208207 0.208183 0.208146 0.208085
          0.208 0.262032 0.344879 0.483472 0.745311 0.729381
        </DataArray>
        <DataArray type="Float32" Name="m^w_citrate" NumberOfComponents="1" format="ascii">
          0.749731 0.749731 0.749731 0.749731 0.749732 0.749737 0.749741 0.749741 0.749741 0.74974 0.74974 0.749739
          0.749738 0.749736 0.749734 0.749731 0.749727 0.749722 0.749713 0.749701 0.749684 0.749658 0.749617 0.749553
          0.749446 0.74926 0.748891 0.748028 0.745333 0.729392
        </DataArray>
        <DataArray type="Float32" Name="m^w_substrate" NumberOfComponents="1" format="ascii">
          4.18145e-08 5.90613e-08 8.3493e-08 1.18189e-07 1.67731e-07 2.38279e-07 3.29301e-07 4.61454e-07 6.46691e-07 9.0656e-07 1.27138e-06 1.78404e-06
          2.50536e-06 3.52209e-06 4.95862e-06 6.99479e-06 9.89328e-06 1.40429e-05 2.00289e-05 2.87513e-05 4.16323e-05 6.09982e-05 9.08247e-05 0.000138304
          0.000217454 0.000358487 0.000636412 0.00128076 0.00328207 0.0150805
        </DataArray>
        <DataArray type="Float32" Name="process rank" NumberOfComponents="1" format="ascii">
          0 0 0 0 0 0 0 0 0 0 0 0
          0 0 0 0 0 0 0 0 0 0 0 0
          0 0 0 0 0 0
        </DataArray>
      </CellData>
      <Points>
        <DataArray type="Float32" Name="Coordinates" NumberOfComponents="3" format="ascii">
          0 0 0 0.5 0 0 0 0.0333333 0 0.5 0.0333333 0
          0 0.0666667 0 0.5 0.0666667 0 0 0.1 0 0.5 0.1 0
          0 0.133333 0 0.5 0.133333 0 0 0.166667 0 0.5 0.166667 0
          0 0.2 0 0.5 0.2 0 0 0.233333 0 0.5 0.233333 0
          0 0.266667 0 0.5 0.266667 0 0 0.3 0 0.5 0.3 0
          0 0.333333 0 0.5 0.333333 0 0 0.366667 0 0.5 0.366667 0
          0 0.4 0 0.5 0.4 0 0 0.433333 0 0.5 0.433333 0
          0 0.466667 0 0.5 0.466667 0 0 0.5 0 0.5 0.5 0
          0 0.533333 0 0.5 0.533333 0 0 0.566667 0 0.5 0.566667 0
          0 0.6 0 0.5 0.6 0 0 0.633333 0 0.5 0.633333 0
          0 0.666667 0 0.5 0.666667 0 0 0.7 0 0.5 0.7 0
          0 0.733333 0 0.5 0.733333 0 0 0.766667 0 0.5 0.766667 0
          0 0.8 0 0.5 0.8 0 0 0.833333 0 0.5 0.833333 0
          0 0.866667 0 0.5 0.866667 0 0 0.9 0 0.5 0.9 0
          0 0.933333 0 0.5 0.933333 0 0 0.966667 0 0.5 0.966667 0
          0 1 0 0.5 1 0
        </DataArray>
      </Points>
      <Cells>
        <DataArray type="Int32" Name="connectivity" NumberOfComponents="1" format="ascii">
          0 1 3 2 2 3 5 4 4 5 7 6
          6 7 9 8 8 9 11 10 10 11 13 12
          12 13 15 14 14 15 17 16 16 17 19 18
          18 19 21 20 20 21 23 22 22 23 25 24
          24 25 27 26 26 27 29 28 28 29 31 30
          30 31 33 32 32 33 35 34 34 35 37 36
          36 37 39 38 38 39 41 40 40 41 43 42
          42 43 45 44 44 45 47 46 46 47 49 48
          48 49 51 50 50 51 53 52 52 53 55 54
          54 55 57 56 56 57 59 58 58 59 61 60
        </DataArray>
        <DataArray type="Int32" Name="offsets" NumberOfComponents="1" format="ascii">
          4 8 12 16 20 24 28 32 36 40 44 48
          52 56 60 64 68 72 76 80 84 88 92 96
          100 104 108 112 116 120
        </DataArray>
        <DataArray type="UInt8" Name="types" NumberOfComponents="1" format="ascii">
          9 9 9 9 9 9 9 9 9 9 9 9
          9 9 9 9 9 9 9 9 9 9 9 9
          9 9 9 9 9 9
        </DataArray>
      </Cells>
    </Piece>
  </UnstructuredGrid>
</VTKFile>
