<?xml version="1.0"?>
<VTKFile type="UnstructuredGrid" version="0.1" byte_order="LittleEndian">
  <UnstructuredGrid>
    <Piece NumberOfCells="30" NumberOfPoints="62">
      <CellData Scalars="Sg">
        <DataArray type="Float32" Name="Sg" NumberOfComponents="1" format="ascii">
          0.0985818 0.098576 0.0985702 0.0985643 0.0985584 0.0985525 0.0985465 0.0985404 0.0985343 0.0985282 0.098522 0.0985158
          0.0985095 0.0985032 0.0984968 0.0984904 0.098484 0.0984775 0.098471 0.0984641 0.0984554 0.0984362 0.0983585 0.0979806
          0.0961917 0.0884004 0.0585373 0 0 0
        </DataArray>
        <DataArray type="Float32" Name="Sl" NumberOfComponents="1" format="ascii">
          0.901418 0.901424 0.90143 0.901436 0.901442 0.901448 0.901454 0.90146 0.901466 0.901472 0.901478 0.901484
          0.901491 0.901497 0.901503 0.90151 0.901516 0.901522 0.901529 0.901536 0.901545 0.901564 0.901642 0.902019
          0.903808 0.9116 0.941463 1 1 1
        </DataArray>
        <DataArray type="Float32" Name="pg" NumberOfComponents="1" format="ascii">
          52928.1 52599.5 52270.9 51942.3 51613.7 51285 50956.4 50627.7 50299 49970.3 49641.6 49312.9
          48984.1 48655.4 48326.6 47997.9 47669.1 47340.3 47011.4 46682.5 46353.1 46020.7 45671.5 45236.3
          44396.9 41838 32956.3 15860.4 15533.5 15206.6
        </DataArray>
        <DataArray type="Float32" Name="pl" NumberOfComponents="1" format="ascii">
          110628 110301 109974 109647 109320 108993 108666 108339 108012 107685 107358 107031
          106704 106377 106050 105723 105396 105070 104743 104416 104089 103762 103435 103108
          102781 102454 102127 101800 101473 101146
        </DataArray>
        <DataArray type="Float32" Name="pc" NumberOfComponents="1" format="ascii">
          -57699.4 -57701 -57702.7 -57704.4 -57706.1 -57707.8 -57709.5 -57711.2 -57713 -57714.7 -57716.5 -57718.3
          -57720.1 -57721.9 -57723.7 -57725.6 -57727.4 -57729.3 -57731.1 -57733.1 -57735.6 -57741.1 -57763.4 -57871.6
          -58384.1 -60616 -69170.8 -85939.7 -85939.7 -85939.7
        </DataArray>
        <DataArray type="Float32" Name="rhoL" NumberOfComponents="1" format="ascii">
          999.855 999.855 999.855 999.855 999.855 999.854 999.854 999.854 999.854 999.854 999.854 999.854
          999.853 999.853 999.853 999.853 999.853 999.853 999.852 999.852 999.852 999.852 999.852 999.852
          999.852 999.851 999.851 999.851 999.851 999.851
        </DataArray>
        <DataArray type="Float32" Name="rhoG" NumberOfComponents="1" format="ascii">
          0.655711 0.65164 0.647569 0.643498 0.639426 0.635355 0.631283 0.627211 0.623139 0.619067 0.614995 0.610922
          0.60685 0.602777 0.598704 0.594631 0.590558 0.586484 0.582411 0.578336 0.574255 0.570136 0.56581 0.560418
          0.55002 0.518318 0.408286 0.19649 0.19244 0.18839
        </DataArray>
        <DataArray type="Float32" Name="mobL" NumberOfComponents="1" format="ascii">
          722.171 722.17 722.17 722.17 722.17 722.17 722.169 722.169 722.169 722.169 722.169 722.169
          722.168 722.168 722.168 722.168 722.168 722.167 722.167 722.167 722.167 722.167 722.166 722.166
          722.166 722.166 722.166 722.166 722.165 722.165
        </DataArray>
        <DataArray type="Float32" Name="mobG" NumberOfComponents="1" format="ascii">
          0 0 0 0 0 0 0 0 0 0 0 0
          0 0 0 0 0 0 0 0 0 0 0 0
          0 0 0 0 0 0
        </DataArray>
        <DataArray type="Float32" Name="porosity" NumberOfComponents="1" format="ascii">
          0.299616 0.299616 0.299616 0.299616 0.299616 0.299616 0.299616 0.299616 0.299616 0.299616 0.299616 0.299615
          0.299615 0.299615 0.299615 0.299615 0.299614 0.299614 0.299613 0.299613 0.299612 0.299611 0.29961 0.299609
          0.299338 0.299337 0.299336 0.299335 0.299603 0.299602
        </DataArray>
        <DataArray type="Float32" Name="temperature" NumberOfComponents="1" format="ascii">
          281.15 281.15 281.15 281.15 281.15 281.15 281.15 281.15 281.15 281.15 281.15 281.15
          281.15 281.15 281.15 281.15 281.15 281.15 281.15 281.15 281.15 281.15 281.15 281.15
          281.15 281.15 281.15 281.15 281.15 281.15
        </DataArray>
        <DataArray type="Float32" Name="phase presence" NumberOfComponents="1" format="ascii">
          3 3 3 3 3 3 3 3 3 3 3 3
          3 3 3 3 3 3 3 3 3 3 3 3
          3 3 3 1 1 1
        </DataArray>
        <DataArray type="Float32" Name="precipitateVolumeFraction_au" NumberOfComponents="1" format="ascii">
          2.9576e-10 2.95757e-10 2.95757e-10 2.95757e-10 2.95757e-10 2.95757e-10 2.95757e-10 2.95757e-10 2.95757e-10 2.95757e-10 2.95757e-10 2.95757e-10
          2.95757e-10 2.95757e-10 2.95758e-10 2.95758e-10 2.95758e-10 2.95758e-10 2.95758e-10 2.95759e-10 2.95759e-10 2.95759e-10 2.95759e-10 2.95858e-10
          0.000269996 0.000269997 0.000269997 0.000269998 2.95725e-10 2.95482e-10
        </DataArray>
        <DataArray type="Float32" Name="precipitateVolumeFraction_nanoAu" NumberOfComponents="1" format="ascii">
          2.57123e-10 2.5712e-10 2.5712e-10 2.57121e-10 2.5712e-10 2.5712e-10 2.5712e-10 2.5712e-10 2.5712e-10 2.5712e-10 2.5712e-10 2.5712e-10
          2.5712e-10 2.57119e-10 2.57119e-10 2.57119e-10 2.57118e-10 2.57118e-10 2.57118e-10 2.57117e-10 2.57117e-10 2.57116e-10 2.57115e-10 2.5743e-10
          4.26156e-09 3.7959e-09 3.26356e-09 2.66021e-09 2.5703e-10 2.56867e-10
        </DataArray>
        <DataArray type="Float32" Name="precipitateVolumeFraction_d" NumberOfComponents="1" format="ascii">
          0.000192038 0.00019204 0.000192043 0.000192048 0.000192054 0.000192064 0.000192078 0.000192097 0.000192124 0.00019216 0.000192208 0.000192271
          0.000192351 0.000192452 0.000192577 0.000192729 0.000192911 0.000193127 0.000193378 0.000193669 0.000194001 0.000194376 0.000194798 0.000195269
          0.000195791 0.000196368 0.000197002 0.000197692 0.000198439 0.000199245
        </DataArray>
        <DataArray type="Float32" Name="precipitateVolumeFraction_p" NumberOfComponents="1" format="ascii">
          0.000192038 0.00019204 0.000192043 0.000192048 0.000192054 0.000192064 0.000192078 0.000192097 0.000192124 0.00019216 0.000192208 0.000192271
          0.000192351 0.000192452 0.000192577 0.000192729 0.000192911 0.000193127 0.000193378 0.000193669 0.000194001 0.000194376 0.000194798 0.000195269
          0.000195791 0.000196368 0.000197002 0.000197692 0.000198439 0.000199245
        </DataArray>
        <DataArray type="Float32" Name="K" NumberOfComponents="1" format="ascii">
          9.95072e-11 9.95072e-11 9.95072e-11 9.95072e-11 9.95071e-11 9.95071e-11 9.95071e-11 9.9507e-11 9.9507e-11 9.95069e-11 9.95068e-11 9.95066e-11
          9.95064e-11 9.95061e-11 9.95058e-11 9.95054e-11 9.9505e-11 9.95044e-11 9.95038e-11 9.9503e-11 9.95022e-11 9.95012e-11 9.95001e-11 9.94989e-11
          9.91524e-11 9.91509e-11 9.91493e-11 9.91475e-11 9.94908e-11 9.94887e-11
        </DataArray>
        <DataArray type="Float32" Name="X^w_H2O" NumberOfComponents="1" format="ascii">
          0.999875 0.999876 0.999876 0.999876 0.999876 0.999876 0.999876 0.999876 0.999877 0.999877 0.999877 0.999877
          0.999878 0.999878 0.999878 0.999879 0.999879 0.99988 0.99988 0.999881 0.999881 0.999882 0.999882 0.999883
          0.999883 0.999885 0.999888 0.999896 0.999899 0.999899
        </DataArray>
        <DataArray type="Float32" Name="X^w_Air" NumberOfComponents="1" format="ascii">
          1.60743e-05 1.59724e-05 1.58706e-05 1.57687e-05 1.56668e-05 1.55649e-05 1.54631e-05 1.53612e-05 1.52593e-05 1.51574e-05 1.50555e-05 1.49536e-05
          1.48517e-05 1.47498e-05 1.46479e-05 1.4546e-05 1.44441e-05 1.43422e-05 1.42402e-05 1.41383e-05 1.40362e-05 1.39331e-05 1.38249e-05 1.369e-05
          1.34298e-05 1.26366e-05 9.88339e-06 2.2258e-06 2.17016e-08 1.57145e-10
        </DataArray>
        <DataArray type="Float32" Name="X^w_AuComplex" NumberOfComponents="1" format="ascii">
          1.28443e-13 1.28677e-13 1.29902e-13 1.28485e-13 1.27226e-13 1.27701e-13 1.26353e-13 1.23946e-13 1.23096e-13 1.2014e-13 1.18094e-13 1.15262e-13
          1.10697e-13 1.07534e-13 1.04276e-13 9.99205e-14 9.41495e-14 8.9185e-14 8.33774e-14 7.76319e-14 7.14238e-14 6.26969e-14 5.7079e-14 5.12532e-14
          2.5892e-12 2.19777e-12 1.79612e-12 1.35832e-12 1.79833e-14 9.20991e-15
        </DataArray>
        <DataArray type="Float32" Name="X^w_nanoAu" NumberOfComponents="1" format="ascii">
          -2.14409e-16 1.96685e-17 3.11881e-17 -1.72202e-16 -2.17687e-16 2.58265e-16 1.2366e-16 1.44292e-16 5.07326e-16 -2.0502e-17 3.60997e-16 -4.36708e-17
          -9.6763e-16 7.24773e-16 -1.06677e-16 3.93223e-16 6.90993e-16 5.81445e-16 -3.71203e-16 -4.80232e-17 -1.87333e-16 -4.1806e-16 -1.18099e-15 2.75731e-16
          2.73249e-16 8.7957e-16 1.31187e-14 2.01397e-16 1.32995e-17 6.78427e-18
        </DataArray>
        <DataArray type="Float32" Name="X^w_cyanide" NumberOfComponents="1" format="ascii">
          2.65269e-06 2.64791e-06 2.64119e-06 2.63191e-06 2.61935e-06 2.6027e-06 2.58106e-06 2.5535e-06 2.51912e-06 2.47708e-06 2.42671e-06 2.36752e-06
          2.29926e-06 2.22193e-06 2.13578e-06 2.04121e-06 1.93874e-06 1.82894e-06 1.7123e-06 1.58921e-06 1.4599e-06 1.32445e-06 1.18278e-06 1.03473e-06
          8.80146e-07 7.70308e-07 6.48281e-07 5.14815e-07 3.68833e-07 1.89019e-07
        </DataArray>
        <DataArray type="Float32" Name="X^w_citrate" NumberOfComponents="1" format="ascii">
          1.95543e-05 1.95311e-05 1.94971e-05 1.94486e-05 1.93808e-05 1.92878e-05 1.91633e-05 1.90002e-05 1.87912e-05 1.85293e-05 1.82084e-05 1.78236e-05
          1.73718e-05 1.6852e-05 1.62653e-05 1.56143e-05 1.4903e-05 1.4136e-05 1.33177e-05 1.24519e-05 1.15412e-05 1.05871e-05 9.58972e-06 8.54806e-06
          7.46048e-06 6.32546e-06 5.14529e-06 3.93356e-06 2.68444e-06 1.37503e-06
        </DataArray>
        <DataArray type="Float32" Name="X^w_substrate" NumberOfComponents="1" format="ascii">
          8.62189e-05 8.6235e-05 8.62586e-05 8.62922e-05 8.63394e-05 8.64041e-05 8.64908e-05 8.66046e-05 8.67506e-05 8.69338e-05 8.71585e-05 8.74283e-05
          8.77453e-05 8.81104e-05 8.85229e-05 8.89809e-05 8.94816e-05 9.00218e-05 9.05984e-05 9.12086e-05 9.18506e-05 9.25233e-05 9.32265e-05 9.3961e-05
          9.4728e-05 9.55284e-05 9.63608e-05 9.72161e-05 9.80971e-05 9.90204e-05
        </DataArray>
        <DataArray type="Float32" Name="m^w_H2O" NumberOfComponents="1" format="ascii">
          55493.8 55493.8 55493.8 55493.8 55493.8 55493.8 55493.8 55493.8 55493.8 55493.8 55493.8 55493.8
          55493.8 55493.8 55493.8 55493.9 55493.9 55493.9 55493.9 55493.9 55493.9 55494 55494 55494
          55494 55494.1 55494.3 55494.7 55494.8 55494.9
        </DataArray>
        <DataArray type="Float32" Name="m^w_Air" NumberOfComponents="1" format="ascii">
          0.554971 0.551454 0.547937 0.54442 0.540903 0.537385 0.533868 0.53035 0.526832 0.523315 0.519797 0.516279
          0.51276 0.509242 0.505723 0.502205 0.498686 0.495167 0.491648 0.488128 0.484603 0.481045 0.477308 0.47265
          0.463667 0.436281 0.341226 0.0768464 0.000749252 5.42547e-06
        </DataArray>
        <DataArray type="Float32" Name="m^w_AuComplex" NumberOfComponents="1" format="ascii">
          6.51997e-10 6.53186e-10 6.59405e-10 6.52211e-10 6.45819e-10 6.48235e-10 6.41391e-10 6.29173e-10 6.24855e-10 6.09853e-10 5.99467e-10 5.85091e-10
          5.61917e-10 5.45863e-10 5.2932e-10 5.07213e-10 4.77919e-10 4.52718e-10 4.23238e-10 3.94072e-10 3.62559e-10 3.1826e-10 2.89742e-10 2.6017e-10
          1.31432e-08 1.11562e-08 9.1174e-09 6.89504e-09 9.12861e-11 4.67509e-11
        </DataArray>
        <DataArray type="Float32" Name="m^w_nanoAu" NumberOfComponents="1" format="ascii">
          -1.08838e-12 9.9841e-14 1.58317e-13 -8.74126e-13 -1.10502e-12 1.311e-12 6.27719e-13 7.32449e-13 2.57528e-12 -1.04071e-13 1.83249e-12 -2.21681e-13
          -4.91185e-12 3.67907e-12 -5.4151e-13 1.99607e-12 3.5076e-12 2.95151e-12 -1.88429e-12 -2.43774e-13 -9.50934e-13 -2.12214e-12 -5.99488e-12 1.39966e-12
          1.38706e-12 4.46484e-12 6.65928e-11 1.02233e-12 6.75105e-14 3.4438e-14
        </DataArray>
        <DataArray type="Float32" Name="m^w_cyanide" NumberOfComponents="1" format="ascii">
          0.101933 0.10175 0.101491 0.101135 0.100652 0.100012 0.0991807 0.0981217 0.0968005 0.0951852 0.0932496 0.090975
          0.088352 0.0853808 0.0820701 0.078436 0.0744987 0.0702794 0.0657973 0.0610674 0.0560987 0.0508937 0.0454498 0.039761
          0.0338207 0.0296 0.024911 0.0197824 0.0141729 0.00726329
        </DataArray>
        <DataArray type="Float32" Name="m^w_citrate" NumberOfComponents="1" format="ascii">
          0.103393 0.10327 0.10309 0.102834 0.102475 0.101984 0.101326 0.100463 0.0993579 0.0979732 0.0962762 0.0942414
          0.0918526 0.0891043 0.0860019 0.0825598 0.0787989 0.0747434 0.0704167 0.0658388 0.0610237 0.0559789 0.0507052 0.0451975
          0.0394469 0.0334455 0.0272054 0.0207985 0.0141938 0.00727037
        </DataArray>
        <DataArray type="Float32" Name="m^w_substrate" NumberOfComponents="1" format="ascii">
          0.478499 0.478589 0.478719 0.478906 0.479168 0.479526 0.480008 0.480639 0.48145 0.482466 0.483713 0.48521
          0.48697 0.488996 0.491285 0.493826 0.496605 0.499603 0.502803 0.50619 0.509752 0.513486 0.517389 0.521465
          0.525721 0.530163 0.534783 0.539529 0.544419 0.549543
        </DataArray>
        <DataArray type="Float32" Name="process rank" NumberOfComponents="1" format="ascii">
          0 0 0 0 0 0 0 0 0 0 0 0
          0 0 0 0 0 0 0 0 0 0 0 0
          0 0 0 0 0 0
        </DataArray>
      </CellData>
      <Points>
        <DataArray type="Float32" Name="Coordinates" NumberOfComponents="3" format="ascii">
          0 0 0 0.5 0 0 0 0.0333333 0 0.5 0.0333333 0
          0 0.0666667 0 0.5 0.0666667 0 0 0.1 0 0.5 0.1 0
          0 0.133333 0 0.5 0.133333 0 0 0.166667 0 0.5 0.166667 0
          0 0.2 0 0.5 0.2 0 0 0.233333 0 0.5 0.233333 0
          0 0.266667 0 0.5 0.266667 0 0 0.3 0 0.5 0.3 0
          0 0.333333 0 0.5 0.333333 0 0 0.366667 0 0.5 0.366667 0
          0 0.4 0 0.5 0.4 0 0 0.433333 0 0.5 0.433333 0
          0 0.466667 0 0.5 0.466667 0 0 0.5 0 0.5 0.5 0
          0 0.533333 0 0.5 0.533333 0 0 0.566667 0 0.5 0.566667 0
          0 0.6 0 0.5 0.6 0 0 0.633333 0 0.5 0.633333 0
          0 0.666667 0 0.5 0.666667 0 0 0.7 0 0.5 0.7 0
          0 0.733333 0 0.5 0.733333 0 0 0.766667 0 0.5 0.766667 0
          0 0.8 0 0.5 0.8 0 0 0.833333 0 0.5 0.833333 0
          0 0.866667 0 0.5 0.866667 0 0 0.9 0 0.5 0.9 0
          0 0.933333 0 0.5 0.933333 0 0 0.966667 0 0.5 0.966667 0
          0 1 0 0.5 1 0
        </DataArray>
      </Points>
      <Cells>
        <DataArray type="Int32" Name="connectivity" NumberOfComponents="1" format="ascii">
          0 1 3 2 2 3 5 4 4 5 7 6
          6 7 9 8 8 9 11 10 10 11 13 12
          12 13 15 14 14 15 17 16 16 17 19 18
          18 19 21 20 20 21 23 22 22 23 25 24
          24 25 27 26 26 27 29 28 28 29 31 30
          30 31 33 32 32 33 35 34 34 35 37 36
          36 37 39 38 38 39 41 40 40 41 43 42
          42 43 45 44 44 45 47 46 46 47 49 48
          48 49 51 50 50 51 53 52 52 53 55 54
          54 55 57 56 56 57 59 58 58 59 61 60
        </DataArray>
        <DataArray type="Int32" Name="offsets" NumberOfComponents="1" format="ascii">
          4 8 12 16 20 24 28 32 36 40 44 48
          52 56 60 64 68 72 76 80 84 88 92 96
          100 104 108 112 116 120
        </DataArray>
        <DataArray type="UInt8" Name="types" NumberOfComponents="1" format="ascii">
          9 9 9 9 9 9 9 9 9 9 9 9
          9 9 9 9 9 9 9 9 9 9 9 9
          9 9 9 9 9 9
        </DataArray>
      </Cells>
    </Piece>
  </UnstructuredGrid>
</VTKFile>
