<?xml version="1.0"?>
<VTKFile type="UnstructuredGrid" version="0.1" byte_order="LittleEndian">
  <UnstructuredGrid>
    <Piece NumberOfCells="30" NumberOfPoints="62">
      <CellData Scalars="Sg">
        <DataArray type="Float32" Name="Sg" NumberOfComponents="1" format="ascii">
          0.0305365 0 0 0 0 0 0 0 0 0 0 0
          0 0 0 0 0 0 0 0 0 0 0 0
          0 0 0 0 0 0
        </DataArray>
        <DataArray type="Float32" Name="Sl" NumberOfComponents="1" format="ascii">
          0.969463 1 1 1 1 1 1 1 1 1 1 1
          1 1 1 1 1 1 1 1 1 1 1 1
          1 1 1 1 1 1
        </DataArray>
        <DataArray type="Float32" Name="pg" NumberOfComponents="1" format="ascii">
          33435.5 24360.9 24034 23707 23380.1 23053.1 22726.2 22399.3 22072.3 21745.4 21418.4 21091.5
          20764.6 20437.6 20110.7 19783.7 19456.8 19129.9 18802.9 18476 18149 17822.1 17495.2 17168.2
          16841.3 16514.3 16187.4 15860.5 15533.5 15206.6
        </DataArray>
        <DataArray type="Float32" Name="pl" NumberOfComponents="1" format="ascii">
          110628 110301 109974 109647 109320 108993 108666 108339 108012 107685 107358 107031
          106704 106377 106050 105723 105396 105070 104743 104416 104089 103762 103435 103108
          102781 102454 102127 101800 101473 101146
        </DataArray>
        <DataArray type="Float32" Name="pc" NumberOfComponents="1" format="ascii">
          -77192 -85939.7 -85939.7 -85939.7 -85939.7 -85939.7 -85939.7 -85939.7 -85939.7 -85939.7 -85939.7 -85939.7
          -85939.7 -85939.7 -85939.7 -85939.7 -85939.7 -85939.7 -85939.7 -85939.7 -85939.7 -85939.7 -85939.7 -85939.7
          -85939.7 -85939.7 -85939.7 -85939.7 -85939.7 -85939.7
        </DataArray>
        <DataArray type="Float32" Name="rhoL" NumberOfComponents="1" format="ascii">
          999.855 999.855 999.855 999.855 999.855 999.854 999.854 999.854 999.854 999.854 999.854 999.854
          999.853 999.853 999.853 999.853 999.853 999.853 999.852 999.852 999.852 999.852 999.852 999.852
          999.852 999.851 999.851 999.851 999.851 999.851
        </DataArray>
        <DataArray type="Float32" Name="rhoG" NumberOfComponents="1" format="ascii">
          0.414223 0.3018 0.29775 0.293699 0.289649 0.285599 0.281548 0.277498 0.273447 0.269397 0.265347 0.261296
          0.257246 0.253196 0.249145 0.245095 0.241044 0.236994 0.232944 0.228893 0.224843 0.220793 0.216742 0.212692
          0.208642 0.204591 0.200541 0.19649 0.19244 0.18839
        </DataArray>
        <DataArray type="Float32" Name="mobL" NumberOfComponents="1" format="ascii">
          722.171 722.17 722.17 722.17 722.17 722.17 722.169 722.169 722.169 722.169 722.169 722.169
          722.168 722.168 722.168 722.168 722.168 722.167 722.167 722.167 722.167 722.167 722.166 722.166
          722.166 722.166 722.166 722.166 722.165 722.165
        </DataArray>
        <DataArray type="Float32" Name="mobG" NumberOfComponents="1" format="ascii">
          0 0 0 0 0 0 0 0 0 0 0 0
          0 0 0 0 0 0 0 0 0 0 0 0
          0 0 0 0 0 0
        </DataArray>
        <DataArray type="Float32" Name="porosity" NumberOfComponents="1" format="ascii">
          0.297853 0.297811 0.297765 0.297716 0.297663 0.297605 0.297542 0.297473 0.297397 0.297314 0.297222 0.297121
          0.297008 0.296881 0.296739 0.296578 0.296395 0.296184 0.295938 0.295649 0.295303 0.294885 0.294368 0.293714
          0.292593 0.291445 0.289821 0.287375 0.283612 0.275994
        </DataArray>
        <DataArray type="Float32" Name="temperature" NumberOfComponents="1" format="ascii">
          281.15 281.15 281.15 281.15 281.15 281.15 281.15 281.15 281.15 281.15 281.15 281.15
          281.15 281.15 281.15 281.15 281.15 281.15 281.15 281.15 281.15 281.15 281.15 281.15
          281.15 281.15 281.15 281.15 281.15 281.15
        </DataArray>
        <DataArray type="Float32" Name="phase presence" NumberOfComponents="1" format="ascii">
          3 1 1 1 1 1 1 1 1 1 1 1
          1 1 1 1 1 1 1 1 1 1 1 1
          1 1 1 1 1 1
        </DataArray>
        <DataArray type="Float32" Name="precipitateVolumeFraction_au" NumberOfComponents="1" format="ascii">
          5.51108e-10 5.51108e-10 5.51112e-10 5.51111e-10 5.51112e-10 5.51102e-10 5.51144e-10 5.51112e-10 5.51133e-10 5.51152e-10 5.51132e-10 5.51147e-10
          5.51167e-10 5.51172e-10 5.51173e-10 5.51152e-10 5.5119e-10 5.51144e-10 5.51172e-10 5.51238e-10 5.51219e-10 5.51201e-10 5.51229e-10 6.06045e-10
          0.000269934 0.000269927 0.000269918 0.00026991 5.51078e-10 5.50743e-10
        </DataArray>
        <DataArray type="Float32" Name="precipitateVolumeFraction_nanoAu" NumberOfComponents="1" format="ascii">
          1.77499e-12 1.76952e-12 1.77049e-12 1.7584e-12 1.74976e-12 1.73853e-12 1.75809e-12 1.73776e-12 1.74056e-12 1.73903e-12 1.72856e-12 1.72564e-12
          1.72208e-12 1.71567e-12 1.70918e-12 1.7011e-12 1.6963e-12 1.68661e-12 1.67975e-12 1.67286e-12 1.66247e-12 1.65113e-12 1.65075e-12 2.94042e-11
          6.64785e-08 7.40059e-08 8.22541e-08 9.03161e-08 1.66702e-12 1.59499e-12
        </DataArray>
        <DataArray type="Float32" Name="precipitateVolumeFraction_d" NumberOfComponents="1" format="ascii">
          0.00107342 0.0010945 0.00111725 0.00114187 0.00116856 0.00119757 0.00122916 0.00126368 0.00130149 0.00134304 0.00138888 0.00143965
          0.00149613 0.00155929 0.00163033 0.00171077 0.00180256 0.00190823 0.00203112 0.00217573 0.00234825 0.0025574 0.00281588 0.00314279
          0.00356825 0.0041424 0.00495432 0.00617763 0.00819421 0.012003
        </DataArray>
        <DataArray type="Float32" Name="precipitateVolumeFraction_p" NumberOfComponents="1" format="ascii">
          0.00107342 0.0010945 0.00111725 0.00114187 0.00116856 0.00119757 0.00122916 0.00126368 0.00130149 0.00134304 0.00138888 0.00143965
          0.00149613 0.00155929 0.00163033 0.00171077 0.00180256 0.00190823 0.00203112 0.00217573 0.00234825 0.0025574 0.00281588 0.00314279
          0.00356825 0.0041424 0.00495432 0.00617763 0.00819421 0.012003
        </DataArray>
        <DataArray type="Float32" Name="K" NumberOfComponents="1" format="ascii">
          9.72709e-11 9.7218e-11 9.71608e-11 9.7099e-11 9.7032e-11 9.69593e-11 9.68801e-11 9.67937e-11 9.66991e-11 9.65951e-11 9.64806e-11 9.6354e-11
          9.62132e-11 9.60559e-11 9.58793e-11 9.56797e-11 9.54523e-11 9.51911e-11 9.4888e-11 9.45324e-11 9.41096e-11 9.35991e-11 9.29713e-11 9.21823e-11
          9.08423e-11 8.94862e-11 8.75968e-11 8.48117e-11 8.06691e-11 7.27859e-11
        </DataArray>
        <DataArray type="Float32" Name="X^w_H2O" NumberOfComponents="1" format="ascii">
          0.999839 0.999848 0.999849 0.999849 0.999849 0.99985 0.99985 0.99985 0.99985 0.999851 0.999851 0.999851
          0.999852 0.999852 0.999852 0.999853 0.999853 0.999854 0.999854 0.999855 0.999855 0.999856 0.999857 0.999859
          0.99986 0.99986 0.999861 0.999862 0.999865 0.999876
        </DataArray>
        <DataArray type="Float32" Name="X^w_Air" NumberOfComponents="1" format="ascii">
          1.00316e-05 6.73596e-07 1.19042e-08 2.06279e-10 3.52397e-12 5.90676e-14 9.71714e-16 1.56935e-17 2.48765e-19 3.86922e-21 5.90946e-23 8.87463e-25
          1.30569e-26 1.88512e-28 2.67024e-30 3.71189e-32 5.05376e-34 6.74126e-36 8.80325e-38 0 0 0 0 0
          0 0 0 0 0 0
        </DataArray>
        <DataArray type="Float32" Name="X^w_AuComplex" NumberOfComponents="1" format="ascii">
          -5.30948e-14 3.80705e-15 3.75642e-15 3.67839e-15 3.60771e-15 3.53189e-15 3.51703e-15 3.4228e-15 3.37331e-15 3.31459e-15 3.23835e-15 3.17518e-15
          3.10947e-15 3.03706e-15 2.96259e-15 2.88302e-15 2.80579e-15 2.71663e-15 2.62702e-15 2.53073e-15 2.42073e-15 2.29827e-15 2.17762e-15 4.13975e-14
          8.5946e-11 1.10256e-10 1.42721e-10 1.83438e-10 3.55375e-15 2.30236e-15
        </DataArray>
        <DataArray type="Float32" Name="X^w_nanoAu" NumberOfComponents="1" format="ascii">
          -5.79496e-14 4.63673e-18 4.63283e-18 4.59463e-18 4.56486e-18 4.52837e-18 4.57009e-18 4.50843e-18 4.50548e-18 4.4902e-18 4.45105e-18 4.42994e-18
          4.40562e-18 4.3723e-18 4.33672e-18 4.29479e-18 4.25806e-18 4.20565e-18 4.15593e-18 4.10056e-18 4.03009e-18 3.99867e-18 1.12855e-17 1.08465e-15
          1.48524e-13 1.58802e-13 1.66368e-13 1.653e-13 2.59151e-18 1.67062e-18
        </DataArray>
        <DataArray type="Float32" Name="X^w_cyanide" NumberOfComponents="1" format="ascii">
          1.13454e-05 1.11965e-05 1.10417e-05 1.08857e-05 1.07286e-05 1.05701e-05 1.041e-05 1.02481e-05 1.00838e-05 9.91693e-06 9.74674e-06 9.57258e-06
          9.39359e-06 9.20869e-06 9.01654e-06 8.81546e-06 8.60327e-06 8.37716e-06 8.13344e-06 7.86716e-06 7.57159e-06 7.23728e-06 6.85064e-06 6.39148e-06
          5.82918e-06 6.81777e-06 8.04677e-06 9.52232e-06 1.1086e-05 7.50249e-06
        </DataArray>
        <DataArray type="Float32" Name="X^w_citrate" NumberOfComponents="1" format="ascii">
          0.000135637 0.000135461 0.00013528 0.000135085 0.000134874 0.000134644 0.000134394 0.00013412 0.000133819 0.000133488 0.000133121 0.000132715
          0.000132261 0.000131752 0.000131177 0.000130525 0.000129778 0.000128917 0.000127914 0.000126734 0.000125326 0.000123622 0.000121524 0.000118884
          0.000115474 0.000110926 0.000104599 9.53019e-05 8.05678e-05 5.45243e-05
        </DataArray>
        <DataArray type="Float32" Name="X^w_substrate" NumberOfComponents="1" format="ascii">
          4.34476e-06 4.46971e-06 4.59701e-06 4.73443e-06 4.88344e-06 5.04545e-06 5.22209e-06 5.4153e-06 5.62732e-06 5.86085e-06 6.11907e-06 6.40586e-06
          6.72588e-06 7.08488e-06 7.48994e-06 7.94999e-06 8.47631e-06 9.08347e-06 9.79056e-06 1.0623e-05 1.16156e-05 1.28169e-05 1.42965e-05 1.61582e-05
          1.85624e-05 2.17702e-05 2.62318e-05 3.27882e-05 4.31783e-05 6.15427e-05
        </DataArray>
        <DataArray type="Float32" Name="m^w_H2O" NumberOfComponents="1" format="ascii">
          55491.8 55492.3 55492.3 55492.3 55492.3 55492.3 55492.3 55492.3 55492.3 55492.3 55492.4 55492.4
          55492.4 55492.4 55492.4 55492.4 55492.4 55492.4 55492.5 55492.5 55492.5 55492.6 55492.6 55492.7
          55492.7 55492.7 55492.8 55492.8 55493 55493.6
        </DataArray>
        <DataArray type="Float32" Name="m^w_Air" NumberOfComponents="1" format="ascii">
          0.346343 0.0232562 0.000410996 7.12186e-06 1.21666e-07 2.03933e-09 3.35488e-11 5.41825e-13 8.58869e-15 1.33586e-16 2.04026e-18 3.06399e-20
          4.50795e-22 6.50843e-24 9.21908e-26 1.28154e-27 1.74483e-29 2.32744e-31 3.03935e-33 3.87948e-35 4.83025e-37 0 0 0
          0 0 0 0 0 0
        </DataArray>
        <DataArray type="Float32" Name="m^w_AuComplex" NumberOfComponents="1" format="ascii">
          -2.69519e-10 1.93252e-11 1.90683e-11 1.86722e-11 1.83134e-11 1.79285e-11 1.78531e-11 1.73747e-11 1.71235e-11 1.68254e-11 1.64384e-11 1.61178e-11
          1.57842e-11 1.54167e-11 1.50386e-11 1.46347e-11 1.42426e-11 1.37901e-11 1.33352e-11 1.28464e-11 1.2288e-11 1.16664e-11 1.10539e-11 2.1014e-10
          4.36276e-07 5.5968e-07 7.24475e-07 9.31159e-07 1.80394e-11 1.16872e-11
        </DataArray>
        <DataArray type="Float32" Name="m^w_nanoAu" NumberOfComponents="1" format="ascii">
          -2.94163e-10 2.35369e-14 2.35171e-14 2.33232e-14 2.3172e-14 2.29868e-14 2.31986e-14 2.28856e-14 2.28706e-14 2.27931e-14 2.25943e-14 2.24871e-14
          2.23637e-14 2.21945e-14 2.20139e-14 2.18011e-14 2.16146e-14 2.13486e-14 2.10962e-14 2.08151e-14 2.04574e-14 2.02979e-14 5.72872e-14 5.50584e-12
          7.53931e-10 8.06104e-10 8.4451e-10 8.3909e-10 1.31549e-14 8.48034e-15
        </DataArray>
        <DataArray type="Float32" Name="m^w_cyanide" NumberOfComponents="1" format="ascii">
          0.435962 0.430243 0.424294 0.418299 0.41226 0.40617 0.400019 0.393795 0.387486 0.381072 0.374532 0.367839
          0.360961 0.353856 0.346473 0.338746 0.330592 0.321903 0.312538 0.302306 0.290948 0.278102 0.263245 0.245601
          0.223994 0.261981 0.309207 0.365907 0.425993 0.288292
        </DataArray>
        <DataArray type="Float32" Name="m^w_citrate" NumberOfComponents="1" format="ascii">
          0.717175 0.716245 0.71529 0.71426 0.713142 0.711927 0.710602 0.709153 0.707562 0.705811 0.703874 0.701723
          0.699323 0.696631 0.693593 0.690143 0.686196 0.681643 0.676341 0.670098 0.662655 0.653647 0.642552 0.628592
          0.610564 0.586514 0.553063 0.503904 0.425998 0.288294
        </DataArray>
        <DataArray type="Float32" Name="m^w_substrate" NumberOfComponents="1" format="ascii">
          0.0241126 0.024806 0.0255126 0.0262752 0.0271022 0.0280013 0.0289816 0.0300539 0.0312306 0.0325266 0.0339597 0.0355513
          0.0373274 0.0393197 0.0415677 0.0441209 0.0470418 0.0504115 0.0543357 0.0589558 0.0644645 0.0711312 0.0793427 0.0896746
          0.103017 0.12082 0.145581 0.181968 0.239631 0.341549
        </DataArray>
        <DataArray type="Float32" Name="process rank" NumberOfComponents="1" format="ascii">
          0 0 0 0 0 0 0 0 0 0 0 0
          0 0 0 0 0 0 0 0 0 0 0 0
          0 0 0 0 0 0
        </DataArray>
      </CellData>
      <Points>
        <DataArray type="Float32" Name="Coordinates" NumberOfComponents="3" format="ascii">
          0 0 0 0.5 0 0 0 0.0333333 0 0.5 0.0333333 0
          0 0.0666667 0 0.5 0.0666667 0 0 0.1 0 0.5 0.1 0
          0 0.133333 0 0.5 0.133333 0 0 0.166667 0 0.5 0.166667 0
          0 0.2 0 0.5 0.2 0 0 0.233333 0 0.5 0.233333 0
          0 0.266667 0 0.5 0.266667 0 0 0.3 0 0.5 0.3 0
          0 0.333333 0 0.5 0.333333 0 0 0.366667 0 0.5 0.366667 0
          0 0.4 0 0.5 0.4 0 0 0.433333 0 0.5 0.433333 0
          0 0.466667 0 0.5 0.466667 0 0 0.5 0 0.5 0.5 0
          0 0.533333 0 0.5 0.533333 0 0 0.566667 0 0.5 0.566667 0
          0 0.6 0 0.5 0.6 0 0 0.633333 0 0.5 0.633333 0
          0 0.666667 0 0.5 0.666667 0 0 0.7 0 0.5 0.7 0
          0 0.733333 0 0.5 0.733333 0 0 0.766667 0 0.5 0.766667 0
          0 0.8 0 0.5 0.8 0 0 0.833333 0 0.5 0.833333 0
          0 0.866667 0 0.5 0.866667 0 0 0.9 0 0.5 0.9 0
          0 0.933333 0 0.5 0.933333 0 0 0.966667 0 0.5 0.966667 0
          0 1 0 0.5 1 0
        </DataArray>
      </Points>
      <Cells>
        <DataArray type="Int32" Name="connectivity" NumberOfComponents="1" format="ascii">
          0 1 3 2 2 3 5 4 4 5 7 6
          6 7 9 8 8 9 11 10 10 11 13 12
          12 13 15 14 14 15 17 16 16 17 19 18
          18 19 21 20 20 21 23 22 22 23 25 24
          24 25 27 26 26 27 29 28 28 29 31 30
          30 31 33 32 32 33 35 34 34 35 37 36
          36 37 39 38 38 39 41 40 40 41 43 42
          42 43 45 44 44 45 47 46 46 47 49 48
          48 49 51 50 50 51 53 52 52 53 55 54
          54 55 57 56 56 57 59 58 58 59 61 60
        </DataArray>
        <DataArray type="Int32" Name="offsets" NumberOfComponents="1" format="ascii">
          4 8 12 16 20 24 28 32 36 40 44 48
          52 56 60 64 68 72 76 80 84 88 92 96
          100 104 108 112 116 120
        </DataArray>
        <DataArray type="UInt8" Name="types" NumberOfComponents="1" format="ascii">
          9 9 9 9 9 9 9 9 9 9 9 9
          9 9 9 9 9 9 9 9 9 9 9 9
          9 9 9 9 9 9
        </DataArray>
      </Cells>
    </Piece>
  </UnstructuredGrid>
</VTKFile>
