<?xml version="1.0"?>
<VTKFile type="UnstructuredGrid" version="0.1" byte_order="LittleEndian">
  <UnstructuredGrid>
    <Piece NumberOfCells="30" NumberOfPoints="62">
      <CellData Scalars="Sg">
        <DataArray type="Float32" Name="Sg" NumberOfComponents="1" format="ascii">
          0 0 0 0 0 0 0 0 0 0 0 0
          0 0 0 0 0 0 0 0 0 0 0 0
          0 0 0 0 0 0
        </DataArray>
        <DataArray type="Float32" Name="Sl" NumberOfComponents="1" format="ascii">
          1 1 1 1 1 1 1 1 1 1 1 1
          1 1 1 1 1 1 1 1 1 1 1 1
          1 1 1 1 1 1
        </DataArray>
        <DataArray type="Float32" Name="pg" NumberOfComponents="1" format="ascii">
          24687.8 24360.9 24034 23707 23380.1 23053.1 22726.2 22399.3 22072.3 21745.4 21418.4 21091.5
          20764.6 20437.6 20110.7 19783.7 19456.8 19129.9 18802.9 18476 18149 17822.1 17495.1 17168.2
          16841.3 16514.3 16187.4 15860.4 15533.5 15206.8
        </DataArray>
        <DataArray type="Float32" Name="pl" NumberOfComponents="1" format="ascii">
          110628 110301 109974 109647 109320 108993 108666 108339 108012 107685 107358 107031
          106704 106377 106050 105723 105396 105070 104743 104416 104089 103762 103435 103108
          102781 102454 102127 101800 101473 101146
        </DataArray>
        <DataArray type="Float32" Name="pc" NumberOfComponents="1" format="ascii">
          -85939.7 -85939.7 -85939.7 -85939.7 -85939.7 -85939.7 -85939.7 -85939.7 -85939.7 -85939.7 -85939.7 -85939.7
          -85939.7 -85939.7 -85939.7 -85939.7 -85939.7 -85939.7 -85939.7 -85939.7 -85939.7 -85939.7 -85939.7 -85939.7
          -85939.7 -85939.7 -85939.7 -85939.7 -85939.7 -85939.7
        </DataArray>
        <DataArray type="Float32" Name="rhoL" NumberOfComponents="1" format="ascii">
          999.855 999.855 999.855 999.855 999.855 999.854 999.854 999.854 999.854 999.854 999.854 999.854
          999.853 999.853 999.853 999.853 999.853 999.853 999.852 999.852 999.852 999.852 999.852 999.852
          999.852 999.851 999.851 999.851 999.851 999.851
        </DataArray>
        <DataArray type="Float32" Name="rhoG" NumberOfComponents="1" format="ascii">
          0.30585 0.3018 0.29775 0.293699 0.289649 0.285598 0.281548 0.277498 0.273447 0.269397 0.265347 0.261296
          0.257246 0.253195 0.249145 0.245095 0.241044 0.236994 0.232944 0.228893 0.224843 0.220793 0.216742 0.212692
          0.208641 0.204591 0.200541 0.19649 0.19244 0.188393
        </DataArray>
        <DataArray type="Float32" Name="mobL" NumberOfComponents="1" format="ascii">
          722.171 722.17 722.17 722.17 722.17 722.17 722.169 722.169 722.169 722.169 722.169 722.169
          722.168 722.168 722.168 722.168 722.168 722.167 722.167 722.167 722.167 722.167 722.166 722.166
          722.166 722.166 722.166 722.166 722.165 722.165
        </DataArray>
        <DataArray type="Float32" Name="mobG" NumberOfComponents="1" format="ascii">
          0 0 0 0 0 0 0 0 0 0 0 0
          0 0 0 0 0 0 0 0 0 0 0 0
          0 0 0 0 0 0
        </DataArray>
        <DataArray type="Float32" Name="porosity" NumberOfComponents="1" format="ascii">
          0.298576 0.298576 0.298576 0.298576 0.298576 0.298576 0.298576 0.298576 0.298576 0.298576 0.298576 0.298576
          0.298576 0.298576 0.298576 0.298576 0.298576 0.298576 0.298576 0.298576 0.298576 0.298576 0.298576 0.298576
          0.298306 0.2983 0.298268 0.298093 0.296967 0.100221
        </DataArray>
        <DataArray type="Float32" Name="temperature" NumberOfComponents="1" format="ascii">
          281.15 281.15 281.15 281.15 281.15 281.15 281.15 281.15 281.15 281.15 281.15 281.15
          281.15 281.15 281.15 281.15 281.15 281.15 281.15 281.15 281.15 281.15 281.15 281.15
          281.15 281.15 281.15 281.15 281.15 281.15
        </DataArray>
        <DataArray type="Float32" Name="phase presence" NumberOfComponents="1" format="ascii">
          1 1 1 1 1 1 1 1 1 1 1 1
          1 1 1 1 1 1 1 1 1 1 1 1
          1 1 1 1 1 1
        </DataArray>
        <DataArray type="Float32" Name="precipitateVolumeFraction_au" NumberOfComponents="1" format="ascii">
          5.52352e-10 5.52527e-10 5.52488e-10 5.52469e-10 5.5245e-10 5.52509e-10 5.52453e-10 5.52468e-10 5.52505e-10 5.52415e-10 5.52463e-10 5.52478e-10
          5.52498e-10 5.5255e-10 5.52494e-10 5.52494e-10 5.5245e-10 5.52488e-10 5.52426e-10 5.52495e-10 5.52498e-10 5.52481e-10 5.52555e-10 7.34653e-10
          0.00026994 0.000269924 0.000269899 0.000269854 5.52127e-10 5.5083e-10
        </DataArray>
        <DataArray type="Float32" Name="precipitateVolumeFraction_nanoAu" NumberOfComponents="1" format="ascii">
          3.59749e-13 3.9149e-13 3.86524e-13 3.83712e-13 3.85977e-13 3.88933e-13 3.86147e-13 3.85959e-13 3.8837e-13 3.85325e-13 3.86039e-13 3.86594e-13
          3.8735e-13 3.87909e-13 3.87011e-13 3.87203e-13 3.86592e-13 3.86954e-13 3.86664e-13 3.87064e-13 3.8698e-13 3.86945e-13 3.98292e-13 2.60587e-11
          6.04163e-08 7.6757e-08 1.02255e-07 1.45754e-07 7.37267e-13 7.31657e-13
        </DataArray>
        <DataArray type="Float32" Name="precipitateVolumeFraction_d" NumberOfComponents="1" format="ascii">
          0.000711864 0.000711863 0.000711862 0.000711862 0.000711862 0.000711861 0.000711861 0.000711861 0.00071186 0.00071186 0.00071186 0.000711859
          0.000711859 0.000711858 0.000711858 0.000711858 0.000711857 0.000711857 0.000711856 0.000711856 0.000711855 0.000711852 0.000711848 0.000711859
          0.000712038 0.000715088 0.000730917 0.000818572 0.0015166 0.0998893
        </DataArray>
        <DataArray type="Float32" Name="precipitateVolumeFraction_p" NumberOfComponents="1" format="ascii">
          0.000711864 0.000711863 0.000711862 0.000711862 0.000711862 0.000711861 0.000711861 0.000711861 0.00071186 0.00071186 0.00071186 0.000711859
          0.000711859 0.000711858 0.000711858 0.000711858 0.000711857 0.000711857 0.000711856 0.000711856 0.000711855 0.000711852 0.000711848 0.000711859
          0.000712038 0.000715088 0.000730917 0.000818572 0.0015166 0.0998893
        </DataArray>
        <DataArray type="Float32" Name="K" NumberOfComponents="1" format="ascii">
          9.81832e-11 9.81832e-11 9.81832e-11 9.81832e-11 9.81832e-11 9.81832e-11 9.81832e-11 9.81832e-11 9.81832e-11 9.81832e-11 9.81832e-11 9.81832e-11
          9.81832e-11 9.81832e-11 9.81832e-11 9.81832e-11 9.81832e-11 9.81832e-11 9.81832e-11 9.81832e-11 9.81832e-11 9.81833e-11 9.81833e-11 9.81832e-11
          9.78413e-11 9.78336e-11 9.77937e-11 9.75726e-11 9.61622e-11 2.25653e-12
        </DataArray>
        <DataArray type="Float32" Name="X^w_H2O" NumberOfComponents="1" format="ascii">
          0.999853 0.999853 0.999853 0.999853 0.999853 0.999853 0.999853 0.999853 0.999853 0.999853 0.999853 0.999853
          0.999853 0.999853 0.999853 0.999853 0.999853 0.999853 0.999853 0.999853 0.999853 0.999853 0.999853 0.999853
          0.999853 0.999852 0.99985 0.999846 0.999839 0.999839
        </DataArray>
        <DataArray type="Float32" Name="X^w_Air" NumberOfComponents="1" format="ascii">
          2.53068e-21 4.52519e-23 7.96058e-25 1.37522e-26 2.33611e-28 3.90436e-30 6.41839e-32 1.03737e-33 1.64828e-35 2.57192e-37 0 0
          0 0 0 0 0 0 0 0 0 0 0 0
          0 0 0 0 0 0
        </DataArray>
        <DataArray type="Float32" Name="X^w_AuComplex" NumberOfComponents="1" format="ascii">
          3.68142e-16 3.98674e-16 3.93894e-16 3.91187e-16 3.93364e-16 3.96206e-16 3.93523e-16 3.9334e-16 3.95658e-16 3.92724e-16 3.9341e-16 3.93942e-16
          3.94667e-16 3.95204e-16 3.94336e-16 3.94517e-16 3.93925e-16 3.94273e-16 3.93988e-16 3.94372e-16 3.94289e-16 3.94253e-16 4.07107e-16 2.96644e-14
          6.89246e-11 1.07527e-10 1.84728e-10 3.64884e-10 2.8134e-15 2.78706e-15
        </DataArray>
        <DataArray type="Float32" Name="X^w_nanoAu" NumberOfComponents="1" format="ascii">
          9.87304e-19 1.07368e-18 1.0601e-18 1.05248e-18 1.05871e-18 1.06671e-18 1.05912e-18 1.05865e-18 1.06516e-18 1.05688e-18 1.05883e-18 1.06036e-18
          1.06243e-18 1.06394e-18 1.06149e-18 1.062e-18 1.06035e-18 1.06133e-18 1.06055e-18 1.06164e-18 1.06179e-18 1.11783e-18 9.32863e-18 1.20579e-15
          1.65987e-13 2.10972e-13 2.81209e-13 3.96959e-13 2.02145e-18 1.98928e-18
        </DataArray>
        <DataArray type="Float32" Name="X^w_cyanide" NumberOfComponents="1" format="ascii">
          5.0703e-06 5.07027e-06 5.07025e-06 5.07023e-06 5.0702e-06 5.07018e-06 5.07015e-06 5.07012e-06 5.07009e-06 5.07006e-06 5.07003e-06 5.07e-06
          5.06997e-06 5.06994e-06 5.0699e-06 5.06987e-06 5.06983e-06 5.06979e-06 5.06976e-06 5.06972e-06 5.06968e-06 5.06965e-06 5.06961e-06 5.06957e-06
          5.07002e-06 6.44088e-06 8.57941e-06 1.2253e-05 1.95081e-05 1.94769e-05
        </DataArray>
        <DataArray type="Float32" Name="X^w_citrate" NumberOfComponents="1" format="ascii">
          0.000141796 0.000141796 0.000141796 0.000141796 0.000141796 0.000141796 0.000141796 0.000141796 0.000141796 0.000141796 0.000141796 0.000141796
          0.000141796 0.000141796 0.000141796 0.000141796 0.000141796 0.000141796 0.000141796 0.000141796 0.000141796 0.000141796 0.000141796 0.000141796
          0.000141796 0.000141797 0.000141797 0.000141795 0.000141775 0.000141548
        </DataArray>
        <DataArray type="Float32" Name="X^w_substrate" NumberOfComponents="1" format="ascii">
          4.90989e-28 2.44787e-27 1.22032e-26 6.08317e-26 3.03218e-25 1.5113e-24 7.53211e-24 3.75363e-23 1.87049e-22 9.32033e-22 4.64382e-21 2.31361e-20
          1.15259e-19 5.74153e-19 2.8599e-18 1.42444e-17 7.09426e-17 3.53297e-16 1.75931e-15 8.76019e-15 4.36169e-14 2.17153e-13 1.08105e-12 5.38137e-12
          2.67865e-11 1.3335e-10 6.66081e-10 3.38574e-09 1.88672e-08 1.78724e-07
        </DataArray>
        <DataArray type="Float32" Name="m^w_H2O" NumberOfComponents="1" format="ascii">
          55492.6 55492.6 55492.5 55492.5 55492.5 55492.5 55492.5 55492.5 55492.5 55492.5 55492.5 55492.5
          55492.5 55492.4 55492.4 55492.4 55492.4 55492.4 55492.4 55492.4 55492.4 55492.4 55492.4 55492.4
          55492.3 55492.3 55492.1 55491.9 55491.5 55491.5
        </DataArray>
        <DataArray type="Float32" Name="m^w_Air" NumberOfComponents="1" format="ascii">
          8.73727e-17 1.56234e-18 2.74842e-20 4.74799e-22 8.06552e-24 1.34799e-25 2.21597e-27 3.58157e-29 5.69075e-31 8.87963e-33 1.36066e-34 2.04924e-36
          3.03382e-38 0 0 0 0 0 0 0 0 0 0 0
          0 0 0 0 0 0
        </DataArray>
        <DataArray type="Float32" Name="m^w_AuComplex" NumberOfComponents="1" format="ascii">
          1.86876e-12 2.02374e-12 1.99948e-12 1.98574e-12 1.99678e-12 2.01121e-12 1.99759e-12 1.99666e-12 2.00843e-12 1.99353e-12 1.99701e-12 1.99972e-12
          2.0034e-12 2.00612e-12 2.00172e-12 2.00264e-12 1.99963e-12 2.00139e-12 1.99995e-12 2.0019e-12 2.00148e-12 2.00129e-12 2.06654e-12 1.50581e-10
          3.49872e-07 5.45822e-07 9.37709e-07 1.85221e-06 1.42812e-11 1.41475e-11
        </DataArray>
        <DataArray type="Float32" Name="m^w_nanoAu" NumberOfComponents="1" format="ascii">
          5.01173e-15 5.45021e-15 5.38126e-15 5.34259e-15 5.3742e-15 5.41481e-15 5.37627e-15 5.37389e-15 5.40694e-15 5.3649e-15 5.37482e-15 5.38258e-15
          5.39308e-15 5.40072e-15 5.38833e-15 5.39092e-15 5.3825e-15 5.38748e-15 5.38351e-15 5.38904e-15 5.38983e-15 5.6743e-15 4.73537e-14 6.12076e-12
          8.42575e-10 1.07093e-09 1.42746e-09 2.01503e-09 1.02612e-14 1.00979e-14
        </DataArray>
        <DataArray type="Float32" Name="m^w_cyanide" NumberOfComponents="1" format="ascii">
          0.194833 0.194832 0.194832 0.194831 0.19483 0.194829 0.194828 0.194826 0.194825 0.194824 0.194823 0.194822
          0.19482 0.194819 0.194818 0.194816 0.194815 0.194814 0.194812 0.194811 0.194809 0.194808 0.194806 0.194805
          0.194822 0.247499 0.329675 0.470835 0.749621 0.748425
        </DataArray>
        <DataArray type="Float32" Name="m^w_citrate" NumberOfComponents="1" format="ascii">
          0.749742 0.749742 0.749742 0.749742 0.749742 0.749742 0.749742 0.749742 0.749741 0.749741 0.749741 0.749741
          0.749741 0.749741 0.749741 0.749741 0.74974 0.74974 0.74974 0.74974 0.74974 0.74974 0.74974 0.74974
          0.749739 0.749743 0.749746 0.749733 0.749626 0.748427
        </DataArray>
        <DataArray type="Float32" Name="m^w_substrate" NumberOfComponents="1" format="ascii">
          2.7249e-24 1.35852e-23 6.77256e-23 3.37605e-22 1.68281e-21 8.38744e-21 4.18018e-20 2.08319e-19 1.03809e-18 5.1726e-18 2.57723e-17 1.28401e-16
          6.39664e-16 3.18644e-15 1.58719e-14 7.90536e-14 3.93717e-13 1.96073e-12 9.76381e-12 4.86173e-11 2.42065e-10 1.20516e-09 5.99961e-09 2.98655e-08
          1.48659e-07 7.40068e-07 3.69661e-06 1.87901e-05 0.000104709 0.000991882
        </DataArray>
        <DataArray type="Float32" Name="process rank" NumberOfComponents="1" format="ascii">
          0 0 0 0 0 0 0 0 0 0 0 0
          0 0 0 0 0 0 0 0 0 0 0 0
          0 0 0 0 0 0
        </DataArray>
      </CellData>
      <Points>
        <DataArray type="Float32" Name="Coordinates" NumberOfComponents="3" format="ascii">
          0 0 0 0.5 0 0 0 0.0333333 0 0.5 0.0333333 0
          0 0.0666667 0 0.5 0.0666667 0 0 0.1 0 0.5 0.1 0
          0 0.133333 0 0.5 0.133333 0 0 0.166667 0 0.5 0.166667 0
          0 0.2 0 0.5 0.2 0 0 0.233333 0 0.5 0.233333 0
          0 0.266667 0 0.5 0.266667 0 0 0.3 0 0.5 0.3 0
          0 0.333333 0 0.5 0.333333 0 0 0.366667 0 0.5 0.366667 0
          0 0.4 0 0.5 0.4 0 0 0.433333 0 0.5 0.433333 0
          0 0.466667 0 0.5 0.466667 0 0 0.5 0 0.5 0.5 0
          0 0.533333 0 0.5 0.533333 0 0 0.566667 0 0.5 0.566667 0
          0 0.6 0 0.5 0.6 0 0 0.633333 0 0.5 0.633333 0
          0 0.666667 0 0.5 0.666667 0 0 0.7 0 0.5 0.7 0
          0 0.733333 0 0.5 0.733333 0 0 0.766667 0 0.5 0.766667 0
          0 0.8 0 0.5 0.8 0 0 0.833333 0 0.5 0.833333 0
          0 0.866667 0 0.5 0.866667 0 0 0.9 0 0.5 0.9 0
          0 0.933333 0 0.5 0.933333 0 0 0.966667 0 0.5 0.966667 0
          0 1 0 0.5 1 0
        </DataArray>
      </Points>
      <Cells>
        <DataArray type="Int32" Name="connectivity" NumberOfComponents="1" format="ascii">
          0 1 3 2 2 3 5 4 4 5 7 6
          6 7 9 8 8 9 11 10 10 11 13 12
          12 13 15 14 14 15 17 16 16 17 19 18
          18 19 21 20 20 21 23 22 22 23 25 24
          24 25 27 26 26 27 29 28 28 29 31 30
          30 31 33 32 32 33 35 34 34 35 37 36
          36 37 39 38 38 39 41 40 40 41 43 42
          42 43 45 44 44 45 47 46 46 47 49 48
          48 49 51 50 50 51 53 52 52 53 55 54
          54 55 57 56 56 57 59 58 58 59 61 60
        </DataArray>
        <DataArray type="Int32" Name="offsets" NumberOfComponents="1" format="ascii">
          4 8 12 16 20 24 28 32 36 40 44 48
          52 56 60 64 68 72 76 80 84 88 92 96
          100 104 108 112 116 120
        </DataArray>
        <DataArray type="UInt8" Name="types" NumberOfComponents="1" format="ascii">
          9 9 9 9 9 9 9 9 9 9 9 9
          9 9 9 9 9 9 9 9 9 9 9 9
          9 9 9 9 9 9
        </DataArray>
      </Cells>
    </Piece>
  </UnstructuredGrid>
</VTKFile>
