<?xml version="1.0"?>
<VTKFile type="UnstructuredGrid" version="0.1" byte_order="LittleEndian">
  <UnstructuredGrid>
    <Piece NumberOfCells="30" NumberOfPoints="62">
      <CellData Scalars="Sg">
        <DataArray type="Float32" Name="Sg" NumberOfComponents="1" format="ascii">
          0.0987903 0.0987842 0.0987781 0.0987719 0.0987656 0.0987594 0.098753 0.0987466 0.0987402 0.0987337 0.0987272 0.0987206
          0.098714 0.0987073 0.0987005 0.0986937 0.0986869 0.0986799 0.0986729 0.0986656 0.0986563 0.0986361 0.0985548 0.0981611
          0.0963004 0.0882044 0.0572054 0 0 0
        </DataArray>
        <DataArray type="Float32" Name="Sl" NumberOfComponents="1" format="ascii">
          0.90121 0.901216 0.901222 0.901228 0.901234 0.901241 0.901247 0.901253 0.90126 0.901266 0.901273 0.901279
          0.901286 0.901293 0.901299 0.901306 0.901313 0.90132 0.901327 0.901334 0.901344 0.901364 0.901445 0.901839
          0.9037 0.911796 0.942795 1 1 1
        </DataArray>
        <DataArray type="Float32" Name="pg" NumberOfComponents="1" format="ascii">
          52987.9 52659.2 52330.5 52001.8 51673 51344.3 51015.5 50686.8 50358 50029.2 49700.4 49371.6
          49042.7 48713.9 48385 48056.1 47727.2 47398.3 47069.3 46740.3 46410.7 46077.9 45727.7 45288
          44428 41781.9 32574.8 15860.4 15533.5 15206.6
        </DataArray>
        <DataArray type="Float32" Name="pl" NumberOfComponents="1" format="ascii">
          110628 110301 109974 109647 109320 108993 108666 108339 108012 107685 107358 107031
          106704 106377 106050 105723 105396 105070 104743 104416 104089 103762 103435 103108
          102781 102454 102127 101800 101473 101146
        </DataArray>
        <DataArray type="Float32" Name="pc" NumberOfComponents="1" format="ascii">
          -57639.7 -57641.4 -57643.2 -57644.9 -57646.7 -57648.5 -57650.3 -57652.2 -57654 -57655.9 -57657.7 -57659.6
          -57661.5 -57663.4 -57665.4 -57667.3 -57669.3 -57671.3 -57673.3 -57675.4 -57678 -57683.8 -57707.1 -57819.9
          -58352.9 -60672.2 -69552.3 -85939.7 -85939.7 -85939.7
        </DataArray>
        <DataArray type="Float32" Name="rhoL" NumberOfComponents="1" format="ascii">
          999.855 999.855 999.855 999.855 999.855 999.854 999.854 999.854 999.854 999.854 999.854 999.854
          999.853 999.853 999.853 999.853 999.853 999.853 999.852 999.852 999.852 999.852 999.852 999.852
          999.852 999.851 999.851 999.851 999.851 999.851
        </DataArray>
        <DataArray type="Float32" Name="rhoG" NumberOfComponents="1" format="ascii">
          0.656451 0.652379 0.648307 0.644234 0.640162 0.636089 0.632016 0.627943 0.62387 0.619797 0.615723 0.611649
          0.607576 0.603501 0.599427 0.595353 0.591278 0.587203 0.583128 0.579051 0.574968 0.570846 0.566507 0.561059
          0.550405 0.517623 0.403559 0.19649 0.19244 0.18839
        </DataArray>
        <DataArray type="Float32" Name="mobL" NumberOfComponents="1" format="ascii">
          722.171 722.17 722.17 722.17 722.17 722.17 722.169 722.169 722.169 722.169 722.169 722.169
          722.168 722.168 722.168 722.168 722.168 722.167 722.167 722.167 722.167 722.167 722.166 722.166
          722.166 722.166 722.166 722.166 722.165 722.165
        </DataArray>
        <DataArray type="Float32" Name="mobG" NumberOfComponents="1" format="ascii">
          0 0 0 0 0 0 0 0 0 0 0 0
          0 0 0 0 0 0 0 0 0 0 0 0
          0 0 0 0 0 0
        </DataArray>
        <DataArray type="Float32" Name="porosity" NumberOfComponents="1" format="ascii">
          0.298467 0.298467 0.298467 0.298467 0.298467 0.298467 0.298467 0.298467 0.298467 0.298467 0.298467 0.298467
          0.298467 0.298467 0.298467 0.298467 0.298467 0.298467 0.298467 0.298467 0.298467 0.298467 0.298467 0.298467
          0.298197 0.298193 0.298171 0.298054 0.297545 0.273353
        </DataArray>
        <DataArray type="Float32" Name="temperature" NumberOfComponents="1" format="ascii">
          281.15 281.15 281.15 281.15 281.15 281.15 281.15 281.15 281.15 281.15 281.15 281.15
          281.15 281.15 281.15 281.15 281.15 281.15 281.15 281.15 281.15 281.15 281.15 281.15
          281.15 281.15 281.15 281.15 281.15 281.15
        </DataArray>
        <DataArray type="Float32" Name="phase presence" NumberOfComponents="1" format="ascii">
          3 3 3 3 3 3 3 3 3 3 3 3
          3 3 3 3 3 3 3 3 3 3 3 3
          3 3 3 1 1 1
        </DataArray>
        <DataArray type="Float32" Name="precipitateVolumeFraction_au" NumberOfComponents="1" format="ascii">
          2.95665e-10 2.9568e-10 2.95676e-10 2.9568e-10 2.95662e-10 2.95676e-10 2.95667e-10 2.9568e-10 2.95673e-10 2.9567e-10 2.95689e-10 2.95692e-10
          2.95686e-10 2.95696e-10 2.95699e-10 2.95692e-10 2.95705e-10 2.95707e-10 2.957e-10 2.95703e-10 2.95716e-10 2.95714e-10 2.95711e-10 3.03123e-10
          0.000269941 0.000269932 0.000269921 0.000269904 2.9566e-10 2.95238e-10
        </DataArray>
        <DataArray type="Float32" Name="precipitateVolumeFraction_nanoAu" NumberOfComponents="1" format="ascii">
          2.57187e-10 2.572e-10 2.57196e-10 2.57199e-10 2.5718e-10 2.57192e-10 2.57181e-10 2.57191e-10 2.57181e-10 2.57174e-10 2.57188e-10 2.57186e-10
          2.57176e-10 2.57179e-10 2.57176e-10 2.57164e-10 2.57171e-10 2.57166e-10 2.57154e-10 2.57151e-10 2.57158e-10 2.57152e-10 2.57147e-10 2.74892e-10
          5.98967e-08 6.81411e-08 7.96524e-08 9.6089e-08 2.57194e-10 2.56664e-10
        </DataArray>
        <DataArray type="Float32" Name="precipitateVolumeFraction_d" NumberOfComponents="1" format="ascii">
          0.000766711 0.00076671 0.00076671 0.00076671 0.000766709 0.000766709 0.000766708 0.000766708 0.000766708 0.000766707 0.000766707 0.000766706
          0.000766706 0.000766705 0.000766705 0.000766705 0.000766704 0.000766704 0.000766703 0.000766703 0.000766701 0.000766697 0.000766684 0.000766651
          0.000766618 0.000768741 0.000779652 0.000838077 0.00122774 0.0133234
        </DataArray>
        <DataArray type="Float32" Name="precipitateVolumeFraction_p" NumberOfComponents="1" format="ascii">
          0.000766711 0.00076671 0.00076671 0.00076671 0.000766709 0.000766709 0.000766708 0.000766708 0.000766708 0.000766707 0.000766707 0.000766706
          0.000766706 0.000766705 0.000766705 0.000766705 0.000766704 0.000766704 0.000766703 0.000766703 0.000766701 0.000766697 0.000766684 0.000766651
          0.000766618 0.000768741 0.000779652 0.000838077 0.00122774 0.0133234
        </DataArray>
        <DataArray type="Float32" Name="K" NumberOfComponents="1" format="ascii">
          9.80444e-11 9.80444e-11 9.80444e-11 9.80444e-11 9.80444e-11 9.80444e-11 9.80444e-11 9.80444e-11 9.80444e-11 9.80444e-11 9.80444e-11 9.80444e-11
          9.80444e-11 9.80444e-11 9.80444e-11 9.80444e-11 9.80444e-11 9.80444e-11 9.80444e-11 9.80444e-11 9.80444e-11 9.80444e-11 9.80444e-11 9.80445e-11
          9.77036e-11 9.76982e-11 9.76707e-11 9.75234e-11 9.68837e-11 7.02034e-11
        </DataArray>
        <DataArray type="Float32" Name="X^w_H2O" NumberOfComponents="1" format="ascii">
          0.999824 0.999824 0.999825 0.999825 0.999826 0.999826 0.999827 0.999828 0.999829 0.99983 0.999831 0.999831
          0.999832 0.999833 0.999834 0.999835 0.999835 0.999836 0.999836 0.999837 0.999837 0.999837 0.999838 0.999838
          0.999838 0.999837 0.999838 0.999842 0.999839 0.99984
        </DataArray>
        <DataArray type="Float32" Name="X^w_Air" NumberOfComponents="1" format="ascii">
          1.60922e-05 1.59903e-05 1.58884e-05 1.57865e-05 1.56846e-05 1.55827e-05 1.54808e-05 1.53789e-05 1.5277e-05 1.51751e-05 1.50732e-05 1.49713e-05
          1.48693e-05 1.47674e-05 1.46655e-05 1.45635e-05 1.44616e-05 1.43596e-05 1.42577e-05 1.41557e-05 1.40535e-05 1.39504e-05 1.38418e-05 1.37055e-05
          1.34389e-05 1.26187e-05 9.76474e-06 1.9804e-06 1.86226e-08 8.28618e-11
        </DataArray>
        <DataArray type="Float32" Name="X^w_AuComplex" NumberOfComponents="1" format="ascii">
          8.92952e-13 8.80654e-13 8.67527e-13 8.46813e-13 8.2421e-13 7.96139e-13 7.63611e-13 7.28022e-13 6.92024e-13 6.52156e-13 6.0875e-13 5.70302e-13
          5.33845e-13 4.97812e-13 4.66569e-13 4.38159e-13 4.14586e-13 3.9472e-13 3.77357e-13 3.62893e-13 3.52107e-13 3.40328e-13 3.31417e-13 3.51889e-13
          8.7767e-11 1.22738e-10 1.80879e-10 2.83963e-10 9.48395e-13 9.36246e-13
        </DataArray>
        <DataArray type="Float32" Name="X^w_nanoAu" NumberOfComponents="1" format="ascii">
          -3.30241e-16 7.22745e-16 -2.67404e-16 8.64698e-16 1.08377e-16 -4.78361e-17 1.40691e-15 -1.98567e-16 2.14235e-16 1.61202e-15 6.85429e-16 1.07638e-15
          -1.84122e-16 1.94345e-16 1.72131e-15 1.22617e-15 7.13691e-16 2.66738e-16 -1.04506e-16 -4.27804e-18 1.34708e-15 1.70466e-15 1.28993e-15 2.34175e-15
          1.6547e-13 1.87613e-13 2.35792e-13 2.61571e-13 7.04202e-16 6.89865e-16
        </DataArray>
        <DataArray type="Float32" Name="X^w_cyanide" NumberOfComponents="1" format="ascii">
          1.83344e-05 1.80877e-05 1.77709e-05 1.73749e-05 1.68935e-05 1.63248e-05 1.56724e-05 1.49464e-05 1.41629e-05 1.33437e-05 1.25139e-05 1.16994e-05
          1.09241e-05 1.02076e-05 9.5631e-06 8.99692e-06 8.509e-06 8.09422e-06 7.74419e-06 7.44898e-06 7.19858e-06 6.98399e-06 6.79838e-06 6.63811e-06
          6.50322e-06 8.15004e-06 1.04887e-05 1.39477e-05 1.94384e-05 1.92309e-05
        </DataArray>
        <DataArray type="Float32" Name="X^w_citrate" NumberOfComponents="1" format="ascii">
          0.000141826 0.000141826 0.000141825 0.000141824 0.000141823 0.000141822 0.00014182 0.000141818 0.000141816 0.000141814 0.000141811 0.000141809
          0.000141807 0.000141804 0.000141802 0.000141801 0.000141799 0.000141798 0.000141798 0.000141797 0.000141797 0.000141796 0.000141796 0.000141796
          0.000141796 0.000141795 0.00014179 0.000141756 0.000141557 0.0001399
        </DataArray>
        <DataArray type="Float32" Name="X^w_substrate" NumberOfComponents="1" format="ascii">
          -1.41218e-15 -1.55917e-15 -2.46482e-15 7.90902e-16 9.91274e-17 -4.37536e-17 1.76725e-16 -1.29174e-15 -2.02429e-15 3.64326e-16 -4.83188e-16 -1.23572e-15
          2.05183e-15 -2.04248e-15 1.57441e-15 1.14e-17 -4.57339e-16 1.3541e-15 8.78539e-15 4.99516e-14 2.63221e-13 1.40031e-12 7.42901e-12 3.93804e-11
          2.08511e-10 1.10217e-09 5.81939e-09 3.07731e-08 1.72539e-07 1.34062e-06
        </DataArray>
        <DataArray type="Float32" Name="m^w_H2O" NumberOfComponents="1" format="ascii">
          55490.9 55490.9 55491 55491 55491 55491 55491.1 55491.1 55491.1 55491.2 55491.2 55491.3
          55491.3 55491.3 55491.4 55491.4 55491.4 55491.4 55491.5 55491.5 55491.5 55491.5 55491.5 55491.5
          55491.5 55491.5 55491.5 55491.7 55491.5 55491.5
        </DataArray>
        <DataArray type="Float32" Name="m^w_Air" NumberOfComponents="1" format="ascii">
          0.555589 0.552071 0.548554 0.545036 0.541518 0.538 0.534481 0.530963 0.527444 0.523926 0.520407 0.516888
          0.513369 0.509849 0.50633 0.50281 0.49929 0.49577 0.49225 0.488728 0.485201 0.48164 0.477892 0.473186
          0.463982 0.435663 0.33713 0.0683736 0.000642951 2.86082e-06
        </DataArray>
        <DataArray type="Float32" Name="m^w_AuComplex" NumberOfComponents="1" format="ascii">
          4.53279e-09 4.47036e-09 4.40372e-09 4.29857e-09 4.18384e-09 4.04134e-09 3.87622e-09 3.69556e-09 3.51283e-09 3.31046e-09 3.09012e-09 2.89495e-09
          2.70989e-09 2.52698e-09 2.36839e-09 2.22417e-09 2.10451e-09 2.00367e-09 1.91553e-09 1.84211e-09 1.78736e-09 1.72756e-09 1.68233e-09 1.78624e-09
          4.4552e-07 6.23036e-07 9.18169e-07 1.44144e-06 4.81421e-09 4.75253e-09
        </DataArray>
        <DataArray type="Float32" Name="m^w_nanoAu" NumberOfComponents="1" format="ascii">
          -1.67636e-12 3.66878e-12 -1.35739e-12 4.38936e-12 5.50139e-13 -2.42824e-13 7.14175e-12 -1.00796e-12 1.08749e-12 8.1829e-12 3.47936e-12 5.46388e-12
          -9.34635e-13 9.86528e-13 8.73765e-12 6.22423e-12 3.62282e-12 1.35401e-12 -5.30492e-13 -2.1716e-14 6.83801e-12 8.65313e-12 6.5479e-12 1.18871e-11
          8.3995e-10 9.52355e-10 1.19692e-09 1.32778e-09 3.57464e-12 3.50186e-12
        </DataArray>
        <DataArray type="Float32" Name="m^w_cyanide" NumberOfComponents="1" format="ascii">
          0.704526 0.695044 0.68287 0.667655 0.649157 0.627303 0.602234 0.574334 0.544229 0.512751 0.480864 0.449564
          0.419773 0.392241 0.367475 0.345719 0.32697 0.311031 0.297581 0.286237 0.276615 0.268369 0.261236 0.255078
          0.249894 0.313176 0.403041 0.535956 0.746943 0.738969
        </DataArray>
        <DataArray type="Float32" Name="m^w_citrate" NumberOfComponents="1" format="ascii">
          0.749901 0.749898 0.749895 0.74989 0.749884 0.749877 0.749869 0.749859 0.749847 0.749835 0.749822 0.749809
          0.749797 0.749785 0.749774 0.749765 0.749758 0.749752 0.749748 0.749745 0.749743 0.749741 0.74974 0.749739
          0.749737 0.749735 0.749706 0.74953 0.748473 0.739715
        </DataArray>
        <DataArray type="Float32" Name="m^w_substrate" NumberOfComponents="1" format="ascii">
          -7.83732e-12 -8.65312e-12 -1.36793e-11 4.38936e-12 5.50139e-13 -2.42824e-13 9.80793e-13 -7.16892e-12 -1.12344e-11 2.02194e-12 -2.6816e-12 -6.85803e-12
          1.13873e-11 -1.13354e-11 8.73765e-12 6.32679e-14 -2.53814e-12 7.51497e-12 4.87572e-11 2.77221e-10 1.46082e-09 7.77146e-09 4.12295e-08 2.18553e-07
          1.1572e-06 6.11684e-06 3.22964e-05 0.000170784 0.000957554 0.00744017
        </DataArray>
        <DataArray type="Float32" Name="process rank" NumberOfComponents="1" format="ascii">
          0 0 0 0 0 0 0 0 0 0 0 0
          0 0 0 0 0 0 0 0 0 0 0 0
          0 0 0 0 0 0
        </DataArray>
      </CellData>
      <Points>
        <DataArray type="Float32" Name="Coordinates" NumberOfComponents="3" format="ascii">
          0 0 0 0.5 0 0 0 0.0333333 0 0.5 0.0333333 0
          0 0.0666667 0 0.5 0.0666667 0 0 0.1 0 0.5 0.1 0
          0 0.133333 0 0.5 0.133333 0 0 0.166667 0 0.5 0.166667 0
          0 0.2 0 0.5 0.2 0 0 0.233333 0 0.5 0.233333 0
          0 0.266667 0 0.5 0.266667 0 0 0.3 0 0.5 0.3 0
          0 0.333333 0 0.5 0.333333 0 0 0.366667 0 0.5 0.366667 0
          0 0.4 0 0.5 0.4 0 0 0.433333 0 0.5 0.433333 0
          0 0.466667 0 0.5 0.466667 0 0 0.5 0 0.5 0.5 0
          0 0.533333 0 0.5 0.533333 0 0 0.566667 0 0.5 0.566667 0
          0 0.6 0 0.5 0.6 0 0 0.633333 0 0.5 0.633333 0
          0 0.666667 0 0.5 0.666667 0 0 0.7 0 0.5 0.7 0
          0 0.733333 0 0.5 0.733333 0 0 0.766667 0 0.5 0.766667 0
          0 0.8 0 0.5 0.8 0 0 0.833333 0 0.5 0.833333 0
          0 0.866667 0 0.5 0.866667 0 0 0.9 0 0.5 0.9 0
          0 0.933333 0 0.5 0.933333 0 0 0.966667 0 0.5 0.966667 0
          0 1 0 0.5 1 0
        </DataArray>
      </Points>
      <Cells>
        <DataArray type="Int32" Name="connectivity" NumberOfComponents="1" format="ascii">
          0 1 3 2 2 3 5 4 4 5 7 6
          6 7 9 8 8 9 11 10 10 11 13 12
          12 13 15 14 14 15 17 16 16 17 19 18
          18 19 21 20 20 21 23 22 22 23 25 24
          24 25 27 26 26 27 29 28 28 29 31 30
          30 31 33 32 32 33 35 34 34 35 37 36
          36 37 39 38 38 39 41 40 40 41 43 42
          42 43 45 44 44 45 47 46 46 47 49 48
          48 49 51 50 50 51 53 52 52 53 55 54
          54 55 57 56 56 57 59 58 58 59 61 60
        </DataArray>
        <DataArray type="Int32" Name="offsets" NumberOfComponents="1" format="ascii">
          4 8 12 16 20 24 28 32 36 40 44 48
          52 56 60 64 68 72 76 80 84 88 92 96
          100 104 108 112 116 120
        </DataArray>
        <DataArray type="UInt8" Name="types" NumberOfComponents="1" format="ascii">
          9 9 9 9 9 9 9 9 9 9 9 9
          9 9 9 9 9 9 9 9 9 9 9 9
          9 9 9 9 9 9
        </DataArray>
      </Cells>
    </Piece>
  </UnstructuredGrid>
</VTKFile>
