<?xml version="1.0"?>
<VTKFile type="UnstructuredGrid" version="0.1" byte_order="LittleEndian">
  <UnstructuredGrid>
    <Piece NumberOfCells="30" NumberOfPoints="62">
      <CellData Scalars="Sg">
        <DataArray type="Float32" Name="Sg" NumberOfComponents="1" format="ascii">
          0.0968501 0.0968362 0.0968223 0.0968082 0.0967939 0.0967796 0.0967652 0.0967506 0.0967359 0.0967211 0.0967062 0.0966911
          0.0966759 0.0966606 0.0966448 0.0966278 0.0966053 0.0965578 0.0964004 0.0957717 0.0931736 0.0826555 0.0438026 0
          0 0 0 0 0 0
        </DataArray>
        <DataArray type="Float32" Name="Sl" NumberOfComponents="1" format="ascii">
          0.90315 0.903164 0.903178 0.903192 0.903206 0.90322 0.903235 0.903249 0.903264 0.903279 0.903294 0.903309
          0.903324 0.903339 0.903355 0.903372 0.903395 0.903442 0.9036 0.904228 0.906826 0.917344 0.956197 1
          1 1 1 1 1 1
        </DataArray>
        <DataArray type="Float32" Name="pg" NumberOfComponents="1" format="ascii">
          52432.1 52101.2 51770.2 51439.2 51108.2 50777.2 50446.1 50115 49783.8 49452.6 49121.4 48790.2
          48458.9 48127.5 47796.1 47464.3 47130.9 46790.3 46418.3 45911.3 44840 41500.1 30043.1 17168.2
          16841.3 16514.3 16187.4 15860.4 15533.5 15206.6
        </DataArray>
        <DataArray type="Float32" Name="pl" NumberOfComponents="1" format="ascii">
          110628 110301 109974 109647 109320 108993 108666 108339 108012 107685 107358 107031
          106704 106377 106050 105723 105396 105070 104743 104416 104089 103762 103435 103108
          102781 102454 102127 101800 101473 101146
        </DataArray>
        <DataArray type="Float32" Name="pc" NumberOfComponents="1" format="ascii">
          -58195.5 -58199.4 -58203.4 -58207.5 -58211.5 -58215.7 -58219.8 -58224 -58228.2 -58232.4 -58236.7 -58241
          -58245.4 -58249.8 -58254.3 -58259.1 -58265.6 -58279.2 -58324.3 -58504.4 -59248.7 -62261.7 -73391.7 -85939.7
          -85939.7 -85939.7 -85939.7 -85939.7 -85939.7 -85939.7
        </DataArray>
        <DataArray type="Float32" Name="rhoL" NumberOfComponents="1" format="ascii">
          999.855 999.855 999.855 999.855 999.855 999.854 999.854 999.854 999.854 999.854 999.854 999.854
          999.853 999.853 999.853 999.853 999.853 999.853 999.852 999.852 999.852 999.852 999.852 999.852
          999.852 999.851 999.851 999.851 999.851 999.851
        </DataArray>
        <DataArray type="Float32" Name="rhoG" NumberOfComponents="1" format="ascii">
          0.649565 0.645466 0.641366 0.637265 0.633164 0.629063 0.624962 0.620859 0.616757 0.612654 0.608551 0.604447
          0.600343 0.596238 0.592131 0.588021 0.58389 0.579671 0.575063 0.568781 0.55551 0.514132 0.372195 0.212692
          0.208641 0.204591 0.200541 0.19649 0.19244 0.18839
        </DataArray>
        <DataArray type="Float32" Name="mobL" NumberOfComponents="1" format="ascii">
          722.171 722.17 722.17 722.17 722.17 722.17 722.169 722.169 722.169 722.169 722.169 722.169
          722.168 722.168 722.168 722.168 722.168 722.167 722.167 722.167 722.167 722.167 722.166 722.166
          722.166 722.166 722.166 722.166 722.165 722.165
        </DataArray>
        <DataArray type="Float32" Name="mobG" NumberOfComponents="1" format="ascii">
          0 0 0 0 0 0 0 0 0 0 0 0
          0 0 0 0 0 0 0 0 0 0 0 0
          0 0 0 0 0 0
        </DataArray>
        <DataArray type="Float32" Name="porosity" NumberOfComponents="1" format="ascii">
          0.298481 0.298481 0.298481 0.298481 0.298481 0.298481 0.298481 0.298481 0.298481 0.298481 0.298481 0.298481
          0.298481 0.298481 0.298481 0.298481 0.298481 0.298481 0.298481 0.298481 0.298481 0.298481 0.298481 0.298481
          0.298211 0.298206 0.29818 0.298041 0.297324 0.243915
        </DataArray>
        <DataArray type="Float32" Name="temperature" NumberOfComponents="1" format="ascii">
          281.15 281.15 281.15 281.15 281.15 281.15 281.15 281.15 281.15 281.15 281.15 281.15
          281.15 281.15 281.15 281.15 281.15 281.15 281.15 281.15 281.15 281.15 281.15 281.15
          281.15 281.15 281.15 281.15 281.15 281.15
        </DataArray>
        <DataArray type="Float32" Name="phase presence" NumberOfComponents="1" format="ascii">
          3 3 3 3 3 3 3 3 3 3 3 3
          3 3 3 3 3 3 3 3 3 3 3 1
          1 1 1 1 1 1
        </DataArray>
        <DataArray type="Float32" Name="precipitateVolumeFraction_au" NumberOfComponents="1" format="ascii">
          4.43946e-10 4.43973e-10 4.43972e-10 4.43981e-10 4.43956e-10 4.43981e-10 4.43969e-10 4.43991e-10 4.43981e-10 4.43977e-10 4.44007e-10 4.4401e-10
          4.44001e-10 4.44014e-10 4.44017e-10 4.44005e-10 4.44022e-10 4.44023e-10 4.44009e-10 4.44012e-10 4.44029e-10 4.44024e-10 4.44022e-10 4.703e-10
          0.000269937 0.000269922 0.000269902 0.00026987 4.43859e-10 4.43059e-10
        </DataArray>
        <DataArray type="Float32" Name="precipitateVolumeFraction_nanoAu" NumberOfComponents="1" format="ascii">
          1.08911e-10 1.08912e-10 1.08905e-10 1.08902e-10 1.0889e-10 1.08891e-10 1.08883e-10 1.08884e-10 1.08876e-10 1.08871e-10 1.08874e-10 1.0887e-10
          1.08864e-10 1.08864e-10 1.08861e-10 1.08855e-10 1.08856e-10 1.08853e-10 1.08847e-10 1.08845e-10 1.08848e-10 1.08845e-10 1.08848e-10 1.33279e-10
          6.40669e-08 7.816e-08 9.87686e-08 1.3064e-07 1.09001e-10 1.08649e-10
        </DataArray>
        <DataArray type="Float32" Name="precipitateVolumeFraction_d" NumberOfComponents="1" format="ascii">
          0.000759614 0.000759614 0.000759613 0.000759613 0.000759613 0.000759612 0.000759612 0.000759611 0.000759611 0.000759611 0.00075961 0.00075961
          0.000759609 0.000759609 0.000759609 0.000759608 0.000759608 0.000759607 0.000759607 0.000759606 0.000759605 0.000759601 0.000759591 0.000759572
          0.000759611 0.000762089 0.000774902 0.000844441 0.00133777 0.0280427
        </DataArray>
        <DataArray type="Float32" Name="precipitateVolumeFraction_p" NumberOfComponents="1" format="ascii">
          0.000759614 0.000759614 0.000759613 0.000759613 0.000759613 0.000759612 0.000759612 0.000759611 0.000759611 0.000759611 0.00075961 0.00075961
          0.000759609 0.000759609 0.000759609 0.000759608 0.000759608 0.000759607 0.000759607 0.000759606 0.000759605 0.000759601 0.000759591 0.000759572
          0.000759611 0.000762089 0.000774902 0.000844441 0.00133777 0.0280427
        </DataArray>
        <DataArray type="Float32" Name="K" NumberOfComponents="1" format="ascii">
          9.80623e-11 9.80623e-11 9.80623e-11 9.80623e-11 9.80623e-11 9.80623e-11 9.80623e-11 9.80623e-11 9.80623e-11 9.80623e-11 9.80623e-11 9.80623e-11
          9.80623e-11 9.80623e-11 9.80623e-11 9.80623e-11 9.80623e-11 9.80623e-11 9.80624e-11 9.80624e-11 9.80624e-11 9.80624e-11 9.80624e-11 9.80624e-11
          9.77212e-11 9.7715e-11 9.76827e-11 9.75074e-11 9.66083e-11 4.60685e-11
        </DataArray>
        <DataArray type="Float32" Name="X^w_H2O" NumberOfComponents="1" format="ascii">
          0.999835 0.999836 0.999836 0.999836 0.999836 0.999837 0.999837 0.999837 0.999837 0.999837 0.999838 0.999838
          0.999838 0.999838 0.999838 0.999838 0.999838 0.999839 0.999839 0.999839 0.999839 0.99984 0.999844 0.999852
          0.999853 0.999851 0.999849 0.999846 0.999839 0.999839
        </DataArray>
        <DataArray type="Float32" Name="X^w_Air" NumberOfComponents="1" format="ascii">
          1.592e-05 1.58174e-05 1.57148e-05 1.56122e-05 1.55096e-05 1.5407e-05 1.53044e-05 1.52017e-05 1.50991e-05 1.49964e-05 1.48938e-05 1.47911e-05
          1.46884e-05 1.45857e-05 1.44829e-05 1.43801e-05 1.42767e-05 1.41712e-05 1.40559e-05 1.38987e-05 1.35667e-05 1.25313e-05 8.98e-06 8.94462e-07
          1.06857e-08 1.24548e-10 1.38778e-12 1.42622e-14 1.14992e-16 4.1589e-20
        </DataArray>
        <DataArray type="Float32" Name="X^w_AuComplex" NumberOfComponents="1" format="ascii">
          1.4309e-13 1.39279e-13 1.37093e-13 1.32398e-13 1.29364e-13 1.27595e-13 1.25962e-13 1.23463e-13 1.20788e-13 1.19205e-13 1.19512e-13 1.18152e-13
          1.18708e-13 1.16318e-13 1.14961e-13 1.13961e-13 1.12693e-13 1.12525e-13 1.12724e-13 1.11237e-13 1.1205e-13 1.09465e-13 1.18335e-13 1.39359e-13
          7.56135e-11 1.14844e-10 1.88309e-10 3.42491e-10 4.02852e-13 3.9942e-13
        </DataArray>
        <DataArray type="Float32" Name="X^w_nanoAu" NumberOfComponents="1" format="ascii">
          -1.27285e-16 -2.9637e-16 -5.50404e-17 1.31806e-15 -5.01827e-16 1.55732e-16 -2.6272e-16 8.78554e-16 -5.82647e-16 2.62461e-16 1.78248e-15 4.22933e-16
          -2.347e-16 -1.97179e-16 -3.41169e-16 -1.27378e-16 -1.81252e-16 -3.49022e-16 -1.50157e-16 7.90197e-16 3.88672e-16 2.31514e-16 6.67417e-15 1.56935e-15
          1.75956e-13 2.14725e-13 2.71422e-13 3.55741e-13 2.98747e-16 2.94106e-16
        </DataArray>
        <DataArray type="Float32" Name="X^w_cyanide" NumberOfComponents="1" format="ascii">
          6.95512e-06 6.75479e-06 6.5806e-06 6.42904e-06 6.29685e-06 6.18116e-06 6.07946e-06 5.98963e-06 5.90988e-06 5.83875e-06 5.77498e-06 5.71755e-06
          5.66559e-06 5.61835e-06 5.57521e-06 5.53567e-06 5.49929e-06 5.46576e-06 5.43483e-06 5.40632e-06 5.38009e-06 5.35597e-06 5.33369e-06 5.31262e-06
          5.29247e-06 6.77127e-06 9.02294e-06 1.2726e-05 1.94802e-05 1.93794e-05
        </DataArray>
        <DataArray type="Float32" Name="X^w_citrate" NumberOfComponents="1" format="ascii">
          0.000141797 0.000141796 0.000141796 0.000141796 0.000141795 0.000141795 0.000141795 0.000141795 0.000141795 0.000141795 0.000141795 0.000141795
          0.000141795 0.000141795 0.000141795 0.000141795 0.000141795 0.000141795 0.000141795 0.000141795 0.000141795 0.000141795 0.000141795 0.000141796
          0.000141796 0.000141797 0.000141795 0.000141781 0.000141694 0.000140898
        </DataArray>
        <DataArray type="Float32" Name="X^w_substrate" NumberOfComponents="1" format="ascii">
          9.93699e-16 -1.3812e-15 -1.16047e-15 9.5452e-17 -1.56912e-15 1.42441e-16 -2.46054e-15 -1.41667e-15 -1.64304e-15 2.40061e-16 -5.89888e-16 -7.23284e-16
          -1.32479e-15 -1.80351e-16 7.9807e-16 2.10374e-15 -1.27591e-15 1.90101e-15 4.30315e-15 2.18151e-14 1.21359e-13 6.42974e-13 3.28653e-12 1.77627e-11
          9.24955e-11 4.81654e-10 2.51467e-09 1.33077e-08 7.55748e-08 6.3668e-07
        </DataArray>
        <DataArray type="Float32" Name="m^w_H2O" NumberOfComponents="1" format="ascii">
          55491.6 55491.6 55491.6 55491.6 55491.6 55491.6 55491.6 55491.6 55491.6 55491.6 55491.6 55491.6
          55491.6 55491.6 55491.6 55491.6 55491.6 55491.6 55491.6 55491.6 55491.6 55491.7 55491.9 55492.3
          55492.3 55492.2 55492.1 55491.9 55491.5 55491.5
        </DataArray>
        <DataArray type="Float32" Name="m^w_Air" NumberOfComponents="1" format="ascii">
          0.549643 0.546101 0.54256 0.539017 0.535475 0.531932 0.528389 0.524845 0.521301 0.517757 0.514212 0.510667
          0.507121 0.503575 0.500028 0.496477 0.492909 0.489264 0.485283 0.479856 0.468392 0.432648 0.310037 0.0308816
          0.000368928 4.30005e-06 4.79136e-08 4.92406e-10 3.97012e-12 1.43587e-15
        </DataArray>
        <DataArray type="Float32" Name="m^w_AuComplex" NumberOfComponents="1" format="ascii">
          7.26349e-10 7.07008e-10 6.95911e-10 6.72076e-10 6.56677e-10 6.47693e-10 6.39408e-10 6.26718e-10 6.1314e-10 6.05107e-10 6.06662e-10 5.99761e-10
          6.02584e-10 5.90452e-10 5.8356e-10 5.78484e-10 5.7205e-10 5.71198e-10 5.72208e-10 5.64659e-10 5.68782e-10 5.55662e-10 6.00689e-10 7.07411e-10
          3.83826e-07 5.82965e-07 9.55885e-07 1.73854e-06 2.04494e-09 2.02752e-09
        </DataArray>
        <DataArray type="Float32" Name="m^w_nanoAu" NumberOfComponents="1" format="ascii">
          -6.46124e-13 -1.50443e-12 -2.79395e-13 6.69072e-12 -2.54736e-12 7.90522e-13 -1.33361e-12 4.45969e-12 -2.95762e-12 1.33229e-12 9.04817e-12 2.14688e-12
          -1.19138e-12 -1.00091e-12 -1.73183e-12 -6.46593e-13 -9.20065e-13 -1.77169e-12 -7.62224e-13 4.01117e-12 1.97296e-12 1.17521e-12 3.38791e-11 7.96628e-12
          8.93183e-10 1.08998e-09 1.37778e-09 1.8058e-09 1.51649e-12 1.49293e-12
        </DataArray>
        <DataArray type="Float32" Name="m^w_cyanide" NumberOfComponents="1" format="ascii">
          0.26726 0.259562 0.252869 0.247045 0.241965 0.237519 0.233611 0.23016 0.227095 0.224362 0.221912 0.219705
          0.217708 0.215893 0.214235 0.212715 0.211317 0.210029 0.20884 0.207745 0.206737 0.20581 0.204954 0.204144
          0.20337 0.260194 0.346718 0.489014 0.74855 0.744676
        </DataArray>
        <DataArray type="Float32" Name="m^w_citrate" NumberOfComponents="1" format="ascii">
          0.749745 0.749743 0.749741 0.74974 0.749739 0.749738 0.749737 0.749736 0.749736 0.749735 0.749735 0.749735
          0.749734 0.749734 0.749734 0.749733 0.749733 0.749733 0.749732 0.749732 0.749732 0.749733 0.749735 0.749741
          0.749741 0.749743 0.749734 0.749659 0.7492 0.744993
        </DataArray>
        <DataArray type="Float32" Name="m^w_substrate" NumberOfComponents="1" format="ascii">
          5.51485e-12 -7.6654e-12 -6.44037e-12 5.29741e-13 -8.70834e-12 7.90522e-13 -1.36556e-11 -7.86225e-12 -9.11859e-12 1.33229e-12 -3.27377e-12 -4.01409e-12
          -7.35234e-12 -1.00091e-12 4.42914e-12 1.16753e-11 -7.08103e-12 1.05502e-11 2.38816e-11 1.2107e-10 6.73518e-10 3.56837e-09 1.82396e-08 9.85795e-08
          5.13331e-07 2.67308e-06 1.39559e-05 7.38552e-05 0.000419425 0.00353344
        </DataArray>
        <DataArray type="Float32" Name="process rank" NumberOfComponents="1" format="ascii">
          0 0 0 0 0 0 0 0 0 0 0 0
          0 0 0 0 0 0 0 0 0 0 0 0
          0 0 0 0 0 0
        </DataArray>
      </CellData>
      <Points>
        <DataArray type="Float32" Name="Coordinates" NumberOfComponents="3" format="ascii">
          0 0 0 0.5 0 0 0 0.0333333 0 0.5 0.0333333 0
          0 0.0666667 0 0.5 0.0666667 0 0 0.1 0 0.5 0.1 0
          0 0.133333 0 0.5 0.133333 0 0 0.166667 0 0.5 0.166667 0
          0 0.2 0 0.5 0.2 0 0 0.233333 0 0.5 0.233333 0
          0 0.266667 0 0.5 0.266667 0 0 0.3 0 0.5 0.3 0
          0 0.333333 0 0.5 0.333333 0 0 0.366667 0 0.5 0.366667 0
          0 0.4 0 0.5 0.4 0 0 0.433333 0 0.5 0.433333 0
          0 0.466667 0 0.5 0.466667 0 0 0.5 0 0.5 0.5 0
          0 0.533333 0 0.5 0.533333 0 0 0.566667 0 0.5 0.566667 0
          0 0.6 0 0.5 0.6 0 0 0.633333 0 0.5 0.633333 0
          0 0.666667 0 0.5 0.666667 0 0 0.7 0 0.5 0.7 0
          0 0.733333 0 0.5 0.733333 0 0 0.766667 0 0.5 0.766667 0
          0 0.8 0 0.5 0.8 0 0 0.833333 0 0.5 0.833333 0
          0 0.866667 0 0.5 0.866667 0 0 0.9 0 0.5 0.9 0
          0 0.933333 0 0.5 0.933333 0 0 0.966667 0 0.5 0.966667 0
          0 1 0 0.5 1 0
        </DataArray>
      </Points>
      <Cells>
        <DataArray type="Int32" Name="connectivity" NumberOfComponents="1" format="ascii">
          0 1 3 2 2 3 5 4 4 5 7 6
          6 7 9 8 8 9 11 10 10 11 13 12
          12 13 15 14 14 15 17 16 16 17 19 18
          18 19 21 20 20 21 23 22 22 23 25 24
          24 25 27 26 26 27 29 28 28 29 31 30
          30 31 33 32 32 33 35 34 34 35 37 36
          36 37 39 38 38 39 41 40 40 41 43 42
          42 43 45 44 44 45 47 46 46 47 49 48
          48 49 51 50 50 51 53 52 52 53 55 54
          54 55 57 56 56 57 59 58 58 59 61 60
        </DataArray>
        <DataArray type="Int32" Name="offsets" NumberOfComponents="1" format="ascii">
          4 8 12 16 20 24 28 32 36 40 44 48
          52 56 60 64 68 72 76 80 84 88 92 96
          100 104 108 112 116 120
        </DataArray>
        <DataArray type="UInt8" Name="types" NumberOfComponents="1" format="ascii">
          9 9 9 9 9 9 9 9 9 9 9 9
          9 9 9 9 9 9 9 9 9 9 9 9
          9 9 9 9 9 9
        </DataArray>
      </Cells>
    </Piece>
  </UnstructuredGrid>
</VTKFile>
