<?xml version="1.0"?>
<VTKFile type="UnstructuredGrid" version="0.1" byte_order="LittleEndian">
  <UnstructuredGrid>
    <Piece NumberOfCells="30" NumberOfPoints="62">
      <CellData Scalars="Sg">
        <DataArray type="Float32" Name="Sg" NumberOfComponents="1" format="ascii">
          0 0 0 0 0 0 0 0 0 0 0 0
          0 0 0 0 0 0 0 0 0 0 0 0
          0 0 0 0 0 0
        </DataArray>
        <DataArray type="Float32" Name="Sl" NumberOfComponents="1" format="ascii">
          1 1 1 1 1 1 1 1 1 1 1 1
          1 1 1 1 1 1 1 1 1 1 1 1
          1 1 1 1 1 1
        </DataArray>
        <DataArray type="Float32" Name="pg" NumberOfComponents="1" format="ascii">
          24687.8 24360.9 24034 23707 23380.1 23053.1 22726.2 22399.3 22072.3 21745.4 21418.4 21091.5
          20764.6 20437.6 20110.7 19783.7 19456.8 19129.8 18802.9 18476 18149 17822.1 17495.1 17168.2
          16841.3 16514.3 16187.4 15860.4 15533.5 15208.9
        </DataArray>
        <DataArray type="Float32" Name="pl" NumberOfComponents="1" format="ascii">
          110628 110301 109974 109647 109320 108993 108666 108339 108012 107685 107358 107031
          106704 106377 106050 105723 105396 105070 104743 104416 104089 103762 103435 103108
          102781 102454 102127 101800 101473 101149
        </DataArray>
        <DataArray type="Float32" Name="pc" NumberOfComponents="1" format="ascii">
          -85939.7 -85939.7 -85939.7 -85939.7 -85939.7 -85939.7 -85939.7 -85939.7 -85939.7 -85939.7 -85939.7 -85939.7
          -85939.7 -85939.7 -85939.7 -85939.7 -85939.7 -85939.7 -85939.7 -85939.7 -85939.7 -85939.7 -85939.7 -85939.7
          -85939.7 -85939.7 -85939.7 -85939.7 -85939.7 -85939.7
        </DataArray>
        <DataArray type="Float32" Name="rhoL" NumberOfComponents="1" format="ascii">
          999.855 999.855 999.855 999.855 999.855 999.854 999.854 999.854 999.854 999.854 999.854 999.854
          999.853 999.853 999.853 999.853 999.853 999.853 999.852 999.852 999.852 999.852 999.852 999.852
          999.852 999.851 999.851 999.851 999.851 999.851
        </DataArray>
        <DataArray type="Float32" Name="rhoG" NumberOfComponents="1" format="ascii">
          0.30585 0.3018 0.29775 0.293699 0.289649 0.285598 0.281548 0.277498 0.273447 0.269397 0.265347 0.261296
          0.257246 0.253195 0.249145 0.245095 0.241044 0.236994 0.232944 0.228893 0.224843 0.220793 0.216742 0.212692
          0.208641 0.204591 0.200541 0.19649 0.19244 0.188419
        </DataArray>
        <DataArray type="Float32" Name="mobL" NumberOfComponents="1" format="ascii">
          722.171 722.17 722.17 722.17 722.17 722.17 722.169 722.169 722.169 722.169 722.169 722.169
          722.168 722.168 722.168 722.168 722.168 722.167 722.167 722.167 722.167 722.167 722.166 722.166
          722.166 722.166 722.166 722.166 722.165 722.165
        </DataArray>
        <DataArray type="Float32" Name="mobG" NumberOfComponents="1" format="ascii">
          0 0 0 0 0 0 0 0 0 0 0 0
          0 0 0 0 0 0 0 0 0 0 0 0
          0 0 0 0 0 0
        </DataArray>
        <DataArray type="Float32" Name="porosity" NumberOfComponents="1" format="ascii">
          0.298733 0.298732 0.298732 0.298732 0.298732 0.298731 0.298731 0.29873 0.298728 0.298726 0.298724 0.29872
          0.298716 0.298709 0.2987 0.298688 0.298672 0.29865 0.298621 0.29858 0.298525 0.298447 0.298336 0.298171
          0.297642 0.297199 0.296325 0.294091 0.283907 0.0487354
        </DataArray>
        <DataArray type="Float32" Name="temperature" NumberOfComponents="1" format="ascii">
          281.15 281.15 281.15 281.15 281.15 281.15 281.15 281.15 281.15 281.15 281.15 281.15
          281.15 281.15 281.15 281.15 281.15 281.15 281.15 281.15 281.15 281.15 281.15 281.15
          281.15 281.15 281.15 281.15 281.15 281.15
        </DataArray>
        <DataArray type="Float32" Name="phase presence" NumberOfComponents="1" format="ascii">
          1 1 1 1 1 1 1 1 1 1 1 1
          1 1 1 1 1 1 1 1 1 1 1 1
          1 1 1 1 1 1
        </DataArray>
        <DataArray type="Float32" Name="precipitateVolumeFraction_au" NumberOfComponents="1" format="ascii">
          5.52643e-10 5.52784e-10 5.52753e-10 5.52763e-10 5.52748e-10 5.52787e-10 5.52707e-10 5.52773e-10 5.52786e-10 5.52739e-10 5.52744e-10 5.52796e-10
          5.52781e-10 5.52701e-10 5.52759e-10 5.52725e-10 5.52745e-10 5.52755e-10 5.52744e-10 5.52758e-10 5.52773e-10 5.52777e-10 5.52994e-10 1.01952e-09
          0.00026994 0.000269924 0.0002699 0.000269853 5.52281e-10 5.51217e-10
        </DataArray>
        <DataArray type="Float32" Name="precipitateVolumeFraction_nanoAu" NumberOfComponents="1" format="ascii">
          1.23657e-13 1.23688e-13 1.23681e-13 1.23683e-13 1.23679e-13 1.23688e-13 1.2367e-13 1.23684e-13 1.23687e-13 1.23676e-13 1.23677e-13 1.23688e-13
          1.23684e-13 1.23665e-13 1.23677e-13 1.23668e-13 1.23671e-13 1.23671e-13 1.23666e-13 1.23665e-13 1.23662e-13 1.23672e-13 1.3565e-13 2.57966e-11
          6.03725e-08 7.6695e-08 1.02156e-07 1.45571e-07 4.7416e-13 4.67063e-13
        </DataArray>
        <DataArray type="Float32" Name="precipitateVolumeFraction_d" NumberOfComponents="1" format="ascii">
          0.000633695 0.000633757 0.000633845 0.000633969 0.000634143 0.000634387 0.000634729 0.000635206 0.000635869 0.000636788 0.000638054 0.000639795
          0.000642176 0.000645421 0.000649828 0.000655798 0.000663871 0.000674788 0.000689586 0.000709753 0.000737505 0.000776304 0.000831872 0.000914413
          0.00104397 0.00126569 0.00170231 0.00281954 0.00804649 0.125632
        </DataArray>
        <DataArray type="Float32" Name="precipitateVolumeFraction_p" NumberOfComponents="1" format="ascii">
          0.000633695 0.000633757 0.000633845 0.000633969 0.000634143 0.000634387 0.000634729 0.000635206 0.000635869 0.000636788 0.000638054 0.000639795
          0.000642176 0.000645421 0.000649828 0.000655798 0.000663871 0.000674788 0.000689586 0.000709753 0.000737505 0.000776304 0.000831872 0.000914413
          0.00104397 0.00126569 0.00170231 0.00281954 0.00804649 0.125632
        </DataArray>
        <DataArray type="Float32" Name="K" NumberOfComponents="1" format="ascii">
          9.83814e-11 9.83812e-11 9.8381e-11 9.83807e-11 9.83802e-11 9.83796e-11 9.83788e-11 9.83775e-11 9.83759e-11 9.83735e-11 9.83703e-11 9.83659e-11
          9.83599e-11 9.83516e-11 9.83405e-11 9.83253e-11 9.83049e-11 9.82772e-11 9.82397e-11 9.81886e-11 9.81183e-11 9.80201e-11 9.78796e-11 9.76713e-11
          9.70059e-11 9.64512e-11 9.53663e-11 9.2636e-11 8.09882e-11 2.32147e-13
        </DataArray>
        <DataArray type="Float32" Name="X^w_H2O" NumberOfComponents="1" format="ascii">
          0.999846 0.999846 0.999846 0.999846 0.999846 0.999846 0.999846 0.999846 0.999846 0.999846 0.999846 0.999846
          0.999846 0.999846 0.999846 0.999846 0.999846 0.999846 0.999846 0.999846 0.999846 0.999846 0.999846 0.999846
          0.999846 0.999845 0.999843 0.999839 0.999832 0.999833
        </DataArray>
        <DataArray type="Float32" Name="X^w_Air" NumberOfComponents="1" format="ascii">
          0 0 0 0 0 0 0 0 0 0 0 0
          0 0 0 0 0 0 0 0 0 0 0 0
          0 0 0 0 0 0
        </DataArray>
        <DataArray type="Float32" Name="X^w_AuComplex" NumberOfComponents="1" format="ascii">
          1.41105e-16 1.41141e-16 1.41132e-16 1.41134e-16 1.4113e-16 1.4114e-16 1.41119e-16 1.41135e-16 1.41138e-16 1.41125e-16 1.41126e-16 1.41138e-16
          1.41133e-16 1.41111e-16 1.41124e-16 1.41112e-16 1.41114e-16 1.41112e-16 1.41103e-16 1.41098e-16 1.4109e-16 1.4109e-16 1.54542e-16 2.94066e-14
          6.88534e-11 1.07396e-10 1.84435e-10 3.64023e-10 1.83533e-15 1.78721e-15
        </DataArray>
        <DataArray type="Float32" Name="X^w_nanoAu" NumberOfComponents="1" format="ascii">
          5.65493e-19 5.65636e-19 5.65603e-19 5.65612e-19 5.65596e-19 5.65634e-19 5.65552e-19 5.65617e-19 5.65629e-19 5.65579e-19 5.65583e-19 5.65632e-19
          5.65613e-19 5.65528e-19 5.65581e-19 5.6554e-19 5.65551e-19 5.65548e-19 5.65521e-19 5.65553e-19 5.69407e-19 9.28046e-19 3.41437e-17 3.1057e-15
          2.76855e-13 3.51907e-13 4.68998e-13 6.57876e-13 2.16198e-18 2.08292e-18
        </DataArray>
        <DataArray type="Float32" Name="X^w_cyanide" NumberOfComponents="1" format="ascii">
          5.07122e-06 5.07121e-06 5.0712e-06 5.0712e-06 5.07119e-06 5.07118e-06 5.07117e-06 5.07116e-06 5.07115e-06 5.07114e-06 5.07113e-06 5.07111e-06
          5.07109e-06 5.07106e-06 5.07102e-06 5.07097e-06 5.07091e-06 5.07082e-06 5.0707e-06 5.07053e-06 5.07029e-06 5.06995e-06 5.06944e-06 5.06865e-06
          5.06789e-06 6.43761e-06 8.57326e-06 1.22384e-05 1.94612e-05 1.92344e-05
        </DataArray>
        <DataArray type="Float32" Name="X^w_citrate" NumberOfComponents="1" format="ascii">
          0.000148885 0.000148885 0.000148885 0.000148885 0.000148885 0.000148885 0.000148885 0.000148885 0.000148885 0.000148885 0.000148885 0.000148884
          0.000148884 0.000148884 0.000148884 0.000148884 0.000148883 0.000148882 0.000148882 0.00014888 0.000148879 0.000148876 0.000148872 0.000148866
          0.000148857 0.000148841 0.00014881 0.000148739 0.000148505 0.000146775
        </DataArray>
        <DataArray type="Float32" Name="X^w_substrate" NumberOfComponents="1" format="ascii">
          8.44045e-12 1.14597e-11 1.55582e-11 2.11213e-11 2.86727e-11 3.89234e-11 5.28396e-11 7.17354e-11 9.73994e-11 1.3227e-10 1.79677e-10 2.44183e-10
          3.32056e-10 4.51956e-10 6.15919e-10 8.40813e-10 1.15054e-09 1.57942e-09 2.17763e-09 3.02021e-09 4.22253e-09 5.96856e-09 8.56546e-09 1.25576e-08
          1.89888e-08 3.00877e-08 5.1402e-08 1.00361e-07 2.58613e-07 1.42073e-06
        </DataArray>
        <DataArray type="Float32" Name="m^w_H2O" NumberOfComponents="1" format="ascii">
          55492.2 55492.2 55492.1 55492.1 55492.1 55492.1 55492.1 55492.1 55492.1 55492.1 55492.1 55492.1
          55492.1 55492.1 55492 55492 55492 55492 55492 55492 55492 55492 55492 55492
          55492 55491.9 55491.7 55491.5 55491.1 55491.2
        </DataArray>
        <DataArray type="Float32" Name="m^w_Air" NumberOfComponents="1" format="ascii">
          0 0 0 0 0 0 0 0 0 0 0 0
          0 0 0 0 0 0 0 0 0 0 0 0
          0 0 0 0 0 0
        </DataArray>
        <DataArray type="Float32" Name="m^w_AuComplex" NumberOfComponents="1" format="ascii">
          7.16273e-13 7.16456e-13 7.16412e-13 7.16423e-13 7.16401e-13 7.1645e-13 7.16344e-13 7.16426e-13 7.1644e-13 7.16375e-13 7.16378e-13 7.16439e-13
          7.16414e-13 7.16303e-13 7.16367e-13 7.16311e-13 7.1632e-13 7.16309e-13 7.16263e-13 7.16236e-13 7.16194e-13 7.16197e-13 7.8448e-13 1.49273e-10
          3.49511e-07 5.45161e-07 9.36221e-07 1.84784e-06 9.31644e-12 9.07218e-12
        </DataArray>
        <DataArray type="Float32" Name="m^w_nanoAu" NumberOfComponents="1" format="ascii">
          2.87055e-15 2.87127e-15 2.8711e-15 2.87115e-15 2.87107e-15 2.87126e-15 2.87084e-15 2.87117e-15 2.87123e-15 2.87098e-15 2.871e-15 2.87124e-15
          2.87115e-15 2.87072e-15 2.87098e-15 2.87078e-15 2.87083e-15 2.87082e-15 2.87068e-15 2.87084e-15 2.89041e-15 4.71091e-15 1.73319e-13 1.5765e-11
          1.40536e-09 1.78634e-09 2.38071e-09 3.33948e-09 1.09746e-14 1.05732e-14
        </DataArray>
        <DataArray type="Float32" Name="m^w_cyanide" NumberOfComponents="1" format="ascii">
          0.194869 0.194868 0.194868 0.194868 0.194867 0.194867 0.194867 0.194866 0.194866 0.194865 0.194865 0.194864
          0.194863 0.194862 0.194861 0.194859 0.194856 0.194853 0.194848 0.194842 0.194833 0.194819 0.1948 0.194769
          0.19474 0.247373 0.329438 0.470275 0.74782 0.739107
        </DataArray>
        <DataArray type="Float32" Name="m^w_citrate" NumberOfComponents="1" format="ascii">
          0.787224 0.787224 0.787224 0.787223 0.787223 0.787223 0.787223 0.787222 0.787222 0.787222 0.787221 0.787221
          0.78722 0.787219 0.787217 0.787215 0.787213 0.787209 0.787205 0.787198 0.787188 0.787174 0.787154 0.787122
          0.787071 0.786989 0.786828 0.78645 0.785214 0.776064
        </DataArray>
        <DataArray type="Float32" Name="m^w_substrate" NumberOfComponents="1" format="ascii">
          4.6843e-08 6.35995e-08 8.63449e-08 1.17219e-07 1.59128e-07 2.16018e-07 2.9325e-07 3.98118e-07 5.40548e-07 7.34072e-07 9.97173e-07 1.35517e-06
          1.84284e-06 2.50827e-06 3.41823e-06 4.66635e-06 6.38525e-06 8.76545e-06 1.20854e-05 1.67616e-05 2.34342e-05 3.31243e-05 4.75366e-05 6.96921e-05
          0.000105384 0.00016698 0.000285271 0.000556983 0.00143525 0.00788477
        </DataArray>
        <DataArray type="Float32" Name="process rank" NumberOfComponents="1" format="ascii">
          0 0 0 0 0 0 0 0 0 0 0 0
          0 0 0 0 0 0 0 0 0 0 0 0
          0 0 0 0 0 0
        </DataArray>
      </CellData>
      <Points>
        <DataArray type="Float32" Name="Coordinates" NumberOfComponents="3" format="ascii">
          0 0 0 0.5 0 0 0 0.0333333 0 0.5 0.0333333 0
          0 0.0666667 0 0.5 0.0666667 0 0 0.1 0 0.5 0.1 0
          0 0.133333 0 0.5 0.133333 0 0 0.166667 0 0.5 0.166667 0
          0 0.2 0 0.5 0.2 0 0 0.233333 0 0.5 0.233333 0
          0 0.266667 0 0.5 0.266667 0 0 0.3 0 0.5 0.3 0
          0 0.333333 0 0.5 0.333333 0 0 0.366667 0 0.5 0.366667 0
          0 0.4 0 0.5 0.4 0 0 0.433333 0 0.5 0.433333 0
          0 0.466667 0 0.5 0.466667 0 0 0.5 0 0.5 0.5 0
          0 0.533333 0 0.5 0.533333 0 0 0.566667 0 0.5 0.566667 0
          0 0.6 0 0.5 0.6 0 0 0.633333 0 0.5 0.633333 0
          0 0.666667 0 0.5 0.666667 0 0 0.7 0 0.5 0.7 0
          0 0.733333 0 0.5 0.733333 0 0 0.766667 0 0.5 0.766667 0
          0 0.8 0 0.5 0.8 0 0 0.833333 0 0.5 0.833333 0
          0 0.866667 0 0.5 0.866667 0 0 0.9 0 0.5 0.9 0
          0 0.933333 0 0.5 0.933333 0 0 0.966667 0 0.5 0.966667 0
          0 1 0 0.5 1 0
        </DataArray>
      </Points>
      <Cells>
        <DataArray type="Int32" Name="connectivity" NumberOfComponents="1" format="ascii">
          0 1 3 2 2 3 5 4 4 5 7 6
          6 7 9 8 8 9 11 10 10 11 13 12
          12 13 15 14 14 15 17 16 16 17 19 18
          18 19 21 20 20 21 23 22 22 23 25 24
          24 25 27 26 26 27 29 28 28 29 31 30
          30 31 33 32 32 33 35 34 34 35 37 36
          36 37 39 38 38 39 41 40 40 41 43 42
          42 43 45 44 44 45 47 46 46 47 49 48
          48 49 51 50 50 51 53 52 52 53 55 54
          54 55 57 56 56 57 59 58 58 59 61 60
        </DataArray>
        <DataArray type="Int32" Name="offsets" NumberOfComponents="1" format="ascii">
          4 8 12 16 20 24 28 32 36 40 44 48
          52 56 60 64 68 72 76 80 84 88 92 96
          100 104 108 112 116 120
        </DataArray>
        <DataArray type="UInt8" Name="types" NumberOfComponents="1" format="ascii">
          9 9 9 9 9 9 9 9 9 9 9 9
          9 9 9 9 9 9 9 9 9 9 9 9
          9 9 9 9 9 9
        </DataArray>
      </Cells>
    </Piece>
  </UnstructuredGrid>
</VTKFile>
