<?xml version="1.0"?>
<VTKFile type="UnstructuredGrid" version="0.1" byte_order="LittleEndian">
  <UnstructuredGrid>
    <Piece NumberOfCells="30" NumberOfPoints="62">
      <CellData Scalars="Sg">
        <DataArray type="Float32" Name="Sg" NumberOfComponents="1" format="ascii">
          0 0 0 0 0 0 0 0 0 0 0 0
          0 0 0 0 0 0 0 0 0 0 0 0
          0 0 0 0 0 0
        </DataArray>
        <DataArray type="Float32" Name="Sl" NumberOfComponents="1" format="ascii">
          1 1 1 1 1 1 1 1 1 1 1 1
          1 1 1 1 1 1 1 1 1 1 1 1
          1 1 1 1 1 1
        </DataArray>
        <DataArray type="Float32" Name="pg" NumberOfComponents="1" format="ascii">
          24687.8 24360.9 24034 23707 23380.1 23053.1 22726.2 22399.3 22072.3 21745.4 21418.4 21091.5
          20764.6 20437.6 20110.7 19783.7 19456.8 19129.9 18802.9 18476 18149 17822.1 17495.1 17168.2
          16841.3 16514.3 16187.4 15860.4 15533.5 15207
        </DataArray>
        <DataArray type="Float32" Name="pl" NumberOfComponents="1" format="ascii">
          110628 110301 109974 109647 109320 108993 108666 108339 108012 107685 107358 107031
          106704 106377 106050 105723 105396 105070 104743 104416 104089 103762 103435 103108
          102781 102454 102127 101800 101473 101147
        </DataArray>
        <DataArray type="Float32" Name="pc" NumberOfComponents="1" format="ascii">
          -85939.7 -85939.7 -85939.7 -85939.7 -85939.7 -85939.7 -85939.7 -85939.7 -85939.7 -85939.7 -85939.7 -85939.7
          -85939.7 -85939.7 -85939.7 -85939.7 -85939.7 -85939.7 -85939.7 -85939.7 -85939.7 -85939.7 -85939.7 -85939.7
          -85939.7 -85939.7 -85939.7 -85939.7 -85939.7 -85939.7
        </DataArray>
        <DataArray type="Float32" Name="rhoL" NumberOfComponents="1" format="ascii">
          999.855 999.855 999.855 999.855 999.855 999.854 999.854 999.854 999.854 999.854 999.854 999.854
          999.853 999.853 999.853 999.853 999.853 999.853 999.852 999.852 999.852 999.852 999.852 999.852
          999.852 999.851 999.851 999.851 999.851 999.851
        </DataArray>
        <DataArray type="Float32" Name="rhoG" NumberOfComponents="1" format="ascii">
          0.30585 0.3018 0.29775 0.293699 0.289649 0.285598 0.281548 0.277498 0.273447 0.269397 0.265347 0.261296
          0.257246 0.253195 0.249145 0.245095 0.241044 0.236994 0.232944 0.228893 0.224843 0.220793 0.216742 0.212692
          0.208641 0.204591 0.200541 0.19649 0.19244 0.188395
        </DataArray>
        <DataArray type="Float32" Name="mobL" NumberOfComponents="1" format="ascii">
          722.171 722.17 722.17 722.17 722.17 722.17 722.169 722.169 722.169 722.169 722.169 722.169
          722.168 722.168 722.168 722.168 722.168 722.167 722.167 722.167 722.167 722.167 722.166 722.166
          722.166 722.166 722.166 722.166 722.165 722.165
        </DataArray>
        <DataArray type="Float32" Name="mobG" NumberOfComponents="1" format="ascii">
          0 0 0 0 0 0 0 0 0 0 0 0
          0 0 0 0 0 0 0 0 0 0 0 0
          0 0 0 0 0 0
        </DataArray>
        <DataArray type="Float32" Name="porosity" NumberOfComponents="1" format="ascii">
          0.29861 0.29861 0.29861 0.29861 0.298609 0.298609 0.298608 0.298607 0.298606 0.298604 0.298601 0.298597
          0.298592 0.298585 0.298575 0.298562 0.298545 0.298522 0.29849 0.298446 0.298387 0.298304 0.298186 0.298012
          0.297471 0.297014 0.296136 0.293991 0.285273 0.0831247
        </DataArray>
        <DataArray type="Float32" Name="temperature" NumberOfComponents="1" format="ascii">
          281.15 281.15 281.15 281.15 281.15 281.15 281.15 281.15 281.15 281.15 281.15 281.15
          281.15 281.15 281.15 281.15 281.15 281.15 281.15 281.15 281.15 281.15 281.15 281.15
          281.15 281.15 281.15 281.15 281.15 281.15
        </DataArray>
        <DataArray type="Float32" Name="phase presence" NumberOfComponents="1" format="ascii">
          1 1 1 1 1 1 1 1 1 1 1 1
          1 1 1 1 1 1 1 1 1 1 1 1
          1 1 1 1 1 1
        </DataArray>
        <DataArray type="Float32" Name="precipitateVolumeFraction_au" NumberOfComponents="1" format="ascii">
          5.52624e-10 5.52764e-10 5.52733e-10 5.52742e-10 5.52728e-10 5.52767e-10 5.52687e-10 5.52753e-10 5.52766e-10 5.52719e-10 5.52724e-10 5.52775e-10
          5.52761e-10 5.52681e-10 5.52738e-10 5.52705e-10 5.52725e-10 5.52735e-10 5.52724e-10 5.52738e-10 5.52753e-10 5.52757e-10 5.5287e-10 7.98285e-10
          0.00026994 0.000269924 0.000269899 0.000269854 5.52262e-10 5.51204e-10
        </DataArray>
        <DataArray type="Float32" Name="precipitateVolumeFraction_nanoAu" NumberOfComponents="1" format="ascii">
          1.42173e-13 1.44176e-13 1.43831e-13 1.43918e-13 1.43793e-13 1.4402e-13 1.436e-13 1.43894e-13 1.4392e-13 1.43761e-13 1.43778e-13 1.43881e-13
          1.43838e-13 1.43712e-13 1.4379e-13 1.43751e-13 1.43767e-13 1.43771e-13 1.43757e-13 1.43758e-13 1.43756e-13 1.43761e-13 1.55776e-13 2.58668e-11
          6.04405e-08 7.67686e-08 1.02226e-07 1.45595e-07 4.93502e-13 4.8503e-13
        </DataArray>
        <DataArray type="Float32" Name="precipitateVolumeFraction_d" NumberOfComponents="1" format="ascii">
          0.000694847 0.000694915 0.00069501 0.000695144 0.000695332 0.000695596 0.000695966 0.000696482 0.000697199 0.000698193 0.000699564 0.000701448
          0.000704024 0.000707534 0.000712299 0.000718748 0.000727461 0.00073923 0.000755156 0.000776816 0.000806544 0.000847959 0.000906996 0.00099412
          0.00112958 0.00135809 0.00179722 0.00286939 0.00736371 0.108438
        </DataArray>
        <DataArray type="Float32" Name="precipitateVolumeFraction_p" NumberOfComponents="1" format="ascii">
          0.000694847 0.000694915 0.00069501 0.000695144 0.000695332 0.000695596 0.000695966 0.000696482 0.000697199 0.000698193 0.000699564 0.000701448
          0.000704024 0.000707534 0.000712299 0.000718748 0.000727461 0.00073923 0.000755156 0.000776816 0.000806544 0.000847959 0.000906996 0.00099412
          0.00112958 0.00135809 0.00179722 0.00286939 0.00736371 0.108438
        </DataArray>
        <DataArray type="Float32" Name="K" NumberOfComponents="1" format="ascii">
          9.82263e-11 9.82262e-11 9.82259e-11 9.82256e-11 9.82251e-11 9.82244e-11 9.82235e-11 9.82222e-11 9.82204e-11 9.82179e-11 9.82144e-11 9.82096e-11
          9.82031e-11 9.81942e-11 9.81821e-11 9.81658e-11 9.81437e-11 9.81139e-11 9.80736e-11 9.80188e-11 9.79436e-11 9.7839e-11 9.769e-11 9.74704e-11
          9.67914e-11 9.62207e-11 9.51319e-11 9.25157e-11 8.24767e-11 1.23994e-12
        </DataArray>
        <DataArray type="Float32" Name="X^w_H2O" NumberOfComponents="1" format="ascii">
          0.999846 0.999846 0.999846 0.999846 0.999846 0.999846 0.999846 0.999846 0.999846 0.999846 0.999846 0.999846
          0.999846 0.999846 0.999846 0.999846 0.999846 0.999846 0.999846 0.999846 0.999846 0.999846 0.999846 0.999846
          0.999846 0.999845 0.999843 0.999839 0.999832 0.999833
        </DataArray>
        <DataArray type="Float32" Name="X^w_Air" NumberOfComponents="1" format="ascii">
          0 0 0 0 0 0 0 0 0 0 0 0
          0 0 0 0 0 0 0 0 0 0 0 0
          0 0 0 0 0 0
        </DataArray>
        <DataArray type="Float32" Name="X^w_AuComplex" NumberOfComponents="1" format="ascii">
          1.59113e-16 1.61047e-16 1.60711e-16 1.60792e-16 1.60669e-16 1.60887e-16 1.60478e-16 1.60761e-16 1.60785e-16 1.60628e-16 1.60642e-16 1.60741e-16
          1.60697e-16 1.60569e-16 1.60644e-16 1.60602e-16 1.60615e-16 1.60614e-16 1.60595e-16 1.60589e-16 1.60578e-16 1.6057e-16 1.74065e-16 2.95023e-14
          6.89793e-11 1.07566e-10 1.84645e-10 3.64132e-10 1.90551e-15 1.84859e-15
        </DataArray>
        <DataArray type="Float32" Name="X^w_nanoAu" NumberOfComponents="1" format="ascii">
          6.50304e-19 6.59356e-19 6.57798e-19 6.58182e-19 6.57628e-19 6.58635e-19 6.5675e-19 6.58081e-19 6.58191e-19 6.57473e-19 6.57553e-19 6.58016e-19
          6.57817e-19 6.57248e-19 6.57599e-19 6.57422e-19 6.57495e-19 6.57507e-19 6.57441e-19 6.57481e-19 6.61357e-19 1.02161e-18 3.43505e-17 3.1128e-15
          2.7716e-13 3.52226e-13 4.69264e-13 6.57821e-13 2.24868e-18 2.15811e-18
        </DataArray>
        <DataArray type="Float32" Name="X^w_cyanide" NumberOfComponents="1" format="ascii">
          5.07751e-06 5.07744e-06 5.07738e-06 5.07731e-06 5.07725e-06 5.07718e-06 5.07711e-06 5.07705e-06 5.07698e-06 5.07691e-06 5.07684e-06 5.07677e-06
          5.07669e-06 5.07661e-06 5.07652e-06 5.07642e-06 5.0763e-06 5.07616e-06 5.07598e-06 5.07575e-06 5.07544e-06 5.075e-06 5.07437e-06 5.0734e-06
          5.07234e-06 6.44241e-06 8.57781e-06 1.22402e-05 1.94487e-05 1.91905e-05
        </DataArray>
        <DataArray type="Float32" Name="X^w_citrate" NumberOfComponents="1" format="ascii">
          0.000148885 0.000148885 0.000148885 0.000148885 0.000148885 0.000148885 0.000148885 0.000148885 0.000148885 0.000148885 0.000148885 0.000148885
          0.000148884 0.000148884 0.000148884 0.000148884 0.000148883 0.000148883 0.000148882 0.00014888 0.000148878 0.000148875 0.000148871 0.000148864
          0.000148853 0.000148833 0.000148795 0.000148704 0.00014841 0.00014644
        </DataArray>
        <DataArray type="Float32" Name="X^w_substrate" NumberOfComponents="1" format="ascii">
          5.42903e-12 7.54194e-12 1.04767e-11 1.45529e-11 2.02148e-11 2.80794e-11 3.90052e-11 5.41862e-11 7.5286e-11 1.04624e-10 1.45443e-10 2.02284e-10
          2.81531e-10 3.92201e-10 5.47103e-10 7.64587e-10 1.0712e-09 1.50588e-09 2.12669e-09 3.02215e-09 4.33092e-09 6.27797e-09 9.24498e-09 1.39183e-08
          2.163e-08 3.52494e-08 6.19404e-08 1.24025e-07 3.2253e-07 1.64591e-06
        </DataArray>
        <DataArray type="Float32" Name="m^w_H2O" NumberOfComponents="1" format="ascii">
          55492.2 55492.2 55492.1 55492.1 55492.1 55492.1 55492.1 55492.1 55492.1 55492.1 55492.1 55492.1
          55492.1 55492.1 55492 55492 55492 55492 55492 55492 55492 55492 55492 55492
          55492 55491.9 55491.7 55491.5 55491.1 55491.2
        </DataArray>
        <DataArray type="Float32" Name="m^w_Air" NumberOfComponents="1" format="ascii">
          0 0 0 0 0 0 0 0 0 0 0 0
          0 0 0 0 0 0 0 0 0 0 0 0
          0 0 0 0 0 0
        </DataArray>
        <DataArray type="Float32" Name="m^w_AuComplex" NumberOfComponents="1" format="ascii">
          8.07687e-13 8.17502e-13 8.15797e-13 8.1621e-13 8.15585e-13 8.16693e-13 8.14614e-13 8.16053e-13 8.16172e-13 8.15375e-13 8.15447e-13 8.15948e-13
          8.15725e-13 8.15077e-13 8.15457e-13 8.15243e-13 8.15309e-13 8.15305e-13 8.15206e-13 8.15176e-13 8.15119e-13 8.15078e-13 8.83584e-13 1.49758e-10
          3.5015e-07 5.46023e-07 9.3729e-07 1.84839e-06 9.67267e-12 9.38375e-12
        </DataArray>
        <DataArray type="Float32" Name="m^w_nanoAu" NumberOfComponents="1" format="ascii">
          3.30106e-15 3.34701e-15 3.3391e-15 3.34105e-15 3.33824e-15 3.34335e-15 3.33378e-15 3.34053e-15 3.34109e-15 3.33745e-15 3.33785e-15 3.3402e-15
          3.33919e-15 3.3363e-15 3.33808e-15 3.33719e-15 3.33756e-15 3.33762e-15 3.33728e-15 3.33748e-15 3.35716e-15 5.18588e-15 1.74369e-13 1.58011e-11
          1.40691e-09 1.78796e-09 2.38206e-09 3.3392e-09 1.14146e-14 1.09549e-14
        </DataArray>
        <DataArray type="Float32" Name="m^w_cyanide" NumberOfComponents="1" format="ascii">
          0.195111 0.195108 0.195105 0.195103 0.1951 0.195098 0.195095 0.195092 0.19509 0.195087 0.195085 0.195082
          0.195079 0.195076 0.195072 0.195068 0.195064 0.195058 0.195051 0.195042 0.19503 0.195014 0.194989 0.194952
          0.194911 0.247558 0.329613 0.470344 0.747341 0.737419
        </DataArray>
        <DataArray type="Float32" Name="m^w_citrate" NumberOfComponents="1" format="ascii">
          0.787224 0.787224 0.787224 0.787223 0.787223 0.787223 0.787223 0.787223 0.787222 0.787222 0.787222 0.787221
          0.78722 0.787219 0.787218 0.787216 0.787214 0.78721 0.787205 0.787198 0.787187 0.787172 0.787148 0.787111
          0.787051 0.786949 0.786745 0.786264 0.784711 0.774291
        </DataArray>
        <DataArray type="Float32" Name="m^w_substrate" NumberOfComponents="1" format="ascii">
          3.01301e-08 4.18564e-08 5.81437e-08 8.07661e-08 1.12188e-07 1.55836e-07 2.16471e-07 3.00723e-07 4.17823e-07 5.80646e-07 8.07182e-07 1.12264e-06
          1.56244e-06 2.17664e-06 3.03632e-06 4.24331e-06 5.94496e-06 8.35734e-06 1.18027e-05 1.67724e-05 2.40358e-05 3.48415e-05 5.13078e-05 7.72435e-05
          0.000120042 0.000195627 0.000343756 0.000688314 0.00178998 0.00913447
        </DataArray>
        <DataArray type="Float32" Name="process rank" NumberOfComponents="1" format="ascii">
          0 0 0 0 0 0 0 0 0 0 0 0
          0 0 0 0 0 0 0 0 0 0 0 0
          0 0 0 0 0 0
        </DataArray>
      </CellData>
      <Points>
        <DataArray type="Float32" Name="Coordinates" NumberOfComponents="3" format="ascii">
          0 0 0 0.5 0 0 0 0.0333333 0 0.5 0.0333333 0
          0 0.0666667 0 0.5 0.0666667 0 0 0.1 0 0.5 0.1 0
          0 0.133333 0 0.5 0.133333 0 0 0.166667 0 0.5 0.166667 0
          0 0.2 0 0.5 0.2 0 0 0.233333 0 0.5 0.233333 0
          0 0.266667 0 0.5 0.266667 0 0 0.3 0 0.5 0.3 0
          0 0.333333 0 0.5 0.333333 0 0 0.366667 0 0.5 0.366667 0
          0 0.4 0 0.5 0.4 0 0 0.433333 0 0.5 0.433333 0
          0 0.466667 0 0.5 0.466667 0 0 0.5 0 0.5 0.5 0
          0 0.533333 0 0.5 0.533333 0 0 0.566667 0 0.5 0.566667 0
          0 0.6 0 0.5 0.6 0 0 0.633333 0 0.5 0.633333 0
          0 0.666667 0 0.5 0.666667 0 0 0.7 0 0.5 0.7 0
          0 0.733333 0 0.5 0.733333 0 0 0.766667 0 0.5 0.766667 0
          0 0.8 0 0.5 0.8 0 0 0.833333 0 0.5 0.833333 0
          0 0.866667 0 0.5 0.866667 0 0 0.9 0 0.5 0.9 0
          0 0.933333 0 0.5 0.933333 0 0 0.966667 0 0.5 0.966667 0
          0 1 0 0.5 1 0
        </DataArray>
      </Points>
      <Cells>
        <DataArray type="Int32" Name="connectivity" NumberOfComponents="1" format="ascii">
          0 1 3 2 2 3 5 4 4 5 7 6
          6 7 9 8 8 9 11 10 10 11 13 12
          12 13 15 14 14 15 17 16 16 17 19 18
          18 19 21 20 20 21 23 22 22 23 25 24
          24 25 27 26 26 27 29 28 28 29 31 30
          30 31 33 32 32 33 35 34 34 35 37 36
          36 37 39 38 38 39 41 40 40 41 43 42
          42 43 45 44 44 45 47 46 46 47 49 48
          48 49 51 50 50 51 53 52 52 53 55 54
          54 55 57 56 56 57 59 58 58 59 61 60
        </DataArray>
        <DataArray type="Int32" Name="offsets" NumberOfComponents="1" format="ascii">
          4 8 12 16 20 24 28 32 36 40 44 48
          52 56 60 64 68 72 76 80 84 88 92 96
          100 104 108 112 116 120
        </DataArray>
        <DataArray type="UInt8" Name="types" NumberOfComponents="1" format="ascii">
          9 9 9 9 9 9 9 9 9 9 9 9
          9 9 9 9 9 9 9 9 9 9 9 9
          9 9 9 9 9 9
        </DataArray>
      </Cells>
    </Piece>
  </UnstructuredGrid>
</VTKFile>
