<?xml version="1.0"?>
<VTKFile type="UnstructuredGrid" version="0.1" byte_order="LittleEndian">
  <UnstructuredGrid>
    <Piece NumberOfCells="30" NumberOfPoints="62">
      <CellData Scalars="Sg">
        <DataArray type="Float32" Name="Sg" NumberOfComponents="1" format="ascii">
          0.0928554 0.0928248 0.0927939 0.0927629 0.0927318 0.0927005 0.0926687 0.0926344 0.0925884 0.0924901 0.0921611 0.0908216
          0.0851496 0.0622236 0 0 0 0 0 0 0 0 0 0
          0 0 0 0 0 0
        </DataArray>
        <DataArray type="Float32" Name="Sl" NumberOfComponents="1" format="ascii">
          0.907145 0.907175 0.907206 0.907237 0.907268 0.9073 0.907331 0.907366 0.907412 0.90751 0.907839 0.909178
          0.91485 0.937776 1 1 1 1 1 1 1 1 1 1
          1 1 1 1 1 1
        </DataArray>
        <DataArray type="Float32" Name="pg" NumberOfComponents="1" format="ascii">
          51287.7 50952 50616.2 50280.4 49944.5 49608.6 49272.6 48935.8 48595.7 48240.6 47819.4 47108.8
          45157 38262.5 20110.7 19783.7 19456.8 19129.8 18802.9 18476 18149 17822.1 17495.1 17168.2
          16841.3 16514.3 16187.4 15860.4 15533.5 15206.6
        </DataArray>
        <DataArray type="Float32" Name="pl" NumberOfComponents="1" format="ascii">
          110628 110301 109974 109647 109320 108993 108666 108339 108012 107685 107358 107031
          106704 106377 106050 105723 105396 105070 104743 104416 104089 103762 103435 103108
          102781 102454 102127 101800 101473 101146
        </DataArray>
        <DataArray type="Float32" Name="pc" NumberOfComponents="1" format="ascii">
          -59339.8 -59348.6 -59357.4 -59366.3 -59375.2 -59384.2 -59393.3 -59403.1 -59416.3 -59444.4 -59538.7 -59922.4
          -61547.2 -68114.8 -85939.7 -85939.7 -85939.7 -85939.7 -85939.7 -85939.7 -85939.7 -85939.7 -85939.7 -85939.7
          -85939.7 -85939.7 -85939.7 -85939.7 -85939.7 -85939.7
        </DataArray>
        <DataArray type="Float32" Name="rhoL" NumberOfComponents="1" format="ascii">
          999.855 999.855 999.855 999.855 999.855 999.854 999.854 999.854 999.854 999.854 999.854 999.854
          999.853 999.853 999.853 999.853 999.853 999.853 999.852 999.852 999.852 999.852 999.852 999.852
          999.852 999.851 999.851 999.851 999.851 999.851
        </DataArray>
        <DataArray type="Float32" Name="rhoG" NumberOfComponents="1" format="ascii">
          0.635388 0.631229 0.627069 0.622909 0.618748 0.614587 0.610423 0.606251 0.602038 0.597639 0.592421 0.583616
          0.559437 0.474023 0.249145 0.245095 0.241044 0.236994 0.232944 0.228893 0.224843 0.220793 0.216742 0.212692
          0.208641 0.204591 0.200541 0.19649 0.19244 0.18839
        </DataArray>
        <DataArray type="Float32" Name="mobL" NumberOfComponents="1" format="ascii">
          722.171 722.17 722.17 722.17 722.17 722.17 722.169 722.169 722.169 722.169 722.169 722.169
          722.168 722.168 722.168 722.168 722.168 722.167 722.167 722.167 722.167 722.167 722.166 722.166
          722.166 722.166 722.166 722.166 722.165 722.165
        </DataArray>
        <DataArray type="Float32" Name="mobG" NumberOfComponents="1" format="ascii">
          0 0 0 0 0 0 0 0 0 0 0 0
          0 0 0 0 0 0 0 0 0 0 0 0
          0 0 0 0 0 0
        </DataArray>
        <DataArray type="Float32" Name="porosity" NumberOfComponents="1" format="ascii">
          0.298503 0.298503 0.298503 0.298503 0.298502 0.298502 0.298501 0.2985 0.298498 0.298496 0.298493 0.298489
          0.298484 0.298477 0.298466 0.298453 0.298434 0.29841 0.298376 0.298331 0.298269 0.298184 0.298062 0.297886
          0.297345 0.2969 0.296082 0.294246 0.288269 0.216126
        </DataArray>
        <DataArray type="Float32" Name="temperature" NumberOfComponents="1" format="ascii">
          281.15 281.15 281.15 281.15 281.15 281.15 281.15 281.15 281.15 281.15 281.15 281.15
          281.15 281.15 281.15 281.15 281.15 281.15 281.15 281.15 281.15 281.15 281.15 281.15
          281.15 281.15 281.15 281.15 281.15 281.15
        </DataArray>
        <DataArray type="Float32" Name="phase presence" NumberOfComponents="1" format="ascii">
          3 3 3 3 3 3 3 3 3 3 3 3
          3 3 1 1 1 1 1 1 1 1 1 1
          1 1 1 1 1 1
        </DataArray>
        <DataArray type="Float32" Name="precipitateVolumeFraction_au" NumberOfComponents="1" format="ascii">
          5.33304e-10 5.33302e-10 5.33304e-10 5.33305e-10 5.33307e-10 5.33308e-10 5.33309e-10 5.33311e-10 5.33311e-10 5.33312e-10 5.33312e-10 5.33313e-10
          5.33314e-10 5.33314e-10 5.33316e-10 5.3331e-10 5.333e-10 5.33313e-10 5.33313e-10 5.33318e-10 5.33306e-10 5.33331e-10 5.33351e-10 5.94903e-10
          0.00026996 0.000269947 0.000269925 0.000269883 5.3283e-10 5.318e-10
        </DataArray>
        <DataArray type="Float32" Name="precipitateVolumeFraction_nanoAu" NumberOfComponents="1" format="ascii">
          1.95688e-11 1.95668e-11 1.95645e-11 1.95625e-11 1.95607e-11 1.95589e-11 1.9557e-11 1.95556e-11 1.95538e-11 1.95526e-11 1.9551e-11 1.95493e-11
          1.95483e-11 1.95588e-11 1.95772e-11 1.9529e-11 1.95185e-11 1.95414e-11 1.95416e-11 1.95445e-11 1.95378e-11 1.95451e-11 1.95539e-11 4.17986e-11
          4.02629e-08 5.34299e-08 7.55926e-08 1.17355e-07 1.9843e-11 1.96843e-11
        </DataArray>
        <DataArray type="Float32" Name="precipitateVolumeFraction_d" NumberOfComponents="1" format="ascii">
          0.000748291 0.000748362 0.000748463 0.000748605 0.000748805 0.000749085 0.000749478 0.000750025 0.000750787 0.000751841 0.000753295 0.000755291
          0.000758019 0.000761734 0.00076677 0.000773579 0.000782761 0.000795137 0.00081184 0.000834477 0.000865408 0.000908244 0.000968821 0.00105722
          0.00119245 0.00141484 0.00182405 0.00274177 0.00586558 0.041937
        </DataArray>
        <DataArray type="Float32" Name="precipitateVolumeFraction_p" NumberOfComponents="1" format="ascii">
          0.000748291 0.000748362 0.000748463 0.000748605 0.000748805 0.000749085 0.000749478 0.000750025 0.000750787 0.000751841 0.000753295 0.000755291
          0.000758019 0.000761734 0.00076677 0.000773579 0.000782761 0.000795137 0.00081184 0.000834477 0.000865408 0.000908244 0.000968821 0.00105722
          0.00119245 0.00141484 0.00182405 0.00274177 0.00586558 0.041937
        </DataArray>
        <DataArray type="Float32" Name="K" NumberOfComponents="1" format="ascii">
          9.8091e-11 9.80908e-11 9.80906e-11 9.80902e-11 9.80897e-11 9.8089e-11 9.8088e-11 9.80866e-11 9.80847e-11 9.8082e-11 9.80783e-11 9.80733e-11
          9.80664e-11 9.8057e-11 9.80442e-11 9.8027e-11 9.80038e-11 9.79725e-11 9.79303e-11 9.78731e-11 9.77949e-11 9.76868e-11 9.75341e-11 9.73116e-11
          9.66341e-11 9.60794e-11 9.50657e-11 9.28239e-11 8.5821e-11 2.98168e-11
        </DataArray>
        <DataArray type="Float32" Name="X^w_H2O" NumberOfComponents="1" format="ascii">
          0.999839 0.999839 0.99984 0.99984 0.99984 0.99984 0.99984 0.99984 0.99984 0.99984 0.99984 0.999841
          0.999841 0.999843 0.999851 0.999855 0.999855 0.999855 0.999855 0.999855 0.999855 0.999855 0.999855 0.999855
          0.999855 0.999854 0.999852 0.999848 0.999839 0.999841
        </DataArray>
        <DataArray type="Float32" Name="X^w_Air" NumberOfComponents="1" format="ascii">
          1.55653e-05 1.54612e-05 1.53571e-05 1.5253e-05 1.51489e-05 1.50448e-05 1.49406e-05 1.48362e-05 1.47308e-05 1.46207e-05 1.44902e-05 1.42699e-05
          1.36649e-05 1.15278e-05 4.45825e-06 6.37638e-08 8.94308e-10 1.23317e-11 1.66495e-13 2.19942e-15 2.8416e-17 3.58521e-19 4.3853e-21 5.14865e-23
          5.65056e-25 5.94501e-27 5.54255e-29 4.03046e-31 1.50039e-33 0
        </DataArray>
        <DataArray type="Float32" Name="X^w_AuComplex" NumberOfComponents="1" format="ascii">
          2.41513e-14 2.35578e-14 2.33099e-14 2.43639e-14 2.41653e-14 2.44474e-14 2.40985e-14 2.397e-14 2.27821e-14 2.39152e-14 2.33193e-14 2.40897e-14
          2.40976e-14 2.61628e-14 2.41985e-14 2.41412e-14 2.41308e-14 2.41617e-14 2.41641e-14 2.41692e-14 2.41607e-14 2.41668e-14 2.41723e-14 5.53834e-14
          5.6594e-11 9.7808e-11 1.93766e-10 4.70752e-10 1.45442e-13 1.3955e-13
        </DataArray>
        <DataArray type="Float32" Name="X^w_nanoAu" NumberOfComponents="1" format="ascii">
          -1.22767e-16 4.9742e-16 2.49478e-16 8.98389e-17 -1.08803e-16 1.7327e-16 -1.75548e-16 9.09575e-16 -2.78295e-16 8.54775e-16 2.58886e-16 -1.39814e-15
          -1.76548e-16 2.00942e-14 6.42428e-16 8.5093e-17 8.50482e-17 8.51457e-17 8.51451e-17 8.5155e-17 8.51255e-17 8.53844e-17 1.06878e-16 2.0867e-15
          1.75875e-13 2.3351e-13 3.30475e-13 5.03561e-13 8.55454e-17 8.12296e-17
        </DataArray>
        <DataArray type="Float32" Name="X^w_cyanide" NumberOfComponents="1" format="ascii">
          3.26851e-06 3.26574e-06 3.26341e-06 3.26146e-06 3.25986e-06 3.25858e-06 3.25756e-06 3.2568e-06 3.25625e-06 3.2559e-06 3.25571e-06 3.25567e-06
          3.25575e-06 3.25593e-06 3.2562e-06 3.25652e-06 3.25685e-06 3.2572e-06 3.2575e-06 3.25769e-06 3.25767e-06 3.25728e-06 3.25628e-06 3.2542e-06
          3.25073e-06 4.36537e-06 6.28808e-06 1.00906e-05 1.93094e-05 1.86794e-05
        </DataArray>
        <DataArray type="Float32" Name="X^w_citrate" NumberOfComponents="1" format="ascii">
          0.000141796 0.000141796 0.000141796 0.000141796 0.000141796 0.000141796 0.000141796 0.000141796 0.000141796 0.000141796 0.000141796 0.000141795
          0.000141795 0.000141795 0.000141795 0.000141795 0.000141794 0.000141792 0.000141789 0.000141785 0.000141779 0.000141771 0.000141757 0.000141736
          0.0001417 0.000141637 0.000141514 0.00014123 0.000140373 0.000135772
        </DataArray>
        <DataArray type="Float32" Name="X^w_substrate" NumberOfComponents="1" format="ascii">
          1.34468e-11 1.88914e-11 2.65477e-11 3.73113e-11 5.24521e-11 7.37512e-11 1.0373e-10 1.45935e-10 2.05375e-10 2.89163e-10 4.07371e-10 5.74337e-10
          8.10387e-10 1.14482e-09 1.61312e-09 2.26884e-09 3.19982e-09 4.52988e-09 6.44498e-09 9.23099e-09 1.33395e-08 1.95088e-08 2.9e-08 4.40916e-08
          6.92134e-08 1.13867e-07 2.01424e-07 4.02096e-07 1.00703e-06 4.25131e-06
        </DataArray>
        <DataArray type="Float32" Name="m^w_H2O" NumberOfComponents="1" format="ascii">
          55491.8 55491.8 55491.8 55491.8 55491.8 55491.8 55491.8 55491.8 55491.8 55491.8 55491.8 55491.8
          55491.8 55491.9 55492.3 55492.5 55492.5 55492.5 55492.5 55492.5 55492.5 55492.5 55492.5 55492.5
          55492.4 55492.4 55492.3 55492.1 55491.5 55491.6
        </DataArray>
        <DataArray type="Float32" Name="m^w_Air" NumberOfComponents="1" format="ascii">
          0.537397 0.533804 0.53021 0.526616 0.523022 0.519427 0.51583 0.512226 0.508586 0.504786 0.500278 0.492673
          0.471785 0.398001 0.153922 0.00220146 3.08763e-05 4.25757e-07 5.74829e-09 7.59355e-11 9.81072e-13 1.2378e-14 1.51404e-16 1.77759e-18
          1.95087e-20 2.05253e-22 1.91358e-24 1.39152e-26 5.18013e-29 2.41625e-34
        </DataArray>
        <DataArray type="Float32" Name="m^w_AuComplex" NumberOfComponents="1" format="ascii">
          1.22596e-10 1.19584e-10 1.18325e-10 1.23676e-10 1.22667e-10 1.24099e-10 1.22328e-10 1.21676e-10 1.15646e-10 1.21398e-10 1.18373e-10 1.22283e-10
          1.22323e-10 1.32807e-10 1.22836e-10 1.22545e-10 1.22492e-10 1.22649e-10 1.22661e-10 1.22687e-10 1.22644e-10 1.22675e-10 1.22703e-10 2.81135e-10
          2.8728e-07 4.96489e-07 9.8359e-07 2.38961e-06 7.38288e-10 7.08379e-10
        </DataArray>
        <DataArray type="Float32" Name="m^w_nanoAu" NumberOfComponents="1" format="ascii">
          -6.23187e-13 2.52499e-12 1.2664e-12 4.56038e-13 -5.52303e-13 8.79549e-13 -8.91112e-13 4.61716e-12 -1.41267e-12 4.33899e-12 1.31415e-12 -7.09721e-12
          -8.96188e-13 1.02002e-10 3.26107e-12 4.31946e-13 4.31719e-13 4.32214e-13 4.32211e-13 4.32261e-13 4.32111e-13 4.33425e-13 5.42529e-13 1.05924e-11
          8.9277e-10 1.18534e-09 1.67754e-09 2.55615e-09 4.34242e-13 4.12334e-13
        </DataArray>
        <DataArray type="Float32" Name="m^w_cyanide" NumberOfComponents="1" format="ascii">
          0.125597 0.125491 0.125401 0.125326 0.125265 0.125215 0.125176 0.125147 0.125126 0.125112 0.125105 0.125103
          0.125106 0.125113 0.125124 0.125136 0.125149 0.125162 0.125174 0.125181 0.12518 0.125165 0.125127 0.125047
          0.124913 0.167745 0.241628 0.387744 0.741986 0.717779
        </DataArray>
        <DataArray type="Float32" Name="m^w_citrate" NumberOfComponents="1" format="ascii">
          0.749742 0.749742 0.749742 0.749742 0.749742 0.749741 0.749741 0.749741 0.74974 0.74974 0.749739 0.749737
          0.749736 0.749735 0.749737 0.749735 0.749728 0.749718 0.749703 0.749682 0.749651 0.749605 0.749534 0.749421
          0.749232 0.7489 0.748248 0.746747 0.742216 0.717889
        </DataArray>
        <DataArray type="Float32" Name="m^w_substrate" NumberOfComponents="1" format="ascii">
          7.46274e-08 1.04844e-07 1.47335e-07 2.07071e-07 2.911e-07 4.09306e-07 5.75681e-07 8.09915e-07 1.13979e-06 1.6048e-06 2.26083e-06 3.18746e-06
          4.49749e-06 6.35355e-06 8.95252e-06 1.25916e-05 1.77584e-05 2.51399e-05 3.57684e-05 5.12302e-05 7.40315e-05 0.00010827 0.000160944 0.0002447
          0.00038412 0.00063194 0.00111786 0.00223155 0.00558881 0.0235939
        </DataArray>
        <DataArray type="Float32" Name="process rank" NumberOfComponents="1" format="ascii">
          0 0 0 0 0 0 0 0 0 0 0 0
          0 0 0 0 0 0 0 0 0 0 0 0
          0 0 0 0 0 0
        </DataArray>
      </CellData>
      <Points>
        <DataArray type="Float32" Name="Coordinates" NumberOfComponents="3" format="ascii">
          0 0 0 0.5 0 0 0 0.0333333 0 0.5 0.0333333 0
          0 0.0666667 0 0.5 0.0666667 0 0 0.1 0 0.5 0.1 0
          0 0.133333 0 0.5 0.133333 0 0 0.166667 0 0.5 0.166667 0
          0 0.2 0 0.5 0.2 0 0 0.233333 0 0.5 0.233333 0
          0 0.266667 0 0.5 0.266667 0 0 0.3 0 0.5 0.3 0
          0 0.333333 0 0.5 0.333333 0 0 0.366667 0 0.5 0.366667 0
          0 0.4 0 0.5 0.4 0 0 0.433333 0 0.5 0.433333 0
          0 0.466667 0 0.5 0.466667 0 0 0.5 0 0.5 0.5 0
          0 0.533333 0 0.5 0.533333 0 0 0.566667 0 0.5 0.566667 0
          0 0.6 0 0.5 0.6 0 0 0.633333 0 0.5 0.633333 0
          0 0.666667 0 0.5 0.666667 0 0 0.7 0 0.5 0.7 0
          0 0.733333 0 0.5 0.733333 0 0 0.766667 0 0.5 0.766667 0
          0 0.8 0 0.5 0.8 0 0 0.833333 0 0.5 0.833333 0
          0 0.866667 0 0.5 0.866667 0 0 0.9 0 0.5 0.9 0
          0 0.933333 0 0.5 0.933333 0 0 0.966667 0 0.5 0.966667 0
          0 1 0 0.5 1 0
        </DataArray>
      </Points>
      <Cells>
        <DataArray type="Int32" Name="connectivity" NumberOfComponents="1" format="ascii">
          0 1 3 2 2 3 5 4 4 5 7 6
          6 7 9 8 8 9 11 10 10 11 13 12
          12 13 15 14 14 15 17 16 16 17 19 18
          18 19 21 20 20 21 23 22 22 23 25 24
          24 25 27 26 26 27 29 28 28 29 31 30
          30 31 33 32 32 33 35 34 34 35 37 36
          36 37 39 38 38 39 41 40 40 41 43 42
          42 43 45 44 44 45 47 46 46 47 49 48
          48 49 51 50 50 51 53 52 52 53 55 54
          54 55 57 56 56 57 59 58 58 59 61 60
        </DataArray>
        <DataArray type="Int32" Name="offsets" NumberOfComponents="1" format="ascii">
          4 8 12 16 20 24 28 32 36 40 44 48
          52 56 60 64 68 72 76 80 84 88 92 96
          100 104 108 112 116 120
        </DataArray>
        <DataArray type="UInt8" Name="types" NumberOfComponents="1" format="ascii">
          9 9 9 9 9 9 9 9 9 9 9 9
          9 9 9 9 9 9 9 9 9 9 9 9
          9 9 9 9 9 9
        </DataArray>
      </Cells>
    </Piece>
  </UnstructuredGrid>
</VTKFile>
