<?xml version="1.0"?>
<VTKFile type="UnstructuredGrid" version="0.1" byte_order="LittleEndian">
  <UnstructuredGrid>
    <Piece NumberOfCells="30" NumberOfPoints="62">
      <CellData Scalars="Sg">
        <DataArray type="Float32" Name="Sg" NumberOfComponents="1" format="ascii">
          0 0 0 0 0 0 0 0 0 0 0 0
          0 0 0 0 0 0 0 0 0 0 0 0
          0 0 0 0 0 0
        </DataArray>
        <DataArray type="Float32" Name="Sl" NumberOfComponents="1" format="ascii">
          1 1 1 1 1 1 1 1 1 1 1 1
          1 1 1 1 1 1 1 1 1 1 1 1
          1 1 1 1 1 1
        </DataArray>
        <DataArray type="Float32" Name="pg" NumberOfComponents="1" format="ascii">
          24687.8 24360.9 24034 23707 23380.1 23053.1 22726.2 22399.3 22072.3 21745.4 21418.4 21091.5
          20764.6 20437.6 20110.7 19783.7 19456.8 19129.9 18802.9 18476 18149 17822.1 17495.1 17168.2
          16841.3 16514.3 16187.4 15860.4 15533.5 15207
        </DataArray>
        <DataArray type="Float32" Name="pl" NumberOfComponents="1" format="ascii">
          110628 110301 109974 109647 109320 108993 108666 108339 108012 107685 107358 107031
          106704 106377 106050 105723 105396 105070 104743 104416 104089 103762 103435 103108
          102781 102454 102127 101800 101473 101147
        </DataArray>
        <DataArray type="Float32" Name="pc" NumberOfComponents="1" format="ascii">
          -85939.7 -85939.7 -85939.7 -85939.7 -85939.7 -85939.7 -85939.7 -85939.7 -85939.7 -85939.7 -85939.7 -85939.7
          -85939.7 -85939.7 -85939.7 -85939.7 -85939.7 -85939.7 -85939.7 -85939.7 -85939.7 -85939.7 -85939.7 -85939.7
          -85939.7 -85939.7 -85939.7 -85939.7 -85939.7 -85939.7
        </DataArray>
        <DataArray type="Float32" Name="rhoL" NumberOfComponents="1" format="ascii">
          999.855 999.855 999.855 999.855 999.855 999.854 999.854 999.854 999.854 999.854 999.854 999.854
          999.853 999.853 999.853 999.853 999.853 999.853 999.852 999.852 999.852 999.852 999.852 999.852
          999.852 999.851 999.851 999.851 999.851 999.851
        </DataArray>
        <DataArray type="Float32" Name="rhoG" NumberOfComponents="1" format="ascii">
          0.30585 0.3018 0.29775 0.293699 0.289649 0.285598 0.281548 0.277498 0.273447 0.269397 0.265347 0.261296
          0.257246 0.253195 0.249145 0.245095 0.241044 0.236994 0.232944 0.228893 0.224843 0.220793 0.216742 0.212692
          0.208641 0.204591 0.200541 0.19649 0.19244 0.188395
        </DataArray>
        <DataArray type="Float32" Name="mobL" NumberOfComponents="1" format="ascii">
          722.171 722.17 722.17 722.17 722.17 722.17 722.169 722.169 722.169 722.169 722.169 722.169
          722.168 722.168 722.168 722.168 722.168 722.167 722.167 722.167 722.167 722.167 722.166 722.166
          722.166 722.166 722.166 722.166 722.165 722.165
        </DataArray>
        <DataArray type="Float32" Name="mobG" NumberOfComponents="1" format="ascii">
          0 0 0 0 0 0 0 0 0 0 0 0
          0 0 0 0 0 0 0 0 0 0 0 0
          0 0 0 0 0 0
        </DataArray>
        <DataArray type="Float32" Name="porosity" NumberOfComponents="1" format="ascii">
          0.29861 0.29861 0.29861 0.29861 0.298609 0.298609 0.298608 0.298607 0.298606 0.298604 0.298601 0.298597
          0.298592 0.298585 0.298575 0.298562 0.298545 0.298522 0.29849 0.298446 0.298387 0.298304 0.298186 0.298012
          0.297471 0.297014 0.296136 0.293991 0.285273 0.0831247
        </DataArray>
        <DataArray type="Float32" Name="temperature" NumberOfComponents="1" format="ascii">
          281.15 281.15 281.15 281.15 281.15 281.15 281.15 281.15 281.15 281.15 281.15 281.15
          281.15 281.15 281.15 281.15 281.15 281.15 281.15 281.15 281.15 281.15 281.15 281.15
          281.15 281.15 281.15 281.15 281.15 281.15
        </DataArray>
        <DataArray type="Float32" Name="phase presence" NumberOfComponents="1" format="ascii">
          1 1 1 1 1 1 1 1 1 1 1 1
          1 1 1 1 1 1 1 1 1 1 1 1
          1 1 1 1 1 1
        </DataArray>
        <DataArray type="Float32" Name="precipitateVolumeFraction_au" NumberOfComponents="1" format="ascii">
          5.52695e-10 5.52745e-10 5.52751e-10 5.52762e-10 5.52764e-10 5.52781e-10 5.52781e-10 5.52789e-10 5.52766e-10 5.52782e-10 5.52746e-10 5.52722e-10
          5.52746e-10 5.52769e-10 5.52794e-10 5.5274e-10 5.52719e-10 5.52755e-10 5.52755e-10 5.52764e-10 5.52745e-10 5.52776e-10 5.52875e-10 7.58617e-10
          0.000269962 0.000269949 0.000269927 0.00026988 5.52179e-10 5.50942e-10
        </DataArray>
        <DataArray type="Float32" Name="precipitateVolumeFraction_nanoAu" NumberOfComponents="1" format="ascii">
          9.86022e-14 9.94193e-14 9.95736e-14 9.97149e-14 9.97301e-14 9.984e-14 9.98274e-14 9.98388e-14 9.9747e-14 9.97842e-14 9.97058e-14 9.96568e-14
          9.9707e-14 9.97413e-14 9.9766e-14 9.97065e-14 9.96902e-14 9.97153e-14 9.97113e-14 9.97097e-14 9.96925e-14 9.97068e-14 1.11208e-13 2.06526e-11
          3.89253e-08 5.19973e-08 7.46002e-08 1.19257e-07 4.93402e-13 4.83955e-13
        </DataArray>
        <DataArray type="Float32" Name="precipitateVolumeFraction_d" NumberOfComponents="1" format="ascii">
          0.000694849 0.000694917 0.000695012 0.000695146 0.000695334 0.000695598 0.000695968 0.000696484 0.000697201 0.000698195 0.000699566 0.00070145
          0.000704026 0.000707536 0.000712301 0.00071875 0.000727463 0.000739231 0.000755157 0.000776817 0.000806545 0.00084796 0.000906997 0.00099412
          0.00112958 0.00135809 0.00179722 0.00286938 0.00736369 0.108438
        </DataArray>
        <DataArray type="Float32" Name="precipitateVolumeFraction_p" NumberOfComponents="1" format="ascii">
          0.000694849 0.000694917 0.000695012 0.000695146 0.000695334 0.000695598 0.000695968 0.000696484 0.000697201 0.000698195 0.000699566 0.00070145
          0.000704026 0.000707536 0.000712301 0.00071875 0.000727463 0.000739231 0.000755157 0.000776817 0.000806545 0.00084796 0.000906997 0.00099412
          0.00112958 0.00135809 0.00179722 0.00286938 0.00736369 0.108438
        </DataArray>
        <DataArray type="Float32" Name="K" NumberOfComponents="1" format="ascii">
          9.82263e-11 9.82262e-11 9.82259e-11 9.82256e-11 9.82251e-11 9.82244e-11 9.82235e-11 9.82222e-11 9.82204e-11 9.82179e-11 9.82144e-11 9.82096e-11
          9.82031e-11 9.81942e-11 9.81821e-11 9.81658e-11 9.81437e-11 9.81139e-11 9.80736e-11 9.80188e-11 9.79436e-11 9.7839e-11 9.769e-11 9.74704e-11
          9.67914e-11 9.62207e-11 9.51319e-11 9.25157e-11 8.24768e-11 1.23994e-12
        </DataArray>
        <DataArray type="Float32" Name="X^w_H2O" NumberOfComponents="1" format="ascii">
          0.999855 0.999855 0.999855 0.999855 0.999855 0.999855 0.999855 0.999855 0.999855 0.999855 0.999855 0.999855
          0.999855 0.999855 0.999855 0.999855 0.999855 0.999855 0.999855 0.999855 0.999855 0.999855 0.999855 0.999855
          0.999855 0.999854 0.999852 0.999848 0.999839 0.99984
        </DataArray>
        <DataArray type="Float32" Name="X^w_Air" NumberOfComponents="1" format="ascii">
          0 0 0 0 0 0 0 0 0 0 0 0
          0 0 0 0 0 0 0 0 0 0 0 0
          0 0 0 0 0 0
        </DataArray>
        <DataArray type="Float32" Name="X^w_AuComplex" NumberOfComponents="1" format="ascii">
          1.36638e-16 1.37651e-16 1.3784e-16 1.38014e-16 1.38031e-16 1.38165e-16 1.38147e-16 1.38159e-16 1.38043e-16 1.38087e-16 1.37986e-16 1.37922e-16
          1.37983e-16 1.38023e-16 1.38051e-16 1.37972e-16 1.37947e-16 1.37973e-16 1.37961e-16 1.3795e-16 1.37916e-16 1.37918e-16 1.54084e-16 2.92784e-14
          5.51999e-11 9.53552e-11 1.90365e-10 4.75168e-10 3.72539e-15 3.60577e-15
        </DataArray>
        <DataArray type="Float32" Name="X^w_nanoAu" NumberOfComponents="1" format="ascii">
          4.29529e-19 4.33058e-19 4.3373e-19 4.3434e-19 4.34411e-19 4.34884e-19 4.3483e-19 4.34874e-19 4.3448e-19 4.34637e-19 4.34297e-19 4.34087e-19
          4.34305e-19 4.34454e-19 4.34557e-19 4.34299e-19 4.34228e-19 4.34334e-19 4.34314e-19 4.34329e-19 4.36663e-19 6.59989e-19 2.13166e-17 1.92783e-15
          1.70126e-13 2.27475e-13 3.26754e-13 5.13169e-13 2.14113e-18 2.05081e-18
        </DataArray>
        <DataArray type="Float32" Name="X^w_cyanide" NumberOfComponents="1" format="ascii">
          3.27069e-06 3.27064e-06 3.27059e-06 3.27054e-06 3.27048e-06 3.27043e-06 3.27038e-06 3.27033e-06 3.27027e-06 3.27022e-06 3.27016e-06 3.2701e-06
          3.27004e-06 3.26997e-06 3.26989e-06 3.26981e-06 3.2697e-06 3.26957e-06 3.2694e-06 3.26919e-06 3.26889e-06 3.26846e-06 3.26784e-06 3.26689e-06
          3.26585e-06 4.3617e-06 6.25409e-06 1.00302e-05 1.94488e-05 1.91906e-05
        </DataArray>
        <DataArray type="Float32" Name="X^w_citrate" NumberOfComponents="1" format="ascii">
          0.000141798 0.000141798 0.000141798 0.000141798 0.000141798 0.000141798 0.000141798 0.000141798 0.000141798 0.000141798 0.000141798 0.000141798
          0.000141798 0.000141798 0.000141797 0.000141797 0.000141797 0.000141796 0.000141795 0.000141794 0.000141792 0.000141789 0.000141785 0.000141778
          0.000141768 0.000141749 0.000141712 0.000141625 0.000141344 0.000139467
        </DataArray>
        <DataArray type="Float32" Name="X^w_substrate" NumberOfComponents="1" format="ascii">
          5.42852e-12 7.54125e-12 1.04758e-11 1.45517e-11 2.02131e-11 2.80772e-11 3.90023e-11 5.41824e-11 7.52809e-11 1.04618e-10 1.45434e-10 2.02272e-10
          2.81516e-10 3.92181e-10 5.47077e-10 7.64553e-10 1.07116e-09 1.50582e-09 2.12662e-09 3.02206e-09 4.33079e-09 6.2778e-09 9.24476e-09 1.3918e-08
          2.16296e-08 3.52489e-08 6.19397e-08 1.24024e-07 3.22529e-07 1.64591e-06
        </DataArray>
        <DataArray type="Float32" Name="m^w_H2O" NumberOfComponents="1" format="ascii">
          55492.7 55492.6 55492.6 55492.6 55492.6 55492.6 55492.6 55492.6 55492.6 55492.6 55492.6 55492.6
          55492.6 55492.5 55492.5 55492.5 55492.5 55492.5 55492.5 55492.5 55492.5 55492.5 55492.5 55492.5
          55492.4 55492.4 55492.3 55492 55491.5 55491.6
        </DataArray>
        <DataArray type="Float32" Name="m^w_Air" NumberOfComponents="1" format="ascii">
          0 0 0 0 0 0 0 0 0 0 0 0
          0 0 0 0 0 0 0 0 0 0 0 0
          0 0 0 0 0 0
        </DataArray>
        <DataArray type="Float32" Name="m^w_AuComplex" NumberOfComponents="1" format="ascii">
          6.936e-13 6.98741e-13 6.99703e-13 7.00583e-13 7.00668e-13 7.0135e-13 7.0126e-13 7.01321e-13 7.00729e-13 7.00953e-13 7.00442e-13 7.00118e-13
          7.00424e-13 7.00628e-13 7.0077e-13 7.00369e-13 7.00241e-13 7.00376e-13 7.00315e-13 7.00259e-13 7.00084e-13 7.00093e-13 7.82158e-13 1.48622e-10
          2.80203e-07 4.84038e-07 9.66324e-07 2.41203e-06 1.89107e-11 1.83034e-11
        </DataArray>
        <DataArray type="Float32" Name="m^w_nanoAu" NumberOfComponents="1" format="ascii">
          2.18037e-15 2.19828e-15 2.20169e-15 2.20479e-15 2.20515e-15 2.20755e-15 2.20727e-15 2.2075e-15 2.2055e-15 2.20629e-15 2.20456e-15 2.2035e-15
          2.20461e-15 2.20536e-15 2.20588e-15 2.20457e-15 2.20421e-15 2.20475e-15 2.20465e-15 2.20473e-15 2.21657e-15 3.35021e-15 1.08207e-13 9.78596e-12
          8.63587e-10 1.1547e-09 1.65865e-09 2.60493e-09 1.08687e-14 1.04102e-14
        </DataArray>
        <DataArray type="Float32" Name="m^w_cyanide" NumberOfComponents="1" format="ascii">
          0.125681 0.125679 0.125677 0.125675 0.125673 0.125671 0.125669 0.125667 0.125665 0.125663 0.12566 0.125658
          0.125656 0.125653 0.12565 0.125647 0.125643 0.125638 0.125631 0.125623 0.125611 0.125595 0.125571 0.125534
          0.125494 0.167604 0.240321 0.385423 0.747343 0.737423
        </DataArray>
        <DataArray type="Float32" Name="m^w_citrate" NumberOfComponents="1" format="ascii">
          0.749754 0.749754 0.749754 0.749753 0.749753 0.749753 0.749753 0.749753 0.749752 0.749752 0.749752 0.749751
          0.74975 0.749749 0.749748 0.749746 0.749744 0.749741 0.749736 0.749729 0.749719 0.749704 0.749682 0.749647
          0.749589 0.74949 0.749293 0.748832 0.747349 0.737425
        </DataArray>
        <DataArray type="Float32" Name="m^w_substrate" NumberOfComponents="1" format="ascii">
          3.01273e-08 4.18526e-08 5.81386e-08 8.07593e-08 1.12179e-07 1.55823e-07 2.16455e-07 3.00702e-07 4.17795e-07 5.80608e-07 8.07133e-07 1.12257e-06
          1.56236e-06 2.17653e-06 3.03617e-06 4.24312e-06 5.94471e-06 8.35702e-06 1.18023e-05 1.67718e-05 2.4035e-05 3.48405e-05 5.13066e-05 7.72419e-05
          0.00012004 0.000195624 0.000343753 0.000688309 0.00178997 0.00913447
        </DataArray>
        <DataArray type="Float32" Name="process rank" NumberOfComponents="1" format="ascii">
          0 0 0 0 0 0 0 0 0 0 0 0
          0 0 0 0 0 0 0 0 0 0 0 0
          0 0 0 0 0 0
        </DataArray>
      </CellData>
      <Points>
        <DataArray type="Float32" Name="Coordinates" NumberOfComponents="3" format="ascii">
          0 0 0 0.5 0 0 0 0.0333333 0 0.5 0.0333333 0
          0 0.0666667 0 0.5 0.0666667 0 0 0.1 0 0.5 0.1 0
          0 0.133333 0 0.5 0.133333 0 0 0.166667 0 0.5 0.166667 0
          0 0.2 0 0.5 0.2 0 0 0.233333 0 0.5 0.233333 0
          0 0.266667 0 0.5 0.266667 0 0 0.3 0 0.5 0.3 0
          0 0.333333 0 0.5 0.333333 0 0 0.366667 0 0.5 0.366667 0
          0 0.4 0 0.5 0.4 0 0 0.433333 0 0.5 0.433333 0
          0 0.466667 0 0.5 0.466667 0 0 0.5 0 0.5 0.5 0
          0 0.533333 0 0.5 0.533333 0 0 0.566667 0 0.5 0.566667 0
          0 0.6 0 0.5 0.6 0 0 0.633333 0 0.5 0.633333 0
          0 0.666667 0 0.5 0.666667 0 0 0.7 0 0.5 0.7 0
          0 0.733333 0 0.5 0.733333 0 0 0.766667 0 0.5 0.766667 0
          0 0.8 0 0.5 0.8 0 0 0.833333 0 0.5 0.833333 0
          0 0.866667 0 0.5 0.866667 0 0 0.9 0 0.5 0.9 0
          0 0.933333 0 0.5 0.933333 0 0 0.966667 0 0.5 0.966667 0
          0 1 0 0.5 1 0
        </DataArray>
      </Points>
      <Cells>
        <DataArray type="Int32" Name="connectivity" NumberOfComponents="1" format="ascii">
          0 1 3 2 2 3 5 4 4 5 7 6
          6 7 9 8 8 9 11 10 10 11 13 12
          12 13 15 14 14 15 17 16 16 17 19 18
          18 19 21 20 20 21 23 22 22 23 25 24
          24 25 27 26 26 27 29 28 28 29 31 30
          30 31 33 32 32 33 35 34 34 35 37 36
          36 37 39 38 38 39 41 40 40 41 43 42
          42 43 45 44 44 45 47 46 46 47 49 48
          48 49 51 50 50 51 53 52 52 53 55 54
          54 55 57 56 56 57 59 58 58 59 61 60
        </DataArray>
        <DataArray type="Int32" Name="offsets" NumberOfComponents="1" format="ascii">
          4 8 12 16 20 24 28 32 36 40 44 48
          52 56 60 64 68 72 76 80 84 88 92 96
          100 104 108 112 116 120
        </DataArray>
        <DataArray type="UInt8" Name="types" NumberOfComponents="1" format="ascii">
          9 9 9 9 9 9 9 9 9 9 9 9
          9 9 9 9 9 9 9 9 9 9 9 9
          9 9 9 9 9 9
        </DataArray>
      </Cells>
    </Piece>
  </UnstructuredGrid>
</VTKFile>
