<?xml version="1.0"?>
<VTKFile type="UnstructuredGrid" version="0.1" byte_order="LittleEndian">
  <UnstructuredGrid>
    <Piece NumberOfCells="30" NumberOfPoints="62">
      <CellData Scalars="Sg">
        <DataArray type="Float32" Name="Sg" NumberOfComponents="1" format="ascii">
          0 0 0 0 0 0 0 0 0 0 0 0
          0 0 0 0 0 0 0 0 0 0 0 0
          0 0 0 0 0 0
        </DataArray>
        <DataArray type="Float32" Name="Sl" NumberOfComponents="1" format="ascii">
          1 1 1 1 1 1 1 1 1 1 1 1
          1 1 1 1 1 1 1 1 1 1 1 1
          1 1 1 1 1 1
        </DataArray>
        <DataArray type="Float32" Name="pg" NumberOfComponents="1" format="ascii">
          24687.8 24360.9 24034 23707 23380.1 23053.1 22726.2 22399.3 22072.3 21745.4 21418.4 21091.5
          20764.6 20437.6 20110.7 19783.7 19456.8 19129.8 18802.9 18476 18149 17822.1 17495.1 17168.2
          16841.3 16514.3 16187.4 15860.4 15533.5 15209.5
        </DataArray>
        <DataArray type="Float32" Name="pl" NumberOfComponents="1" format="ascii">
          110628 110301 109974 109647 109320 108993 108666 108339 108012 107685 107358 107031
          106704 106377 106050 105723 105396 105070 104743 104416 104089 103762 103435 103108
          102781 102454 102127 101800 101473 101149
        </DataArray>
        <DataArray type="Float32" Name="pc" NumberOfComponents="1" format="ascii">
          -85939.7 -85939.7 -85939.7 -85939.7 -85939.7 -85939.7 -85939.7 -85939.7 -85939.7 -85939.7 -85939.7 -85939.7
          -85939.7 -85939.7 -85939.7 -85939.7 -85939.7 -85939.7 -85939.7 -85939.7 -85939.7 -85939.7 -85939.7 -85939.7
          -85939.7 -85939.7 -85939.7 -85939.7 -85939.7 -85939.7
        </DataArray>
        <DataArray type="Float32" Name="rhoL" NumberOfComponents="1" format="ascii">
          999.855 999.855 999.855 999.855 999.855 999.854 999.854 999.854 999.854 999.854 999.854 999.854
          999.853 999.853 999.853 999.853 999.853 999.853 999.852 999.852 999.852 999.852 999.852 999.852
          999.852 999.851 999.851 999.851 999.851 999.851
        </DataArray>
        <DataArray type="Float32" Name="rhoG" NumberOfComponents="1" format="ascii">
          0.30585 0.3018 0.29775 0.293699 0.289649 0.285598 0.281548 0.277498 0.273447 0.269397 0.265347 0.261296
          0.257246 0.253195 0.249145 0.245095 0.241044 0.236994 0.232944 0.228893 0.224843 0.220793 0.216742 0.212692
          0.208641 0.204591 0.200541 0.19649 0.19244 0.188426
        </DataArray>
        <DataArray type="Float32" Name="mobL" NumberOfComponents="1" format="ascii">
          722.171 722.17 722.17 722.17 722.17 722.17 722.169 722.169 722.169 722.169 722.169 722.169
          722.168 722.168 722.168 722.168 722.168 722.167 722.167 722.167 722.167 722.167 722.166 722.166
          722.166 722.166 722.166 722.166 722.165 722.165
        </DataArray>
        <DataArray type="Float32" Name="mobG" NumberOfComponents="1" format="ascii">
          0 0 0 0 0 0 0 0 0 0 0 0
          0 0 0 0 0 0 0 0 0 0 0 0
          0 0 0 0 0 0
        </DataArray>
        <DataArray type="Float32" Name="porosity" NumberOfComponents="1" format="ascii">
          0.2988 0.2988 0.2988 0.2988 0.2988 0.298799 0.298798 0.298798 0.298796 0.298795 0.298792 0.298789
          0.298784 0.298778 0.29877 0.298758 0.298743 0.298722 0.298693 0.298655 0.298602 0.298527 0.29842 0.29826
          0.297738 0.297304 0.29644 0.294177 0.283312 0.0455716
        </DataArray>
        <DataArray type="Float32" Name="temperature" NumberOfComponents="1" format="ascii">
          281.15 281.15 281.15 281.15 281.15 281.15 281.15 281.15 281.15 281.15 281.15 281.15
          281.15 281.15 281.15 281.15 281.15 281.15 281.15 281.15 281.15 281.15 281.15 281.15
          281.15 281.15 281.15 281.15 281.15 281.15
        </DataArray>
        <DataArray type="Float32" Name="phase presence" NumberOfComponents="1" format="ascii">
          1 1 1 1 1 1 1 1 1 1 1 1
          1 1 1 1 1 1 1 1 1 1 1 1
          1 1 1 1 1 1
        </DataArray>
        <DataArray type="Float32" Name="precipitateVolumeFraction_au" NumberOfComponents="1" format="ascii">
          5.52714e-10 5.52764e-10 5.52771e-10 5.52782e-10 5.52784e-10 5.52802e-10 5.52802e-10 5.52809e-10 5.52786e-10 5.52802e-10 5.52767e-10 5.52742e-10
          5.52766e-10 5.52789e-10 5.52814e-10 5.5276e-10 5.52739e-10 5.52775e-10 5.52775e-10 5.52784e-10 5.52765e-10 5.52797e-10 5.53053e-10 1.04137e-09
          0.000269962 0.000269949 0.000269928 0.000269877 5.52198e-10 5.50942e-10
        </DataArray>
        <DataArray type="Float32" Name="precipitateVolumeFraction_nanoAu" NumberOfComponents="1" format="ascii">
          7.96295e-14 7.96368e-14 7.96377e-14 7.96393e-14 7.96394e-14 7.9642e-14 7.96419e-14 7.96429e-14 7.96394e-14 7.96415e-14 7.96361e-14 7.96322e-14
          7.96353e-14 7.96379e-14 7.96406e-14 7.96316e-14 7.9627e-14 7.963e-14 7.96271e-14 7.96241e-14 7.96156e-14 7.96252e-14 9.10744e-14 2.0576e-11
          3.88696e-08 5.19328e-08 7.45328e-08 1.19223e-07 4.74126e-13 4.66316e-13
        </DataArray>
        <DataArray type="Float32" Name="precipitateVolumeFraction_d" NumberOfComponents="1" format="ascii">
          0.000599767 0.000599828 0.000599912 0.000600031 0.000600198 0.000600432 0.000600759 0.000601216 0.00060185 0.000602728 0.00060394 0.000605604
          0.00060788 0.000610982 0.000615196 0.000620906 0.000628629 0.000639079 0.000653254 0.000672591 0.000699236 0.00073655 0.000790118 0.000869943
          0.00099582 0.00121278 0.00164513 0.00277662 0.00834401 0.127214
        </DataArray>
        <DataArray type="Float32" Name="precipitateVolumeFraction_p" NumberOfComponents="1" format="ascii">
          0.000599767 0.000599828 0.000599912 0.000600031 0.000600198 0.000600432 0.000600759 0.000601216 0.00060185 0.000602728 0.00060394 0.000605604
          0.00060788 0.000610982 0.000615196 0.000620906 0.000628629 0.000639079 0.000653254 0.000672591 0.000699236 0.00073655 0.000790118 0.000869943
          0.00099582 0.00121278 0.00164513 0.00277662 0.00834401 0.127214
        </DataArray>
        <DataArray type="Float32" Name="K" NumberOfComponents="1" format="ascii">
          9.84675e-11 9.84673e-11 9.84671e-11 9.84668e-11 9.84664e-11 9.84658e-11 9.8465e-11 9.84638e-11 9.84622e-11 9.846e-11 9.84569e-11 9.84527e-11
          9.84469e-11 9.8439e-11 9.84283e-11 9.84138e-11 9.83942e-11 9.83677e-11 9.83318e-11 9.82827e-11 9.82152e-11 9.81207e-11 9.79852e-11 9.77835e-11
          9.71267e-11 9.65833e-11 9.55078e-11 9.27397e-11 8.03465e-11 1.8855e-13
        </DataArray>
        <DataArray type="Float32" Name="X^w_H2O" NumberOfComponents="1" format="ascii">
          0.999855 0.999855 0.999855 0.999855 0.999855 0.999855 0.999855 0.999855 0.999855 0.999855 0.999855 0.999855
          0.999855 0.999855 0.999855 0.999855 0.999855 0.999855 0.999855 0.999855 0.999855 0.999855 0.999855 0.999855
          0.999855 0.999854 0.999852 0.999848 0.999839 0.99984
        </DataArray>
        <DataArray type="Float32" Name="X^w_Air" NumberOfComponents="1" format="ascii">
          0 0 0 0 0 0 0 0 0 0 0 0
          0 0 0 0 0 0 0 0 0 0 0 0
          0 0 0 0 0 0
        </DataArray>
        <DataArray type="Float32" Name="X^w_AuComplex" NumberOfComponents="1" format="ascii">
          1.12915e-16 1.12925e-16 1.12926e-16 1.12929e-16 1.12929e-16 1.12932e-16 1.12932e-16 1.12933e-16 1.12928e-16 1.12931e-16 1.12923e-16 1.12917e-16
          1.12921e-16 1.12924e-16 1.12927e-16 1.12913e-16 1.12904e-16 1.12906e-16 1.12898e-16 1.12888e-16 1.12869e-16 1.1287e-16 1.28958e-16 2.91465e-14
          5.50694e-11 9.51566e-11 1.9007e-10 4.7493e-10 3.58585e-15 3.4858e-15
        </DataArray>
        <DataArray type="Float32" Name="X^w_nanoAu" NumberOfComponents="1" format="ascii">
          3.4682e-19 3.46851e-19 3.46855e-19 3.46862e-19 3.46863e-19 3.46873e-19 3.46873e-19 3.46877e-19 3.46862e-19 3.46871e-19 3.46847e-19 3.4683e-19
          3.46843e-19 3.46854e-19 3.46865e-19 3.46825e-19 3.46804e-19 3.46815e-19 3.468e-19 3.4681e-19 3.49167e-19 5.71307e-19 2.11462e-17 1.92255e-15
          1.69886e-13 2.27205e-13 3.26497e-13 5.13169e-13 2.05909e-18 1.98093e-18
        </DataArray>
        <DataArray type="Float32" Name="X^w_cyanide" NumberOfComponents="1" format="ascii">
          3.26544e-06 3.26544e-06 3.26544e-06 3.26544e-06 3.26544e-06 3.26544e-06 3.26544e-06 3.26543e-06 3.26543e-06 3.26542e-06 3.26541e-06 3.2654e-06
          3.26538e-06 3.26535e-06 3.26532e-06 3.26527e-06 3.2652e-06 3.26511e-06 3.26499e-06 3.26482e-06 3.26457e-06 3.26422e-06 3.26371e-06 3.26294e-06
          3.26221e-06 4.35748e-06 6.24965e-06 1.00279e-05 1.94633e-05 1.9238e-05
        </DataArray>
        <DataArray type="Float32" Name="X^w_citrate" NumberOfComponents="1" format="ascii">
          0.000141798 0.000141798 0.000141798 0.000141798 0.000141798 0.000141798 0.000141798 0.000141798 0.000141798 0.000141798 0.000141798 0.000141798
          0.000141798 0.000141797 0.000141797 0.000141797 0.000141796 0.000141796 0.000141795 0.000141794 0.000141792 0.000141789 0.000141785 0.00014178
          0.000141771 0.000141756 0.000141728 0.000141663 0.00014145 0.000139812
        </DataArray>
        <DataArray type="Float32" Name="X^w_substrate" NumberOfComponents="1" format="ascii">
          1.2135e-11 1.62471e-11 2.17514e-11 2.91192e-11 3.89812e-11 5.21825e-11 6.98557e-11 9.35193e-11 1.25213e-10 1.67677e-10 2.24606e-10 3.00991e-10
          4.036e-10 5.41658e-10 7.2782e-10 9.796e-10 1.3215e-09 1.7883e-09 2.43024e-09 3.32162e-09 4.57552e-09 6.37047e-09 9.00187e-09 1.2989e-08
          1.93209e-08 3.00981e-08 5.05367e-08 9.70703e-08 2.47846e-07 1.40307e-06
        </DataArray>
        <DataArray type="Float32" Name="m^w_H2O" NumberOfComponents="1" format="ascii">
          55492.7 55492.6 55492.6 55492.6 55492.6 55492.6 55492.6 55492.6 55492.6 55492.6 55492.6 55492.6
          55492.6 55492.5 55492.5 55492.5 55492.5 55492.5 55492.5 55492.5 55492.5 55492.5 55492.5 55492.5
          55492.4 55492.4 55492.3 55492 55491.5 55491.6
        </DataArray>
        <DataArray type="Float32" Name="m^w_Air" NumberOfComponents="1" format="ascii">
          0 0 0 0 0 0 0 0 0 0 0 0
          0 0 0 0 0 0 0 0 0 0 0 0
          0 0 0 0 0 0
        </DataArray>
        <DataArray type="Float32" Name="m^w_AuComplex" NumberOfComponents="1" format="ascii">
          5.73176e-13 5.73228e-13 5.73234e-13 5.73246e-13 5.73247e-13 5.73264e-13 5.73263e-13 5.7327e-13 5.73244e-13 5.73258e-13 5.73218e-13 5.73187e-13
          5.73206e-13 5.73221e-13 5.73235e-13 5.73163e-13 5.7312e-13 5.73127e-13 5.73087e-13 5.73039e-13 5.7294e-13 5.72949e-13 6.54613e-13 1.47952e-10
          2.79541e-07 4.8303e-07 9.64827e-07 2.41082e-06 1.82023e-11 1.76945e-11
        </DataArray>
        <DataArray type="Float32" Name="m^w_nanoAu" NumberOfComponents="1" format="ascii">
          1.76052e-15 1.76068e-15 1.7607e-15 1.76073e-15 1.76074e-15 1.76079e-15 1.76079e-15 1.76081e-15 1.76073e-15 1.76078e-15 1.76066e-15 1.76057e-15
          1.76064e-15 1.76069e-15 1.76074e-15 1.76054e-15 1.76044e-15 1.76049e-15 1.76042e-15 1.76047e-15 1.77243e-15 2.90005e-15 1.07342e-13 9.7592e-12
          8.6237e-10 1.15333e-09 1.65735e-09 2.60493e-09 1.04523e-14 1.00555e-14
        </DataArray>
        <DataArray type="Float32" Name="m^w_cyanide" NumberOfComponents="1" format="ascii">
          0.125479 0.125479 0.125479 0.125479 0.125479 0.125479 0.125479 0.125479 0.125479 0.125478 0.125478 0.125477
          0.125477 0.125476 0.125474 0.125472 0.12547 0.125466 0.125461 0.125455 0.125445 0.125432 0.125412 0.125382
          0.125354 0.167442 0.240151 0.385335 0.747903 0.739244
        </DataArray>
        <DataArray type="Float32" Name="m^w_citrate" NumberOfComponents="1" format="ascii">
          0.749754 0.749754 0.749753 0.749753 0.749753 0.749753 0.749753 0.749752 0.749752 0.749752 0.749751 0.74975
          0.749749 0.749748 0.749747 0.749745 0.749742 0.749738 0.749734 0.749727 0.749717 0.749704 0.749684 0.749654
          0.749606 0.749528 0.749379 0.749034 0.747909 0.739246
        </DataArray>
        <DataArray type="Float32" Name="m^w_substrate" NumberOfComponents="1" format="ascii">
          6.7347e-08 9.01685e-08 1.20717e-07 1.61606e-07 2.16338e-07 2.89603e-07 3.87686e-07 5.19015e-07 6.94906e-07 9.30575e-07 1.24652e-06 1.67044e-06
          2.2399e-06 3.0061e-06 4.03926e-06 5.43659e-06 7.33407e-06 9.92469e-06 1.34873e-05 1.84343e-05 2.53932e-05 3.53548e-05 4.99586e-05 7.20865e-05
          0.000107227 0.000167038 0.000280468 0.00053872 0.00137549 0.00778676
        </DataArray>
        <DataArray type="Float32" Name="process rank" NumberOfComponents="1" format="ascii">
          0 0 0 0 0 0 0 0 0 0 0 0
          0 0 0 0 0 0 0 0 0 0 0 0
          0 0 0 0 0 0
        </DataArray>
      </CellData>
      <Points>
        <DataArray type="Float32" Name="Coordinates" NumberOfComponents="3" format="ascii">
          0 0 0 0.5 0 0 0 0.0333333 0 0.5 0.0333333 0
          0 0.0666667 0 0.5 0.0666667 0 0 0.1 0 0.5 0.1 0
          0 0.133333 0 0.5 0.133333 0 0 0.166667 0 0.5 0.166667 0
          0 0.2 0 0.5 0.2 0 0 0.233333 0 0.5 0.233333 0
          0 0.266667 0 0.5 0.266667 0 0 0.3 0 0.5 0.3 0
          0 0.333333 0 0.5 0.333333 0 0 0.366667 0 0.5 0.366667 0
          0 0.4 0 0.5 0.4 0 0 0.433333 0 0.5 0.433333 0
          0 0.466667 0 0.5 0.466667 0 0 0.5 0 0.5 0.5 0
          0 0.533333 0 0.5 0.533333 0 0 0.566667 0 0.5 0.566667 0
          0 0.6 0 0.5 0.6 0 0 0.633333 0 0.5 0.633333 0
          0 0.666667 0 0.5 0.666667 0 0 0.7 0 0.5 0.7 0
          0 0.733333 0 0.5 0.733333 0 0 0.766667 0 0.5 0.766667 0
          0 0.8 0 0.5 0.8 0 0 0.833333 0 0.5 0.833333 0
          0 0.866667 0 0.5 0.866667 0 0 0.9 0 0.5 0.9 0
          0 0.933333 0 0.5 0.933333 0 0 0.966667 0 0.5 0.966667 0
          0 1 0 0.5 1 0
        </DataArray>
      </Points>
      <Cells>
        <DataArray type="Int32" Name="connectivity" NumberOfComponents="1" format="ascii">
          0 1 3 2 2 3 5 4 4 5 7 6
          6 7 9 8 8 9 11 10 10 11 13 12
          12 13 15 14 14 15 17 16 16 17 19 18
          18 19 21 20 20 21 23 22 22 23 25 24
          24 25 27 26 26 27 29 28 28 29 31 30
          30 31 33 32 32 33 35 34 34 35 37 36
          36 37 39 38 38 39 41 40 40 41 43 42
          42 43 45 44 44 45 47 46 46 47 49 48
          48 49 51 50 50 51 53 52 52 53 55 54
          54 55 57 56 56 57 59 58 58 59 61 60
        </DataArray>
        <DataArray type="Int32" Name="offsets" NumberOfComponents="1" format="ascii">
          4 8 12 16 20 24 28 32 36 40 44 48
          52 56 60 64 68 72 76 80 84 88 92 96
          100 104 108 112 116 120
        </DataArray>
        <DataArray type="UInt8" Name="types" NumberOfComponents="1" format="ascii">
          9 9 9 9 9 9 9 9 9 9 9 9
          9 9 9 9 9 9 9 9 9 9 9 9
          9 9 9 9 9 9
        </DataArray>
      </Cells>
    </Piece>
  </UnstructuredGrid>
</VTKFile>
