<?xml version="1.0"?>
<VTKFile type="UnstructuredGrid" version="0.1" byte_order="LittleEndian">
  <UnstructuredGrid>
    <Piece NumberOfCells="30" NumberOfPoints="62">
      <CellData Scalars="Sg">
        <DataArray type="Float32" Name="Sg" NumberOfComponents="1" format="ascii">
          0 0 0 0 0 0 0 0 0 0 0 0
          0 0 0 0 0 0 0 0 0 0 0 0
          0 0 0 0 0 0
        </DataArray>
        <DataArray type="Float32" Name="Sl" NumberOfComponents="1" format="ascii">
          1 1 1 1 1 1 1 1 1 1 1 1
          1 1 1 1 1 1 1 1 1 1 1 1
          1 1 1 1 1 1
        </DataArray>
        <DataArray type="Float32" Name="pg" NumberOfComponents="1" format="ascii">
          24687.8 24360.9 24034 23707 23380.1 23053.1 22726.2 22399.3 22072.3 21745.4 21418.4 21091.5
          20764.6 20437.6 20110.7 19783.7 19456.8 19129.8 18802.9 18476 18149 17822.1 17495.1 17168.2
          16841.3 16514.3 16187.4 15860.4 15533.5 15209.5
        </DataArray>
        <DataArray type="Float32" Name="pl" NumberOfComponents="1" format="ascii">
          110628 110301 109974 109647 109320 108993 108666 108339 108012 107685 107358 107031
          106704 106377 106050 105723 105396 105070 104743 104416 104089 103762 103435 103108
          102781 102454 102127 101800 101473 101149
        </DataArray>
        <DataArray type="Float32" Name="pc" NumberOfComponents="1" format="ascii">
          -85939.7 -85939.7 -85939.7 -85939.7 -85939.7 -85939.7 -85939.7 -85939.7 -85939.7 -85939.7 -85939.7 -85939.7
          -85939.7 -85939.7 -85939.7 -85939.7 -85939.7 -85939.7 -85939.7 -85939.7 -85939.7 -85939.7 -85939.7 -85939.7
          -85939.7 -85939.7 -85939.7 -85939.7 -85939.7 -85939.7
        </DataArray>
        <DataArray type="Float32" Name="rhoL" NumberOfComponents="1" format="ascii">
          999.855 999.855 999.855 999.855 999.855 999.854 999.854 999.854 999.854 999.854 999.854 999.854
          999.853 999.853 999.853 999.853 999.853 999.853 999.852 999.852 999.852 999.852 999.852 999.852
          999.852 999.851 999.851 999.851 999.851 999.851
        </DataArray>
        <DataArray type="Float32" Name="rhoG" NumberOfComponents="1" format="ascii">
          0.30585 0.3018 0.29775 0.293699 0.289649 0.285598 0.281548 0.277498 0.273447 0.269397 0.265347 0.261296
          0.257246 0.253195 0.249145 0.245095 0.241044 0.236994 0.232944 0.228893 0.224843 0.220793 0.216742 0.212692
          0.208641 0.204591 0.200541 0.19649 0.19244 0.188426
        </DataArray>
        <DataArray type="Float32" Name="mobL" NumberOfComponents="1" format="ascii">
          722.171 722.17 722.17 722.17 722.17 722.17 722.169 722.169 722.169 722.169 722.169 722.169
          722.168 722.168 722.168 722.168 722.168 722.167 722.167 722.167 722.167 722.167 722.166 722.166
          722.166 722.166 722.166 722.166 722.165 722.165
        </DataArray>
        <DataArray type="Float32" Name="mobG" NumberOfComponents="1" format="ascii">
          0 0 0 0 0 0 0 0 0 0 0 0
          0 0 0 0 0 0 0 0 0 0 0 0
          0 0 0 0 0 0
        </DataArray>
        <DataArray type="Float32" Name="porosity" NumberOfComponents="1" format="ascii">
          0.298811 0.298811 0.298811 0.298811 0.298811 0.29881 0.298809 0.298809 0.298807 0.298806 0.298803 0.2988
          0.298795 0.298789 0.298781 0.298769 0.298754 0.298733 0.298705 0.298667 0.298614 0.29854 0.298433 0.298274
          0.297754 0.297322 0.296458 0.294192 0.283221 0.0453493
        </DataArray>
        <DataArray type="Float32" Name="temperature" NumberOfComponents="1" format="ascii">
          281.15 281.15 281.15 281.15 281.15 281.15 281.15 281.15 281.15 281.15 281.15 281.15
          281.15 281.15 281.15 281.15 281.15 281.15 281.15 281.15 281.15 281.15 281.15 281.15
          281.15 281.15 281.15 281.15 281.15 281.15
        </DataArray>
        <DataArray type="Float32" Name="phase presence" NumberOfComponents="1" format="ascii">
          1 1 1 1 1 1 1 1 1 1 1 1
          1 1 1 1 1 1 1 1 1 1 1 1
          1 1 1 1 1 1
        </DataArray>
        <DataArray type="Float32" Name="precipitateVolumeFraction_au" NumberOfComponents="1" format="ascii">
          5.52714e-10 5.52764e-10 5.52771e-10 5.52782e-10 5.52784e-10 5.52802e-10 5.52802e-10 5.52809e-10 5.52786e-10 5.52802e-10 5.52767e-10 5.52742e-10
          5.52766e-10 5.52789e-10 5.52814e-10 5.5276e-10 5.52739e-10 5.52775e-10 5.52775e-10 5.52784e-10 5.52765e-10 5.52797e-10 5.53063e-10 1.05902e-09
          0.000269962 0.000269949 0.000269929 0.000269877 5.52198e-10 5.50941e-10
        </DataArray>
        <DataArray type="Float32" Name="precipitateVolumeFraction_nanoAu" NumberOfComponents="1" format="ascii">
          7.96286e-14 7.96359e-14 7.96368e-14 7.96384e-14 7.96386e-14 7.96411e-14 7.9641e-14 7.9642e-14 7.96386e-14 7.96406e-14 7.96353e-14 7.96314e-14
          7.96344e-14 7.96371e-14 7.96398e-14 7.96308e-14 7.96262e-14 7.96291e-14 7.96262e-14 7.96232e-14 7.96146e-14 7.96241e-14 9.10753e-14 2.05778e-11
          3.88692e-08 5.19322e-08 7.45322e-08 1.19223e-07 4.74133e-13 4.66323e-13
        </DataArray>
        <DataArray type="Float32" Name="precipitateVolumeFraction_d" NumberOfComponents="1" format="ascii">
          0.000594302 0.000594362 0.000594446 0.000594564 0.00059473 0.000594962 0.000595287 0.000595741 0.000596371 0.000597243 0.000598445 0.000600097
          0.000602357 0.000605437 0.000609621 0.000615289 0.000622956 0.000633333 0.000647408 0.000666612 0.00069308 0.000730156 0.0007834 0.000862785
          0.000988059 0.00120423 0.00163579 0.00276921 0.00838945 0.127325
        </DataArray>
        <DataArray type="Float32" Name="precipitateVolumeFraction_p" NumberOfComponents="1" format="ascii">
          0.000594302 0.000594362 0.000594446 0.000594564 0.00059473 0.000594962 0.000595287 0.000595741 0.000596371 0.000597243 0.000598445 0.000600097
          0.000602357 0.000605437 0.000609621 0.000615289 0.000622956 0.000633333 0.000647408 0.000666612 0.00069308 0.000730156 0.0007834 0.000862785
          0.000988059 0.00120423 0.00163579 0.00276921 0.00838945 0.127325
        </DataArray>
        <DataArray type="Float32" Name="K" NumberOfComponents="1" format="ascii">
          9.84814e-11 9.84812e-11 9.8481e-11 9.84807e-11 9.84803e-11 9.84797e-11 9.84789e-11 9.84777e-11 9.84761e-11 9.84739e-11 9.84708e-11 9.84667e-11
          9.84609e-11 9.84531e-11 9.84425e-11 9.84281e-11 9.84086e-11 9.83823e-11 9.83466e-11 9.82979e-11 9.82308e-11 9.81369e-11 9.80022e-11 9.78016e-11
          9.71462e-11 9.66047e-11 9.5531e-11 9.27576e-11 8.02488e-11 1.85718e-13
        </DataArray>
        <DataArray type="Float32" Name="X^w_H2O" NumberOfComponents="1" format="ascii">
          0.999855 0.999855 0.999855 0.999855 0.999855 0.999855 0.999855 0.999855 0.999855 0.999855 0.999855 0.999855
          0.999855 0.999855 0.999855 0.999855 0.999855 0.999855 0.999855 0.999855 0.999855 0.999855 0.999855 0.999855
          0.999855 0.999854 0.999852 0.999848 0.999839 0.99984
        </DataArray>
        <DataArray type="Float32" Name="X^w_Air" NumberOfComponents="1" format="ascii">
          0 0 0 0 0 0 0 0 0 0 0 0
          0 0 0 0 0 0 0 0 0 0 0 0
          0 0 0 0 0 0
        </DataArray>
        <DataArray type="Float32" Name="X^w_AuComplex" NumberOfComponents="1" format="ascii">
          1.12913e-16 1.12923e-16 1.12924e-16 1.12927e-16 1.12927e-16 1.1293e-16 1.1293e-16 1.12932e-16 1.12927e-16 1.12929e-16 1.12921e-16 1.12915e-16
          1.12919e-16 1.12922e-16 1.12925e-16 1.12911e-16 1.12902e-16 1.12904e-16 1.12896e-16 1.12886e-16 1.12866e-16 1.12868e-16 1.28958e-16 2.91488e-14
          5.50683e-11 9.51547e-11 1.90068e-10 4.7493e-10 3.58595e-15 3.48589e-15
        </DataArray>
        <DataArray type="Float32" Name="X^w_nanoAu" NumberOfComponents="1" format="ascii">
          3.46816e-19 3.46847e-19 3.46851e-19 3.46858e-19 3.46859e-19 3.4687e-19 3.46869e-19 3.46873e-19 3.46859e-19 3.46867e-19 3.46844e-19 3.46827e-19
          3.4684e-19 3.46851e-19 3.46861e-19 3.46821e-19 3.468e-19 3.46811e-19 3.46796e-19 3.46806e-19 3.49162e-19 5.71295e-19 2.11457e-17 1.92252e-15
          1.69884e-13 2.27203e-13 3.26495e-13 5.1317e-13 2.05915e-18 1.98098e-18
        </DataArray>
        <DataArray type="Float32" Name="X^w_cyanide" NumberOfComponents="1" format="ascii">
          3.26542e-06 3.26542e-06 3.26542e-06 3.26542e-06 3.26542e-06 3.26542e-06 3.26541e-06 3.26541e-06 3.26541e-06 3.2654e-06 3.26539e-06 3.26537e-06
          3.26536e-06 3.26533e-06 3.26529e-06 3.26524e-06 3.26518e-06 3.26509e-06 3.26496e-06 3.26479e-06 3.26454e-06 3.26419e-06 3.26368e-06 3.2629e-06
          3.26217e-06 4.35744e-06 6.24961e-06 1.00279e-05 1.94636e-05 1.92382e-05
        </DataArray>
        <DataArray type="Float32" Name="X^w_citrate" NumberOfComponents="1" format="ascii">
          0.000141798 0.000141798 0.000141798 0.000141798 0.000141798 0.000141798 0.000141798 0.000141798 0.000141798 0.000141798 0.000141798 0.000141798
          0.000141798 0.000141797 0.000141797 0.000141797 0.000141796 0.000141796 0.000141795 0.000141793 0.000141792 0.000141789 0.000141785 0.00014178
          0.000141771 0.000141756 0.000141728 0.000141663 0.000141452 0.000139813
        </DataArray>
        <DataArray type="Float32" Name="X^w_substrate" NumberOfComponents="1" format="ascii">
          1.28998e-11 1.72316e-11 2.30167e-11 3.07425e-11 4.10603e-11 5.48401e-11 7.32456e-11 9.78334e-11 1.30689e-10 1.7461e-10 2.33358e-10 3.12003e-10
          4.17406e-10 5.58899e-10 7.49257e-10 1.00612e-09 1.35412e-09 1.82815e-09 2.47854e-09 3.37955e-09 4.64405e-09 6.44995e-09 9.09118e-09 1.30838e-08
          1.94097e-08 3.01524e-08 5.04842e-08 9.67066e-08 2.46519e-07 1.40185e-06
        </DataArray>
        <DataArray type="Float32" Name="m^w_H2O" NumberOfComponents="1" format="ascii">
          55492.7 55492.6 55492.6 55492.6 55492.6 55492.6 55492.6 55492.6 55492.6 55492.6 55492.6 55492.6
          55492.6 55492.5 55492.5 55492.5 55492.5 55492.5 55492.5 55492.5 55492.5 55492.5 55492.5 55492.5
          55492.4 55492.4 55492.3 55492 55491.5 55491.6
        </DataArray>
        <DataArray type="Float32" Name="m^w_Air" NumberOfComponents="1" format="ascii">
          0 0 0 0 0 0 0 0 0 0 0 0
          0 0 0 0 0 0 0 0 0 0 0 0
          0 0 0 0 0 0
        </DataArray>
        <DataArray type="Float32" Name="m^w_AuComplex" NumberOfComponents="1" format="ascii">
          5.73166e-13 5.73218e-13 5.73224e-13 5.73236e-13 5.73237e-13 5.73255e-13 5.73254e-13 5.73261e-13 5.73235e-13 5.73249e-13 5.73208e-13 5.73178e-13
          5.73197e-13 5.73212e-13 5.73226e-13 5.73153e-13 5.7311e-13 5.73117e-13 5.73076e-13 5.73028e-13 5.72928e-13 5.72936e-13 6.54613e-13 1.47964e-10
          2.79535e-07 4.8302e-07 9.64814e-07 2.41082e-06 1.82028e-11 1.76949e-11
        </DataArray>
        <DataArray type="Float32" Name="m^w_nanoAu" NumberOfComponents="1" format="ascii">
          1.7605e-15 1.76066e-15 1.76068e-15 1.76071e-15 1.76072e-15 1.76077e-15 1.76077e-15 1.76079e-15 1.76071e-15 1.76076e-15 1.76064e-15 1.76055e-15
          1.76062e-15 1.76067e-15 1.76073e-15 1.76052e-15 1.76042e-15 1.76047e-15 1.7604e-15 1.76044e-15 1.77241e-15 2.89998e-15 1.07339e-13 9.75903e-12
          8.62358e-10 1.15332e-09 1.65734e-09 2.60493e-09 1.04526e-14 1.00558e-14
        </DataArray>
        <DataArray type="Float32" Name="m^w_cyanide" NumberOfComponents="1" format="ascii">
          0.125478 0.125478 0.125478 0.125478 0.125478 0.125478 0.125478 0.125478 0.125478 0.125477 0.125477 0.125476
          0.125476 0.125475 0.125473 0.125471 0.125469 0.125465 0.12546 0.125454 0.125444 0.125431 0.125411 0.125381
          0.125353 0.16744 0.240149 0.385335 0.747913 0.739253
        </DataArray>
        <DataArray type="Float32" Name="m^w_citrate" NumberOfComponents="1" format="ascii">
          0.749754 0.749754 0.749753 0.749753 0.749753 0.749753 0.749753 0.749752 0.749752 0.749752 0.749751 0.74975
          0.749749 0.749748 0.749747 0.749745 0.749742 0.749738 0.749733 0.749726 0.749717 0.749703 0.749683 0.749653
          0.749605 0.749528 0.749379 0.749037 0.747919 0.739255
        </DataArray>
        <DataArray type="Float32" Name="m^w_substrate" NumberOfComponents="1" format="ascii">
          7.15914e-08 9.56321e-08 1.27738e-07 1.70615e-07 2.27877e-07 3.04353e-07 4.06499e-07 5.42957e-07 7.253e-07 9.69054e-07 1.29509e-06 1.73156e-06
          2.31653e-06 3.10178e-06 4.15823e-06 5.58377e-06 7.51511e-06 1.01459e-05 1.37554e-05 1.87558e-05 2.57736e-05 3.57959e-05 5.04542e-05 7.26127e-05
          0.00010772 0.00016734 0.000280177 0.000536702 0.00136813 0.00777997
        </DataArray>
        <DataArray type="Float32" Name="process rank" NumberOfComponents="1" format="ascii">
          0 0 0 0 0 0 0 0 0 0 0 0
          0 0 0 0 0 0 0 0 0 0 0 0
          0 0 0 0 0 0
        </DataArray>
      </CellData>
      <Points>
        <DataArray type="Float32" Name="Coordinates" NumberOfComponents="3" format="ascii">
          0 0 0 0.5 0 0 0 0.0333333 0 0.5 0.0333333 0
          0 0.0666667 0 0.5 0.0666667 0 0 0.1 0 0.5 0.1 0
          0 0.133333 0 0.5 0.133333 0 0 0.166667 0 0.5 0.166667 0
          0 0.2 0 0.5 0.2 0 0 0.233333 0 0.5 0.233333 0
          0 0.266667 0 0.5 0.266667 0 0 0.3 0 0.5 0.3 0
          0 0.333333 0 0.5 0.333333 0 0 0.366667 0 0.5 0.366667 0
          0 0.4 0 0.5 0.4 0 0 0.433333 0 0.5 0.433333 0
          0 0.466667 0 0.5 0.466667 0 0 0.5 0 0.5 0.5 0
          0 0.533333 0 0.5 0.533333 0 0 0.566667 0 0.5 0.566667 0
          0 0.6 0 0.5 0.6 0 0 0.633333 0 0.5 0.633333 0
          0 0.666667 0 0.5 0.666667 0 0 0.7 0 0.5 0.7 0
          0 0.733333 0 0.5 0.733333 0 0 0.766667 0 0.5 0.766667 0
          0 0.8 0 0.5 0.8 0 0 0.833333 0 0.5 0.833333 0
          0 0.866667 0 0.5 0.866667 0 0 0.9 0 0.5 0.9 0
          0 0.933333 0 0.5 0.933333 0 0 0.966667 0 0.5 0.966667 0
          0 1 0 0.5 1 0
        </DataArray>
      </Points>
      <Cells>
        <DataArray type="Int32" Name="connectivity" NumberOfComponents="1" format="ascii">
          0 1 3 2 2 3 5 4 4 5 7 6
          6 7 9 8 8 9 11 10 10 11 13 12
          12 13 15 14 14 15 17 16 16 17 19 18
          18 19 21 20 20 21 23 22 22 23 25 24
          24 25 27 26 26 27 29 28 28 29 31 30
          30 31 33 32 32 33 35 34 34 35 37 36
          36 37 39 38 38 39 41 40 40 41 43 42
          42 43 45 44 44 45 47 46 46 47 49 48
          48 49 51 50 50 51 53 52 52 53 55 54
          54 55 57 56 56 57 59 58 58 59 61 60
        </DataArray>
        <DataArray type="Int32" Name="offsets" NumberOfComponents="1" format="ascii">
          4 8 12 16 20 24 28 32 36 40 44 48
          52 56 60 64 68 72 76 80 84 88 92 96
          100 104 108 112 116 120
        </DataArray>
        <DataArray type="UInt8" Name="types" NumberOfComponents="1" format="ascii">
          9 9 9 9 9 9 9 9 9 9 9 9
          9 9 9 9 9 9 9 9 9 9 9 9
          9 9 9 9 9 9
        </DataArray>
      </Cells>
    </Piece>
  </UnstructuredGrid>
</VTKFile>
