<?xml version="1.0"?>
<VTKFile type="UnstructuredGrid" version="0.1" byte_order="LittleEndian">
  <UnstructuredGrid>
    <Piece NumberOfCells="30" NumberOfPoints="62">
      <CellData Scalars="Sg">
        <DataArray type="Float32" Name="Sg" NumberOfComponents="1" format="ascii">
          0.0271318 0 0 0 0 0 0 0 0 0 0 0
          0 0 0 0 0 0 0 0 0 0 0 0
          0 0 0 0 0 0
        </DataArray>
        <DataArray type="Float32" Name="Sl" NumberOfComponents="1" format="ascii">
          0.972868 1 1 1 1 1 1 1 1 1 1 1
          1 1 1 1 1 1 1 1 1 1 1 1
          1 1 1 1 1 1
        </DataArray>
        <DataArray type="Float32" Name="pg" NumberOfComponents="1" format="ascii">
          32460.2 24360.9 24034 23707 23380.1 23053.1 22726.2 22399.3 22072.3 21745.4 21418.4 21091.5
          20764.6 20437.6 20110.7 19783.7 19456.8 19129.9 18802.9 18476 18149 17822.1 17495.1 17168.2
          16841.3 16514.3 16187.4 15860.4 15533.5 15206.6
        </DataArray>
        <DataArray type="Float32" Name="pl" NumberOfComponents="1" format="ascii">
          110628 110301 109974 109647 109320 108993 108666 108339 108012 107685 107358 107031
          106704 106377 106050 105723 105396 105070 104743 104416 104089 103762 103435 103108
          102781 102454 102127 101800 101473 101146
        </DataArray>
        <DataArray type="Float32" Name="pc" NumberOfComponents="1" format="ascii">
          -78167.4 -85939.7 -85939.7 -85939.7 -85939.7 -85939.7 -85939.7 -85939.7 -85939.7 -85939.7 -85939.7 -85939.7
          -85939.7 -85939.7 -85939.7 -85939.7 -85939.7 -85939.7 -85939.7 -85939.7 -85939.7 -85939.7 -85939.7 -85939.7
          -85939.7 -85939.7 -85939.7 -85939.7 -85939.7 -85939.7
        </DataArray>
        <DataArray type="Float32" Name="rhoL" NumberOfComponents="1" format="ascii">
          999.855 999.855 999.855 999.855 999.855 999.854 999.854 999.854 999.854 999.854 999.854 999.854
          999.853 999.853 999.853 999.853 999.853 999.853 999.852 999.852 999.852 999.852 999.852 999.852
          999.852 999.851 999.851 999.851 999.851 999.851
        </DataArray>
        <DataArray type="Float32" Name="rhoG" NumberOfComponents="1" format="ascii">
          0.402139 0.3018 0.29775 0.293699 0.289649 0.285598 0.281548 0.277498 0.273447 0.269397 0.265347 0.261296
          0.257246 0.253195 0.249145 0.245095 0.241044 0.236994 0.232944 0.228893 0.224843 0.220793 0.216742 0.212692
          0.208641 0.204591 0.200541 0.19649 0.19244 0.18839
        </DataArray>
        <DataArray type="Float32" Name="mobL" NumberOfComponents="1" format="ascii">
          722.171 722.17 722.17 722.17 722.17 722.17 722.169 722.169 722.169 722.169 722.169 722.169
          722.168 722.168 722.168 722.168 722.168 722.167 722.167 722.167 722.167 722.167 722.166 722.166
          722.166 722.166 722.166 722.166 722.165 722.165
        </DataArray>
        <DataArray type="Float32" Name="mobG" NumberOfComponents="1" format="ascii">
          0 0 0 0 0 0 0 0 0 0 0 0
          0 0 0 0 0 0 0 0 0 0 0 0
          0 0 0 0 0 0
        </DataArray>
        <DataArray type="Float32" Name="porosity" NumberOfComponents="1" format="ascii">
          0.298544 0.298544 0.298544 0.298544 0.298543 0.298543 0.298542 0.298541 0.29854 0.298538 0.298535 0.298531
          0.298525 0.298518 0.298508 0.298495 0.298477 0.298452 0.298419 0.298375 0.298313 0.298228 0.298107 0.29793
          0.297386 0.296928 0.296067 0.294043 0.286585 0.148527
        </DataArray>
        <DataArray type="Float32" Name="temperature" NumberOfComponents="1" format="ascii">
          281.15 281.15 281.15 281.15 281.15 281.15 281.15 281.15 281.15 281.15 281.15 281.15
          281.15 281.15 281.15 281.15 281.15 281.15 281.15 281.15 281.15 281.15 281.15 281.15
          281.15 281.15 281.15 281.15 281.15 281.15
        </DataArray>
        <DataArray type="Float32" Name="phase presence" NumberOfComponents="1" format="ascii">
          3 1 1 1 1 1 1 1 1 1 1 1
          1 1 1 1 1 1 1 1 1 1 1 1
          1 1 1 1 1 1
        </DataArray>
        <DataArray type="Float32" Name="precipitateVolumeFraction_au" NumberOfComponents="1" format="ascii">
          5.51319e-10 5.51315e-10 5.5131e-10 5.51311e-10 5.51311e-10 5.51321e-10 5.51322e-10 5.51329e-10 5.51312e-10 5.51325e-10 5.51295e-10 5.51274e-10
          5.51295e-10 5.51315e-10 5.51338e-10 5.51287e-10 5.51267e-10 5.51302e-10 5.51302e-10 5.5131e-10 5.51292e-10 5.51323e-10 5.51371e-10 6.68114e-10
          0.000269962 0.000269949 0.000269926 0.00026988 5.50737e-10 5.49533e-10
        </DataArray>
        <DataArray type="Float32" Name="precipitateVolumeFraction_nanoAu" NumberOfComponents="1" format="ascii">
          1.55309e-12 1.52887e-12 1.5403e-12 1.55073e-12 1.55193e-12 1.55997e-12 1.55914e-12 1.56002e-12 1.55357e-12 1.55628e-12 1.55097e-12 1.54772e-12
          1.5513e-12 1.55373e-12 1.55546e-12 1.5518e-12 1.55102e-12 1.55276e-12 1.55277e-12 1.55299e-12 1.55248e-12 1.55303e-12 1.56457e-12 2.23664e-11
          3.90385e-08 5.21445e-08 7.4757e-08 1.19208e-07 1.93576e-12 1.90273e-12
        </DataArray>
        <DataArray type="Float32" Name="precipitateVolumeFraction_d" NumberOfComponents="1" format="ascii">
          0.000727754 0.000727824 0.000727923 0.000728062 0.000728258 0.000728532 0.000728917 0.000729454 0.0007302 0.000731234 0.00073266 0.000734619
          0.000737297 0.000740944 0.000745892 0.000752586 0.000761622 0.000773815 0.000790295 0.000812673 0.000843322 0.000885906 0.000946388 0.00103519
          0.00117224 0.0014008 0.0018315 0.00284361 0.00670774 0.0757367
        </DataArray>
        <DataArray type="Float32" Name="precipitateVolumeFraction_p" NumberOfComponents="1" format="ascii">
          0.000727754 0.000727824 0.000727923 0.000728062 0.000728258 0.000728532 0.000728917 0.000729454 0.0007302 0.000731234 0.00073266 0.000734619
          0.000737297 0.000740944 0.000745892 0.000752586 0.000761622 0.000773815 0.000790295 0.000812673 0.000843322 0.000885906 0.000946388 0.00103519
          0.00117224 0.0014008 0.0018315 0.00284361 0.00670774 0.0757367
        </DataArray>
        <DataArray type="Float32" Name="K" NumberOfComponents="1" format="ascii">
          9.8143e-11 9.81428e-11 9.81426e-11 9.81422e-11 9.81417e-11 9.8141e-11 9.814e-11 9.81387e-11 9.81368e-11 9.81342e-11 9.81306e-11 9.81256e-11
          9.81188e-11 9.81096e-11 9.80971e-11 9.80801e-11 9.80573e-11 9.80264e-11 9.79847e-11 9.79282e-11 9.78507e-11 9.77432e-11 9.75907e-11 9.73671e-11
          9.66846e-11 9.61144e-11 9.50473e-11 9.25778e-11 8.39277e-11 8.20169e-12
        </DataArray>
        <DataArray type="Float32" Name="X^w_H2O" NumberOfComponents="1" format="ascii">
          0.999845 0.999854 0.999855 0.999855 0.999855 0.999855 0.999855 0.999855 0.999855 0.999855 0.999855 0.999855
          0.999855 0.999855 0.999855 0.999855 0.999855 0.999855 0.999855 0.999855 0.999855 0.999855 0.999855 0.999855
          0.999855 0.999854 0.999852 0.999848 0.999839 0.99984
        </DataArray>
        <DataArray type="Float32" Name="X^w_Air" NumberOfComponents="1" format="ascii">
          9.72923e-06 5.57001e-07 9.90696e-09 1.72845e-10 2.96432e-12 5.00655e-14 8.30727e-16 1.3541e-17 2.17027e-19 3.41969e-21 5.28646e-23 8.02133e-25
          1.19658e-26 1.75038e-28 2.51421e-30 3.53707e-32 4.87958e-34 6.59751e-36 8.71804e-38 0 0 0 0 0
          0 0 0 0 0 0
        </DataArray>
        <DataArray type="Float32" Name="X^w_AuComplex" NumberOfComponents="1" format="ascii">
          2.20082e-13 1.91354e-15 1.92786e-15 1.94092e-15 1.94251e-15 1.95259e-15 1.95164e-15 1.9528e-15 1.94486e-15 1.94828e-15 1.94173e-15 1.93773e-15
          1.94221e-15 1.94526e-15 1.94742e-15 1.94287e-15 1.94187e-15 1.94398e-15 1.94391e-15 1.94405e-15 1.9432e-15 1.94355e-15 1.95932e-15 3.14656e-14
          5.54161e-11 9.57159e-11 1.90923e-10 4.75146e-10 1.43417e-14 1.38319e-14
        </DataArray>
        <DataArray type="Float32" Name="X^w_nanoAu" NumberOfComponents="1" format="ascii">
          2.14014e-13 6.66228e-18 6.71206e-18 6.75705e-18 6.76261e-18 6.79723e-18 6.79369e-18 6.79718e-18 6.7695e-18 6.78092e-18 6.75788e-18 6.74402e-18
          6.75956e-18 6.7701e-18 6.77736e-18 6.76156e-18 6.75823e-18 6.76567e-18 6.76569e-18 6.76656e-18 6.76668e-18 6.99401e-18 2.77875e-17 1.9436e-15
          1.70602e-13 2.28075e-13 3.27316e-13 5.12593e-13 8.38774e-18 8.00609e-18
        </DataArray>
        <DataArray type="Float32" Name="X^w_cyanide" NumberOfComponents="1" format="ascii">
          3.27422e-06 3.27444e-06 3.27463e-06 3.27481e-06 3.27497e-06 3.27512e-06 3.27526e-06 3.27538e-06 3.2755e-06 3.2756e-06 3.27568e-06 3.27575e-06
          3.27581e-06 3.27585e-06 3.27587e-06 3.27586e-06 3.27582e-06 3.27573e-06 3.27559e-06 3.27535e-06 3.27499e-06 3.27443e-06 3.27356e-06 3.27216e-06
          3.27034e-06 4.36704e-06 6.2602e-06 1.00336e-05 1.94139e-05 1.90518e-05
        </DataArray>
        <DataArray type="Float32" Name="X^w_citrate" NumberOfComponents="1" format="ascii">
          0.000141797 0.000141798 0.000141798 0.000141798 0.000141798 0.000141798 0.000141798 0.000141798 0.000141798 0.000141798 0.000141798 0.000141798
          0.000141798 0.000141797 0.000141797 0.000141797 0.000141796 0.000141795 0.000141794 0.000141792 0.000141789 0.000141785 0.000141779 0.000141769
          0.000141752 0.000141722 0.000141663 0.000141526 0.000141093 0.00013846
        </DataArray>
        <DataArray type="Float32" Name="X^w_substrate" NumberOfComponents="1" format="ascii">
          6.94087e-12 9.37682e-12 1.31269e-11 1.83801e-11 2.57361e-11 3.60381e-11 5.0468e-11 7.06847e-11 9.90184e-11 1.38747e-10 1.9449e-10 2.72775e-10
          3.82857e-10 5.3792e-10 7.56857e-10 1.06696e-09 1.50805e-09 2.13902e-09 3.04843e-09 4.37237e-09 6.32565e-09 9.25934e-09 1.37731e-08 2.0951e-08
          3.29062e-08 5.41963e-08 9.61625e-08 1.93692e-07 4.99192e-07 2.35605e-06
        </DataArray>
        <DataArray type="Float32" Name="m^w_H2O" NumberOfComponents="1" format="ascii">
          55492.1 55492.6 55492.6 55492.6 55492.6 55492.6 55492.6 55492.6 55492.6 55492.6 55492.6 55492.6
          55492.6 55492.5 55492.5 55492.5 55492.5 55492.5 55492.5 55492.5 55492.5 55492.5 55492.5 55492.5
          55492.4 55492.4 55492.3 55492.1 55491.5 55491.6
        </DataArray>
        <DataArray type="Float32" Name="m^w_Air" NumberOfComponents="1" format="ascii">
          0.335905 0.0192307 0.000342042 5.96753e-06 1.02344e-07 1.72853e-09 2.86812e-11 4.67507e-13 7.49294e-15 1.18066e-16 1.82517e-18 2.76939e-20
          4.13123e-22 6.04324e-24 8.68039e-26 1.22118e-27 1.68469e-29 2.27781e-31 3.00993e-33 3.88137e-35 4.87117e-37 0 0 0
          0 0 0 0 0 0
        </DataArray>
        <DataArray type="Float32" Name="m^w_AuComplex" NumberOfComponents="1" format="ascii">
          1.11718e-09 9.71349e-12 9.78616e-12 9.85244e-12 9.86051e-12 9.91167e-12 9.90685e-12 9.91277e-12 9.87242e-12 9.88981e-12 9.85657e-12 9.83625e-12
          9.85901e-12 9.87445e-12 9.88542e-12 9.86234e-12 9.85726e-12 9.86797e-12 9.86763e-12 9.86832e-12 9.86399e-12 9.86579e-12 9.94584e-12 1.59725e-10
          2.81301e-07 4.85869e-07 9.69158e-07 2.41192e-06 7.2801e-11 7.02128e-11
        </DataArray>
        <DataArray type="Float32" Name="m^w_nanoAu" NumberOfComponents="1" format="ascii">
          1.08637e-09 3.38189e-14 3.40716e-14 3.43e-14 3.43282e-14 3.45039e-14 3.44859e-14 3.45036e-14 3.43631e-14 3.44211e-14 3.43042e-14 3.42338e-14
          3.43127e-14 3.43662e-14 3.4403e-14 3.43228e-14 3.43059e-14 3.43437e-14 3.43438e-14 3.43482e-14 3.43488e-14 3.55027e-14 1.41054e-13 9.86602e-12
          8.66003e-10 1.15775e-09 1.66151e-09 2.602e-09 4.25775e-14 4.06402e-14
        </DataArray>
        <DataArray type="Float32" Name="m^w_cyanide" NumberOfComponents="1" format="ascii">
          0.125816 0.125825 0.125832 0.125839 0.125845 0.125851 0.125856 0.125861 0.125865 0.125869 0.125872 0.125875
          0.125877 0.125879 0.12588 0.125879 0.125878 0.125874 0.125869 0.12586 0.125846 0.125824 0.125791 0.125737
          0.125667 0.167809 0.240556 0.385554 0.746002 0.73209
        </DataArray>
        <DataArray type="Float32" Name="m^w_citrate" NumberOfComponents="1" format="ascii">
          0.749746 0.749753 0.749754 0.749753 0.749753 0.749753 0.749753 0.749753 0.749752 0.749752 0.749751 0.749751
          0.74975 0.749748 0.749747 0.749744 0.749741 0.749736 0.749729 0.749719 0.749704 0.749682 0.749648 0.749594
          0.749504 0.749348 0.749037 0.74831 0.746024 0.7321
        </DataArray>
        <DataArray type="Float32" Name="m^w_substrate" NumberOfComponents="1" format="ascii">
          3.85206e-08 5.20397e-08 7.28517e-08 1.02006e-07 1.42831e-07 2.00004e-07 2.80088e-07 3.92287e-07 5.49533e-07 7.70019e-07 1.07938e-06 1.51385e-06
          2.12478e-06 2.98535e-06 4.20041e-06 5.9214e-06 8.36936e-06 1.18711e-05 1.69182e-05 2.42658e-05 3.51061e-05 5.13875e-05 7.64377e-05 0.000116274
          0.000182622 0.000300778 0.000533682 0.00107495 0.00277041 0.0130756
        </DataArray>
        <DataArray type="Float32" Name="process rank" NumberOfComponents="1" format="ascii">
          0 0 0 0 0 0 0 0 0 0 0 0
          0 0 0 0 0 0 0 0 0 0 0 0
          0 0 0 0 0 0
        </DataArray>
      </CellData>
      <Points>
        <DataArray type="Float32" Name="Coordinates" NumberOfComponents="3" format="ascii">
          0 0 0 0.5 0 0 0 0.0333333 0 0.5 0.0333333 0
          0 0.0666667 0 0.5 0.0666667 0 0 0.1 0 0.5 0.1 0
          0 0.133333 0 0.5 0.133333 0 0 0.166667 0 0.5 0.166667 0
          0 0.2 0 0.5 0.2 0 0 0.233333 0 0.5 0.233333 0
          0 0.266667 0 0.5 0.266667 0 0 0.3 0 0.5 0.3 0
          0 0.333333 0 0.5 0.333333 0 0 0.366667 0 0.5 0.366667 0
          0 0.4 0 0.5 0.4 0 0 0.433333 0 0.5 0.433333 0
          0 0.466667 0 0.5 0.466667 0 0 0.5 0 0.5 0.5 0
          0 0.533333 0 0.5 0.533333 0 0 0.566667 0 0.5 0.566667 0
          0 0.6 0 0.5 0.6 0 0 0.633333 0 0.5 0.633333 0
          0 0.666667 0 0.5 0.666667 0 0 0.7 0 0.5 0.7 0
          0 0.733333 0 0.5 0.733333 0 0 0.766667 0 0.5 0.766667 0
          0 0.8 0 0.5 0.8 0 0 0.833333 0 0.5 0.833333 0
          0 0.866667 0 0.5 0.866667 0 0 0.9 0 0.5 0.9 0
          0 0.933333 0 0.5 0.933333 0 0 0.966667 0 0.5 0.966667 0
          0 1 0 0.5 1 0
        </DataArray>
      </Points>
      <Cells>
        <DataArray type="Int32" Name="connectivity" NumberOfComponents="1" format="ascii">
          0 1 3 2 2 3 5 4 4 5 7 6
          6 7 9 8 8 9 11 10 10 11 13 12
          12 13 15 14 14 15 17 16 16 17 19 18
          18 19 21 20 20 21 23 22 22 23 25 24
          24 25 27 26 26 27 29 28 28 29 31 30
          30 31 33 32 32 33 35 34 34 35 37 36
          36 37 39 38 38 39 41 40 40 41 43 42
          42 43 45 44 44 45 47 46 46 47 49 48
          48 49 51 50 50 51 53 52 52 53 55 54
          54 55 57 56 56 57 59 58 58 59 61 60
        </DataArray>
        <DataArray type="Int32" Name="offsets" NumberOfComponents="1" format="ascii">
          4 8 12 16 20 24 28 32 36 40 44 48
          52 56 60 64 68 72 76 80 84 88 92 96
          100 104 108 112 116 120
        </DataArray>
        <DataArray type="UInt8" Name="types" NumberOfComponents="1" format="ascii">
          9 9 9 9 9 9 9 9 9 9 9 9
          9 9 9 9 9 9 9 9 9 9 9 9
          9 9 9 9 9 9
        </DataArray>
      </Cells>
    </Piece>
  </UnstructuredGrid>
</VTKFile>
