<?xml version="1.0"?>
<VTKFile type="UnstructuredGrid" version="0.1" byte_order="LittleEndian">
  <UnstructuredGrid>
    <Piece NumberOfCells="30" NumberOfPoints="62">
      <CellData Scalars="Sg">
        <DataArray type="Float32" Name="Sg" NumberOfComponents="1" format="ascii">
          0 0 0 0 0 0 0 0 0 0 0 0
          0 0 0 0 0 0 0 0 0 0 0 0
          0 0 0 0 0 0
        </DataArray>
        <DataArray type="Float32" Name="Sl" NumberOfComponents="1" format="ascii">
          1 1 1 1 1 1 1 1 1 1 1 1
          1 1 1 1 1 1 1 1 1 1 1 1
          1 1 1 1 1 1
        </DataArray>
        <DataArray type="Float32" Name="pg" NumberOfComponents="1" format="ascii">
          24687.8 24360.9 24034 23707 23380.1 23053.1 22726.2 22399.3 22072.3 21745.4 21418.4 21091.5
          20764.6 20437.6 20110.7 19783.7 19456.8 19129.8 18802.9 18476 18149 17822.1 17495.1 17168.2
          16841.3 16514.3 16187.4 15860.4 15533.5 15207.8
        </DataArray>
        <DataArray type="Float32" Name="pl" NumberOfComponents="1" format="ascii">
          110628 110301 109974 109647 109320 108993 108666 108339 108012 107685 107358 107031
          106704 106377 106050 105723 105396 105070 104743 104416 104089 103762 103435 103108
          102781 102454 102127 101800 101473 101147
        </DataArray>
        <DataArray type="Float32" Name="pc" NumberOfComponents="1" format="ascii">
          -85939.7 -85939.7 -85939.7 -85939.7 -85939.7 -85939.7 -85939.7 -85939.7 -85939.7 -85939.7 -85939.7 -85939.7
          -85939.7 -85939.7 -85939.7 -85939.7 -85939.7 -85939.7 -85939.7 -85939.7 -85939.7 -85939.7 -85939.7 -85939.7
          -85939.7 -85939.7 -85939.7 -85939.7 -85939.7 -85939.7
        </DataArray>
        <DataArray type="Float32" Name="rhoL" NumberOfComponents="1" format="ascii">
          999.855 999.855 999.855 999.855 999.855 999.854 999.854 999.854 999.854 999.854 999.854 999.854
          999.853 999.853 999.853 999.853 999.853 999.853 999.852 999.852 999.852 999.852 999.852 999.852
          999.852 999.851 999.851 999.851 999.851 999.851
        </DataArray>
        <DataArray type="Float32" Name="rhoG" NumberOfComponents="1" format="ascii">
          0.30585 0.3018 0.29775 0.293699 0.289649 0.285598 0.281548 0.277498 0.273447 0.269397 0.265347 0.261296
          0.257246 0.253195 0.249145 0.245095 0.241044 0.236994 0.232944 0.228893 0.224843 0.220793 0.216742 0.212692
          0.208641 0.204591 0.200541 0.19649 0.19244 0.188404
        </DataArray>
        <DataArray type="Float32" Name="mobL" NumberOfComponents="1" format="ascii">
          722.171 722.17 722.17 722.17 722.17 722.17 722.169 722.169 722.169 722.169 722.169 722.169
          722.168 722.168 722.168 722.168 722.168 722.167 722.167 722.167 722.167 722.167 722.166 722.166
          722.166 722.166 722.166 722.166 722.165 722.165
        </DataArray>
        <DataArray type="Float32" Name="mobG" NumberOfComponents="1" format="ascii">
          0 0 0 0 0 0 0 0 0 0 0 0
          0 0 0 0 0 0 0 0 0 0 0 0
          0 0 0 0 0 0
        </DataArray>
        <DataArray type="Float32" Name="porosity" NumberOfComponents="1" format="ascii">
          0.298661 0.298661 0.29866 0.29866 0.29866 0.298659 0.298658 0.298658 0.298656 0.298654 0.298652 0.298648
          0.298643 0.298636 0.298627 0.298614 0.298597 0.298575 0.298544 0.298502 0.298444 0.298363 0.298248 0.298077
          0.297541 0.297088 0.296209 0.294018 0.284633 0.0607593
        </DataArray>
        <DataArray type="Float32" Name="temperature" NumberOfComponents="1" format="ascii">
          281.15 281.15 281.15 281.15 281.15 281.15 281.15 281.15 281.15 281.15 281.15 281.15
          281.15 281.15 281.15 281.15 281.15 281.15 281.15 281.15 281.15 281.15 281.15 281.15
          281.15 281.15 281.15 281.15 281.15 281.15
        </DataArray>
        <DataArray type="Float32" Name="phase presence" NumberOfComponents="1" format="ascii">
          1 1 1 1 1 1 1 1 1 1 1 1
          1 1 1 1 1 1 1 1 1 1 1 1
          1 1 1 1 1 1
        </DataArray>
        <DataArray type="Float32" Name="precipitateVolumeFraction_au" NumberOfComponents="1" format="ascii">
          5.5265e-10 5.52786e-10 5.52751e-10 5.52737e-10 5.52766e-10 5.52764e-10 5.5274e-10 5.52787e-10 5.52773e-10 5.52778e-10 5.52729e-10 5.52756e-10
          5.52749e-10 5.52786e-10 5.52755e-10 5.52727e-10 5.52738e-10 5.52741e-10 5.52728e-10 5.52718e-10 5.52744e-10 5.52775e-10 5.52916e-10 8.86811e-10
          0.00026994 0.000269924 0.000269899 0.000269853 5.52536e-10 5.51339e-10
        </DataArray>
        <DataArray type="Float32" Name="precipitateVolumeFraction_nanoAu" NumberOfComponents="1" format="ascii">
          1.24317e-13 1.24407e-13 1.24386e-13 1.24378e-13 1.24391e-13 1.24388e-13 1.24378e-13 1.24393e-13 1.24387e-13 1.24387e-13 1.24371e-13 1.24378e-13
          1.24375e-13 1.24383e-13 1.24373e-13 1.24364e-13 1.24365e-13 1.24363e-13 1.24356e-13 1.24349e-13 1.24349e-13 1.24362e-13 1.36212e-13 2.57958e-11
          6.03975e-08 7.67221e-08 1.02182e-07 1.45582e-07 4.74866e-13 4.67317e-13
        </DataArray>
        <DataArray type="Float32" Name="precipitateVolumeFraction_d" NumberOfComponents="1" format="ascii">
          0.000669667 0.000669733 0.000669825 0.000669954 0.000670137 0.000670393 0.000670751 0.00067125 0.000671945 0.000672908 0.000674235 0.000676059
          0.000678555 0.000681955 0.000686573 0.000692824 0.000701274 0.000712693 0.000728158 0.00074921 0.000778137 0.000818498 0.000876153 0.000961482
          0.00109471 0.00132089 0.0017603 0.0028559 0.00768364 0.11962
        </DataArray>
        <DataArray type="Float32" Name="precipitateVolumeFraction_p" NumberOfComponents="1" format="ascii">
          0.000669667 0.000669733 0.000669825 0.000669954 0.000670137 0.000670393 0.000670751 0.00067125 0.000671945 0.000672908 0.000674235 0.000676059
          0.000678555 0.000681955 0.000686573 0.000692824 0.000701274 0.000712693 0.000728158 0.00074921 0.000778137 0.000818498 0.000876153 0.000961482
          0.00109471 0.00132089 0.0017603 0.0028559 0.00768364 0.11962
        </DataArray>
        <DataArray type="Float32" Name="K" NumberOfComponents="1" format="ascii">
          9.82902e-11 9.829e-11 9.82898e-11 9.82894e-11 9.8289e-11 9.82883e-11 9.82874e-11 9.82861e-11 9.82844e-11 9.82819e-11 9.82786e-11 9.82739e-11
          9.82676e-11 9.8259e-11 9.82473e-11 9.82315e-11 9.82101e-11 9.81811e-11 9.8142e-11 9.80887e-11 9.80155e-11 9.79134e-11 9.77678e-11 9.75526e-11
          9.68787e-11 9.63135e-11 9.5223e-11 9.25482e-11 8.17765e-11 4.61442e-13
        </DataArray>
        <DataArray type="Float32" Name="X^w_H2O" NumberOfComponents="1" format="ascii">
          0.999853 0.999853 0.999853 0.999853 0.999853 0.999853 0.999853 0.999853 0.999853 0.999853 0.999853 0.999853
          0.999853 0.999853 0.999853 0.999853 0.999853 0.999853 0.999853 0.999853 0.999853 0.999853 0.999853 0.999853
          0.999853 0.999852 0.99985 0.999846 0.999839 0.99984
        </DataArray>
        <DataArray type="Float32" Name="X^w_Air" NumberOfComponents="1" format="ascii">
          0 0 0 0 0 0 0 0 0 0 0 0
          0 0 0 0 0 0 0 0 0 0 0 0
          0 0 0 0 0 0
        </DataArray>
        <DataArray type="Float32" Name="X^w_AuComplex" NumberOfComponents="1" format="ascii">
          1.41802e-16 1.41894e-16 1.41871e-16 1.41862e-16 1.41875e-16 1.41872e-16 1.4186e-16 1.41876e-16 1.41868e-16 1.41867e-16 1.41849e-16 1.41856e-16
          1.41851e-16 1.41859e-16 1.41847e-16 1.41836e-16 1.41834e-16 1.4183e-16 1.41819e-16 1.41806e-16 1.418e-16 1.41804e-16 1.55134e-16 2.94139e-14
          6.88993e-11 1.07459e-10 1.84513e-10 3.64069e-10 1.83756e-15 1.7869e-15
        </DataArray>
        <DataArray type="Float32" Name="X^w_nanoAu" NumberOfComponents="1" format="ascii">
          5.22383e-19 5.22756e-19 5.22668e-19 5.22638e-19 5.22689e-19 5.22679e-19 5.22636e-19 5.227e-19 5.22674e-19 5.22672e-19 5.22607e-19 5.22634e-19
          5.22621e-19 5.22653e-19 5.22612e-19 5.22574e-19 5.22575e-19 5.22564e-19 5.22533e-19 5.22531e-19 5.25622e-19 8.22914e-19 2.93372e-17 2.75993e-15
          2.54466e-13 3.23419e-13 4.3097e-13 6.04713e-13 1.98904e-18 1.91427e-18
        </DataArray>
        <DataArray type="Float32" Name="X^w_cyanide" NumberOfComponents="1" format="ascii">
          5.07344e-06 5.07341e-06 5.07338e-06 5.07335e-06 5.07332e-06 5.07329e-06 5.07326e-06 5.07323e-06 5.0732e-06 5.07317e-06 5.07313e-06 5.07309e-06
          5.07305e-06 5.07301e-06 5.07295e-06 5.07289e-06 5.0728e-06 5.0727e-06 5.07256e-06 5.07237e-06 5.07212e-06 5.07175e-06 5.0712e-06 5.07036e-06
          5.0695e-06 6.43936e-06 8.57495e-06 1.22391e-05 1.94567e-05 1.92206e-05
        </DataArray>
        <DataArray type="Float32" Name="X^w_citrate" NumberOfComponents="1" format="ascii">
          0.000141796 0.000141796 0.000141796 0.000141796 0.000141796 0.000141796 0.000141796 0.000141796 0.000141796 0.000141796 0.000141796 0.000141796
          0.000141796 0.000141795 0.000141795 0.000141795 0.000141795 0.000141794 0.000141793 0.000141792 0.00014179 0.000141788 0.000141784 0.000141778
          0.000141768 0.000141752 0.00014172 0.000141645 0.000141401 0.000139685
        </DataArray>
        <DataArray type="Float32" Name="X^w_substrate" NumberOfComponents="1" format="ascii">
          6.12662e-12 8.43623e-12 1.16159e-11 1.59933e-11 2.20196e-11 3.03164e-11 4.17403e-11 5.74727e-11 7.91444e-11 1.0901e-10 1.50192e-10 2.07026e-10
          2.85554e-10 3.94236e-10 5.44988e-10 7.54731e-10 1.04775e-09 1.45936e-09 2.04184e-09 2.87422e-09 4.07946e-09 5.85561e-09 8.53659e-09 1.27193e-08
          1.9557e-08 3.15252e-08 5.48008e-08 1.08714e-07 2.82191e-07 1.49211e-06
        </DataArray>
        <DataArray type="Float32" Name="m^w_H2O" NumberOfComponents="1" format="ascii">
          55492.6 55492.6 55492.5 55492.5 55492.5 55492.5 55492.5 55492.5 55492.5 55492.5 55492.5 55492.5
          55492.5 55492.4 55492.4 55492.4 55492.4 55492.4 55492.4 55492.4 55492.4 55492.4 55492.4 55492.4
          55492.3 55492.3 55492.1 55491.9 55491.5 55491.6
        </DataArray>
        <DataArray type="Float32" Name="m^w_Air" NumberOfComponents="1" format="ascii">
          0 0 0 0 0 0 0 0 0 0 0 0
          0 0 0 0 0 0 0 0 0 0 0 0
          0 0 0 0 0 0
        </DataArray>
        <DataArray type="Float32" Name="m^w_AuComplex" NumberOfComponents="1" format="ascii">
          7.19814e-13 7.20277e-13 7.20162e-13 7.20119e-13 7.20181e-13 7.20166e-13 7.20105e-13 7.20186e-13 7.20148e-13 7.20142e-13 7.20051e-13 7.20083e-13
          7.20061e-13 7.20101e-13 7.2004e-13 7.19981e-13 7.19975e-13 7.19951e-13 7.19895e-13 7.19831e-13 7.19798e-13 7.1982e-13 7.87484e-13 1.49309e-10
          3.49744e-07 5.45477e-07 9.36618e-07 1.84807e-06 9.32773e-12 9.07061e-12
        </DataArray>
        <DataArray type="Float32" Name="m^w_nanoAu" NumberOfComponents="1" format="ascii">
          2.65171e-15 2.65361e-15 2.65315e-15 2.653e-15 2.65326e-15 2.65321e-15 2.65299e-15 2.65332e-15 2.65318e-15 2.65317e-15 2.65284e-15 2.65298e-15
          2.65291e-15 2.65308e-15 2.65287e-15 2.65268e-15 2.65268e-15 2.65262e-15 2.65246e-15 2.65245e-15 2.66815e-15 4.17724e-15 1.4892e-13 1.40099e-11
          1.29171e-09 1.64173e-09 2.18767e-09 3.06962e-09 1.00967e-14 9.71716e-15
        </DataArray>
        <DataArray type="Float32" Name="m^w_cyanide" NumberOfComponents="1" format="ascii">
          0.194954 0.194953 0.194952 0.19495 0.194949 0.194948 0.194947 0.194946 0.194945 0.194943 0.194942 0.19494
          0.194939 0.194937 0.194935 0.194932 0.194929 0.194925 0.19492 0.194913 0.194903 0.194888 0.194867 0.194835
          0.194802 0.247441 0.329503 0.470302 0.747648 0.738577
        </DataArray>
        <DataArray type="Float32" Name="m^w_citrate" NumberOfComponents="1" format="ascii">
          0.749742 0.749742 0.749742 0.749742 0.749742 0.749742 0.749741 0.749741 0.749741 0.74974 0.74974 0.74974
          0.749739 0.749738 0.749737 0.749735 0.749733 0.749729 0.749725 0.749719 0.749709 0.749696 0.749676 0.749644
          0.749593 0.749508 0.74934 0.748943 0.747651 0.738579
        </DataArray>
        <DataArray type="Float32" Name="m^w_substrate" NumberOfComponents="1" format="ascii">
          3.40016e-08 4.68196e-08 6.4466e-08 8.87596e-08 1.22205e-07 1.6825e-07 2.31651e-07 3.18963e-07 4.39237e-07 6.04985e-07 8.33535e-07 1.14895e-06
          1.58477e-06 2.18793e-06 3.02458e-06 4.18861e-06 5.81481e-06 8.09918e-06 1.13318e-05 1.59514e-05 2.26402e-05 3.24975e-05 4.73764e-05 7.05897e-05
          0.000108538 0.000174959 0.000304133 0.000603341 0.0015661 0.00828089
        </DataArray>
        <DataArray type="Float32" Name="process rank" NumberOfComponents="1" format="ascii">
          0 0 0 0 0 0 0 0 0 0 0 0
          0 0 0 0 0 0 0 0 0 0 0 0
          0 0 0 0 0 0
        </DataArray>
      </CellData>
      <Points>
        <DataArray type="Float32" Name="Coordinates" NumberOfComponents="3" format="ascii">
          0 0 0 0.5 0 0 0 0.0333333 0 0.5 0.0333333 0
          0 0.0666667 0 0.5 0.0666667 0 0 0.1 0 0.5 0.1 0
          0 0.133333 0 0.5 0.133333 0 0 0.166667 0 0.5 0.166667 0
          0 0.2 0 0.5 0.2 0 0 0.233333 0 0.5 0.233333 0
          0 0.266667 0 0.5 0.266667 0 0 0.3 0 0.5 0.3 0
          0 0.333333 0 0.5 0.333333 0 0 0.366667 0 0.5 0.366667 0
          0 0.4 0 0.5 0.4 0 0 0.433333 0 0.5 0.433333 0
          0 0.466667 0 0.5 0.466667 0 0 0.5 0 0.5 0.5 0
          0 0.533333 0 0.5 0.533333 0 0 0.566667 0 0.5 0.566667 0
          0 0.6 0 0.5 0.6 0 0 0.633333 0 0.5 0.633333 0
          0 0.666667 0 0.5 0.666667 0 0 0.7 0 0.5 0.7 0
          0 0.733333 0 0.5 0.733333 0 0 0.766667 0 0.5 0.766667 0
          0 0.8 0 0.5 0.8 0 0 0.833333 0 0.5 0.833333 0
          0 0.866667 0 0.5 0.866667 0 0 0.9 0 0.5 0.9 0
          0 0.933333 0 0.5 0.933333 0 0 0.966667 0 0.5 0.966667 0
          0 1 0 0.5 1 0
        </DataArray>
      </Points>
      <Cells>
        <DataArray type="Int32" Name="connectivity" NumberOfComponents="1" format="ascii">
          0 1 3 2 2 3 5 4 4 5 7 6
          6 7 9 8 8 9 11 10 10 11 13 12
          12 13 15 14 14 15 17 16 16 17 19 18
          18 19 21 20 20 21 23 22 22 23 25 24
          24 25 27 26 26 27 29 28 28 29 31 30
          30 31 33 32 32 33 35 34 34 35 37 36
          36 37 39 38 38 39 41 40 40 41 43 42
          42 43 45 44 44 45 47 46 46 47 49 48
          48 49 51 50 50 51 53 52 52 53 55 54
          54 55 57 56 56 57 59 58 58 59 61 60
        </DataArray>
        <DataArray type="Int32" Name="offsets" NumberOfComponents="1" format="ascii">
          4 8 12 16 20 24 28 32 36 40 44 48
          52 56 60 64 68 72 76 80 84 88 92 96
          100 104 108 112 116 120
        </DataArray>
        <DataArray type="UInt8" Name="types" NumberOfComponents="1" format="ascii">
          9 9 9 9 9 9 9 9 9 9 9 9
          9 9 9 9 9 9 9 9 9 9 9 9
          9 9 9 9 9 9
        </DataArray>
      </Cells>
    </Piece>
  </UnstructuredGrid>
</VTKFile>
