<?xml version="1.0"?>
<VTKFile type="UnstructuredGrid" version="0.1" byte_order="LittleEndian">
  <UnstructuredGrid>
    <Piece NumberOfCells="30" NumberOfPoints="62">
      <CellData Scalars="Sg">
        <DataArray type="Float32" Name="Sg" NumberOfComponents="1" format="ascii">
          0 0 0 0 0 0 0 0 0 0 0 0
          0 0 0 0 0 0 0 0 0 0 0 0
          0 0 0 0 0 0
        </DataArray>
        <DataArray type="Float32" Name="Sl" NumberOfComponents="1" format="ascii">
          1 1 1 1 1 1 1 1 1 1 1 1
          1 1 1 1 1 1 1 1 1 1 1 1
          1 1 1 1 1 1
        </DataArray>
        <DataArray type="Float32" Name="pg" NumberOfComponents="1" format="ascii">
          24687.8 24360.9 24034 23707 23380.1 23053.1 22726.2 22399.3 22072.3 21745.4 21418.4 21091.5
          20764.6 20437.6 20110.7 19783.7 19456.8 19129.9 18802.9 18476 18149 17822.1 17495.1 17168.2
          16841.3 16514.3 16187.4 15860.4 15533.5 15207.2
        </DataArray>
        <DataArray type="Float32" Name="pl" NumberOfComponents="1" format="ascii">
          110628 110301 109974 109647 109320 108993 108666 108339 108012 107685 107358 107031
          106704 106377 106050 105723 105396 105070 104743 104416 104089 103762 103435 103108
          102781 102454 102127 101800 101473 101147
        </DataArray>
        <DataArray type="Float32" Name="pc" NumberOfComponents="1" format="ascii">
          -85939.7 -85939.7 -85939.7 -85939.7 -85939.7 -85939.7 -85939.7 -85939.7 -85939.7 -85939.7 -85939.7 -85939.7
          -85939.7 -85939.7 -85939.7 -85939.7 -85939.7 -85939.7 -85939.7 -85939.7 -85939.7 -85939.7 -85939.7 -85939.7
          -85939.7 -85939.7 -85939.7 -85939.7 -85939.7 -85939.7
        </DataArray>
        <DataArray type="Float32" Name="rhoL" NumberOfComponents="1" format="ascii">
          999.855 999.855 999.855 999.855 999.855 999.854 999.854 999.854 999.854 999.854 999.854 999.854
          999.853 999.853 999.853 999.853 999.853 999.853 999.852 999.852 999.852 999.852 999.852 999.852
          999.852 999.851 999.851 999.851 999.851 999.851
        </DataArray>
        <DataArray type="Float32" Name="rhoG" NumberOfComponents="1" format="ascii">
          0.30585 0.3018 0.29775 0.293699 0.289649 0.285598 0.281548 0.277498 0.273447 0.269397 0.265347 0.261296
          0.257246 0.253195 0.249145 0.245095 0.241044 0.236994 0.232944 0.228893 0.224843 0.220793 0.216742 0.212692
          0.208641 0.204591 0.200541 0.19649 0.19244 0.188397
        </DataArray>
        <DataArray type="Float32" Name="mobL" NumberOfComponents="1" format="ascii">
          722.171 722.17 722.17 722.17 722.17 722.17 722.169 722.169 722.169 722.169 722.169 722.169
          722.168 722.168 722.168 722.168 722.168 722.167 722.167 722.167 722.167 722.167 722.166 722.166
          722.166 722.166 722.166 722.166 722.165 722.165
        </DataArray>
        <DataArray type="Float32" Name="mobG" NumberOfComponents="1" format="ascii">
          0 0 0 0 0 0 0 0 0 0 0 0
          0 0 0 0 0 0 0 0 0 0 0 0
          0 0 0 0 0 0
        </DataArray>
        <DataArray type="Float32" Name="porosity" NumberOfComponents="1" format="ascii">
          0.298623 0.298623 0.298623 0.298622 0.298622 0.298622 0.298621 0.29862 0.298618 0.298616 0.298614 0.29861
          0.298605 0.298598 0.298588 0.298576 0.298558 0.298535 0.298503 0.29846 0.298401 0.298319 0.298202 0.298028
          0.297488 0.297032 0.296153 0.293995 0.285093 0.0757351
        </DataArray>
        <DataArray type="Float32" Name="temperature" NumberOfComponents="1" format="ascii">
          281.15 281.15 281.15 281.15 281.15 281.15 281.15 281.15 281.15 281.15 281.15 281.15
          281.15 281.15 281.15 281.15 281.15 281.15 281.15 281.15 281.15 281.15 281.15 281.15
          281.15 281.15 281.15 281.15 281.15 281.15
        </DataArray>
        <DataArray type="Float32" Name="phase presence" NumberOfComponents="1" format="ascii">
          1 1 1 1 1 1 1 1 1 1 1 1
          1 1 1 1 1 1 1 1 1 1 1 1
          1 1 1 1 1 1
        </DataArray>
        <DataArray type="Float32" Name="precipitateVolumeFraction_au" NumberOfComponents="1" format="ascii">
          5.52642e-10 5.52778e-10 5.52743e-10 5.52729e-10 5.52759e-10 5.52756e-10 5.52732e-10 5.52779e-10 5.52766e-10 5.5277e-10 5.52721e-10 5.52748e-10
          5.52741e-10 5.52778e-10 5.52747e-10 5.52719e-10 5.5273e-10 5.52734e-10 5.5272e-10 5.5271e-10 5.52737e-10 5.52767e-10 5.52877e-10 8.20407e-10
          0.00026994 0.000269924 0.000269899 0.000269854 5.52528e-10 5.51334e-10
        </DataArray>
        <DataArray type="Float32" Name="precipitateVolumeFraction_nanoAu" NumberOfComponents="1" format="ascii">
          1.31611e-13 1.32441e-13 1.32268e-13 1.3222e-13 1.32313e-13 1.32301e-13 1.3224e-13 1.32326e-13 1.32292e-13 1.32287e-13 1.32228e-13 1.32254e-13
          1.32246e-13 1.32269e-13 1.32244e-13 1.32225e-13 1.32229e-13 1.32227e-13 1.32217e-13 1.32207e-13 1.32209e-13 1.32223e-13 1.44094e-13 2.58312e-11
          6.04266e-08 7.67535e-08 1.02212e-07 1.45592e-07 4.82416e-13 4.74253e-13
        </DataArray>
        <DataArray type="Float32" Name="precipitateVolumeFraction_d" NumberOfComponents="1" format="ascii">
          0.000688461 0.000688528 0.000688622 0.000688755 0.000688941 0.000689203 0.00068957 0.000690082 0.000690794 0.00069178 0.00069314 0.000695008
          0.000697564 0.000701046 0.000705774 0.000712173 0.00072082 0.000732501 0.000748311 0.000769818 0.000799347 0.000840501 0.000899199 0.000985889
          0.00112083 0.00134885 0.00178833 0.00286749 0.00745342 0.112132
        </DataArray>
        <DataArray type="Float32" Name="precipitateVolumeFraction_p" NumberOfComponents="1" format="ascii">
          0.000688461 0.000688528 0.000688622 0.000688755 0.000688941 0.000689203 0.00068957 0.000690082 0.000690794 0.00069178 0.00069314 0.000695008
          0.000697564 0.000701046 0.000705774 0.000712173 0.00072082 0.000732501 0.000748311 0.000769818 0.000799347 0.000840501 0.000899199 0.000985889
          0.00112083 0.00134885 0.00178833 0.00286749 0.00745342 0.112132
        </DataArray>
        <DataArray type="Float32" Name="K" NumberOfComponents="1" format="ascii">
          9.82425e-11 9.82423e-11 9.82421e-11 9.82418e-11 9.82413e-11 9.82406e-11 9.82397e-11 9.82384e-11 9.82366e-11 9.82341e-11 9.82307e-11 9.82259e-11
          9.82194e-11 9.82106e-11 9.81987e-11 9.81824e-11 9.81605e-11 9.8131e-11 9.80909e-11 9.80365e-11 9.79618e-11 9.78578e-11 9.77097e-11 9.74911e-11
          9.68133e-11 9.62438e-11 9.51538e-11 9.25202e-11 8.22799e-11 9.2285e-13
        </DataArray>
        <DataArray type="Float32" Name="X^w_H2O" NumberOfComponents="1" format="ascii">
          0.999853 0.999853 0.999853 0.999853 0.999853 0.999853 0.999853 0.999853 0.999853 0.999853 0.999853 0.999853
          0.999853 0.999853 0.999853 0.999853 0.999853 0.999853 0.999853 0.999853 0.999853 0.999853 0.999853 0.999853
          0.999853 0.999852 0.99985 0.999846 0.999839 0.99984
        </DataArray>
        <DataArray type="Float32" Name="X^w_Air" NumberOfComponents="1" format="ascii">
          0 0 0 0 0 0 0 0 0 0 0 0
          0 0 0 0 0 0 0 0 0 0 0 0
          0 0 0 0 0 0
        </DataArray>
        <DataArray type="Float32" Name="X^w_AuComplex" NumberOfComponents="1" format="ascii">
          1.48902e-16 1.49706e-16 1.49535e-16 1.49487e-16 1.49576e-16 1.49563e-16 1.49502e-16 1.49585e-16 1.4955e-16 1.49544e-16 1.49483e-16 1.49508e-16
          1.49497e-16 1.49519e-16 1.49492e-16 1.49469e-16 1.4947e-16 1.49464e-16 1.49449e-16 1.49433e-16 1.49428e-16 1.49431e-16 1.62785e-16 2.94612e-14
          6.89532e-11 1.07531e-10 1.84603e-10 3.64116e-10 1.86493e-15 1.81039e-15
        </DataArray>
        <DataArray type="Float32" Name="X^w_nanoAu" NumberOfComponents="1" format="ascii">
          5.53078e-19 5.56525e-19 5.558e-19 5.55607e-19 5.55993e-19 5.55941e-19 5.55691e-19 5.56047e-19 5.55905e-19 5.55882e-19 5.55637e-19 5.55745e-19
          5.55709e-19 5.55804e-19 5.55701e-19 5.5562e-19 5.55632e-19 5.55621e-19 5.55576e-19 5.55563e-19 5.58672e-19 8.56555e-19 2.94129e-17 2.76266e-15
          2.54585e-13 3.23543e-13 4.31073e-13 6.04692e-13 2.0201e-18 1.94072e-18
        </DataArray>
        <DataArray type="Float32" Name="X^w_cyanide" NumberOfComponents="1" format="ascii">
          5.07618e-06 5.07612e-06 5.07607e-06 5.07601e-06 5.07596e-06 5.0759e-06 5.07585e-06 5.07579e-06 5.07573e-06 5.07568e-06 5.07562e-06 5.07556e-06
          5.07549e-06 5.07542e-06 5.07534e-06 5.07525e-06 5.07515e-06 5.07502e-06 5.07485e-06 5.07463e-06 5.07434e-06 5.07393e-06 5.07333e-06 5.0724e-06
          5.07141e-06 6.44142e-06 8.5769e-06 1.22399e-05 1.94515e-05 1.92012e-05
        </DataArray>
        <DataArray type="Float32" Name="X^w_citrate" NumberOfComponents="1" format="ascii">
          0.000141796 0.000141796 0.000141796 0.000141796 0.000141796 0.000141796 0.000141796 0.000141796 0.000141796 0.000141796 0.000141796 0.000141796
          0.000141796 0.000141796 0.000141795 0.000141795 0.000141795 0.000141794 0.000141793 0.000141792 0.00014179 0.000141787 0.000141783 0.000141777
          0.000141766 0.000141749 0.000141714 0.000141631 0.000141364 0.000139544
        </DataArray>
        <DataArray type="Float32" Name="X^w_substrate" NumberOfComponents="1" format="ascii">
          5.52222e-12 7.65525e-12 1.06117e-11 1.47093e-11 2.03888e-11 2.82611e-11 3.91742e-11 5.43054e-11 7.52908e-11 1.04408e-10 1.44831e-10 2.01001e-10
          2.79142e-10 3.88032e-10 5.40112e-10 7.53166e-10 1.05288e-09 1.47683e-09 2.08097e-09 2.95043e-09 4.21831e-09 6.10021e-09 8.96135e-09 1.34575e-08
          2.08601e-08 3.39055e-08 5.94256e-08 1.18737e-07 3.08762e-07 1.5917e-06
        </DataArray>
        <DataArray type="Float32" Name="m^w_H2O" NumberOfComponents="1" format="ascii">
          55492.6 55492.6 55492.5 55492.5 55492.5 55492.5 55492.5 55492.5 55492.5 55492.5 55492.5 55492.5
          55492.5 55492.4 55492.4 55492.4 55492.4 55492.4 55492.4 55492.4 55492.4 55492.4 55492.4 55492.4
          55492.3 55492.3 55492.1 55491.9 55491.5 55491.6
        </DataArray>
        <DataArray type="Float32" Name="m^w_Air" NumberOfComponents="1" format="ascii">
          0 0 0 0 0 0 0 0 0 0 0 0
          0 0 0 0 0 0 0 0 0 0 0 0
          0 0 0 0 0 0
        </DataArray>
        <DataArray type="Float32" Name="m^w_AuComplex" NumberOfComponents="1" format="ascii">
          7.55854e-13 7.59933e-13 7.59067e-13 7.58825e-13 7.59276e-13 7.59209e-13 7.58898e-13 7.5932e-13 7.59142e-13 7.5911e-13 7.58803e-13 7.58927e-13
          7.58873e-13 7.58983e-13 7.58845e-13 7.58732e-13 7.58735e-13 7.58706e-13 7.58629e-13 7.58547e-13 7.5852e-13 7.58538e-13 8.26323e-13 1.4955e-10
          3.50018e-07 5.45845e-07 9.37074e-07 1.84831e-06 9.46666e-12 9.1898e-12
        </DataArray>
        <DataArray type="Float32" Name="m^w_nanoAu" NumberOfComponents="1" format="ascii">
          2.80752e-15 2.82502e-15 2.82134e-15 2.82036e-15 2.82232e-15 2.82205e-15 2.82078e-15 2.82259e-15 2.82187e-15 2.82175e-15 2.82051e-15 2.82106e-15
          2.82088e-15 2.82136e-15 2.82083e-15 2.82042e-15 2.82048e-15 2.82043e-15 2.8202e-15 2.82013e-15 2.83591e-15 4.34801e-15 1.49304e-13 1.40237e-11
          1.29232e-09 1.64236e-09 2.1882e-09 3.06951e-09 1.02543e-14 9.85142e-15
        </DataArray>
        <DataArray type="Float32" Name="m^w_cyanide" NumberOfComponents="1" format="ascii">
          0.195059 0.195057 0.195055 0.195053 0.195051 0.195049 0.195046 0.195044 0.195042 0.19504 0.195038 0.195035
          0.195033 0.19503 0.195027 0.195023 0.195019 0.195014 0.195008 0.194999 0.194988 0.194972 0.194949 0.194914
          0.194875 0.24752 0.329578 0.470332 0.747449 0.73783
        </DataArray>
        <DataArray type="Float32" Name="m^w_citrate" NumberOfComponents="1" format="ascii">
          0.749742 0.749742 0.749742 0.749742 0.749742 0.749742 0.749741 0.749741 0.749741 0.749741 0.74974 0.74974
          0.749739 0.749738 0.749737 0.749735 0.749733 0.749729 0.749725 0.749718 0.749708 0.749694 0.749673 0.749639
          0.749583 0.74949 0.749305 0.748868 0.747452 0.737832
        </DataArray>
        <DataArray type="Float32" Name="m^w_substrate" NumberOfComponents="1" format="ascii">
          3.06473e-08 4.24852e-08 5.88928e-08 8.1634e-08 1.13154e-07 1.56844e-07 2.1741e-07 3.01385e-07 4.1785e-07 5.79443e-07 8.03787e-07 1.11551e-06
          1.54919e-06 2.1535e-06 2.99752e-06 4.17992e-06 5.84325e-06 8.19609e-06 1.1549e-05 1.63743e-05 2.34108e-05 3.3855e-05 4.97337e-05 7.46863e-05
          0.000115769 0.000188168 0.0003298 0.000658967 0.00171356 0.00883362
        </DataArray>
        <DataArray type="Float32" Name="process rank" NumberOfComponents="1" format="ascii">
          0 0 0 0 0 0 0 0 0 0 0 0
          0 0 0 0 0 0 0 0 0 0 0 0
          0 0 0 0 0 0
        </DataArray>
      </CellData>
      <Points>
        <DataArray type="Float32" Name="Coordinates" NumberOfComponents="3" format="ascii">
          0 0 0 0.5 0 0 0 0.0333333 0 0.5 0.0333333 0
          0 0.0666667 0 0.5 0.0666667 0 0 0.1 0 0.5 0.1 0
          0 0.133333 0 0.5 0.133333 0 0 0.166667 0 0.5 0.166667 0
          0 0.2 0 0.5 0.2 0 0 0.233333 0 0.5 0.233333 0
          0 0.266667 0 0.5 0.266667 0 0 0.3 0 0.5 0.3 0
          0 0.333333 0 0.5 0.333333 0 0 0.366667 0 0.5 0.366667 0
          0 0.4 0 0.5 0.4 0 0 0.433333 0 0.5 0.433333 0
          0 0.466667 0 0.5 0.466667 0 0 0.5 0 0.5 0.5 0
          0 0.533333 0 0.5 0.533333 0 0 0.566667 0 0.5 0.566667 0
          0 0.6 0 0.5 0.6 0 0 0.633333 0 0.5 0.633333 0
          0 0.666667 0 0.5 0.666667 0 0 0.7 0 0.5 0.7 0
          0 0.733333 0 0.5 0.733333 0 0 0.766667 0 0.5 0.766667 0
          0 0.8 0 0.5 0.8 0 0 0.833333 0 0.5 0.833333 0
          0 0.866667 0 0.5 0.866667 0 0 0.9 0 0.5 0.9 0
          0 0.933333 0 0.5 0.933333 0 0 0.966667 0 0.5 0.966667 0
          0 1 0 0.5 1 0
        </DataArray>
      </Points>
      <Cells>
        <DataArray type="Int32" Name="connectivity" NumberOfComponents="1" format="ascii">
          0 1 3 2 2 3 5 4 4 5 7 6
          6 7 9 8 8 9 11 10 10 11 13 12
          12 13 15 14 14 15 17 16 16 17 19 18
          18 19 21 20 20 21 23 22 22 23 25 24
          24 25 27 26 26 27 29 28 28 29 31 30
          30 31 33 32 32 33 35 34 34 35 37 36
          36 37 39 38 38 39 41 40 40 41 43 42
          42 43 45 44 44 45 47 46 46 47 49 48
          48 49 51 50 50 51 53 52 52 53 55 54
          54 55 57 56 56 57 59 58 58 59 61 60
        </DataArray>
        <DataArray type="Int32" Name="offsets" NumberOfComponents="1" format="ascii">
          4 8 12 16 20 24 28 32 36 40 44 48
          52 56 60 64 68 72 76 80 84 88 92 96
          100 104 108 112 116 120
        </DataArray>
        <DataArray type="UInt8" Name="types" NumberOfComponents="1" format="ascii">
          9 9 9 9 9 9 9 9 9 9 9 9
          9 9 9 9 9 9 9 9 9 9 9 9
          9 9 9 9 9 9
        </DataArray>
      </Cells>
    </Piece>
  </UnstructuredGrid>
</VTKFile>
