<?xml version="1.0"?>
<VTKFile type="UnstructuredGrid" version="0.1" byte_order="LittleEndian">
  <UnstructuredGrid>
    <Piece NumberOfCells="30" NumberOfPoints="62">
      <CellData Scalars="Sg">
        <DataArray type="Float32" Name="Sg" NumberOfComponents="1" format="ascii">
          0 0 0 0 0 0 0 0 0 0 0 0
          0 0 0 0 0 0 0 0 0 0 0 0
          0 0 0 0 0 0
        </DataArray>
        <DataArray type="Float32" Name="Sl" NumberOfComponents="1" format="ascii">
          1 1 1 1 1 1 1 1 1 1 1 1
          1 1 1 1 1 1 1 1 1 1 1 1
          1 1 1 1 1 1
        </DataArray>
        <DataArray type="Float32" Name="pg" NumberOfComponents="1" format="ascii">
          24687.8 24360.9 24034 23707 23380.1 23053.1 22726.2 22399.3 22072.3 21745.4 21418.4 21091.5
          20764.6 20437.6 20110.7 19783.7 19456.8 19129.9 18802.9 18476 18149 17822.1 17495.1 17168.2
          16841.3 16514.3 16187.4 15860.4 15533.5 15206.8
        </DataArray>
        <DataArray type="Float32" Name="pl" NumberOfComponents="1" format="ascii">
          110628 110301 109974 109647 109320 108993 108666 108339 108012 107685 107358 107031
          106704 106377 106050 105723 105396 105070 104743 104416 104089 103762 103435 103108
          102781 102454 102127 101800 101473 101146
        </DataArray>
        <DataArray type="Float32" Name="pc" NumberOfComponents="1" format="ascii">
          -85939.7 -85939.7 -85939.7 -85939.7 -85939.7 -85939.7 -85939.7 -85939.7 -85939.7 -85939.7 -85939.7 -85939.7
          -85939.7 -85939.7 -85939.7 -85939.7 -85939.7 -85939.7 -85939.7 -85939.7 -85939.7 -85939.7 -85939.7 -85939.7
          -85939.7 -85939.7 -85939.7 -85939.7 -85939.7 -85939.7
        </DataArray>
        <DataArray type="Float32" Name="rhoL" NumberOfComponents="1" format="ascii">
          999.855 999.855 999.855 999.855 999.855 999.854 999.854 999.854 999.854 999.854 999.854 999.854
          999.853 999.853 999.853 999.853 999.853 999.853 999.852 999.852 999.852 999.852 999.852 999.852
          999.852 999.851 999.851 999.851 999.851 999.851
        </DataArray>
        <DataArray type="Float32" Name="rhoG" NumberOfComponents="1" format="ascii">
          0.30585 0.3018 0.29775 0.293699 0.289649 0.285598 0.281548 0.277498 0.273447 0.269397 0.265347 0.261296
          0.257246 0.253195 0.249145 0.245095 0.241044 0.236994 0.232944 0.228893 0.224843 0.220793 0.216742 0.212692
          0.208641 0.204591 0.200541 0.19649 0.19244 0.188392
        </DataArray>
        <DataArray type="Float32" Name="mobL" NumberOfComponents="1" format="ascii">
          722.171 722.17 722.17 722.17 722.17 722.17 722.169 722.169 722.169 722.169 722.169 722.169
          722.168 722.168 722.168 722.168 722.168 722.167 722.167 722.167 722.167 722.167 722.166 722.166
          722.166 722.166 722.166 722.166 722.165 722.165
        </DataArray>
        <DataArray type="Float32" Name="mobG" NumberOfComponents="1" format="ascii">
          0 0 0 0 0 0 0 0 0 0 0 0
          0 0 0 0 0 0 0 0 0 0 0 0
          0 0 0 0 0 0
        </DataArray>
        <DataArray type="Float32" Name="porosity" NumberOfComponents="1" format="ascii">
          0.298584 0.298584 0.298584 0.298584 0.298583 0.298583 0.298582 0.298581 0.29858 0.298578 0.298575 0.298571
          0.298566 0.298559 0.298549 0.298536 0.298518 0.298494 0.298462 0.298418 0.298358 0.298274 0.298155 0.297979
          0.297436 0.296978 0.296103 0.293994 0.285692 0.102881
        </DataArray>
        <DataArray type="Float32" Name="temperature" NumberOfComponents="1" format="ascii">
          281.15 281.15 281.15 281.15 281.15 281.15 281.15 281.15 281.15 281.15 281.15 281.15
          281.15 281.15 281.15 281.15 281.15 281.15 281.15 281.15 281.15 281.15 281.15 281.15
          281.15 281.15 281.15 281.15 281.15 281.15
        </DataArray>
        <DataArray type="Float32" Name="phase presence" NumberOfComponents="1" format="ascii">
          1 1 1 1 1 1 1 1 1 1 1 1
          1 1 1 1 1 1 1 1 1 1 1 1
          1 1 1 1 1 1
        </DataArray>
        <DataArray type="Float32" Name="precipitateVolumeFraction_au" NumberOfComponents="1" format="ascii">
          5.52535e-10 5.52663e-10 5.52647e-10 5.52626e-10 5.52624e-10 5.5268e-10 5.52619e-10 5.52702e-10 5.52622e-10 5.52645e-10 5.52641e-10 5.52632e-10
          5.52619e-10 5.52666e-10 5.52631e-10 5.52654e-10 5.52641e-10 5.5266e-10 5.5261e-10 5.52656e-10 5.52666e-10 5.52654e-10 5.52731e-10 7.53805e-10
          0.00026994 0.000269924 0.000269899 0.000269854 5.5241e-10 5.50883e-10
        </DataArray>
        <DataArray type="Float32" Name="precipitateVolumeFraction_nanoAu" NumberOfComponents="1" format="ascii">
          2.25953e-13 2.36902e-13 2.35905e-13 2.34783e-13 2.34852e-13 2.36789e-13 2.34974e-13 2.36827e-13 2.35179e-13 2.35465e-13 2.35441e-13 2.35334e-13
          2.3523e-13 2.35563e-13 2.35333e-13 2.35437e-13 2.35361e-13 2.3541e-13 2.35247e-13 2.35358e-13 2.35351e-13 2.35318e-13 2.47328e-13 2.60033e-11
          6.04776e-08 7.681e-08 1.02265e-07 1.45596e-07 5.84299e-13 5.73447e-13
        </DataArray>
        <DataArray type="Float32" Name="precipitateVolumeFraction_d" NumberOfComponents="1" format="ascii">
          0.000707817 0.000707885 0.000707982 0.000708118 0.000708309 0.000708577 0.000708953 0.000709477 0.000710207 0.000711217 0.00071261 0.000714523
          0.000717141 0.000720707 0.000725546 0.000732095 0.00074094 0.000752883 0.000769039 0.000790999 0.000821118 0.000863039 0.000922723 0.00101065
          0.00114702 0.00137618 0.00181366 0.00286823 0.00715392 0.0985594
        </DataArray>
        <DataArray type="Float32" Name="precipitateVolumeFraction_p" NumberOfComponents="1" format="ascii">
          0.000707817 0.000707885 0.000707982 0.000708118 0.000708309 0.000708577 0.000708953 0.000709477 0.000710207 0.000711217 0.00071261 0.000714523
          0.000717141 0.000720707 0.000725546 0.000732095 0.00074094 0.000752883 0.000769039 0.000790999 0.000821118 0.000863039 0.000922723 0.00101065
          0.00114702 0.00137618 0.00181366 0.00286823 0.00715392 0.0985594
        </DataArray>
        <DataArray type="Float32" Name="K" NumberOfComponents="1" format="ascii">
          9.81935e-11 9.81933e-11 9.81931e-11 9.81927e-11 9.81922e-11 9.81915e-11 9.81906e-11 9.81893e-11 9.81874e-11 9.81849e-11 9.81813e-11 9.81765e-11
          9.81699e-11 9.81608e-11 9.81486e-11 9.8132e-11 9.81096e-11 9.80794e-11 9.80385e-11 9.79829e-11 9.79068e-11 9.78009e-11 9.76503e-11 9.74288e-11
          9.67478e-11 9.61757e-11 9.50913e-11 9.25185e-11 8.29385e-11 2.4555e-12
        </DataArray>
        <DataArray type="Float32" Name="X^w_H2O" NumberOfComponents="1" format="ascii">
          0.999853 0.999853 0.999853 0.999853 0.999853 0.999853 0.999853 0.999853 0.999853 0.999853 0.999853 0.999853
          0.999853 0.999853 0.999853 0.999853 0.999853 0.999853 0.999853 0.999853 0.999853 0.999853 0.999853 0.999853
          0.999853 0.999852 0.99985 0.999846 0.999839 0.99984
        </DataArray>
        <DataArray type="Float32" Name="X^w_Air" NumberOfComponents="1" format="ascii">
          2.27986e-29 4.05598e-31 7.09484e-33 1.2195e-34 2.06209e-36 3.42991e-38 0 0 0 0 0 0
          0 0 0 0 0 0 0 0 0 0 0 0
          0 0 0 0 0 0
        </DataArray>
        <DataArray type="Float32" Name="X^w_AuComplex" NumberOfComponents="1" format="ascii">
          2.39958e-16 2.50511e-16 2.49546e-16 2.4846e-16 2.48522e-16 2.50387e-16 2.48632e-16 2.50416e-16 2.48821e-16 2.49093e-16 2.49066e-16 2.48958e-16
          2.48852e-16 2.4917e-16 2.48942e-16 2.49037e-16 2.48956e-16 2.48996e-16 2.48826e-16 2.48922e-16 2.48898e-16 2.48842e-16 2.62327e-16 2.96516e-14
          6.90468e-11 1.07659e-10 1.8476e-10 3.64159e-10 2.2396e-15 2.16672e-15
        </DataArray>
        <DataArray type="Float32" Name="X^w_nanoAu" NumberOfComponents="1" format="ascii">
          9.9831e-19 1.04609e-18 1.04168e-18 1.03679e-18 1.03718e-18 1.04556e-18 1.03772e-18 1.04573e-18 1.03855e-18 1.03979e-18 1.03968e-18 1.03921e-18
          1.03877e-18 1.04021e-18 1.03921e-18 1.03966e-18 1.03933e-18 1.03953e-18 1.03882e-18 1.03933e-18 1.04326e-18 1.40582e-18 3.44963e-17 3.04846e-15
          2.67745e-13 3.40233e-13 4.532e-13 6.34881e-13 2.56937e-18 2.45886e-18
        </DataArray>
        <DataArray type="Float32" Name="X^w_cyanide" NumberOfComponents="1" format="ascii">
          5.08077e-06 5.08069e-06 5.08061e-06 5.08053e-06 5.08045e-06 5.08037e-06 5.08028e-06 5.0802e-06 5.08012e-06 5.08003e-06 5.07994e-06 5.07985e-06
          5.07976e-06 5.07965e-06 5.07954e-06 5.07942e-06 5.07927e-06 5.0791e-06 5.07889e-06 5.07862e-06 5.07827e-06 5.07777e-06 5.07705e-06 5.07595e-06
          5.07468e-06 6.44492e-06 8.58018e-06 1.2241e-05 1.94408e-05 1.91585e-05
        </DataArray>
        <DataArray type="Float32" Name="X^w_citrate" NumberOfComponents="1" format="ascii">
          0.000141796 0.000141796 0.000141796 0.000141796 0.000141796 0.000141796 0.000141796 0.000141796 0.000141796 0.000141796 0.000141796 0.000141796
          0.000141796 0.000141795 0.000141795 0.000141795 0.000141794 0.000141794 0.000141793 0.000141791 0.000141789 0.000141786 0.000141782 0.000141774
          0.000141762 0.000141741 0.000141699 0.000141601 0.000141286 0.000139233
        </DataArray>
        <DataArray type="Float32" Name="X^w_substrate" NumberOfComponents="1" format="ascii">
          5.47524e-12 7.63563e-12 1.06481e-11 1.48487e-11 2.07063e-11 2.88749e-11 4.02679e-11 5.61611e-11 7.83386e-11 1.09299e-10 1.52546e-10 2.13011e-10
          2.97652e-10 4.16333e-10 5.83126e-10 8.18264e-10 1.15114e-09 1.62501e-09 2.30463e-09 3.28909e-09 4.73411e-09 6.89316e-09 1.01976e-08 1.54252e-08
          2.40884e-08 3.94491e-08 6.9648e-08 1.39961e-07 3.63537e-07 1.81079e-06
        </DataArray>
        <DataArray type="Float32" Name="m^w_H2O" NumberOfComponents="1" format="ascii">
          55492.6 55492.5 55492.5 55492.5 55492.5 55492.5 55492.5 55492.5 55492.5 55492.5 55492.5 55492.5
          55492.5 55492.4 55492.4 55492.4 55492.4 55492.4 55492.4 55492.4 55492.4 55492.4 55492.4 55492.4
          55492.3 55492.3 55492.1 55491.9 55491.5 55491.6
        </DataArray>
        <DataArray type="Float32" Name="m^w_Air" NumberOfComponents="1" format="ascii">
          7.87132e-25 1.40034e-26 2.44952e-28 4.21038e-30 7.11942e-32 1.18419e-33 1.93575e-35 3.1103e-37 0 0 0 0
          0 0 0 0 0 0 0 0 0 0 0 0
          0 0 0 0 0 0
        </DataArray>
        <DataArray type="Float32" Name="m^w_AuComplex" NumberOfComponents="1" format="ascii">
          1.21807e-12 1.27164e-12 1.26674e-12 1.26123e-12 1.26154e-12 1.27101e-12 1.2621e-12 1.27116e-12 1.26306e-12 1.26444e-12 1.2643e-12 1.26375e-12
          1.26322e-12 1.26483e-12 1.26367e-12 1.26415e-12 1.26374e-12 1.26394e-12 1.26308e-12 1.26357e-12 1.26344e-12 1.26316e-12 1.33162e-12 1.50516e-10
          3.50493e-07 5.46492e-07 9.37869e-07 1.84853e-06 1.13686e-11 1.09986e-11
        </DataArray>
        <DataArray type="Float32" Name="m^w_nanoAu" NumberOfComponents="1" format="ascii">
          5.0676e-15 5.31016e-15 5.28778e-15 5.26293e-15 5.26491e-15 5.30744e-15 5.26763e-15 5.30831e-15 5.27184e-15 5.27817e-15 5.27761e-15 5.27521e-15
          5.27298e-15 5.2803e-15 5.27522e-15 5.2775e-15 5.2758e-15 5.27683e-15 5.2732e-15 5.27582e-15 5.29576e-15 7.13617e-15 1.75109e-13 1.54745e-11
          1.35912e-09 1.72708e-09 2.30052e-09 3.22276e-09 1.30425e-14 1.24816e-14
        </DataArray>
        <DataArray type="Float32" Name="m^w_cyanide" NumberOfComponents="1" format="ascii">
          0.195236 0.195233 0.195229 0.195226 0.195223 0.19522 0.195217 0.195214 0.19521 0.195207 0.195204 0.1952
          0.195196 0.195192 0.195188 0.195183 0.195178 0.195171 0.195163 0.195153 0.195139 0.19512 0.195092 0.19505
          0.195001 0.247654 0.329704 0.470375 0.747038 0.736187
        </DataArray>
        <DataArray type="Float32" Name="m^w_citrate" NumberOfComponents="1" format="ascii">
          0.749742 0.749742 0.749742 0.749742 0.749742 0.749742 0.749741 0.749741 0.749741 0.749741 0.74974 0.74974
          0.749739 0.749738 0.749736 0.749734 0.749732 0.749728 0.749723 0.749716 0.749705 0.749688 0.749663 0.749624
          0.749559 0.749449 0.749228 0.748709 0.747041 0.736189
        </DataArray>
        <DataArray type="Float32" Name="m^w_substrate" NumberOfComponents="1" format="ascii">
          3.03866e-08 4.23764e-08 5.9095e-08 8.24076e-08 1.14916e-07 1.60251e-07 2.2348e-07 3.11684e-07 4.34764e-07 6.06587e-07 8.46603e-07 1.18217e-06
          1.65191e-06 2.31057e-06 3.23623e-06 4.5412e-06 6.38858e-06 9.01846e-06 1.27903e-05 1.82538e-05 2.62733e-05 3.82557e-05 5.65948e-05 8.56066e-05
          0.000133686 0.000218935 0.000386532 0.000776755 0.00201756 0.0100495
        </DataArray>
        <DataArray type="Float32" Name="process rank" NumberOfComponents="1" format="ascii">
          0 0 0 0 0 0 0 0 0 0 0 0
          0 0 0 0 0 0 0 0 0 0 0 0
          0 0 0 0 0 0
        </DataArray>
      </CellData>
      <Points>
        <DataArray type="Float32" Name="Coordinates" NumberOfComponents="3" format="ascii">
          0 0 0 0.5 0 0 0 0.0333333 0 0.5 0.0333333 0
          0 0.0666667 0 0.5 0.0666667 0 0 0.1 0 0.5 0.1 0
          0 0.133333 0 0.5 0.133333 0 0 0.166667 0 0.5 0.166667 0
          0 0.2 0 0.5 0.2 0 0 0.233333 0 0.5 0.233333 0
          0 0.266667 0 0.5 0.266667 0 0 0.3 0 0.5 0.3 0
          0 0.333333 0 0.5 0.333333 0 0 0.366667 0 0.5 0.366667 0
          0 0.4 0 0.5 0.4 0 0 0.433333 0 0.5 0.433333 0
          0 0.466667 0 0.5 0.466667 0 0 0.5 0 0.5 0.5 0
          0 0.533333 0 0.5 0.533333 0 0 0.566667 0 0.5 0.566667 0
          0 0.6 0 0.5 0.6 0 0 0.633333 0 0.5 0.633333 0
          0 0.666667 0 0.5 0.666667 0 0 0.7 0 0.5 0.7 0
          0 0.733333 0 0.5 0.733333 0 0 0.766667 0 0.5 0.766667 0
          0 0.8 0 0.5 0.8 0 0 0.833333 0 0.5 0.833333 0
          0 0.866667 0 0.5 0.866667 0 0 0.9 0 0.5 0.9 0
          0 0.933333 0 0.5 0.933333 0 0 0.966667 0 0.5 0.966667 0
          0 1 0 0.5 1 0
        </DataArray>
      </Points>
      <Cells>
        <DataArray type="Int32" Name="connectivity" NumberOfComponents="1" format="ascii">
          0 1 3 2 2 3 5 4 4 5 7 6
          6 7 9 8 8 9 11 10 10 11 13 12
          12 13 15 14 14 15 17 16 16 17 19 18
          18 19 21 20 20 21 23 22 22 23 25 24
          24 25 27 26 26 27 29 28 28 29 31 30
          30 31 33 32 32 33 35 34 34 35 37 36
          36 37 39 38 38 39 41 40 40 41 43 42
          42 43 45 44 44 45 47 46 46 47 49 48
          48 49 51 50 50 51 53 52 52 53 55 54
          54 55 57 56 56 57 59 58 58 59 61 60
        </DataArray>
        <DataArray type="Int32" Name="offsets" NumberOfComponents="1" format="ascii">
          4 8 12 16 20 24 28 32 36 40 44 48
          52 56 60 64 68 72 76 80 84 88 92 96
          100 104 108 112 116 120
        </DataArray>
        <DataArray type="UInt8" Name="types" NumberOfComponents="1" format="ascii">
          9 9 9 9 9 9 9 9 9 9 9 9
          9 9 9 9 9 9 9 9 9 9 9 9
          9 9 9 9 9 9
        </DataArray>
      </Cells>
    </Piece>
  </UnstructuredGrid>
</VTKFile>
