<?xml version="1.0"?>
<VTKFile type="UnstructuredGrid" version="0.1" byte_order="LittleEndian">
  <UnstructuredGrid>
    <Piece NumberOfCells="30" NumberOfPoints="62">
      <CellData Scalars="Sg">
        <DataArray type="Float32" Name="Sg" NumberOfComponents="1" format="ascii">
          0.0271285 0 0 0 0 0 0 0 0 0 0 0
          0 0 0 0 0 0 0 0 0 0 0 0
          0 0 0 0 0 0
        </DataArray>
        <DataArray type="Float32" Name="Sl" NumberOfComponents="1" format="ascii">
          0.972872 1 1 1 1 1 1 1 1 1 1 1
          1 1 1 1 1 1 1 1 1 1 1 1
          1 1 1 1 1 1
        </DataArray>
        <DataArray type="Float32" Name="pg" NumberOfComponents="1" format="ascii">
          32459.2 24360.9 24034 23707 23380.1 23053.1 22726.2 22399.3 22072.3 21745.4 21418.4 21091.5
          20764.6 20437.6 20110.7 19783.7 19456.8 19129.9 18802.9 18476 18149 17822.1 17495.1 17168.2
          16841.3 16514.3 16187.4 15860.4 15533.5 15206.6
        </DataArray>
        <DataArray type="Float32" Name="pl" NumberOfComponents="1" format="ascii">
          110628 110301 109974 109647 109320 108993 108666 108339 108012 107685 107358 107031
          106704 106377 106050 105723 105396 105070 104743 104416 104089 103762 103435 103108
          102781 102454 102127 101800 101473 101146
        </DataArray>
        <DataArray type="Float32" Name="pc" NumberOfComponents="1" format="ascii">
          -78168.3 -85939.7 -85939.7 -85939.7 -85939.7 -85939.7 -85939.7 -85939.7 -85939.7 -85939.7 -85939.7 -85939.7
          -85939.7 -85939.7 -85939.7 -85939.7 -85939.7 -85939.7 -85939.7 -85939.7 -85939.7 -85939.7 -85939.7 -85939.7
          -85939.7 -85939.7 -85939.7 -85939.7 -85939.7 -85939.7
        </DataArray>
        <DataArray type="Float32" Name="rhoL" NumberOfComponents="1" format="ascii">
          999.855 999.855 999.855 999.855 999.855 999.854 999.854 999.854 999.854 999.854 999.854 999.854
          999.853 999.853 999.853 999.853 999.853 999.853 999.852 999.852 999.852 999.852 999.852 999.852
          999.852 999.851 999.851 999.851 999.851 999.851
        </DataArray>
        <DataArray type="Float32" Name="rhoG" NumberOfComponents="1" format="ascii">
          0.402128 0.3018 0.29775 0.293699 0.289649 0.285598 0.281548 0.277498 0.273447 0.269397 0.265347 0.261296
          0.257246 0.253195 0.249145 0.245095 0.241044 0.236994 0.232944 0.228893 0.224843 0.220793 0.216742 0.212692
          0.208641 0.204591 0.200541 0.19649 0.19244 0.18839
        </DataArray>
        <DataArray type="Float32" Name="mobL" NumberOfComponents="1" format="ascii">
          722.171 722.17 722.17 722.17 722.17 722.17 722.169 722.169 722.169 722.169 722.169 722.169
          722.168 722.168 722.168 722.168 722.168 722.167 722.167 722.167 722.167 722.167 722.166 722.166
          722.166 722.166 722.166 722.166 722.165 722.165
        </DataArray>
        <DataArray type="Float32" Name="mobG" NumberOfComponents="1" format="ascii">
          0 0 0 0 0 0 0 0 0 0 0 0
          0 0 0 0 0 0 0 0 0 0 0 0
          0 0 0 0 0 0
        </DataArray>
        <DataArray type="Float32" Name="porosity" NumberOfComponents="1" format="ascii">
          0.298544 0.298544 0.298544 0.298544 0.298543 0.298543 0.298542 0.298541 0.29854 0.298538 0.298535 0.298531
          0.298525 0.298518 0.298508 0.298495 0.298477 0.298452 0.298419 0.298375 0.298313 0.298228 0.298107 0.29793
          0.297386 0.296928 0.296067 0.294043 0.286585 0.148527
        </DataArray>
        <DataArray type="Float32" Name="temperature" NumberOfComponents="1" format="ascii">
          281.15 281.15 281.15 281.15 281.15 281.15 281.15 281.15 281.15 281.15 281.15 281.15
          281.15 281.15 281.15 281.15 281.15 281.15 281.15 281.15 281.15 281.15 281.15 281.15
          281.15 281.15 281.15 281.15 281.15 281.15
        </DataArray>
        <DataArray type="Float32" Name="phase presence" NumberOfComponents="1" format="ascii">
          3 1 1 1 1 1 1 1 1 1 1 1
          1 1 1 1 1 1 1 1 1 1 1 1
          1 1 1 1 1 1
        </DataArray>
        <DataArray type="Float32" Name="precipitateVolumeFraction_au" NumberOfComponents="1" format="ascii">
          5.51281e-10 5.51283e-10 5.51279e-10 5.51271e-10 5.51269e-10 5.51302e-10 5.51263e-10 5.51323e-10 5.51263e-10 5.51282e-10 5.51278e-10 5.51271e-10
          5.51259e-10 5.51302e-10 5.5127e-10 5.51292e-10 5.5128e-10 5.51298e-10 5.51249e-10 5.51295e-10 5.51304e-10 5.51293e-10 5.51339e-10 6.85536e-10
          0.00026994 0.000269924 0.000269898 0.000269854 5.51057e-10 5.49548e-10
        </DataArray>
        <DataArray type="Float32" Name="precipitateVolumeFraction_nanoAu" NumberOfComponents="1" format="ascii">
          1.59466e-12 1.61682e-12 1.60371e-12 1.58895e-12 1.58985e-12 1.61536e-12 1.59152e-12 1.61584e-12 1.59428e-12 1.59802e-12 1.59774e-12 1.59637e-12
          1.59506e-12 1.59936e-12 1.59645e-12 1.5978e-12 1.59687e-12 1.59752e-12 1.59557e-12 1.59698e-12 1.59698e-12 1.59652e-12 1.60846e-12 2.75863e-11
          6.06277e-08 7.69875e-08 1.02415e-07 1.45465e-07 1.93741e-12 1.91197e-12
        </DataArray>
        <DataArray type="Float32" Name="precipitateVolumeFraction_d" NumberOfComponents="1" format="ascii">
          0.000727754 0.000727824 0.000727923 0.000728062 0.000728258 0.000728532 0.000728917 0.000729454 0.0007302 0.000731234 0.00073266 0.000734619
          0.000737297 0.000740944 0.000745892 0.000752586 0.000761622 0.000773815 0.000790295 0.000812673 0.000843323 0.000885906 0.000946388 0.00103519
          0.00117224 0.0014008 0.0018315 0.00284361 0.00670774 0.0757367
        </DataArray>
        <DataArray type="Float32" Name="precipitateVolumeFraction_p" NumberOfComponents="1" format="ascii">
          0.000727754 0.000727824 0.000727923 0.000728062 0.000728258 0.000728532 0.000728917 0.000729454 0.0007302 0.000731234 0.00073266 0.000734619
          0.000737297 0.000740944 0.000745892 0.000752586 0.000761622 0.000773815 0.000790295 0.000812673 0.000843323 0.000885906 0.000946388 0.00103519
          0.00117224 0.0014008 0.0018315 0.00284361 0.00670774 0.0757367
        </DataArray>
        <DataArray type="Float32" Name="K" NumberOfComponents="1" format="ascii">
          9.8143e-11 9.81428e-11 9.81426e-11 9.81422e-11 9.81417e-11 9.8141e-11 9.814e-11 9.81387e-11 9.81368e-11 9.81342e-11 9.81306e-11 9.81256e-11
          9.81188e-11 9.81096e-11 9.80971e-11 9.80801e-11 9.80573e-11 9.80264e-11 9.79847e-11 9.79282e-11 9.78507e-11 9.77432e-11 9.75907e-11 9.73671e-11
          9.66847e-11 9.61144e-11 9.50473e-11 9.25778e-11 8.39277e-11 8.20169e-12
        </DataArray>
        <DataArray type="Float32" Name="X^w_H2O" NumberOfComponents="1" format="ascii">
          0.999843 0.999853 0.999853 0.999853 0.999853 0.999853 0.999853 0.999853 0.999853 0.999853 0.999853 0.999853
          0.999853 0.999853 0.999853 0.999853 0.999853 0.999853 0.999853 0.999853 0.999853 0.999853 0.999853 0.999853
          0.999853 0.999852 0.99985 0.999846 0.999839 0.99984
        </DataArray>
        <DataArray type="Float32" Name="X^w_Air" NumberOfComponents="1" format="ascii">
          9.72893e-06 5.56891e-07 9.9051e-09 1.72813e-10 2.96377e-12 5.00554e-14 8.3056e-16 1.35383e-17 2.16986e-19 3.41902e-21 5.2854e-23 8.0197e-25
          1.19634e-26 1.75002e-28 2.51371e-30 3.53636e-32 4.87858e-34 6.59613e-36 8.71621e-38 0 0 0 0 0
          0 0 0 0 0 0
        </DataArray>
        <DataArray type="Float32" Name="X^w_AuComplex" NumberOfComponents="1" format="ascii">
          -2.44229e-14 1.58112e-15 1.56851e-15 1.55431e-15 1.55521e-15 1.57983e-15 1.55686e-15 1.58033e-15 1.55956e-15 1.56318e-15 1.56292e-15 1.56161e-15
          1.56035e-15 1.5645e-15 1.56168e-15 1.56298e-15 1.56206e-15 1.56266e-15 1.56072e-15 1.56201e-15 1.56188e-15 1.56127e-15 1.57447e-15 3.12116e-14
          6.92368e-11 1.07949e-10 1.85118e-10 3.63931e-10 7.21937e-15 6.99075e-15
        </DataArray>
        <DataArray type="Float32" Name="X^w_nanoAu" NumberOfComponents="1" format="ascii">
          -2.92778e-14 7.14058e-18 7.08261e-18 7.0182e-18 7.02335e-18 7.13366e-18 7.03068e-18 7.13585e-18 7.04188e-18 7.05819e-18 7.05689e-18 7.05085e-18
          7.04529e-18 7.06396e-18 7.05126e-18 7.05711e-18 7.05305e-18 7.05576e-18 7.04722e-18 7.05336e-18 7.05717e-18 7.4199e-18 4.06711e-17 3.06583e-15
          2.68386e-13 3.40966e-13 4.53731e-13 6.33957e-13 8.51013e-18 8.1539e-18
        </DataArray>
        <DataArray type="Float32" Name="X^w_cyanide" NumberOfComponents="1" format="ascii">
          5.08296e-06 5.0831e-06 5.0832e-06 5.08329e-06 5.08337e-06 5.08345e-06 5.08352e-06 5.08358e-06 5.08364e-06 5.08369e-06 5.08373e-06 5.08376e-06
          5.08377e-06 5.08378e-06 5.08376e-06 5.08373e-06 5.08366e-06 5.08355e-06 5.08338e-06 5.08313e-06 5.08274e-06 5.08217e-06 5.08128e-06 5.07986e-06
          5.07801e-06 6.44928e-06 8.58544e-06 1.22436e-05 1.94141e-05 1.9052e-05
        </DataArray>
        <DataArray type="Float32" Name="X^w_citrate" NumberOfComponents="1" format="ascii">
          0.000141795 0.000141796 0.000141796 0.000141796 0.000141796 0.000141796 0.000141796 0.000141796 0.000141796 0.000141796 0.000141796 0.000141796
          0.000141796 0.000141795 0.000141795 0.000141795 0.000141794 0.000141793 0.000141792 0.00014179 0.000141787 0.000141783 0.000141777 0.000141766
          0.000141749 0.00014172 0.000141662 0.000141525 0.000141093 0.00013846
        </DataArray>
        <DataArray type="Float32" Name="X^w_substrate" NumberOfComponents="1" format="ascii">
          6.88264e-12 9.40672e-12 1.31272e-11 1.83804e-11 2.57365e-11 3.60385e-11 5.04686e-11 7.06856e-11 9.90196e-11 1.38748e-10 1.94492e-10 2.72778e-10
          3.82861e-10 5.37925e-10 7.56864e-10 1.06697e-09 1.50806e-09 2.13903e-09 3.04845e-09 4.3724e-09 6.32568e-09 9.25939e-09 1.37731e-08 2.09511e-08
          3.29063e-08 5.41964e-08 9.61626e-08 1.93692e-07 4.99192e-07 2.35605e-06
        </DataArray>
        <DataArray type="Float32" Name="m^w_H2O" NumberOfComponents="1" format="ascii">
          55492 55492.5 55492.5 55492.5 55492.5 55492.5 55492.5 55492.5 55492.5 55492.5 55492.5 55492.5
          55492.5 55492.4 55492.4 55492.4 55492.4 55492.4 55492.4 55492.4 55492.4 55492.4 55492.4 55492.4
          55492.3 55492.3 55492.1 55491.9 55491.5 55491.6
        </DataArray>
        <DataArray type="Float32" Name="m^w_Air" NumberOfComponents="1" format="ascii">
          0.335895 0.0192269 0.000341977 5.96643e-06 1.02325e-07 1.72818e-09 2.86754e-11 4.67415e-13 7.49151e-15 1.18043e-16 1.8248e-18 2.76883e-20
          4.1304e-22 6.04201e-24 8.67865e-26 1.22094e-27 1.68435e-29 2.27733e-31 3.0093e-33 3.88056e-35 4.87016e-37 0 0 0
          0 0 0 0 0 0
        </DataArray>
        <DataArray type="Float32" Name="m^w_AuComplex" NumberOfComponents="1" format="ascii">
          -1.23975e-10 8.02607e-12 7.96205e-12 7.88996e-12 7.89451e-12 8.01949e-12 7.90291e-12 8.02202e-12 7.91661e-12 7.93498e-12 7.93366e-12 7.92701e-12
          7.92059e-12 7.94168e-12 7.92737e-12 7.93395e-12 7.92928e-12 7.93231e-12 7.92246e-12 7.92902e-12 7.92838e-12 7.92526e-12 7.99229e-12 1.58435e-10
          3.51457e-07 5.47964e-07 9.3969e-07 1.84737e-06 3.66466e-11 3.54861e-11
        </DataArray>
        <DataArray type="Float32" Name="m^w_nanoAu" NumberOfComponents="1" format="ascii">
          -1.48619e-10 3.62469e-14 3.59526e-14 3.56256e-14 3.56518e-14 3.62117e-14 3.56889e-14 3.62228e-14 3.57458e-14 3.58286e-14 3.5822e-14 3.57914e-14
          3.57631e-14 3.58579e-14 3.57934e-14 3.58231e-14 3.58024e-14 3.58162e-14 3.57729e-14 3.5804e-14 3.58234e-14 3.76646e-14 2.06453e-13 1.55627e-11
          1.36237e-09 1.7308e-09 2.30321e-09 3.21807e-09 4.31987e-14 4.13905e-14
        </DataArray>
        <DataArray type="Float32" Name="m^w_cyanide" NumberOfComponents="1" format="ascii">
          0.19532 0.195325 0.195329 0.195332 0.195336 0.195339 0.195341 0.195344 0.195346 0.195348 0.195349 0.19535
          0.195351 0.195351 0.19535 0.195349 0.195346 0.195342 0.195336 0.195326 0.195311 0.195289 0.195255 0.1952
          0.195129 0.247822 0.329906 0.470475 0.746013 0.732095
        </DataArray>
        <DataArray type="Float32" Name="m^w_citrate" NumberOfComponents="1" format="ascii">
          0.749735 0.749742 0.749742 0.749742 0.749742 0.749742 0.749741 0.749741 0.749741 0.74974 0.74974 0.749739
          0.749738 0.749737 0.749735 0.749733 0.749729 0.749724 0.749717 0.749707 0.749693 0.749671 0.749637 0.749583
          0.749493 0.749338 0.74903 0.748306 0.746024 0.7321
        </DataArray>
        <DataArray type="Float32" Name="m^w_substrate" NumberOfComponents="1" format="ascii">
          3.81974e-08 5.22056e-08 7.28538e-08 1.02008e-07 1.42833e-07 2.00007e-07 2.80091e-07 3.92292e-07 5.4954e-07 7.70028e-07 1.07939e-06 1.51386e-06
          2.12481e-06 2.98538e-06 4.20045e-06 5.92145e-06 8.36943e-06 1.18712e-05 1.69183e-05 2.42659e-05 3.51063e-05 5.13877e-05 7.64381e-05 0.000116274
          0.000182623 0.000300779 0.000533683 0.00107495 0.00277041 0.0130756
        </DataArray>
        <DataArray type="Float32" Name="process rank" NumberOfComponents="1" format="ascii">
          0 0 0 0 0 0 0 0 0 0 0 0
          0 0 0 0 0 0 0 0 0 0 0 0
          0 0 0 0 0 0
        </DataArray>
      </CellData>
      <Points>
        <DataArray type="Float32" Name="Coordinates" NumberOfComponents="3" format="ascii">
          0 0 0 0.5 0 0 0 0.0333333 0 0.5 0.0333333 0
          0 0.0666667 0 0.5 0.0666667 0 0 0.1 0 0.5 0.1 0
          0 0.133333 0 0.5 0.133333 0 0 0.166667 0 0.5 0.166667 0
          0 0.2 0 0.5 0.2 0 0 0.233333 0 0.5 0.233333 0
          0 0.266667 0 0.5 0.266667 0 0 0.3 0 0.5 0.3 0
          0 0.333333 0 0.5 0.333333 0 0 0.366667 0 0.5 0.366667 0
          0 0.4 0 0.5 0.4 0 0 0.433333 0 0.5 0.433333 0
          0 0.466667 0 0.5 0.466667 0 0 0.5 0 0.5 0.5 0
          0 0.533333 0 0.5 0.533333 0 0 0.566667 0 0.5 0.566667 0
          0 0.6 0 0.5 0.6 0 0 0.633333 0 0.5 0.633333 0
          0 0.666667 0 0.5 0.666667 0 0 0.7 0 0.5 0.7 0
          0 0.733333 0 0.5 0.733333 0 0 0.766667 0 0.5 0.766667 0
          0 0.8 0 0.5 0.8 0 0 0.833333 0 0.5 0.833333 0
          0 0.866667 0 0.5 0.866667 0 0 0.9 0 0.5 0.9 0
          0 0.933333 0 0.5 0.933333 0 0 0.966667 0 0.5 0.966667 0
          0 1 0 0.5 1 0
        </DataArray>
      </Points>
      <Cells>
        <DataArray type="Int32" Name="connectivity" NumberOfComponents="1" format="ascii">
          0 1 3 2 2 3 5 4 4 5 7 6
          6 7 9 8 8 9 11 10 10 11 13 12
          12 13 15 14 14 15 17 16 16 17 19 18
          18 19 21 20 20 21 23 22 22 23 25 24
          24 25 27 26 26 27 29 28 28 29 31 30
          30 31 33 32 32 33 35 34 34 35 37 36
          36 37 39 38 38 39 41 40 40 41 43 42
          42 43 45 44 44 45 47 46 46 47 49 48
          48 49 51 50 50 51 53 52 52 53 55 54
          54 55 57 56 56 57 59 58 58 59 61 60
        </DataArray>
        <DataArray type="Int32" Name="offsets" NumberOfComponents="1" format="ascii">
          4 8 12 16 20 24 28 32 36 40 44 48
          52 56 60 64 68 72 76 80 84 88 92 96
          100 104 108 112 116 120
        </DataArray>
        <DataArray type="UInt8" Name="types" NumberOfComponents="1" format="ascii">
          9 9 9 9 9 9 9 9 9 9 9 9
          9 9 9 9 9 9 9 9 9 9 9 9
          9 9 9 9 9 9
        </DataArray>
      </Cells>
    </Piece>
  </UnstructuredGrid>
</VTKFile>
