<?xml version="1.0"?>
<VTKFile type="UnstructuredGrid" version="0.1" byte_order="LittleEndian">
  <UnstructuredGrid>
    <Piece NumberOfCells="30" NumberOfPoints="62">
      <CellData Scalars="Sg">
        <DataArray type="Float32" Name="Sg" NumberOfComponents="1" format="ascii">
          0.0886223 0.0883607 0.0873201 0.0826988 0.0626883 0 0 0 0 0 0 0
          0 0 0 0 0 0 0 0 0 0 0 0
          0 0 0 0 0 0
        </DataArray>
        <DataArray type="Float32" Name="Sl" NumberOfComponents="1" format="ascii">
          0.911378 0.911639 0.91268 0.917301 0.937312 1 1 1 1 1 1 1
          1 1 1 1 1 1 1 1 1 1 1 1
          1 1 1 1 1 1
        </DataArray>
        <DataArray type="Float32" Name="pg" NumberOfComponents="1" format="ascii">
          50075.1 49673.2 49048.2 47397.4 41338.1 23053.1 22726.2 22399.3 22072.3 21745.4 21418.4 21091.5
          20764.6 20437.6 20110.7 19783.7 19456.8 19129.9 18802.9 18476 18149 17822.1 17495.1 17168.2
          16841.3 16514.3 16187.4 15860.4 15533.5 15206.6
        </DataArray>
        <DataArray type="Float32" Name="pl" NumberOfComponents="1" format="ascii">
          110628 110301 109974 109647 109320 108993 108666 108339 108012 107685 107358 107031
          106704 106377 106050 105723 105396 105070 104743 104416 104089 103762 103435 103108
          102781 102454 102127 101800 101473 101146
        </DataArray>
        <DataArray type="Float32" Name="pc" NumberOfComponents="1" format="ascii">
          -60552.4 -60627.4 -60925.5 -62249.3 -67981.6 -85939.7 -85939.7 -85939.7 -85939.7 -85939.7 -85939.7 -85939.7
          -85939.7 -85939.7 -85939.7 -85939.7 -85939.7 -85939.7 -85939.7 -85939.7 -85939.7 -85939.7 -85939.7 -85939.7
          -85939.7 -85939.7 -85939.7 -85939.7 -85939.7 -85939.7
        </DataArray>
        <DataArray type="Float32" Name="rhoL" NumberOfComponents="1" format="ascii">
          999.855 999.855 999.855 999.855 999.855 999.854 999.854 999.854 999.854 999.854 999.854 999.854
          999.853 999.853 999.853 999.853 999.853 999.853 999.852 999.852 999.852 999.852 999.852 999.852
          999.852 999.851 999.851 999.851 999.851 999.851
        </DataArray>
        <DataArray type="Float32" Name="rhoG" NumberOfComponents="1" format="ascii">
          0.620365 0.615387 0.607643 0.587192 0.512126 0.285598 0.281548 0.277498 0.273447 0.269397 0.265347 0.261296
          0.257246 0.253195 0.249145 0.245095 0.241044 0.236994 0.232944 0.228893 0.224843 0.220793 0.216742 0.212692
          0.208641 0.204591 0.200541 0.19649 0.19244 0.18839
        </DataArray>
        <DataArray type="Float32" Name="mobL" NumberOfComponents="1" format="ascii">
          722.171 722.17 722.17 722.17 722.17 722.17 722.169 722.169 722.169 722.169 722.169 722.169
          722.168 722.168 722.168 722.168 722.168 722.167 722.167 722.167 722.167 722.167 722.166 722.166
          722.166 722.166 722.166 722.166 722.165 722.165
        </DataArray>
        <DataArray type="Float32" Name="mobG" NumberOfComponents="1" format="ascii">
          0 0 0 0 0 0 0 0 0 0 0 0
          0 0 0 0 0 0 0 0 0 0 0 0
          0 0 0 0 0 0
        </DataArray>
        <DataArray type="Float32" Name="porosity" NumberOfComponents="1" format="ascii">
          0.298531 0.298531 0.298531 0.29853 0.29853 0.298529 0.298529 0.298528 0.298526 0.298524 0.298521 0.298517
          0.298512 0.298504 0.298494 0.298481 0.298463 0.298438 0.298405 0.29836 0.298298 0.298213 0.298092 0.297914
          0.29737 0.296915 0.296063 0.294083 0.287009 0.168682
        </DataArray>
        <DataArray type="Float32" Name="temperature" NumberOfComponents="1" format="ascii">
          281.15 281.15 281.15 281.15 281.15 281.15 281.15 281.15 281.15 281.15 281.15 281.15
          281.15 281.15 281.15 281.15 281.15 281.15 281.15 281.15 281.15 281.15 281.15 281.15
          281.15 281.15 281.15 281.15 281.15 281.15
        </DataArray>
        <DataArray type="Float32" Name="phase presence" NumberOfComponents="1" format="ascii">
          3 3 3 3 3 1 1 1 1 1 1 1
          1 1 1 1 1 1 1 1 1 1 1 1
          1 1 1 1 1 1
        </DataArray>
        <DataArray type="Float32" Name="precipitateVolumeFraction_au" NumberOfComponents="1" format="ascii">
          5.49269e-10 5.49266e-10 5.49265e-10 5.49266e-10 5.49265e-10 5.49265e-10 5.49261e-10 5.49247e-10 5.49284e-10 5.49268e-10 5.49263e-10 5.49285e-10
          5.49279e-10 5.49271e-10 5.49287e-10 5.49289e-10 5.49277e-10 5.49278e-10 5.4928e-10 5.49315e-10 5.49276e-10 5.49294e-10 5.493e-10 6.61003e-10
          0.00026994 0.000269923 0.000269898 0.000269855 5.48797e-10 5.47832e-10
        </DataArray>
        <DataArray type="Float32" Name="precipitateVolumeFraction_nanoAu" NumberOfComponents="1" format="ascii">
          3.61019e-12 3.61013e-12 3.6093e-12 3.60909e-12 3.60876e-12 3.57336e-12 3.59439e-12 3.56885e-12 3.62883e-12 3.60752e-12 3.60509e-12 3.61525e-12
          3.61097e-12 3.60759e-12 3.61025e-12 3.60965e-12 3.60718e-12 3.60686e-12 3.60669e-12 3.60861e-12 3.60554e-12 3.606e-12 3.61641e-12 2.9798e-11
          6.08175e-08 7.71921e-08 1.02551e-07 1.45209e-07 3.93462e-12 3.89782e-12
        </DataArray>
        <DataArray type="Float32" Name="precipitateVolumeFraction_d" NumberOfComponents="1" format="ascii">
          0.000734532 0.000734602 0.000734702 0.000734842 0.000735039 0.000735316 0.000735704 0.000736244 0.000736996 0.000738038 0.000739474 0.000741447
          0.000744144 0.000747816 0.000752798 0.000759536 0.000768631 0.000780898 0.000797472 0.000819967 0.000850759 0.000893504 0.00095415 0.00104306
          0.00117997 0.00140749 0.00183369 0.00282357 0.0064953 0.0656589
        </DataArray>
        <DataArray type="Float32" Name="precipitateVolumeFraction_p" NumberOfComponents="1" format="ascii">
          0.000734532 0.000734602 0.000734702 0.000734842 0.000735039 0.000735316 0.000735704 0.000736244 0.000736996 0.000738038 0.000739474 0.000741447
          0.000744144 0.000747816 0.000752798 0.000759536 0.000768631 0.000780898 0.000797472 0.000819967 0.000850759 0.000893504 0.00095415 0.00104306
          0.00117997 0.00140749 0.00183369 0.00282357 0.0064953 0.0656589
        </DataArray>
        <DataArray type="Float32" Name="K" NumberOfComponents="1" format="ascii">
          9.81258e-11 9.81256e-11 9.81254e-11 9.8125e-11 9.81245e-11 9.81238e-11 9.81229e-11 9.81215e-11 9.81196e-11 9.81169e-11 9.81133e-11 9.81083e-11
          9.81015e-11 9.80922e-11 9.80796e-11 9.80625e-11 9.80395e-11 9.80085e-11 9.79666e-11 9.79097e-11 9.78319e-11 9.7724e-11 9.75711e-11 9.73473e-11
          9.66653e-11 9.60977e-11 9.50419e-11 9.26262e-11 8.44021e-11 1.26039e-11
        </DataArray>
        <DataArray type="Float32" Name="X^w_H2O" NumberOfComponents="1" format="ascii">
          0.999838 0.999838 0.999838 0.999839 0.999841 0.999847 0.999853 0.999853 0.999853 0.999853 0.999853 0.999853
          0.999853 0.999853 0.999853 0.999853 0.999853 0.999853 0.999853 0.999853 0.999853 0.999853 0.999853 0.999853
          0.999853 0.999852 0.99985 0.999846 0.999839 0.99984
        </DataArray>
        <DataArray type="Float32" Name="X^w_Air" NumberOfComponents="1" format="ascii">
          1.51894e-05 1.50648e-05 1.48711e-05 1.43594e-05 1.24812e-05 5.7497e-06 9.58999e-08 1.57074e-09 2.52942e-11 4.00685e-13 6.22644e-15 9.49095e-17
          1.42347e-18 2.09255e-20 3.02301e-22 4.27625e-24 5.93311e-26 8.07543e-28 1.07494e-29 1.39779e-31 1.77238e-33 2.18141e-35 2.57906e-37 0
          0 0 0 0 0 0
        </DataArray>
        <DataArray type="Float32" Name="X^w_AuComplex" NumberOfComponents="1" format="ascii">
          1.71059e-15 2.42661e-15 3.7149e-15 3.84824e-15 4.76456e-15 3.11427e-15 3.4872e-15 3.46267e-15 3.52058e-15 3.50013e-15 3.49787e-15 3.50775e-15
          3.5037e-15 3.50051e-15 3.50314e-15 3.5026e-15 3.50023e-15 3.49991e-15 3.49969e-15 3.50141e-15 3.49821e-15 3.49827e-15 3.50963e-15 3.33525e-14
          6.94088e-11 1.08221e-10 1.85429e-10 3.63482e-10 1.45603e-14 1.41133e-14
        </DataArray>
        <DataArray type="Float32" Name="X^w_nanoAu" NumberOfComponents="1" format="ascii">
          -7.16822e-16 -7.96345e-19 1.28749e-15 2.07124e-16 -1.30397e-15 -5.43966e-14 1.56605e-17 1.55532e-17 1.58107e-17 1.57188e-17 1.57088e-17 1.57524e-17
          1.57337e-17 1.57192e-17 1.57307e-17 1.57279e-17 1.57171e-17 1.57156e-17 1.57148e-17 1.57227e-17 1.57129e-17 1.60618e-17 4.81365e-17 3.00505e-15
          2.65563e-13 3.37198e-13 4.48068e-13 6.24156e-13 1.70349e-17 1.6341e-17
        </DataArray>
        <DataArray type="Float32" Name="X^w_cyanide" NumberOfComponents="1" format="ascii">
          5.08146e-06 5.08154e-06 5.08162e-06 5.08172e-06 5.08184e-06 5.08198e-06 5.08213e-06 5.08226e-06 5.08239e-06 5.08251e-06 5.08264e-06 5.08276e-06
          5.08288e-06 5.08298e-06 5.08306e-06 5.08313e-06 5.08315e-06 5.08313e-06 5.08304e-06 5.08285e-06 5.08251e-06 5.08194e-06 5.08099e-06 5.07942e-06
          5.07722e-06 6.45058e-06 8.58959e-06 1.22485e-05 1.93959e-05 1.89813e-05
        </DataArray>
        <DataArray type="Float32" Name="X^w_citrate" NumberOfComponents="1" format="ascii">
          0.000141794 0.000141794 0.000141794 0.000141794 0.000141794 0.000141795 0.000141796 0.000141796 0.000141796 0.000141796 0.000141796 0.000141796
          0.000141795 0.000141795 0.000141795 0.000141794 0.000141794 0.000141792 0.000141791 0.000141789 0.000141785 0.00014178 0.000141773 0.000141761
          0.000141741 0.000141705 0.000141636 0.000141472 0.000140963 0.000137948
        </DataArray>
        <DataArray type="Float32" Name="X^w_substrate" NumberOfComponents="1" format="ascii">
          7.53042e-12 1.0635e-11 1.50433e-11 2.1289e-11 3.00676e-11 4.18409e-11 5.93369e-11 8.31474e-11 1.16525e-10 1.63349e-10 2.29085e-10 3.21458e-10
          4.51431e-10 6.34632e-10 8.93475e-10 1.26036e-09 1.78263e-09 2.53034e-09 3.60893e-09 5.18059e-09 7.50158e-09 1.09911e-08 1.63654e-08 2.49206e-08
          3.91823e-08 6.45946e-08 1.14673e-07 2.30777e-07 5.91385e-07 2.71731e-06
        </DataArray>
        <DataArray type="Float32" Name="m^w_H2O" NumberOfComponents="1" format="ascii">
          55491.7 55491.7 55491.7 55491.7 55491.8 55492.2 55492.5 55492.5 55492.5 55492.5 55492.5 55492.5
          55492.5 55492.4 55492.4 55492.4 55492.4 55492.4 55492.4 55492.4 55492.4 55492.4 55492.4 55492.4
          55492.3 55492.3 55492.1 55491.9 55491.5 55491.6
        </DataArray>
        <DataArray type="Float32" Name="m^w_Air" NumberOfComponents="1" format="ascii">
          0.524419 0.520118 0.513429 0.495762 0.430916 0.19851 0.00331098 5.42303e-05 8.73291e-07 1.38338e-08 2.1497e-10 3.27678e-12
          4.91459e-14 7.22461e-16 1.0437e-17 1.47639e-19 2.04842e-21 2.78807e-23 3.71125e-25 4.82589e-27 6.11919e-29 7.53139e-31 8.90427e-33 9.92877e-35
          1.00506e-36 0 0 0 0 0
        </DataArray>
        <DataArray type="Float32" Name="m^w_AuComplex" NumberOfComponents="1" format="ascii">
          8.68325e-12 1.23179e-11 1.88575e-11 1.95343e-11 2.41857e-11 1.58086e-11 1.77017e-11 1.75771e-11 1.78711e-11 1.77672e-11 1.77558e-11 1.7806e-11
          1.77854e-11 1.77692e-11 1.77825e-11 1.77798e-11 1.77678e-11 1.77661e-11 1.7765e-11 1.77737e-11 1.77575e-11 1.77578e-11 1.78155e-11 1.69303e-10
          3.5233e-07 5.49346e-07 9.41266e-07 1.84509e-06 7.39104e-11 7.16414e-11
        </DataArray>
        <DataArray type="Float32" Name="m^w_nanoAu" NumberOfComponents="1" format="ascii">
          -3.63872e-12 -4.04239e-15 6.53551e-12 1.0514e-12 -6.61918e-12 -2.76127e-10 7.94956e-14 7.89509e-14 8.02581e-14 7.97913e-14 7.97405e-14 7.99617e-14
          7.9867e-14 7.97936e-14 7.98515e-14 7.98374e-14 7.97828e-14 7.97751e-14 7.9771e-14 7.98112e-14 7.97614e-14 8.15325e-14 2.44349e-13 1.52541e-11
          1.34804e-09 1.71167e-09 2.27447e-09 3.16832e-09 8.64718e-14 8.29496e-14
        </DataArray>
        <DataArray type="Float32" Name="m^w_cyanide" NumberOfComponents="1" format="ascii">
          0.195262 0.195265 0.195268 0.195272 0.195277 0.195282 0.195288 0.195293 0.195298 0.195303 0.195307 0.195312
          0.195316 0.19532 0.195323 0.195326 0.195327 0.195326 0.195323 0.195315 0.195302 0.19528 0.195244 0.195183
          0.195099 0.247872 0.330066 0.470662 0.74531 0.72938
        </DataArray>
        <DataArray type="Float32" Name="m^w_citrate" NumberOfComponents="1" format="ascii">
          0.749731 0.749731 0.749731 0.749731 0.749732 0.749737 0.749741 0.749741 0.749741 0.74974 0.74974 0.749739
          0.749738 0.749736 0.749734 0.749731 0.749727 0.749721 0.749713 0.749701 0.749684 0.749658 0.749617 0.749553
          0.749446 0.74926 0.748891 0.748028 0.745333 0.729392
        </DataArray>
        <DataArray type="Float32" Name="m^w_substrate" NumberOfComponents="1" format="ascii">
          4.17925e-08 5.90222e-08 8.34878e-08 1.1815e-07 1.6687e-07 2.32209e-07 3.29309e-07 4.61453e-07 6.4669e-07 9.06558e-07 1.27138e-06 1.78403e-06
          2.50536e-06 3.52208e-06 4.95861e-06 6.99478e-06 9.89327e-06 1.40429e-05 2.00289e-05 2.87513e-05 4.16323e-05 6.09981e-05 9.08247e-05 0.000138304
          0.000217454 0.000358487 0.000636412 0.00128076 0.00328207 0.0150805
        </DataArray>
        <DataArray type="Float32" Name="process rank" NumberOfComponents="1" format="ascii">
          0 0 0 0 0 0 0 0 0 0 0 0
          0 0 0 0 0 0 0 0 0 0 0 0
          0 0 0 0 0 0
        </DataArray>
      </CellData>
      <Points>
        <DataArray type="Float32" Name="Coordinates" NumberOfComponents="3" format="ascii">
          0 0 0 0.5 0 0 0 0.0333333 0 0.5 0.0333333 0
          0 0.0666667 0 0.5 0.0666667 0 0 0.1 0 0.5 0.1 0
          0 0.133333 0 0.5 0.133333 0 0 0.166667 0 0.5 0.166667 0
          0 0.2 0 0.5 0.2 0 0 0.233333 0 0.5 0.233333 0
          0 0.266667 0 0.5 0.266667 0 0 0.3 0 0.5 0.3 0
          0 0.333333 0 0.5 0.333333 0 0 0.366667 0 0.5 0.366667 0
          0 0.4 0 0.5 0.4 0 0 0.433333 0 0.5 0.433333 0
          0 0.466667 0 0.5 0.466667 0 0 0.5 0 0.5 0.5 0
          0 0.533333 0 0.5 0.533333 0 0 0.566667 0 0.5 0.566667 0
          0 0.6 0 0.5 0.6 0 0 0.633333 0 0.5 0.633333 0
          0 0.666667 0 0.5 0.666667 0 0 0.7 0 0.5 0.7 0
          0 0.733333 0 0.5 0.733333 0 0 0.766667 0 0.5 0.766667 0
          0 0.8 0 0.5 0.8 0 0 0.833333 0 0.5 0.833333 0
          0 0.866667 0 0.5 0.866667 0 0 0.9 0 0.5 0.9 0
          0 0.933333 0 0.5 0.933333 0 0 0.966667 0 0.5 0.966667 0
          0 1 0 0.5 1 0
        </DataArray>
      </Points>
      <Cells>
        <DataArray type="Int32" Name="connectivity" NumberOfComponents="1" format="ascii">
          0 1 3 2 2 3 5 4 4 5 7 6
          6 7 9 8 8 9 11 10 10 11 13 12
          12 13 15 14 14 15 17 16 16 17 19 18
          18 19 21 20 20 21 23 22 22 23 25 24
          24 25 27 26 26 27 29 28 28 29 31 30
          30 31 33 32 32 33 35 34 34 35 37 36
          36 37 39 38 38 39 41 40 40 41 43 42
          42 43 45 44 44 45 47 46 46 47 49 48
          48 49 51 50 50 51 53 52 52 53 55 54
          54 55 57 56 56 57 59 58 58 59 61 60
        </DataArray>
        <DataArray type="Int32" Name="offsets" NumberOfComponents="1" format="ascii">
          4 8 12 16 20 24 28 32 36 40 44 48
          52 56 60 64 68 72 76 80 84 88 92 96
          100 104 108 112 116 120
        </DataArray>
        <DataArray type="UInt8" Name="types" NumberOfComponents="1" format="ascii">
          9 9 9 9 9 9 9 9 9 9 9 9
          9 9 9 9 9 9 9 9 9 9 9 9
          9 9 9 9 9 9
        </DataArray>
      </Cells>
    </Piece>
  </UnstructuredGrid>
</VTKFile>
