<?xml version="1.0"?>
<VTKFile type="UnstructuredGrid" version="0.1" byte_order="LittleEndian">
  <UnstructuredGrid>
    <Piece NumberOfCells="30" NumberOfPoints="62">
      <CellData Scalars="Sg">
        <DataArray type="Float32" Name="Sg" NumberOfComponents="1" format="ascii">
          0 0 0 0 0 0 0 0 0 0 0 0
          0 0 0 0 0 0 0 0 0 0 0 0
          0 0 0 0 0 0
        </DataArray>
        <DataArray type="Float32" Name="Sl" NumberOfComponents="1" format="ascii">
          1 1 1 1 1 1 1 1 1 1 1 1
          1 1 1 1 1 1 1 1 1 1 1 1
          1 1 1 1 1 1
        </DataArray>
        <DataArray type="Float32" Name="pg" NumberOfComponents="1" format="ascii">
          24687.8 24360.9 24034 23707 23380.1 23053.1 22726.2 22399.3 22072.3 21745.4 21418.4 21091.5
          20764.6 20437.6 20110.7 19783.7 19456.8 19129.8 18802.9 18476 18149 17822.1 17495.1 17168.2
          16841.3 16514.3 16187.4 15860.4 15533.5 15207.5
        </DataArray>
        <DataArray type="Float32" Name="pl" NumberOfComponents="1" format="ascii">
          110628 110301 109974 109647 109320 108993 108666 108339 108012 107685 107358 107031
          106704 106377 106050 105723 105396 105070 104743 104416 104089 103762 103435 103108
          102781 102454 102127 101800 101473 101147
        </DataArray>
        <DataArray type="Float32" Name="pc" NumberOfComponents="1" format="ascii">
          -85939.7 -85939.7 -85939.7 -85939.7 -85939.7 -85939.7 -85939.7 -85939.7 -85939.7 -85939.7 -85939.7 -85939.7
          -85939.7 -85939.7 -85939.7 -85939.7 -85939.7 -85939.7 -85939.7 -85939.7 -85939.7 -85939.7 -85939.7 -85939.7
          -85939.7 -85939.7 -85939.7 -85939.7 -85939.7 -85939.7
        </DataArray>
        <DataArray type="Float32" Name="rhoL" NumberOfComponents="1" format="ascii">
          999.855 999.855 999.855 999.855 999.855 999.854 999.854 999.854 999.854 999.854 999.854 999.854
          999.853 999.853 999.853 999.853 999.853 999.853 999.852 999.852 999.852 999.852 999.852 999.852
          999.852 999.851 999.851 999.851 999.851 999.851
        </DataArray>
        <DataArray type="Float32" Name="rhoG" NumberOfComponents="1" format="ascii">
          0.30585 0.3018 0.29775 0.293699 0.289649 0.285598 0.281548 0.277498 0.273447 0.269397 0.265347 0.261296
          0.257246 0.253195 0.249145 0.245095 0.241044 0.236994 0.232944 0.228893 0.224843 0.220793 0.216742 0.212692
          0.208641 0.204591 0.200541 0.19649 0.19244 0.188402
        </DataArray>
        <DataArray type="Float32" Name="mobL" NumberOfComponents="1" format="ascii">
          722.171 722.17 722.17 722.17 722.17 722.17 722.169 722.169 722.169 722.169 722.169 722.169
          722.168 722.168 722.168 722.168 722.168 722.167 722.167 722.167 722.167 722.167 722.166 722.166
          722.166 722.166 722.166 722.166 722.165 722.165
        </DataArray>
        <DataArray type="Float32" Name="mobG" NumberOfComponents="1" format="ascii">
          0 0 0 0 0 0 0 0 0 0 0 0
          0 0 0 0 0 0 0 0 0 0 0 0
          0 0 0 0 0 0
        </DataArray>
        <DataArray type="Float32" Name="porosity" NumberOfComponents="1" format="ascii">
          0.298648 0.298648 0.298648 0.298648 0.298647 0.298647 0.298646 0.298645 0.298644 0.298642 0.298639 0.298635
          0.29863 0.298623 0.298614 0.298602 0.298585 0.298562 0.29853 0.298488 0.29843 0.298348 0.298232 0.298061
          0.297523 0.29707 0.29619 0.294009 0.284776 0.0647559
        </DataArray>
        <DataArray type="Float32" Name="temperature" NumberOfComponents="1" format="ascii">
          281.15 281.15 281.15 281.15 281.15 281.15 281.15 281.15 281.15 281.15 281.15 281.15
          281.15 281.15 281.15 281.15 281.15 281.15 281.15 281.15 281.15 281.15 281.15 281.15
          281.15 281.15 281.15 281.15 281.15 281.15
        </DataArray>
        <DataArray type="Float32" Name="phase presence" NumberOfComponents="1" format="ascii">
          1 1 1 1 1 1 1 1 1 1 1 1
          1 1 1 1 1 1 1 1 1 1 1 1
          1 1 1 1 1 1
        </DataArray>
        <DataArray type="Float32" Name="precipitateVolumeFraction_au" NumberOfComponents="1" format="ascii">
          5.5378e-10 5.52808e-10 5.52744e-10 5.5276e-10 5.52758e-10 5.52712e-10 5.5273e-10 5.5269e-10 5.52787e-10 5.5275e-10 5.52743e-10 5.52775e-10
          5.52764e-10 5.52754e-10 5.52772e-10 5.52773e-10 5.52759e-10 5.52759e-10 5.52762e-10 5.52798e-10 5.52756e-10 5.52775e-10 5.52872e-10 8.64734e-10
          0.00026994 0.000269924 0.000269899 0.000269853 5.52256e-10 5.51253e-10
        </DataArray>
        <DataArray type="Float32" Name="precipitateVolumeFraction_nanoAu" NumberOfComponents="1" format="ascii">
          1.26628e-13 1.25341e-13 1.25274e-13 1.25286e-13 1.25283e-13 1.25252e-13 1.25264e-13 1.25243e-13 1.25289e-13 1.25271e-13 1.25267e-13 1.25277e-13
          1.25271e-13 1.25266e-13 1.25269e-13 1.25267e-13 1.25261e-13 1.25258e-13 1.25254e-13 1.25258e-13 1.25241e-13 1.25252e-13 1.37172e-13 2.58067e-11
          6.04054e-08 7.67307e-08 1.0219e-07 1.45585e-07 4.75443e-13 4.67922e-13
        </DataArray>
        <DataArray type="Float32" Name="precipitateVolumeFraction_d" NumberOfComponents="1" format="ascii">
          0.000675871 0.000675936 0.000676029 0.00067616 0.000676344 0.000676601 0.000676962 0.000677466 0.000678166 0.000679137 0.000680475 0.000682314
          0.000684829 0.000688257 0.00069291 0.000699211 0.000707726 0.000719232 0.000734811 0.000756014 0.000785142 0.000825768 0.000883773 0.000969562
          0.00110338 0.00133022 0.0017698 0.00286054 0.00761214 0.117622
        </DataArray>
        <DataArray type="Float32" Name="precipitateVolumeFraction_p" NumberOfComponents="1" format="ascii">
          0.000675871 0.000675936 0.000676029 0.00067616 0.000676344 0.000676601 0.000676962 0.000677466 0.000678166 0.000679137 0.000680475 0.000682314
          0.000684829 0.000688257 0.00069291 0.000699211 0.000707726 0.000719232 0.000734811 0.000756014 0.000785142 0.000825768 0.000883773 0.000969562
          0.00110338 0.00133022 0.0017698 0.00286054 0.00761214 0.117622
        </DataArray>
        <DataArray type="Float32" Name="K" NumberOfComponents="1" format="ascii">
          9.82744e-11 9.82743e-11 9.8274e-11 9.82737e-11 9.82732e-11 9.82726e-11 9.82717e-11 9.82704e-11 9.82686e-11 9.82661e-11 9.82628e-11 9.82581e-11
          9.82517e-11 9.8243e-11 9.82312e-11 9.82153e-11 9.81937e-11 9.81646e-11 9.81251e-11 9.80714e-11 9.79978e-11 9.78951e-11 9.77486e-11 9.75323e-11
          9.6857e-11 9.62902e-11 9.51995e-11 9.2537e-11 8.19326e-11 5.63403e-13
        </DataArray>
        <DataArray type="Float32" Name="X^w_H2O" NumberOfComponents="1" format="ascii">
          0.999853 0.999853 0.999853 0.999853 0.999853 0.999853 0.999853 0.999853 0.999853 0.999853 0.999853 0.999853
          0.999853 0.999853 0.999853 0.999853 0.999853 0.999853 0.999853 0.999853 0.999853 0.999853 0.999853 0.999853
          0.999853 0.999852 0.99985 0.999846 0.999839 0.99984
        </DataArray>
        <DataArray type="Float32" Name="X^w_Air" NumberOfComponents="1" format="ascii">
          0 0 0 0 0 0 0 0 0 0 0 0
          0 0 0 0 0 0 0 0 0 0 0 0
          0 0 0 0 0 0
        </DataArray>
        <DataArray type="Float32" Name="X^w_AuComplex" NumberOfComponents="1" format="ascii">
          1.44093e-16 1.42814e-16 1.42746e-16 1.42757e-16 1.42753e-16 1.4272e-16 1.42732e-16 1.42709e-16 1.42756e-16 1.42736e-16 1.4273e-16 1.4274e-16
          1.42733e-16 1.42726e-16 1.42728e-16 1.42724e-16 1.42715e-16 1.42709e-16 1.42702e-16 1.42701e-16 1.42675e-16 1.42677e-16 1.56074e-16 2.94277e-14
          6.89139e-11 1.07478e-10 1.84538e-10 3.64083e-10 1.83951e-15 1.78865e-15
        </DataArray>
        <DataArray type="Float32" Name="X^w_nanoAu" NumberOfComponents="1" format="ascii">
          5.51454e-19 5.45905e-19 5.45616e-19 5.45668e-19 5.45652e-19 5.45518e-19 5.4557e-19 5.45482e-19 5.45681e-19 5.456e-19 5.45583e-19 5.45626e-19
          5.45601e-19 5.45578e-19 5.45592e-19 5.45582e-19 5.45551e-19 5.45535e-19 5.45519e-19 5.4557e-19 5.49185e-19 8.91494e-19 3.25765e-17 2.96099e-15
          2.63815e-13 3.35301e-13 4.46795e-13 6.26541e-13 2.06395e-18 1.98544e-18
        </DataArray>
        <DataArray type="Float32" Name="X^w_cyanide" NumberOfComponents="1" format="ascii">
          5.07417e-06 5.07414e-06 5.0741e-06 5.07406e-06 5.07403e-06 5.07399e-06 5.07395e-06 5.07392e-06 5.07388e-06 5.07384e-06 5.0738e-06 5.07375e-06
          5.07371e-06 5.07365e-06 5.07359e-06 5.07352e-06 5.07343e-06 5.07332e-06 5.07317e-06 5.07298e-06 5.07271e-06 5.07233e-06 5.07177e-06 5.07091e-06
          5.07001e-06 6.43992e-06 8.57548e-06 1.22393e-05 1.94553e-05 1.92157e-05
        </DataArray>
        <DataArray type="Float32" Name="X^w_citrate" NumberOfComponents="1" format="ascii">
          0.000141796 0.000141796 0.000141796 0.000141796 0.000141796 0.000141796 0.000141796 0.000141796 0.000141796 0.000141796 0.000141796 0.000141796
          0.000141796 0.000141796 0.000141795 0.000141795 0.000141795 0.000141794 0.000141793 0.000141792 0.00014179 0.000141788 0.000141784 0.000141778
          0.000141768 0.000141751 0.000141719 0.000141642 0.000141391 0.000139649
        </DataArray>
        <DataArray type="Float32" Name="X^w_substrate" NumberOfComponents="1" format="ascii">
          5.87802e-12 8.11244e-12 1.11957e-11 1.545e-11 2.13204e-11 2.94213e-11 4.0601e-11 5.60326e-11 7.7339e-11 1.06769e-10 1.47444e-10 2.03708e-10
          2.8163e-10 3.89724e-10 5.40008e-10 7.4959e-10 1.04307e-09 1.4563e-09 2.04246e-09 2.8821e-09 4.10075e-09 5.90104e-09 8.62508e-09 1.28854e-08
          1.98666e-08 3.21144e-08 5.59818e-08 1.11334e-07 2.89225e-07 1.51745e-06
        </DataArray>
        <DataArray type="Float32" Name="m^w_H2O" NumberOfComponents="1" format="ascii">
          55492.6 55492.6 55492.5 55492.5 55492.5 55492.5 55492.5 55492.5 55492.5 55492.5 55492.5 55492.5
          55492.5 55492.4 55492.4 55492.4 55492.4 55492.4 55492.4 55492.4 55492.4 55492.4 55492.4 55492.4
          55492.3 55492.3 55492.1 55491.9 55491.5 55491.6
        </DataArray>
        <DataArray type="Float32" Name="m^w_Air" NumberOfComponents="1" format="ascii">
          0 0 0 0 0 0 0 0 0 0 0 0
          0 0 0 0 0 0 0 0 0 0 0 0
          0 0 0 0 0 0
        </DataArray>
        <DataArray type="Float32" Name="m^w_AuComplex" NumberOfComponents="1" format="ascii">
          7.3144e-13 7.24951e-13 7.24604e-13 7.24662e-13 7.24639e-13 7.24472e-13 7.24531e-13 7.24414e-13 7.24655e-13 7.2455e-13 7.24523e-13 7.24574e-13
          7.24537e-13 7.24501e-13 7.24513e-13 7.24493e-13 7.24444e-13 7.24413e-13 7.24377e-13 7.24376e-13 7.24242e-13 7.24251e-13 7.92257e-13 1.4938e-10
          3.49818e-07 5.45577e-07 9.36742e-07 1.84814e-06 9.33766e-12 9.07945e-12
        </DataArray>
        <DataArray type="Float32" Name="m^w_nanoAu" NumberOfComponents="1" format="ascii">
          2.79928e-15 2.77111e-15 2.76964e-15 2.76991e-15 2.76983e-15 2.76915e-15 2.76941e-15 2.76896e-15 2.76997e-15 2.76956e-15 2.76947e-15 2.76969e-15
          2.76957e-15 2.76944e-15 2.76952e-15 2.76946e-15 2.76931e-15 2.76923e-15 2.76914e-15 2.7694e-15 2.78775e-15 4.52537e-15 1.65363e-13 1.50305e-11
          1.33917e-09 1.70204e-09 2.268e-09 3.18042e-09 1.04769e-14 1.00784e-14
        </DataArray>
        <DataArray type="Float32" Name="m^w_cyanide" NumberOfComponents="1" format="ascii">
          0.194982 0.194981 0.194979 0.194978 0.194977 0.194975 0.194974 0.194972 0.194971 0.194969 0.194968 0.194966
          0.194964 0.194962 0.194959 0.194957 0.194953 0.194949 0.194943 0.194936 0.194926 0.194911 0.194889 0.194856
          0.194822 0.247462 0.329523 0.47031 0.747596 0.738387
        </DataArray>
        <DataArray type="Float32" Name="m^w_citrate" NumberOfComponents="1" format="ascii">
          0.749742 0.749742 0.749742 0.749742 0.749742 0.749742 0.749741 0.749741 0.749741 0.74974 0.74974 0.74974
          0.749739 0.749738 0.749737 0.749735 0.749733 0.749729 0.749725 0.749718 0.749709 0.749696 0.749675 0.749643
          0.749591 0.749504 0.749331 0.748923 0.747598 0.738389
        </DataArray>
        <DataArray type="Float32" Name="m^w_substrate" NumberOfComponents="1" format="ascii">
          3.26219e-08 4.50226e-08 6.21338e-08 8.57447e-08 1.18325e-07 1.63283e-07 2.25328e-07 3.1097e-07 4.29217e-07 5.92547e-07 8.18286e-07 1.13054e-06
          1.56299e-06 2.16289e-06 2.99694e-06 4.16008e-06 5.78883e-06 8.0822e-06 1.13352e-05 1.59951e-05 2.27584e-05 3.27496e-05 4.78674e-05 7.15111e-05
          0.000110256 0.000178228 0.000310687 0.00061788 0.00160514 0.00842152
        </DataArray>
        <DataArray type="Float32" Name="process rank" NumberOfComponents="1" format="ascii">
          0 0 0 0 0 0 0 0 0 0 0 0
          0 0 0 0 0 0 0 0 0 0 0 0
          0 0 0 0 0 0
        </DataArray>
      </CellData>
      <Points>
        <DataArray type="Float32" Name="Coordinates" NumberOfComponents="3" format="ascii">
          0 0 0 0.5 0 0 0 0.0333333 0 0.5 0.0333333 0
          0 0.0666667 0 0.5 0.0666667 0 0 0.1 0 0.5 0.1 0
          0 0.133333 0 0.5 0.133333 0 0 0.166667 0 0.5 0.166667 0
          0 0.2 0 0.5 0.2 0 0 0.233333 0 0.5 0.233333 0
          0 0.266667 0 0.5 0.266667 0 0 0.3 0 0.5 0.3 0
          0 0.333333 0 0.5 0.333333 0 0 0.366667 0 0.5 0.366667 0
          0 0.4 0 0.5 0.4 0 0 0.433333 0 0.5 0.433333 0
          0 0.466667 0 0.5 0.466667 0 0 0.5 0 0.5 0.5 0
          0 0.533333 0 0.5 0.533333 0 0 0.566667 0 0.5 0.566667 0
          0 0.6 0 0.5 0.6 0 0 0.633333 0 0.5 0.633333 0
          0 0.666667 0 0.5 0.666667 0 0 0.7 0 0.5 0.7 0
          0 0.733333 0 0.5 0.733333 0 0 0.766667 0 0.5 0.766667 0
          0 0.8 0 0.5 0.8 0 0 0.833333 0 0.5 0.833333 0
          0 0.866667 0 0.5 0.866667 0 0 0.9 0 0.5 0.9 0
          0 0.933333 0 0.5 0.933333 0 0 0.966667 0 0.5 0.966667 0
          0 1 0 0.5 1 0
        </DataArray>
      </Points>
      <Cells>
        <DataArray type="Int32" Name="connectivity" NumberOfComponents="1" format="ascii">
          0 1 3 2 2 3 5 4 4 5 7 6
          6 7 9 8 8 9 11 10 10 11 13 12
          12 13 15 14 14 15 17 16 16 17 19 18
          18 19 21 20 20 21 23 22 22 23 25 24
          24 25 27 26 26 27 29 28 28 29 31 30
          30 31 33 32 32 33 35 34 34 35 37 36
          36 37 39 38 38 39 41 40 40 41 43 42
          42 43 45 44 44 45 47 46 46 47 49 48
          48 49 51 50 50 51 53 52 52 53 55 54
          54 55 57 56 56 57 59 58 58 59 61 60
        </DataArray>
        <DataArray type="Int32" Name="offsets" NumberOfComponents="1" format="ascii">
          4 8 12 16 20 24 28 32 36 40 44 48
          52 56 60 64 68 72 76 80 84 88 92 96
          100 104 108 112 116 120
        </DataArray>
        <DataArray type="UInt8" Name="types" NumberOfComponents="1" format="ascii">
          9 9 9 9 9 9 9 9 9 9 9 9
          9 9 9 9 9 9 9 9 9 9 9 9
          9 9 9 9 9 9
        </DataArray>
      </Cells>
    </Piece>
  </UnstructuredGrid>
</VTKFile>
