<?xml version="1.0"?>
<VTKFile type="UnstructuredGrid" version="0.1" byte_order="LittleEndian">
  <UnstructuredGrid>
    <Piece NumberOfCells="30" NumberOfPoints="62">
      <CellData Scalars="Sg">
        <DataArray type="Float32" Name="Sg" NumberOfComponents="1" format="ascii">
          0 0 0 0 0 0 0 0 0 0 0 0
          0 0 0 0 0 0 0 0 0 0 0 0
          0 0 0 0 0 0
        </DataArray>
        <DataArray type="Float32" Name="Sl" NumberOfComponents="1" format="ascii">
          1 1 1 1 1 1 1 1 1 1 1 1
          1 1 1 1 1 1 1 1 1 1 1 1
          1 1 1 1 1 1
        </DataArray>
        <DataArray type="Float32" Name="pg" NumberOfComponents="1" format="ascii">
          24687.8 24360.9 24034 23707 23380.1 23053.1 22726.2 22399.3 22072.3 21745.4 21418.4 21091.5
          20764.6 20437.6 20110.7 19783.7 19456.8 19129.9 18802.9 18476 18149 17822.1 17495.1 17168.2
          16841.3 16514.3 16187.4 15860.4 15533.5 15209.4
        </DataArray>
        <DataArray type="Float32" Name="pl" NumberOfComponents="1" format="ascii">
          110628 110301 109974 109647 109320 108993 108666 108339 108012 107685 107358 107031
          106704 106377 106050 105723 105396 105070 104743 104416 104089 103762 103435 103108
          102781 102454 102127 101800 101473 101149
        </DataArray>
        <DataArray type="Float32" Name="pc" NumberOfComponents="1" format="ascii">
          -85939.7 -85939.7 -85939.7 -85939.7 -85939.7 -85939.7 -85939.7 -85939.7 -85939.7 -85939.7 -85939.7 -85939.7
          -85939.7 -85939.7 -85939.7 -85939.7 -85939.7 -85939.7 -85939.7 -85939.7 -85939.7 -85939.7 -85939.7 -85939.7
          -85939.7 -85939.7 -85939.7 -85939.7 -85939.7 -85939.7
        </DataArray>
        <DataArray type="Float32" Name="rhoL" NumberOfComponents="1" format="ascii">
          999.855 999.855 999.855 999.855 999.855 999.854 999.854 999.854 999.854 999.854 999.854 999.854
          999.853 999.853 999.853 999.853 999.853 999.853 999.852 999.852 999.852 999.852 999.852 999.852
          999.852 999.851 999.851 999.851 999.851 999.851
        </DataArray>
        <DataArray type="Float32" Name="rhoG" NumberOfComponents="1" format="ascii">
          0.30585 0.3018 0.29775 0.293699 0.289649 0.285598 0.281548 0.277498 0.273447 0.269397 0.265347 0.261296
          0.257246 0.253195 0.249145 0.245095 0.241044 0.236994 0.232944 0.228893 0.224843 0.220793 0.216742 0.212692
          0.208641 0.204591 0.200541 0.19649 0.19244 0.188425
        </DataArray>
        <DataArray type="Float32" Name="mobL" NumberOfComponents="1" format="ascii">
          722.171 722.17 722.17 722.17 722.17 722.17 722.169 722.169 722.169 722.169 722.169 722.169
          722.168 722.168 722.168 722.168 722.168 722.167 722.167 722.167 722.167 722.167 722.166 722.166
          722.166 722.166 722.166 722.166 722.165 722.165
        </DataArray>
        <DataArray type="Float32" Name="mobG" NumberOfComponents="1" format="ascii">
          0 0 0 0 0 0 0 0 0 0 0 0
          0 0 0 0 0 0 0 0 0 0 0 0
          0 0 0 0 0 0
        </DataArray>
        <DataArray type="Float32" Name="porosity" NumberOfComponents="1" format="ascii">
          0.298791 0.298791 0.298791 0.298791 0.298791 0.29879 0.298789 0.298789 0.298787 0.298785 0.298783 0.29878
          0.298775 0.298769 0.29876 0.298748 0.298733 0.298711 0.298683 0.298644 0.29859 0.298514 0.298406 0.298245
          0.297722 0.297285 0.296417 0.294152 0.283371 0.0458588
        </DataArray>
        <DataArray type="Float32" Name="temperature" NumberOfComponents="1" format="ascii">
          281.15 281.15 281.15 281.15 281.15 281.15 281.15 281.15 281.15 281.15 281.15 281.15
          281.15 281.15 281.15 281.15 281.15 281.15 281.15 281.15 281.15 281.15 281.15 281.15
          281.15 281.15 281.15 281.15 281.15 281.15
        </DataArray>
        <DataArray type="Float32" Name="phase presence" NumberOfComponents="1" format="ascii">
          1 1 1 1 1 1 1 1 1 1 1 1
          1 1 1 1 1 1 1 1 1 1 1 1
          1 1 1 1 1 1
        </DataArray>
        <DataArray type="Float32" Name="precipitateVolumeFraction_au" NumberOfComponents="1" format="ascii">
          5.52768e-10 5.52738e-10 5.52787e-10 5.52732e-10 5.52729e-10 5.52778e-10 5.52757e-10 5.52821e-10 5.52743e-10 5.5277e-10 5.52733e-10 5.52753e-10
          5.52791e-10 5.5275e-10 5.52744e-10 5.52694e-10 5.52715e-10 5.52753e-10 5.52773e-10 5.52713e-10 5.52766e-10 5.52702e-10 5.537e-10 1.19438e-09
          0.00026994 0.000269924 0.0002699 0.000269852 5.52487e-10 5.50874e-10
        </DataArray>
        <DataArray type="Float32" Name="precipitateVolumeFraction_nanoAu" NumberOfComponents="1" format="ascii">
          1.23795e-13 1.23789e-13 1.238e-13 1.23787e-13 1.23786e-13 1.23797e-13 1.23793e-13 1.23807e-13 1.23789e-13 1.23795e-13 1.23786e-13 1.2379e-13
          1.23798e-13 1.23788e-13 1.23786e-13 1.23774e-13 1.23777e-13 1.23783e-13 1.23785e-13 1.23767e-13 1.23777e-13 1.24124e-13 1.68659e-13 2.87752e-11
          6.04311e-08 7.67189e-08 1.02096e-07 1.45285e-07 4.72442e-13 4.64944e-13
        </DataArray>
        <DataArray type="Float32" Name="precipitateVolumeFraction_d" NumberOfComponents="1" format="ascii">
          0.000604248 0.000604311 0.000604399 0.000604522 0.000604695 0.000604938 0.000605276 0.000605747 0.0006064 0.000607302 0.000608544 0.000610246
          0.000612571 0.000615734 0.000620024 0.000625827 0.000633666 0.000644261 0.000658616 0.000678179 0.000705113 0.000742801 0.000796864 0.000877363
          0.00100418 0.0012225 0.00165669 0.00278893 0.00831453 0.127071
        </DataArray>
        <DataArray type="Float32" Name="precipitateVolumeFraction_p" NumberOfComponents="1" format="ascii">
          0.000604248 0.000604311 0.000604399 0.000604522 0.000604695 0.000604938 0.000605276 0.000605747 0.0006064 0.000607302 0.000608544 0.000610246
          0.000612571 0.000615734 0.000620024 0.000625827 0.000633666 0.000644261 0.000658616 0.000678179 0.000705113 0.000742801 0.000796864 0.000877363
          0.00100418 0.0012225 0.00165669 0.00278893 0.00831453 0.127071
        </DataArray>
        <DataArray type="Float32" Name="K" NumberOfComponents="1" format="ascii">
          9.84561e-11 9.8456e-11 9.84557e-11 9.84554e-11 9.8455e-11 9.84544e-11 9.84535e-11 9.84523e-11 9.84507e-11 9.84484e-11 9.84452e-11 9.84409e-11
          9.8435e-11 9.8427e-11 9.84161e-11 9.84013e-11 9.83815e-11 9.83546e-11 9.83182e-11 9.82686e-11 9.82003e-11 9.81049e-11 9.79681e-11 9.77648e-11
          9.71057e-11 9.6559e-11 9.54792e-11 9.27099e-11 8.04099e-11 1.92254e-13
        </DataArray>
        <DataArray type="Float32" Name="X^w_H2O" NumberOfComponents="1" format="ascii">
          0.995758 0.995758 0.995758 0.995758 0.995758 0.995758 0.995758 0.995758 0.995758 0.995758 0.995758 0.995758
          0.995758 0.995758 0.995758 0.995758 0.995759 0.995759 0.995759 0.995759 0.995759 0.995759 0.995759 0.995759
          0.995759 0.995758 0.995757 0.995755 0.995754 0.995802
        </DataArray>
        <DataArray type="Float32" Name="X^w_Air" NumberOfComponents="1" format="ascii">
          0 0 0 0 0 0 0 0 0 0 0 0
          0 0 0 0 0 0 0 0 0 0 0 0
          0 0 0 0 0 0
        </DataArray>
        <DataArray type="Float32" Name="X^w_AuComplex" NumberOfComponents="1" format="ascii">
          1.41379e-16 1.41371e-16 1.41384e-16 1.41369e-16 1.41369e-16 1.41381e-16 1.41375e-16 1.41391e-16 1.41371e-16 1.41378e-16 1.41367e-16 1.41372e-16
          1.4138e-16 1.41369e-16 1.41365e-16 1.4135e-16 1.41352e-16 1.41357e-16 1.41356e-16 1.41332e-16 1.41337e-16 1.41661e-16 1.86691e-16 3.23306e-14
          6.89775e-11 1.07459e-10 1.84228e-10 3.62664e-10 1.82171e-15 1.77244e-15
        </DataArray>
        <DataArray type="Float32" Name="X^w_nanoAu" NumberOfComponents="1" format="ascii">
          1.61089e-17 1.61081e-17 1.61094e-17 1.61078e-17 1.61078e-17 1.61091e-17 1.61085e-17 1.61103e-17 1.61081e-17 1.61088e-17 1.61077e-17 1.61082e-17
          1.61092e-17 1.61079e-17 1.61076e-17 1.6106e-17 1.61063e-17 1.6107e-17 1.61071e-17 1.6106e-17 1.62205e-17 2.66873e-17 9.88259e-16 8.91737e-14
          7.88544e-12 1.00165e-11 1.33373e-11 1.86825e-11 6.13003e-17 5.90068e-17
        </DataArray>
        <DataArray type="Float32" Name="X^w_cyanide" NumberOfComponents="1" format="ascii">
          5.07608e-06 5.07608e-06 5.07608e-06 5.07608e-06 5.07608e-06 5.07608e-06 5.07607e-06 5.07607e-06 5.07606e-06 5.07605e-06 5.07604e-06 5.07603e-06
          5.07601e-06 5.07598e-06 5.07595e-06 5.0759e-06 5.07583e-06 5.07574e-06 5.07562e-06 5.07545e-06 5.0752e-06 5.07485e-06 5.07434e-06 5.07356e-06
          5.07287e-06 6.43965e-06 8.56819e-06 1.2215e-05 1.93834e-05 1.91589e-05
        </DataArray>
        <DataArray type="Float32" Name="X^w_citrate" NumberOfComponents="1" format="ascii">
          0.00423646 0.00423646 0.00423646 0.00423646 0.00423646 0.00423646 0.00423646 0.00423646 0.00423646 0.00423645 0.00423645 0.00423645
          0.00423644 0.00423644 0.00423643 0.00423642 0.00423641 0.00423639 0.00423636 0.00423632 0.00423627 0.00423619 0.00423608 0.00423591
          0.00423564 0.00423521 0.00423437 0.00423242 0.00422604 0.00417711
        </DataArray>
        <DataArray type="Float32" Name="X^w_substrate" NumberOfComponents="1" format="ascii">
          1.18902e-11 1.59323e-11 2.13474e-11 2.86016e-11 3.83198e-11 5.13393e-11 6.87836e-11 9.21605e-11 1.23496e-10 1.65518e-10 2.21903e-10 2.97624e-10
          3.99434e-10 5.36544e-10 7.21603e-10 9.72137e-10 1.31269e-09 1.77813e-09 2.41891e-09 3.30968e-09 4.56419e-09 6.36222e-09 9.00147e-09 1.30058e-08
          1.93733e-08 3.02253e-08 5.08292e-08 9.77666e-08 2.49669e-07 1.40458e-06
        </DataArray>
        <DataArray type="Float32" Name="m^w_H2O" NumberOfComponents="1" format="ascii">
          55265.3 55265.3 55265.3 55265.3 55265.3 55265.3 55265.2 55265.2 55265.2 55265.2 55265.2 55265.2
          55265.2 55265.2 55265.2 55265.2 55265.2 55265.2 55265.1 55265.1 55265.1 55265.1 55265.1 55265.1
          55265.1 55265.1 55265 55264.9 55264.8 55267.5
        </DataArray>
        <DataArray type="Float32" Name="m^w_Air" NumberOfComponents="1" format="ascii">
          0 0 0 0 0 0 0 0 0 0 0 0
          0 0 0 0 0 0 0 0 0 0 0 0
          0 0 0 0 0 0
        </DataArray>
        <DataArray type="Float32" Name="m^w_AuComplex" NumberOfComponents="1" format="ascii">
          7.17664e-13 7.17625e-13 7.17688e-13 7.17616e-13 7.17612e-13 7.17674e-13 7.17646e-13 7.17727e-13 7.17624e-13 7.17657e-13 7.17606e-13 7.17628e-13
          7.17671e-13 7.17611e-13 7.17595e-13 7.17517e-13 7.17527e-13 7.17552e-13 7.17545e-13 7.17423e-13 7.17448e-13 7.19096e-13 9.47672e-13 1.64116e-10
          3.50141e-07 5.45481e-07 9.35171e-07 1.84094e-06 9.24726e-12 8.99718e-12
        </DataArray>
        <DataArray type="Float32" Name="m^w_nanoAu" NumberOfComponents="1" format="ascii">
          8.17716e-14 8.17674e-14 8.17744e-14 8.17663e-14 8.17658e-14 8.17729e-14 8.17698e-14 8.17789e-14 8.17673e-14 8.17711e-14 8.17654e-14 8.17681e-14
          8.17731e-14 8.17665e-14 8.17649e-14 8.17566e-14 8.17584e-14 8.1762e-14 8.17623e-14 8.17566e-14 8.23378e-14 1.35469e-13 5.01656e-12 4.5266e-10
          4.00278e-08 5.08454e-08 6.77024e-08 9.48353e-08 3.1117e-13 2.99528e-13
        </DataArray>
        <DataArray type="Float32" Name="m^w_cyanide" NumberOfComponents="1" format="ascii">
          0.195056 0.195056 0.195055 0.195055 0.195055 0.195055 0.195055 0.195055 0.195055 0.195054 0.195054 0.195053
          0.195052 0.195051 0.19505 0.195048 0.195046 0.195042 0.195037 0.195031 0.195021 0.195008 0.194988 0.194958
          0.194931 0.247452 0.329243 0.469377 0.744829 0.736206
        </DataArray>
        <DataArray type="Float32" Name="m^w_citrate" NumberOfComponents="1" format="ascii">
          22.4002 22.4002 22.4002 22.4001 22.4001 22.4001 22.4001 22.4001 22.4001 22.4001 22.4001 22.4001
          22.4 22.4 22.4 22.3999 22.3998 22.3997 22.3996 22.3994 22.3991 22.3987 22.3981 22.3972
          22.3957 22.3935 22.389 22.3787 22.345 22.0862
        </DataArray>
        <DataArray type="Float32" Name="m^w_substrate" NumberOfComponents="1" format="ascii">
          6.59882e-08 8.84213e-08 1.18474e-07 1.58734e-07 2.12668e-07 2.84924e-07 3.81736e-07 5.11474e-07 6.85381e-07 9.18593e-07 1.23152e-06 1.65176e-06
          2.21678e-06 2.97771e-06 4.00476e-06 5.39517e-06 7.28517e-06 9.86829e-06 1.34245e-05 1.83681e-05 2.53303e-05 3.5309e-05 4.99564e-05 7.21794e-05
          0.000107518 0.000167744 0.000282092 0.000542584 0.00138561 0.00779511
        </DataArray>
        <DataArray type="Float32" Name="process rank" NumberOfComponents="1" format="ascii">
          0 0 0 0 0 0 0 0 0 0 0 0
          0 0 0 0 0 0 0 0 0 0 0 0
          0 0 0 0 0 0
        </DataArray>
      </CellData>
      <Points>
        <DataArray type="Float32" Name="Coordinates" NumberOfComponents="3" format="ascii">
          0 0 0 0.5 0 0 0 0.0333333 0 0.5 0.0333333 0
          0 0.0666667 0 0.5 0.0666667 0 0 0.1 0 0.5 0.1 0
          0 0.133333 0 0.5 0.133333 0 0 0.166667 0 0.5 0.166667 0
          0 0.2 0 0.5 0.2 0 0 0.233333 0 0.5 0.233333 0
          0 0.266667 0 0.5 0.266667 0 0 0.3 0 0.5 0.3 0
          0 0.333333 0 0.5 0.333333 0 0 0.366667 0 0.5 0.366667 0
          0 0.4 0 0.5 0.4 0 0 0.433333 0 0.5 0.433333 0
          0 0.466667 0 0.5 0.466667 0 0 0.5 0 0.5 0.5 0
          0 0.533333 0 0.5 0.533333 0 0 0.566667 0 0.5 0.566667 0
          0 0.6 0 0.5 0.6 0 0 0.633333 0 0.5 0.633333 0
          0 0.666667 0 0.5 0.666667 0 0 0.7 0 0.5 0.7 0
          0 0.733333 0 0.5 0.733333 0 0 0.766667 0 0.5 0.766667 0
          0 0.8 0 0.5 0.8 0 0 0.833333 0 0.5 0.833333 0
          0 0.866667 0 0.5 0.866667 0 0 0.9 0 0.5 0.9 0
          0 0.933333 0 0.5 0.933333 0 0 0.966667 0 0.5 0.966667 0
          0 1 0 0.5 1 0
        </DataArray>
      </Points>
      <Cells>
        <DataArray type="Int32" Name="connectivity" NumberOfComponents="1" format="ascii">
          0 1 3 2 2 3 5 4 4 5 7 6
          6 7 9 8 8 9 11 10 10 11 13 12
          12 13 15 14 14 15 17 16 16 17 19 18
          18 19 21 20 20 21 23 22 22 23 25 24
          24 25 27 26 26 27 29 28 28 29 31 30
          30 31 33 32 32 33 35 34 34 35 37 36
          36 37 39 38 38 39 41 40 40 41 43 42
          42 43 45 44 44 45 47 46 46 47 49 48
          48 49 51 50 50 51 53 52 52 53 55 54
          54 55 57 56 56 57 59 58 58 59 61 60
        </DataArray>
        <DataArray type="Int32" Name="offsets" NumberOfComponents="1" format="ascii">
          4 8 12 16 20 24 28 32 36 40 44 48
          52 56 60 64 68 72 76 80 84 88 92 96
          100 104 108 112 116 120
        </DataArray>
        <DataArray type="UInt8" Name="types" NumberOfComponents="1" format="ascii">
          9 9 9 9 9 9 9 9 9 9 9 9
          9 9 9 9 9 9 9 9 9 9 9 9
          9 9 9 9 9 9
        </DataArray>
      </Cells>
    </Piece>
  </UnstructuredGrid>
</VTKFile>
