<?xml version="1.0"?>
<VTKFile type="UnstructuredGrid" version="0.1" byte_order="LittleEndian">
  <UnstructuredGrid>
    <Piece NumberOfCells="30" NumberOfPoints="62">
      <CellData Scalars="Sg">
        <DataArray type="Float32" Name="Sg" NumberOfComponents="1" format="ascii">
          0 0 0 0 0 0 0 0 0 0 0 0
          0 0 0 0 0 0 0 0 0 0 0 0
          0 0 0 0 0 0
        </DataArray>
        <DataArray type="Float32" Name="Sl" NumberOfComponents="1" format="ascii">
          1 1 1 1 1 1 1 1 1 1 1 1
          1 1 1 1 1 1 1 1 1 1 1 1
          1 1 1 1 1 1
        </DataArray>
        <DataArray type="Float32" Name="pg" NumberOfComponents="1" format="ascii">
          24687.8 24360.9 24034 23707 23380.1 23053.1 22726.2 22399.3 22072.3 21745.4 21418.4 21091.5
          20764.6 20437.6 20110.7 19783.7 19456.8 19129.9 18802.9 18476 18149 17822.1 17495.1 17168.2
          16841.3 16514.3 16187.4 15860.4 15533.5 15209.5
        </DataArray>
        <DataArray type="Float32" Name="pl" NumberOfComponents="1" format="ascii">
          110628 110301 109974 109647 109320 108993 108666 108339 108012 107685 107358 107031
          106704 106377 106050 105723 105396 105070 104743 104416 104089 103762 103435 103108
          102781 102454 102127 101800 101473 101149
        </DataArray>
        <DataArray type="Float32" Name="pc" NumberOfComponents="1" format="ascii">
          -85939.7 -85939.7 -85939.7 -85939.7 -85939.7 -85939.7 -85939.7 -85939.7 -85939.7 -85939.7 -85939.7 -85939.7
          -85939.7 -85939.7 -85939.7 -85939.7 -85939.7 -85939.7 -85939.7 -85939.7 -85939.7 -85939.7 -85939.7 -85939.7
          -85939.7 -85939.7 -85939.7 -85939.7 -85939.7 -85939.7
        </DataArray>
        <DataArray type="Float32" Name="rhoL" NumberOfComponents="1" format="ascii">
          999.855 999.855 999.855 999.855 999.855 999.854 999.854 999.854 999.854 999.854 999.854 999.854
          999.853 999.853 999.853 999.853 999.853 999.853 999.852 999.852 999.852 999.852 999.852 999.852
          999.852 999.851 999.851 999.851 999.851 999.851
        </DataArray>
        <DataArray type="Float32" Name="rhoG" NumberOfComponents="1" format="ascii">
          0.30585 0.3018 0.29775 0.293699 0.289649 0.285598 0.281548 0.277498 0.273447 0.269397 0.265347 0.261296
          0.257246 0.253195 0.249145 0.245095 0.241044 0.236994 0.232944 0.228893 0.224843 0.220793 0.216742 0.212692
          0.208641 0.204591 0.200541 0.19649 0.19244 0.188426
        </DataArray>
        <DataArray type="Float32" Name="mobL" NumberOfComponents="1" format="ascii">
          722.171 722.17 722.17 722.17 722.17 722.17 722.169 722.169 722.169 722.169 722.169 722.169
          722.168 722.168 722.168 722.168 722.168 722.167 722.167 722.167 722.167 722.167 722.166 722.166
          722.166 722.166 722.166 722.166 722.165 722.165
        </DataArray>
        <DataArray type="Float32" Name="mobG" NumberOfComponents="1" format="ascii">
          0 0 0 0 0 0 0 0 0 0 0 0
          0 0 0 0 0 0 0 0 0 0 0 0
          0 0 0 0 0 0
        </DataArray>
        <DataArray type="Float32" Name="porosity" NumberOfComponents="1" format="ascii">
          0.298803 0.298802 0.298802 0.298802 0.298802 0.298801 0.2988 0.2988 0.298798 0.298796 0.298794 0.298791
          0.298786 0.29878 0.298771 0.29876 0.298744 0.298723 0.298695 0.298656 0.298602 0.298527 0.29842 0.29826
          0.297737 0.297302 0.296435 0.294167 0.283277 0.0455799
        </DataArray>
        <DataArray type="Float32" Name="temperature" NumberOfComponents="1" format="ascii">
          281.15 281.15 281.15 281.15 281.15 281.15 281.15 281.15 281.15 281.15 281.15 281.15
          281.15 281.15 281.15 281.15 281.15 281.15 281.15 281.15 281.15 281.15 281.15 281.15
          281.15 281.15 281.15 281.15 281.15 281.15
        </DataArray>
        <DataArray type="Float32" Name="phase presence" NumberOfComponents="1" format="ascii">
          1 1 1 1 1 1 1 1 1 1 1 1
          1 1 1 1 1 1 1 1 1 1 1 1
          1 1 1 1 1 1
        </DataArray>
        <DataArray type="Float32" Name="precipitateVolumeFraction_au" NumberOfComponents="1" format="ascii">
          5.52768e-10 5.52738e-10 5.52787e-10 5.52732e-10 5.52729e-10 5.52778e-10 5.52757e-10 5.52821e-10 5.52743e-10 5.5277e-10 5.52733e-10 5.52753e-10
          5.52791e-10 5.5275e-10 5.52744e-10 5.52694e-10 5.52715e-10 5.52753e-10 5.52773e-10 5.52713e-10 5.52766e-10 5.52702e-10 5.53738e-10 1.21901e-09
          0.00026994 0.000269925 0.0002699 0.000269852 5.52487e-10 5.50873e-10
        </DataArray>
        <DataArray type="Float32" Name="precipitateVolumeFraction_nanoAu" NumberOfComponents="1" format="ascii">
          1.23794e-13 1.23787e-13 1.23798e-13 1.23786e-13 1.23785e-13 1.23796e-13 1.23791e-13 1.23805e-13 1.23787e-13 1.23793e-13 1.23785e-13 1.23789e-13
          1.23797e-13 1.23787e-13 1.23785e-13 1.23772e-13 1.23776e-13 1.23782e-13 1.23783e-13 1.23766e-13 1.23775e-13 1.24122e-13 1.68666e-13 2.87796e-11
          6.04303e-08 7.6718e-08 1.02095e-07 1.45285e-07 4.72449e-13 4.64953e-13
        </DataArray>
        <DataArray type="Float32" Name="precipitateVolumeFraction_d" NumberOfComponents="1" format="ascii">
          0.000598739 0.000598802 0.000598889 0.000599012 0.000599184 0.000599425 0.00059976 0.000600228 0.000600876 0.000601772 0.000603005 0.000604695
          0.000607003 0.000610143 0.000614401 0.000620162 0.000627945 0.000638464 0.000652718 0.000672147 0.000698901 0.000736348 0.000790085 0.00087014
          0.000996355 0.00121388 0.00164731 0.00278161 0.00836128 0.12721
        </DataArray>
        <DataArray type="Float32" Name="precipitateVolumeFraction_p" NumberOfComponents="1" format="ascii">
          0.000598739 0.000598802 0.000598889 0.000599012 0.000599184 0.000599425 0.00059976 0.000600228 0.000600876 0.000601772 0.000603005 0.000604695
          0.000607003 0.000610143 0.000614401 0.000620162 0.000627945 0.000638464 0.000652718 0.000672147 0.000698901 0.000736348 0.000790085 0.00087014
          0.000996355 0.00121388 0.00164731 0.00278161 0.00836128 0.12721
        </DataArray>
        <DataArray type="Float32" Name="K" NumberOfComponents="1" format="ascii">
          9.84701e-11 9.84699e-11 9.84697e-11 9.84694e-11 9.8469e-11 9.84684e-11 9.84675e-11 9.84663e-11 9.84647e-11 9.84624e-11 9.84593e-11 9.8455e-11
          9.84491e-11 9.84412e-11 9.84303e-11 9.84157e-11 9.8396e-11 9.83693e-11 9.83331e-11 9.82839e-11 9.82161e-11 9.81212e-11 9.79853e-11 9.7783e-11
          9.71254e-11 9.65806e-11 9.55024e-11 9.27276e-11 8.03093e-11 1.88657e-13
        </DataArray>
        <DataArray type="Float32" Name="X^w_H2O" NumberOfComponents="1" format="ascii">
          0.995758 0.995758 0.995758 0.995758 0.995758 0.995758 0.995758 0.995758 0.995758 0.995758 0.995758 0.995758
          0.995758 0.995758 0.995758 0.995758 0.995759 0.995759 0.995759 0.995759 0.995759 0.995759 0.995759 0.995759
          0.995759 0.995758 0.995757 0.995755 0.995754 0.995802
        </DataArray>
        <DataArray type="Float32" Name="X^w_Air" NumberOfComponents="1" format="ascii">
          0 0 0 0 0 0 0 0 0 0 0 0
          0 0 0 0 0 0 0 0 0 0 0 0
          0 0 0 0 0 0
        </DataArray>
        <DataArray type="Float32" Name="X^w_AuComplex" NumberOfComponents="1" format="ascii">
          1.41376e-16 1.41368e-16 1.41381e-16 1.41367e-16 1.41366e-16 1.41378e-16 1.41373e-16 1.41389e-16 1.41368e-16 1.41375e-16 1.41365e-16 1.41369e-16
          1.41378e-16 1.41366e-16 1.41363e-16 1.41347e-16 1.41349e-16 1.41354e-16 1.41353e-16 1.41329e-16 1.41334e-16 1.41658e-16 1.86697e-16 3.23354e-14
          6.8976e-11 1.07457e-10 1.84226e-10 3.62664e-10 1.82176e-15 1.7725e-15
        </DataArray>
        <DataArray type="Float32" Name="X^w_nanoAu" NumberOfComponents="1" format="ascii">
          1.61087e-17 1.61078e-17 1.61092e-17 1.61076e-17 1.61075e-17 1.61089e-17 1.61083e-17 1.61101e-17 1.61079e-17 1.61086e-17 1.61075e-17 1.6108e-17
          1.6109e-17 1.61077e-17 1.61074e-17 1.61058e-17 1.61061e-17 1.61068e-17 1.61069e-17 1.61057e-17 1.62203e-17 2.66867e-17 9.88234e-16 8.91722e-14
          7.88534e-12 1.00164e-11 1.33372e-11 1.86826e-11 6.13021e-17 5.90089e-17
        </DataArray>
        <DataArray type="Float32" Name="X^w_cyanide" NumberOfComponents="1" format="ascii">
          5.07603e-06 5.07603e-06 5.07603e-06 5.07603e-06 5.07603e-06 5.07603e-06 5.07603e-06 5.07602e-06 5.07602e-06 5.07601e-06 5.076e-06 5.07598e-06
          5.07596e-06 5.07594e-06 5.0759e-06 5.07585e-06 5.07579e-06 5.0757e-06 5.07557e-06 5.0754e-06 5.07515e-06 5.0748e-06 5.07429e-06 5.07351e-06
          5.07281e-06 6.43959e-06 8.56813e-06 1.2215e-05 1.93836e-05 1.91592e-05
        </DataArray>
        <DataArray type="Float32" Name="X^w_citrate" NumberOfComponents="1" format="ascii">
          0.00423646 0.00423646 0.00423646 0.00423646 0.00423646 0.00423646 0.00423646 0.00423646 0.00423646 0.00423645 0.00423645 0.00423645
          0.00423644 0.00423644 0.00423643 0.00423642 0.0042364 0.00423638 0.00423636 0.00423632 0.00423627 0.00423619 0.00423608 0.00423591
          0.00423564 0.00423521 0.00423437 0.00423244 0.0042261 0.00417717
        </DataArray>
        <DataArray type="Float32" Name="X^w_substrate" NumberOfComponents="1" format="ascii">
          1.26359e-11 1.68928e-11 2.25826e-11 3.01873e-11 4.03516e-11 5.39378e-11 7.20996e-11 9.63823e-11 1.28858e-10 1.72308e-10 2.30476e-10 3.08414e-10
          4.12963e-10 5.53439e-10 7.42608e-10 9.98116e-10 1.34463e-09 1.81713e-09 2.46611e-09 3.36619e-09 4.63086e-09 6.43919e-09 9.08733e-09 1.30956e-08
          1.94547e-08 3.02678e-08 5.07559e-08 9.73615e-08 2.48242e-07 1.40304e-06
        </DataArray>
        <DataArray type="Float32" Name="m^w_H2O" NumberOfComponents="1" format="ascii">
          55265.3 55265.3 55265.3 55265.3 55265.3 55265.3 55265.2 55265.2 55265.2 55265.2 55265.2 55265.2
          55265.2 55265.2 55265.2 55265.2 55265.2 55265.2 55265.1 55265.1 55265.1 55265.1 55265.1 55265.1
          55265.1 55265.1 55265 55264.9 55264.8 55267.5
        </DataArray>
        <DataArray type="Float32" Name="m^w_Air" NumberOfComponents="1" format="ascii">
          0 0 0 0 0 0 0 0 0 0 0 0
          0 0 0 0 0 0 0 0 0 0 0 0
          0 0 0 0 0 0
        </DataArray>
        <DataArray type="Float32" Name="m^w_AuComplex" NumberOfComponents="1" format="ascii">
          7.17648e-13 7.1761e-13 7.17674e-13 7.17602e-13 7.17597e-13 7.1766e-13 7.17632e-13 7.17713e-13 7.1761e-13 7.17643e-13 7.17592e-13 7.17614e-13
          7.17658e-13 7.17597e-13 7.17581e-13 7.17503e-13 7.17513e-13 7.17538e-13 7.1753e-13 7.17409e-13 7.17432e-13 7.1908e-13 9.47706e-13 1.6414e-10
          3.50133e-07 5.45471e-07 9.35159e-07 1.84094e-06 9.24753e-12 8.99749e-12
        </DataArray>
        <DataArray type="Float32" Name="m^w_nanoAu" NumberOfComponents="1" format="ascii">
          8.17705e-14 8.17663e-14 8.17733e-14 8.17652e-14 8.17648e-14 8.17718e-14 8.17688e-14 8.17778e-14 8.17663e-14 8.17701e-14 8.17644e-14 8.17671e-14
          8.17721e-14 8.17655e-14 8.17639e-14 8.17556e-14 8.17574e-14 8.1761e-14 8.17613e-14 8.17554e-14 8.23367e-14 1.35466e-13 5.01644e-12 4.52653e-10
          4.00272e-08 5.08448e-08 6.77019e-08 9.48356e-08 3.11179e-13 2.99538e-13
        </DataArray>
        <DataArray type="Float32" Name="m^w_cyanide" NumberOfComponents="1" format="ascii">
          0.195054 0.195054 0.195054 0.195054 0.195054 0.195053 0.195053 0.195053 0.195053 0.195053 0.195052 0.195052
          0.195051 0.19505 0.195048 0.195046 0.195044 0.19504 0.195035 0.195029 0.195019 0.195006 0.194986 0.194956
          0.194929 0.247449 0.329241 0.469377 0.74484 0.736218
        </DataArray>
        <DataArray type="Float32" Name="m^w_citrate" NumberOfComponents="1" format="ascii">
          22.4002 22.4002 22.4002 22.4001 22.4001 22.4001 22.4001 22.4001 22.4001 22.4001 22.4001 22.4001
          22.4 22.4 22.3999 22.3999 22.3998 22.3997 22.3995 22.3993 22.3991 22.3986 22.3981 22.3971
          22.3957 22.3934 22.389 22.3788 22.3453 22.0866
        </DataArray>
        <DataArray type="Float32" Name="m^w_substrate" NumberOfComponents="1" format="ascii">
          7.01271e-08 9.37522e-08 1.25329e-07 1.67534e-07 2.23944e-07 2.99345e-07 4.00139e-07 5.34904e-07 7.15136e-07 9.56276e-07 1.2791e-06 1.71164e-06
          2.29187e-06 3.07148e-06 4.12133e-06 5.53935e-06 7.46244e-06 1.00847e-05 1.36864e-05 1.86817e-05 2.57003e-05 3.57362e-05 5.04328e-05 7.26782e-05
          0.00010797 0.00016798 0.000281685 0.000540336 0.00137769 0.00778657
        </DataArray>
        <DataArray type="Float32" Name="process rank" NumberOfComponents="1" format="ascii">
          0 0 0 0 0 0 0 0 0 0 0 0
          0 0 0 0 0 0 0 0 0 0 0 0
          0 0 0 0 0 0
        </DataArray>
      </CellData>
      <Points>
        <DataArray type="Float32" Name="Coordinates" NumberOfComponents="3" format="ascii">
          0 0 0 0.5 0 0 0 0.0333333 0 0.5 0.0333333 0
          0 0.0666667 0 0.5 0.0666667 0 0 0.1 0 0.5 0.1 0
          0 0.133333 0 0.5 0.133333 0 0 0.166667 0 0.5 0.166667 0
          0 0.2 0 0.5 0.2 0 0 0.233333 0 0.5 0.233333 0
          0 0.266667 0 0.5 0.266667 0 0 0.3 0 0.5 0.3 0
          0 0.333333 0 0.5 0.333333 0 0 0.366667 0 0.5 0.366667 0
          0 0.4 0 0.5 0.4 0 0 0.433333 0 0.5 0.433333 0
          0 0.466667 0 0.5 0.466667 0 0 0.5 0 0.5 0.5 0
          0 0.533333 0 0.5 0.533333 0 0 0.566667 0 0.5 0.566667 0
          0 0.6 0 0.5 0.6 0 0 0.633333 0 0.5 0.633333 0
          0 0.666667 0 0.5 0.666667 0 0 0.7 0 0.5 0.7 0
          0 0.733333 0 0.5 0.733333 0 0 0.766667 0 0.5 0.766667 0
          0 0.8 0 0.5 0.8 0 0 0.833333 0 0.5 0.833333 0
          0 0.866667 0 0.5 0.866667 0 0 0.9 0 0.5 0.9 0
          0 0.933333 0 0.5 0.933333 0 0 0.966667 0 0.5 0.966667 0
          0 1 0 0.5 1 0
        </DataArray>
      </Points>
      <Cells>
        <DataArray type="Int32" Name="connectivity" NumberOfComponents="1" format="ascii">
          0 1 3 2 2 3 5 4 4 5 7 6
          6 7 9 8 8 9 11 10 10 11 13 12
          12 13 15 14 14 15 17 16 16 17 19 18
          18 19 21 20 20 21 23 22 22 23 25 24
          24 25 27 26 26 27 29 28 28 29 31 30
          30 31 33 32 32 33 35 34 34 35 37 36
          36 37 39 38 38 39 41 40 40 41 43 42
          42 43 45 44 44 45 47 46 46 47 49 48
          48 49 51 50 50 51 53 52 52 53 55 54
          54 55 57 56 56 57 59 58 58 59 61 60
        </DataArray>
        <DataArray type="Int32" Name="offsets" NumberOfComponents="1" format="ascii">
          4 8 12 16 20 24 28 32 36 40 44 48
          52 56 60 64 68 72 76 80 84 88 92 96
          100 104 108 112 116 120
        </DataArray>
        <DataArray type="UInt8" Name="types" NumberOfComponents="1" format="ascii">
          9 9 9 9 9 9 9 9 9 9 9 9
          9 9 9 9 9 9 9 9 9 9 9 9
          9 9 9 9 9 9
        </DataArray>
      </Cells>
    </Piece>
  </UnstructuredGrid>
</VTKFile>
