<?xml version="1.0"?>
<VTKFile type="UnstructuredGrid" version="0.1" byte_order="LittleEndian">
  <UnstructuredGrid>
    <Piece NumberOfCells="30" NumberOfPoints="62">
      <CellData Scalars="Sg">
        <DataArray type="Float32" Name="Sg" NumberOfComponents="1" format="ascii">
          0 0 0 0 0 0 0 0 0 0 0 0
          0 0 0 0 0 0 0 0 0 0 0 0
          0 0 0 0 0 0
        </DataArray>
        <DataArray type="Float32" Name="Sl" NumberOfComponents="1" format="ascii">
          1 1 1 1 1 1 1 1 1 1 1 1
          1 1 1 1 1 1 1 1 1 1 1 1
          1 1 1 1 1 1
        </DataArray>
        <DataArray type="Float32" Name="pg" NumberOfComponents="1" format="ascii">
          24687.8 24360.9 24034 23707 23380.1 23053.1 22726.2 22399.3 22072.3 21745.4 21418.4 21091.5
          20764.6 20437.6 20110.7 19783.7 19456.8 19129.9 18802.9 18476 18149 17822.1 17495.2 17168.2
          16841.3 16514.3 16187.4 15860.5 15533.5 15206.7
        </DataArray>
        <DataArray type="Float32" Name="pl" NumberOfComponents="1" format="ascii">
          110628 110301 109974 109647 109320 108993 108666 108339 108012 107685 107358 107031
          106704 106377 106050 105723 105396 105070 104743 104416 104089 103762 103435 103108
          102781 102454 102127 101800 101473 101146
        </DataArray>
        <DataArray type="Float32" Name="pc" NumberOfComponents="1" format="ascii">
          -85939.7 -85939.7 -85939.7 -85939.7 -85939.7 -85939.7 -85939.7 -85939.7 -85939.7 -85939.7 -85939.7 -85939.7
          -85939.7 -85939.7 -85939.7 -85939.7 -85939.7 -85939.7 -85939.7 -85939.7 -85939.7 -85939.7 -85939.7 -85939.7
          -85939.7 -85939.7 -85939.7 -85939.7 -85939.7 -85939.7
        </DataArray>
        <DataArray type="Float32" Name="rhoL" NumberOfComponents="1" format="ascii">
          999.855 999.855 999.855 999.855 999.855 999.854 999.854 999.854 999.854 999.854 999.854 999.854
          999.853 999.853 999.853 999.853 999.853 999.853 999.852 999.852 999.852 999.852 999.852 999.852
          999.852 999.851 999.851 999.851 999.851 999.851
        </DataArray>
        <DataArray type="Float32" Name="rhoG" NumberOfComponents="1" format="ascii">
          0.30585 0.3018 0.29775 0.293699 0.289649 0.285598 0.281548 0.277498 0.273447 0.269397 0.265347 0.261296
          0.257246 0.253195 0.249145 0.245095 0.241044 0.236994 0.232944 0.228893 0.224843 0.220793 0.216742 0.212692
          0.208641 0.204591 0.200541 0.19649 0.19244 0.188392
        </DataArray>
        <DataArray type="Float32" Name="mobL" NumberOfComponents="1" format="ascii">
          722.171 722.17 722.17 722.17 722.17 722.17 722.169 722.169 722.169 722.169 722.169 722.169
          722.168 722.168 722.168 722.168 722.168 722.167 722.167 722.167 722.167 722.167 722.166 722.166
          722.166 722.166 722.166 722.166 722.165 722.165
        </DataArray>
        <DataArray type="Float32" Name="mobG" NumberOfComponents="1" format="ascii">
          0 0 0 0 0 0 0 0 0 0 0 0
          0 0 0 0 0 0 0 0 0 0 0 0
          0 0 0 0 0 0
        </DataArray>
        <DataArray type="Float32" Name="porosity" NumberOfComponents="1" format="ascii">
          0.298574 0.298574 0.298573 0.298573 0.298573 0.298572 0.298571 0.29857 0.298569 0.298567 0.298564 0.29856
          0.298555 0.298547 0.298537 0.298524 0.298506 0.298482 0.298449 0.298405 0.298344 0.298259 0.298139 0.297962
          0.297418 0.296959 0.296085 0.293995 0.285924 0.115779
        </DataArray>
        <DataArray type="Float32" Name="temperature" NumberOfComponents="1" format="ascii">
          281.15 281.15 281.15 281.15 281.15 281.15 281.15 281.15 281.15 281.15 281.15 281.15
          281.15 281.15 281.15 281.15 281.15 281.15 281.15 281.15 281.15 281.15 281.15 281.15
          281.15 281.15 281.15 281.15 281.15 281.15
        </DataArray>
        <DataArray type="Float32" Name="phase presence" NumberOfComponents="1" format="ascii">
          1 1 1 1 1 1 1 1 1 1 1 1
          1 1 1 1 1 1 1 1 1 1 1 1
          1 1 1 1 1 1
        </DataArray>
        <DataArray type="Float32" Name="precipitateVolumeFraction_au" NumberOfComponents="1" format="ascii">
          5.52501e-10 5.52476e-10 5.52519e-10 5.5247e-10 5.52467e-10 5.52512e-10 5.52493e-10 5.52553e-10 5.52479e-10 5.52506e-10 5.5247e-10 5.52489e-10
          5.52526e-10 5.52486e-10 5.52481e-10 5.52431e-10 5.52452e-10 5.52489e-10 5.52509e-10 5.5245e-10 5.52502e-10 5.52432e-10 5.52739e-10 7.49894e-10
          0.00026994 0.000269924 0.000269899 0.000269854 5.52227e-10 5.5063e-10
        </DataArray>
        <DataArray type="Float32" Name="precipitateVolumeFraction_nanoAu" NumberOfComponents="1" format="ascii">
          3.90067e-13 3.85864e-13 3.92525e-13 3.85964e-13 3.85784e-13 3.89562e-13 3.87889e-13 3.91291e-13 3.87432e-13 3.88369e-13 3.87173e-13 3.87747e-13
          3.88402e-13 3.87624e-13 3.8753e-13 3.86958e-13 3.87252e-13 3.87558e-13 3.87653e-13 3.87308e-13 3.87537e-13 3.87617e-13 4.32518e-13 2.91714e-11
          6.05699e-08 7.68726e-08 1.0224e-07 1.453e-07 7.33173e-13 7.19936e-13
        </DataArray>
        <DataArray type="Float32" Name="precipitateVolumeFraction_d" NumberOfComponents="1" format="ascii">
          0.000713159 0.00071323 0.000713331 0.000713472 0.000713671 0.000713949 0.000714338 0.000714879 0.00071563 0.000716668 0.000718097 0.000720056
          0.00072273 0.000726365 0.000731292 0.000737948 0.000746924 0.000759028 0.000775381 0.000797584 0.000828003 0.000870296 0.000930444 0.00101894
          0.00115596 0.00138567 0.00182251 0.00286768 0.00703811 0.0921106
        </DataArray>
        <DataArray type="Float32" Name="precipitateVolumeFraction_p" NumberOfComponents="1" format="ascii">
          0.000713159 0.00071323 0.000713331 0.000713472 0.000713671 0.000713949 0.000714338 0.000714879 0.00071563 0.000716668 0.000718097 0.000720056
          0.00072273 0.000726365 0.000731292 0.000737948 0.000746924 0.000759028 0.000775381 0.000797584 0.000828003 0.000870296 0.000930444 0.00101894
          0.00115596 0.00138567 0.00182251 0.00286768 0.00703811 0.0921106
        </DataArray>
        <DataArray type="Float32" Name="K" NumberOfComponents="1" format="ascii">
          9.81799e-11 9.81798e-11 9.81795e-11 9.81791e-11 9.81786e-11 9.81779e-11 9.8177e-11 9.81756e-11 9.81737e-11 9.81711e-11 9.81674e-11 9.81625e-11
          9.81557e-11 9.81465e-11 9.8134e-11 9.81172e-11 9.80944e-11 9.80638e-11 9.80224e-11 9.79663e-11 9.78894e-11 9.77826e-11 9.76309e-11 9.74079e-11
          9.67254e-11 9.6152e-11 9.50695e-11 9.25198e-11 8.31944e-11 3.60245e-12
        </DataArray>
        <DataArray type="Float32" Name="X^w_H2O" NumberOfComponents="1" format="ascii">
          0.995758 0.995758 0.995758 0.995758 0.995758 0.995758 0.995758 0.995758 0.995758 0.995758 0.995758 0.995758
          0.995758 0.995758 0.995758 0.995758 0.995758 0.995759 0.995759 0.995759 0.995759 0.995759 0.995759 0.995759
          0.99576 0.995759 0.995758 0.995758 0.99576 0.995824
        </DataArray>
        <DataArray type="Float32" Name="X^w_Air" NumberOfComponents="1" format="ascii">
          1.86525e-21 3.30308e-23 5.74306e-25 9.82425e-27 1.65411e-28 2.73522e-30 4.44396e-32 7.09397e-34 1.11251e-35 1.71432e-37 0 0
          0 0 0 0 0 0 0 0 0 0 0 0
          0 0 0 0 0 0
        </DataArray>
        <DataArray type="Float32" Name="X^w_AuComplex" NumberOfComponents="1" format="ascii">
          3.98679e-16 3.94617e-16 4.01041e-16 3.94703e-16 3.94524e-16 3.98166e-16 3.96545e-16 3.99824e-16 3.96091e-16 3.96991e-16 3.95828e-16 3.96376e-16
          3.97003e-16 3.96242e-16 3.96143e-16 3.95579e-16 3.95851e-16 3.96134e-16 3.9621e-16 3.95852e-16 3.96044e-16 3.96081e-16 4.41488e-16 3.27725e-14
          6.92282e-11 1.07802e-10 1.84649e-10 3.62789e-10 2.77626e-15 2.68441e-15
        </DataArray>
        <DataArray type="Float32" Name="X^w_nanoAu" NumberOfComponents="1" format="ascii">
          5.07676e-17 5.02355e-17 5.10841e-17 5.02391e-17 5.02211e-17 5.07053e-17 5.04946e-17 5.09273e-17 5.04316e-17 5.05506e-17 5.03974e-17 5.04722e-17
          5.05554e-17 5.04549e-17 5.0442e-17 5.03686e-17 5.04067e-17 5.04459e-17 5.04574e-17 5.0414e-17 5.05569e-17 6.10813e-17 1.02906e-15 8.9605e-14
          7.90303e-12 1.00353e-11 1.33525e-11 1.86737e-11 9.5e-17 9.08802e-17
        </DataArray>
        <DataArray type="Float32" Name="X^w_cyanide" NumberOfComponents="1" format="ascii">
          5.08782e-06 5.08776e-06 5.08769e-06 5.08762e-06 5.08755e-06 5.08748e-06 5.08741e-06 5.08734e-06 5.08726e-06 5.08718e-06 5.0871e-06 5.08701e-06
          5.08691e-06 5.08681e-06 5.0867e-06 5.08657e-06 5.08643e-06 5.08625e-06 5.08602e-06 5.08574e-06 5.08535e-06 5.08481e-06 5.08403e-06 5.08284e-06
          5.08146e-06 6.4489e-06 8.57694e-06 1.2218e-05 1.9355e-05 1.90554e-05
        </DataArray>
        <DataArray type="Float32" Name="X^w_citrate" NumberOfComponents="1" format="ascii">
          0.00423646 0.00423646 0.00423646 0.00423646 0.00423646 0.00423646 0.00423646 0.00423646 0.00423646 0.00423646 0.00423646 0.00423645
          0.00423645 0.00423644 0.00423644 0.00423642 0.00423641 0.00423639 0.00423636 0.00423631 0.00423624 0.00423614 0.00423599 0.00423575
          0.00423535 0.00423467 0.0042333 0.00423009 0.00421986 0.00415453
        </DataArray>
        <DataArray type="Float32" Name="X^w_substrate" NumberOfComponents="1" format="ascii">
          5.93727e-12 8.27996e-12 1.15467e-11 1.61021e-11 2.24548e-11 3.13145e-11 4.36724e-11 6.09131e-11 8.49737e-11 1.18567e-10 1.655e-10 2.3113e-10
          3.23019e-10 4.51894e-10 6.33065e-10 8.88552e-10 1.25036e-09 1.76564e-09 2.50501e-09 3.57656e-09 5.15034e-09 7.5033e-09 1.1107e-08 1.68121e-08
          2.62732e-08 4.30576e-08 7.60575e-08 1.52798e-07 3.95584e-07 1.93734e-06
        </DataArray>
        <DataArray type="Float32" Name="m^w_H2O" NumberOfComponents="1" format="ascii">
          55265.3 55265.3 55265.3 55265.3 55265.3 55265.3 55265.2 55265.2 55265.2 55265.2 55265.2 55265.2
          55265.2 55265.2 55265.2 55265.2 55265.2 55265.2 55265.1 55265.1 55265.1 55265.1 55265.1 55265.1
          55265.2 55265.1 55265.1 55265 55265.2 55268.7
        </DataArray>
        <DataArray type="Float32" Name="m^w_Air" NumberOfComponents="1" format="ascii">
          6.43986e-17 1.1404e-18 1.98281e-20 3.39186e-22 5.71087e-24 9.44346e-26 1.53429e-27 2.44922e-29 3.84097e-31 5.91874e-33 8.96357e-35 1.33304e-36
          1.94502e-38 0 0 0 0 0 0 0 0 0 0 0
          0 0 0 0 0 0
        </DataArray>
        <DataArray type="Float32" Name="m^w_AuComplex" NumberOfComponents="1" format="ascii">
          2.02377e-12 2.00315e-12 2.03576e-12 2.00358e-12 2.00267e-12 2.02116e-12 2.01293e-12 2.02958e-12 2.01063e-12 2.01519e-12 2.00929e-12 2.01207e-12
          2.01525e-12 2.01139e-12 2.01089e-12 2.00802e-12 2.00941e-12 2.01084e-12 2.01123e-12 2.00941e-12 2.01039e-12 2.01057e-12 2.24106e-12 1.66358e-10
          3.51413e-07 5.47219e-07 9.3731e-07 1.84157e-06 1.40927e-11 1.36265e-11
        </DataArray>
        <DataArray type="Float32" Name="m^w_nanoAu" NumberOfComponents="1" format="ascii">
          2.57706e-13 2.55004e-13 2.59312e-13 2.55023e-13 2.54931e-13 2.57389e-13 2.56319e-13 2.58516e-13 2.55999e-13 2.56604e-13 2.55826e-13 2.56205e-13
          2.56628e-13 2.56118e-13 2.56052e-13 2.55679e-13 2.55873e-13 2.56072e-13 2.5613e-13 2.5591e-13 2.56635e-13 3.10059e-13 5.22368e-12 4.5485e-10
          4.0117e-08 5.09406e-08 6.77794e-08 9.47908e-08 4.82235e-13 4.61322e-13
        </DataArray>
        <DataArray type="Float32" Name="m^w_cyanide" NumberOfComponents="1" format="ascii">
          0.195507 0.195504 0.195502 0.195499 0.195496 0.195494 0.195491 0.195488 0.195485 0.195482 0.195479 0.195475
          0.195471 0.195468 0.195463 0.195458 0.195453 0.195446 0.195437 0.195426 0.195411 0.19539 0.19536 0.195315
          0.195262 0.247807 0.32958 0.469492 0.743738 0.732227
        </DataArray>
        <DataArray type="Float32" Name="m^w_citrate" NumberOfComponents="1" format="ascii">
          22.4002 22.4002 22.4002 22.4002 22.4001 22.4001 22.4001 22.4001 22.4001 22.4001 22.4001 22.4001
          22.4001 22.4 22.4 22.3999 22.3998 22.3997 22.3995 22.3993 22.3989 22.3984 22.3976 22.3963
          22.3942 22.3906 22.3834 22.3664 22.3123 21.9669
        </DataArray>
        <DataArray type="Float32" Name="m^w_substrate" NumberOfComponents="1" format="ascii">
          3.29508e-08 4.59523e-08 6.40822e-08 8.93639e-08 1.2462e-07 1.7379e-07 2.42373e-07 3.38056e-07 4.71588e-07 6.58025e-07 9.18496e-07 1.28273e-06
          1.79269e-06 2.50793e-06 3.51339e-06 4.93129e-06 6.93928e-06 9.79897e-06 1.39023e-05 1.98492e-05 2.85833e-05 4.16418e-05 6.16418e-05 9.33037e-05
          0.000145811 0.000238961 0.000422104 0.000848 0.00219541 0.0107518
        </DataArray>
        <DataArray type="Float32" Name="process rank" NumberOfComponents="1" format="ascii">
          0 0 0 0 0 0 0 0 0 0 0 0
          0 0 0 0 0 0 0 0 0 0 0 0
          0 0 0 0 0 0
        </DataArray>
      </CellData>
      <Points>
        <DataArray type="Float32" Name="Coordinates" NumberOfComponents="3" format="ascii">
          0 0 0 0.5 0 0 0 0.0333333 0 0.5 0.0333333 0
          0 0.0666667 0 0.5 0.0666667 0 0 0.1 0 0.5 0.1 0
          0 0.133333 0 0.5 0.133333 0 0 0.166667 0 0.5 0.166667 0
          0 0.2 0 0.5 0.2 0 0 0.233333 0 0.5 0.233333 0
          0 0.266667 0 0.5 0.266667 0 0 0.3 0 0.5 0.3 0
          0 0.333333 0 0.5 0.333333 0 0 0.366667 0 0.5 0.366667 0
          0 0.4 0 0.5 0.4 0 0 0.433333 0 0.5 0.433333 0
          0 0.466667 0 0.5 0.466667 0 0 0.5 0 0.5 0.5 0
          0 0.533333 0 0.5 0.533333 0 0 0.566667 0 0.5 0.566667 0
          0 0.6 0 0.5 0.6 0 0 0.633333 0 0.5 0.633333 0
          0 0.666667 0 0.5 0.666667 0 0 0.7 0 0.5 0.7 0
          0 0.733333 0 0.5 0.733333 0 0 0.766667 0 0.5 0.766667 0
          0 0.8 0 0.5 0.8 0 0 0.833333 0 0.5 0.833333 0
          0 0.866667 0 0.5 0.866667 0 0 0.9 0 0.5 0.9 0
          0 0.933333 0 0.5 0.933333 0 0 0.966667 0 0.5 0.966667 0
          0 1 0 0.5 1 0
        </DataArray>
      </Points>
      <Cells>
        <DataArray type="Int32" Name="connectivity" NumberOfComponents="1" format="ascii">
          0 1 3 2 2 3 5 4 4 5 7 6
          6 7 9 8 8 9 11 10 10 11 13 12
          12 13 15 14 14 15 17 16 16 17 19 18
          18 19 21 20 20 21 23 22 22 23 25 24
          24 25 27 26 26 27 29 28 28 29 31 30
          30 31 33 32 32 33 35 34 34 35 37 36
          36 37 39 38 38 39 41 40 40 41 43 42
          42 43 45 44 44 45 47 46 46 47 49 48
          48 49 51 50 50 51 53 52 52 53 55 54
          54 55 57 56 56 57 59 58 58 59 61 60
        </DataArray>
        <DataArray type="Int32" Name="offsets" NumberOfComponents="1" format="ascii">
          4 8 12 16 20 24 28 32 36 40 44 48
          52 56 60 64 68 72 76 80 84 88 92 96
          100 104 108 112 116 120
        </DataArray>
        <DataArray type="UInt8" Name="types" NumberOfComponents="1" format="ascii">
          9 9 9 9 9 9 9 9 9 9 9 9
          9 9 9 9 9 9 9 9 9 9 9 9
          9 9 9 9 9 9
        </DataArray>
      </Cells>
    </Piece>
  </UnstructuredGrid>
</VTKFile>
