<?xml version="1.0"?>
<VTKFile type="UnstructuredGrid" version="0.1" byte_order="LittleEndian">
  <UnstructuredGrid>
    <Piece NumberOfCells="30" NumberOfPoints="62">
      <CellData Scalars="Sg">
        <DataArray type="Float32" Name="Sg" NumberOfComponents="1" format="ascii">
          0 0 0 0 0 0 0 0 0 0 0 0
          0 0 0 0 0 0 0 0 0 0 0 0
          0 0 0 0 0 0
        </DataArray>
        <DataArray type="Float32" Name="Sl" NumberOfComponents="1" format="ascii">
          1 1 1 1 1 1 1 1 1 1 1 1
          1 1 1 1 1 1 1 1 1 1 1 1
          1 1 1 1 1 1
        </DataArray>
        <DataArray type="Float32" Name="pg" NumberOfComponents="1" format="ascii">
          24687.8 24360.9 24034 23707 23380.1 23053.1 22726.2 22399.3 22072.3 21745.4 21418.4 21091.5
          20764.6 20437.6 20110.7 19783.7 19456.8 19129.8 18802.9 18476 18149 17822.1 17495.1 17168.2
          16841.3 16514.3 16187.4 15860.4 15533.5 15209.7
        </DataArray>
        <DataArray type="Float32" Name="pl" NumberOfComponents="1" format="ascii">
          110628 110301 109974 109647 109320 108993 108666 108339 108012 107685 107358 107031
          106704 106377 106050 105723 105396 105070 104743 104416 104089 103762 103435 103108
          102781 102454 102127 101800 101473 101149
        </DataArray>
        <DataArray type="Float32" Name="pc" NumberOfComponents="1" format="ascii">
          -85939.7 -85939.7 -85939.7 -85939.7 -85939.7 -85939.7 -85939.7 -85939.7 -85939.7 -85939.7 -85939.7 -85939.7
          -85939.7 -85939.7 -85939.7 -85939.7 -85939.7 -85939.7 -85939.7 -85939.7 -85939.7 -85939.7 -85939.7 -85939.7
          -85939.7 -85939.7 -85939.7 -85939.7 -85939.7 -85939.7
        </DataArray>
        <DataArray type="Float32" Name="rhoL" NumberOfComponents="1" format="ascii">
          999.855 999.855 999.855 999.855 999.855 999.854 999.854 999.854 999.854 999.854 999.854 999.854
          999.853 999.853 999.853 999.853 999.853 999.853 999.852 999.852 999.852 999.852 999.852 999.852
          999.852 999.851 999.851 999.851 999.851 999.851
        </DataArray>
        <DataArray type="Float32" Name="rhoG" NumberOfComponents="1" format="ascii">
          0.30585 0.3018 0.29775 0.293699 0.289649 0.285598 0.281548 0.277498 0.273447 0.269397 0.265347 0.261296
          0.257246 0.253195 0.249145 0.245095 0.241044 0.236994 0.232944 0.228893 0.224843 0.220793 0.216742 0.212692
          0.208641 0.204591 0.200541 0.19649 0.19244 0.188428
        </DataArray>
        <DataArray type="Float32" Name="mobL" NumberOfComponents="1" format="ascii">
          722.171 722.17 722.17 722.17 722.17 722.17 722.169 722.169 722.169 722.169 722.169 722.169
          722.168 722.168 722.168 722.168 722.168 722.167 722.167 722.167 722.167 722.167 722.166 722.166
          722.166 722.166 722.166 722.166 722.165 722.165
        </DataArray>
        <DataArray type="Float32" Name="mobG" NumberOfComponents="1" format="ascii">
          0 0 0 0 0 0 0 0 0 0 0 0
          0 0 0 0 0 0 0 0 0 0 0 0
          0 0 0 0 0 0
        </DataArray>
        <DataArray type="Float32" Name="porosity" NumberOfComponents="1" format="ascii">
          0.298875 0.298875 0.298875 0.298874 0.298874 0.298874 0.298873 0.298872 0.298871 0.298869 0.298867 0.298864
          0.298859 0.298853 0.298845 0.298835 0.29882 0.2988 0.298773 0.298736 0.298685 0.298614 0.298511 0.298357
          0.297844 0.297421 0.296568 0.294282 0.282716 0.0447003
        </DataArray>
        <DataArray type="Float32" Name="temperature" NumberOfComponents="1" format="ascii">
          281.15 281.15 281.15 281.15 281.15 281.15 281.15 281.15 281.15 281.15 281.15 281.15
          281.15 281.15 281.15 281.15 281.15 281.15 281.15 281.15 281.15 281.15 281.15 281.15
          281.15 281.15 281.15 281.15 281.15 281.15
        </DataArray>
        <DataArray type="Float32" Name="phase presence" NumberOfComponents="1" format="ascii">
          1 1 1 1 1 1 1 1 1 1 1 1
          1 1 1 1 1 1 1 1 1 1 1 1
          1 1 1 1 1 1
        </DataArray>
        <DataArray type="Float32" Name="precipitateVolumeFraction_au" NumberOfComponents="1" format="ascii">
          2.7799e-10 2.7804e-10 2.7804e-10 2.78046e-10 2.78062e-10 2.78053e-10 2.78038e-10 2.7804e-10 2.78037e-10 2.7805e-10 2.78047e-10 2.78059e-10
          2.78062e-10 2.78062e-10 2.78055e-10 2.7806e-10 2.78045e-10 2.78028e-10 2.7806e-10 2.78055e-10 2.78015e-10 2.78054e-10 2.7809e-10 3.74477e-10
          0.000269811 0.000269711 0.000269484 0.000268775 2.74731e-10 2.70068e-10
        </DataArray>
        <DataArray type="Float32" Name="precipitateVolumeFraction_nanoAu" NumberOfComponents="1" format="ascii">
          2.74736e-10 2.74802e-10 2.74802e-10 2.74808e-10 2.74828e-10 2.74816e-10 2.74796e-10 2.74798e-10 2.74794e-10 2.7481e-10 2.74805e-10 2.74819e-10
          2.74822e-10 2.7482e-10 2.74812e-10 2.74817e-10 2.74799e-10 2.74779e-10 2.74814e-10 2.74808e-10 2.74764e-10 2.74806e-10 2.74947e-10 4.49805e-10
          1.89503e-07 2.9024e-07 5.22818e-07 1.2173e-06 2.7741e-10 2.66804e-10
        </DataArray>
        <DataArray type="Float32" Name="precipitateVolumeFraction_d" NumberOfComponents="1" format="ascii">
          0.000562595 0.000562653 0.000562734 0.000562848 0.000563008 0.000563232 0.000563545 0.000563981 0.000564587 0.000565424 0.000566578 0.000568163
          0.000570329 0.000573282 0.000577292 0.000582725 0.000590077 0.000600028 0.000613535 0.000631978 0.000657424 0.000693123 0.000744496 0.000821314
          0.000943046 0.00115445 0.00158102 0.00272399 0.00864212 0.12765
        </DataArray>
        <DataArray type="Float32" Name="precipitateVolumeFraction_p" NumberOfComponents="1" format="ascii">
          0.000562595 0.000562653 0.000562734 0.000562848 0.000563008 0.000563232 0.000563545 0.000563981 0.000564587 0.000565424 0.000566578 0.000568163
          0.000570329 0.000573282 0.000577292 0.000582725 0.000590077 0.000600028 0.000613535 0.000631978 0.000657424 0.000693123 0.000744496 0.000821314
          0.000943046 0.00115445 0.00158102 0.00272399 0.00864212 0.12765
        </DataArray>
        <DataArray type="Float32" Name="K" NumberOfComponents="1" format="ascii">
          9.85619e-11 9.85618e-11 9.85616e-11 9.85613e-11 9.85609e-11 9.85603e-11 9.85595e-11 9.85584e-11 9.85569e-11 9.85547e-11 9.85518e-11 9.85478e-11
          9.85423e-11 9.85348e-11 9.85246e-11 9.85108e-11 9.84921e-11 9.84668e-11 9.84325e-11 9.83857e-11 9.83212e-11 9.82307e-11 9.81006e-11 9.79063e-11
          9.72593e-11 9.67292e-11 9.56667e-11 9.28669e-11 7.97076e-11 1.77616e-13
        </DataArray>
        <DataArray type="Float32" Name="X^w_H2O" NumberOfComponents="1" format="ascii">
          0.999858 0.999858 0.999858 0.999858 0.999858 0.999858 0.999858 0.999858 0.999858 0.999858 0.999858 0.999858
          0.999858 0.999858 0.999858 0.999858 0.999858 0.999858 0.999858 0.999858 0.999858 0.999858 0.999858 0.999858
          0.999858 0.999858 0.999857 0.999855 0.999839 0.99984
        </DataArray>
        <DataArray type="Float32" Name="X^w_Air" NumberOfComponents="1" format="ascii">
          0 0 0 0 0 0 0 0 0 0 0 0
          0 0 0 0 0 0 0 0 0 0 0 0
          0 0 0 0 0 0
        </DataArray>
        <DataArray type="Float32" Name="X^w_AuComplex" NumberOfComponents="1" format="ascii">
          1.5901e-14 1.59157e-14 1.59266e-14 1.59378e-14 1.59499e-14 1.596e-14 1.59697e-14 1.59805e-14 1.59909e-14 1.60024e-14 1.60125e-14 1.60235e-14
          1.60335e-14 1.60429e-14 1.60514e-14 1.60599e-14 1.60661e-14 1.60709e-14 1.6077e-14 1.6078e-14 1.60731e-14 1.60677e-14 1.60603e-14 2.69959e-14
          1.16734e-11 3.07133e-11 1.16023e-10 8.03206e-10 1.02222e-12 9.72359e-13
        </DataArray>
        <DataArray type="Float32" Name="X^w_nanoAu" NumberOfComponents="1" format="ascii">
          1.1963e-15 1.19658e-15 1.19658e-15 1.19661e-15 1.19669e-15 1.19664e-15 1.19655e-15 1.19656e-15 1.19654e-15 1.19661e-15 1.19659e-15 1.19665e-15
          1.19666e-15 1.19665e-15 1.19661e-15 1.19663e-15 1.19655e-15 1.19646e-15 1.1966e-15 1.19656e-15 1.19637e-15 1.19765e-15 1.30178e-15 1.0895e-14
          8.29841e-13 1.2747e-12 2.30748e-12 5.23896e-12 1.2046e-15 1.13345e-15
        </DataArray>
        <DataArray type="Float32" Name="X^w_cyanide" NumberOfComponents="1" format="ascii">
          3.05099e-07 3.05308e-07 3.05517e-07 3.05726e-07 3.05935e-07 3.06143e-07 3.0635e-07 3.06556e-07 3.06761e-07 3.06963e-07 3.07162e-07 3.07357e-07
          3.07547e-07 3.07728e-07 3.079e-07 3.08058e-07 3.08197e-07 3.08311e-07 3.08388e-07 3.08416e-07 3.08371e-07 3.0822e-07 3.07906e-07 3.07333e-07
          3.06518e-07 5.36961e-07 1.14485e-06 3.44695e-06 1.94252e-05 1.92196e-05
        </DataArray>
        <DataArray type="Float32" Name="X^w_citrate" NumberOfComponents="1" format="ascii">
          0.000141762 0.000141762 0.000141762 0.000141762 0.000141762 0.000141762 0.000141762 0.000141762 0.000141761 0.000141761 0.000141761 0.000141761
          0.000141761 0.000141761 0.00014176 0.00014176 0.000141759 0.000141759 0.000141758 0.000141756 0.000141754 0.000141752 0.000141748 0.000141742
          0.000141733 0.000141722 0.000141699 0.000141646 0.000141461 0.000139818
        </DataArray>
        <DataArray type="Float32" Name="X^w_substrate" NumberOfComponents="1" format="ascii">
          1.8549e-11 2.44475e-11 3.22198e-11 4.24612e-11 5.5956e-11 7.37387e-11 9.71741e-11 1.28064e-10 1.68792e-10 2.22511e-10 2.93407e-10 3.87049e-10
          5.10881e-10 6.74896e-10 8.9261e-10 1.18246e-09 1.56991e-09 2.0906e-09 2.79541e-09 3.75866e-09 5.09223e-09 6.97091e-09 9.6812e-09 1.37225e-08
          2.00393e-08 3.06266e-08 5.04268e-08 9.50553e-08 2.39916e-07 1.39829e-06
        </DataArray>
        <DataArray type="Float32" Name="m^w_H2O" NumberOfComponents="1" format="ascii">
          55492.8 55492.8 55492.8 55492.8 55492.8 55492.8 55492.8 55492.8 55492.8 55492.7 55492.7 55492.7
          55492.7 55492.7 55492.7 55492.7 55492.7 55492.7 55492.7 55492.7 55492.6 55492.6 55492.6 55492.6
          55492.6 55492.6 55492.6 55492.4 55491.5 55491.6
        </DataArray>
        <DataArray type="Float32" Name="m^w_Air" NumberOfComponents="1" format="ascii">
          0 0 0 0 0 0 0 0 0 0 0 0
          0 0 0 0 0 0 0 0 0 0 0 0
          0 0 0 0 0 0
        </DataArray>
        <DataArray type="Float32" Name="m^w_AuComplex" NumberOfComponents="1" format="ascii">
          8.07162e-11 8.07908e-11 8.08462e-11 8.09033e-11 8.09644e-11 8.10158e-11 8.10648e-11 8.112e-11 8.11726e-11 8.12309e-11 8.12824e-11 8.13379e-11
          8.13889e-11 8.14366e-11 8.14797e-11 8.15228e-11 8.15544e-11 8.15784e-11 8.16093e-11 8.16148e-11 8.15898e-11 8.15623e-11 8.15246e-11 1.37035e-10
          5.9256e-08 1.55906e-07 5.88953e-07 4.0772e-06 5.18895e-09 4.93585e-09
        </DataArray>
        <DataArray type="Float32" Name="m^w_nanoAu" NumberOfComponents="1" format="ascii">
          6.07262e-12 6.07405e-12 6.07406e-12 6.0742e-12 6.07463e-12 6.07436e-12 6.07392e-12 6.07396e-12 6.07386e-12 6.0742e-12 6.07411e-12 6.0744e-12
          6.07445e-12 6.07441e-12 6.07422e-12 6.0743e-12 6.07388e-12 6.07342e-12 6.07414e-12 6.07394e-12 6.07297e-12 6.07947e-12 6.60804e-12 5.53047e-11
          4.21241e-09 6.47061e-09 1.17132e-08 2.65938e-08 6.11473e-12 5.75357e-12
        </DataArray>
        <DataArray type="Float32" Name="m^w_cyanide" NumberOfComponents="1" format="ascii">
          0.0117239 0.0117319 0.0117399 0.011748 0.011756 0.011764 0.0117719 0.0117798 0.0117877 0.0117955 0.0118031 0.0118106
          0.0118179 0.0118249 0.0118315 0.0118375 0.0118429 0.0118472 0.0118502 0.0118513 0.0118495 0.0118437 0.0118317 0.0118097
          0.0117784 0.0206334 0.0439922 0.132453 0.746439 0.738537
        </DataArray>
        <DataArray type="Float32" Name="m^w_citrate" NumberOfComponents="1" format="ascii">
          0.749561 0.749561 0.749561 0.74956 0.74956 0.74956 0.749559 0.749559 0.749559 0.749558 0.749557 0.749557
          0.749555 0.749554 0.749552 0.74955 0.749547 0.749543 0.749537 0.74953 0.74952 0.749506 0.749485 0.749455
          0.749407 0.749347 0.749227 0.748943 0.747968 0.739282
        </DataArray>
        <DataArray type="Float32" Name="m^w_substrate" NumberOfComponents="1" format="ascii">
          1.02944e-07 1.35679e-07 1.78814e-07 2.35652e-07 3.10545e-07 4.09236e-07 5.39298e-07 7.10733e-07 9.36763e-07 1.23489e-06 1.62835e-06 2.14805e-06
          2.83529e-06 3.74554e-06 4.95381e-06 6.56245e-06 8.7127e-06 1.16024e-05 1.5514e-05 2.08598e-05 2.82608e-05 3.86871e-05 5.37287e-05 7.61573e-05
          0.000111214 0.000169971 0.000279858 0.000527537 0.00133149 0.0077602
        </DataArray>
        <DataArray type="Float32" Name="process rank" NumberOfComponents="1" format="ascii">
          0 0 0 0 0 0 0 0 0 0 0 0
          0 0 0 0 0 0 0 0 0 0 0 0
          0 0 0 0 0 0
        </DataArray>
      </CellData>
      <Points>
        <DataArray type="Float32" Name="Coordinates" NumberOfComponents="3" format="ascii">
          0 0 0 0.5 0 0 0 0.0333333 0 0.5 0.0333333 0
          0 0.0666667 0 0.5 0.0666667 0 0 0.1 0 0.5 0.1 0
          0 0.133333 0 0.5 0.133333 0 0 0.166667 0 0.5 0.166667 0
          0 0.2 0 0.5 0.2 0 0 0.233333 0 0.5 0.233333 0
          0 0.266667 0 0.5 0.266667 0 0 0.3 0 0.5 0.3 0
          0 0.333333 0 0.5 0.333333 0 0 0.366667 0 0.5 0.366667 0
          0 0.4 0 0.5 0.4 0 0 0.433333 0 0.5 0.433333 0
          0 0.466667 0 0.5 0.466667 0 0 0.5 0 0.5 0.5 0
          0 0.533333 0 0.5 0.533333 0 0 0.566667 0 0.5 0.566667 0
          0 0.6 0 0.5 0.6 0 0 0.633333 0 0.5 0.633333 0
          0 0.666667 0 0.5 0.666667 0 0 0.7 0 0.5 0.7 0
          0 0.733333 0 0.5 0.733333 0 0 0.766667 0 0.5 0.766667 0
          0 0.8 0 0.5 0.8 0 0 0.833333 0 0.5 0.833333 0
          0 0.866667 0 0.5 0.866667 0 0 0.9 0 0.5 0.9 0
          0 0.933333 0 0.5 0.933333 0 0 0.966667 0 0.5 0.966667 0
          0 1 0 0.5 1 0
        </DataArray>
      </Points>
      <Cells>
        <DataArray type="Int32" Name="connectivity" NumberOfComponents="1" format="ascii">
          0 1 3 2 2 3 5 4 4 5 7 6
          6 7 9 8 8 9 11 10 10 11 13 12
          12 13 15 14 14 15 17 16 16 17 19 18
          18 19 21 20 20 21 23 22 22 23 25 24
          24 25 27 26 26 27 29 28 28 29 31 30
          30 31 33 32 32 33 35 34 34 35 37 36
          36 37 39 38 38 39 41 40 40 41 43 42
          42 43 45 44 44 45 47 46 46 47 49 48
          48 49 51 50 50 51 53 52 52 53 55 54
          54 55 57 56 56 57 59 58 58 59 61 60
        </DataArray>
        <DataArray type="Int32" Name="offsets" NumberOfComponents="1" format="ascii">
          4 8 12 16 20 24 28 32 36 40 44 48
          52 56 60 64 68 72 76 80 84 88 92 96
          100 104 108 112 116 120
        </DataArray>
        <DataArray type="UInt8" Name="types" NumberOfComponents="1" format="ascii">
          9 9 9 9 9 9 9 9 9 9 9 9
          9 9 9 9 9 9 9 9 9 9 9 9
          9 9 9 9 9 9
        </DataArray>
      </Cells>
    </Piece>
  </UnstructuredGrid>
</VTKFile>
