<?xml version="1.0"?>
<VTKFile type="UnstructuredGrid" version="0.1" byte_order="LittleEndian">
  <UnstructuredGrid>
    <Piece NumberOfCells="30" NumberOfPoints="62">
      <CellData Scalars="Sg">
        <DataArray type="Float32" Name="Sg" NumberOfComponents="1" format="ascii">
          0 0 0 0 0 0 0 0 0 0 0 0
          0 0 0 0 0 0 0 0 0 0 0 0
          0 0 0 0 0 0
        </DataArray>
        <DataArray type="Float32" Name="Sl" NumberOfComponents="1" format="ascii">
          1 1 1 1 1 1 1 1 1 1 1 1
          1 1 1 1 1 1 1 1 1 1 1 1
          1 1 1 1 1 1
        </DataArray>
        <DataArray type="Float32" Name="pg" NumberOfComponents="1" format="ascii">
          24687.8 24360.9 24034 23707 23380.1 23053.1 22726.2 22399.3 22072.3 21745.4 21418.4 21091.5
          20764.6 20437.6 20110.7 19783.7 19456.8 19129.8 18802.9 18476 18149 17822.1 17495.1 17168.2
          16841.3 16514.3 16187.4 15860.4 15533.5 15208.2
        </DataArray>
        <DataArray type="Float32" Name="pl" NumberOfComponents="1" format="ascii">
          110628 110301 109974 109647 109320 108993 108666 108339 108012 107685 107358 107031
          106704 106377 106050 105723 105396 105070 104743 104416 104089 103762 103435 103108
          102781 102454 102127 101800 101473 101148
        </DataArray>
        <DataArray type="Float32" Name="pc" NumberOfComponents="1" format="ascii">
          -85939.7 -85939.7 -85939.7 -85939.7 -85939.7 -85939.7 -85939.7 -85939.7 -85939.7 -85939.7 -85939.7 -85939.7
          -85939.7 -85939.7 -85939.7 -85939.7 -85939.7 -85939.7 -85939.7 -85939.7 -85939.7 -85939.7 -85939.7 -85939.7
          -85939.7 -85939.7 -85939.7 -85939.7 -85939.7 -85939.7
        </DataArray>
        <DataArray type="Float32" Name="rhoL" NumberOfComponents="1" format="ascii">
          999.855 999.855 999.855 999.855 999.855 999.854 999.854 999.854 999.854 999.854 999.854 999.854
          999.853 999.853 999.853 999.853 999.853 999.853 999.852 999.852 999.852 999.852 999.852 999.852
          999.852 999.851 999.851 999.851 999.851 999.851
        </DataArray>
        <DataArray type="Float32" Name="rhoG" NumberOfComponents="1" format="ascii">
          0.30585 0.3018 0.29775 0.293699 0.289649 0.285598 0.281548 0.277498 0.273447 0.269397 0.265347 0.261296
          0.257246 0.253195 0.249145 0.245095 0.241044 0.236994 0.232944 0.228893 0.224843 0.220793 0.216742 0.212692
          0.208641 0.204591 0.200541 0.19649 0.19244 0.18841
        </DataArray>
        <DataArray type="Float32" Name="mobL" NumberOfComponents="1" format="ascii">
          722.171 722.17 722.17 722.17 722.17 722.17 722.169 722.169 722.169 722.169 722.169 722.169
          722.168 722.168 722.168 722.168 722.168 722.167 722.167 722.167 722.167 722.167 722.166 722.166
          722.166 722.166 722.166 722.166 722.165 722.165
        </DataArray>
        <DataArray type="Float32" Name="mobG" NumberOfComponents="1" format="ascii">
          0 0 0 0 0 0 0 0 0 0 0 0
          0 0 0 0 0 0 0 0 0 0 0 0
          0 0 0 0 0 0
        </DataArray>
        <DataArray type="Float32" Name="porosity" NumberOfComponents="1" format="ascii">
          0.298685 0.298685 0.298685 0.298685 0.298684 0.298684 0.298683 0.298682 0.298681 0.298679 0.298676 0.298673
          0.298668 0.298661 0.298652 0.29864 0.298623 0.2986 0.29857 0.298528 0.298471 0.298392 0.298278 0.298109
          0.297575 0.297125 0.296248 0.29404 0.28437 0.0549276
        </DataArray>
        <DataArray type="Float32" Name="temperature" NumberOfComponents="1" format="ascii">
          281.15 281.15 281.15 281.15 281.15 281.15 281.15 281.15 281.15 281.15 281.15 281.15
          281.15 281.15 281.15 281.15 281.15 281.15 281.15 281.15 281.15 281.15 281.15 281.15
          281.15 281.15 281.15 281.15 281.15 281.15
        </DataArray>
        <DataArray type="Float32" Name="phase presence" NumberOfComponents="1" format="ascii">
          1 1 1 1 1 1 1 1 1 1 1 1
          1 1 1 1 1 1 1 1 1 1 1 1
          1 1 1 1 1 1
        </DataArray>
        <DataArray type="Float32" Name="precipitateVolumeFraction_au" NumberOfComponents="1" format="ascii">
          1.66515e-10 1.66538e-10 1.66538e-10 1.66541e-10 1.66549e-10 1.66545e-10 1.66538e-10 1.6654e-10 1.66538e-10 1.66545e-10 1.66544e-10 1.66551e-10
          1.66552e-10 1.66553e-10 1.66549e-10 1.66552e-10 1.66545e-10 1.66535e-10 1.66553e-10 1.66551e-10 1.66529e-10 1.6655e-10 1.66551e-10 2.05878e-10
          0.000269805 0.000269718 0.000269538 0.000269056 1.65456e-10 1.63929e-10
        </DataArray>
        <DataArray type="Float32" Name="precipitateVolumeFraction_nanoAu" NumberOfComponents="1" format="ascii">
          3.86211e-10 3.86303e-10 3.86304e-10 3.86313e-10 3.86341e-10 3.86324e-10 3.86295e-10 3.86299e-10 3.86292e-10 3.86314e-10 3.86308e-10 3.86327e-10
          3.86331e-10 3.86329e-10 3.86318e-10 3.86324e-10 3.863e-10 3.86272e-10 3.86321e-10 3.86313e-10 3.86251e-10 3.86309e-10 3.86369e-10 5.41727e-10
          1.95628e-07 2.82611e-07 4.65237e-07 9.40883e-07 3.86937e-10 3.79276e-10
        </DataArray>
        <DataArray type="Float32" Name="precipitateVolumeFraction_d" NumberOfComponents="1" format="ascii">
          0.000657442 0.000657506 0.000657597 0.000657725 0.000657904 0.000658156 0.000658509 0.000659 0.000659684 0.000660631 0.000661938 0.000663734
          0.00066619 0.000669537 0.000674083 0.000680238 0.000688559 0.000699808 0.000715046 0.000735797 0.000764327 0.00080416 0.000861114 0.000945514
          0.00107753 0.0013023 0.00174104 0.00284508 0.0078152 0.122536
        </DataArray>
        <DataArray type="Float32" Name="precipitateVolumeFraction_p" NumberOfComponents="1" format="ascii">
          0.000657442 0.000657506 0.000657597 0.000657725 0.000657904 0.000658156 0.000658509 0.000659 0.000659684 0.000660631 0.000661938 0.000663734
          0.00066619 0.000669537 0.000674083 0.000680238 0.000688559 0.000699808 0.000715046 0.000735797 0.000764327 0.00080416 0.000861114 0.000945514
          0.00107753 0.0013023 0.00174104 0.00284508 0.0078152 0.122536
        </DataArray>
        <DataArray type="Float32" Name="K" NumberOfComponents="1" format="ascii">
          9.83211e-11 9.8321e-11 9.83208e-11 9.83204e-11 9.832e-11 9.83193e-11 9.83184e-11 9.83172e-11 9.83155e-11 9.83131e-11 9.83097e-11 9.83052e-11
          9.8299e-11 9.82905e-11 9.8279e-11 9.82634e-11 9.82423e-11 9.82138e-11 9.81752e-11 9.81226e-11 9.80504e-11 9.79497e-11 9.78058e-11 9.75929e-11
          9.69218e-11 9.63598e-11 9.52706e-11 9.25743e-11 8.149e-11 3.36724e-13
        </DataArray>
        <DataArray type="Float32" Name="X^w_H2O" NumberOfComponents="1" format="ascii">
          0.999858 0.999858 0.999858 0.999858 0.999858 0.999858 0.999858 0.999858 0.999858 0.999858 0.999858 0.999858
          0.999858 0.999858 0.999858 0.999858 0.999858 0.999858 0.999858 0.999858 0.999858 0.999858 0.999858 0.999858
          0.999858 0.999858 0.999857 0.999854 0.999839 0.99984
        </DataArray>
        <DataArray type="Float32" Name="X^w_Air" NumberOfComponents="1" format="ascii">
          0 0 0 0 0 0 0 0 0 0 0 0
          0 0 0 0 0 0 0 0 0 0 0 0
          0 0 0 0 0 0
        </DataArray>
        <DataArray type="Float32" Name="X^w_AuComplex" NumberOfComponents="1" format="ascii">
          3.01177e-14 3.01167e-14 3.01089e-14 3.01019e-14 3.00966e-14 3.00879e-14 3.00786e-14 3.00718e-14 3.00644e-14 3.00594e-14 3.00522e-14 3.00469e-14
          3.00403e-14 3.0033e-14 3.00247e-14 3.0017e-14 3.0006e-14 2.99931e-14 2.99841e-14 2.99673e-14 2.99413e-14 2.99168e-14 2.98808e-14 4.28607e-14
          1.59231e-11 4.01408e-11 1.36886e-10 7.63541e-10 1.42414e-12 1.38084e-12
        </DataArray>
        <DataArray type="Float32" Name="X^w_nanoAu" NumberOfComponents="1" format="ascii">
          1.68178e-15 1.68218e-15 1.68218e-15 1.68222e-15 1.68234e-15 1.68226e-15 1.68214e-15 1.68215e-15 1.68212e-15 1.68222e-15 1.6822e-15 1.68228e-15
          1.68229e-15 1.68228e-15 1.68223e-15 1.68225e-15 1.68214e-15 1.68201e-15 1.68221e-15 1.68216e-15 1.68189e-15 1.68325e-15 1.78915e-15 1.15755e-14
          8.55879e-13 1.23909e-12 2.04676e-12 4.04903e-12 1.67999e-15 1.6103e-15
        </DataArray>
        <DataArray type="Float32" Name="X^w_cyanide" NumberOfComponents="1" format="ascii">
          4.11093e-07 4.10982e-07 4.10875e-07 4.10769e-07 4.10667e-07 4.10567e-07 4.1047e-07 4.10374e-07 4.1028e-07 4.10188e-07 4.10096e-07 4.10003e-07
          4.0991e-07 4.09813e-07 4.0971e-07 4.09599e-07 4.09474e-07 4.09329e-07 4.09154e-07 4.08933e-07 4.08643e-07 4.08248e-07 4.07683e-07 4.06837e-07
          4.05732e-07 7.20018e-07 1.51407e-06 4.228e-06 1.94029e-05 1.92001e-05
        </DataArray>
        <DataArray type="Float32" Name="X^w_citrate" NumberOfComponents="1" format="ascii">
          0.000141769 0.000141769 0.000141769 0.000141769 0.000141769 0.000141769 0.000141768 0.000141768 0.000141768 0.000141768 0.000141768 0.000141768
          0.000141768 0.000141768 0.000141768 0.000141767 0.000141767 0.000141766 0.000141765 0.000141764 0.000141762 0.00014176 0.000141756 0.00014175
          0.000141741 0.000141728 0.000141702 0.000141637 0.000141416 0.000139736
        </DataArray>
        <DataArray type="Float32" Name="X^w_substrate" NumberOfComponents="1" format="ascii">
          6.74642e-12 9.24655e-12 1.26725e-11 1.73669e-11 2.37996e-11 3.26146e-11 4.46955e-11 6.1255e-11 8.39595e-11 1.15102e-10 1.57844e-10 2.16555e-10
          2.97297e-10 4.08518e-10 5.62065e-10 7.7469e-10 1.07033e-09 1.48365e-09 2.06574e-09 2.89358e-09 4.08644e-09 5.83578e-09 8.46336e-09 1.25427e-08
          1.91788e-08 3.07401e-08 5.31312e-08 1.04859e-07 2.71622e-07 1.45662e-06
        </DataArray>
        <DataArray type="Float32" Name="m^w_H2O" NumberOfComponents="1" format="ascii">
          55492.8 55492.8 55492.8 55492.8 55492.8 55492.8 55492.8 55492.8 55492.7 55492.7 55492.7 55492.7
          55492.7 55492.7 55492.7 55492.7 55492.7 55492.7 55492.7 55492.7 55492.6 55492.6 55492.6 55492.6
          55492.6 55492.6 55492.5 55492.4 55491.5 55491.6
        </DataArray>
        <DataArray type="Float32" Name="m^w_Air" NumberOfComponents="1" format="ascii">
          0 0 0 0 0 0 0 0 0 0 0 0
          0 0 0 0 0 0 0 0 0 0 0 0
          0 0 0 0 0 0
        </DataArray>
        <DataArray type="Float32" Name="m^w_AuComplex" NumberOfComponents="1" format="ascii">
          1.52883e-10 1.52878e-10 1.52838e-10 1.52802e-10 1.52775e-10 1.52732e-10 1.52684e-10 1.5265e-10 1.52612e-10 1.52587e-10 1.5255e-10 1.52523e-10
          1.5249e-10 1.52453e-10 1.5241e-10 1.52371e-10 1.52315e-10 1.5225e-10 1.52204e-10 1.52119e-10 1.51987e-10 1.51862e-10 1.5168e-10 2.17568e-10
          8.08285e-08 2.03761e-07 6.94855e-07 3.87585e-06 7.22918e-09 7.00936e-09
        </DataArray>
        <DataArray type="Float32" Name="m^w_nanoAu" NumberOfComponents="1" format="ascii">
          8.53702e-12 8.53903e-12 8.53904e-12 8.53924e-12 8.53985e-12 8.53946e-12 8.53884e-12 8.53891e-12 8.53876e-12 8.53924e-12 8.53911e-12 8.53952e-12
          8.5396e-12 8.53953e-12 8.53928e-12 8.53939e-12 8.53882e-12 8.53817e-12 8.53919e-12 8.53893e-12 8.53754e-12 8.54447e-12 9.08199e-12 5.8759e-11
          4.34458e-09 6.28984e-09 1.03897e-08 2.05535e-08 8.52788e-12 8.17416e-12
        </DataArray>
        <DataArray type="Float32" Name="m^w_cyanide" NumberOfComponents="1" format="ascii">
          0.0157968 0.0157926 0.0157884 0.0157844 0.0157805 0.0157766 0.0157729 0.0157692 0.0157656 0.015762 0.0157585 0.0157549
          0.0157513 0.0157476 0.0157437 0.0157394 0.0157346 0.015729 0.0157223 0.0157138 0.0157027 0.0156874 0.0156657 0.0156332
          0.0155908 0.0276676 0.0581801 0.162466 0.74558 0.737787
        </DataArray>
        <DataArray type="Float32" Name="m^w_citrate" NumberOfComponents="1" format="ascii">
          0.749598 0.749597 0.749597 0.749597 0.749597 0.749596 0.749596 0.749596 0.749595 0.749595 0.749594 0.749593
          0.749593 0.749591 0.74959 0.749588 0.749586 0.749582 0.749578 0.749571 0.749562 0.749549 0.749529 0.749498
          0.749448 0.749381 0.74924 0.748897 0.74773 0.738845
        </DataArray>
        <DataArray type="Float32" Name="m^w_substrate" NumberOfComponents="1" format="ascii">
          3.74414e-08 5.13167e-08 7.03298e-08 9.6383e-08 1.32083e-07 1.81005e-07 2.48052e-07 3.39954e-07 4.65959e-07 6.38795e-07 8.76005e-07 1.20184e-06
          1.64994e-06 2.2672e-06 3.11935e-06 4.29938e-06 5.94011e-06 8.23395e-06 1.14644e-05 1.60588e-05 2.26789e-05 3.23874e-05 4.69699e-05 6.96092e-05
          0.000106439 0.000170601 0.000294867 0.000581946 0.00150745 0.00808392
        </DataArray>
        <DataArray type="Float32" Name="process rank" NumberOfComponents="1" format="ascii">
          0 0 0 0 0 0 0 0 0 0 0 0
          0 0 0 0 0 0 0 0 0 0 0 0
          0 0 0 0 0 0
        </DataArray>
      </CellData>
      <Points>
        <DataArray type="Float32" Name="Coordinates" NumberOfComponents="3" format="ascii">
          0 0 0 0.5 0 0 0 0.0333333 0 0.5 0.0333333 0
          0 0.0666667 0 0.5 0.0666667 0 0 0.1 0 0.5 0.1 0
          0 0.133333 0 0.5 0.133333 0 0 0.166667 0 0.5 0.166667 0
          0 0.2 0 0.5 0.2 0 0 0.233333 0 0.5 0.233333 0
          0 0.266667 0 0.5 0.266667 0 0 0.3 0 0.5 0.3 0
          0 0.333333 0 0.5 0.333333 0 0 0.366667 0 0.5 0.366667 0
          0 0.4 0 0.5 0.4 0 0 0.433333 0 0.5 0.433333 0
          0 0.466667 0 0.5 0.466667 0 0 0.5 0 0.5 0.5 0
          0 0.533333 0 0.5 0.533333 0 0 0.566667 0 0.5 0.566667 0
          0 0.6 0 0.5 0.6 0 0 0.633333 0 0.5 0.633333 0
          0 0.666667 0 0.5 0.666667 0 0 0.7 0 0.5 0.7 0
          0 0.733333 0 0.5 0.733333 0 0 0.766667 0 0.5 0.766667 0
          0 0.8 0 0.5 0.8 0 0 0.833333 0 0.5 0.833333 0
          0 0.866667 0 0.5 0.866667 0 0 0.9 0 0.5 0.9 0
          0 0.933333 0 0.5 0.933333 0 0 0.966667 0 0.5 0.966667 0
          0 1 0 0.5 1 0
        </DataArray>
      </Points>
      <Cells>
        <DataArray type="Int32" Name="connectivity" NumberOfComponents="1" format="ascii">
          0 1 3 2 2 3 5 4 4 5 7 6
          6 7 9 8 8 9 11 10 10 11 13 12
          12 13 15 14 14 15 17 16 16 17 19 18
          18 19 21 20 20 21 23 22 22 23 25 24
          24 25 27 26 26 27 29 28 28 29 31 30
          30 31 33 32 32 33 35 34 34 35 37 36
          36 37 39 38 38 39 41 40 40 41 43 42
          42 43 45 44 44 45 47 46 46 47 49 48
          48 49 51 50 50 51 53 52 52 53 55 54
          54 55 57 56 56 57 59 58 58 59 61 60
        </DataArray>
        <DataArray type="Int32" Name="offsets" NumberOfComponents="1" format="ascii">
          4 8 12 16 20 24 28 32 36 40 44 48
          52 56 60 64 68 72 76 80 84 88 92 96
          100 104 108 112 116 120
        </DataArray>
        <DataArray type="UInt8" Name="types" NumberOfComponents="1" format="ascii">
          9 9 9 9 9 9 9 9 9 9 9 9
          9 9 9 9 9 9 9 9 9 9 9 9
          9 9 9 9 9 9
        </DataArray>
      </Cells>
    </Piece>
  </UnstructuredGrid>
</VTKFile>
