<?xml version="1.0"?>
<VTKFile type="UnstructuredGrid" version="0.1" byte_order="LittleEndian">
  <UnstructuredGrid>
    <Piece NumberOfCells="30" NumberOfPoints="62">
      <CellData Scalars="Sg">
        <DataArray type="Float32" Name="Sg" NumberOfComponents="1" format="ascii">
          0 0 0 0 0 0 0 0 0 0 0 0
          0 0 0 0 0 0 0 0 0 0 0 0
          0 0 0 0 0 0
        </DataArray>
        <DataArray type="Float32" Name="Sl" NumberOfComponents="1" format="ascii">
          1 1 1 1 1 1 1 1 1 1 1 1
          1 1 1 1 1 1 1 1 1 1 1 1
          1 1 1 1 1 1
        </DataArray>
        <DataArray type="Float32" Name="pg" NumberOfComponents="1" format="ascii">
          24687.8 24360.9 24034 23707 23380.1 23053.1 22726.2 22399.3 22072.3 21745.4 21418.4 21091.5
          20764.6 20437.6 20110.7 19783.7 19456.8 19129.8 18802.9 18476 18149 17822.1 17495.1 17168.2
          16841.3 16514.3 16187.4 15860.4 15533.5 15209.9
        </DataArray>
        <DataArray type="Float32" Name="pl" NumberOfComponents="1" format="ascii">
          110628 110301 109974 109647 109320 108993 108666 108339 108012 107685 107358 107031
          106704 106377 106050 105723 105396 105070 104743 104416 104089 103762 103435 103108
          102781 102454 102127 101800 101473 101150
        </DataArray>
        <DataArray type="Float32" Name="pc" NumberOfComponents="1" format="ascii">
          -85939.7 -85939.7 -85939.7 -85939.7 -85939.7 -85939.7 -85939.7 -85939.7 -85939.7 -85939.7 -85939.7 -85939.7
          -85939.7 -85939.7 -85939.7 -85939.7 -85939.7 -85939.7 -85939.7 -85939.7 -85939.7 -85939.7 -85939.7 -85939.7
          -85939.7 -85939.7 -85939.7 -85939.7 -85939.7 -85939.7
        </DataArray>
        <DataArray type="Float32" Name="rhoL" NumberOfComponents="1" format="ascii">
          999.855 999.855 999.855 999.855 999.855 999.854 999.854 999.854 999.854 999.854 999.854 999.854
          999.853 999.853 999.853 999.853 999.853 999.853 999.852 999.852 999.852 999.852 999.852 999.852
          999.852 999.851 999.851 999.851 999.851 999.851
        </DataArray>
        <DataArray type="Float32" Name="rhoG" NumberOfComponents="1" format="ascii">
          0.30585 0.3018 0.29775 0.293699 0.289649 0.285598 0.281548 0.277498 0.273447 0.269397 0.265347 0.261296
          0.257246 0.253195 0.249145 0.245095 0.241044 0.236994 0.232944 0.228893 0.224843 0.220793 0.216742 0.212692
          0.208641 0.204591 0.200541 0.19649 0.19244 0.188431
        </DataArray>
        <DataArray type="Float32" Name="mobL" NumberOfComponents="1" format="ascii">
          722.171 722.17 722.17 722.17 722.17 722.17 722.169 722.169 722.169 722.169 722.169 722.169
          722.168 722.168 722.168 722.168 722.168 722.167 722.167 722.167 722.167 722.167 722.166 722.166
          722.166 722.166 722.166 722.166 722.165 722.165
        </DataArray>
        <DataArray type="Float32" Name="mobG" NumberOfComponents="1" format="ascii">
          0 0 0 0 0 0 0 0 0 0 0 0
          0 0 0 0 0 0 0 0 0 0 0 0
          0 0 0 0 0 0
        </DataArray>
        <DataArray type="Float32" Name="porosity" NumberOfComponents="1" format="ascii">
          0.298709 0.298709 0.298708 0.298708 0.298708 0.298707 0.298707 0.298706 0.298704 0.298702 0.2987 0.298696
          0.298692 0.298685 0.298676 0.298664 0.298647 0.298625 0.298595 0.298554 0.298498 0.298419 0.298307 0.298139
          0.297607 0.297159 0.296279 0.294039 0.283937 0.0436728
        </DataArray>
        <DataArray type="Float32" Name="temperature" NumberOfComponents="1" format="ascii">
          281.15 281.15 281.15 281.15 281.15 281.15 281.15 281.15 281.15 281.15 281.15 281.15
          281.15 281.15 281.15 281.15 281.15 281.15 281.15 281.15 281.15 281.15 281.15 281.15
          281.15 281.15 281.15 281.15 281.15 281.15
        </DataArray>
        <DataArray type="Float32" Name="phase presence" NumberOfComponents="1" format="ascii">
          1 1 1 1 1 1 1 1 1 1 1 1
          1 1 1 1 1 1 1 1 1 1 1 1
          1 1 1 1 1 1
        </DataArray>
        <DataArray type="Float32" Name="precipitateVolumeFraction_au" NumberOfComponents="1" format="ascii">
          5.52607e-10 5.52799e-10 5.52705e-10 5.52754e-10 5.52729e-10 5.52753e-10 5.52769e-10 5.52767e-10 5.52767e-10 5.52745e-10 5.52764e-10 5.52772e-10
          5.52745e-10 5.52767e-10 5.52739e-10 5.5273e-10 5.52724e-10 5.52769e-10 5.52779e-10 5.5279e-10 5.52742e-10 5.52719e-10 5.52985e-10 9.97415e-10
          0.00026994 0.000269924 0.000269899 0.000269853 5.52533e-10 5.51073e-10
        </DataArray>
        <DataArray type="Float32" Name="precipitateVolumeFraction_nanoAu" NumberOfComponents="1" format="ascii">
          1.23656e-13 1.237e-13 1.23678e-13 1.23689e-13 1.23683e-13 1.23688e-13 1.23691e-13 1.2369e-13 1.2369e-13 1.23684e-13 1.23688e-13 1.23689e-13
          1.23683e-13 1.23687e-13 1.2368e-13 1.23676e-13 1.23674e-13 1.23681e-13 1.23681e-13 1.23679e-13 1.23663e-13 1.23666e-13 1.35602e-13 2.57908e-11
          6.03747e-08 7.66979e-08 1.0216e-07 1.45577e-07 4.74403e-13 4.67069e-13
        </DataArray>
        <DataArray type="Float32" Name="precipitateVolumeFraction_d" NumberOfComponents="1" format="ascii">
          0.000645614 0.000645678 0.000645767 0.000645892 0.000646069 0.000646317 0.000646664 0.000647148 0.000647821 0.000648753 0.00065004 0.000651807
          0.000654225 0.000657521 0.000661997 0.000668061 0.00067626 0.000687346 0.000702371 0.000722843 0.000751008 0.000790366 0.000846705 0.000930326
          0.00106143 0.00128544 0.00172535 0.0028454 0.00803164 0.128164
        </DataArray>
        <DataArray type="Float32" Name="precipitateVolumeFraction_p" NumberOfComponents="1" format="ascii">
          0.000645614 0.000645678 0.000645767 0.000645892 0.000646069 0.000646317 0.000646664 0.000647148 0.000647821 0.000648753 0.00065004 0.000651807
          0.000654225 0.000657521 0.000661997 0.000668061 0.00067626 0.000687346 0.000702371 0.000722843 0.000751008 0.000790366 0.000846705 0.000930326
          0.00106143 0.00128544 0.00172535 0.0028454 0.00803164 0.128164
        </DataArray>
        <DataArray type="Float32" Name="K" NumberOfComponents="1" format="ascii">
          9.83511e-11 9.8351e-11 9.83508e-11 9.83504e-11 9.835e-11 9.83494e-11 9.83485e-11 9.83473e-11 9.83455e-11 9.83432e-11 9.83399e-11 9.83354e-11
          9.83293e-11 9.83209e-11 9.83096e-11 9.82942e-11 9.82734e-11 9.82453e-11 9.82073e-11 9.81554e-11 9.80841e-11 9.79845e-11 9.78422e-11 9.76312e-11
          9.69621e-11 9.64019e-11 9.53094e-11 9.25735e-11 8.10204e-11 1.65292e-13
        </DataArray>
        <DataArray type="Float32" Name="X^w_H2O" NumberOfComponents="1" format="ascii">
          0.999853 0.999853 0.999853 0.999853 0.999853 0.999853 0.999853 0.999853 0.999853 0.999853 0.999853 0.999853
          0.999853 0.999853 0.999853 0.999853 0.999853 0.999853 0.999853 0.999853 0.999853 0.999853 0.999853 0.999853
          0.999853 0.999852 0.99985 0.999846 0.999839 0.99984
        </DataArray>
        <DataArray type="Float32" Name="X^w_Air" NumberOfComponents="1" format="ascii">
          0 0 0 0 0 0 0 0 0 0 0 0
          0 0 0 0 0 0 0 0 0 0 0 0
          0 0 0 0 0 0
        </DataArray>
        <DataArray type="Float32" Name="X^w_AuComplex" NumberOfComponents="1" format="ascii">
          1.41104e-16 1.41153e-16 1.41128e-16 1.41141e-16 1.41133e-16 1.41139e-16 1.41142e-16 1.41141e-16 1.4114e-16 1.41134e-16 1.41138e-16 1.41139e-16
          1.41131e-16 1.41135e-16 1.41126e-16 1.41121e-16 1.41116e-16 1.41123e-16 1.41119e-16 1.41114e-16 1.4109e-16 1.41083e-16 1.54497e-16 2.94011e-14
          6.88572e-11 1.07403e-10 1.84447e-10 3.6405e-10 1.83637e-15 1.78772e-15
        </DataArray>
        <DataArray type="Float32" Name="X^w_nanoAu" NumberOfComponents="1" format="ascii">
          5.38568e-19 5.38755e-19 5.38662e-19 5.38708e-19 5.38682e-19 5.38704e-19 5.38718e-19 5.38714e-19 5.38712e-19 5.38688e-19 5.38704e-19 5.38709e-19
          5.3868e-19 5.38697e-19 5.38665e-19 5.38649e-19 5.38636e-19 5.38667e-19 5.38661e-19 5.3869e-19 5.42301e-19 8.83904e-19 3.25224e-17 2.95809e-15
          2.63685e-13 3.35169e-13 4.46692e-13 6.26593e-13 2.06019e-18 1.98433e-18
        </DataArray>
        <DataArray type="Float32" Name="X^w_cyanide" NumberOfComponents="1" format="ascii">
          5.07125e-06 5.07124e-06 5.07123e-06 5.07122e-06 5.07121e-06 5.0712e-06 5.07119e-06 5.07118e-06 5.07117e-06 5.07115e-06 5.07114e-06 5.07112e-06
          5.07109e-06 5.07106e-06 5.07103e-06 5.07098e-06 5.07092e-06 5.07083e-06 5.07071e-06 5.07055e-06 5.07032e-06 5.06999e-06 5.0695e-06 5.06874e-06
          5.06801e-06 6.43779e-06 8.57353e-06 1.22389e-05 1.94622e-05 1.92401e-05
        </DataArray>
        <DataArray type="Float32" Name="X^w_citrate" NumberOfComponents="1" format="ascii">
          0.000141796 0.000141796 0.000141796 0.000141796 0.000141796 0.000141796 0.000141796 0.000141796 0.000141796 0.000141796 0.000141796 0.000141796
          0.000141796 0.000141795 0.000141795 0.000141795 0.000141795 0.000141794 0.000141793 0.000141792 0.00014179 0.000141788 0.000141785 0.000141779
          0.00014177 0.000141756 0.000141727 0.000141661 0.000141441 0.000139826
        </DataArray>
        <DataArray type="Float32" Name="X^w_substrate" NumberOfComponents="1" format="ascii">
          7.18513e-12 9.80143e-12 1.33697e-11 1.82362e-11 2.48733e-11 3.39258e-11 4.62739e-11 6.31203e-11 8.61099e-11 1.17496e-10 1.6037e-10 2.18986e-10
          2.9922e-10 4.09222e-10 5.60374e-10 7.68699e-10 1.05699e-09 1.45814e-09 2.02042e-09 2.81629e-09 3.95761e-09 5.62337e-09 8.11348e-09 1.19611e-08
          1.81916e-08 2.89997e-08 4.98598e-08 9.79858e-08 2.53896e-07 1.39268e-06
        </DataArray>
        <DataArray type="Float32" Name="m^w_H2O" NumberOfComponents="1" format="ascii">
          55492.6 55492.6 55492.5 55492.5 55492.5 55492.5 55492.5 55492.5 55492.5 55492.5 55492.5 55492.5
          55492.5 55492.4 55492.4 55492.4 55492.4 55492.4 55492.4 55492.4 55492.4 55492.4 55492.4 55492.4
          55492.3 55492.3 55492.1 55491.9 55491.5 55491.6
        </DataArray>
        <DataArray type="Float32" Name="m^w_Air" NumberOfComponents="1" format="ascii">
          0 0 0 0 0 0 0 0 0 0 0 0
          0 0 0 0 0 0 0 0 0 0 0 0
          0 0 0 0 0 0
        </DataArray>
        <DataArray type="Float32" Name="m^w_AuComplex" NumberOfComponents="1" format="ascii">
          7.16269e-13 7.16519e-13 7.16393e-13 7.16454e-13 7.16418e-13 7.16446e-13 7.16463e-13 7.16457e-13 7.16453e-13 7.1642e-13 7.1644e-13 7.16444e-13
          7.16403e-13 7.16423e-13 7.16378e-13 7.16353e-13 7.16328e-13 7.16363e-13 7.16345e-13 7.16317e-13 7.16195e-13 7.16163e-13 7.84252e-13 1.49245e-10
          3.4953e-07 5.45193e-07 9.36283e-07 1.84798e-06 9.3217e-12 9.07475e-12
        </DataArray>
        <DataArray type="Float32" Name="m^w_nanoAu" NumberOfComponents="1" format="ascii">
          2.73387e-15 2.73481e-15 2.73434e-15 2.73458e-15 2.73444e-15 2.73456e-15 2.73462e-15 2.73461e-15 2.7346e-15 2.73447e-15 2.73456e-15 2.73458e-15
          2.73443e-15 2.73452e-15 2.73435e-15 2.73428e-15 2.7342e-15 2.73436e-15 2.73433e-15 2.73448e-15 2.75281e-15 4.48684e-15 1.65089e-13 1.50158e-11
          1.33851e-09 1.70137e-09 2.26748e-09 3.18068e-09 1.04579e-14 1.00728e-14
        </DataArray>
        <DataArray type="Float32" Name="m^w_cyanide" NumberOfComponents="1" format="ascii">
          0.19487 0.19487 0.194869 0.194869 0.194868 0.194868 0.194867 0.194867 0.194866 0.194866 0.194865 0.194864
          0.194864 0.194862 0.194861 0.194859 0.194857 0.194853 0.194849 0.194843 0.194834 0.194821 0.194802 0.194773
          0.194745 0.24738 0.329449 0.470293 0.747861 0.739323
        </DataArray>
        <DataArray type="Float32" Name="m^w_citrate" NumberOfComponents="1" format="ascii">
          0.749742 0.749742 0.749742 0.749742 0.749742 0.749741 0.749741 0.749741 0.749741 0.74974 0.74974 0.749739
          0.749739 0.749738 0.749736 0.749735 0.749733 0.749729 0.749725 0.749719 0.74971 0.749698 0.749679 0.74965
          0.749603 0.749527 0.749377 0.749023 0.747863 0.739324
        </DataArray>
        <DataArray type="Float32" Name="m^w_substrate" NumberOfComponents="1" format="ascii">
          3.98761e-08 5.43962e-08 7.41993e-08 1.01207e-07 1.38042e-07 1.88282e-07 2.56811e-07 3.50306e-07 4.77893e-07 6.52079e-07 8.90021e-07 1.21533e-06
          1.66061e-06 2.2711e-06 3.10997e-06 4.26613e-06 5.86611e-06 8.09241e-06 1.1213e-05 1.56299e-05 2.19639e-05 3.12086e-05 4.50282e-05 6.63816e-05
          0.00010096 0.000160942 0.000276712 0.000543801 0.00140907 0.00772911
        </DataArray>
        <DataArray type="Float32" Name="process rank" NumberOfComponents="1" format="ascii">
          0 0 0 0 0 0 0 0 0 0 0 0
          0 0 0 0 0 0 0 0 0 0 0 0
          0 0 0 0 0 0
        </DataArray>
      </CellData>
      <Points>
        <DataArray type="Float32" Name="Coordinates" NumberOfComponents="3" format="ascii">
          0 0 0 0.5 0 0 0 0.0333333 0 0.5 0.0333333 0
          0 0.0666667 0 0.5 0.0666667 0 0 0.1 0 0.5 0.1 0
          0 0.133333 0 0.5 0.133333 0 0 0.166667 0 0.5 0.166667 0
          0 0.2 0 0.5 0.2 0 0 0.233333 0 0.5 0.233333 0
          0 0.266667 0 0.5 0.266667 0 0 0.3 0 0.5 0.3 0
          0 0.333333 0 0.5 0.333333 0 0 0.366667 0 0.5 0.366667 0
          0 0.4 0 0.5 0.4 0 0 0.433333 0 0.5 0.433333 0
          0 0.466667 0 0.5 0.466667 0 0 0.5 0 0.5 0.5 0
          0 0.533333 0 0.5 0.533333 0 0 0.566667 0 0.5 0.566667 0
          0 0.6 0 0.5 0.6 0 0 0.633333 0 0.5 0.633333 0
          0 0.666667 0 0.5 0.666667 0 0 0.7 0 0.5 0.7 0
          0 0.733333 0 0.5 0.733333 0 0 0.766667 0 0.5 0.766667 0
          0 0.8 0 0.5 0.8 0 0 0.833333 0 0.5 0.833333 0
          0 0.866667 0 0.5 0.866667 0 0 0.9 0 0.5 0.9 0
          0 0.933333 0 0.5 0.933333 0 0 0.966667 0 0.5 0.966667 0
          0 1 0 0.5 1 0
        </DataArray>
      </Points>
      <Cells>
        <DataArray type="Int32" Name="connectivity" NumberOfComponents="1" format="ascii">
          0 1 3 2 2 3 5 4 4 5 7 6
          6 7 9 8 8 9 11 10 10 11 13 12
          12 13 15 14 14 15 17 16 16 17 19 18
          18 19 21 20 20 21 23 22 22 23 25 24
          24 25 27 26 26 27 29 28 28 29 31 30
          30 31 33 32 32 33 35 34 34 35 37 36
          36 37 39 38 38 39 41 40 40 41 43 42
          42 43 45 44 44 45 47 46 46 47 49 48
          48 49 51 50 50 51 53 52 52 53 55 54
          54 55 57 56 56 57 59 58 58 59 61 60
        </DataArray>
        <DataArray type="Int32" Name="offsets" NumberOfComponents="1" format="ascii">
          4 8 12 16 20 24 28 32 36 40 44 48
          52 56 60 64 68 72 76 80 84 88 92 96
          100 104 108 112 116 120
        </DataArray>
        <DataArray type="UInt8" Name="types" NumberOfComponents="1" format="ascii">
          9 9 9 9 9 9 9 9 9 9 9 9
          9 9 9 9 9 9 9 9 9 9 9 9
          9 9 9 9 9 9
        </DataArray>
      </Cells>
    </Piece>
  </UnstructuredGrid>
</VTKFile>
