<?xml version="1.0"?>
<VTKFile type="UnstructuredGrid" version="0.1" byte_order="LittleEndian">
  <UnstructuredGrid>
    <Piece NumberOfCells="30" NumberOfPoints="62">
      <CellData Scalars="Sg">
        <DataArray type="Float32" Name="Sg" NumberOfComponents="1" format="ascii">
          0 0 0 0 0 0 0 0 0 0 0 0
          0 0 0 0 0 0 0 0 0 0 0 0
          0 0 0 0 0 0
        </DataArray>
        <DataArray type="Float32" Name="Sl" NumberOfComponents="1" format="ascii">
          1 1 1 1 1 1 1 1 1 1 1 1
          1 1 1 1 1 1 1 1 1 1 1 1
          1 1 1 1 1 1
        </DataArray>
        <DataArray type="Float32" Name="pg" NumberOfComponents="1" format="ascii">
          24687.8 24360.9 24034 23707 23380.1 23053.1 22726.2 22399.3 22072.3 21745.4 21418.4 21091.5
          20764.6 20437.6 20110.7 19783.7 19456.8 19129.8 18802.9 18476 18149 17822.1 17495.1 17168.2
          16841.3 16514.3 16187.4 15860.4 15533.5 15211.2
        </DataArray>
        <DataArray type="Float32" Name="pl" NumberOfComponents="1" format="ascii">
          110628 110301 109974 109647 109320 108993 108666 108339 108012 107685 107358 107031
          106704 106377 106050 105723 105396 105070 104743 104416 104089 103762 103435 103108
          102781 102454 102127 101800 101473 101151
        </DataArray>
        <DataArray type="Float32" Name="pc" NumberOfComponents="1" format="ascii">
          -85939.7 -85939.7 -85939.7 -85939.7 -85939.7 -85939.7 -85939.7 -85939.7 -85939.7 -85939.7 -85939.7 -85939.7
          -85939.7 -85939.7 -85939.7 -85939.7 -85939.7 -85939.7 -85939.7 -85939.7 -85939.7 -85939.7 -85939.7 -85939.7
          -85939.7 -85939.7 -85939.7 -85939.7 -85939.7 -85939.7
        </DataArray>
        <DataArray type="Float32" Name="rhoL" NumberOfComponents="1" format="ascii">
          999.855 999.855 999.855 999.855 999.855 999.854 999.854 999.854 999.854 999.854 999.854 999.854
          999.853 999.853 999.853 999.853 999.853 999.853 999.852 999.852 999.852 999.852 999.852 999.852
          999.852 999.851 999.851 999.851 999.851 999.851
        </DataArray>
        <DataArray type="Float32" Name="rhoG" NumberOfComponents="1" format="ascii">
          0.30585 0.3018 0.29775 0.293699 0.289649 0.285598 0.281548 0.277498 0.273447 0.269397 0.265347 0.261296
          0.257246 0.253195 0.249145 0.245095 0.241044 0.236994 0.232944 0.228893 0.224843 0.220793 0.216742 0.212692
          0.208641 0.204591 0.200541 0.19649 0.19244 0.188447
        </DataArray>
        <DataArray type="Float32" Name="mobL" NumberOfComponents="1" format="ascii">
          722.171 722.17 722.17 722.17 722.17 722.17 722.169 722.169 722.169 722.169 722.169 722.169
          722.168 722.168 722.168 722.168 722.168 722.167 722.167 722.167 722.167 722.167 722.166 722.166
          722.166 722.166 722.166 722.166 722.165 722.165
        </DataArray>
        <DataArray type="Float32" Name="mobG" NumberOfComponents="1" format="ascii">
          0 0 0 0 0 0 0 0 0 0 0 0
          0 0 0 0 0 0 0 0 0 0 0 0
          0 0 0 0 0 0
        </DataArray>
        <DataArray type="Float32" Name="porosity" NumberOfComponents="1" format="ascii">
          0.298775 0.298774 0.298774 0.298774 0.298774 0.298773 0.298773 0.298772 0.29877 0.298769 0.298766 0.298763
          0.298758 0.298752 0.298743 0.298732 0.298716 0.298695 0.298666 0.298626 0.298572 0.298496 0.298388 0.298226
          0.2977 0.297261 0.296389 0.294116 0.283311 0.0391732
        </DataArray>
        <DataArray type="Float32" Name="temperature" NumberOfComponents="1" format="ascii">
          281.15 281.15 281.15 281.15 281.15 281.15 281.15 281.15 281.15 281.15 281.15 281.15
          281.15 281.15 281.15 281.15 281.15 281.15 281.15 281.15 281.15 281.15 281.15 281.15
          281.15 281.15 281.15 281.15 281.15 281.15
        </DataArray>
        <DataArray type="Float32" Name="phase presence" NumberOfComponents="1" format="ascii">
          1 1 1 1 1 1 1 1 1 1 1 1
          1 1 1 1 1 1 1 1 1 1 1 1
          1 1 1 1 1 1
        </DataArray>
        <DataArray type="Float32" Name="precipitateVolumeFraction_au" NumberOfComponents="1" format="ascii">
          5.52607e-10 5.52799e-10 5.52705e-10 5.52754e-10 5.52729e-10 5.52753e-10 5.52769e-10 5.52767e-10 5.52767e-10 5.52745e-10 5.52764e-10 5.52772e-10
          5.52745e-10 5.52767e-10 5.52739e-10 5.5273e-10 5.52724e-10 5.52769e-10 5.52779e-10 5.5279e-10 5.52742e-10 5.52719e-10 5.53047e-10 1.12991e-09
          0.000269941 0.000269924 0.0002699 0.000269852 5.52533e-10 5.51069e-10
        </DataArray>
        <DataArray type="Float32" Name="precipitateVolumeFraction_nanoAu" NumberOfComponents="1" format="ascii">
          1.23622e-13 1.23665e-13 1.23644e-13 1.23655e-13 1.23649e-13 1.23654e-13 1.23658e-13 1.23657e-13 1.23657e-13 1.23652e-13 1.23656e-13 1.23657e-13
          1.23651e-13 1.23655e-13 1.23648e-13 1.23645e-13 1.23642e-13 1.2365e-13 1.23649e-13 1.23648e-13 1.23632e-13 1.23635e-13 1.35585e-13 2.58061e-11
          6.03647e-08 7.6687e-08 1.0215e-07 1.45573e-07 4.74463e-13 4.67211e-13
        </DataArray>
        <DataArray type="Float32" Name="precipitateVolumeFraction_d" NumberOfComponents="1" format="ascii">
          0.000612693 0.000612754 0.000612839 0.00061296 0.000613129 0.000613367 0.0006137 0.000614164 0.000614808 0.000615701 0.000616933 0.000618625
          0.000620941 0.000624097 0.000628385 0.000634193 0.000642051 0.000652683 0.000667101 0.000686766 0.000713856 0.000751777 0.000806186 0.000887201
          0.00101481 0.00123439 0.00167073 0.00280703 0.00834441 0.130413
        </DataArray>
        <DataArray type="Float32" Name="precipitateVolumeFraction_p" NumberOfComponents="1" format="ascii">
          0.000612693 0.000612754 0.000612839 0.00061296 0.000613129 0.000613367 0.0006137 0.000614164 0.000614808 0.000615701 0.000616933 0.000618625
          0.000620941 0.000624097 0.000628385 0.000634193 0.000642051 0.000652683 0.000667101 0.000686766 0.000713856 0.000751777 0.000806186 0.000887201
          0.00101481 0.00123439 0.00167073 0.00280703 0.00834441 0.130413
        </DataArray>
        <DataArray type="Float32" Name="K" NumberOfComponents="1" format="ascii">
          9.84347e-11 9.84345e-11 9.84343e-11 9.8434e-11 9.84336e-11 9.8433e-11 9.84321e-11 9.8431e-11 9.84293e-11 9.8427e-11 9.84239e-11 9.84196e-11
          9.84137e-11 9.84057e-11 9.83949e-11 9.83801e-11 9.83602e-11 9.83332e-11 9.82967e-11 9.82468e-11 9.81782e-11 9.80822e-11 9.79445e-11 9.77399e-11
          9.70791e-11 9.65293e-11 9.54445e-11 9.26662e-11 8.03456e-11 1.1817e-13
        </DataArray>
        <DataArray type="Float32" Name="X^w_H2O" NumberOfComponents="1" format="ascii">
          0.999853 0.999853 0.999853 0.999853 0.999853 0.999853 0.999853 0.999853 0.999853 0.999853 0.999853 0.999853
          0.999853 0.999853 0.999853 0.999853 0.999853 0.999853 0.999853 0.999853 0.999853 0.999853 0.999853 0.999853
          0.999853 0.999852 0.99985 0.999846 0.999839 0.99984
        </DataArray>
        <DataArray type="Float32" Name="X^w_Air" NumberOfComponents="1" format="ascii">
          0 0 0 0 0 0 0 0 0 0 0 0
          0 0 0 0 0 0 0 0 0 0 0 0
          0 0 0 0 0 0
        </DataArray>
        <DataArray type="Float32" Name="X^w_AuComplex" NumberOfComponents="1" format="ascii">
          1.41048e-16 1.41097e-16 1.41073e-16 1.41086e-16 1.41079e-16 1.41085e-16 1.41089e-16 1.41088e-16 1.41088e-16 1.41082e-16 1.41086e-16 1.41087e-16
          1.41079e-16 1.41084e-16 1.41075e-16 1.4107e-16 1.41066e-16 1.41073e-16 1.41069e-16 1.41064e-16 1.4104e-16 1.41034e-16 1.54463e-16 2.94157e-14
          6.88387e-11 1.07377e-10 1.84416e-10 3.64037e-10 1.83681e-15 1.78867e-15
        </DataArray>
        <DataArray type="Float32" Name="X^w_nanoAu" NumberOfComponents="1" format="ascii">
          5.38419e-19 5.38602e-19 5.38512e-19 5.38559e-19 5.38534e-19 5.38557e-19 5.38571e-19 5.38569e-19 5.38568e-19 5.38545e-19 5.38562e-19 5.38568e-19
          5.3854e-19 5.38557e-19 5.38526e-19 5.38511e-19 5.38497e-19 5.38529e-19 5.38524e-19 5.38552e-19 5.42161e-19 8.83556e-19 3.25079e-17 2.95723e-15
          2.63641e-13 3.35122e-13 4.46654e-13 6.26604e-13 2.06071e-18 1.98542e-18
        </DataArray>
        <DataArray type="Float32" Name="X^w_cyanide" NumberOfComponents="1" format="ascii">
          5.07043e-06 5.07043e-06 5.07043e-06 5.07043e-06 5.07043e-06 5.07043e-06 5.07042e-06 5.07042e-06 5.07041e-06 5.07041e-06 5.0704e-06 5.07038e-06
          5.07037e-06 5.07034e-06 5.07031e-06 5.07026e-06 5.0702e-06 5.07012e-06 5.07e-06 5.06984e-06 5.06961e-06 5.06928e-06 5.06879e-06 5.06805e-06
          5.06735e-06 6.43707e-06 8.57286e-06 1.22387e-05 1.94646e-05 1.92447e-05
        </DataArray>
        <DataArray type="Float32" Name="X^w_citrate" NumberOfComponents="1" format="ascii">
          0.000141796 0.000141796 0.000141796 0.000141796 0.000141796 0.000141796 0.000141796 0.000141796 0.000141796 0.000141796 0.000141796 0.000141796
          0.000141796 0.000141795 0.000141795 0.000141795 0.000141794 0.000141794 0.000141793 0.000141792 0.00014179 0.000141788 0.000141784 0.000141779
          0.00014177 0.000141756 0.000141729 0.000141666 0.000141459 0.00013986
        </DataArray>
        <DataArray type="Float32" Name="X^w_substrate" NumberOfComponents="1" format="ascii">
          1.00897e-11 1.35801e-11 1.8277e-11 2.45974e-11 3.31024e-11 4.45477e-11 5.99514e-11 8.06862e-11 1.08605e-10 1.4621e-10 1.96895e-10 2.65265e-10
          3.57598e-10 4.82495e-10 6.51814e-10 8.82046e-10 1.19637e-09 1.62784e-09 2.22444e-09 3.05738e-09 4.23554e-09 5.93146e-09 8.43165e-09 1.22415e-08
          1.83264e-08 2.87426e-08 4.86067e-08 9.40575e-08 2.41751e-07 1.36867e-06
        </DataArray>
        <DataArray type="Float32" Name="m^w_H2O" NumberOfComponents="1" format="ascii">
          55492.6 55492.6 55492.5 55492.5 55492.5 55492.5 55492.5 55492.5 55492.5 55492.5 55492.5 55492.5
          55492.5 55492.4 55492.4 55492.4 55492.4 55492.4 55492.4 55492.4 55492.4 55492.4 55492.4 55492.4
          55492.3 55492.3 55492.1 55491.9 55491.5 55491.5
        </DataArray>
        <DataArray type="Float32" Name="m^w_Air" NumberOfComponents="1" format="ascii">
          0 0 0 0 0 0 0 0 0 0 0 0
          0 0 0 0 0 0 0 0 0 0 0 0
          0 0 0 0 0 0
        </DataArray>
        <DataArray type="Float32" Name="m^w_AuComplex" NumberOfComponents="1" format="ascii">
          7.15987e-13 7.16234e-13 7.16113e-13 7.16175e-13 7.16141e-13 7.16172e-13 7.16191e-13 7.16188e-13 7.16186e-13 7.16155e-13 7.16177e-13 7.16183e-13
          7.16144e-13 7.16165e-13 7.16121e-13 7.16097e-13 7.16073e-13 7.16109e-13 7.16091e-13 7.16064e-13 7.15942e-13 7.15911e-13 7.84079e-13 1.49319e-10
          3.49436e-07 5.45065e-07 9.36126e-07 1.84791e-06 9.32394e-12 9.07955e-12
        </DataArray>
        <DataArray type="Float32" Name="m^w_nanoAu" NumberOfComponents="1" format="ascii">
          2.73311e-15 2.73404e-15 2.73358e-15 2.73382e-15 2.73369e-15 2.73381e-15 2.73388e-15 2.73387e-15 2.73386e-15 2.73375e-15 2.73384e-15 2.73386e-15
          2.73372e-15 2.73381e-15 2.73365e-15 2.73357e-15 2.7335e-15 2.73366e-15 2.73364e-15 2.73378e-15 2.7521e-15 4.48507e-15 1.65015e-13 1.50114e-11
          1.33828e-09 1.70113e-09 2.26728e-09 3.18074e-09 1.04605e-14 1.00783e-14
        </DataArray>
        <DataArray type="Float32" Name="m^w_cyanide" NumberOfComponents="1" format="ascii">
          0.194839 0.194839 0.194838 0.194838 0.194838 0.194838 0.194838 0.194838 0.194838 0.194837 0.194837 0.194836
          0.194836 0.194835 0.194833 0.194832 0.194829 0.194826 0.194821 0.194815 0.194806 0.194794 0.194775 0.194746
          0.19472 0.247352 0.329423 0.470287 0.747952 0.739503
        </DataArray>
        <DataArray type="Float32" Name="m^w_citrate" NumberOfComponents="1" format="ascii">
          0.749742 0.749742 0.749742 0.749742 0.749742 0.749741 0.749741 0.749741 0.749741 0.74974 0.74974 0.749739
          0.749738 0.749737 0.749736 0.749734 0.749731 0.749728 0.749724 0.749717 0.749708 0.749695 0.749677 0.749648
          0.749602 0.749529 0.749386 0.749053 0.747954 0.739504
        </DataArray>
        <DataArray type="Float32" Name="m^w_substrate" NumberOfComponents="1" format="ascii">
          5.59958e-08 7.53671e-08 1.01434e-07 1.36511e-07 1.83712e-07 2.47231e-07 3.32719e-07 4.47793e-07 6.02735e-07 8.1144e-07 1.09273e-06 1.47217e-06
          1.9846e-06 2.67775e-06 3.61744e-06 4.89519e-06 6.63963e-06 9.03421e-06 1.23452e-05 1.69679e-05 2.35064e-05 3.29184e-05 4.67939e-05 6.79378e-05
          0.000101708 0.000159515 0.000269757 0.000522 0.00134167 0.00759582
        </DataArray>
        <DataArray type="Float32" Name="process rank" NumberOfComponents="1" format="ascii">
          0 0 0 0 0 0 0 0 0 0 0 0
          0 0 0 0 0 0 0 0 0 0 0 0
          0 0 0 0 0 0
        </DataArray>
      </CellData>
      <Points>
        <DataArray type="Float32" Name="Coordinates" NumberOfComponents="3" format="ascii">
          0 0 0 0.5 0 0 0 0.0333333 0 0.5 0.0333333 0
          0 0.0666667 0 0.5 0.0666667 0 0 0.1 0 0.5 0.1 0
          0 0.133333 0 0.5 0.133333 0 0 0.166667 0 0.5 0.166667 0
          0 0.2 0 0.5 0.2 0 0 0.233333 0 0.5 0.233333 0
          0 0.266667 0 0.5 0.266667 0 0 0.3 0 0.5 0.3 0
          0 0.333333 0 0.5 0.333333 0 0 0.366667 0 0.5 0.366667 0
          0 0.4 0 0.5 0.4 0 0 0.433333 0 0.5 0.433333 0
          0 0.466667 0 0.5 0.466667 0 0 0.5 0 0.5 0.5 0
          0 0.533333 0 0.5 0.533333 0 0 0.566667 0 0.5 0.566667 0
          0 0.6 0 0.5 0.6 0 0 0.633333 0 0.5 0.633333 0
          0 0.666667 0 0.5 0.666667 0 0 0.7 0 0.5 0.7 0
          0 0.733333 0 0.5 0.733333 0 0 0.766667 0 0.5 0.766667 0
          0 0.8 0 0.5 0.8 0 0 0.833333 0 0.5 0.833333 0
          0 0.866667 0 0.5 0.866667 0 0 0.9 0 0.5 0.9 0
          0 0.933333 0 0.5 0.933333 0 0 0.966667 0 0.5 0.966667 0
          0 1 0 0.5 1 0
        </DataArray>
      </Points>
      <Cells>
        <DataArray type="Int32" Name="connectivity" NumberOfComponents="1" format="ascii">
          0 1 3 2 2 3 5 4 4 5 7 6
          6 7 9 8 8 9 11 10 10 11 13 12
          12 13 15 14 14 15 17 16 16 17 19 18
          18 19 21 20 20 21 23 22 22 23 25 24
          24 25 27 26 26 27 29 28 28 29 31 30
          30 31 33 32 32 33 35 34 34 35 37 36
          36 37 39 38 38 39 41 40 40 41 43 42
          42 43 45 44 44 45 47 46 46 47 49 48
          48 49 51 50 50 51 53 52 52 53 55 54
          54 55 57 56 56 57 59 58 58 59 61 60
        </DataArray>
        <DataArray type="Int32" Name="offsets" NumberOfComponents="1" format="ascii">
          4 8 12 16 20 24 28 32 36 40 44 48
          52 56 60 64 68 72 76 80 84 88 92 96
          100 104 108 112 116 120
        </DataArray>
        <DataArray type="UInt8" Name="types" NumberOfComponents="1" format="ascii">
          9 9 9 9 9 9 9 9 9 9 9 9
          9 9 9 9 9 9 9 9 9 9 9 9
          9 9 9 9 9 9
        </DataArray>
      </Cells>
    </Piece>
  </UnstructuredGrid>
</VTKFile>
