<?xml version="1.0"?>
<VTKFile type="UnstructuredGrid" version="0.1" byte_order="LittleEndian">
  <UnstructuredGrid>
    <Piece NumberOfCells="30" NumberOfPoints="62">
      <CellData Scalars="Sg">
        <DataArray type="Float32" Name="Sg" NumberOfComponents="1" format="ascii">
          0 0 0 0 0 0 0 0 0 0 0 0
          0 0 0 0 0 0 0 0 0 0 0 0
          0 0 0 0 0 0
        </DataArray>
        <DataArray type="Float32" Name="Sl" NumberOfComponents="1" format="ascii">
          1 1 1 1 1 1 1 1 1 1 1 1
          1 1 1 1 1 1 1 1 1 1 1 1
          1 1 1 1 1 1
        </DataArray>
        <DataArray type="Float32" Name="pg" NumberOfComponents="1" format="ascii">
          24687.8 24360.9 24034 23707 23380.1 23053.1 22726.2 22399.3 22072.3 21745.4 21418.4 21091.5
          20764.6 20437.6 20110.7 19783.7 19456.8 19129.8 18802.9 18476 18149 17822.1 17495.1 17168.2
          16841.3 16514.3 16187.4 15860.4 15533.5 15208
        </DataArray>
        <DataArray type="Float32" Name="pl" NumberOfComponents="1" format="ascii">
          110628 110301 109974 109647 109320 108993 108666 108339 108012 107685 107358 107031
          106704 106377 106050 105723 105396 105070 104743 104416 104089 103762 103435 103108
          102781 102454 102127 101800 101473 101148
        </DataArray>
        <DataArray type="Float32" Name="pc" NumberOfComponents="1" format="ascii">
          -85939.7 -85939.7 -85939.7 -85939.7 -85939.7 -85939.7 -85939.7 -85939.7 -85939.7 -85939.7 -85939.7 -85939.7
          -85939.7 -85939.7 -85939.7 -85939.7 -85939.7 -85939.7 -85939.7 -85939.7 -85939.7 -85939.7 -85939.7 -85939.7
          -85939.7 -85939.7 -85939.7 -85939.7 -85939.7 -85939.7
        </DataArray>
        <DataArray type="Float32" Name="rhoL" NumberOfComponents="1" format="ascii">
          999.855 999.855 999.855 999.855 999.855 999.854 999.854 999.854 999.854 999.854 999.854 999.854
          999.853 999.853 999.853 999.853 999.853 999.853 999.852 999.852 999.852 999.852 999.852 999.852
          999.852 999.851 999.851 999.851 999.851 999.851
        </DataArray>
        <DataArray type="Float32" Name="rhoG" NumberOfComponents="1" format="ascii">
          0.30585 0.3018 0.29775 0.293699 0.289649 0.285598 0.281548 0.277498 0.273447 0.269397 0.265347 0.261296
          0.257246 0.253195 0.249145 0.245095 0.241044 0.236994 0.232944 0.228893 0.224843 0.220793 0.216742 0.212692
          0.208641 0.204591 0.200541 0.19649 0.19244 0.188407
        </DataArray>
        <DataArray type="Float32" Name="mobL" NumberOfComponents="1" format="ascii">
          722.171 722.17 722.17 722.17 722.17 722.17 722.169 722.169 722.169 722.169 722.169 722.169
          722.168 722.168 722.168 722.168 722.168 722.167 722.167 722.167 722.167 722.167 722.166 722.166
          722.166 722.166 722.166 722.166 722.165 722.165
        </DataArray>
        <DataArray type="Float32" Name="mobG" NumberOfComponents="1" format="ascii">
          0 0 0 0 0 0 0 0 0 0 0 0
          0 0 0 0 0 0 0 0 0 0 0 0
          0 0 0 0 0 0
        </DataArray>
        <DataArray type="Float32" Name="porosity" NumberOfComponents="1" format="ascii">
          0.298673 0.298673 0.298673 0.298672 0.298672 0.298672 0.298671 0.29867 0.298668 0.298667 0.298664 0.29866
          0.298655 0.298649 0.298639 0.298627 0.29861 0.298588 0.298557 0.298515 0.298458 0.298377 0.298263 0.298093
          0.297558 0.297107 0.296229 0.294029 0.284498 0.0575298
        </DataArray>
        <DataArray type="Float32" Name="temperature" NumberOfComponents="1" format="ascii">
          281.15 281.15 281.15 281.15 281.15 281.15 281.15 281.15 281.15 281.15 281.15 281.15
          281.15 281.15 281.15 281.15 281.15 281.15 281.15 281.15 281.15 281.15 281.15 281.15
          281.15 281.15 281.15 281.15 281.15 281.15
        </DataArray>
        <DataArray type="Float32" Name="phase presence" NumberOfComponents="1" format="ascii">
          1 1 1 1 1 1 1 1 1 1 1 1
          1 1 1 1 1 1 1 1 1 1 1 1
          1 1 1 1 1 1
        </DataArray>
        <DataArray type="Float32" Name="precipitateVolumeFraction_au" NumberOfComponents="1" format="ascii">
          5.52613e-10 5.52798e-10 5.52738e-10 5.52724e-10 5.52749e-10 5.52727e-10 5.52782e-10 5.52727e-10 5.52749e-10 5.52769e-10 5.52776e-10 5.5275e-10
          5.52769e-10 5.52748e-10 5.52696e-10 5.52766e-10 5.5278e-10 5.52733e-10 5.52751e-10 5.52821e-10 5.52761e-10 5.52765e-10 5.52817e-10 8.92207e-10
          0.00026994 0.000269924 0.000269899 0.000269853 5.52251e-10 5.51312e-10
        </DataArray>
        <DataArray type="Float32" Name="precipitateVolumeFraction_nanoAu" NumberOfComponents="1" format="ascii">
          1.23943e-13 1.24018e-13 1.23995e-13 1.2399e-13 1.23997e-13 1.2399e-13 1.24005e-13 1.23989e-13 1.23994e-13 1.23999e-13 1.23999e-13 1.23992e-13
          1.23995e-13 1.23989e-13 1.23975e-13 1.2399e-13 1.23991e-13 1.23978e-13 1.23978e-13 1.2399e-13 1.2397e-13 1.23977e-13 1.34877e-13 2.45875e-11
          6.03904e-08 7.67138e-08 1.02172e-07 1.45584e-07 4.74294e-13 4.67099e-13
        </DataArray>
        <DataArray type="Float32" Name="precipitateVolumeFraction_d" NumberOfComponents="1" format="ascii">
          0.000663525 0.00066359 0.000663681 0.00066381 0.000663991 0.000664244 0.0006646 0.000665095 0.000665785 0.000666739 0.000668057 0.000669866
          0.000672342 0.000675716 0.000680297 0.0006865 0.000694885 0.000706219 0.00072157 0.00074247 0.000771198 0.000811296 0.0008686 0.000953465
          0.00108609 0.00131158 0.0017507 0.00285071 0.00775111 0.121235
        </DataArray>
        <DataArray type="Float32" Name="precipitateVolumeFraction_p" NumberOfComponents="1" format="ascii">
          0.000663525 0.00066359 0.000663681 0.00066381 0.000663991 0.000664244 0.0006646 0.000665095 0.000665785 0.000666739 0.000668057 0.000669866
          0.000672342 0.000675716 0.000680297 0.0006865 0.000694885 0.000706219 0.00072157 0.00074247 0.000771198 0.000811296 0.0008686 0.000953465
          0.00108609 0.00131158 0.0017507 0.00285071 0.00775111 0.121235
        </DataArray>
        <DataArray type="Float32" Name="K" NumberOfComponents="1" format="ascii">
          9.83057e-11 9.83056e-11 9.83053e-11 9.8305e-11 9.83045e-11 9.83039e-11 9.8303e-11 9.83017e-11 9.83e-11 9.82976e-11 9.82942e-11 9.82896e-11
          9.82834e-11 9.82748e-11 9.82632e-11 9.82475e-11 9.82262e-11 9.81975e-11 9.81586e-11 9.81057e-11 9.8033e-11 9.79316e-11 9.77869e-11 9.75728e-11
          9.69003e-11 9.63367e-11 9.52467e-11 9.25607e-11 8.16295e-11 3.89024e-13
        </DataArray>
        <DataArray type="Float32" Name="X^w_H2O" NumberOfComponents="1" format="ascii">
          0.999853 0.999853 0.999853 0.999853 0.999853 0.999853 0.999853 0.999853 0.999853 0.999853 0.999853 0.999853
          0.999853 0.999853 0.999853 0.999853 0.999853 0.999853 0.999853 0.999853 0.999853 0.999853 0.999853 0.999853
          0.999853 0.999852 0.99985 0.999846 0.999839 0.99984
        </DataArray>
        <DataArray type="Float32" Name="X^w_Air" NumberOfComponents="1" format="ascii">
          0 0 0 0 0 0 0 0 0 0 0 0
          0 0 0 0 0 0 0 0 0 0 0 0
          0 0 0 0 0 0
        </DataArray>
        <DataArray type="Float32" Name="X^w_AuComplex" NumberOfComponents="1" format="ascii">
          1.3475e-16 1.34825e-16 1.34802e-16 1.34796e-16 1.34803e-16 1.34795e-16 1.3481e-16 1.34792e-16 1.34797e-16 1.34801e-16 1.34801e-16 1.34793e-16
          1.34796e-16 1.34788e-16 1.34772e-16 1.34787e-16 1.34786e-16 1.34769e-16 1.34767e-16 1.34775e-16 1.34748e-16 1.34746e-16 1.46402e-16 2.67101e-14
          6.56355e-11 1.0237e-10 1.75779e-10 3.46882e-10 1.74888e-15 1.70217e-15
        </DataArray>
        <DataArray type="Float32" Name="X^w_nanoAu" NumberOfComponents="1" format="ascii">
          5.39817e-19 5.40139e-19 5.40042e-19 5.4002e-19 5.40051e-19 5.40021e-19 5.40085e-19 5.40016e-19 5.40038e-19 5.40056e-19 5.40059e-19 5.40026e-19
          5.40041e-19 5.40013e-19 5.39953e-19 5.40016e-19 5.40019e-19 5.39958e-19 5.39959e-19 5.40042e-19 5.43636e-19 8.84945e-19 3.24867e-17 2.95433e-15
          2.63751e-13 3.35231e-13 4.46726e-13 6.26567e-13 2.05925e-18 1.98286e-18
        </DataArray>
        <DataArray type="Float32" Name="X^w_cyanide" NumberOfComponents="1" format="ascii">
          5.07288e-06 5.07285e-06 5.07283e-06 5.07281e-06 5.07278e-06 5.07276e-06 5.07274e-06 5.07271e-06 5.07268e-06 5.07266e-06 5.07263e-06 5.0726e-06
          5.07256e-06 5.07252e-06 5.07247e-06 5.07241e-06 5.07233e-06 5.07223e-06 5.0721e-06 5.07192e-06 5.07167e-06 5.07131e-06 5.07077e-06 5.06995e-06
          5.06909e-06 6.43891e-06 8.57449e-06 1.22388e-05 1.94578e-05 1.92245e-05
        </DataArray>
        <DataArray type="Float32" Name="X^w_citrate" NumberOfComponents="1" format="ascii">
          0.000141796 0.000141796 0.000141796 0.000141796 0.000141796 0.000141796 0.000141796 0.000141796 0.000141796 0.000141796 0.000141796 0.000141796
          0.000141796 0.000141795 0.000141795 0.000141795 0.000141795 0.000141794 0.000141793 0.000141792 0.00014179 0.000141788 0.000141784 0.000141778
          0.000141769 0.000141753 0.000141722 0.000141648 0.000141409 0.000139714
        </DataArray>
        <DataArray type="Float32" Name="X^w_substrate" NumberOfComponents="1" format="ascii">
          6.41696e-12 8.81557e-12 1.21101e-11 1.6635e-11 2.28501e-11 3.13868e-11 4.31138e-11 5.92259e-11 8.13691e-11 1.11813e-10 1.53695e-10 2.11359e-10
          2.90849e-10 4.00604e-10 5.52487e-10 7.63306e-10 1.05713e-09 1.4689e-09 2.0502e-09 2.87892e-09 4.07593e-09 5.83569e-09 8.48541e-09 1.26092e-08
          1.93343e-08 3.10778e-08 5.38694e-08 1.06593e-07 2.76418e-07 1.47224e-06
        </DataArray>
        <DataArray type="Float32" Name="m^w_H2O" NumberOfComponents="1" format="ascii">
          55492.6 55492.6 55492.5 55492.5 55492.5 55492.5 55492.5 55492.5 55492.5 55492.5 55492.5 55492.5
          55492.5 55492.4 55492.4 55492.4 55492.4 55492.4 55492.4 55492.4 55492.4 55492.4 55492.4 55492.4
          55492.3 55492.3 55492.1 55491.9 55491.5 55491.6
        </DataArray>
        <DataArray type="Float32" Name="m^w_Air" NumberOfComponents="1" format="ascii">
          0 0 0 0 0 0 0 0 0 0 0 0
          0 0 0 0 0 0 0 0 0 0 0 0
          0 0 0 0 0 0
        </DataArray>
        <DataArray type="Float32" Name="m^w_AuComplex" NumberOfComponents="1" format="ascii">
          6.84014e-13 6.84397e-13 6.84277e-13 6.84247e-13 6.84282e-13 6.84242e-13 6.84319e-13 6.84229e-13 6.84254e-13 6.84275e-13 6.84275e-13 6.8423e-13
          6.84246e-13 6.84207e-13 6.84126e-13 6.842e-13 6.84198e-13 6.84112e-13 6.84101e-13 6.84143e-13 6.84004e-13 6.83995e-13 7.43158e-13 1.35585e-10
          3.33176e-07 5.19645e-07 8.92281e-07 1.76083e-06 8.87758e-12 8.64049e-12
        </DataArray>
        <DataArray type="Float32" Name="m^w_nanoAu" NumberOfComponents="1" format="ascii">
          2.74021e-15 2.74184e-15 2.74135e-15 2.74124e-15 2.74139e-15 2.74124e-15 2.74157e-15 2.74121e-15 2.74133e-15 2.74142e-15 2.74143e-15 2.74126e-15
          2.74134e-15 2.7412e-15 2.74089e-15 2.74121e-15 2.74123e-15 2.74092e-15 2.74092e-15 2.74134e-15 2.75959e-15 4.49213e-15 1.64908e-13 1.49967e-11
          1.33884e-09 1.70169e-09 2.26765e-09 3.18056e-09 1.04531e-14 1.00653e-14
        </DataArray>
        <DataArray type="Float32" Name="m^w_cyanide" NumberOfComponents="1" format="ascii">
          0.194932 0.194932 0.194931 0.19493 0.194929 0.194928 0.194927 0.194926 0.194925 0.194924 0.194923 0.194921
          0.19492 0.194918 0.194916 0.194914 0.194911 0.194907 0.194902 0.194895 0.194885 0.194871 0.194851 0.194819
          0.194786 0.247423 0.329486 0.47029 0.747692 0.738726
        </DataArray>
        <DataArray type="Float32" Name="m^w_citrate" NumberOfComponents="1" format="ascii">
          0.749742 0.749742 0.749742 0.749742 0.749742 0.749742 0.749741 0.749741 0.749741 0.74974 0.74974 0.749739
          0.749739 0.749738 0.749737 0.749735 0.749733 0.749729 0.749725 0.749719 0.749709 0.749696 0.749676 0.749645
          0.749595 0.749511 0.749347 0.748959 0.747694 0.738728
        </DataArray>
        <DataArray type="Float32" Name="m^w_substrate" NumberOfComponents="1" format="ascii">
          3.5613e-08 4.89248e-08 6.72087e-08 9.23214e-08 1.26814e-07 1.74191e-07 2.39273e-07 3.28693e-07 4.51583e-07 6.20541e-07 8.52976e-07 1.173e-06
          1.61416e-06 2.22328e-06 3.0662e-06 4.2362e-06 5.86687e-06 8.1521e-06 1.13782e-05 1.59774e-05 2.26206e-05 3.23869e-05 4.70923e-05 6.99787e-05
          0.000107301 0.000172476 0.000298964 0.000591572 0.00153406 0.00817064
        </DataArray>
        <DataArray type="Float32" Name="process rank" NumberOfComponents="1" format="ascii">
          0 0 0 0 0 0 0 0 0 0 0 0
          0 0 0 0 0 0 0 0 0 0 0 0
          0 0 0 0 0 0
        </DataArray>
      </CellData>
      <Points>
        <DataArray type="Float32" Name="Coordinates" NumberOfComponents="3" format="ascii">
          0 0 0 0.5 0 0 0 0.0333333 0 0.5 0.0333333 0
          0 0.0666667 0 0.5 0.0666667 0 0 0.1 0 0.5 0.1 0
          0 0.133333 0 0.5 0.133333 0 0 0.166667 0 0.5 0.166667 0
          0 0.2 0 0.5 0.2 0 0 0.233333 0 0.5 0.233333 0
          0 0.266667 0 0.5 0.266667 0 0 0.3 0 0.5 0.3 0
          0 0.333333 0 0.5 0.333333 0 0 0.366667 0 0.5 0.366667 0
          0 0.4 0 0.5 0.4 0 0 0.433333 0 0.5 0.433333 0
          0 0.466667 0 0.5 0.466667 0 0 0.5 0 0.5 0.5 0
          0 0.533333 0 0.5 0.533333 0 0 0.566667 0 0.5 0.566667 0
          0 0.6 0 0.5 0.6 0 0 0.633333 0 0.5 0.633333 0
          0 0.666667 0 0.5 0.666667 0 0 0.7 0 0.5 0.7 0
          0 0.733333 0 0.5 0.733333 0 0 0.766667 0 0.5 0.766667 0
          0 0.8 0 0.5 0.8 0 0 0.833333 0 0.5 0.833333 0
          0 0.866667 0 0.5 0.866667 0 0 0.9 0 0.5 0.9 0
          0 0.933333 0 0.5 0.933333 0 0 0.966667 0 0.5 0.966667 0
          0 1 0 0.5 1 0
        </DataArray>
      </Points>
      <Cells>
        <DataArray type="Int32" Name="connectivity" NumberOfComponents="1" format="ascii">
          0 1 3 2 2 3 5 4 4 5 7 6
          6 7 9 8 8 9 11 10 10 11 13 12
          12 13 15 14 14 15 17 16 16 17 19 18
          18 19 21 20 20 21 23 22 22 23 25 24
          24 25 27 26 26 27 29 28 28 29 31 30
          30 31 33 32 32 33 35 34 34 35 37 36
          36 37 39 38 38 39 41 40 40 41 43 42
          42 43 45 44 44 45 47 46 46 47 49 48
          48 49 51 50 50 51 53 52 52 53 55 54
          54 55 57 56 56 57 59 58 58 59 61 60
        </DataArray>
        <DataArray type="Int32" Name="offsets" NumberOfComponents="1" format="ascii">
          4 8 12 16 20 24 28 32 36 40 44 48
          52 56 60 64 68 72 76 80 84 88 92 96
          100 104 108 112 116 120
        </DataArray>
        <DataArray type="UInt8" Name="types" NumberOfComponents="1" format="ascii">
          9 9 9 9 9 9 9 9 9 9 9 9
          9 9 9 9 9 9 9 9 9 9 9 9
          9 9 9 9 9 9
        </DataArray>
      </Cells>
    </Piece>
  </UnstructuredGrid>
</VTKFile>
