<?xml version="1.0"?>
<VTKFile type="UnstructuredGrid" version="0.1" byte_order="LittleEndian">
  <UnstructuredGrid>
    <Piece NumberOfCells="30" NumberOfPoints="62">
      <CellData Scalars="Sg">
        <DataArray type="Float32" Name="Sg" NumberOfComponents="1" format="ascii">
          0.0907902 0.0907501 0.0907089 0.0906633 0.0905983 0.0904457 0.0898967 0.08756 0.0773017 0.0356723 0 0
          0 0 0 0 0 0 0 0 0 0 0 0
          0 0 0 0 0 0
        </DataArray>
        <DataArray type="Float32" Name="Sl" NumberOfComponents="1" format="ascii">
          0.90921 0.90925 0.909291 0.909337 0.909402 0.909554 0.910103 0.91244 0.922698 0.964328 1 1
          1 1 1 1 1 1 1 1 1 1 1 1
          1 1 1 1 1 1
        </DataArray>
        <DataArray type="Float32" Name="pg" NumberOfComponents="1" format="ascii">
          50696.1 50357.7 50018.9 49678.9 49333.4 48962.7 48478.5 47482.2 44216.6 31964.3 21418.4 21091.5
          20764.6 20437.6 20110.7 19783.7 19456.8 19129.8 18802.9 18476 18149 17822.1 17495.1 17168.2
          16841.3 16514.3 16187.4 15860.4 15533.5 15206.6
        </DataArray>
        <DataArray type="Float32" Name="pl" NumberOfComponents="1" format="ascii">
          110628 110301 109974 109647 109320 108993 108666 108339 108012 107685 107358 107031
          106704 106377 106050 105723 105396 105070 104743 104416 104089 103762 103435 103108
          102781 102454 102127 101800 101473 101146
        </DataArray>
        <DataArray type="Float32" Name="pc" NumberOfComponents="1" format="ascii">
          -59931.4 -59942.9 -59954.7 -59967.8 -59986.4 -60030.1 -60187.4 -60856.8 -63795.4 -75720.8 -85939.7 -85939.7
          -85939.7 -85939.7 -85939.7 -85939.7 -85939.7 -85939.7 -85939.7 -85939.7 -85939.7 -85939.7 -85939.7 -85939.7
          -85939.7 -85939.7 -85939.7 -85939.7 -85939.7 -85939.7
        </DataArray>
        <DataArray type="Float32" Name="rhoL" NumberOfComponents="1" format="ascii">
          999.855 999.855 999.855 999.855 999.855 999.854 999.854 999.854 999.854 999.854 999.854 999.854
          999.853 999.853 999.853 999.853 999.853 999.853 999.852 999.852 999.852 999.852 999.852 999.852
          999.852 999.851 999.851 999.851 999.851 999.851
        </DataArray>
        <DataArray type="Float32" Name="rhoG" NumberOfComponents="1" format="ascii">
          0.628059 0.623866 0.61967 0.615457 0.611177 0.606585 0.600586 0.588243 0.547786 0.395996 0.265347 0.261296
          0.257246 0.253195 0.249145 0.245095 0.241044 0.236994 0.232944 0.228893 0.224843 0.220793 0.216742 0.212692
          0.208641 0.204591 0.200541 0.19649 0.19244 0.18839
        </DataArray>
        <DataArray type="Float32" Name="mobL" NumberOfComponents="1" format="ascii">
          722.171 722.17 722.17 722.17 722.17 722.17 722.169 722.169 722.169 722.169 722.169 722.169
          722.168 722.168 722.168 722.168 722.168 722.167 722.167 722.167 722.167 722.167 722.166 722.166
          722.166 722.166 722.166 722.166 722.165 722.165
        </DataArray>
        <DataArray type="Float32" Name="mobG" NumberOfComponents="1" format="ascii">
          0 0 0 0 0 0 0 0 0 0 0 0
          0 0 0 0 0 0 0 0 0 0 0 0
          0 0 0 0 0 0
        </DataArray>
        <DataArray type="Float32" Name="porosity" NumberOfComponents="1" format="ascii">
          0.298517 0.298517 0.298517 0.298517 0.298516 0.298516 0.298515 0.298514 0.298512 0.29851 0.298507 0.298503
          0.298498 0.29849 0.29848 0.298467 0.298449 0.298424 0.298391 0.298345 0.298284 0.298198 0.298077 0.297899
          0.297356 0.296905 0.296066 0.294146 0.287548 0.191303
        </DataArray>
        <DataArray type="Float32" Name="temperature" NumberOfComponents="1" format="ascii">
          281.15 281.15 281.15 281.15 281.15 281.15 281.15 281.15 281.15 281.15 281.15 281.15
          281.15 281.15 281.15 281.15 281.15 281.15 281.15 281.15 281.15 281.15 281.15 281.15
          281.15 281.15 281.15 281.15 281.15 281.15
        </DataArray>
        <DataArray type="Float32" Name="phase presence" NumberOfComponents="1" format="ascii">
          3 3 3 3 3 3 3 3 3 3 1 1
          1 1 1 1 1 1 1 1 1 1 1 1
          1 1 1 1 1 1
        </DataArray>
        <DataArray type="Float32" Name="precipitateVolumeFraction_au" NumberOfComponents="1" format="ascii">
          5.44513e-10 5.44509e-10 5.4451e-10 5.44511e-10 5.44512e-10 5.44512e-10 5.44512e-10 5.44513e-10 5.44514e-10 5.44515e-10 5.44518e-10 5.44515e-10
          5.44523e-10 5.44516e-10 5.44485e-10 5.44528e-10 5.4454e-10 5.44504e-10 5.44519e-10 5.44579e-10 5.44529e-10 5.44533e-10 5.4448e-10 6.29304e-10
          0.000269939 0.000269923 0.000269898 0.000269856 5.44062e-10 5.43191e-10
        </DataArray>
        <DataArray type="Float32" Name="precipitateVolumeFraction_nanoAu" NumberOfComponents="1" format="ascii">
          8.36691e-12 8.36571e-12 8.36469e-12 8.3636e-12 8.36315e-12 8.36234e-12 8.36114e-12 8.36063e-12 8.36051e-12 8.37466e-12 8.38202e-12 8.35886e-12
          8.36987e-12 8.35603e-12 8.33503e-12 8.36209e-12 8.36435e-12 8.35217e-12 8.35552e-12 8.36566e-12 8.35582e-12 8.35513e-12 8.35799e-12 3.3644e-11
          6.12916e-08 7.76427e-08 1.0276e-07 1.44469e-07 8.66251e-12 8.60413e-12
        </DataArray>
        <DataArray type="Float32" Name="precipitateVolumeFraction_d" NumberOfComponents="1" format="ascii">
          0.000741377 0.000741448 0.000741549 0.00074169 0.000741888 0.000742167 0.000742557 0.000743102 0.000743859 0.000744907 0.000746353 0.000748338
          0.000751053 0.000754748 0.000759761 0.000766539 0.000775684 0.000788015 0.000804668 0.000827256 0.000858152 0.000900999 0.000961704 0.00105053
          0.00118692 0.00141259 0.00183213 0.00279221 0.00622578 0.0543486
        </DataArray>
        <DataArray type="Float32" Name="precipitateVolumeFraction_p" NumberOfComponents="1" format="ascii">
          0.000741377 0.000741448 0.000741549 0.00074169 0.000741888 0.000742167 0.000742557 0.000743102 0.000743859 0.000744907 0.000746353 0.000748338
          0.000751053 0.000754748 0.000759761 0.000766539 0.000775684 0.000788015 0.000804668 0.000827256 0.000858152 0.000900999 0.000961704 0.00105053
          0.00118692 0.00141259 0.00183213 0.00279221 0.00622578 0.0543486
        </DataArray>
        <DataArray type="Float32" Name="K" NumberOfComponents="1" format="ascii">
          9.81085e-11 9.81083e-11 9.81081e-11 9.81077e-11 9.81072e-11 9.81065e-11 9.81055e-11 9.81041e-11 9.81022e-11 9.80996e-11 9.80959e-11 9.80909e-11
          9.8084e-11 9.80746e-11 9.8062e-11 9.80448e-11 9.80217e-11 9.79905e-11 9.79484e-11 9.78913e-11 9.78133e-11 9.77051e-11 9.75521e-11 9.73285e-11
          9.6648e-11 9.6085e-11 9.50457e-11 9.2702e-11 8.5007e-11 1.94278e-11
        </DataArray>
        <DataArray type="Float32" Name="X^w_H2O" NumberOfComponents="1" format="ascii">
          0.999838 0.999838 0.999838 0.999838 0.999838 0.999838 0.999838 0.999839 0.99984 0.999844 0.999852 0.999853
          0.999853 0.999853 0.999853 0.999853 0.999853 0.999853 0.999853 0.999853 0.999853 0.999853 0.999853 0.999853
          0.999853 0.999852 0.99985 0.999846 0.999839 0.999841
        </DataArray>
        <DataArray type="Float32" Name="X^w_Air" NumberOfComponents="1" format="ascii">
          1.53819e-05 1.5277e-05 1.5172e-05 1.50666e-05 1.49595e-05 1.48446e-05 1.46945e-05 1.43856e-05 1.33734e-05 9.57551e-06 7.38482e-07 1.13057e-08
          1.70516e-10 2.51848e-12 3.65967e-14 5.20531e-16 7.2621e-18 9.94926e-20 1.33388e-21 1.74847e-23 2.23858e-25 2.79076e-27 3.35867e-29 3.8473e-31
          4.05844e-33 4.06567e-35 3.47431e-37 0 0 0
        </DataArray>
        <DataArray type="Float32" Name="X^w_AuComplex" NumberOfComponents="1" format="ascii">
          7.64467e-15 6.97334e-15 6.6412e-15 5.7258e-15 6.91104e-15 8.54191e-15 7.65564e-15 8.58047e-15 8.02307e-15 -7.95672e-14 7.72354e-15 7.70177e-15
          7.71146e-15 7.69839e-15 7.6788e-15 7.70338e-15 7.70518e-15 7.69368e-15 7.69639e-15 7.70517e-15 7.69536e-15 7.69354e-15 7.69604e-15 3.5117e-14
          6.65359e-11 1.03703e-10 1.77257e-10 3.45146e-10 3.03995e-14 2.94172e-14
        </DataArray>
        <DataArray type="Float32" Name="X^w_nanoAu" NumberOfComponents="1" format="ascii">
          3.62448e-16 -3.08889e-16 -6.41021e-16 -3.42725e-16 8.42515e-16 4.59843e-17 3.73412e-16 8.45423e-17 7.40842e-16 -8.92769e-14 3.65218e-17 3.64225e-17
          3.64692e-17 3.64085e-17 3.63191e-17 3.64357e-17 3.64446e-17 3.63919e-17 3.64064e-17 3.64489e-17 3.64092e-17 3.67542e-17 6.90131e-17 3.04487e-15
          2.67599e-13 3.3909e-13 4.48795e-13 6.20594e-13 3.74486e-17 3.58638e-17
        </DataArray>
        <DataArray type="Float32" Name="X^w_cyanide" NumberOfComponents="1" format="ascii">
          5.09152e-06 5.09032e-06 5.08925e-06 5.08831e-06 5.08749e-06 5.08676e-06 5.08614e-06 5.08559e-06 5.08513e-06 5.08474e-06 5.08443e-06 5.0841e-06
          5.08382e-06 5.08359e-06 5.08339e-06 5.08321e-06 5.08303e-06 5.08283e-06 5.08257e-06 5.08223e-06 5.08172e-06 5.08094e-06 5.07971e-06 5.07771e-06
          5.07479e-06 6.45461e-06 8.60203e-06 1.22647e-05 1.93662e-05 1.88708e-05
        </DataArray>
        <DataArray type="Float32" Name="X^w_citrate" NumberOfComponents="1" format="ascii">
          0.000141794 0.000141794 0.000141794 0.000141794 0.000141794 0.000141794 0.000141794 0.000141794 0.000141794 0.000141794 0.000141796 0.000141795
          0.000141795 0.000141795 0.000141794 0.000141794 0.000141793 0.000141792 0.00014179 0.000141787 0.000141783 0.000141776 0.000141767 0.000141751
          0.000141726 0.000141681 0.000141592 0.000141387 0.000140752 0.000137147
        </DataArray>
        <DataArray type="Float32" Name="X^w_substrate" NumberOfComponents="1" format="ascii">
          9.41306e-12 1.32668e-11 1.87094e-11 2.63895e-11 3.72321e-11 5.25355e-11 7.41322e-11 1.04584e-10 1.4745e-10 2.07453e-10 2.91058e-10 4.08076e-10
          5.72735e-10 8.0474e-10 1.13244e-09 1.59682e-09 2.25775e-09 3.20389e-09 4.5687e-09 6.55753e-09 9.49497e-09 1.39121e-08 2.07168e-08 3.15512e-08
          4.96139e-08 8.17874e-08 1.45099e-07 2.91275e-07 7.39899e-07 3.28203e-06
        </DataArray>
        <DataArray type="Float32" Name="m^w_H2O" NumberOfComponents="1" format="ascii">
          55491.7 55491.7 55491.7 55491.7 55491.7 55491.7 55491.7 55491.7 55491.7 55491.9 55492.4 55492.5
          55492.5 55492.4 55492.4 55492.4 55492.4 55492.4 55492.4 55492.4 55492.4 55492.4 55492.4 55492.4
          55492.3 55492.3 55492.1 55491.9 55491.5 55491.6
        </DataArray>
        <DataArray type="Float32" Name="m^w_Air" NumberOfComponents="1" format="ascii">
          0.531065 0.527443 0.523818 0.520179 0.516481 0.512514 0.507332 0.496669 0.461721 0.330598 0.0254963 0.000390332
          5.88712e-06 8.69513e-08 1.26351e-09 1.79715e-11 2.50726e-13 3.43501e-15 4.60526e-17 6.03665e-19 7.72875e-21 9.63519e-23 1.15959e-24 1.32829e-26
          1.40119e-28 1.40368e-30 1.19951e-32 7.33486e-35 1.77529e-37 0
        </DataArray>
        <DataArray type="Float32" Name="m^w_AuComplex" NumberOfComponents="1" format="ascii">
          3.88057e-11 3.53979e-11 3.37119e-11 2.90652e-11 3.50816e-11 4.33603e-11 3.88614e-11 4.3556e-11 4.07265e-11 -4.03897e-10 3.9206e-11 3.90955e-11
          3.91447e-11 3.90783e-11 3.89789e-11 3.91037e-11 3.91128e-11 3.90544e-11 3.90681e-11 3.91127e-11 3.90629e-11 3.90537e-11 3.90664e-11 1.7826e-10
          3.37747e-07 5.26412e-07 8.99783e-07 1.75202e-06 1.54313e-10 1.49326e-10
        </DataArray>
        <DataArray type="Float32" Name="m^w_nanoAu" NumberOfComponents="1" format="ascii">
          1.83985e-12 -1.56798e-12 -3.25394e-12 -1.73973e-12 4.27675e-12 2.33424e-13 1.8955e-12 4.29151e-13 3.76064e-12 -4.53185e-10 1.85391e-13 1.84887e-13
          1.85124e-13 1.84816e-13 1.84362e-13 1.84954e-13 1.84999e-13 1.84731e-13 1.84805e-13 1.85021e-13 1.84819e-13 1.8657e-13 3.50322e-13 1.54562e-11
          1.35837e-09 1.72127e-09 2.27815e-09 3.15024e-09 1.90095e-13 1.8205e-13
        </DataArray>
        <DataArray type="Float32" Name="m^w_cyanide" NumberOfComponents="1" format="ascii">
          0.195649 0.195603 0.195562 0.195525 0.195494 0.195466 0.195442 0.195421 0.195403 0.195388 0.195376 0.195363
          0.195353 0.195344 0.195336 0.195329 0.195322 0.195314 0.195305 0.195291 0.195272 0.195242 0.195194 0.195117
          0.195005 0.248027 0.330544 0.471287 0.744169 0.725133
        </DataArray>
        <DataArray type="Float32" Name="m^w_citrate" NumberOfComponents="1" format="ascii">
          0.749731 0.749731 0.749731 0.74973 0.74973 0.74973 0.74973 0.74973 0.74973 0.749733 0.749739 0.749738
          0.749737 0.749735 0.749732 0.749729 0.749724 0.749716 0.749706 0.749691 0.749669 0.749636 0.749584 0.749503
          0.749368 0.749131 0.748663 0.747574 0.744219 0.725157
        </DataArray>
        <DataArray type="Float32" Name="m^w_substrate" NumberOfComponents="1" format="ascii">
          5.22408e-08 7.36283e-08 1.03834e-07 1.46457e-07 2.06631e-07 2.91562e-07 4.1142e-07 5.8042e-07 8.18317e-07 1.15132e-06 1.61532e-06 2.26474e-06
          3.17857e-06 4.46615e-06 6.28482e-06 8.86203e-06 1.25301e-05 1.77809e-05 2.53554e-05 3.6393e-05 5.26952e-05 7.72094e-05 0.000114974 0.000175103
          0.000275347 0.000453903 0.000805272 0.00161651 0.00410629 0.0182146
        </DataArray>
        <DataArray type="Float32" Name="process rank" NumberOfComponents="1" format="ascii">
          0 0 0 0 0 0 0 0 0 0 0 0
          0 0 0 0 0 0 0 0 0 0 0 0
          0 0 0 0 0 0
        </DataArray>
      </CellData>
      <Points>
        <DataArray type="Float32" Name="Coordinates" NumberOfComponents="3" format="ascii">
          0 0 0 0.5 0 0 0 0.0333333 0 0.5 0.0333333 0
          0 0.0666667 0 0.5 0.0666667 0 0 0.1 0 0.5 0.1 0
          0 0.133333 0 0.5 0.133333 0 0 0.166667 0 0.5 0.166667 0
          0 0.2 0 0.5 0.2 0 0 0.233333 0 0.5 0.233333 0
          0 0.266667 0 0.5 0.266667 0 0 0.3 0 0.5 0.3 0
          0 0.333333 0 0.5 0.333333 0 0 0.366667 0 0.5 0.366667 0
          0 0.4 0 0.5 0.4 0 0 0.433333 0 0.5 0.433333 0
          0 0.466667 0 0.5 0.466667 0 0 0.5 0 0.5 0.5 0
          0 0.533333 0 0.5 0.533333 0 0 0.566667 0 0.5 0.566667 0
          0 0.6 0 0.5 0.6 0 0 0.633333 0 0.5 0.633333 0
          0 0.666667 0 0.5 0.666667 0 0 0.7 0 0.5 0.7 0
          0 0.733333 0 0.5 0.733333 0 0 0.766667 0 0.5 0.766667 0
          0 0.8 0 0.5 0.8 0 0 0.833333 0 0.5 0.833333 0
          0 0.866667 0 0.5 0.866667 0 0 0.9 0 0.5 0.9 0
          0 0.933333 0 0.5 0.933333 0 0 0.966667 0 0.5 0.966667 0
          0 1 0 0.5 1 0
        </DataArray>
      </Points>
      <Cells>
        <DataArray type="Int32" Name="connectivity" NumberOfComponents="1" format="ascii">
          0 1 3 2 2 3 5 4 4 5 7 6
          6 7 9 8 8 9 11 10 10 11 13 12
          12 13 15 14 14 15 17 16 16 17 19 18
          18 19 21 20 20 21 23 22 22 23 25 24
          24 25 27 26 26 27 29 28 28 29 31 30
          30 31 33 32 32 33 35 34 34 35 37 36
          36 37 39 38 38 39 41 40 40 41 43 42
          42 43 45 44 44 45 47 46 46 47 49 48
          48 49 51 50 50 51 53 52 52 53 55 54
          54 55 57 56 56 57 59 58 58 59 61 60
        </DataArray>
        <DataArray type="Int32" Name="offsets" NumberOfComponents="1" format="ascii">
          4 8 12 16 20 24 28 32 36 40 44 48
          52 56 60 64 68 72 76 80 84 88 92 96
          100 104 108 112 116 120
        </DataArray>
        <DataArray type="UInt8" Name="types" NumberOfComponents="1" format="ascii">
          9 9 9 9 9 9 9 9 9 9 9 9
          9 9 9 9 9 9 9 9 9 9 9 9
          9 9 9 9 9 9
        </DataArray>
      </Cells>
    </Piece>
  </UnstructuredGrid>
</VTKFile>
