<?xml version="1.0"?>
<VTKFile type="UnstructuredGrid" version="0.1" byte_order="LittleEndian">
  <UnstructuredGrid>
    <Piece NumberOfCells="30" NumberOfPoints="62">
      <CellData Scalars="Sg">
        <DataArray type="Float32" Name="Sg" NumberOfComponents="1" format="ascii">
          0 0 0 0 0 0 0 0 0 0 0 0
          0 0 0 0 0 0 0 0 0 0 0 0
          0 0 0 0 0 0
        </DataArray>
        <DataArray type="Float32" Name="Sl" NumberOfComponents="1" format="ascii">
          1 1 1 1 1 1 1 1 1 1 1 1
          1 1 1 1 1 1 1 1 1 1 1 1
          1 1 1 1 1 1
        </DataArray>
        <DataArray type="Float32" Name="pg" NumberOfComponents="1" format="ascii">
          24687.8 24360.9 24034 23707 23380.1 23053.1 22726.2 22399.3 22072.3 21745.4 21418.4 21091.5
          20764.6 20437.6 20110.7 19783.7 19456.8 19129.8 18802.9 18476 18149 17822.1 17495.1 17168.2
          16841.3 16514.3 16187.4 15860.4 15533.5 15207.4
        </DataArray>
        <DataArray type="Float32" Name="pl" NumberOfComponents="1" format="ascii">
          110628 110301 109974 109647 109320 108993 108666 108339 108012 107685 107358 107031
          106704 106377 106050 105723 105396 105070 104743 104416 104089 103762 103435 103108
          102781 102454 102127 101800 101473 101147
        </DataArray>
        <DataArray type="Float32" Name="pc" NumberOfComponents="1" format="ascii">
          -85939.7 -85939.7 -85939.7 -85939.7 -85939.7 -85939.7 -85939.7 -85939.7 -85939.7 -85939.7 -85939.7 -85939.7
          -85939.7 -85939.7 -85939.7 -85939.7 -85939.7 -85939.7 -85939.7 -85939.7 -85939.7 -85939.7 -85939.7 -85939.7
          -85939.7 -85939.7 -85939.7 -85939.7 -85939.7 -85939.7
        </DataArray>
        <DataArray type="Float32" Name="rhoL" NumberOfComponents="1" format="ascii">
          999.855 999.855 999.855 999.855 999.855 999.854 999.854 999.854 999.854 999.854 999.854 999.854
          999.853 999.853 999.853 999.853 999.853 999.853 999.852 999.852 999.852 999.852 999.852 999.852
          999.852 999.851 999.851 999.851 999.851 999.851
        </DataArray>
        <DataArray type="Float32" Name="rhoG" NumberOfComponents="1" format="ascii">
          0.30585 0.3018 0.29775 0.293699 0.289649 0.285598 0.281548 0.277498 0.273447 0.269397 0.265347 0.261296
          0.257246 0.253195 0.249145 0.245095 0.241044 0.236994 0.232944 0.228893 0.224843 0.220793 0.216742 0.212692
          0.208641 0.204591 0.200541 0.19649 0.19244 0.188399
        </DataArray>
        <DataArray type="Float32" Name="mobL" NumberOfComponents="1" format="ascii">
          722.171 722.17 722.17 722.17 722.17 722.17 722.169 722.169 722.169 722.169 722.169 722.169
          722.168 722.168 722.168 722.168 722.168 722.167 722.167 722.167 722.167 722.167 722.166 722.166
          722.166 722.166 722.166 722.166 722.165 722.165
        </DataArray>
        <DataArray type="Float32" Name="mobG" NumberOfComponents="1" format="ascii">
          0 0 0 0 0 0 0 0 0 0 0 0
          0 0 0 0 0 0 0 0 0 0 0 0
          0 0 0 0 0 0
        </DataArray>
        <DataArray type="Float32" Name="porosity" NumberOfComponents="1" format="ascii">
          0.298636 0.298636 0.298636 0.298636 0.298635 0.298635 0.298634 0.298633 0.298632 0.298631 0.298628 0.298625
          0.298621 0.298615 0.298606 0.298595 0.298579 0.298558 0.298529 0.298489 0.298433 0.298356 0.298245 0.29808
          0.297553 0.297116 0.29627 0.294175 0.285371 0.0693345
        </DataArray>
        <DataArray type="Float32" Name="temperature" NumberOfComponents="1" format="ascii">
          281.15 281.15 281.15 281.15 281.15 281.15 281.15 281.15 281.15 281.15 281.15 281.15
          281.15 281.15 281.15 281.15 281.15 281.15 281.15 281.15 281.15 281.15 281.15 281.15
          281.15 281.15 281.15 281.15 281.15 281.15
        </DataArray>
        <DataArray type="Float32" Name="phase presence" NumberOfComponents="1" format="ascii">
          1 1 1 1 1 1 1 1 1 1 1 1
          1 1 1 1 1 1 1 1 1 1 1 1
          1 1 1 1 1 1
        </DataArray>
        <DataArray type="Float32" Name="precipitateVolumeFraction_au" NumberOfComponents="1" format="ascii">
          5.5264e-10 5.52517e-10 5.52682e-10 5.52726e-10 5.52753e-10 5.52773e-10 5.52758e-10 5.52791e-10 5.52749e-10 5.52783e-10 5.52767e-10 5.52683e-10
          5.52768e-10 5.52797e-10 5.52696e-10 5.52748e-10 5.52788e-10 5.5276e-10 5.52781e-10 5.52712e-10 5.52735e-10 5.52738e-10 5.52875e-10 8.42327e-10
          0.00026994 0.000269924 0.000269899 0.000269853 5.5223e-10 5.5161e-10
        </DataArray>
        <DataArray type="Float32" Name="precipitateVolumeFraction_nanoAu" NumberOfComponents="1" format="ascii">
          1.27035e-13 1.26884e-13 1.27216e-13 1.27312e-13 1.2735e-13 1.27373e-13 1.27352e-13 1.27378e-13 1.27338e-13 1.27359e-13 1.27346e-13 1.27297e-13
          1.2734e-13 1.2735e-13 1.27305e-13 1.27324e-13 1.27335e-13 1.27323e-13 1.27325e-13 1.27299e-13 1.27299e-13 1.27299e-13 1.38591e-13 2.57786e-11
          6.04111e-08 7.67379e-08 1.022e-07 1.45598e-07 4.77505e-13 4.70406e-13
        </DataArray>
        <DataArray type="Float32" Name="precipitateVolumeFraction_d" NumberOfComponents="1" format="ascii">
          0.000682007 0.000682057 0.000682127 0.000682228 0.000682372 0.000682578 0.000682869 0.000683282 0.000683864 0.000684683 0.000685828 0.000687422
          0.000689631 0.000692679 0.000696866 0.000702598 0.000710424 0.000721097 0.000735669 0.000755647 0.000783263 0.00082198 0.000877485 0.000959823
          0.00108851 0.00130687 0.00172995 0.00277754 0.00731454 0.115333
        </DataArray>
        <DataArray type="Float32" Name="precipitateVolumeFraction_p" NumberOfComponents="1" format="ascii">
          0.000682007 0.000682057 0.000682127 0.000682228 0.000682372 0.000682578 0.000682869 0.000683282 0.000683864 0.000684683 0.000685828 0.000687422
          0.000689631 0.000692679 0.000696866 0.000702598 0.000710424 0.000721097 0.000735669 0.000755647 0.000783263 0.00082198 0.000877485 0.000959823
          0.00108851 0.00130687 0.00172995 0.00277754 0.00731454 0.115333
        </DataArray>
        <DataArray type="Float32" Name="K" NumberOfComponents="1" format="ascii">
          9.82589e-11 9.82587e-11 9.82586e-11 9.82583e-11 9.82579e-11 9.82574e-11 9.82567e-11 9.82556e-11 9.82542e-11 9.82521e-11 9.82492e-11 9.82451e-11
          9.82395e-11 9.82318e-11 9.82212e-11 9.82067e-11 9.81869e-11 9.81598e-11 9.81229e-11 9.80724e-11 9.80025e-11 9.79046e-11 9.77644e-11 9.75568e-11
          9.68943e-11 9.63484e-11 9.5298e-11 9.27374e-11 8.25848e-11 6.98382e-13
        </DataArray>
        <DataArray type="Float32" Name="X^w_H2O" NumberOfComponents="1" format="ascii">
          0.999853 0.999853 0.999853 0.999853 0.999853 0.999853 0.999853 0.999853 0.999853 0.999853 0.999853 0.999853
          0.999853 0.999853 0.999853 0.999853 0.999853 0.999853 0.999853 0.999853 0.999853 0.999853 0.999853 0.999853
          0.999853 0.999852 0.99985 0.999846 0.999839 0.99984
        </DataArray>
        <DataArray type="Float32" Name="X^w_Air" NumberOfComponents="1" format="ascii">
          0 0 0 0 0 0 0 0 0 0 0 0
          0 0 0 0 0 0 0 0 0 0 0 0
          0 0 0 0 0 0
        </DataArray>
        <DataArray type="Float32" Name="X^w_AuComplex" NumberOfComponents="1" format="ascii">
          1.44442e-16 1.44291e-16 1.44616e-16 1.44709e-16 1.44745e-16 1.44767e-16 1.44745e-16 1.4477e-16 1.44728e-16 1.44748e-16 1.44734e-16 1.44683e-16
          1.44726e-16 1.44735e-16 1.44686e-16 1.44705e-16 1.44714e-16 1.44698e-16 1.44697e-16 1.44665e-16 1.44659e-16 1.44649e-16 1.57444e-16 2.94024e-14
          6.89239e-11 1.07494e-10 1.84567e-10 3.64145e-10 1.84733e-15 1.7986e-15
        </DataArray>
        <DataArray type="Float32" Name="X^w_nanoAu" NumberOfComponents="1" format="ascii">
          3.48362e-19 3.47958e-19 3.48864e-19 3.49125e-19 3.4923e-19 3.49291e-19 3.49234e-19 3.49305e-19 3.49196e-19 3.49252e-19 3.49216e-19 3.49084e-19
          3.49201e-19 3.49227e-19 3.49106e-19 3.49157e-19 3.49185e-19 3.4915e-19 3.49153e-19 3.49084e-19 3.49463e-19 4.05407e-19 8.59758e-18 1.20356e-15
          1.65942e-13 2.10856e-13 2.80908e-13 3.96132e-13 1.30556e-18 1.26237e-18
        </DataArray>
        <DataArray type="Float32" Name="X^w_cyanide" NumberOfComponents="1" format="ascii">
          5.0743e-06 5.07426e-06 5.07421e-06 5.07417e-06 5.07413e-06 5.07408e-06 5.07404e-06 5.074e-06 5.07395e-06 5.07391e-06 5.07386e-06 5.07382e-06
          5.07377e-06 5.07371e-06 5.07365e-06 5.07358e-06 5.07349e-06 5.07339e-06 5.07325e-06 5.07307e-06 5.07283e-06 5.07247e-06 5.07196e-06 5.07115e-06
          5.07034e-06 6.44036e-06 8.57611e-06 1.22403e-05 1.94575e-05 1.92247e-05
        </DataArray>
        <DataArray type="Float32" Name="X^w_citrate" NumberOfComponents="1" format="ascii">
          0.000141796 0.000141796 0.000141796 0.000141796 0.000141796 0.000141796 0.000141796 0.000141796 0.000141796 0.000141796 0.000141796 0.000141796
          0.000141796 0.000141796 0.000141795 0.000141795 0.000141795 0.000141794 0.000141794 0.000141793 0.000141791 0.000141789 0.000141785 0.00014178
          0.00014177 0.000141755 0.000141724 0.00014165 0.000141407 0.000139715
        </DataArray>
        <DataArray type="Float32" Name="X^w_substrate" NumberOfComponents="1" format="ascii">
          3.63561e-12 5.10225e-12 7.16012e-12 1.00475e-11 1.40986e-11 1.97828e-11 2.77588e-11 3.89521e-11 5.46641e-11 7.67263e-11 1.07721e-10 1.51296e-10
          2.12624e-10 2.99063e-10 4.21144e-10 5.94051e-10 8.39883e-10 1.19122e-09 1.69687e-09 2.43152e-09 3.51254e-09 5.13085e-09 7.61109e-09 1.1538e-08
          1.80488e-08 2.9598e-08 5.23369e-08 1.05563e-07 2.77909e-07 1.47133e-06
        </DataArray>
        <DataArray type="Float32" Name="m^w_H2O" NumberOfComponents="1" format="ascii">
          55492.6 55492.6 55492.5 55492.5 55492.5 55492.5 55492.5 55492.5 55492.5 55492.5 55492.5 55492.5
          55492.5 55492.4 55492.4 55492.4 55492.4 55492.4 55492.4 55492.4 55492.4 55492.4 55492.4 55492.4
          55492.3 55492.3 55492.1 55491.9 55491.5 55491.6
        </DataArray>
        <DataArray type="Float32" Name="m^w_Air" NumberOfComponents="1" format="ascii">
          0 0 0 0 0 0 0 0 0 0 0 0
          0 0 0 0 0 0 0 0 0 0 0 0
          0 0 0 0 0 0
        </DataArray>
        <DataArray type="Float32" Name="m^w_AuComplex" NumberOfComponents="1" format="ascii">
          7.33216e-13 7.32448e-13 7.34097e-13 7.34566e-13 7.34753e-13 7.34861e-13 7.3475e-13 7.34878e-13 7.34666e-13 7.34768e-13 7.34695e-13 7.34434e-13
          7.34653e-13 7.34699e-13 7.34452e-13 7.34545e-13 7.34593e-13 7.34511e-13 7.34505e-13 7.34342e-13 7.34311e-13 7.34262e-13 7.99209e-13 1.49251e-10
          3.49869e-07 5.45659e-07 9.36891e-07 1.84846e-06 9.37735e-12 9.12999e-12
        </DataArray>
        <DataArray type="Float32" Name="m^w_nanoAu" NumberOfComponents="1" format="ascii">
          1.76835e-15 1.7663e-15 1.7709e-15 1.77222e-15 1.77275e-15 1.77306e-15 1.77278e-15 1.77313e-15 1.77258e-15 1.77286e-15 1.77268e-15 1.77201e-15
          1.77261e-15 1.77273e-15 1.77212e-15 1.77238e-15 1.77252e-15 1.77234e-15 1.77236e-15 1.77201e-15 1.77393e-15 2.05791e-15 4.36427e-14 6.10947e-12
          8.42347e-10 1.07034e-09 1.42593e-09 2.01083e-09 6.6272e-15 6.40797e-15
        </DataArray>
        <DataArray type="Float32" Name="m^w_cyanide" NumberOfComponents="1" format="ascii">
          0.194987 0.194985 0.194984 0.194982 0.19498 0.194979 0.194977 0.194975 0.194974 0.194972 0.19497 0.194968
          0.194966 0.194964 0.194962 0.194959 0.194956 0.194952 0.194946 0.194939 0.19493 0.194916 0.194896 0.194866
          0.194834 0.247479 0.329548 0.470351 0.74768 0.738733
        </DataArray>
        <DataArray type="Float32" Name="m^w_citrate" NumberOfComponents="1" format="ascii">
          0.749742 0.749742 0.749742 0.749742 0.749742 0.749742 0.749741 0.749741 0.749741 0.749741 0.74974 0.74974
          0.749739 0.749739 0.749738 0.749736 0.749734 0.749731 0.749728 0.749722 0.749714 0.749701 0.749683 0.749653
          0.749604 0.749523 0.749358 0.748966 0.747683 0.738734
        </DataArray>
        <DataArray type="Float32" Name="m^w_substrate" NumberOfComponents="1" format="ascii">
          2.0177e-08 2.83166e-08 3.97374e-08 5.57616e-08 7.82447e-08 1.09791e-07 1.54056e-07 2.16177e-07 3.03375e-07 4.25816e-07 5.9783e-07 8.39666e-07
          1.18002e-06 1.65974e-06 2.33727e-06 3.29687e-06 4.66119e-06 6.61103e-06 9.41728e-06 1.34944e-05 1.94939e-05 2.84752e-05 4.224e-05 6.40336e-05
          0.000100167 0.000164263 0.000290459 0.000585852 0.00154234 0.00816559
        </DataArray>
        <DataArray type="Float32" Name="process rank" NumberOfComponents="1" format="ascii">
          0 0 0 0 0 0 0 0 0 0 0 0
          0 0 0 0 0 0 0 0 0 0 0 0
          0 0 0 0 0 0
        </DataArray>
      </CellData>
      <Points>
        <DataArray type="Float32" Name="Coordinates" NumberOfComponents="3" format="ascii">
          0 0 0 0.5 0 0 0 0.0333333 0 0.5 0.0333333 0
          0 0.0666667 0 0.5 0.0666667 0 0 0.1 0 0.5 0.1 0
          0 0.133333 0 0.5 0.133333 0 0 0.166667 0 0.5 0.166667 0
          0 0.2 0 0.5 0.2 0 0 0.233333 0 0.5 0.233333 0
          0 0.266667 0 0.5 0.266667 0 0 0.3 0 0.5 0.3 0
          0 0.333333 0 0.5 0.333333 0 0 0.366667 0 0.5 0.366667 0
          0 0.4 0 0.5 0.4 0 0 0.433333 0 0.5 0.433333 0
          0 0.466667 0 0.5 0.466667 0 0 0.5 0 0.5 0.5 0
          0 0.533333 0 0.5 0.533333 0 0 0.566667 0 0.5 0.566667 0
          0 0.6 0 0.5 0.6 0 0 0.633333 0 0.5 0.633333 0
          0 0.666667 0 0.5 0.666667 0 0 0.7 0 0.5 0.7 0
          0 0.733333 0 0.5 0.733333 0 0 0.766667 0 0.5 0.766667 0
          0 0.8 0 0.5 0.8 0 0 0.833333 0 0.5 0.833333 0
          0 0.866667 0 0.5 0.866667 0 0 0.9 0 0.5 0.9 0
          0 0.933333 0 0.5 0.933333 0 0 0.966667 0 0.5 0.966667 0
          0 1 0 0.5 1 0
        </DataArray>
      </Points>
      <Cells>
        <DataArray type="Int32" Name="connectivity" NumberOfComponents="1" format="ascii">
          0 1 3 2 2 3 5 4 4 5 7 6
          6 7 9 8 8 9 11 10 10 11 13 12
          12 13 15 14 14 15 17 16 16 17 19 18
          18 19 21 20 20 21 23 22 22 23 25 24
          24 25 27 26 26 27 29 28 28 29 31 30
          30 31 33 32 32 33 35 34 34 35 37 36
          36 37 39 38 38 39 41 40 40 41 43 42
          42 43 45 44 44 45 47 46 46 47 49 48
          48 49 51 50 50 51 53 52 52 53 55 54
          54 55 57 56 56 57 59 58 58 59 61 60
        </DataArray>
        <DataArray type="Int32" Name="offsets" NumberOfComponents="1" format="ascii">
          4 8 12 16 20 24 28 32 36 40 44 48
          52 56 60 64 68 72 76 80 84 88 92 96
          100 104 108 112 116 120
        </DataArray>
        <DataArray type="UInt8" Name="types" NumberOfComponents="1" format="ascii">
          9 9 9 9 9 9 9 9 9 9 9 9
          9 9 9 9 9 9 9 9 9 9 9 9
          9 9 9 9 9 9
        </DataArray>
      </Cells>
    </Piece>
  </UnstructuredGrid>
</VTKFile>
