<?xml version="1.0"?>
<VTKFile type="UnstructuredGrid" version="0.1" byte_order="LittleEndian">
  <UnstructuredGrid>
    <Piece NumberOfCells="30" NumberOfPoints="62">
      <CellData Scalars="Sg">
        <DataArray type="Float32" Name="Sg" NumberOfComponents="1" format="ascii">
          0 0 0 0 0 0 0 0 0 0 0 0
          0 0 0 0 0 0 0 0 0 0 0 0
          0 0 0 0 0 0
        </DataArray>
        <DataArray type="Float32" Name="Sl" NumberOfComponents="1" format="ascii">
          1 1 1 1 1 1 1 1 1 1 1 1
          1 1 1 1 1 1 1 1 1 1 1 1
          1 1 1 1 1 1
        </DataArray>
        <DataArray type="Float32" Name="pg" NumberOfComponents="1" format="ascii">
          24687.8 24360.9 24034 23707 23380.1 23053.1 22726.2 22399.3 22072.3 21745.4 21418.4 21091.5
          20764.6 20437.6 20110.7 19783.7 19456.8 19129.9 18802.9 18476 18149 17822.1 17495.1 17168.2
          16841.3 16514.3 16187.4 15860.4 15533.5 15206.7
        </DataArray>
        <DataArray type="Float32" Name="pl" NumberOfComponents="1" format="ascii">
          110628 110301 109974 109647 109320 108993 108666 108339 108012 107685 107358 107031
          106704 106377 106050 105723 105396 105070 104743 104416 104089 103762 103435 103108
          102781 102454 102127 101800 101473 101146
        </DataArray>
        <DataArray type="Float32" Name="pc" NumberOfComponents="1" format="ascii">
          -85939.7 -85939.7 -85939.7 -85939.7 -85939.7 -85939.7 -85939.7 -85939.7 -85939.7 -85939.7 -85939.7 -85939.7
          -85939.7 -85939.7 -85939.7 -85939.7 -85939.7 -85939.7 -85939.7 -85939.7 -85939.7 -85939.7 -85939.7 -85939.7
          -85939.7 -85939.7 -85939.7 -85939.7 -85939.7 -85939.7
        </DataArray>
        <DataArray type="Float32" Name="rhoL" NumberOfComponents="1" format="ascii">
          999.855 999.855 999.855 999.855 999.855 999.854 999.854 999.854 999.854 999.854 999.854 999.854
          999.853 999.853 999.853 999.853 999.853 999.853 999.852 999.852 999.852 999.852 999.852 999.852
          999.852 999.851 999.851 999.851 999.851 999.851
        </DataArray>
        <DataArray type="Float32" Name="rhoG" NumberOfComponents="1" format="ascii">
          0.30585 0.3018 0.29775 0.293699 0.289649 0.285598 0.281548 0.277498 0.273447 0.269397 0.265347 0.261296
          0.257246 0.253195 0.249145 0.245095 0.241044 0.236994 0.232944 0.228893 0.224843 0.220793 0.216742 0.212692
          0.208641 0.204591 0.200541 0.19649 0.19244 0.188392
        </DataArray>
        <DataArray type="Float32" Name="mobL" NumberOfComponents="1" format="ascii">
          722.171 722.17 722.17 722.17 722.17 722.17 722.169 722.169 722.169 722.169 722.169 722.169
          722.168 722.168 722.168 722.168 722.168 722.167 722.167 722.167 722.167 722.167 722.166 722.166
          722.166 722.166 722.166 722.166 722.165 722.165
        </DataArray>
        <DataArray type="Float32" Name="mobG" NumberOfComponents="1" format="ascii">
          0 0 0 0 0 0 0 0 0 0 0 0
          0 0 0 0 0 0 0 0 0 0 0 0
          0 0 0 0 0 0
        </DataArray>
        <DataArray type="Float32" Name="porosity" NumberOfComponents="1" format="ascii">
          0.298571 0.298571 0.298571 0.298571 0.298571 0.29857 0.29857 0.298569 0.298568 0.298566 0.298564 0.29856
          0.298556 0.298549 0.298541 0.298529 0.298512 0.29849 0.29846 0.298419 0.298361 0.298282 0.298167 0.297999
          0.297467 0.297026 0.296185 0.294168 0.286331 0.115055
        </DataArray>
        <DataArray type="Float32" Name="temperature" NumberOfComponents="1" format="ascii">
          281.15 281.15 281.15 281.15 281.15 281.15 281.15 281.15 281.15 281.15 281.15 281.15
          281.15 281.15 281.15 281.15 281.15 281.15 281.15 281.15 281.15 281.15 281.15 281.15
          281.15 281.15 281.15 281.15 281.15 281.15
        </DataArray>
        <DataArray type="Float32" Name="phase presence" NumberOfComponents="1" format="ascii">
          1 1 1 1 1 1 1 1 1 1 1 1
          1 1 1 1 1 1 1 1 1 1 1 1
          1 1 1 1 1 1
        </DataArray>
        <DataArray type="Float32" Name="precipitateVolumeFraction_au" NumberOfComponents="1" format="ascii">
          5.52401e-10 5.52286e-10 5.5243e-10 5.52468e-10 5.52492e-10 5.52511e-10 5.52497e-10 5.52529e-10 5.52488e-10 5.52522e-10 5.52506e-10 5.52424e-10
          5.52508e-10 5.52536e-10 5.52436e-10 5.52488e-10 5.52527e-10 5.525e-10 5.5252e-10 5.52452e-10 5.52475e-10 5.52478e-10 5.52566e-10 7.31297e-10
          0.00026994 0.000269924 0.000269899 0.000269854 5.51973e-10 5.5136e-10
        </DataArray>
        <DataArray type="Float32" Name="precipitateVolumeFraction_nanoAu" NumberOfComponents="1" format="ascii">
          3.66238e-13 3.5718e-13 3.79115e-13 3.85562e-13 3.88057e-13 3.89501e-13 3.8828e-13 3.89782e-13 3.87589e-13 3.88659e-13 3.88083e-13 3.85957e-13
          3.87856e-13 3.88222e-13 3.86725e-13 3.87414e-13 3.87743e-13 3.87465e-13 3.87553e-13 3.87149e-13 3.87247e-13 3.87243e-13 3.98657e-13 2.61525e-11
          6.04981e-08 7.68361e-08 1.02293e-07 1.45601e-07 7.34901e-13 7.23437e-13
        </DataArray>
        <DataArray type="Float32" Name="precipitateVolumeFraction_d" NumberOfComponents="1" format="ascii">
          0.000714264 0.000714315 0.000714389 0.000714494 0.000714644 0.000714857 0.000715161 0.000715591 0.000716198 0.00071705 0.000718242 0.000719902
          0.000722202 0.000725374 0.000729729 0.000735689 0.00074382 0.000754901 0.000770016 0.00079071 0.000819268 0.000859218 0.00091632 0.00100068
          0.00113173 0.00135207 0.00177226 0.00278113 0.00683456 0.0924726
        </DataArray>
        <DataArray type="Float32" Name="precipitateVolumeFraction_p" NumberOfComponents="1" format="ascii">
          0.000714264 0.000714315 0.000714389 0.000714494 0.000714644 0.000714857 0.000715161 0.000715591 0.000716198 0.00071705 0.000718242 0.000719902
          0.000722202 0.000725374 0.000729729 0.000735689 0.00074382 0.000754901 0.000770016 0.00079071 0.000819268 0.000859218 0.00091632 0.00100068
          0.00113173 0.00135207 0.00177226 0.00278113 0.00683456 0.0924726
        </DataArray>
        <DataArray type="Float32" Name="K" NumberOfComponents="1" format="ascii">
          9.81771e-11 9.8177e-11 9.81768e-11 9.81766e-11 9.81762e-11 9.81756e-11 9.81749e-11 9.81738e-11 9.81722e-11 9.81701e-11 9.81671e-11 9.81629e-11
          9.8157e-11 9.8149e-11 9.8138e-11 9.81229e-11 9.81023e-11 9.80743e-11 9.8036e-11 9.79837e-11 9.79115e-11 9.78106e-11 9.76665e-11 9.74539e-11
          9.6786e-11 9.62357e-11 9.51935e-11 9.27288e-11 8.36456e-11 3.5295e-12
        </DataArray>
        <DataArray type="Float32" Name="X^w_H2O" NumberOfComponents="1" format="ascii">
          0.999853 0.999853 0.999853 0.999853 0.999853 0.999853 0.999853 0.999853 0.999853 0.999853 0.999853 0.999853
          0.999853 0.999853 0.999853 0.999853 0.999853 0.999853 0.999853 0.999853 0.999853 0.999853 0.999853 0.999853
          0.999853 0.999852 0.99985 0.999846 0.999839 0.99984
        </DataArray>
        <DataArray type="Float32" Name="X^w_Air" NumberOfComponents="1" format="ascii">
          2.508e-21 4.48504e-23 7.88772e-25 1.36247e-26 2.31496e-28 3.87007e-30 6.35785e-32 1.02657e-33 1.6296e-35 2.54145e-37 0 0
          0 0 0 0 0 0 0 0 0 0 0 0
          0 0 0 0 0 0
        </DataArray>
        <DataArray type="Float32" Name="X^w_AuComplex" NumberOfComponents="1" format="ascii">
          3.75194e-16 3.66457e-16 3.87599e-16 3.9381e-16 3.96211e-16 3.97598e-16 3.96415e-16 3.97859e-16 3.95738e-16 3.96765e-16 3.96204e-16 3.94146e-16
          3.95972e-16 3.96319e-16 3.94864e-16 3.95522e-16 3.9583e-16 3.95549e-16 3.95619e-16 3.95207e-16 3.95277e-16 3.95237e-16 4.08133e-16 2.98026e-14
          6.90794e-11 1.07709e-10 1.84835e-10 3.64215e-10 2.79481e-15 2.71108e-15
        </DataArray>
        <DataArray type="Float32" Name="X^w_nanoAu" NumberOfComponents="1" format="ascii">
          1.00434e-18 9.80076e-19 1.03995e-18 1.05756e-18 1.06439e-18 1.0683e-18 1.065e-18 1.06905e-18 1.06309e-18 1.066e-18 1.06439e-18 1.05863e-18
          1.06381e-18 1.06478e-18 1.06071e-18 1.0626e-18 1.06348e-18 1.06272e-18 1.06295e-18 1.06184e-18 1.06248e-18 1.11871e-18 9.34588e-18 1.20773e-15
          1.66172e-13 2.11107e-13 2.81116e-13 3.96002e-13 2.00766e-18 1.93429e-18
        </DataArray>
        <DataArray type="Float32" Name="X^w_cyanide" NumberOfComponents="1" format="ascii">
          5.08129e-06 5.08123e-06 5.08117e-06 5.08111e-06 5.08104e-06 5.08098e-06 5.08091e-06 5.08084e-06 5.08077e-06 5.0807e-06 5.08063e-06 5.08055e-06
          5.08046e-06 5.08037e-06 5.08027e-06 5.08016e-06 5.08003e-06 5.07987e-06 5.07968e-06 5.07943e-06 5.07909e-06 5.07862e-06 5.07792e-06 5.07686e-06
          5.07562e-06 6.44605e-06 8.58157e-06 1.22425e-05 1.94401e-05 1.91537e-05
        </DataArray>
        <DataArray type="Float32" Name="X^w_citrate" NumberOfComponents="1" format="ascii">
          0.000141796 0.000141796 0.000141796 0.000141796 0.000141796 0.000141796 0.000141796 0.000141796 0.000141796 0.000141796 0.000141796 0.000141796
          0.000141796 0.000141796 0.000141795 0.000141795 0.000141795 0.000141794 0.000141793 0.000141792 0.00014179 0.000141787 0.000141783 0.000141775
          0.000141763 0.000141743 0.000141701 0.000141602 0.000141281 0.000139199
        </DataArray>
        <DataArray type="Float32" Name="X^w_substrate" NumberOfComponents="1" format="ascii">
          3.5637e-12 5.05354e-12 7.16596e-12 1.01611e-11 1.4408e-11 2.04298e-11 2.89695e-11 4.10814e-11 5.82641e-11 8.26496e-11 1.17276e-10 1.6648e-10
          2.36478e-10 3.36205e-10 4.78588e-10 6.82453e-10 9.75489e-10 1.39893e-09 2.01516e-09 2.92057e-09 4.26804e-09 6.30844e-09 9.47184e-09 1.45385e-08
          2.30348e-08 3.82681e-08 6.85245e-08 1.39603e-07 3.67013e-07 1.83522e-06
        </DataArray>
        <DataArray type="Float32" Name="m^w_H2O" NumberOfComponents="1" format="ascii">
          55492.6 55492.5 55492.5 55492.5 55492.5 55492.5 55492.5 55492.5 55492.5 55492.5 55492.5 55492.5
          55492.5 55492.4 55492.4 55492.4 55492.4 55492.4 55492.4 55492.4 55492.4 55492.4 55492.4 55492.4
          55492.3 55492.3 55492.1 55491.9 55491.5 55491.6
        </DataArray>
        <DataArray type="Float32" Name="m^w_Air" NumberOfComponents="1" format="ascii">
          8.65896e-17 1.54848e-18 2.72326e-20 4.70397e-22 7.99248e-24 1.33616e-25 2.19507e-27 3.54427e-29 5.62625e-31 8.77446e-33 1.34312e-34 2.01905e-36
          2.98134e-38 0 0 0 0 0 0 0 0 0 0 0
          0 0 0 0 0 0
        </DataArray>
        <DataArray type="Float32" Name="m^w_AuComplex" NumberOfComponents="1" format="ascii">
          1.90455e-12 1.8602e-12 1.96752e-12 1.99905e-12 2.01124e-12 2.01828e-12 2.01227e-12 2.0196e-12 2.00884e-12 2.01405e-12 2.0112e-12 2.00075e-12
          2.01002e-12 2.01178e-12 2.0044e-12 2.00774e-12 2.0093e-12 2.00787e-12 2.00823e-12 2.00614e-12 2.00649e-12 2.00629e-12 2.07175e-12 1.51283e-10
          3.50658e-07 5.46751e-07 9.38254e-07 1.84881e-06 1.41869e-11 1.37619e-11
        </DataArray>
        <DataArray type="Float32" Name="m^w_nanoAu" NumberOfComponents="1" format="ascii">
          5.09822e-15 4.97504e-15 5.27899e-15 5.36837e-15 5.40301e-15 5.42287e-15 5.40612e-15 5.42669e-15 5.39645e-15 5.41119e-15 5.40303e-15 5.37381e-15
          5.40009e-15 5.40501e-15 5.38436e-15 5.39391e-15 5.39842e-15 5.39456e-15 5.3957e-15 5.39008e-15 5.39332e-15 5.67878e-15 4.74412e-14 6.13061e-12
          8.43518e-10 1.07161e-09 1.42699e-09 2.01017e-09 1.01912e-14 9.81878e-15
        </DataArray>
        <DataArray type="Float32" Name="m^w_cyanide" NumberOfComponents="1" format="ascii">
          0.195256 0.195253 0.195251 0.195249 0.195246 0.195244 0.195241 0.195238 0.195236 0.195233 0.19523 0.195227
          0.195224 0.19522 0.195216 0.195212 0.195207 0.195201 0.195193 0.195184 0.195171 0.195152 0.195126 0.195085
          0.195037 0.247698 0.329758 0.470432 0.747011 0.736004
        </DataArray>
        <DataArray type="Float32" Name="m^w_citrate" NumberOfComponents="1" format="ascii">
          0.749742 0.749742 0.749742 0.749742 0.749742 0.749742 0.749741 0.749741 0.749741 0.749741 0.74974 0.74974
          0.749739 0.749738 0.749737 0.749736 0.749733 0.74973 0.749725 0.749718 0.749708 0.749693 0.749669 0.749631
          0.749567 0.749458 0.749237 0.748711 0.747015 0.736006
        </DataArray>
        <DataArray type="Float32" Name="m^w_substrate" NumberOfComponents="1" format="ascii">
          1.97779e-08 2.80462e-08 3.97698e-08 5.63923e-08 7.99615e-08 1.13382e-07 1.60775e-07 2.27994e-07 3.23355e-07 4.5869e-07 6.50857e-07 9.23934e-07
          1.31241e-06 1.86588e-06 2.65607e-06 3.78748e-06 5.41378e-06 7.76378e-06 1.11838e-05 1.62086e-05 2.36868e-05 3.50106e-05 5.25668e-05 8.06859e-05
          0.000127839 0.00021238 0.000380297 0.000774768 0.00203685 0.0101851
        </DataArray>
        <DataArray type="Float32" Name="process rank" NumberOfComponents="1" format="ascii">
          0 0 0 0 0 0 0 0 0 0 0 0
          0 0 0 0 0 0 0 0 0 0 0 0
          0 0 0 0 0 0
        </DataArray>
      </CellData>
      <Points>
        <DataArray type="Float32" Name="Coordinates" NumberOfComponents="3" format="ascii">
          0 0 0 0.5 0 0 0 0.0333333 0 0.5 0.0333333 0
          0 0.0666667 0 0.5 0.0666667 0 0 0.1 0 0.5 0.1 0
          0 0.133333 0 0.5 0.133333 0 0 0.166667 0 0.5 0.166667 0
          0 0.2 0 0.5 0.2 0 0 0.233333 0 0.5 0.233333 0
          0 0.266667 0 0.5 0.266667 0 0 0.3 0 0.5 0.3 0
          0 0.333333 0 0.5 0.333333 0 0 0.366667 0 0.5 0.366667 0
          0 0.4 0 0.5 0.4 0 0 0.433333 0 0.5 0.433333 0
          0 0.466667 0 0.5 0.466667 0 0 0.5 0 0.5 0.5 0
          0 0.533333 0 0.5 0.533333 0 0 0.566667 0 0.5 0.566667 0
          0 0.6 0 0.5 0.6 0 0 0.633333 0 0.5 0.633333 0
          0 0.666667 0 0.5 0.666667 0 0 0.7 0 0.5 0.7 0
          0 0.733333 0 0.5 0.733333 0 0 0.766667 0 0.5 0.766667 0
          0 0.8 0 0.5 0.8 0 0 0.833333 0 0.5 0.833333 0
          0 0.866667 0 0.5 0.866667 0 0 0.9 0 0.5 0.9 0
          0 0.933333 0 0.5 0.933333 0 0 0.966667 0 0.5 0.966667 0
          0 1 0 0.5 1 0
        </DataArray>
      </Points>
      <Cells>
        <DataArray type="Int32" Name="connectivity" NumberOfComponents="1" format="ascii">
          0 1 3 2 2 3 5 4 4 5 7 6
          6 7 9 8 8 9 11 10 10 11 13 12
          12 13 15 14 14 15 17 16 16 17 19 18
          18 19 21 20 20 21 23 22 22 23 25 24
          24 25 27 26 26 27 29 28 28 29 31 30
          30 31 33 32 32 33 35 34 34 35 37 36
          36 37 39 38 38 39 41 40 40 41 43 42
          42 43 45 44 44 45 47 46 46 47 49 48
          48 49 51 50 50 51 53 52 52 53 55 54
          54 55 57 56 56 57 59 58 58 59 61 60
        </DataArray>
        <DataArray type="Int32" Name="offsets" NumberOfComponents="1" format="ascii">
          4 8 12 16 20 24 28 32 36 40 44 48
          52 56 60 64 68 72 76 80 84 88 92 96
          100 104 108 112 116 120
        </DataArray>
        <DataArray type="UInt8" Name="types" NumberOfComponents="1" format="ascii">
          9 9 9 9 9 9 9 9 9 9 9 9
          9 9 9 9 9 9 9 9 9 9 9 9
          9 9 9 9 9 9
        </DataArray>
      </Cells>
    </Piece>
  </UnstructuredGrid>
</VTKFile>
