<?xml version="1.0"?>
<VTKFile type="UnstructuredGrid" version="0.1" byte_order="LittleEndian">
  <UnstructuredGrid>
    <Piece NumberOfCells="30" NumberOfPoints="62">
      <CellData Scalars="Sg">
        <DataArray type="Float32" Name="Sg" NumberOfComponents="1" format="ascii">
          0 0 0 0 0 0 0 0 0 0 0 0
          0 0 0 0 0 0 0 0 0 0 0 0
          0 0 0 0 0 0
        </DataArray>
        <DataArray type="Float32" Name="Sl" NumberOfComponents="1" format="ascii">
          1 1 1 1 1 1 1 1 1 1 1 1
          1 1 1 1 1 1 1 1 1 1 1 1
          1 1 1 1 1 1
        </DataArray>
        <DataArray type="Float32" Name="pg" NumberOfComponents="1" format="ascii">
          24687.8 24360.9 24034 23707 23380.1 23053.1 22726.2 22399.3 22072.3 21745.4 21418.4 21091.5
          20764.6 20437.6 20110.7 19783.7 19456.8 19129.8 18802.9 18476 18149 17822.1 17495.1 17168.2
          16841.3 16514.3 16187.4 15860.4 15533.5 15209.1
        </DataArray>
        <DataArray type="Float32" Name="pl" NumberOfComponents="1" format="ascii">
          110628 110301 109974 109647 109320 108993 108666 108339 108012 107685 107358 107031
          106704 106377 106050 105723 105396 105070 104743 104416 104089 103762 103435 103108
          102781 102454 102127 101800 101473 101149
        </DataArray>
        <DataArray type="Float32" Name="pc" NumberOfComponents="1" format="ascii">
          -85939.7 -85939.7 -85939.7 -85939.7 -85939.7 -85939.7 -85939.7 -85939.7 -85939.7 -85939.7 -85939.7 -85939.7
          -85939.7 -85939.7 -85939.7 -85939.7 -85939.7 -85939.7 -85939.7 -85939.7 -85939.7 -85939.7 -85939.7 -85939.7
          -85939.7 -85939.7 -85939.7 -85939.7 -85939.7 -85939.7
        </DataArray>
        <DataArray type="Float32" Name="rhoL" NumberOfComponents="1" format="ascii">
          999.855 999.855 999.855 999.855 999.855 999.854 999.854 999.854 999.854 999.854 999.854 999.854
          999.853 999.853 999.853 999.853 999.853 999.853 999.852 999.852 999.852 999.852 999.852 999.852
          999.852 999.851 999.851 999.851 999.851 999.851
        </DataArray>
        <DataArray type="Float32" Name="rhoG" NumberOfComponents="1" format="ascii">
          0.30585 0.3018 0.29775 0.293699 0.289649 0.285598 0.281548 0.277498 0.273447 0.269397 0.265347 0.261296
          0.257246 0.253195 0.249145 0.245095 0.241044 0.236994 0.232944 0.228893 0.224843 0.220793 0.216742 0.212692
          0.208641 0.204591 0.200541 0.19649 0.19244 0.188421
        </DataArray>
        <DataArray type="Float32" Name="mobL" NumberOfComponents="1" format="ascii">
          722.171 722.17 722.17 722.17 722.17 722.17 722.169 722.169 722.169 722.169 722.169 722.169
          722.168 722.168 722.168 722.168 722.168 722.167 722.167 722.167 722.167 722.167 722.166 722.166
          722.166 722.166 722.166 722.166 722.165 722.165
        </DataArray>
        <DataArray type="Float32" Name="mobG" NumberOfComponents="1" format="ascii">
          0 0 0 0 0 0 0 0 0 0 0 0
          0 0 0 0 0 0 0 0 0 0 0 0
          0 0 0 0 0 0
        </DataArray>
        <DataArray type="Float32" Name="porosity" NumberOfComponents="1" format="ascii">
          0.298744 0.298744 0.298744 0.298744 0.298744 0.298743 0.298743 0.298742 0.298741 0.298739 0.298737 0.298734
          0.29873 0.298725 0.298717 0.298706 0.298691 0.298672 0.298644 0.298607 0.298555 0.298482 0.298377 0.298221
          0.297704 0.29728 0.296442 0.294284 0.284303 0.0477402
        </DataArray>
        <DataArray type="Float32" Name="temperature" NumberOfComponents="1" format="ascii">
          281.15 281.15 281.15 281.15 281.15 281.15 281.15 281.15 281.15 281.15 281.15 281.15
          281.15 281.15 281.15 281.15 281.15 281.15 281.15 281.15 281.15 281.15 281.15 281.15
          281.15 281.15 281.15 281.15 281.15 281.15
        </DataArray>
        <DataArray type="Float32" Name="phase presence" NumberOfComponents="1" format="ascii">
          1 1 1 1 1 1 1 1 1 1 1 1
          1 1 1 1 1 1 1 1 1 1 1 1
          1 1 1 1 1 1
        </DataArray>
        <DataArray type="Float32" Name="precipitateVolumeFraction_au" NumberOfComponents="1" format="ascii">
          5.52644e-10 5.5252e-10 5.52685e-10 5.5273e-10 5.52757e-10 5.52776e-10 5.52762e-10 5.52795e-10 5.52752e-10 5.52787e-10 5.52771e-10 5.52687e-10
          5.52772e-10 5.52801e-10 5.52699e-10 5.52752e-10 5.52791e-10 5.52764e-10 5.52784e-10 5.52716e-10 5.52738e-10 5.52742e-10 5.52967e-10 1.04097e-09
          0.00026994 0.000269924 0.0002699 0.000269852 5.52233e-10 5.51608e-10
        </DataArray>
        <DataArray type="Float32" Name="precipitateVolumeFraction_nanoAu" NumberOfComponents="1" format="ascii">
          1.23634e-13 1.23606e-13 1.23643e-13 1.23653e-13 1.23659e-13 1.23663e-13 1.23659e-13 1.23667e-13 1.23657e-13 1.23664e-13 1.2366e-13 1.23641e-13
          1.2366e-13 1.23666e-13 1.23642e-13 1.23653e-13 1.2366e-13 1.23652e-13 1.23654e-13 1.23635e-13 1.23635e-13 1.23636e-13 1.34916e-13 2.57557e-11
          6.03677e-08 7.66908e-08 1.02155e-07 1.45579e-07 4.74215e-13 4.67764e-13
        </DataArray>
        <DataArray type="Float32" Name="precipitateVolumeFraction_d" NumberOfComponents="1" format="ascii">
          0.000627786 0.000627832 0.000627898 0.000627992 0.000628126 0.000628318 0.000628589 0.000628974 0.000629516 0.000630278 0.000631344 0.000632829
          0.000634886 0.000637725 0.000641627 0.000646971 0.000654273 0.000664241 0.00067787 0.000696587 0.000722517 0.000758979 0.000811457 0.000889736
          0.00101305 0.00122487 0.00164377 0.00272281 0.00784842 0.12613
        </DataArray>
        <DataArray type="Float32" Name="precipitateVolumeFraction_p" NumberOfComponents="1" format="ascii">
          0.000627786 0.000627832 0.000627898 0.000627992 0.000628126 0.000628318 0.000628589 0.000628974 0.000629516 0.000630278 0.000631344 0.000632829
          0.000634886 0.000637725 0.000641627 0.000646971 0.000654273 0.000664241 0.00067787 0.000696587 0.000722517 0.000758979 0.000811457 0.000889736
          0.00101305 0.00122487 0.00164377 0.00272281 0.00784842 0.12613
        </DataArray>
        <DataArray type="Float32" Name="K" NumberOfComponents="1" format="ascii">
          9.83964e-11 9.83963e-11 9.83961e-11 9.83959e-11 9.83955e-11 9.8395e-11 9.83943e-11 9.83934e-11 9.8392e-11 9.83901e-11 9.83873e-11 9.83836e-11
          9.83784e-11 9.83712e-11 9.83613e-11 9.83477e-11 9.83292e-11 9.83039e-11 9.82694e-11 9.82219e-11 9.81562e-11 9.80639e-11 9.79312e-11 9.77335e-11
          9.70835e-11 9.65531e-11 9.55112e-11 9.28698e-11 8.14178e-11 2.17758e-13
        </DataArray>
        <DataArray type="Float32" Name="X^w_H2O" NumberOfComponents="1" format="ascii">
          0.999853 0.999853 0.999853 0.999853 0.999853 0.999853 0.999853 0.999853 0.999853 0.999853 0.999853 0.999853
          0.999853 0.999853 0.999853 0.999853 0.999853 0.999853 0.999853 0.999853 0.999853 0.999853 0.999853 0.999853
          0.999853 0.999852 0.99985 0.999846 0.999839 0.999839
        </DataArray>
        <DataArray type="Float32" Name="X^w_Air" NumberOfComponents="1" format="ascii">
          0 0 0 0 0 0 0 0 0 0 0 0
          0 0 0 0 0 0 0 0 0 0 0 0
          0 0 0 0 0 0
        </DataArray>
        <DataArray type="Float32" Name="X^w_AuComplex" NumberOfComponents="1" format="ascii">
          1.41061e-16 1.41029e-16 1.41071e-16 1.41082e-16 1.41089e-16 1.41093e-16 1.41089e-16 1.41097e-16 1.41086e-16 1.41095e-16 1.4109e-16 1.41068e-16
          1.41088e-16 1.41094e-16 1.41067e-16 1.41078e-16 1.41086e-16 1.41075e-16 1.41074e-16 1.41049e-16 1.41044e-16 1.41038e-16 1.53816e-16 2.9365e-14
          6.88439e-11 1.07386e-10 1.8443e-10 3.64062e-10 1.83589e-15 1.79121e-15
        </DataArray>
        <DataArray type="Float32" Name="X^w_nanoAu" NumberOfComponents="1" format="ascii">
          3.39035e-19 3.3896e-19 3.39061e-19 3.39088e-19 3.39103e-19 3.39115e-19 3.39106e-19 3.39125e-19 3.39098e-19 3.39119e-19 3.39107e-19 3.39055e-19
          3.39106e-19 3.39121e-19 3.39057e-19 3.39085e-19 3.39105e-19 3.39082e-19 3.39085e-19 3.39033e-19 3.3941e-19 3.95195e-19 8.56958e-18 1.20184e-15
          1.65824e-13 2.10731e-13 2.808e-13 3.96135e-13 1.29707e-18 1.25688e-18
        </DataArray>
        <DataArray type="Float32" Name="X^w_cyanide" NumberOfComponents="1" format="ascii">
          5.07042e-06 5.07042e-06 5.07041e-06 5.07041e-06 5.07041e-06 5.0704e-06 5.0704e-06 5.07039e-06 5.07038e-06 5.07037e-06 5.07036e-06 5.07035e-06
          5.07033e-06 5.07031e-06 5.07028e-06 5.07024e-06 5.07019e-06 5.07011e-06 5.07001e-06 5.06986e-06 5.06965e-06 5.06934e-06 5.06888e-06 5.06818e-06
          5.06752e-06 6.4373e-06 8.57317e-06 1.22391e-05 1.9465e-05 1.92493e-05
        </DataArray>
        <DataArray type="Float32" Name="X^w_citrate" NumberOfComponents="1" format="ascii">
          0.000141796 0.000141796 0.000141796 0.000141796 0.000141796 0.000141796 0.000141796 0.000141796 0.000141796 0.000141796 0.000141796 0.000141796
          0.000141796 0.000141796 0.000141795 0.000141795 0.000141795 0.000141794 0.000141793 0.000141792 0.000141791 0.000141789 0.000141785 0.00014178
          0.000141772 0.000141758 0.000141732 0.000141669 0.000141462 0.000139893
        </DataArray>
        <DataArray type="Float32" Name="X^w_substrate" NumberOfComponents="1" format="ascii">
          5.88723e-12 8.0837e-12 1.10989e-11 1.52379e-11 2.09195e-11 2.87187e-11 3.94253e-11 5.41251e-11 7.43115e-11 1.02042e-10 1.40153e-10 1.9257e-10
          2.64737e-10 3.64238e-10 5.01701e-10 6.92137e-10 9.56954e-10 1.3271e-09 1.84804e-09 2.58809e-09 3.65272e-09 5.21065e-09 7.54433e-09 1.11555e-08
          1.70081e-08 2.71644e-08 4.67704e-08 9.20562e-08 2.39628e-07 1.34534e-06
        </DataArray>
        <DataArray type="Float32" Name="m^w_H2O" NumberOfComponents="1" format="ascii">
          55492.6 55492.6 55492.5 55492.5 55492.5 55492.5 55492.5 55492.5 55492.5 55492.5 55492.5 55492.5
          55492.5 55492.4 55492.4 55492.4 55492.4 55492.4 55492.4 55492.4 55492.4 55492.4 55492.4 55492.4
          55492.3 55492.3 55492.1 55491.9 55491.5 55491.5
        </DataArray>
        <DataArray type="Float32" Name="m^w_Air" NumberOfComponents="1" format="ascii">
          0 0 0 0 0 0 0 0 0 0 0 0
          0 0 0 0 0 0 0 0 0 0 0 0
          0 0 0 0 0 0
        </DataArray>
        <DataArray type="Float32" Name="m^w_AuComplex" NumberOfComponents="1" format="ascii">
          7.16051e-13 7.15889e-13 7.16102e-13 7.16158e-13 7.16191e-13 7.16215e-13 7.16195e-13 7.16235e-13 7.16178e-13 7.1622e-13 7.16195e-13 7.16083e-13
          7.16188e-13 7.1622e-13 7.1608e-13 7.16137e-13 7.16174e-13 7.16119e-13 7.16117e-13 7.1599e-13 7.15965e-13 7.15931e-13 7.80793e-13 1.49061e-10
          3.49463e-07 5.45108e-07 9.36197e-07 1.84803e-06 9.31927e-12 9.09245e-12
        </DataArray>
        <DataArray type="Float32" Name="m^w_nanoAu" NumberOfComponents="1" format="ascii">
          1.72101e-15 1.72062e-15 1.72113e-15 1.72127e-15 1.72135e-15 1.72141e-15 1.72136e-15 1.72146e-15 1.72132e-15 1.72143e-15 1.72137e-15 1.7211e-15
          1.72136e-15 1.72144e-15 1.72111e-15 1.72125e-15 1.72135e-15 1.72123e-15 1.72125e-15 1.72099e-15 1.7229e-15 2.00608e-15 4.35006e-14 6.10072e-12
          8.41749e-10 1.06971e-09 1.42539e-09 2.01084e-09 6.58415e-15 6.38012e-15
        </DataArray>
        <DataArray type="Float32" Name="m^w_cyanide" NumberOfComponents="1" format="ascii">
          0.194838 0.194838 0.194838 0.194838 0.194837 0.194837 0.194837 0.194837 0.194836 0.194836 0.194836 0.194835
          0.194834 0.194833 0.194832 0.194831 0.194829 0.194826 0.194822 0.194816 0.194808 0.194796 0.194778 0.194751
          0.194726 0.247361 0.329435 0.470302 0.747968 0.739678
        </DataArray>
        <DataArray type="Float32" Name="m^w_citrate" NumberOfComponents="1" format="ascii">
          0.749742 0.749742 0.749742 0.749742 0.749742 0.749742 0.749741 0.749741 0.749741 0.749741 0.74974 0.74974
          0.749739 0.749738 0.749737 0.749735 0.749733 0.74973 0.749726 0.749721 0.749713 0.749701 0.749683 0.749656
          0.749612 0.749541 0.7494 0.749068 0.74797 0.739679
        </DataArray>
        <DataArray type="Float32" Name="m^w_substrate" NumberOfComponents="1" format="ascii">
          3.2673e-08 4.48631e-08 6.1597e-08 8.45678e-08 1.16099e-07 1.59383e-07 2.18803e-07 3.00384e-07 4.12415e-07 5.66312e-07 7.77824e-07 1.06873e-06
          1.46924e-06 2.02145e-06 2.78434e-06 3.84122e-06 5.31091e-06 7.36512e-06 1.02563e-05 1.43634e-05 2.02719e-05 2.8918e-05 4.18695e-05 6.19106e-05
          9.43914e-05 0.000150757 0.000259566 0.000510893 0.00132989 0.00746635
        </DataArray>
        <DataArray type="Float32" Name="process rank" NumberOfComponents="1" format="ascii">
          0 0 0 0 0 0 0 0 0 0 0 0
          0 0 0 0 0 0 0 0 0 0 0 0
          0 0 0 0 0 0
        </DataArray>
      </CellData>
      <Points>
        <DataArray type="Float32" Name="Coordinates" NumberOfComponents="3" format="ascii">
          0 0 0 0.5 0 0 0 0.0333333 0 0.5 0.0333333 0
          0 0.0666667 0 0.5 0.0666667 0 0 0.1 0 0.5 0.1 0
          0 0.133333 0 0.5 0.133333 0 0 0.166667 0 0.5 0.166667 0
          0 0.2 0 0.5 0.2 0 0 0.233333 0 0.5 0.233333 0
          0 0.266667 0 0.5 0.266667 0 0 0.3 0 0.5 0.3 0
          0 0.333333 0 0.5 0.333333 0 0 0.366667 0 0.5 0.366667 0
          0 0.4 0 0.5 0.4 0 0 0.433333 0 0.5 0.433333 0
          0 0.466667 0 0.5 0.466667 0 0 0.5 0 0.5 0.5 0
          0 0.533333 0 0.5 0.533333 0 0 0.566667 0 0.5 0.566667 0
          0 0.6 0 0.5 0.6 0 0 0.633333 0 0.5 0.633333 0
          0 0.666667 0 0.5 0.666667 0 0 0.7 0 0.5 0.7 0
          0 0.733333 0 0.5 0.733333 0 0 0.766667 0 0.5 0.766667 0
          0 0.8 0 0.5 0.8 0 0 0.833333 0 0.5 0.833333 0
          0 0.866667 0 0.5 0.866667 0 0 0.9 0 0.5 0.9 0
          0 0.933333 0 0.5 0.933333 0 0 0.966667 0 0.5 0.966667 0
          0 1 0 0.5 1 0
        </DataArray>
      </Points>
      <Cells>
        <DataArray type="Int32" Name="connectivity" NumberOfComponents="1" format="ascii">
          0 1 3 2 2 3 5 4 4 5 7 6
          6 7 9 8 8 9 11 10 10 11 13 12
          12 13 15 14 14 15 17 16 16 17 19 18
          18 19 21 20 20 21 23 22 22 23 25 24
          24 25 27 26 26 27 29 28 28 29 31 30
          30 31 33 32 32 33 35 34 34 35 37 36
          36 37 39 38 38 39 41 40 40 41 43 42
          42 43 45 44 44 45 47 46 46 47 49 48
          48 49 51 50 50 51 53 52 52 53 55 54
          54 55 57 56 56 57 59 58 58 59 61 60
        </DataArray>
        <DataArray type="Int32" Name="offsets" NumberOfComponents="1" format="ascii">
          4 8 12 16 20 24 28 32 36 40 44 48
          52 56 60 64 68 72 76 80 84 88 92 96
          100 104 108 112 116 120
        </DataArray>
        <DataArray type="UInt8" Name="types" NumberOfComponents="1" format="ascii">
          9 9 9 9 9 9 9 9 9 9 9 9
          9 9 9 9 9 9 9 9 9 9 9 9
          9 9 9 9 9 9
        </DataArray>
      </Cells>
    </Piece>
  </UnstructuredGrid>
</VTKFile>
