<?xml version="1.0"?>
<VTKFile type="UnstructuredGrid" version="0.1" byte_order="LittleEndian">
  <UnstructuredGrid>
    <Piece NumberOfCells="30" NumberOfPoints="62">
      <CellData Scalars="Sg">
        <DataArray type="Float32" Name="Sg" NumberOfComponents="1" format="ascii">
          0 0 0 0 0 0 0 0 0 0 0 0
          0 0 0 0 0 0 0 0 0 0 0 0
          0 0 0 0 0 0
        </DataArray>
        <DataArray type="Float32" Name="Sl" NumberOfComponents="1" format="ascii">
          1 1 1 1 1 1 1 1 1 1 1 1
          1 1 1 1 1 1 1 1 1 1 1 1
          1 1 1 1 1 1
        </DataArray>
        <DataArray type="Float32" Name="pg" NumberOfComponents="1" format="ascii">
          24687.8 24360.9 24034 23707 23380.1 23053.1 22726.2 22399.3 22072.3 21745.4 21418.4 21091.5
          20764.6 20437.6 20110.7 19783.7 19456.8 19129.9 18802.9 18476 18149 17822.1 17495.1 17168.2
          16841.3 16514.3 16187.4 15860.4 15533.5 15206.7
        </DataArray>
        <DataArray type="Float32" Name="pl" NumberOfComponents="1" format="ascii">
          110628 110301 109974 109647 109320 108993 108666 108339 108012 107685 107358 107031
          106704 106377 106050 105723 105396 105070 104743 104416 104089 103762 103435 103108
          102781 102454 102127 101800 101473 101146
        </DataArray>
        <DataArray type="Float32" Name="pc" NumberOfComponents="1" format="ascii">
          -85939.7 -85939.7 -85939.7 -85939.7 -85939.7 -85939.7 -85939.7 -85939.7 -85939.7 -85939.7 -85939.7 -85939.7
          -85939.7 -85939.7 -85939.7 -85939.7 -85939.7 -85939.7 -85939.7 -85939.7 -85939.7 -85939.7 -85939.7 -85939.7
          -85939.7 -85939.7 -85939.7 -85939.7 -85939.7 -85939.7
        </DataArray>
        <DataArray type="Float32" Name="rhoL" NumberOfComponents="1" format="ascii">
          999.855 999.855 999.855 999.855 999.855 999.854 999.854 999.854 999.854 999.854 999.854 999.854
          999.853 999.853 999.853 999.853 999.853 999.853 999.852 999.852 999.852 999.852 999.852 999.852
          999.852 999.851 999.851 999.851 999.851 999.851
        </DataArray>
        <DataArray type="Float32" Name="rhoG" NumberOfComponents="1" format="ascii">
          0.30585 0.3018 0.29775 0.293699 0.289649 0.285598 0.281548 0.277498 0.273447 0.269397 0.265347 0.261296
          0.257246 0.253195 0.249145 0.245095 0.241044 0.236994 0.232944 0.228893 0.224843 0.220793 0.216742 0.212692
          0.208641 0.204591 0.200541 0.19649 0.19244 0.188392
        </DataArray>
        <DataArray type="Float32" Name="mobL" NumberOfComponents="1" format="ascii">
          722.171 722.17 722.17 722.17 722.17 722.17 722.169 722.169 722.169 722.169 722.169 722.169
          722.168 722.168 722.168 722.168 722.168 722.167 722.167 722.167 722.167 722.167 722.166 722.166
          722.166 722.166 722.166 722.166 722.165 722.165
        </DataArray>
        <DataArray type="Float32" Name="mobG" NumberOfComponents="1" format="ascii">
          0 0 0 0 0 0 0 0 0 0 0 0
          0 0 0 0 0 0 0 0 0 0 0 0
          0 0 0 0 0 0
        </DataArray>
        <DataArray type="Float32" Name="porosity" NumberOfComponents="1" format="ascii">
          0.298571 0.298571 0.298571 0.298571 0.29857 0.29857 0.298569 0.298568 0.298566 0.298564 0.298562 0.298558
          0.298552 0.298545 0.298535 0.298522 0.298504 0.29848 0.298448 0.298404 0.298343 0.298259 0.298139 0.297962
          0.297419 0.29696 0.296088 0.294002 0.285944 0.115745
        </DataArray>
        <DataArray type="Float32" Name="temperature" NumberOfComponents="1" format="ascii">
          281.15 281.15 281.15 281.15 281.15 281.15 281.15 281.15 281.15 281.15 281.15 281.15
          281.15 281.15 281.15 281.15 281.15 281.15 281.15 281.15 281.15 281.15 281.15 281.15
          281.15 281.15 281.15 281.15 281.15 281.15
        </DataArray>
        <DataArray type="Float32" Name="phase presence" NumberOfComponents="1" format="ascii">
          1 1 1 1 1 1 1 1 1 1 1 1
          1 1 1 1 1 1 1 1 1 1 1 1
          1 1 1 1 1 1
        </DataArray>
        <DataArray type="Float32" Name="precipitateVolumeFraction_au" NumberOfComponents="1" format="ascii">
          5.52365e-10 5.52282e-10 5.52514e-10 5.52487e-10 5.52492e-10 5.52498e-10 5.52512e-10 5.52472e-10 5.5249e-10 5.52498e-10 5.52471e-10 5.52526e-10
          5.52484e-10 5.52446e-10 5.52497e-10 5.52505e-10 5.52488e-10 5.52506e-10 5.5249e-10 5.52451e-10 5.52482e-10 5.525e-10 5.5257e-10 7.31424e-10
          0.00026994 0.000269924 0.000269899 0.000269854 5.51987e-10 5.50934e-10
        </DataArray>
        <DataArray type="Float32" Name="precipitateVolumeFraction_nanoAu" NumberOfComponents="1" format="ascii">
          3.58097e-13 3.5678e-13 3.91664e-13 3.87546e-13 3.88072e-13 3.88613e-13 3.89253e-13 3.86873e-13 3.87716e-13 3.87932e-13 3.87097e-13 3.88465e-13
          3.87459e-13 3.86791e-13 3.87607e-13 3.87648e-13 3.87425e-13 3.87545e-13 3.87404e-13 3.87181e-13 3.87313e-13 3.87365e-13 3.99472e-13 2.62049e-11
          6.05046e-08 7.68417e-08 1.02294e-07 1.45586e-07 7.3476e-13 7.22322e-13
        </DataArray>
        <DataArray type="Float32" Name="precipitateVolumeFraction_d" NumberOfComponents="1" format="ascii">
          0.000714397 0.000714466 0.000714563 0.0007147 0.000714893 0.000715164 0.000715542 0.000716071 0.000716806 0.000717824 0.000719228 0.000721157
          0.000723795 0.000727388 0.000732265 0.000738863 0.000747774 0.000759802 0.00077607 0.000798176 0.000828483 0.000870643 0.000930625 0.0010189
          0.00115563 0.00138486 0.00182085 0.00286406 0.00702784 0.0921274
        </DataArray>
        <DataArray type="Float32" Name="precipitateVolumeFraction_p" NumberOfComponents="1" format="ascii">
          0.000714397 0.000714466 0.000714563 0.0007147 0.000714893 0.000715164 0.000715542 0.000716071 0.000716806 0.000717824 0.000719228 0.000721157
          0.000723795 0.000727388 0.000732265 0.000738863 0.000747774 0.000759802 0.00077607 0.000798176 0.000828483 0.000870643 0.000930625 0.0010189
          0.00115563 0.00138486 0.00182085 0.00286406 0.00702784 0.0921274
        </DataArray>
        <DataArray type="Float32" Name="K" NumberOfComponents="1" format="ascii">
          9.81768e-11 9.81766e-11 9.81764e-11 9.8176e-11 9.81756e-11 9.81749e-11 9.81739e-11 9.81726e-11 9.81707e-11 9.81681e-11 9.81646e-11 9.81597e-11
          9.8153e-11 9.81439e-11 9.81316e-11 9.81149e-11 9.80923e-11 9.80619e-11 9.80207e-11 9.79648e-11 9.78882e-11 9.77817e-11 9.76304e-11 9.7408e-11
          9.67262e-11 9.61541e-11 9.50736e-11 9.25285e-11 8.32171e-11 3.59904e-12
        </DataArray>
        <DataArray type="Float32" Name="X^w_H2O" NumberOfComponents="1" format="ascii">
          0.999853 0.999853 0.999853 0.999853 0.999853 0.999853 0.999853 0.999853 0.999853 0.999853 0.999853 0.999853
          0.999853 0.999853 0.999853 0.999853 0.999853 0.999853 0.999853 0.999853 0.999853 0.999853 0.999853 0.999853
          0.999853 0.999852 0.99985 0.999846 0.999839 0.99984
        </DataArray>
        <DataArray type="Float32" Name="X^w_Air" NumberOfComponents="1" format="ascii">
          2.50668e-21 4.48261e-23 7.88322e-25 1.36165e-26 2.3135e-28 3.86748e-30 6.35314e-32 1.02571e-33 1.62804e-35 2.5387e-37 0 0
          0 0 0 0 0 0 0 0 0 0 0 0
          0 0 0 0 0 0
        </DataArray>
        <DataArray type="Float32" Name="X^w_AuComplex" NumberOfComponents="1" format="ascii">
          3.67429e-16 3.66153e-16 3.99786e-16 3.9581e-16 3.96312e-16 3.96828e-16 3.9744e-16 3.95138e-16 3.95946e-16 3.96148e-16 3.95335e-16 3.96649e-16
          3.95671e-16 3.95018e-16 3.95798e-16 3.95827e-16 3.95601e-16 3.95703e-16 3.95549e-16 3.95311e-16 3.95409e-16 3.95419e-16 4.0898e-16 2.9857e-14
          6.90914e-11 1.07722e-10 1.84839e-10 3.64149e-10 2.79351e-15 2.70416e-15
        </DataArray>
        <DataArray type="Float32" Name="X^w_nanoAu" NumberOfComponents="1" format="ascii">
          1.71606e-18 1.7116e-18 1.87678e-18 1.85728e-18 1.8598e-18 1.8624e-18 1.86531e-18 1.85407e-18 1.85808e-18 1.85906e-18 1.85517e-18 1.8616e-18
          1.8568e-18 1.85367e-18 1.85754e-18 1.85771e-18 1.85666e-18 1.85721e-18 1.85652e-18 1.85549e-18 1.86019e-18 2.23927e-18 3.72588e-17 3.26879e-15
          2.90654e-13 3.69323e-13 4.91868e-13 6.88905e-13 3.50531e-18 3.35722e-18
        </DataArray>
        <DataArray type="Float32" Name="X^w_cyanide" NumberOfComponents="1" format="ascii">
          5.08243e-06 5.08236e-06 5.0823e-06 5.08223e-06 5.08216e-06 5.08209e-06 5.08202e-06 5.08194e-06 5.08186e-06 5.08178e-06 5.0817e-06 5.08161e-06
          5.08152e-06 5.08142e-06 5.08131e-06 5.08118e-06 5.08103e-06 5.08086e-06 5.08063e-06 5.08035e-06 5.07997e-06 5.07943e-06 5.07865e-06 5.07747e-06
          5.07605e-06 6.4464e-06 8.58162e-06 1.22414e-05 1.94347e-05 1.91338e-05
        </DataArray>
        <DataArray type="Float32" Name="X^w_citrate" NumberOfComponents="1" format="ascii">
          0.000141795 0.000141795 0.000141795 0.000141795 0.000141795 0.000141795 0.000141795 0.000141795 0.000141795 0.000141795 0.000141795 0.000141795
          0.000141795 0.000141795 0.000141794 0.000141794 0.000141794 0.000141793 0.000141792 0.00014179 0.000141788 0.000141785 0.00014178 0.000141772
          0.000141758 0.000141736 0.00014169 0.000141583 0.000141242 0.000139054
        </DataArray>
        <DataArray type="Float32" Name="X^w_substrate" NumberOfComponents="1" format="ascii">
          5.66743e-12 7.91683e-12 1.10587e-11 1.54473e-11 2.15775e-11 3.01411e-11 4.21055e-11 5.88248e-11 8.21959e-11 1.14879e-10 1.60615e-10 2.24673e-10
          3.14502e-10 4.40685e-10 6.18343e-10 8.69256e-10 1.22512e-09 1.73266e-09 2.46195e-09 3.52038e-09 5.07699e-09 7.40736e-09 1.09811e-08 1.66458e-08
          2.60516e-08 4.2758e-08 7.56435e-08 1.5221e-07 3.94742e-07 1.93714e-06
        </DataArray>
        <DataArray type="Float32" Name="m^w_H2O" NumberOfComponents="1" format="ascii">
          55492.6 55492.5 55492.5 55492.5 55492.5 55492.5 55492.5 55492.5 55492.5 55492.5 55492.5 55492.5
          55492.5 55492.4 55492.4 55492.4 55492.4 55492.4 55492.4 55492.4 55492.4 55492.4 55492.4 55492.4
          55492.3 55492.3 55492.1 55491.9 55491.5 55491.6
        </DataArray>
        <DataArray type="Float32" Name="m^w_Air" NumberOfComponents="1" format="ascii">
          8.65442e-17 1.54764e-18 2.72171e-20 4.70114e-22 7.98743e-24 1.33526e-25 2.19344e-27 3.5413e-29 5.62086e-31 8.76495e-33 1.34144e-34 2.01606e-36
          2.97605e-38 0 0 0 0 0 0 0 0 0 0 0
          0 0 0 0 0 0
        </DataArray>
        <DataArray type="Float32" Name="m^w_AuComplex" NumberOfComponents="1" format="ascii">
          1.86514e-12 1.85866e-12 2.02939e-12 2.0092e-12 2.01175e-12 2.01437e-12 2.01747e-12 2.00579e-12 2.00989e-12 2.01091e-12 2.00679e-12 2.01346e-12
          2.00849e-12 2.00518e-12 2.00914e-12 2.00929e-12 2.00813e-12 2.00865e-12 2.00787e-12 2.00666e-12 2.00716e-12 2.00721e-12 2.07605e-12 1.51559e-10
          3.50719e-07 5.46815e-07 9.3827e-07 1.84848e-06 1.41803e-11 1.37267e-11
        </DataArray>
        <DataArray type="Float32" Name="m^w_nanoAu" NumberOfComponents="1" format="ascii">
          8.71101e-15 8.68837e-15 9.52686e-15 9.42789e-15 9.44068e-15 9.45386e-15 9.46864e-15 9.41158e-15 9.43193e-15 9.4369e-15 9.41715e-15 9.44981e-15
          9.42543e-15 9.40955e-15 9.42917e-15 9.43007e-15 9.42471e-15 9.4275e-15 9.42399e-15 9.41879e-15 9.44262e-15 1.13669e-14 1.89132e-13 1.65929e-11
          1.4754e-09 1.87474e-09 2.4968e-09 3.49699e-09 1.77935e-14 1.70418e-14
        </DataArray>
        <DataArray type="Float32" Name="m^w_cyanide" NumberOfComponents="1" format="ascii">
          0.195299 0.195297 0.195294 0.195292 0.195289 0.195286 0.195283 0.195281 0.195278 0.195274 0.195271 0.195268
          0.195264 0.19526 0.195256 0.195251 0.195245 0.195239 0.19523 0.195219 0.195204 0.195184 0.195154 0.195108
          0.195054 0.247711 0.32976 0.470392 0.746803 0.735239
        </DataArray>
        <DataArray type="Float32" Name="m^w_citrate" NumberOfComponents="1" format="ascii">
          0.749738 0.749738 0.749738 0.749738 0.749738 0.749738 0.749738 0.749737 0.749737 0.749737 0.749736 0.749736
          0.749735 0.749734 0.749732 0.74973 0.749727 0.749723 0.749718 0.74971 0.749698 0.74968 0.749654 0.749611
          0.74954 0.749421 0.749181 0.748615 0.746807 0.735242
        </DataArray>
        <DataArray type="Float32" Name="m^w_substrate" NumberOfComponents="1" format="ascii">
          3.14532e-08 4.3937e-08 6.1374e-08 8.57298e-08 1.19751e-07 1.67277e-07 2.33678e-07 3.26467e-07 4.56172e-07 6.37559e-07 8.91385e-07 1.24689e-06
          1.74543e-06 2.44572e-06 3.43169e-06 4.8242e-06 6.79916e-06 9.6159e-06 1.36634e-05 1.95374e-05 2.81763e-05 4.11093e-05 6.09429e-05 9.2381e-05
          0.000144581 0.000237298 0.000419806 0.000844733 0.00219074 0.0107507
        </DataArray>
        <DataArray type="Float32" Name="process rank" NumberOfComponents="1" format="ascii">
          0 0 0 0 0 0 0 0 0 0 0 0
          0 0 0 0 0 0 0 0 0 0 0 0
          0 0 0 0 0 0
        </DataArray>
      </CellData>
      <Points>
        <DataArray type="Float32" Name="Coordinates" NumberOfComponents="3" format="ascii">
          0 0 0 0.5 0 0 0 0.0333333 0 0.5 0.0333333 0
          0 0.0666667 0 0.5 0.0666667 0 0 0.1 0 0.5 0.1 0
          0 0.133333 0 0.5 0.133333 0 0 0.166667 0 0.5 0.166667 0
          0 0.2 0 0.5 0.2 0 0 0.233333 0 0.5 0.233333 0
          0 0.266667 0 0.5 0.266667 0 0 0.3 0 0.5 0.3 0
          0 0.333333 0 0.5 0.333333 0 0 0.366667 0 0.5 0.366667 0
          0 0.4 0 0.5 0.4 0 0 0.433333 0 0.5 0.433333 0
          0 0.466667 0 0.5 0.466667 0 0 0.5 0 0.5 0.5 0
          0 0.533333 0 0.5 0.533333 0 0 0.566667 0 0.5 0.566667 0
          0 0.6 0 0.5 0.6 0 0 0.633333 0 0.5 0.633333 0
          0 0.666667 0 0.5 0.666667 0 0 0.7 0 0.5 0.7 0
          0 0.733333 0 0.5 0.733333 0 0 0.766667 0 0.5 0.766667 0
          0 0.8 0 0.5 0.8 0 0 0.833333 0 0.5 0.833333 0
          0 0.866667 0 0.5 0.866667 0 0 0.9 0 0.5 0.9 0
          0 0.933333 0 0.5 0.933333 0 0 0.966667 0 0.5 0.966667 0
          0 1 0 0.5 1 0
        </DataArray>
      </Points>
      <Cells>
        <DataArray type="Int32" Name="connectivity" NumberOfComponents="1" format="ascii">
          0 1 3 2 2 3 5 4 4 5 7 6
          6 7 9 8 8 9 11 10 10 11 13 12
          12 13 15 14 14 15 17 16 16 17 19 18
          18 19 21 20 20 21 23 22 22 23 25 24
          24 25 27 26 26 27 29 28 28 29 31 30
          30 31 33 32 32 33 35 34 34 35 37 36
          36 37 39 38 38 39 41 40 40 41 43 42
          42 43 45 44 44 45 47 46 46 47 49 48
          48 49 51 50 50 51 53 52 52 53 55 54
          54 55 57 56 56 57 59 58 58 59 61 60
        </DataArray>
        <DataArray type="Int32" Name="offsets" NumberOfComponents="1" format="ascii">
          4 8 12 16 20 24 28 32 36 40 44 48
          52 56 60 64 68 72 76 80 84 88 92 96
          100 104 108 112 116 120
        </DataArray>
        <DataArray type="UInt8" Name="types" NumberOfComponents="1" format="ascii">
          9 9 9 9 9 9 9 9 9 9 9 9
          9 9 9 9 9 9 9 9 9 9 9 9
          9 9 9 9 9 9
        </DataArray>
      </Cells>
    </Piece>
  </UnstructuredGrid>
</VTKFile>
