<?xml version="1.0"?>
<VTKFile type="UnstructuredGrid" version="0.1" byte_order="LittleEndian">
  <UnstructuredGrid>
    <Piece NumberOfCells="30" NumberOfPoints="62">
      <CellData Scalars="Sg">
        <DataArray type="Float32" Name="Sg" NumberOfComponents="1" format="ascii">
          0 0 0 0 0 0 0 0 0 0 0 0
          0 0 0 0 0 0 0 0 0 0 0 0
          0 0 0 0 0 0
        </DataArray>
        <DataArray type="Float32" Name="Sl" NumberOfComponents="1" format="ascii">
          1 1 1 1 1 1 1 1 1 1 1 1
          1 1 1 1 1 1 1 1 1 1 1 1
          1 1 1 1 1 1
        </DataArray>
        <DataArray type="Float32" Name="pg" NumberOfComponents="1" format="ascii">
          24687.8 24360.9 24034 23707 23380.1 23053.1 22726.2 22399.3 22072.3 21745.4 21418.4 21091.5
          20764.6 20437.6 20110.7 19783.7 19456.8 19129.8 18802.9 18476 18149 17822.1 17495.1 17168.2
          16841.3 16514.3 16187.4 15860.4 15533.5 15209.5
        </DataArray>
        <DataArray type="Float32" Name="pl" NumberOfComponents="1" format="ascii">
          110628 110301 109974 109647 109320 108993 108666 108339 108012 107685 107358 107031
          106704 106377 106050 105723 105396 105070 104743 104416 104089 103762 103435 103108
          102781 102454 102127 101800 101473 101149
        </DataArray>
        <DataArray type="Float32" Name="pc" NumberOfComponents="1" format="ascii">
          -85939.7 -85939.7 -85939.7 -85939.7 -85939.7 -85939.7 -85939.7 -85939.7 -85939.7 -85939.7 -85939.7 -85939.7
          -85939.7 -85939.7 -85939.7 -85939.7 -85939.7 -85939.7 -85939.7 -85939.7 -85939.7 -85939.7 -85939.7 -85939.7
          -85939.7 -85939.7 -85939.7 -85939.7 -85939.7 -85939.7
        </DataArray>
        <DataArray type="Float32" Name="rhoL" NumberOfComponents="1" format="ascii">
          999.855 999.855 999.855 999.855 999.855 999.854 999.854 999.854 999.854 999.854 999.854 999.854
          999.853 999.853 999.853 999.853 999.853 999.853 999.852 999.852 999.852 999.852 999.852 999.852
          999.852 999.851 999.851 999.851 999.851 999.851
        </DataArray>
        <DataArray type="Float32" Name="rhoG" NumberOfComponents="1" format="ascii">
          0.30585 0.3018 0.29775 0.293699 0.289649 0.285598 0.281548 0.277498 0.273447 0.269397 0.265347 0.261296
          0.257246 0.253195 0.249145 0.245095 0.241044 0.236994 0.232944 0.228893 0.224843 0.220793 0.216742 0.212692
          0.208641 0.204591 0.200541 0.19649 0.19244 0.188425
        </DataArray>
        <DataArray type="Float32" Name="mobL" NumberOfComponents="1" format="ascii">
          722.171 722.17 722.17 722.17 722.17 722.17 722.169 722.169 722.169 722.169 722.169 722.169
          722.168 722.168 722.168 722.168 722.168 722.167 722.167 722.167 722.167 722.167 722.166 722.166
          722.166 722.166 722.166 722.166 722.165 722.165
        </DataArray>
        <DataArray type="Float32" Name="mobG" NumberOfComponents="1" format="ascii">
          0 0 0 0 0 0 0 0 0 0 0 0
          0 0 0 0 0 0 0 0 0 0 0 0
          0 0 0 0 0 0
        </DataArray>
        <DataArray type="Float32" Name="porosity" NumberOfComponents="1" format="ascii">
          0.2988 0.2988 0.2988 0.298799 0.298799 0.298798 0.298797 0.298796 0.298794 0.298792 0.298789 0.298785
          0.29878 0.298772 0.298762 0.298749 0.298731 0.298708 0.298676 0.298633 0.298575 0.298494 0.298379 0.298209
          0.297672 0.297213 0.296304 0.293938 0.282675 0.045692
        </DataArray>
        <DataArray type="Float32" Name="temperature" NumberOfComponents="1" format="ascii">
          281.15 281.15 281.15 281.15 281.15 281.15 281.15 281.15 281.15 281.15 281.15 281.15
          281.15 281.15 281.15 281.15 281.15 281.15 281.15 281.15 281.15 281.15 281.15 281.15
          281.15 281.15 281.15 281.15 281.15 281.15
        </DataArray>
        <DataArray type="Float32" Name="phase presence" NumberOfComponents="1" format="ascii">
          1 1 1 1 1 1 1 1 1 1 1 1
          1 1 1 1 1 1 1 1 1 1 1 1
          1 1 1 1 1 1
        </DataArray>
        <DataArray type="Float32" Name="precipitateVolumeFraction_au" NumberOfComponents="1" format="ascii">
          5.52684e-10 5.52789e-10 5.52736e-10 5.52799e-10 5.52754e-10 5.52733e-10 5.5273e-10 5.52728e-10 5.52753e-10 5.52785e-10 5.52742e-10 5.52698e-10
          5.52771e-10 5.52755e-10 5.52757e-10 5.5275e-10 5.52734e-10 5.52763e-10 5.52777e-10 5.52738e-10 5.52745e-10 5.52737e-10 5.52996e-10 1.15096e-09
          0.000269941 0.000269925 0.0002699 0.000269852 5.52278e-10 5.51676e-10
        </DataArray>
        <DataArray type="Float32" Name="precipitateVolumeFraction_nanoAu" NumberOfComponents="1" format="ascii">
          1.23656e-13 1.2368e-13 1.23668e-13 1.23682e-13 1.23672e-13 1.23667e-13 1.23666e-13 1.23666e-13 1.23671e-13 1.23678e-13 1.23668e-13 1.23658e-13
          1.23673e-13 1.23669e-13 1.23668e-13 1.23666e-13 1.2366e-13 1.23664e-13 1.23664e-13 1.23651e-13 1.23646e-13 1.23642e-13 1.34934e-13 2.57765e-11
          6.03672e-08 7.66885e-08 1.02148e-07 1.45562e-07 4.74139e-13 4.67213e-13
        </DataArray>
        <DataArray type="Float32" Name="precipitateVolumeFraction_d" NumberOfComponents="1" format="ascii">
          0.000599968 0.000600056 0.000600178 0.000600346 0.000600578 0.000600899 0.00060134 0.000601945 0.000602771 0.000603895 0.000605419 0.000607478
          0.000610248 0.000613963 0.000618931 0.000625561 0.000634403 0.000646208 0.000662024 0.000683357 0.000712457 0.00075285 0.000810396 0.000895599
          0.00102922 0.00125841 0.00171294 0.00289611 0.00866243 0.127154
        </DataArray>
        <DataArray type="Float32" Name="precipitateVolumeFraction_p" NumberOfComponents="1" format="ascii">
          0.000599968 0.000600056 0.000600178 0.000600346 0.000600578 0.000600899 0.00060134 0.000601945 0.000602771 0.000603895 0.000605419 0.000607478
          0.000610248 0.000613963 0.000618931 0.000625561 0.000634403 0.000646208 0.000662024 0.000683357 0.000712457 0.00075285 0.000810396 0.000895599
          0.00102922 0.00125841 0.00171294 0.00289611 0.00866243 0.127154
        </DataArray>
        <DataArray type="Float32" Name="K" NumberOfComponents="1" format="ascii">
          9.8467e-11 9.84668e-11 9.84665e-11 9.8466e-11 9.84654e-11 9.84646e-11 9.84635e-11 9.8462e-11 9.84599e-11 9.8457e-11 9.84531e-11 9.84479e-11
          9.84409e-11 9.84315e-11 9.84188e-11 9.8402e-11 9.83796e-11 9.83496e-11 9.83095e-11 9.82555e-11 9.81817e-11 9.80795e-11 9.79339e-11 9.77187e-11
          9.70429e-11 9.64693e-11 9.534e-11 9.24512e-11 7.96642e-11 1.90098e-13
        </DataArray>
        <DataArray type="Float32" Name="X^w_H2O" NumberOfComponents="1" format="ascii">
          0.999853 0.999853 0.999853 0.999853 0.999853 0.999853 0.999853 0.999853 0.999853 0.999853 0.999853 0.999853
          0.999853 0.999853 0.999853 0.999853 0.999853 0.999853 0.999853 0.999853 0.999853 0.999853 0.999853 0.999853
          0.999853 0.999852 0.99985 0.999846 0.999839 0.99984
        </DataArray>
        <DataArray type="Float32" Name="X^w_Air" NumberOfComponents="1" format="ascii">
          0 0 0 0 0 0 0 0 0 0 0 0
          0 0 0 0 0 0 0 0 0 0 0 0
          0 0 0 0 0 0
        </DataArray>
        <DataArray type="Float32" Name="X^w_AuComplex" NumberOfComponents="1" format="ascii">
          1.41105e-16 1.41132e-16 1.41118e-16 1.41134e-16 1.41122e-16 1.41117e-16 1.41116e-16 1.41115e-16 1.41121e-16 1.41129e-16 1.41117e-16 1.41105e-16
          1.41123e-16 1.41117e-16 1.41115e-16 1.41111e-16 1.41103e-16 1.41105e-16 1.41101e-16 1.41082e-16 1.4107e-16 1.41056e-16 1.53847e-16 2.93902e-14
          6.88441e-11 1.07381e-10 1.84411e-10 3.63982e-10 1.83516e-15 1.7868e-15
        </DataArray>
        <DataArray type="Float32" Name="X^w_nanoAu" NumberOfComponents="1" format="ascii">
          3.39098e-19 3.39161e-19 3.39129e-19 3.39167e-19 3.39139e-19 3.39126e-19 3.39124e-19 3.39122e-19 3.39137e-19 3.39155e-19 3.39128e-19 3.391e-19
          3.39142e-19 3.3913e-19 3.39127e-19 3.39118e-19 3.39102e-19 3.39112e-19 3.39108e-19 3.39071e-19 3.39434e-19 3.95192e-19 8.5683e-18 1.20174e-15
          1.65816e-13 2.10714e-13 2.80761e-13 3.96041e-13 1.29653e-18 1.25372e-18
        </DataArray>
        <DataArray type="Float32" Name="X^w_cyanide" NumberOfComponents="1" format="ascii">
          5.07117e-06 5.07117e-06 5.07117e-06 5.07117e-06 5.07117e-06 5.07116e-06 5.07116e-06 5.07116e-06 5.07115e-06 5.07114e-06 5.07113e-06 5.07111e-06
          5.07109e-06 5.07106e-06 5.07102e-06 5.07096e-06 5.07089e-06 5.07078e-06 5.07065e-06 5.07045e-06 5.07019e-06 5.06981e-06 5.06925e-06 5.06841e-06
          5.06758e-06 6.43721e-06 8.57274e-06 1.22377e-05 1.94603e-05 1.92235e-05
        </DataArray>
        <DataArray type="Float32" Name="X^w_citrate" NumberOfComponents="1" format="ascii">
          0.000141796 0.000141796 0.000141796 0.000141796 0.000141796 0.000141796 0.000141796 0.000141796 0.000141796 0.000141796 0.000141796 0.000141796
          0.000141795 0.000141795 0.000141795 0.000141794 0.000141794 0.000141793 0.000141792 0.000141791 0.000141789 0.000141786 0.000141782 0.000141776
          0.000141766 0.000141751 0.000141721 0.000141652 0.000141427 0.000139706
        </DataArray>
        <DataArray type="Float32" Name="X^w_substrate" NumberOfComponents="1" format="ascii">
          1.73094e-11 2.28844e-11 3.02536e-11 3.99945e-11 5.2871e-11 6.98942e-11 9.24027e-11 1.22172e-10 1.61557e-10 2.13693e-10 2.82759e-10 3.74345e-10
          4.95966e-10 6.57778e-10 8.73611e-10 1.16248e-09 1.55083e-09 2.07604e-09 2.79194e-09 3.77787e-09 5.1544e-09 7.11167e-09 9.96411e-09 1.42643e-08
          2.10649e-08 3.26015e-08 5.44237e-08 1.03991e-07 2.64031e-07 1.47759e-06
        </DataArray>
        <DataArray type="Float32" Name="m^w_H2O" NumberOfComponents="1" format="ascii">
          55492.6 55492.6 55492.5 55492.5 55492.5 55492.5 55492.5 55492.5 55492.5 55492.5 55492.5 55492.5
          55492.5 55492.4 55492.4 55492.4 55492.4 55492.4 55492.4 55492.4 55492.4 55492.4 55492.4 55492.4
          55492.3 55492.3 55492.1 55491.9 55491.5 55491.6
        </DataArray>
        <DataArray type="Float32" Name="m^w_Air" NumberOfComponents="1" format="ascii">
          0 0 0 0 0 0 0 0 0 0 0 0
          0 0 0 0 0 0 0 0 0 0 0 0
          0 0 0 0 0 0
        </DataArray>
        <DataArray type="Float32" Name="m^w_AuComplex" NumberOfComponents="1" format="ascii">
          7.16274e-13 7.1641e-13 7.1634e-13 7.16422e-13 7.16362e-13 7.16335e-13 7.16329e-13 7.16325e-13 7.16355e-13 7.16394e-13 7.16335e-13 7.16274e-13
          7.16362e-13 7.16333e-13 7.16324e-13 7.16301e-13 7.16261e-13 7.16272e-13 7.16254e-13 7.16154e-13 7.16093e-13 7.16026e-13 7.80951e-13 1.49189e-10
          3.49464e-07 5.45086e-07 9.36098e-07 1.84763e-06 9.31558e-12 9.0701e-12
        </DataArray>
        <DataArray type="Float32" Name="m^w_nanoAu" NumberOfComponents="1" format="ascii">
          1.72132e-15 1.72164e-15 1.72148e-15 1.72167e-15 1.72153e-15 1.72146e-15 1.72145e-15 1.72144e-15 1.72152e-15 1.72161e-15 1.72147e-15 1.72133e-15
          1.72154e-15 1.72148e-15 1.72147e-15 1.72142e-15 1.72134e-15 1.72139e-15 1.72137e-15 1.72118e-15 1.72302e-15 2.00606e-15 4.34941e-14 6.10024e-12
          8.41708e-10 1.06962e-09 1.42519e-09 2.01037e-09 6.58139e-15 6.36407e-15
        </DataArray>
        <DataArray type="Float32" Name="m^w_cyanide" NumberOfComponents="1" format="ascii">
          0.194867 0.194867 0.194867 0.194867 0.194867 0.194867 0.194866 0.194866 0.194866 0.194865 0.194865 0.194864
          0.194863 0.194862 0.194861 0.194858 0.194855 0.194852 0.194846 0.194839 0.194828 0.194814 0.194792 0.19476
          0.194728 0.247358 0.329418 0.47025 0.747785 0.738686
        </DataArray>
        <DataArray type="Float32" Name="m^w_citrate" NumberOfComponents="1" format="ascii">
          0.749742 0.749742 0.749742 0.749742 0.749741 0.749741 0.749741 0.749741 0.74974 0.74974 0.749739 0.749738
          0.749737 0.749736 0.749734 0.749732 0.749729 0.749725 0.749719 0.749712 0.749701 0.749687 0.749665 0.749633
          0.749582 0.7495 0.749342 0.748978 0.747787 0.738688
        </DataArray>
        <DataArray type="Float32" Name="m^w_substrate" NumberOfComponents="1" format="ascii">
          9.60639e-08 1.27004e-07 1.67902e-07 2.21962e-07 2.93425e-07 3.879e-07 5.12818e-07 6.78029e-07 8.96611e-07 1.18596e-06 1.56926e-06 2.07754e-06
          2.75252e-06 3.65054e-06 4.84837e-06 6.45152e-06 8.6068e-06 1.15216e-05 1.54947e-05 2.09664e-05 2.86059e-05 3.94683e-05 5.52988e-05 7.91643e-05
          0.000116906 0.000180932 0.00030204 0.000577128 0.00146532 0.0082003
        </DataArray>
        <DataArray type="Float32" Name="process rank" NumberOfComponents="1" format="ascii">
          0 0 0 0 0 0 0 0 0 0 0 0
          0 0 0 0 0 0 0 0 0 0 0 0
          0 0 0 0 0 0
        </DataArray>
      </CellData>
      <Points>
        <DataArray type="Float32" Name="Coordinates" NumberOfComponents="3" format="ascii">
          0 0 0 0.5 0 0 0 0.0333333 0 0.5 0.0333333 0
          0 0.0666667 0 0.5 0.0666667 0 0 0.1 0 0.5 0.1 0
          0 0.133333 0 0.5 0.133333 0 0 0.166667 0 0.5 0.166667 0
          0 0.2 0 0.5 0.2 0 0 0.233333 0 0.5 0.233333 0
          0 0.266667 0 0.5 0.266667 0 0 0.3 0 0.5 0.3 0
          0 0.333333 0 0.5 0.333333 0 0 0.366667 0 0.5 0.366667 0
          0 0.4 0 0.5 0.4 0 0 0.433333 0 0.5 0.433333 0
          0 0.466667 0 0.5 0.466667 0 0 0.5 0 0.5 0.5 0
          0 0.533333 0 0.5 0.533333 0 0 0.566667 0 0.5 0.566667 0
          0 0.6 0 0.5 0.6 0 0 0.633333 0 0.5 0.633333 0
          0 0.666667 0 0.5 0.666667 0 0 0.7 0 0.5 0.7 0
          0 0.733333 0 0.5 0.733333 0 0 0.766667 0 0.5 0.766667 0
          0 0.8 0 0.5 0.8 0 0 0.833333 0 0.5 0.833333 0
          0 0.866667 0 0.5 0.866667 0 0 0.9 0 0.5 0.9 0
          0 0.933333 0 0.5 0.933333 0 0 0.966667 0 0.5 0.966667 0
          0 1 0 0.5 1 0
        </DataArray>
      </Points>
      <Cells>
        <DataArray type="Int32" Name="connectivity" NumberOfComponents="1" format="ascii">
          0 1 3 2 2 3 5 4 4 5 7 6
          6 7 9 8 8 9 11 10 10 11 13 12
          12 13 15 14 14 15 17 16 16 17 19 18
          18 19 21 20 20 21 23 22 22 23 25 24
          24 25 27 26 26 27 29 28 28 29 31 30
          30 31 33 32 32 33 35 34 34 35 37 36
          36 37 39 38 38 39 41 40 40 41 43 42
          42 43 45 44 44 45 47 46 46 47 49 48
          48 49 51 50 50 51 53 52 52 53 55 54
          54 55 57 56 56 57 59 58 58 59 61 60
        </DataArray>
        <DataArray type="Int32" Name="offsets" NumberOfComponents="1" format="ascii">
          4 8 12 16 20 24 28 32 36 40 44 48
          52 56 60 64 68 72 76 80 84 88 92 96
          100 104 108 112 116 120
        </DataArray>
        <DataArray type="UInt8" Name="types" NumberOfComponents="1" format="ascii">
          9 9 9 9 9 9 9 9 9 9 9 9
          9 9 9 9 9 9 9 9 9 9 9 9
          9 9 9 9 9 9
        </DataArray>
      </Cells>
    </Piece>
  </UnstructuredGrid>
</VTKFile>
