<?xml version="1.0"?>
<VTKFile type="UnstructuredGrid" version="0.1" byte_order="LittleEndian">
  <UnstructuredGrid>
    <Piece NumberOfCells="30" NumberOfPoints="62">
      <CellData Scalars="Sg">
        <DataArray type="Float32" Name="Sg" NumberOfComponents="1" format="ascii">
          0 0 0 0 0 0 0 0 0 0 0 0
          0 0 0 0 0 0 0 0 0 0 0 0
          0 0 0 0 0 0
        </DataArray>
        <DataArray type="Float32" Name="Sl" NumberOfComponents="1" format="ascii">
          1 1 1 1 1 1 1 1 1 1 1 1
          1 1 1 1 1 1 1 1 1 1 1 1
          1 1 1 1 1 1
        </DataArray>
        <DataArray type="Float32" Name="pg" NumberOfComponents="1" format="ascii">
          24687.8 24360.9 24034 23707 23380.1 23053.1 22726.2 22399.3 22072.3 21745.4 21418.4 21091.5
          20764.6 20437.6 20110.7 19783.7 19456.8 19129.8 18802.9 18476 18149 17822.1 17495.1 17168.2
          16841.3 16514.3 16187.4 15860.4 15533.5 15209.5
        </DataArray>
        <DataArray type="Float32" Name="pl" NumberOfComponents="1" format="ascii">
          110628 110301 109974 109647 109320 108993 108666 108339 108012 107685 107358 107031
          106704 106377 106050 105723 105396 105070 104743 104416 104089 103762 103435 103108
          102781 102454 102127 101800 101473 101149
        </DataArray>
        <DataArray type="Float32" Name="pc" NumberOfComponents="1" format="ascii">
          -85939.7 -85939.7 -85939.7 -85939.7 -85939.7 -85939.7 -85939.7 -85939.7 -85939.7 -85939.7 -85939.7 -85939.7
          -85939.7 -85939.7 -85939.7 -85939.7 -85939.7 -85939.7 -85939.7 -85939.7 -85939.7 -85939.7 -85939.7 -85939.7
          -85939.7 -85939.7 -85939.7 -85939.7 -85939.7 -85939.7
        </DataArray>
        <DataArray type="Float32" Name="rhoL" NumberOfComponents="1" format="ascii">
          999.855 999.855 999.855 999.855 999.855 999.854 999.854 999.854 999.854 999.854 999.854 999.854
          999.853 999.853 999.853 999.853 999.853 999.853 999.852 999.852 999.852 999.852 999.852 999.852
          999.852 999.851 999.851 999.851 999.851 999.851
        </DataArray>
        <DataArray type="Float32" Name="rhoG" NumberOfComponents="1" format="ascii">
          0.30585 0.3018 0.29775 0.293699 0.289649 0.285598 0.281548 0.277498 0.273447 0.269397 0.265347 0.261296
          0.257246 0.253195 0.249145 0.245095 0.241044 0.236994 0.232944 0.228893 0.224843 0.220793 0.216742 0.212692
          0.208641 0.204591 0.200541 0.19649 0.19244 0.188426
        </DataArray>
        <DataArray type="Float32" Name="mobL" NumberOfComponents="1" format="ascii">
          722.171 722.17 722.17 722.17 722.17 722.17 722.169 722.169 722.169 722.169 722.169 722.169
          722.168 722.168 722.168 722.168 722.168 722.167 722.167 722.167 722.167 722.167 722.166 722.166
          722.166 722.166 722.166 722.166 722.165 722.165
        </DataArray>
        <DataArray type="Float32" Name="mobG" NumberOfComponents="1" format="ascii">
          0 0 0 0 0 0 0 0 0 0 0 0
          0 0 0 0 0 0 0 0 0 0 0 0
          0 0 0 0 0 0
        </DataArray>
        <DataArray type="Float32" Name="porosity" NumberOfComponents="1" format="ascii">
          0.298822 0.298822 0.298821 0.298821 0.298821 0.29882 0.298819 0.298818 0.298816 0.298814 0.298811 0.298807
          0.298802 0.298794 0.298784 0.298771 0.298754 0.298731 0.298699 0.298657 0.2986 0.29852 0.298407 0.298238
          0.297703 0.297248 0.296343 0.293968 0.282489 0.0452852
        </DataArray>
        <DataArray type="Float32" Name="temperature" NumberOfComponents="1" format="ascii">
          281.15 281.15 281.15 281.15 281.15 281.15 281.15 281.15 281.15 281.15 281.15 281.15
          281.15 281.15 281.15 281.15 281.15 281.15 281.15 281.15 281.15 281.15 281.15 281.15
          281.15 281.15 281.15 281.15 281.15 281.15
        </DataArray>
        <DataArray type="Float32" Name="phase presence" NumberOfComponents="1" format="ascii">
          1 1 1 1 1 1 1 1 1 1 1 1
          1 1 1 1 1 1 1 1 1 1 1 1
          1 1 1 1 1 1
        </DataArray>
        <DataArray type="Float32" Name="precipitateVolumeFraction_au" NumberOfComponents="1" format="ascii">
          5.52684e-10 5.52789e-10 5.52736e-10 5.52799e-10 5.52754e-10 5.52733e-10 5.5273e-10 5.52728e-10 5.52753e-10 5.52785e-10 5.52742e-10 5.52698e-10
          5.52771e-10 5.52755e-10 5.52757e-10 5.5275e-10 5.52734e-10 5.52763e-10 5.52777e-10 5.52738e-10 5.52745e-10 5.52737e-10 5.53015e-10 1.19505e-09
          0.000269941 0.000269925 0.0002699 0.000269852 5.52278e-10 5.51675e-10
        </DataArray>
        <DataArray type="Float32" Name="precipitateVolumeFraction_nanoAu" NumberOfComponents="1" format="ascii">
          1.23654e-13 1.23677e-13 1.23665e-13 1.2368e-13 1.23669e-13 1.23665e-13 1.23664e-13 1.23663e-13 1.23669e-13 1.23676e-13 1.23666e-13 1.23656e-13
          1.23671e-13 1.23667e-13 1.23666e-13 1.23663e-13 1.23658e-13 1.23662e-13 1.23662e-13 1.23648e-13 1.23643e-13 1.2364e-13 1.34939e-13 2.57847e-11
          6.03659e-08 7.66871e-08 1.02147e-07 1.45562e-07 4.74153e-13 4.67227e-13
        </DataArray>
        <DataArray type="Float32" Name="precipitateVolumeFraction_d" NumberOfComponents="1" format="ascii">
          0.000589087 0.000589173 0.000589293 0.000589459 0.000589689 0.000590005 0.00059044 0.000591036 0.00059185 0.000592958 0.00059446 0.000596489
          0.000599218 0.000602879 0.000607774 0.000614307 0.000623021 0.000634657 0.000650249 0.000671288 0.000699999 0.000739873 0.000796723 0.000880981
          0.00101332 0.00124082 0.00169369 0.00288085 0.0087553 0.127357
        </DataArray>
        <DataArray type="Float32" Name="precipitateVolumeFraction_p" NumberOfComponents="1" format="ascii">
          0.000589087 0.000589173 0.000589293 0.000589459 0.000589689 0.000590005 0.00059044 0.000591036 0.00059185 0.000592958 0.00059446 0.000596489
          0.000599218 0.000602879 0.000607774 0.000614307 0.000623021 0.000634657 0.000650249 0.000671288 0.000699999 0.000739873 0.000796723 0.000880981
          0.00101332 0.00124082 0.00169369 0.00288085 0.0087553 0.127357
        </DataArray>
        <DataArray type="Float32" Name="K" NumberOfComponents="1" format="ascii">
          9.84946e-11 9.84944e-11 9.84941e-11 9.84937e-11 9.84931e-11 9.84923e-11 9.84912e-11 9.84897e-11 9.84876e-11 9.84848e-11 9.8481e-11 9.84758e-11
          9.84689e-11 9.84596e-11 9.84472e-11 9.84306e-11 9.84085e-11 9.83789e-11 9.83394e-11 9.8286e-11 9.82133e-11 9.81123e-11 9.79685e-11 9.77556e-11
          9.70828e-11 9.65133e-11 9.53877e-11 9.2488e-11 7.94661e-11 1.84908e-13
        </DataArray>
        <DataArray type="Float32" Name="X^w_H2O" NumberOfComponents="1" format="ascii">
          0.999853 0.999853 0.999853 0.999853 0.999853 0.999853 0.999853 0.999853 0.999853 0.999853 0.999853 0.999853
          0.999853 0.999853 0.999853 0.999853 0.999853 0.999853 0.999853 0.999853 0.999853 0.999853 0.999853 0.999853
          0.999853 0.999852 0.99985 0.999846 0.999839 0.99984
        </DataArray>
        <DataArray type="Float32" Name="X^w_Air" NumberOfComponents="1" format="ascii">
          0 0 0 0 0 0 0 0 0 0 0 0
          0 0 0 0 0 0 0 0 0 0 0 0
          0 0 0 0 0 0
        </DataArray>
        <DataArray type="Float32" Name="X^w_AuComplex" NumberOfComponents="1" format="ascii">
          1.41101e-16 1.41127e-16 1.41114e-16 1.4113e-16 1.41118e-16 1.41113e-16 1.41112e-16 1.41111e-16 1.41117e-16 1.41125e-16 1.41113e-16 1.41101e-16
          1.41119e-16 1.41113e-16 1.41111e-16 1.41106e-16 1.41098e-16 1.41101e-16 1.41097e-16 1.41077e-16 1.41065e-16 1.41052e-16 1.5385e-16 2.93992e-14
          6.88417e-11 1.07378e-10 1.84407e-10 3.63982e-10 1.83526e-15 1.7869e-15
        </DataArray>
        <DataArray type="Float32" Name="X^w_nanoAu" NumberOfComponents="1" format="ascii">
          3.39091e-19 3.39155e-19 3.39122e-19 3.39161e-19 3.39133e-19 3.3912e-19 3.39118e-19 3.39116e-19 3.39131e-19 3.39149e-19 3.39122e-19 3.39094e-19
          3.39136e-19 3.39124e-19 3.39121e-19 3.39112e-19 3.39096e-19 3.39105e-19 3.39101e-19 3.39064e-19 3.39426e-19 3.95182e-19 8.56805e-18 1.20172e-15
          1.65812e-13 2.10709e-13 2.80758e-13 3.96044e-13 1.2966e-18 1.25379e-18
        </DataArray>
        <DataArray type="Float32" Name="X^w_cyanide" NumberOfComponents="1" format="ascii">
          5.0711e-06 5.0711e-06 5.0711e-06 5.0711e-06 5.0711e-06 5.0711e-06 5.0711e-06 5.07109e-06 5.07108e-06 5.07108e-06 5.07106e-06 5.07105e-06
          5.07102e-06 5.07099e-06 5.07095e-06 5.07089e-06 5.07081e-06 5.07071e-06 5.07057e-06 5.07038e-06 5.0701e-06 5.06972e-06 5.06916e-06 5.06832e-06
          5.06749e-06 6.43711e-06 8.57265e-06 1.22377e-05 1.94608e-05 1.92239e-05
        </DataArray>
        <DataArray type="Float32" Name="X^w_citrate" NumberOfComponents="1" format="ascii">
          0.000141796 0.000141796 0.000141796 0.000141796 0.000141796 0.000141796 0.000141796 0.000141796 0.000141796 0.000141796 0.000141796 0.000141795
          0.000141795 0.000141795 0.000141795 0.000141794 0.000141794 0.000141793 0.000141792 0.000141791 0.000141789 0.000141786 0.000141782 0.000141776
          0.000141766 0.000141751 0.000141721 0.000141653 0.000141431 0.000139709
        </DataArray>
        <DataArray type="Float32" Name="X^w_substrate" NumberOfComponents="1" format="ascii">
          1.94806e-11 2.56421e-11 3.37509e-11 4.44225e-11 5.84674e-11 7.69538e-11 1.0129e-10 1.33335e-10 1.75547e-10 2.31179e-10 3.04553e-10 4.01427e-10
          5.29505e-10 6.99159e-10 9.24457e-10 1.22466e-09 1.62648e-09 2.1675e-09 2.90165e-09 3.90821e-09 5.30724e-09 7.28751e-09 1.01604e-08 1.44717e-08
          2.12591e-08 3.27229e-08 5.43214e-08 1.03242e-07 2.61298e-07 1.47523e-06
        </DataArray>
        <DataArray type="Float32" Name="m^w_H2O" NumberOfComponents="1" format="ascii">
          55492.6 55492.6 55492.5 55492.5 55492.5 55492.5 55492.5 55492.5 55492.5 55492.5 55492.5 55492.5
          55492.5 55492.4 55492.4 55492.4 55492.4 55492.4 55492.4 55492.4 55492.4 55492.4 55492.4 55492.4
          55492.3 55492.3 55492.1 55491.9 55491.5 55491.6
        </DataArray>
        <DataArray type="Float32" Name="m^w_Air" NumberOfComponents="1" format="ascii">
          0 0 0 0 0 0 0 0 0 0 0 0
          0 0 0 0 0 0 0 0 0 0 0 0
          0 0 0 0 0 0
        </DataArray>
        <DataArray type="Float32" Name="m^w_AuComplex" NumberOfComponents="1" format="ascii">
          7.16253e-13 7.16388e-13 7.16319e-13 7.16401e-13 7.16341e-13 7.16314e-13 7.16309e-13 7.16305e-13 7.16335e-13 7.16374e-13 7.16315e-13 7.16254e-13
          7.16342e-13 7.16313e-13 7.16304e-13 7.1628e-13 7.16239e-13 7.1625e-13 7.16231e-13 7.16131e-13 7.16069e-13 7.16001e-13 7.80967e-13 1.49235e-10
          3.49452e-07 5.45069e-07 9.36079e-07 1.84763e-06 9.31609e-12 9.07057e-12
        </DataArray>
        <DataArray type="Float32" Name="m^w_nanoAu" NumberOfComponents="1" format="ascii">
          1.72129e-15 1.72161e-15 1.72145e-15 1.72164e-15 1.7215e-15 1.72143e-15 1.72142e-15 1.72141e-15 1.72149e-15 1.72158e-15 1.72144e-15 1.7213e-15
          1.72151e-15 1.72145e-15 1.72144e-15 1.72139e-15 1.72131e-15 1.72135e-15 1.72134e-15 1.72115e-15 1.72298e-15 2.00601e-15 4.34928e-14 6.10014e-12
          8.41689e-10 1.06959e-09 1.42517e-09 2.01038e-09 6.58177e-15 6.36441e-15
        </DataArray>
        <DataArray type="Float32" Name="m^w_cyanide" NumberOfComponents="1" format="ascii">
          0.194864 0.194864 0.194864 0.194864 0.194864 0.194864 0.194864 0.194864 0.194863 0.194863 0.194862 0.194862
          0.194861 0.19486 0.194858 0.194856 0.194853 0.194849 0.194843 0.194836 0.194825 0.19481 0.194789 0.194757
          0.194725 0.247354 0.329415 0.470251 0.747805 0.738704
        </DataArray>
        <DataArray type="Float32" Name="m^w_citrate" NumberOfComponents="1" format="ascii">
          0.749742 0.749742 0.749742 0.749742 0.749741 0.749741 0.749741 0.749741 0.74974 0.74974 0.749739 0.749738
          0.749737 0.749736 0.749734 0.749731 0.749728 0.749724 0.749718 0.749711 0.7497 0.749685 0.749664 0.749631
          0.74958 0.749499 0.749343 0.748984 0.747808 0.738705
        </DataArray>
        <DataArray type="Float32" Name="m^w_substrate" NumberOfComponents="1" format="ascii">
          1.08114e-07 1.42309e-07 1.87311e-07 2.46536e-07 3.24483e-07 4.2708e-07 5.62141e-07 7.39986e-07 9.74252e-07 1.283e-06 1.69021e-06 2.22784e-06
          2.93865e-06 3.8802e-06 5.13056e-06 6.79664e-06 9.02664e-06 1.20292e-05 1.61036e-05 2.16898e-05 2.94541e-05 4.04442e-05 5.6388e-05 8.0315e-05
          0.000117984 0.000181605 0.000301472 0.000572969 0.00145015 0.0081872
        </DataArray>
        <DataArray type="Float32" Name="process rank" NumberOfComponents="1" format="ascii">
          0 0 0 0 0 0 0 0 0 0 0 0
          0 0 0 0 0 0 0 0 0 0 0 0
          0 0 0 0 0 0
        </DataArray>
      </CellData>
      <Points>
        <DataArray type="Float32" Name="Coordinates" NumberOfComponents="3" format="ascii">
          0 0 0 0.5 0 0 0 0.0333333 0 0.5 0.0333333 0
          0 0.0666667 0 0.5 0.0666667 0 0 0.1 0 0.5 0.1 0
          0 0.133333 0 0.5 0.133333 0 0 0.166667 0 0.5 0.166667 0
          0 0.2 0 0.5 0.2 0 0 0.233333 0 0.5 0.233333 0
          0 0.266667 0 0.5 0.266667 0 0 0.3 0 0.5 0.3 0
          0 0.333333 0 0.5 0.333333 0 0 0.366667 0 0.5 0.366667 0
          0 0.4 0 0.5 0.4 0 0 0.433333 0 0.5 0.433333 0
          0 0.466667 0 0.5 0.466667 0 0 0.5 0 0.5 0.5 0
          0 0.533333 0 0.5 0.533333 0 0 0.566667 0 0.5 0.566667 0
          0 0.6 0 0.5 0.6 0 0 0.633333 0 0.5 0.633333 0
          0 0.666667 0 0.5 0.666667 0 0 0.7 0 0.5 0.7 0
          0 0.733333 0 0.5 0.733333 0 0 0.766667 0 0.5 0.766667 0
          0 0.8 0 0.5 0.8 0 0 0.833333 0 0.5 0.833333 0
          0 0.866667 0 0.5 0.866667 0 0 0.9 0 0.5 0.9 0
          0 0.933333 0 0.5 0.933333 0 0 0.966667 0 0.5 0.966667 0
          0 1 0 0.5 1 0
        </DataArray>
      </Points>
      <Cells>
        <DataArray type="Int32" Name="connectivity" NumberOfComponents="1" format="ascii">
          0 1 3 2 2 3 5 4 4 5 7 6
          6 7 9 8 8 9 11 10 10 11 13 12
          12 13 15 14 14 15 17 16 16 17 19 18
          18 19 21 20 20 21 23 22 22 23 25 24
          24 25 27 26 26 27 29 28 28 29 31 30
          30 31 33 32 32 33 35 34 34 35 37 36
          36 37 39 38 38 39 41 40 40 41 43 42
          42 43 45 44 44 45 47 46 46 47 49 48
          48 49 51 50 50 51 53 52 52 53 55 54
          54 55 57 56 56 57 59 58 58 59 61 60
        </DataArray>
        <DataArray type="Int32" Name="offsets" NumberOfComponents="1" format="ascii">
          4 8 12 16 20 24 28 32 36 40 44 48
          52 56 60 64 68 72 76 80 84 88 92 96
          100 104 108 112 116 120
        </DataArray>
        <DataArray type="UInt8" Name="types" NumberOfComponents="1" format="ascii">
          9 9 9 9 9 9 9 9 9 9 9 9
          9 9 9 9 9 9 9 9 9 9 9 9
          9 9 9 9 9 9
        </DataArray>
      </Cells>
    </Piece>
  </UnstructuredGrid>
</VTKFile>
