<?xml version="1.0"?>
<VTKFile type="UnstructuredGrid" version="0.1" byte_order="LittleEndian">
  <UnstructuredGrid>
    <Piece NumberOfCells="30" NumberOfPoints="62">
      <CellData Scalars="Sg">
        <DataArray type="Float32" Name="Sg" NumberOfComponents="1" format="ascii">
          0 0 0 0 0 0 0 0 0 0 0 0
          0 0 0 0 0 0 0 0 0 0 0 0
          0 0 0 0 0 0
        </DataArray>
        <DataArray type="Float32" Name="Sl" NumberOfComponents="1" format="ascii">
          1 1 1 1 1 1 1 1 1 1 1 1
          1 1 1 1 1 1 1 1 1 1 1 1
          1 1 1 1 1 1
        </DataArray>
        <DataArray type="Float32" Name="pg" NumberOfComponents="1" format="ascii">
          24687.8 24360.9 24034 23707 23380.1 23053.1 22726.2 22399.3 22072.3 21745.4 21418.4 21091.5
          20764.6 20437.6 20110.7 19783.7 19456.8 19129.8 18802.9 18476 18149 17822.1 17495.1 17168.2
          16841.3 16514.3 16187.4 15860.4 15533.5 15208.8
        </DataArray>
        <DataArray type="Float32" Name="pl" NumberOfComponents="1" format="ascii">
          110628 110301 109974 109647 109320 108993 108666 108339 108012 107685 107358 107031
          106704 106377 106050 105723 105396 105070 104743 104416 104089 103762 103435 103108
          102781 102454 102127 101800 101473 101148
        </DataArray>
        <DataArray type="Float32" Name="pc" NumberOfComponents="1" format="ascii">
          -85939.7 -85939.7 -85939.7 -85939.7 -85939.7 -85939.7 -85939.7 -85939.7 -85939.7 -85939.7 -85939.7 -85939.7
          -85939.7 -85939.7 -85939.7 -85939.7 -85939.7 -85939.7 -85939.7 -85939.7 -85939.7 -85939.7 -85939.7 -85939.7
          -85939.7 -85939.7 -85939.7 -85939.7 -85939.7 -85939.7
        </DataArray>
        <DataArray type="Float32" Name="rhoL" NumberOfComponents="1" format="ascii">
          999.855 999.855 999.855 999.855 999.855 999.854 999.854 999.854 999.854 999.854 999.854 999.854
          999.853 999.853 999.853 999.853 999.853 999.853 999.852 999.852 999.852 999.852 999.852 999.852
          999.852 999.851 999.851 999.851 999.851 999.851
        </DataArray>
        <DataArray type="Float32" Name="rhoG" NumberOfComponents="1" format="ascii">
          0.30585 0.3018 0.29775 0.293699 0.289649 0.285598 0.281548 0.277498 0.273447 0.269397 0.265347 0.261296
          0.257246 0.253195 0.249145 0.245095 0.241044 0.236994 0.232944 0.228893 0.224843 0.220793 0.216742 0.212692
          0.208641 0.204591 0.200541 0.19649 0.19244 0.188417
        </DataArray>
        <DataArray type="Float32" Name="mobL" NumberOfComponents="1" format="ascii">
          722.171 722.17 722.17 722.17 722.17 722.17 722.169 722.169 722.169 722.169 722.169 722.169
          722.168 722.168 722.168 722.168 722.168 722.167 722.167 722.167 722.167 722.167 722.166 722.166
          722.166 722.166 722.166 722.166 722.165 722.165
        </DataArray>
        <DataArray type="Float32" Name="mobG" NumberOfComponents="1" format="ascii">
          0 0 0 0 0 0 0 0 0 0 0 0
          0 0 0 0 0 0 0 0 0 0 0 0
          0 0 0 0 0 0
        </DataArray>
        <DataArray type="Float32" Name="porosity" NumberOfComponents="1" format="ascii">
          0.298721 0.298721 0.298721 0.29872 0.29872 0.29872 0.298719 0.298718 0.298717 0.298715 0.298712 0.298709
          0.298704 0.298697 0.298688 0.298676 0.29866 0.298638 0.298608 0.298568 0.298512 0.298434 0.298322 0.298156
          0.297625 0.297181 0.296306 0.294077 0.284016 0.0498118
        </DataArray>
        <DataArray type="Float32" Name="temperature" NumberOfComponents="1" format="ascii">
          281.15 281.15 281.15 281.15 281.15 281.15 281.15 281.15 281.15 281.15 281.15 281.15
          281.15 281.15 281.15 281.15 281.15 281.15 281.15 281.15 281.15 281.15 281.15 281.15
          281.15 281.15 281.15 281.15 281.15 281.15
        </DataArray>
        <DataArray type="Float32" Name="phase presence" NumberOfComponents="1" format="ascii">
          1 1 1 1 1 1 1 1 1 1 1 1
          1 1 1 1 1 1 1 1 1 1 1 1
          1 1 1 1 1 1
        </DataArray>
        <DataArray type="Float32" Name="precipitateVolumeFraction_au" NumberOfComponents="1" format="ascii">
          5.53783e-10 5.52809e-10 5.52745e-10 5.52762e-10 5.52759e-10 5.52714e-10 5.52732e-10 5.52692e-10 5.52789e-10 5.52752e-10 5.52744e-10 5.52776e-10
          5.52766e-10 5.52755e-10 5.52774e-10 5.52775e-10 5.5276e-10 5.52761e-10 5.52764e-10 5.528e-10 5.52758e-10 5.52777e-10 5.52936e-10 9.97368e-10
          0.00026994 0.000269924 0.000269899 0.000269853 5.52257e-10 5.5125e-10
        </DataArray>
        <DataArray type="Float32" Name="precipitateVolumeFraction_nanoAu" NumberOfComponents="1" format="ascii">
          1.2393e-13 1.23705e-13 1.2369e-13 1.23694e-13 1.23693e-13 1.23682e-13 1.23686e-13 1.23677e-13 1.23698e-13 1.23689e-13 1.23687e-13 1.23694e-13
          1.23691e-13 1.23688e-13 1.23691e-13 1.2369e-13 1.23685e-13 1.23683e-13 1.2368e-13 1.23684e-13 1.23669e-13 1.23681e-13 1.35592e-13 2.579e-11
          6.03748e-08 7.66976e-08 1.02159e-07 1.45572e-07 4.74133e-13 4.6706e-13
        </DataArray>
        <DataArray type="Float32" Name="precipitateVolumeFraction_d" NumberOfComponents="1" format="ascii">
          0.000639546 0.000639609 0.000639698 0.000639823 0.000639998 0.000640244 0.000640589 0.000641069 0.000641737 0.000642663 0.000643939 0.000645693
          0.000648092 0.000651362 0.000655803 0.000661819 0.000669952 0.000680951 0.000695857 0.000716167 0.000744112 0.000783166 0.000839077 0.00092208
          0.00105225 0.00127475 0.00171197 0.00282625 0.00799176 0.125094
        </DataArray>
        <DataArray type="Float32" Name="precipitateVolumeFraction_p" NumberOfComponents="1" format="ascii">
          0.000639546 0.000639609 0.000639698 0.000639823 0.000639998 0.000640244 0.000640589 0.000641069 0.000641737 0.000642663 0.000643939 0.000645693
          0.000648092 0.000651362 0.000655803 0.000661819 0.000669952 0.000680951 0.000695857 0.000716167 0.000744112 0.000783166 0.000839077 0.00092208
          0.00105225 0.00127475 0.00171197 0.00282625 0.00799176 0.125094
        </DataArray>
        <DataArray type="Float32" Name="K" NumberOfComponents="1" format="ascii">
          9.83665e-11 9.83664e-11 9.83662e-11 9.83658e-11 9.83654e-11 9.83648e-11 9.83639e-11 9.83627e-11 9.8361e-11 9.83586e-11 9.83554e-11 9.83509e-11
          9.83449e-11 9.83366e-11 9.83253e-11 9.831e-11 9.82894e-11 9.82615e-11 9.82238e-11 9.81723e-11 9.81016e-11 9.80028e-11 9.78614e-11 9.76519e-11
          9.69851e-11 9.64285e-11 9.53424e-11 9.26198e-11 8.11067e-11 2.48434e-13
        </DataArray>
        <DataArray type="Float32" Name="X^w_H2O" NumberOfComponents="1" format="ascii">
          0.999853 0.999853 0.999853 0.999853 0.999853 0.999853 0.999853 0.999853 0.999853 0.999853 0.999853 0.999853
          0.999853 0.999853 0.999853 0.999853 0.999853 0.999853 0.999853 0.999853 0.999853 0.999853 0.999853 0.999853
          0.999853 0.999852 0.99985 0.999846 0.999839 0.99984
        </DataArray>
        <DataArray type="Float32" Name="X^w_Air" NumberOfComponents="1" format="ascii">
          0 0 0 0 0 0 0 0 0 0 0 0
          0 0 0 0 0 0 0 0 0 0 0 0
          0 0 0 0 0 0
        </DataArray>
        <DataArray type="Float32" Name="X^w_AuComplex" NumberOfComponents="1" format="ascii">
          1.41418e-16 1.41163e-16 1.41146e-16 1.4115e-16 1.41149e-16 1.41136e-16 1.41141e-16 1.4113e-16 1.41154e-16 1.41143e-16 1.41141e-16 1.41148e-16
          1.41144e-16 1.41139e-16 1.41142e-16 1.4114e-16 1.41133e-16 1.41128e-16 1.41122e-16 1.41123e-16 1.411e-16 1.41104e-16 1.54488e-16 2.94006e-14
          6.88576e-11 1.07402e-10 1.84443e-10 3.64029e-10 1.83519e-15 1.78711e-15
        </DataArray>
        <DataArray type="Float32" Name="X^w_nanoAu" NumberOfComponents="1" format="ascii">
          5.39746e-19 5.38779e-19 5.38715e-19 5.38729e-19 5.38725e-19 5.3868e-19 5.38695e-19 5.38656e-19 5.38748e-19 5.3871e-19 5.387e-19 5.38729e-19
          5.38715e-19 5.38701e-19 5.38713e-19 5.38707e-19 5.38684e-19 5.38673e-19 5.38659e-19 5.38711e-19 5.42327e-19 8.8394e-19 3.25206e-17 2.958e-15
          2.63683e-13 3.35163e-13 4.46677e-13 6.26553e-13 2.05887e-18 1.98361e-18
        </DataArray>
        <DataArray type="Float32" Name="X^w_cyanide" NumberOfComponents="1" format="ascii">
          5.07141e-06 5.0714e-06 5.07139e-06 5.07138e-06 5.07137e-06 5.07136e-06 5.07135e-06 5.07134e-06 5.07133e-06 5.07131e-06 5.0713e-06 5.07128e-06
          5.07126e-06 5.07123e-06 5.07119e-06 5.07114e-06 5.07107e-06 5.07098e-06 5.07086e-06 5.07069e-06 5.07045e-06 5.07011e-06 5.06959e-06 5.06881e-06
          5.06803e-06 6.43777e-06 8.57343e-06 1.22385e-05 1.94608e-05 1.92334e-05
        </DataArray>
        <DataArray type="Float32" Name="X^w_citrate" NumberOfComponents="1" format="ascii">
          0.000141796 0.000141796 0.000141796 0.000141796 0.000141796 0.000141796 0.000141796 0.000141796 0.000141796 0.000141796 0.000141796 0.000141796
          0.000141796 0.000141795 0.000141795 0.000141795 0.000141794 0.000141794 0.000141793 0.000141792 0.00014179 0.000141788 0.000141784 0.000141778
          0.000141769 0.000141754 0.000141725 0.000141656 0.000141431 0.000139778
        </DataArray>
        <DataArray type="Float32" Name="X^w_substrate" NumberOfComponents="1" format="ascii">
          7.961e-12 1.08343e-11 1.47439e-11 2.00632e-11 2.73007e-11 3.71486e-11 5.05496e-11 6.87889e-11 9.36199e-11 1.27438e-10 1.73525e-10 2.36381e-10
          3.22212e-10 4.39602e-10 6.00516e-10 8.21754e-10 1.12717e-09 1.5511e-09 2.14383e-09 2.9807e-09 4.17779e-09 5.92047e-09 8.51876e-09 1.25228e-08
          1.8989e-08 3.01746e-08 5.17011e-08 1.0122e-07 2.61194e-07 1.42684e-06
        </DataArray>
        <DataArray type="Float32" Name="m^w_H2O" NumberOfComponents="1" format="ascii">
          55492.6 55492.6 55492.5 55492.5 55492.5 55492.5 55492.5 55492.5 55492.5 55492.5 55492.5 55492.5
          55492.5 55492.4 55492.4 55492.4 55492.4 55492.4 55492.4 55492.4 55492.4 55492.4 55492.4 55492.4
          55492.3 55492.3 55492.1 55491.9 55491.5 55491.6
        </DataArray>
        <DataArray type="Float32" Name="m^w_Air" NumberOfComponents="1" format="ascii">
          0 0 0 0 0 0 0 0 0 0 0 0
          0 0 0 0 0 0 0 0 0 0 0 0
          0 0 0 0 0 0
        </DataArray>
        <DataArray type="Float32" Name="m^w_AuComplex" NumberOfComponents="1" format="ascii">
          7.17865e-13 7.16571e-13 7.16484e-13 7.16502e-13 7.16496e-13 7.16433e-13 7.16454e-13 7.16398e-13 7.16521e-13 7.16469e-13 7.16454e-13 7.16491e-13
          7.1647e-13 7.16448e-13 7.16461e-13 7.16449e-13 7.16413e-13 7.1639e-13 7.16361e-13 7.16364e-13 7.16246e-13 7.16266e-13 7.84207e-13 1.49242e-10
          3.49532e-07 5.4519e-07 9.3626e-07 1.84787e-06 9.31574e-12 9.07166e-12
        </DataArray>
        <DataArray type="Float32" Name="m^w_nanoAu" NumberOfComponents="1" format="ascii">
          2.73985e-15 2.73494e-15 2.73461e-15 2.73469e-15 2.73466e-15 2.73443e-15 2.73451e-15 2.73431e-15 2.73478e-15 2.73458e-15 2.73454e-15 2.73468e-15
          2.73461e-15 2.73454e-15 2.7346e-15 2.73457e-15 2.73445e-15 2.73439e-15 2.73432e-15 2.73459e-15 2.75294e-15 4.48702e-15 1.6508e-13 1.50153e-11
          1.3385e-09 1.70134e-09 2.26741e-09 3.18048e-09 1.04512e-14 1.00691e-14
        </DataArray>
        <DataArray type="Float32" Name="m^w_cyanide" NumberOfComponents="1" format="ascii">
          0.194876 0.194876 0.194875 0.194875 0.194874 0.194874 0.194874 0.194873 0.194873 0.194872 0.194872 0.194871
          0.19487 0.194869 0.194867 0.194865 0.194863 0.194859 0.194854 0.194848 0.194839 0.194825 0.194806 0.194775
          0.194746 0.24738 0.329445 0.470279 0.747806 0.739067
        </DataArray>
        <DataArray type="Float32" Name="m^w_citrate" NumberOfComponents="1" format="ascii">
          0.749742 0.749742 0.749742 0.749742 0.749742 0.749741 0.749741 0.749741 0.749741 0.74974 0.74974 0.749739
          0.749739 0.749738 0.749736 0.749734 0.749732 0.749729 0.749724 0.749718 0.749709 0.749695 0.749676 0.749646
          0.749597 0.749518 0.749363 0.748999 0.747809 0.739068
        </DataArray>
        <DataArray type="Float32" Name="m^w_substrate" NumberOfComponents="1" format="ascii">
          4.41821e-08 6.01286e-08 8.18258e-08 1.11347e-07 1.51514e-07 2.06168e-07 2.80541e-07 3.81765e-07 5.19573e-07 7.07259e-07 9.63029e-07 1.31187e-06
          1.78821e-06 2.43971e-06 3.33275e-06 4.56057e-06 6.25557e-06 8.60829e-06 1.18978e-05 1.65423e-05 2.31859e-05 3.28574e-05 4.72774e-05 6.94993e-05
          0.000105385 0.000167463 0.000286931 0.000561749 0.00144957 0.00791868
        </DataArray>
        <DataArray type="Float32" Name="process rank" NumberOfComponents="1" format="ascii">
          0 0 0 0 0 0 0 0 0 0 0 0
          0 0 0 0 0 0 0 0 0 0 0 0
          0 0 0 0 0 0
        </DataArray>
      </CellData>
      <Points>
        <DataArray type="Float32" Name="Coordinates" NumberOfComponents="3" format="ascii">
          0 0 0 0.5 0 0 0 0.0333333 0 0.5 0.0333333 0
          0 0.0666667 0 0.5 0.0666667 0 0 0.1 0 0.5 0.1 0
          0 0.133333 0 0.5 0.133333 0 0 0.166667 0 0.5 0.166667 0
          0 0.2 0 0.5 0.2 0 0 0.233333 0 0.5 0.233333 0
          0 0.266667 0 0.5 0.266667 0 0 0.3 0 0.5 0.3 0
          0 0.333333 0 0.5 0.333333 0 0 0.366667 0 0.5 0.366667 0
          0 0.4 0 0.5 0.4 0 0 0.433333 0 0.5 0.433333 0
          0 0.466667 0 0.5 0.466667 0 0 0.5 0 0.5 0.5 0
          0 0.533333 0 0.5 0.533333 0 0 0.566667 0 0.5 0.566667 0
          0 0.6 0 0.5 0.6 0 0 0.633333 0 0.5 0.633333 0
          0 0.666667 0 0.5 0.666667 0 0 0.7 0 0.5 0.7 0
          0 0.733333 0 0.5 0.733333 0 0 0.766667 0 0.5 0.766667 0
          0 0.8 0 0.5 0.8 0 0 0.833333 0 0.5 0.833333 0
          0 0.866667 0 0.5 0.866667 0 0 0.9 0 0.5 0.9 0
          0 0.933333 0 0.5 0.933333 0 0 0.966667 0 0.5 0.966667 0
          0 1 0 0.5 1 0
        </DataArray>
      </Points>
      <Cells>
        <DataArray type="Int32" Name="connectivity" NumberOfComponents="1" format="ascii">
          0 1 3 2 2 3 5 4 4 5 7 6
          6 7 9 8 8 9 11 10 10 11 13 12
          12 13 15 14 14 15 17 16 16 17 19 18
          18 19 21 20 20 21 23 22 22 23 25 24
          24 25 27 26 26 27 29 28 28 29 31 30
          30 31 33 32 32 33 35 34 34 35 37 36
          36 37 39 38 38 39 41 40 40 41 43 42
          42 43 45 44 44 45 47 46 46 47 49 48
          48 49 51 50 50 51 53 52 52 53 55 54
          54 55 57 56 56 57 59 58 58 59 61 60
        </DataArray>
        <DataArray type="Int32" Name="offsets" NumberOfComponents="1" format="ascii">
          4 8 12 16 20 24 28 32 36 40 44 48
          52 56 60 64 68 72 76 80 84 88 92 96
          100 104 108 112 116 120
        </DataArray>
        <DataArray type="UInt8" Name="types" NumberOfComponents="1" format="ascii">
          9 9 9 9 9 9 9 9 9 9 9 9
          9 9 9 9 9 9 9 9 9 9 9 9
          9 9 9 9 9 9
        </DataArray>
      </Cells>
    </Piece>
  </UnstructuredGrid>
</VTKFile>
