<?xml version="1.0"?>
<VTKFile type="UnstructuredGrid" version="0.1" byte_order="LittleEndian">
  <UnstructuredGrid>
    <Piece NumberOfCells="30" NumberOfPoints="62">
      <CellData Scalars="Sg">
        <DataArray type="Float32" Name="Sg" NumberOfComponents="1" format="ascii">
          0 0 0 0 0 0 0 0 0 0 0 0
          0 0 0 0 0 0 0 0 0 0 0 0
          0 0 0 0 0 0
        </DataArray>
        <DataArray type="Float32" Name="Sl" NumberOfComponents="1" format="ascii">
          1 1 1 1 1 1 1 1 1 1 1 1
          1 1 1 1 1 1 1 1 1 1 1 1
          1 1 1 1 1 1
        </DataArray>
        <DataArray type="Float32" Name="pg" NumberOfComponents="1" format="ascii">
          24687.8 24360.9 24034 23707 23380.1 23053.1 22726.2 22399.3 22072.3 21745.4 21418.4 21091.5
          20764.6 20437.6 20110.7 19783.7 19456.8 19129.8 18802.9 18476 18149 17822.1 17495.1 17168.2
          16841.3 16514.3 16187.4 15860.4 15533.5 15209.7
        </DataArray>
        <DataArray type="Float32" Name="pl" NumberOfComponents="1" format="ascii">
          110628 110301 109974 109647 109320 108993 108666 108339 108012 107685 107358 107031
          106704 106377 106050 105723 105396 105070 104743 104416 104089 103762 103435 103108
          102781 102454 102127 101800 101473 101149
        </DataArray>
        <DataArray type="Float32" Name="pc" NumberOfComponents="1" format="ascii">
          -85939.7 -85939.7 -85939.7 -85939.7 -85939.7 -85939.7 -85939.7 -85939.7 -85939.7 -85939.7 -85939.7 -85939.7
          -85939.7 -85939.7 -85939.7 -85939.7 -85939.7 -85939.7 -85939.7 -85939.7 -85939.7 -85939.7 -85939.7 -85939.7
          -85939.7 -85939.7 -85939.7 -85939.7 -85939.7 -85939.7
        </DataArray>
        <DataArray type="Float32" Name="rhoL" NumberOfComponents="1" format="ascii">
          999.855 999.855 999.855 999.855 999.855 999.854 999.854 999.854 999.854 999.854 999.854 999.854
          999.853 999.853 999.853 999.853 999.853 999.853 999.852 999.852 999.852 999.852 999.852 999.852
          999.852 999.851 999.851 999.851 999.851 999.851
        </DataArray>
        <DataArray type="Float32" Name="rhoG" NumberOfComponents="1" format="ascii">
          0.30585 0.3018 0.29775 0.293699 0.289649 0.285598 0.281548 0.277498 0.273447 0.269397 0.265347 0.261296
          0.257246 0.253195 0.249145 0.245095 0.241044 0.236994 0.232944 0.228893 0.224843 0.220793 0.216742 0.212692
          0.208641 0.204591 0.200541 0.19649 0.19244 0.188428
        </DataArray>
        <DataArray type="Float32" Name="mobL" NumberOfComponents="1" format="ascii">
          722.171 722.17 722.17 722.17 722.17 722.17 722.169 722.169 722.169 722.169 722.169 722.169
          722.168 722.168 722.168 722.168 722.168 722.167 722.167 722.167 722.167 722.167 722.166 722.166
          722.166 722.166 722.166 722.166 722.165 722.165
        </DataArray>
        <DataArray type="Float32" Name="mobG" NumberOfComponents="1" format="ascii">
          0 0 0 0 0 0 0 0 0 0 0 0
          0 0 0 0 0 0 0 0 0 0 0 0
          0 0 0 0 0 0
        </DataArray>
        <DataArray type="Float32" Name="porosity" NumberOfComponents="1" format="ascii">
          0.298885 0.298885 0.298885 0.298885 0.298884 0.298884 0.298883 0.298882 0.298881 0.298879 0.298877 0.298874
          0.29887 0.298864 0.298856 0.298845 0.29883 0.298811 0.298784 0.298747 0.298697 0.298626 0.298524 0.298371
          0.297858 0.297437 0.296586 0.294297 0.282638 0.0446549
        </DataArray>
        <DataArray type="Float32" Name="temperature" NumberOfComponents="1" format="ascii">
          281.15 281.15 281.15 281.15 281.15 281.15 281.15 281.15 281.15 281.15 281.15 281.15
          281.15 281.15 281.15 281.15 281.15 281.15 281.15 281.15 281.15 281.15 281.15 281.15
          281.15 281.15 281.15 281.15 281.15 281.15
        </DataArray>
        <DataArray type="Float32" Name="phase presence" NumberOfComponents="1" format="ascii">
          1 1 1 1 1 1 1 1 1 1 1 1
          1 1 1 1 1 1 1 1 1 1 1 1
          1 1 1 1 1 1
        </DataArray>
        <DataArray type="Float32" Name="precipitateVolumeFraction_au" NumberOfComponents="1" format="ascii">
          5.53783e-10 5.52809e-10 5.52745e-10 5.52762e-10 5.52759e-10 5.52714e-10 5.52732e-10 5.52692e-10 5.52789e-10 5.52752e-10 5.52744e-10 5.52777e-10
          5.52766e-10 5.52755e-10 5.52774e-10 5.52775e-10 5.5276e-10 5.52761e-10 5.52764e-10 5.528e-10 5.52758e-10 5.52777e-10 5.5309e-10 1.32855e-09
          0.000269941 0.000269925 0.0002699 0.000269851 5.52257e-10 5.51241e-10
        </DataArray>
        <DataArray type="Float32" Name="precipitateVolumeFraction_nanoAu" NumberOfComponents="1" format="ascii">
          1.23884e-13 1.23666e-13 1.23652e-13 1.23656e-13 1.23655e-13 1.23645e-13 1.23649e-13 1.2364e-13 1.23661e-13 1.23653e-13 1.23651e-13 1.23658e-13
          1.23655e-13 1.23652e-13 1.23655e-13 1.23654e-13 1.23649e-13 1.23646e-13 1.23644e-13 1.23647e-13 1.23632e-13 1.23644e-13 1.35605e-13 2.58456e-11
          6.03614e-08 7.66828e-08 1.02145e-07 1.4557e-07 4.74243e-13 4.67231e-13
        </DataArray>
        <DataArray type="Float32" Name="precipitateVolumeFraction_d" NumberOfComponents="1" format="ascii">
          0.000557487 0.000557544 0.000557625 0.000557739 0.000557898 0.00055812 0.000558432 0.000558865 0.000559466 0.000560299 0.000561445 0.000563019
          0.000565171 0.000568104 0.000572087 0.000577483 0.000584784 0.000594668 0.000608085 0.000626406 0.000651689 0.000687168 0.00073824 0.000814643
          0.000935799 0.00114641 0.00157212 0.00271639 0.0086812 0.127673
        </DataArray>
        <DataArray type="Float32" Name="precipitateVolumeFraction_p" NumberOfComponents="1" format="ascii">
          0.000557487 0.000557544 0.000557625 0.000557739 0.000557898 0.00055812 0.000558432 0.000558865 0.000559466 0.000560299 0.000561445 0.000563019
          0.000565171 0.000568104 0.000572087 0.000577483 0.000584784 0.000594668 0.000608085 0.000626406 0.000651689 0.000687168 0.00073824 0.000814643
          0.000935799 0.00114641 0.00157212 0.00271639 0.0086812 0.127673
        </DataArray>
        <DataArray type="Float32" Name="K" NumberOfComponents="1" format="ascii">
          9.85749e-11 9.85747e-11 9.85745e-11 9.85743e-11 9.85738e-11 9.85733e-11 9.85725e-11 9.85714e-11 9.85699e-11 9.85677e-11 9.85648e-11 9.85608e-11
          9.85554e-11 9.85479e-11 9.85378e-11 9.85241e-11 9.85055e-11 9.84804e-11 9.84464e-11 9.83999e-11 9.83357e-11 9.82458e-11 9.81164e-11 9.79232e-11
          9.72775e-11 9.67493e-11 9.56888e-11 9.28853e-11 7.96242e-11 1.7706e-13
        </DataArray>
        <DataArray type="Float32" Name="X^w_H2O" NumberOfComponents="1" format="ascii">
          0.999853 0.999853 0.999853 0.999853 0.999853 0.999853 0.999853 0.999853 0.999853 0.999853 0.999853 0.999853
          0.999853 0.999853 0.999853 0.999853 0.999853 0.999853 0.999853 0.999853 0.999853 0.999853 0.999853 0.999853
          0.999853 0.999852 0.99985 0.999846 0.999839 0.99984
        </DataArray>
        <DataArray type="Float32" Name="X^w_Air" NumberOfComponents="1" format="ascii">
          0 0 0 0 0 0 0 0 0 0 0 0
          0 0 0 0 0 0 0 0 0 0 0 0
          0 0 0 0 0 0
        </DataArray>
        <DataArray type="Float32" Name="X^w_AuComplex" NumberOfComponents="1" format="ascii">
          1.41349e-16 1.41101e-16 1.41085e-16 1.41089e-16 1.41088e-16 1.41077e-16 1.41081e-16 1.41071e-16 1.41095e-16 1.41085e-16 1.41083e-16 1.4109e-16
          1.41086e-16 1.41082e-16 1.41085e-16 1.41082e-16 1.41075e-16 1.4107e-16 1.41063e-16 1.41063e-16 1.41039e-16 1.41042e-16 1.54482e-16 2.94601e-14
          6.88325e-11 1.07367e-10 1.84401e-10 3.64022e-10 1.83601e-15 1.78824e-15
        </DataArray>
        <DataArray type="Float32" Name="X^w_nanoAu" NumberOfComponents="1" format="ascii">
          5.39547e-19 5.38609e-19 5.38547e-19 5.38563e-19 5.3856e-19 5.38516e-19 5.38533e-19 5.38495e-19 5.38587e-19 5.3855e-19 5.38541e-19 5.3857e-19
          5.38557e-19 5.38543e-19 5.38555e-19 5.38548e-19 5.38524e-19 5.38511e-19 5.38497e-19 5.38546e-19 5.42156e-19 8.83528e-19 3.25041e-17 2.95703e-15
          2.63622e-13 3.35097e-13 4.46625e-13 6.26583e-13 2.05982e-18 1.98491e-18
        </DataArray>
        <DataArray type="Float32" Name="X^w_cyanide" NumberOfComponents="1" format="ascii">
          5.0705e-06 5.0705e-06 5.0705e-06 5.0705e-06 5.0705e-06 5.0705e-06 5.0705e-06 5.0705e-06 5.07049e-06 5.07048e-06 5.07047e-06 5.07046e-06
          5.07043e-06 5.0704e-06 5.07036e-06 5.07031e-06 5.07024e-06 5.07014e-06 5.07e-06 5.06981e-06 5.06955e-06 5.06919e-06 5.06866e-06 5.06787e-06
          5.06713e-06 6.43677e-06 8.57251e-06 1.22384e-05 1.94651e-05 1.9239e-05
        </DataArray>
        <DataArray type="Float32" Name="X^w_citrate" NumberOfComponents="1" format="ascii">
          0.000141796 0.000141796 0.000141796 0.000141796 0.000141796 0.000141796 0.000141796 0.000141796 0.000141796 0.000141796 0.000141796 0.000141795
          0.000141795 0.000141795 0.000141795 0.000141794 0.000141794 0.000141793 0.000141792 0.000141791 0.000141789 0.000141786 0.000141782 0.000141776
          0.000141767 0.000141753 0.000141727 0.000141665 0.000141462 0.000139819
        </DataArray>
        <DataArray type="Float32" Name="X^w_substrate" NumberOfComponents="1" format="ascii">
          1.96898e-11 2.58944e-11 3.40523e-11 4.47782e-11 5.88806e-11 7.74235e-11 1.01807e-10 1.33878e-10 1.76069e-10 2.31598e-10 3.04722e-10 4.01098e-10
          5.28265e-10 6.96332e-10 9.18938e-10 1.21466e-09 1.60908e-09 2.13799e-09 2.85235e-09 3.82651e-09 5.1722e-09 7.06377e-09 9.78661e-09 1.38377e-08
          2.01558e-08 3.07228e-08 5.0447e-08 9.48419e-08 2.38976e-07 1.39804e-06
        </DataArray>
        <DataArray type="Float32" Name="m^w_H2O" NumberOfComponents="1" format="ascii">
          55492.6 55492.6 55492.5 55492.5 55492.5 55492.5 55492.5 55492.5 55492.5 55492.5 55492.5 55492.5
          55492.5 55492.4 55492.4 55492.4 55492.4 55492.4 55492.4 55492.4 55492.4 55492.4 55492.4 55492.4
          55492.3 55492.3 55492.1 55491.9 55491.5 55491.6
        </DataArray>
        <DataArray type="Float32" Name="m^w_Air" NumberOfComponents="1" format="ascii">
          0 0 0 0 0 0 0 0 0 0 0 0
          0 0 0 0 0 0 0 0 0 0 0 0
          0 0 0 0 0 0
        </DataArray>
        <DataArray type="Float32" Name="m^w_AuComplex" NumberOfComponents="1" format="ascii">
          7.17514e-13 7.16254e-13 7.16171e-13 7.16192e-13 7.16189e-13 7.16129e-13 7.16152e-13 7.16099e-13 7.16224e-13 7.16173e-13 7.1616e-13 7.16198e-13
          7.16178e-13 7.16156e-13 7.1617e-13 7.16157e-13 7.16119e-13 7.16093e-13 7.16061e-13 7.1606e-13 7.15938e-13 7.15953e-13 7.84175e-13 1.49544e-10
          3.49405e-07 5.45013e-07 9.36049e-07 1.84783e-06 9.31986e-12 9.0774e-12
        </DataArray>
        <DataArray type="Float32" Name="m^w_nanoAu" NumberOfComponents="1" format="ascii">
          2.73884e-15 2.73408e-15 2.73376e-15 2.73384e-15 2.73383e-15 2.7336e-15 2.73369e-15 2.73349e-15 2.73396e-15 2.73377e-15 2.73373e-15 2.73387e-15
          2.73381e-15 2.73373e-15 2.7338e-15 2.73376e-15 2.73364e-15 2.73357e-15 2.7335e-15 2.73375e-15 2.75207e-15 4.48493e-15 1.64996e-13 1.50104e-11
          1.33819e-09 1.701e-09 2.26714e-09 3.18064e-09 1.0456e-14 1.00757e-14
        </DataArray>
        <DataArray type="Float32" Name="m^w_cyanide" NumberOfComponents="1" format="ascii">
          0.194841 0.194841 0.194841 0.194841 0.194841 0.194841 0.194841 0.194841 0.194841 0.19484 0.19484 0.194839
          0.194838 0.194837 0.194835 0.194833 0.19483 0.194827 0.194821 0.194814 0.194804 0.19479 0.19477 0.194739
          0.194711 0.247341 0.329409 0.470278 0.747972 0.739283
        </DataArray>
        <DataArray type="Float32" Name="m^w_citrate" NumberOfComponents="1" format="ascii">
          0.749742 0.749742 0.749742 0.749742 0.749741 0.749741 0.749741 0.749741 0.74974 0.74974 0.749739 0.749738
          0.749737 0.749736 0.749734 0.749731 0.749728 0.749724 0.749719 0.749711 0.749701 0.749687 0.749666 0.749636
          0.749588 0.749514 0.749372 0.749047 0.747975 0.739284
        </DataArray>
        <DataArray type="Float32" Name="m^w_substrate" NumberOfComponents="1" format="ascii">
          1.09275e-07 1.43709e-07 1.88984e-07 2.48511e-07 3.26777e-07 4.29686e-07 5.65012e-07 7.42997e-07 9.77151e-07 1.28532e-06 1.69115e-06 2.22601e-06
          2.93177e-06 3.86451e-06 5.09993e-06 6.74111e-06 8.93009e-06 1.18654e-05 1.583e-05 2.12364e-05 2.87047e-05 3.92025e-05 5.43137e-05 7.67963e-05
          0.00011186 0.000170505 0.00027997 0.000526353 0.00132627 0.00775882
        </DataArray>
        <DataArray type="Float32" Name="process rank" NumberOfComponents="1" format="ascii">
          0 0 0 0 0 0 0 0 0 0 0 0
          0 0 0 0 0 0 0 0 0 0 0 0
          0 0 0 0 0 0
        </DataArray>
      </CellData>
      <Points>
        <DataArray type="Float32" Name="Coordinates" NumberOfComponents="3" format="ascii">
          0 0 0 0.5 0 0 0 0.0333333 0 0.5 0.0333333 0
          0 0.0666667 0 0.5 0.0666667 0 0 0.1 0 0.5 0.1 0
          0 0.133333 0 0.5 0.133333 0 0 0.166667 0 0.5 0.166667 0
          0 0.2 0 0.5 0.2 0 0 0.233333 0 0.5 0.233333 0
          0 0.266667 0 0.5 0.266667 0 0 0.3 0 0.5 0.3 0
          0 0.333333 0 0.5 0.333333 0 0 0.366667 0 0.5 0.366667 0
          0 0.4 0 0.5 0.4 0 0 0.433333 0 0.5 0.433333 0
          0 0.466667 0 0.5 0.466667 0 0 0.5 0 0.5 0.5 0
          0 0.533333 0 0.5 0.533333 0 0 0.566667 0 0.5 0.566667 0
          0 0.6 0 0.5 0.6 0 0 0.633333 0 0.5 0.633333 0
          0 0.666667 0 0.5 0.666667 0 0 0.7 0 0.5 0.7 0
          0 0.733333 0 0.5 0.733333 0 0 0.766667 0 0.5 0.766667 0
          0 0.8 0 0.5 0.8 0 0 0.833333 0 0.5 0.833333 0
          0 0.866667 0 0.5 0.866667 0 0 0.9 0 0.5 0.9 0
          0 0.933333 0 0.5 0.933333 0 0 0.966667 0 0.5 0.966667 0
          0 1 0 0.5 1 0
        </DataArray>
      </Points>
      <Cells>
        <DataArray type="Int32" Name="connectivity" NumberOfComponents="1" format="ascii">
          0 1 3 2 2 3 5 4 4 5 7 6
          6 7 9 8 8 9 11 10 10 11 13 12
          12 13 15 14 14 15 17 16 16 17 19 18
          18 19 21 20 20 21 23 22 22 23 25 24
          24 25 27 26 26 27 29 28 28 29 31 30
          30 31 33 32 32 33 35 34 34 35 37 36
          36 37 39 38 38 39 41 40 40 41 43 42
          42 43 45 44 44 45 47 46 46 47 49 48
          48 49 51 50 50 51 53 52 52 53 55 54
          54 55 57 56 56 57 59 58 58 59 61 60
        </DataArray>
        <DataArray type="Int32" Name="offsets" NumberOfComponents="1" format="ascii">
          4 8 12 16 20 24 28 32 36 40 44 48
          52 56 60 64 68 72 76 80 84 88 92 96
          100 104 108 112 116 120
        </DataArray>
        <DataArray type="UInt8" Name="types" NumberOfComponents="1" format="ascii">
          9 9 9 9 9 9 9 9 9 9 9 9
          9 9 9 9 9 9 9 9 9 9 9 9
          9 9 9 9 9 9
        </DataArray>
      </Cells>
    </Piece>
  </UnstructuredGrid>
</VTKFile>
