<?xml version="1.0"?>
<VTKFile type="UnstructuredGrid" version="0.1" byte_order="LittleEndian">
  <UnstructuredGrid>
    <Piece NumberOfCells="30" NumberOfPoints="62">
      <CellData Scalars="Sg">
        <DataArray type="Float32" Name="Sg" NumberOfComponents="1" format="ascii">
          0 0 0 0 0 0 0 0 0 0 0 0
          0 0 0 0 0 0 0 0 0 0 0 0
          0 0 0 0 0 0
        </DataArray>
        <DataArray type="Float32" Name="Sl" NumberOfComponents="1" format="ascii">
          1 1 1 1 1 1 1 1 1 1 1 1
          1 1 1 1 1 1 1 1 1 1 1 1
          1 1 1 1 1 1
        </DataArray>
        <DataArray type="Float32" Name="pg" NumberOfComponents="1" format="ascii">
          24687.8 24360.9 24034 23707 23380.1 23053.1 22726.2 22399.3 22072.3 21745.4 21418.4 21091.5
          20764.6 20437.6 20110.7 19783.7 19456.8 19129.9 18802.9 18476 18149 17822.1 17495.1 17168.2
          16841.3 16514.3 16187.4 15860.4 15533.5 15207
        </DataArray>
        <DataArray type="Float32" Name="pl" NumberOfComponents="1" format="ascii">
          110628 110301 109974 109647 109320 108993 108666 108339 108012 107685 107358 107031
          106704 106377 106050 105723 105396 105070 104743 104416 104089 103762 103435 103108
          102781 102454 102127 101800 101473 101147
        </DataArray>
        <DataArray type="Float32" Name="pc" NumberOfComponents="1" format="ascii">
          -85939.7 -85939.7 -85939.7 -85939.7 -85939.7 -85939.7 -85939.7 -85939.7 -85939.7 -85939.7 -85939.7 -85939.7
          -85939.7 -85939.7 -85939.7 -85939.7 -85939.7 -85939.7 -85939.7 -85939.7 -85939.7 -85939.7 -85939.7 -85939.7
          -85939.7 -85939.7 -85939.7 -85939.7 -85939.7 -85939.7
        </DataArray>
        <DataArray type="Float32" Name="rhoL" NumberOfComponents="1" format="ascii">
          999.855 999.855 999.855 999.855 999.855 999.854 999.854 999.854 999.854 999.854 999.854 999.854
          999.853 999.853 999.853 999.853 999.853 999.853 999.852 999.852 999.852 999.852 999.852 999.852
          999.852 999.851 999.851 999.851 999.851 999.851
        </DataArray>
        <DataArray type="Float32" Name="rhoG" NumberOfComponents="1" format="ascii">
          0.30585 0.3018 0.29775 0.293699 0.289649 0.285598 0.281548 0.277498 0.273447 0.269397 0.265347 0.261296
          0.257246 0.253195 0.249145 0.245095 0.241044 0.236994 0.232944 0.228893 0.224843 0.220793 0.216742 0.212692
          0.208641 0.204591 0.200541 0.19649 0.19244 0.188395
        </DataArray>
        <DataArray type="Float32" Name="mobL" NumberOfComponents="1" format="ascii">
          722.171 722.17 722.17 722.17 722.17 722.17 722.169 722.169 722.169 722.169 722.169 722.169
          722.168 722.168 722.168 722.168 722.168 722.167 722.167 722.167 722.167 722.167 722.166 722.166
          722.166 722.166 722.166 722.166 722.165 722.165
        </DataArray>
        <DataArray type="Float32" Name="mobG" NumberOfComponents="1" format="ascii">
          0 0 0 0 0 0 0 0 0 0 0 0
          0 0 0 0 0 0 0 0 0 0 0 0
          0 0 0 0 0 0
        </DataArray>
        <DataArray type="Float32" Name="porosity" NumberOfComponents="1" format="ascii">
          0.29861 0.29861 0.29861 0.29861 0.298609 0.298609 0.298608 0.298607 0.298606 0.298604 0.298601 0.298597
          0.298592 0.298585 0.298575 0.298562 0.298545 0.298522 0.29849 0.298446 0.298387 0.298304 0.298186 0.298012
          0.297471 0.297014 0.296136 0.293991 0.285273 0.0831247
        </DataArray>
        <DataArray type="Float32" Name="temperature" NumberOfComponents="1" format="ascii">
          281.15 281.15 281.15 281.15 281.15 281.15 281.15 281.15 281.15 281.15 281.15 281.15
          281.15 281.15 281.15 281.15 281.15 281.15 281.15 281.15 281.15 281.15 281.15 281.15
          281.15 281.15 281.15 281.15 281.15 281.15
        </DataArray>
        <DataArray type="Float32" Name="phase presence" NumberOfComponents="1" format="ascii">
          1 1 1 1 1 1 1 1 1 1 1 1
          1 1 1 1 1 1 1 1 1 1 1 1
          1 1 1 1 1 1
        </DataArray>
        <DataArray type="Float32" Name="precipitateVolumeFraction_au" NumberOfComponents="1" format="ascii">
          5.53748e-10 5.52789e-10 5.52725e-10 5.52741e-10 5.52739e-10 5.52694e-10 5.52712e-10 5.52672e-10 5.52769e-10 5.52732e-10 5.52724e-10 5.52756e-10
          5.52746e-10 5.52735e-10 5.52754e-10 5.52755e-10 5.5274e-10 5.52741e-10 5.52743e-10 5.5278e-10 5.52737e-10 5.52756e-10 5.52823e-10 7.98271e-10
          0.00026994 0.000269924 0.000269899 0.000269854 5.52238e-10 5.51237e-10
        </DataArray>
        <DataArray type="Float32" Name="precipitateVolumeFraction_nanoAu" NumberOfComponents="1" format="ascii">
          1.58806e-13 1.44465e-13 1.43764e-13 1.43894e-13 1.43869e-13 1.43595e-13 1.43722e-13 1.43566e-13 1.43929e-13 1.43797e-13 1.43779e-13 1.43843e-13
          1.43814e-13 1.4379e-13 1.43807e-13 1.43801e-13 1.4378e-13 1.43775e-13 1.4377e-13 1.43783e-13 1.43748e-13 1.4376e-13 1.557e-13 2.58617e-11
          6.04404e-08 7.67685e-08 1.02226e-07 1.45596e-07 4.93483e-13 4.85062e-13
        </DataArray>
        <DataArray type="Float32" Name="precipitateVolumeFraction_d" NumberOfComponents="1" format="ascii">
          0.000694849 0.000694917 0.000695012 0.000695146 0.000695334 0.000695598 0.000695968 0.000696484 0.000697201 0.000698195 0.000699566 0.00070145
          0.000704026 0.000707536 0.000712301 0.00071875 0.000727463 0.000739231 0.000755157 0.000776817 0.000806545 0.00084796 0.000906997 0.00099412
          0.00112958 0.00135809 0.00179722 0.00286938 0.00736369 0.108438
        </DataArray>
        <DataArray type="Float32" Name="precipitateVolumeFraction_p" NumberOfComponents="1" format="ascii">
          0.000694849 0.000694917 0.000695012 0.000695146 0.000695334 0.000695598 0.000695968 0.000696484 0.000697201 0.000698195 0.000699566 0.00070145
          0.000704026 0.000707536 0.000712301 0.00071875 0.000727463 0.000739231 0.000755157 0.000776817 0.000806545 0.00084796 0.000906997 0.00099412
          0.00112958 0.00135809 0.00179722 0.00286938 0.00736369 0.108438
        </DataArray>
        <DataArray type="Float32" Name="K" NumberOfComponents="1" format="ascii">
          9.82263e-11 9.82262e-11 9.82259e-11 9.82256e-11 9.82251e-11 9.82244e-11 9.82235e-11 9.82222e-11 9.82204e-11 9.82179e-11 9.82144e-11 9.82096e-11
          9.82031e-11 9.81942e-11 9.81821e-11 9.81658e-11 9.81437e-11 9.81139e-11 9.80736e-11 9.80188e-11 9.79436e-11 9.7839e-11 9.769e-11 9.74704e-11
          9.67914e-11 9.62207e-11 9.51319e-11 9.25157e-11 8.24768e-11 1.23994e-12
        </DataArray>
        <DataArray type="Float32" Name="X^w_H2O" NumberOfComponents="1" format="ascii">
          0.999853 0.999853 0.999853 0.999853 0.999853 0.999853 0.999853 0.999853 0.999853 0.999853 0.999853 0.999853
          0.999853 0.999853 0.999853 0.999853 0.999853 0.999853 0.999853 0.999853 0.999853 0.999853 0.999853 0.999853
          0.999853 0.999852 0.99985 0.999846 0.999839 0.99984
        </DataArray>
        <DataArray type="Float32" Name="X^w_Air" NumberOfComponents="1" format="ascii">
          0 0 0 0 0 0 0 0 0 0 0 0
          0 0 0 0 0 0 0 0 0 0 0 0
          0 0 0 0 0 0
        </DataArray>
        <DataArray type="Float32" Name="X^w_AuComplex" NumberOfComponents="1" format="ascii">
          1.75178e-16 1.61325e-16 1.60645e-16 1.6077e-16 1.60743e-16 1.60475e-16 1.60596e-16 1.60442e-16 1.60793e-16 1.60663e-16 1.60643e-16 1.60703e-16
          1.60673e-16 1.60647e-16 1.60661e-16 1.60652e-16 1.60628e-16 1.60618e-16 1.60608e-16 1.60614e-16 1.60569e-16 1.60568e-16 1.73989e-16 2.94973e-14
          6.89791e-11 1.07566e-10 1.84646e-10 3.64134e-10 1.90545e-15 1.84873e-15
        </DataArray>
        <DataArray type="Float32" Name="X^w_nanoAu" NumberOfComponents="1" format="ascii">
          6.9105e-19 6.29201e-19 6.26186e-19 6.26748e-19 6.26628e-19 6.25452e-19 6.25992e-19 6.25337e-19 6.26892e-19 6.26323e-19 6.26251e-19 6.26522e-19
          6.26396e-19 6.26293e-19 6.26365e-19 6.26337e-19 6.26246e-19 6.2622e-19 6.26195e-19 6.26284e-19 6.29833e-19 9.72955e-19 3.2714e-17 2.96454e-15
          2.63963e-13 3.35456e-13 4.46922e-13 6.26502e-13 2.14153e-18 2.05549e-18
        </DataArray>
        <DataArray type="Float32" Name="X^w_cyanide" NumberOfComponents="1" format="ascii">
          5.0775e-06 5.07743e-06 5.07737e-06 5.0773e-06 5.07724e-06 5.07717e-06 5.0771e-06 5.07704e-06 5.07697e-06 5.0769e-06 5.07683e-06 5.07676e-06
          5.07669e-06 5.0766e-06 5.07651e-06 5.07641e-06 5.07629e-06 5.07615e-06 5.07597e-06 5.07574e-06 5.07543e-06 5.07499e-06 5.07436e-06 5.07339e-06
          5.07233e-06 6.4424e-06 8.57782e-06 1.22402e-05 1.94488e-05 1.91906e-05
        </DataArray>
        <DataArray type="Float32" Name="X^w_citrate" NumberOfComponents="1" format="ascii">
          0.000141796 0.000141796 0.000141796 0.000141796 0.000141796 0.000141796 0.000141796 0.000141796 0.000141796 0.000141796 0.000141796 0.000141796
          0.000141796 0.000141796 0.000141795 0.000141795 0.000141795 0.000141794 0.000141793 0.000141792 0.00014179 0.000141787 0.000141783 0.000141776
          0.000141765 0.000141747 0.00014171 0.000141624 0.000141344 0.000139467
        </DataArray>
        <DataArray type="Float32" Name="X^w_substrate" NumberOfComponents="1" format="ascii">
          5.4286e-12 7.54137e-12 1.04759e-11 1.45519e-11 2.02134e-11 2.80776e-11 3.90027e-11 5.4183e-11 7.52818e-11 1.04619e-10 1.45436e-10 2.02274e-10
          2.81518e-10 3.92184e-10 5.47082e-10 7.64559e-10 1.07116e-09 1.50583e-09 2.12663e-09 3.02207e-09 4.33082e-09 6.27783e-09 9.2448e-09 1.3918e-08
          2.16297e-08 3.5249e-08 6.19398e-08 1.24024e-07 3.22529e-07 1.64591e-06
        </DataArray>
        <DataArray type="Float32" Name="m^w_H2O" NumberOfComponents="1" format="ascii">
          55492.6 55492.5 55492.5 55492.5 55492.5 55492.5 55492.5 55492.5 55492.5 55492.5 55492.5 55492.5
          55492.5 55492.4 55492.4 55492.4 55492.4 55492.4 55492.4 55492.4 55492.4 55492.4 55492.4 55492.4
          55492.3 55492.3 55492.1 55491.9 55491.5 55491.6
        </DataArray>
        <DataArray type="Float32" Name="m^w_Air" NumberOfComponents="1" format="ascii">
          0 0 0 0 0 0 0 0 0 0 0 0
          0 0 0 0 0 0 0 0 0 0 0 0
          0 0 0 0 0 0
        </DataArray>
        <DataArray type="Float32" Name="m^w_AuComplex" NumberOfComponents="1" format="ascii">
          8.89235e-13 8.18914e-13 8.15463e-13 8.16095e-13 8.15961e-13 8.14601e-13 8.15215e-13 8.14434e-13 8.16214e-13 8.15551e-13 8.15453e-13 8.15758e-13
          8.15601e-13 8.1547e-13 8.15542e-13 8.15496e-13 8.15374e-13 8.15324e-13 8.15271e-13 8.15305e-13 8.15074e-13 8.15071e-13 8.83199e-13 1.49733e-10
          3.50149e-07 5.46022e-07 9.37292e-07 1.8484e-06 9.67237e-12 9.38443e-12
        </DataArray>
        <DataArray type="Float32" Name="m^w_nanoAu" NumberOfComponents="1" format="ascii">
          3.50789e-15 3.19394e-15 3.17863e-15 3.18149e-15 3.18087e-15 3.1749e-15 3.17765e-15 3.17432e-15 3.18222e-15 3.17932e-15 3.17896e-15 3.18033e-15
          3.17969e-15 3.17917e-15 3.17953e-15 3.17939e-15 3.17893e-15 3.1788e-15 3.17867e-15 3.17912e-15 3.19714e-15 4.93888e-15 1.66061e-13 1.50485e-11
          1.33992e-09 1.70283e-09 2.26865e-09 3.18023e-09 1.08708e-14 1.0434e-14
        </DataArray>
        <DataArray type="Float32" Name="m^w_cyanide" NumberOfComponents="1" format="ascii">
          0.19511 0.195108 0.195105 0.195102 0.1951 0.195097 0.195095 0.195092 0.19509 0.195087 0.195084 0.195081
          0.195078 0.195075 0.195072 0.195068 0.195063 0.195058 0.195051 0.195042 0.19503 0.195013 0.194989 0.194952
          0.194911 0.247557 0.329614 0.470346 0.747346 0.737424
        </DataArray>
        <DataArray type="Float32" Name="m^w_citrate" NumberOfComponents="1" format="ascii">
          0.749742 0.749742 0.749742 0.749742 0.749742 0.749742 0.749741 0.749741 0.749741 0.749741 0.74974 0.74974
          0.749739 0.749738 0.749737 0.749735 0.749732 0.749729 0.749724 0.749717 0.749708 0.749693 0.74967 0.749635
          0.749577 0.74948 0.749286 0.748828 0.747349 0.737425
        </DataArray>
        <DataArray type="Float32" Name="m^w_substrate" NumberOfComponents="1" format="ascii">
          3.01278e-08 4.18532e-08 5.81395e-08 8.07604e-08 1.12181e-07 1.55825e-07 2.16458e-07 3.00706e-07 4.178e-07 5.80615e-07 8.07142e-07 1.12258e-06
          1.56237e-06 2.17655e-06 3.0362e-06 4.24315e-06 5.94476e-06 8.35708e-06 1.18024e-05 1.67719e-05 2.40352e-05 3.48407e-05 5.13068e-05 7.72422e-05
          0.00012004 0.000195625 0.000343753 0.000688309 0.00178997 0.00913447
        </DataArray>
        <DataArray type="Float32" Name="process rank" NumberOfComponents="1" format="ascii">
          0 0 0 0 0 0 0 0 0 0 0 0
          0 0 0 0 0 0 0 0 0 0 0 0
          0 0 0 0 0 0
        </DataArray>
      </CellData>
      <Points>
        <DataArray type="Float32" Name="Coordinates" NumberOfComponents="3" format="ascii">
          0 0 0 0.5 0 0 0 0.0333333 0 0.5 0.0333333 0
          0 0.0666667 0 0.5 0.0666667 0 0 0.1 0 0.5 0.1 0
          0 0.133333 0 0.5 0.133333 0 0 0.166667 0 0.5 0.166667 0
          0 0.2 0 0.5 0.2 0 0 0.233333 0 0.5 0.233333 0
          0 0.266667 0 0.5 0.266667 0 0 0.3 0 0.5 0.3 0
          0 0.333333 0 0.5 0.333333 0 0 0.366667 0 0.5 0.366667 0
          0 0.4 0 0.5 0.4 0 0 0.433333 0 0.5 0.433333 0
          0 0.466667 0 0.5 0.466667 0 0 0.5 0 0.5 0.5 0
          0 0.533333 0 0.5 0.533333 0 0 0.566667 0 0.5 0.566667 0
          0 0.6 0 0.5 0.6 0 0 0.633333 0 0.5 0.633333 0
          0 0.666667 0 0.5 0.666667 0 0 0.7 0 0.5 0.7 0
          0 0.733333 0 0.5 0.733333 0 0 0.766667 0 0.5 0.766667 0
          0 0.8 0 0.5 0.8 0 0 0.833333 0 0.5 0.833333 0
          0 0.866667 0 0.5 0.866667 0 0 0.9 0 0.5 0.9 0
          0 0.933333 0 0.5 0.933333 0 0 0.966667 0 0.5 0.966667 0
          0 1 0 0.5 1 0
        </DataArray>
      </Points>
      <Cells>
        <DataArray type="Int32" Name="connectivity" NumberOfComponents="1" format="ascii">
          0 1 3 2 2 3 5 4 4 5 7 6
          6 7 9 8 8 9 11 10 10 11 13 12
          12 13 15 14 14 15 17 16 16 17 19 18
          18 19 21 20 20 21 23 22 22 23 25 24
          24 25 27 26 26 27 29 28 28 29 31 30
          30 31 33 32 32 33 35 34 34 35 37 36
          36 37 39 38 38 39 41 40 40 41 43 42
          42 43 45 44 44 45 47 46 46 47 49 48
          48 49 51 50 50 51 53 52 52 53 55 54
          54 55 57 56 56 57 59 58 58 59 61 60
        </DataArray>
        <DataArray type="Int32" Name="offsets" NumberOfComponents="1" format="ascii">
          4 8 12 16 20 24 28 32 36 40 44 48
          52 56 60 64 68 72 76 80 84 88 92 96
          100 104 108 112 116 120
        </DataArray>
        <DataArray type="UInt8" Name="types" NumberOfComponents="1" format="ascii">
          9 9 9 9 9 9 9 9 9 9 9 9
          9 9 9 9 9 9 9 9 9 9 9 9
          9 9 9 9 9 9
        </DataArray>
      </Cells>
    </Piece>
  </UnstructuredGrid>
</VTKFile>
