<?xml version="1.0"?>
<VTKFile type="UnstructuredGrid" version="0.1" byte_order="LittleEndian">
  <UnstructuredGrid>
    <Piece NumberOfCells="30" NumberOfPoints="62">
      <CellData Scalars="Sg">
        <DataArray type="Float32" Name="Sg" NumberOfComponents="1" format="ascii">
          0 0 0 0 0 0 0 0 0 0 0 0
          0 0 0 0 0 0 0 0 0 0 0 0
          0 0 0 0 0 0
        </DataArray>
        <DataArray type="Float32" Name="Sl" NumberOfComponents="1" format="ascii">
          1 1 1 1 1 1 1 1 1 1 1 1
          1 1 1 1 1 1 1 1 1 1 1 1
          1 1 1 1 1 1
        </DataArray>
        <DataArray type="Float32" Name="pg" NumberOfComponents="1" format="ascii">
          24687.8 24360.9 24034 23707 23380.1 23053.1 22726.2 22399.3 22072.3 21745.4 21418.4 21091.5
          20764.6 20437.6 20110.7 19783.7 19456.8 19129.9 18802.9 18476 18149 17822.1 17495.1 17168.2
          16841.3 16514.3 16187.4 15860.4 15533.5 15207.2
        </DataArray>
        <DataArray type="Float32" Name="pl" NumberOfComponents="1" format="ascii">
          110628 110301 109974 109647 109320 108993 108666 108339 108012 107685 107358 107031
          106704 106377 106050 105723 105396 105070 104743 104416 104089 103762 103435 103108
          102781 102454 102127 101800 101473 101147
        </DataArray>
        <DataArray type="Float32" Name="pc" NumberOfComponents="1" format="ascii">
          -85939.7 -85939.7 -85939.7 -85939.7 -85939.7 -85939.7 -85939.7 -85939.7 -85939.7 -85939.7 -85939.7 -85939.7
          -85939.7 -85939.7 -85939.7 -85939.7 -85939.7 -85939.7 -85939.7 -85939.7 -85939.7 -85939.7 -85939.7 -85939.7
          -85939.7 -85939.7 -85939.7 -85939.7 -85939.7 -85939.7
        </DataArray>
        <DataArray type="Float32" Name="rhoL" NumberOfComponents="1" format="ascii">
          999.855 999.855 999.855 999.855 999.855 999.854 999.854 999.854 999.854 999.854 999.854 999.854
          999.853 999.853 999.853 999.853 999.853 999.853 999.852 999.852 999.852 999.852 999.852 999.852
          999.852 999.851 999.851 999.851 999.851 999.851
        </DataArray>
        <DataArray type="Float32" Name="rhoG" NumberOfComponents="1" format="ascii">
          0.30585 0.3018 0.29775 0.293699 0.289649 0.285598 0.281548 0.277498 0.273447 0.269397 0.265347 0.261296
          0.257246 0.253195 0.249145 0.245095 0.241044 0.236994 0.232944 0.228893 0.224843 0.220793 0.216742 0.212692
          0.208641 0.204591 0.200541 0.19649 0.19244 0.188397
        </DataArray>
        <DataArray type="Float32" Name="mobL" NumberOfComponents="1" format="ascii">
          722.171 722.17 722.17 722.17 722.17 722.17 722.169 722.169 722.169 722.169 722.169 722.169
          722.168 722.168 722.168 722.168 722.168 722.167 722.167 722.167 722.167 722.167 722.166 722.166
          722.166 722.166 722.166 722.166 722.165 722.165
        </DataArray>
        <DataArray type="Float32" Name="mobG" NumberOfComponents="1" format="ascii">
          0 0 0 0 0 0 0 0 0 0 0 0
          0 0 0 0 0 0 0 0 0 0 0 0
          0 0 0 0 0 0
        </DataArray>
        <DataArray type="Float32" Name="porosity" NumberOfComponents="1" format="ascii">
          0.298623 0.298623 0.298623 0.298622 0.298622 0.298622 0.298621 0.29862 0.298618 0.298616 0.298614 0.29861
          0.298605 0.298598 0.298588 0.298576 0.298558 0.298535 0.298503 0.29846 0.298401 0.298319 0.298202 0.298028
          0.297488 0.297032 0.296153 0.293995 0.285093 0.0757351
        </DataArray>
        <DataArray type="Float32" Name="temperature" NumberOfComponents="1" format="ascii">
          281.15 281.15 281.15 281.15 281.15 281.15 281.15 281.15 281.15 281.15 281.15 281.15
          281.15 281.15 281.15 281.15 281.15 281.15 281.15 281.15 281.15 281.15 281.15 281.15
          281.15 281.15 281.15 281.15 281.15 281.15
        </DataArray>
        <DataArray type="Float32" Name="phase presence" NumberOfComponents="1" format="ascii">
          1 1 1 1 1 1 1 1 1 1 1 1
          1 1 1 1 1 1 1 1 1 1 1 1
          1 1 1 1 1 1
        </DataArray>
        <DataArray type="Float32" Name="precipitateVolumeFraction_au" NumberOfComponents="1" format="ascii">
          5.52606e-10 5.5279e-10 5.5273e-10 5.52716e-10 5.5274e-10 5.52719e-10 5.52773e-10 5.52718e-10 5.52741e-10 5.52761e-10 5.52768e-10 5.52741e-10
          5.5276e-10 5.5274e-10 5.52688e-10 5.52758e-10 5.52772e-10 5.52724e-10 5.52743e-10 5.52812e-10 5.52753e-10 5.52756e-10 5.52771e-10 8.07841e-10
          0.00026994 0.000269924 0.000269899 0.000269854 5.52243e-10 5.51307e-10
        </DataArray>
        <DataArray type="Float32" Name="precipitateVolumeFraction_nanoAu" NumberOfComponents="1" format="ascii">
          1.31372e-13 1.32494e-13 1.32218e-13 1.32173e-13 1.32256e-13 1.32203e-13 1.32329e-13 1.32218e-13 1.32253e-13 1.32277e-13 1.3228e-13 1.32249e-13
          1.32263e-13 1.32242e-13 1.32207e-13 1.32247e-13 1.3225e-13 1.32223e-13 1.32227e-13 1.32247e-13 1.32216e-13 1.32221e-13 1.43135e-13 2.46264e-11
          6.04261e-08 7.67522e-08 1.02208e-07 1.45597e-07 4.82167e-13 4.74266e-13
        </DataArray>
        <DataArray type="Float32" Name="precipitateVolumeFraction_d" NumberOfComponents="1" format="ascii">
          0.000688461 0.000688528 0.000688622 0.000688755 0.000688941 0.000689203 0.00068957 0.000690082 0.000690794 0.00069178 0.00069314 0.000695008
          0.000697564 0.000701046 0.000705774 0.000712173 0.00072082 0.000732501 0.000748311 0.000769818 0.000799347 0.000840501 0.000899199 0.000985889
          0.00112083 0.00134885 0.00178833 0.00286749 0.00745342 0.112132
        </DataArray>
        <DataArray type="Float32" Name="precipitateVolumeFraction_p" NumberOfComponents="1" format="ascii">
          0.000688461 0.000688528 0.000688622 0.000688755 0.000688941 0.000689203 0.00068957 0.000690082 0.000690794 0.00069178 0.00069314 0.000695008
          0.000697564 0.000701046 0.000705774 0.000712173 0.00072082 0.000732501 0.000748311 0.000769818 0.000799347 0.000840501 0.000899199 0.000985889
          0.00112083 0.00134885 0.00178833 0.00286749 0.00745342 0.112132
        </DataArray>
        <DataArray type="Float32" Name="K" NumberOfComponents="1" format="ascii">
          9.82425e-11 9.82423e-11 9.82421e-11 9.82418e-11 9.82413e-11 9.82406e-11 9.82397e-11 9.82384e-11 9.82366e-11 9.82341e-11 9.82307e-11 9.82259e-11
          9.82194e-11 9.82106e-11 9.81987e-11 9.81824e-11 9.81605e-11 9.8131e-11 9.80909e-11 9.80365e-11 9.79618e-11 9.78578e-11 9.77097e-11 9.74911e-11
          9.68133e-11 9.62438e-11 9.51538e-11 9.25202e-11 8.22799e-11 9.2285e-13
        </DataArray>
        <DataArray type="Float32" Name="X^w_H2O" NumberOfComponents="1" format="ascii">
          0.999853 0.999853 0.999853 0.999853 0.999853 0.999853 0.999853 0.999853 0.999853 0.999853 0.999853 0.999853
          0.999853 0.999853 0.999853 0.999853 0.999853 0.999853 0.999853 0.999853 0.999853 0.999853 0.999853 0.999853
          0.999853 0.999852 0.99985 0.999846 0.999839 0.99984
        </DataArray>
        <DataArray type="Float32" Name="X^w_Air" NumberOfComponents="1" format="ascii">
          0 0 0 0 0 0 0 0 0 0 0 0
          0 0 0 0 0 0 0 0 0 0 0 0
          0 0 0 0 0 0
        </DataArray>
        <DataArray type="Float32" Name="X^w_AuComplex" NumberOfComponents="1" format="ascii">
          1.41655e-16 1.42689e-16 1.42432e-16 1.42389e-16 1.42464e-16 1.42414e-16 1.42529e-16 1.42424e-16 1.42456e-16 1.42477e-16 1.42478e-16 1.42447e-16
          1.42458e-16 1.42436e-16 1.424e-16 1.42437e-16 1.42437e-16 1.42407e-16 1.42406e-16 1.42422e-16 1.42383e-16 1.42377e-16 1.54049e-16 2.67601e-14
          6.56983e-11 1.02454e-10 1.75884e-10 3.46938e-10 1.77599e-15 1.72501e-15
        </DataArray>
        <DataArray type="Float32" Name="X^w_nanoAu" NumberOfComponents="1" format="ascii">
          5.7224e-19 5.7706e-19 5.75869e-19 5.75679e-19 5.76035e-19 5.75814e-19 5.76349e-19 5.75872e-19 5.76027e-19 5.76128e-19 5.76141e-19 5.76006e-19
          5.76064e-19 5.75972e-19 5.75821e-19 5.75996e-19 5.76004e-19 5.75887e-19 5.75898e-19 5.76019e-19 5.79575e-19 9.21698e-19 3.25804e-17 2.95789e-15
          2.63902e-13 3.35389e-13 4.46858e-13 6.26543e-13 2.09272e-18 2.01085e-18
        </DataArray>
        <DataArray type="Float32" Name="X^w_cyanide" NumberOfComponents="1" format="ascii">
          5.07622e-06 5.07616e-06 5.0761e-06 5.07605e-06 5.07599e-06 5.07594e-06 5.07588e-06 5.07583e-06 5.07577e-06 5.07571e-06 5.07566e-06 5.07559e-06
          5.07553e-06 5.07546e-06 5.07538e-06 5.07529e-06 5.07518e-06 5.07505e-06 5.07489e-06 5.07467e-06 5.07438e-06 5.07397e-06 5.07336e-06 5.07244e-06
          5.07142e-06 6.44143e-06 8.57688e-06 1.22397e-05 1.94515e-05 1.92012e-05
        </DataArray>
        <DataArray type="Float32" Name="X^w_citrate" NumberOfComponents="1" format="ascii">
          0.000141796 0.000141796 0.000141796 0.000141796 0.000141796 0.000141796 0.000141796 0.000141796 0.000141796 0.000141796 0.000141796 0.000141796
          0.000141796 0.000141796 0.000141795 0.000141795 0.000141795 0.000141794 0.000141793 0.000141792 0.00014179 0.000141787 0.000141783 0.000141777
          0.000141766 0.000141749 0.000141714 0.000141631 0.000141364 0.000139544
        </DataArray>
        <DataArray type="Float32" Name="X^w_substrate" NumberOfComponents="1" format="ascii">
          5.52221e-12 7.65525e-12 1.06117e-11 1.47093e-11 2.03888e-11 2.82611e-11 3.91742e-11 5.43054e-11 7.52908e-11 1.04408e-10 1.44831e-10 2.01001e-10
          2.79142e-10 3.88032e-10 5.40112e-10 7.53166e-10 1.05288e-09 1.47683e-09 2.08097e-09 2.95043e-09 4.21831e-09 6.10021e-09 8.96136e-09 1.34575e-08
          2.08601e-08 3.39055e-08 5.94256e-08 1.18737e-07 3.08762e-07 1.5917e-06
        </DataArray>
        <DataArray type="Float32" Name="m^w_H2O" NumberOfComponents="1" format="ascii">
          55492.6 55492.6 55492.5 55492.5 55492.5 55492.5 55492.5 55492.5 55492.5 55492.5 55492.5 55492.5
          55492.5 55492.4 55492.4 55492.4 55492.4 55492.4 55492.4 55492.4 55492.4 55492.4 55492.4 55492.4
          55492.3 55492.3 55492.1 55491.9 55491.5 55491.6
        </DataArray>
        <DataArray type="Float32" Name="m^w_Air" NumberOfComponents="1" format="ascii">
          0 0 0 0 0 0 0 0 0 0 0 0
          0 0 0 0 0 0 0 0 0 0 0 0
          0 0 0 0 0 0
        </DataArray>
        <DataArray type="Float32" Name="m^w_AuComplex" NumberOfComponents="1" format="ascii">
          7.19066e-13 7.24315e-13 7.23011e-13 7.22791e-13 7.23175e-13 7.22918e-13 7.23504e-13 7.22969e-13 7.23131e-13 7.23236e-13 7.23244e-13 7.23085e-13
          7.23143e-13 7.23032e-13 7.22846e-13 7.23036e-13 7.23036e-13 7.22884e-13 7.22879e-13 7.22955e-13 7.22758e-13 7.22727e-13 7.8198e-13 1.35839e-10
          3.33495e-07 5.20074e-07 8.92814e-07 1.76111e-06 9.01519e-12 8.75641e-12
        </DataArray>
        <DataArray type="Float32" Name="m^w_nanoAu" NumberOfComponents="1" format="ascii">
          2.90479e-15 2.92926e-15 2.92321e-15 2.92225e-15 2.92406e-15 2.92293e-15 2.92565e-15 2.92323e-15 2.92401e-15 2.92453e-15 2.92459e-15 2.92391e-15
          2.9242e-15 2.92373e-15 2.92296e-15 2.92385e-15 2.92389e-15 2.9233e-15 2.92336e-15 2.92397e-15 2.94202e-15 4.67869e-15 1.65383e-13 1.50147e-11
          1.33961e-09 1.70249e-09 2.26832e-09 3.18043e-09 1.0623e-14 1.02074e-14
        </DataArray>
        <DataArray type="Float32" Name="m^w_cyanide" NumberOfComponents="1" format="ascii">
          0.195061 0.195059 0.195056 0.195054 0.195052 0.19505 0.195048 0.195046 0.195043 0.195041 0.195039 0.195037
          0.195034 0.195031 0.195028 0.195025 0.195021 0.195016 0.195009 0.195001 0.19499 0.194974 0.19495 0.194915
          0.194876 0.24752 0.329577 0.470327 0.747449 0.73783
        </DataArray>
        <DataArray type="Float32" Name="m^w_citrate" NumberOfComponents="1" format="ascii">
          0.749742 0.749742 0.749742 0.749742 0.749742 0.749742 0.749741 0.749741 0.749741 0.749741 0.74974 0.74974
          0.749739 0.749738 0.749737 0.749735 0.749733 0.749729 0.749725 0.749718 0.749708 0.749694 0.749673 0.749639
          0.749583 0.74949 0.749305 0.748868 0.747452 0.737832
        </DataArray>
        <DataArray type="Float32" Name="m^w_substrate" NumberOfComponents="1" format="ascii">
          3.06473e-08 4.24852e-08 5.88928e-08 8.1634e-08 1.13154e-07 1.56844e-07 2.1741e-07 3.01385e-07 4.1785e-07 5.79443e-07 8.03787e-07 1.11551e-06
          1.54919e-06 2.1535e-06 2.99752e-06 4.17992e-06 5.84325e-06 8.19609e-06 1.1549e-05 1.63743e-05 2.34108e-05 3.3855e-05 4.97337e-05 7.46863e-05
          0.000115769 0.000188168 0.0003298 0.000658967 0.00171356 0.00883362
        </DataArray>
        <DataArray type="Float32" Name="process rank" NumberOfComponents="1" format="ascii">
          0 0 0 0 0 0 0 0 0 0 0 0
          0 0 0 0 0 0 0 0 0 0 0 0
          0 0 0 0 0 0
        </DataArray>
      </CellData>
      <Points>
        <DataArray type="Float32" Name="Coordinates" NumberOfComponents="3" format="ascii">
          0 0 0 0.5 0 0 0 0.0333333 0 0.5 0.0333333 0
          0 0.0666667 0 0.5 0.0666667 0 0 0.1 0 0.5 0.1 0
          0 0.133333 0 0.5 0.133333 0 0 0.166667 0 0.5 0.166667 0
          0 0.2 0 0.5 0.2 0 0 0.233333 0 0.5 0.233333 0
          0 0.266667 0 0.5 0.266667 0 0 0.3 0 0.5 0.3 0
          0 0.333333 0 0.5 0.333333 0 0 0.366667 0 0.5 0.366667 0
          0 0.4 0 0.5 0.4 0 0 0.433333 0 0.5 0.433333 0
          0 0.466667 0 0.5 0.466667 0 0 0.5 0 0.5 0.5 0
          0 0.533333 0 0.5 0.533333 0 0 0.566667 0 0.5 0.566667 0
          0 0.6 0 0.5 0.6 0 0 0.633333 0 0.5 0.633333 0
          0 0.666667 0 0.5 0.666667 0 0 0.7 0 0.5 0.7 0
          0 0.733333 0 0.5 0.733333 0 0 0.766667 0 0.5 0.766667 0
          0 0.8 0 0.5 0.8 0 0 0.833333 0 0.5 0.833333 0
          0 0.866667 0 0.5 0.866667 0 0 0.9 0 0.5 0.9 0
          0 0.933333 0 0.5 0.933333 0 0 0.966667 0 0.5 0.966667 0
          0 1 0 0.5 1 0
        </DataArray>
      </Points>
      <Cells>
        <DataArray type="Int32" Name="connectivity" NumberOfComponents="1" format="ascii">
          0 1 3 2 2 3 5 4 4 5 7 6
          6 7 9 8 8 9 11 10 10 11 13 12
          12 13 15 14 14 15 17 16 16 17 19 18
          18 19 21 20 20 21 23 22 22 23 25 24
          24 25 27 26 26 27 29 28 28 29 31 30
          30 31 33 32 32 33 35 34 34 35 37 36
          36 37 39 38 38 39 41 40 40 41 43 42
          42 43 45 44 44 45 47 46 46 47 49 48
          48 49 51 50 50 51 53 52 52 53 55 54
          54 55 57 56 56 57 59 58 58 59 61 60
        </DataArray>
        <DataArray type="Int32" Name="offsets" NumberOfComponents="1" format="ascii">
          4 8 12 16 20 24 28 32 36 40 44 48
          52 56 60 64 68 72 76 80 84 88 92 96
          100 104 108 112 116 120
        </DataArray>
        <DataArray type="UInt8" Name="types" NumberOfComponents="1" format="ascii">
          9 9 9 9 9 9 9 9 9 9 9 9
          9 9 9 9 9 9 9 9 9 9 9 9
          9 9 9 9 9 9
        </DataArray>
      </Cells>
    </Piece>
  </UnstructuredGrid>
</VTKFile>
