<?xml version="1.0"?>
<VTKFile type="UnstructuredGrid" version="0.1" byte_order="LittleEndian">
  <UnstructuredGrid>
    <Piece NumberOfCells="30" NumberOfPoints="62">
      <CellData Scalars="Sg">
        <DataArray type="Float32" Name="Sg" NumberOfComponents="1" format="ascii">
          0 0 0 0 0 0 0 0 0 0 0 0
          0 0 0 0 0 0 0 0 0 0 0 0
          0 0 0 0 0 0
        </DataArray>
        <DataArray type="Float32" Name="Sl" NumberOfComponents="1" format="ascii">
          1 1 1 1 1 1 1 1 1 1 1 1
          1 1 1 1 1 1 1 1 1 1 1 1
          1 1 1 1 1 1
        </DataArray>
        <DataArray type="Float32" Name="pg" NumberOfComponents="1" format="ascii">
          24687.8 24360.9 24034 23707 23380.1 23053.1 22726.2 22399.3 22072.3 21745.4 21418.4 21091.5
          20764.6 20437.6 20110.7 19783.7 19456.8 19129.8 18802.9 18476 18149 17822.1 17495.1 17168.2
          16841.3 16514.3 16187.4 15860.4 15533.5 15207.5
        </DataArray>
        <DataArray type="Float32" Name="pl" NumberOfComponents="1" format="ascii">
          110628 110301 109974 109647 109320 108993 108666 108339 108012 107685 107358 107031
          106704 106377 106050 105723 105396 105070 104743 104416 104089 103762 103435 103108
          102781 102454 102127 101800 101473 101147
        </DataArray>
        <DataArray type="Float32" Name="pc" NumberOfComponents="1" format="ascii">
          -85939.7 -85939.7 -85939.7 -85939.7 -85939.7 -85939.7 -85939.7 -85939.7 -85939.7 -85939.7 -85939.7 -85939.7
          -85939.7 -85939.7 -85939.7 -85939.7 -85939.7 -85939.7 -85939.7 -85939.7 -85939.7 -85939.7 -85939.7 -85939.7
          -85939.7 -85939.7 -85939.7 -85939.7 -85939.7 -85939.7
        </DataArray>
        <DataArray type="Float32" Name="rhoL" NumberOfComponents="1" format="ascii">
          999.855 999.855 999.855 999.855 999.855 999.854 999.854 999.854 999.854 999.854 999.854 999.854
          999.853 999.853 999.853 999.853 999.853 999.853 999.852 999.852 999.852 999.852 999.852 999.852
          999.852 999.851 999.851 999.851 999.851 999.851
        </DataArray>
        <DataArray type="Float32" Name="rhoG" NumberOfComponents="1" format="ascii">
          0.30585 0.3018 0.29775 0.293699 0.289649 0.285598 0.281548 0.277498 0.273447 0.269397 0.265347 0.261296
          0.257246 0.253195 0.249145 0.245095 0.241044 0.236994 0.232944 0.228893 0.224843 0.220793 0.216742 0.212692
          0.208641 0.204591 0.200541 0.19649 0.19244 0.188402
        </DataArray>
        <DataArray type="Float32" Name="mobL" NumberOfComponents="1" format="ascii">
          722.171 722.17 722.17 722.17 722.17 722.17 722.169 722.169 722.169 722.169 722.169 722.169
          722.168 722.168 722.168 722.168 722.168 722.167 722.167 722.167 722.167 722.167 722.166 722.166
          722.166 722.166 722.166 722.166 722.165 722.165
        </DataArray>
        <DataArray type="Float32" Name="mobG" NumberOfComponents="1" format="ascii">
          0 0 0 0 0 0 0 0 0 0 0 0
          0 0 0 0 0 0 0 0 0 0 0 0
          0 0 0 0 0 0
        </DataArray>
        <DataArray type="Float32" Name="porosity" NumberOfComponents="1" format="ascii">
          0.298648 0.298648 0.298648 0.298648 0.298647 0.298647 0.298646 0.298645 0.298644 0.298642 0.298639 0.298635
          0.29863 0.298623 0.298614 0.298602 0.298585 0.298562 0.29853 0.298488 0.29843 0.298348 0.298232 0.298061
          0.297523 0.29707 0.29619 0.294009 0.284776 0.0647559
        </DataArray>
        <DataArray type="Float32" Name="temperature" NumberOfComponents="1" format="ascii">
          281.15 281.15 281.15 281.15 281.15 281.15 281.15 281.15 281.15 281.15 281.15 281.15
          281.15 281.15 281.15 281.15 281.15 281.15 281.15 281.15 281.15 281.15 281.15 281.15
          281.15 281.15 281.15 281.15 281.15 281.15
        </DataArray>
        <DataArray type="Float32" Name="phase presence" NumberOfComponents="1" format="ascii">
          1 1 1 1 1 1 1 1 1 1 1 1
          1 1 1 1 1 1 1 1 1 1 1 1
          1 1 1 1 1 1
        </DataArray>
        <DataArray type="Float32" Name="precipitateVolumeFraction_au" NumberOfComponents="1" format="ascii">
          5.52612e-10 5.52797e-10 5.52737e-10 5.52723e-10 5.52747e-10 5.52726e-10 5.5278e-10 5.52725e-10 5.52748e-10 5.52768e-10 5.52775e-10 5.52748e-10
          5.52767e-10 5.52747e-10 5.52695e-10 5.52765e-10 5.52779e-10 5.52731e-10 5.5275e-10 5.52819e-10 5.5276e-10 5.52763e-10 5.52797e-10 8.50048e-10
          0.00026994 0.000269924 0.000269899 0.000269853 5.52249e-10 5.51312e-10
        </DataArray>
        <DataArray type="Float32" Name="precipitateVolumeFraction_nanoAu" NumberOfComponents="1" format="ascii">
          1.25097e-13 1.2533e-13 1.25269e-13 1.25257e-13 1.25276e-13 1.25262e-13 1.25293e-13 1.25262e-13 1.25272e-13 1.25279e-13 1.2528e-13 1.25268e-13
          1.25273e-13 1.25265e-13 1.25247e-13 1.25266e-13 1.25267e-13 1.25251e-13 1.25252e-13 1.25264e-13 1.25243e-13 1.25249e-13 1.36156e-13 2.45994e-11
          6.04049e-08 7.67294e-08 1.02187e-07 1.4559e-07 4.75438e-13 4.68005e-13
        </DataArray>
        <DataArray type="Float32" Name="precipitateVolumeFraction_d" NumberOfComponents="1" format="ascii">
          0.000675871 0.000675936 0.000676029 0.00067616 0.000676344 0.000676601 0.000676962 0.000677466 0.000678166 0.000679137 0.000680475 0.000682314
          0.000684829 0.000688257 0.00069291 0.000699211 0.000707726 0.000719232 0.000734811 0.000756014 0.000785142 0.000825768 0.000883773 0.000969562
          0.00110338 0.00133022 0.0017698 0.00286054 0.00761214 0.117622
        </DataArray>
        <DataArray type="Float32" Name="precipitateVolumeFraction_p" NumberOfComponents="1" format="ascii">
          0.000675871 0.000675936 0.000676029 0.00067616 0.000676344 0.000676601 0.000676962 0.000677466 0.000678166 0.000679137 0.000680475 0.000682314
          0.000684829 0.000688257 0.00069291 0.000699211 0.000707726 0.000719232 0.000734811 0.000756014 0.000785142 0.000825768 0.000883773 0.000969562
          0.00110338 0.00133022 0.0017698 0.00286054 0.00761214 0.117622
        </DataArray>
        <DataArray type="Float32" Name="K" NumberOfComponents="1" format="ascii">
          9.82744e-11 9.82743e-11 9.8274e-11 9.82737e-11 9.82732e-11 9.82726e-11 9.82717e-11 9.82704e-11 9.82686e-11 9.82661e-11 9.82628e-11 9.82581e-11
          9.82517e-11 9.8243e-11 9.82312e-11 9.82153e-11 9.81937e-11 9.81646e-11 9.81251e-11 9.80714e-11 9.79978e-11 9.78951e-11 9.77486e-11 9.75323e-11
          9.6857e-11 9.62902e-11 9.51995e-11 9.2537e-11 8.19326e-11 5.63403e-13
        </DataArray>
        <DataArray type="Float32" Name="X^w_H2O" NumberOfComponents="1" format="ascii">
          0.999853 0.999853 0.999853 0.999853 0.999853 0.999853 0.999853 0.999853 0.999853 0.999853 0.999853 0.999853
          0.999853 0.999853 0.999853 0.999853 0.999853 0.999853 0.999853 0.999853 0.999853 0.999853 0.999853 0.999853
          0.999853 0.999852 0.99985 0.999846 0.999839 0.99984
        </DataArray>
        <DataArray type="Float32" Name="X^w_Air" NumberOfComponents="1" format="ascii">
          0 0 0 0 0 0 0 0 0 0 0 0
          0 0 0 0 0 0 0 0 0 0 0 0
          0 0 0 0 0 0
        </DataArray>
        <DataArray type="Float32" Name="X^w_AuComplex" NumberOfComponents="1" format="ascii">
          1.35844e-16 1.36064e-16 1.36004e-16 1.35992e-16 1.36009e-16 1.35994e-16 1.36024e-16 1.35993e-16 1.36002e-16 1.36008e-16 1.36008e-16 1.35995e-16
          1.35999e-16 1.35989e-16 1.35969e-16 1.35987e-16 1.35986e-16 1.35967e-16 1.35965e-16 1.35973e-16 1.35944e-16 1.35941e-16 1.47604e-16 2.67265e-14
          6.56609e-11 1.02404e-10 1.75821e-10 3.46906e-10 1.75267e-15 1.70455e-15
        </DataArray>
        <DataArray type="Float32" Name="X^w_nanoAu" NumberOfComponents="1" format="ascii">
          5.44852e-19 5.45856e-19 5.45592e-19 5.45543e-19 5.45622e-19 5.45562e-19 5.45697e-19 5.45564e-19 5.45606e-19 5.45636e-19 5.45639e-19 5.45589e-19
          5.45609e-19 5.45571e-19 5.45496e-19 5.45575e-19 5.45578e-19 5.45507e-19 5.45509e-19 5.45596e-19 5.49186e-19 8.90826e-19 3.25156e-17 2.95576e-15
          2.63813e-13 3.35296e-13 4.4678e-13 6.26561e-13 2.06393e-18 1.98579e-18
        </DataArray>
        <DataArray type="Float32" Name="X^w_cyanide" NumberOfComponents="1" format="ascii">
          5.07421e-06 5.07417e-06 5.07414e-06 5.0741e-06 5.07406e-06 5.07403e-06 5.07399e-06 5.07395e-06 5.07391e-06 5.07388e-06 5.07383e-06 5.07379e-06
          5.07374e-06 5.07369e-06 5.07363e-06 5.07356e-06 5.07347e-06 5.07336e-06 5.07321e-06 5.07302e-06 5.07275e-06 5.07237e-06 5.07181e-06 5.07095e-06
          5.07003e-06 6.43993e-06 8.57546e-06 1.22392e-05 1.94553e-05 1.92157e-05
        </DataArray>
        <DataArray type="Float32" Name="X^w_citrate" NumberOfComponents="1" format="ascii">
          0.000141796 0.000141796 0.000141796 0.000141796 0.000141796 0.000141796 0.000141796 0.000141796 0.000141796 0.000141796 0.000141796 0.000141796
          0.000141796 0.000141796 0.000141795 0.000141795 0.000141795 0.000141794 0.000141793 0.000141792 0.00014179 0.000141788 0.000141784 0.000141778
          0.000141768 0.000141751 0.000141719 0.000141642 0.000141391 0.000139649
        </DataArray>
        <DataArray type="Float32" Name="X^w_substrate" NumberOfComponents="1" format="ascii">
          5.87802e-12 8.11244e-12 1.11957e-11 1.545e-11 2.13204e-11 2.94213e-11 4.0601e-11 5.60326e-11 7.7339e-11 1.06769e-10 1.47444e-10 2.03708e-10
          2.8163e-10 3.89724e-10 5.40008e-10 7.4959e-10 1.04307e-09 1.4563e-09 2.04246e-09 2.8821e-09 4.10075e-09 5.90104e-09 8.62508e-09 1.28854e-08
          1.98666e-08 3.21144e-08 5.59818e-08 1.11334e-07 2.89225e-07 1.51745e-06
        </DataArray>
        <DataArray type="Float32" Name="m^w_H2O" NumberOfComponents="1" format="ascii">
          55492.6 55492.6 55492.5 55492.5 55492.5 55492.5 55492.5 55492.5 55492.5 55492.5 55492.5 55492.5
          55492.5 55492.4 55492.4 55492.4 55492.4 55492.4 55492.4 55492.4 55492.4 55492.4 55492.4 55492.4
          55492.3 55492.3 55492.1 55491.9 55491.5 55491.6
        </DataArray>
        <DataArray type="Float32" Name="m^w_Air" NumberOfComponents="1" format="ascii">
          0 0 0 0 0 0 0 0 0 0 0 0
          0 0 0 0 0 0 0 0 0 0 0 0
          0 0 0 0 0 0
        </DataArray>
        <DataArray type="Float32" Name="m^w_AuComplex" NumberOfComponents="1" format="ascii">
          6.89566e-13 6.90684e-13 6.90383e-13 6.90321e-13 6.90407e-13 6.90332e-13 6.90484e-13 6.90325e-13 6.90368e-13 6.90399e-13 6.90399e-13 6.90334e-13
          6.90354e-13 6.90303e-13 6.90203e-13 6.90293e-13 6.9029e-13 6.90191e-13 6.90179e-13 6.90223e-13 6.90074e-13 6.90058e-13 7.4926e-13 1.35668e-10
          3.33305e-07 5.19818e-07 8.92498e-07 1.76095e-06 8.89685e-12 8.65256e-12
        </DataArray>
        <DataArray type="Float32" Name="m^w_nanoAu" NumberOfComponents="1" format="ascii">
          2.76577e-15 2.77086e-15 2.76952e-15 2.76927e-15 2.76967e-15 2.76937e-15 2.77005e-15 2.76938e-15 2.76959e-15 2.76974e-15 2.76976e-15 2.7695e-15
          2.76961e-15 2.76941e-15 2.76903e-15 2.76943e-15 2.76945e-15 2.76909e-15 2.76909e-15 2.76954e-15 2.78776e-15 4.52198e-15 1.65055e-13 1.50039e-11
          1.33916e-09 1.70201e-09 2.26793e-09 3.18052e-09 1.04769e-14 1.00802e-14
        </DataArray>
        <DataArray type="Float32" Name="m^w_cyanide" NumberOfComponents="1" format="ascii">
          0.194984 0.194982 0.194981 0.194979 0.194978 0.194976 0.194975 0.194974 0.194972 0.194971 0.194969 0.194967
          0.194965 0.194963 0.194961 0.194958 0.194955 0.19495 0.194945 0.194937 0.194927 0.194912 0.194891 0.194858
          0.194822 0.247462 0.329523 0.470305 0.747596 0.738387
        </DataArray>
        <DataArray type="Float32" Name="m^w_citrate" NumberOfComponents="1" format="ascii">
          0.749742 0.749742 0.749742 0.749742 0.749742 0.749742 0.749741 0.749741 0.749741 0.74974 0.74974 0.74974
          0.749739 0.749738 0.749737 0.749735 0.749733 0.749729 0.749725 0.749718 0.749709 0.749696 0.749675 0.749643
          0.749591 0.749504 0.749331 0.748923 0.747598 0.738389
        </DataArray>
        <DataArray type="Float32" Name="m^w_substrate" NumberOfComponents="1" format="ascii">
          3.26219e-08 4.50226e-08 6.21338e-08 8.57447e-08 1.18325e-07 1.63283e-07 2.25328e-07 3.10971e-07 4.29217e-07 5.92547e-07 8.18286e-07 1.13054e-06
          1.56299e-06 2.16289e-06 2.99694e-06 4.16008e-06 5.78883e-06 8.0822e-06 1.13352e-05 1.59951e-05 2.27584e-05 3.27496e-05 4.78674e-05 7.15111e-05
          0.000110256 0.000178228 0.000310687 0.00061788 0.00160514 0.00842152
        </DataArray>
        <DataArray type="Float32" Name="process rank" NumberOfComponents="1" format="ascii">
          0 0 0 0 0 0 0 0 0 0 0 0
          0 0 0 0 0 0 0 0 0 0 0 0
          0 0 0 0 0 0
        </DataArray>
      </CellData>
      <Points>
        <DataArray type="Float32" Name="Coordinates" NumberOfComponents="3" format="ascii">
          0 0 0 0.5 0 0 0 0.0333333 0 0.5 0.0333333 0
          0 0.0666667 0 0.5 0.0666667 0 0 0.1 0 0.5 0.1 0
          0 0.133333 0 0.5 0.133333 0 0 0.166667 0 0.5 0.166667 0
          0 0.2 0 0.5 0.2 0 0 0.233333 0 0.5 0.233333 0
          0 0.266667 0 0.5 0.266667 0 0 0.3 0 0.5 0.3 0
          0 0.333333 0 0.5 0.333333 0 0 0.366667 0 0.5 0.366667 0
          0 0.4 0 0.5 0.4 0 0 0.433333 0 0.5 0.433333 0
          0 0.466667 0 0.5 0.466667 0 0 0.5 0 0.5 0.5 0
          0 0.533333 0 0.5 0.533333 0 0 0.566667 0 0.5 0.566667 0
          0 0.6 0 0.5 0.6 0 0 0.633333 0 0.5 0.633333 0
          0 0.666667 0 0.5 0.666667 0 0 0.7 0 0.5 0.7 0
          0 0.733333 0 0.5 0.733333 0 0 0.766667 0 0.5 0.766667 0
          0 0.8 0 0.5 0.8 0 0 0.833333 0 0.5 0.833333 0
          0 0.866667 0 0.5 0.866667 0 0 0.9 0 0.5 0.9 0
          0 0.933333 0 0.5 0.933333 0 0 0.966667 0 0.5 0.966667 0
          0 1 0 0.5 1 0
        </DataArray>
      </Points>
      <Cells>
        <DataArray type="Int32" Name="connectivity" NumberOfComponents="1" format="ascii">
          0 1 3 2 2 3 5 4 4 5 7 6
          6 7 9 8 8 9 11 10 10 11 13 12
          12 13 15 14 14 15 17 16 16 17 19 18
          18 19 21 20 20 21 23 22 22 23 25 24
          24 25 27 26 26 27 29 28 28 29 31 30
          30 31 33 32 32 33 35 34 34 35 37 36
          36 37 39 38 38 39 41 40 40 41 43 42
          42 43 45 44 44 45 47 46 46 47 49 48
          48 49 51 50 50 51 53 52 52 53 55 54
          54 55 57 56 56 57 59 58 58 59 61 60
        </DataArray>
        <DataArray type="Int32" Name="offsets" NumberOfComponents="1" format="ascii">
          4 8 12 16 20 24 28 32 36 40 44 48
          52 56 60 64 68 72 76 80 84 88 92 96
          100 104 108 112 116 120
        </DataArray>
        <DataArray type="UInt8" Name="types" NumberOfComponents="1" format="ascii">
          9 9 9 9 9 9 9 9 9 9 9 9
          9 9 9 9 9 9 9 9 9 9 9 9
          9 9 9 9 9 9
        </DataArray>
      </Cells>
    </Piece>
  </UnstructuredGrid>
</VTKFile>
