<?xml version="1.0"?>
<VTKFile type="UnstructuredGrid" version="0.1" byte_order="LittleEndian">
  <UnstructuredGrid>
    <Piece NumberOfCells="30" NumberOfPoints="62">
      <CellData Scalars="Sg">
        <DataArray type="Float32" Name="Sg" NumberOfComponents="1" format="ascii">
          0 0 0 0 0 0 0 0 0 0 0 0
          0 0 0 0 0 0 0 0 0 0 0 0
          0 0 0 0 0 0
        </DataArray>
        <DataArray type="Float32" Name="Sl" NumberOfComponents="1" format="ascii">
          1 1 1 1 1 1 1 1 1 1 1 1
          1 1 1 1 1 1 1 1 1 1 1 1
          1 1 1 1 1 1
        </DataArray>
        <DataArray type="Float32" Name="pg" NumberOfComponents="1" format="ascii">
          24687.8 24360.9 24034 23707 23380.1 23053.1 22726.2 22399.3 22072.3 21745.4 21418.4 21091.5
          20764.6 20437.6 20110.7 19783.7 19456.8 19129.8 18802.9 18476 18149 17822.1 17495.1 17168.2
          16841.3 16514.3 16187.4 15860.4 15533.5 15209.5
        </DataArray>
        <DataArray type="Float32" Name="pl" NumberOfComponents="1" format="ascii">
          110628 110301 109974 109647 109320 108993 108666 108339 108012 107685 107358 107031
          106704 106377 106050 105723 105396 105070 104743 104416 104089 103762 103435 103108
          102781 102454 102127 101800 101473 101149
        </DataArray>
        <DataArray type="Float32" Name="pc" NumberOfComponents="1" format="ascii">
          -85939.7 -85939.7 -85939.7 -85939.7 -85939.7 -85939.7 -85939.7 -85939.7 -85939.7 -85939.7 -85939.7 -85939.7
          -85939.7 -85939.7 -85939.7 -85939.7 -85939.7 -85939.7 -85939.7 -85939.7 -85939.7 -85939.7 -85939.7 -85939.7
          -85939.7 -85939.7 -85939.7 -85939.7 -85939.7 -85939.7
        </DataArray>
        <DataArray type="Float32" Name="rhoL" NumberOfComponents="1" format="ascii">
          999.855 999.855 999.855 999.855 999.855 999.854 999.854 999.854 999.854 999.854 999.854 999.854
          999.853 999.853 999.853 999.853 999.853 999.853 999.852 999.852 999.852 999.852 999.852 999.852
          999.852 999.851 999.851 999.851 999.851 999.851
        </DataArray>
        <DataArray type="Float32" Name="rhoG" NumberOfComponents="1" format="ascii">
          0.30585 0.3018 0.29775 0.293699 0.289649 0.285598 0.281548 0.277498 0.273447 0.269397 0.265347 0.261296
          0.257246 0.253195 0.249145 0.245095 0.241044 0.236994 0.232944 0.228893 0.224843 0.220793 0.216742 0.212692
          0.208641 0.204591 0.200541 0.19649 0.19244 0.188426
        </DataArray>
        <DataArray type="Float32" Name="mobL" NumberOfComponents="1" format="ascii">
          722.171 722.17 722.17 722.17 722.17 722.17 722.169 722.169 722.169 722.169 722.169 722.169
          722.168 722.168 722.168 722.168 722.168 722.167 722.167 722.167 722.167 722.167 722.166 722.166
          722.166 722.166 722.166 722.166 722.165 722.165
        </DataArray>
        <DataArray type="Float32" Name="mobG" NumberOfComponents="1" format="ascii">
          0 0 0 0 0 0 0 0 0 0 0 0
          0 0 0 0 0 0 0 0 0 0 0 0
          0 0 0 0 0 0
        </DataArray>
        <DataArray type="Float32" Name="porosity" NumberOfComponents="1" format="ascii">
          0.298811 0.298811 0.298811 0.298811 0.298811 0.29881 0.298809 0.298809 0.298807 0.298806 0.298803 0.2988
          0.298795 0.298789 0.298781 0.298769 0.298754 0.298733 0.298705 0.298667 0.298614 0.29854 0.298433 0.298274
          0.297754 0.297322 0.296458 0.294192 0.283221 0.0453493
        </DataArray>
        <DataArray type="Float32" Name="temperature" NumberOfComponents="1" format="ascii">
          281.15 281.15 281.15 281.15 281.15 281.15 281.15 281.15 281.15 281.15 281.15 281.15
          281.15 281.15 281.15 281.15 281.15 281.15 281.15 281.15 281.15 281.15 281.15 281.15
          281.15 281.15 281.15 281.15 281.15 281.15
        </DataArray>
        <DataArray type="Float32" Name="phase presence" NumberOfComponents="1" format="ascii">
          1 1 1 1 1 1 1 1 1 1 1 1
          1 1 1 1 1 1 1 1 1 1 1 1
          1 1 1 1 1 1
        </DataArray>
        <DataArray type="Float32" Name="precipitateVolumeFraction_au" NumberOfComponents="1" format="ascii">
          5.52665e-10 5.52783e-10 5.52714e-10 5.52782e-10 5.52712e-10 5.52718e-10 5.52727e-10 5.52749e-10 5.52786e-10 5.52744e-10 5.52728e-10 5.52762e-10
          5.5275e-10 5.52769e-10 5.52763e-10 5.52741e-10 5.52728e-10 5.52762e-10 5.52713e-10 5.52756e-10 5.52792e-10 5.528e-10 5.53246e-10 1.17921e-09
          0.000269941 0.000269925 0.0002699 0.000269852 5.52433e-10 5.49376e-10
        </DataArray>
        <DataArray type="Float32" Name="precipitateVolumeFraction_nanoAu" NumberOfComponents="1" format="ascii">
          1.23637e-13 1.23664e-13 1.23648e-13 1.23663e-13 1.23648e-13 1.23649e-13 1.23651e-13 1.23656e-13 1.23664e-13 1.23654e-13 1.2365e-13 1.23658e-13
          1.23655e-13 1.23658e-13 1.23656e-13 1.2365e-13 1.23645e-13 1.23651e-13 1.23637e-13 1.23642e-13 1.23658e-13 1.24039e-13 1.45824e-13 2.60345e-11
          6.03641e-08 7.6686e-08 1.02148e-07 1.45569e-07 4.74353e-13 4.65624e-13
        </DataArray>
        <DataArray type="Float32" Name="precipitateVolumeFraction_d" NumberOfComponents="1" format="ascii">
          0.000594302 0.000594362 0.000594446 0.000594564 0.00059473 0.000594962 0.000595287 0.000595741 0.000596371 0.000597243 0.000598445 0.000600097
          0.000602357 0.000605437 0.000609621 0.000615289 0.000622957 0.000633333 0.000647408 0.000666613 0.00069308 0.000730156 0.0007834 0.000862785
          0.000988059 0.00120423 0.00163579 0.0027692 0.00838945 0.127325
        </DataArray>
        <DataArray type="Float32" Name="precipitateVolumeFraction_p" NumberOfComponents="1" format="ascii">
          0.000594302 0.000594362 0.000594446 0.000594564 0.00059473 0.000594962 0.000595287 0.000595741 0.000596371 0.000597243 0.000598445 0.000600097
          0.000602357 0.000605437 0.000609621 0.000615289 0.000622957 0.000633333 0.000647408 0.000666613 0.00069308 0.000730156 0.0007834 0.000862785
          0.000988059 0.00120423 0.00163579 0.0027692 0.00838945 0.127325
        </DataArray>
        <DataArray type="Float32" Name="K" NumberOfComponents="1" format="ascii">
          9.84814e-11 9.84812e-11 9.8481e-11 9.84807e-11 9.84803e-11 9.84797e-11 9.84789e-11 9.84777e-11 9.84761e-11 9.84739e-11 9.84708e-11 9.84667e-11
          9.84609e-11 9.84531e-11 9.84425e-11 9.84281e-11 9.84086e-11 9.83823e-11 9.83466e-11 9.82979e-11 9.82308e-11 9.81369e-11 9.80022e-11 9.78016e-11
          9.71462e-11 9.66047e-11 9.5531e-11 9.27576e-11 8.02488e-11 1.85718e-13
        </DataArray>
        <DataArray type="Float32" Name="X^w_H2O" NumberOfComponents="1" format="ascii">
          0.999853 0.999853 0.999853 0.999853 0.999853 0.999853 0.999853 0.999853 0.999853 0.999853 0.999853 0.999853
          0.999853 0.999853 0.999853 0.999853 0.999853 0.999853 0.999853 0.999853 0.999853 0.999853 0.999853 0.999853
          0.999853 0.999852 0.99985 0.999846 0.999839 0.99984
        </DataArray>
        <DataArray type="Float32" Name="X^w_Air" NumberOfComponents="1" format="ascii">
          0 0 0 0 0 0 0 0 0 0 0 0
          0 0 0 0 0 0 0 0 0 0 0 0
          0 0 0 0 0 0
        </DataArray>
        <DataArray type="Float32" Name="X^w_AuComplex" NumberOfComponents="1" format="ascii">
          1.4107e-16 1.411e-16 1.41082e-16 1.41099e-16 1.41081e-16 1.41083e-16 1.41085e-16 1.4109e-16 1.41099e-16 1.41088e-16 1.41084e-16 1.41092e-16
          1.41088e-16 1.41091e-16 1.41088e-16 1.4108e-16 1.41073e-16 1.41077e-16 1.41058e-16 1.4106e-16 1.4107e-16 1.41428e-16 1.64331e-16 2.96372e-14
          6.88378e-11 1.07375e-10 1.8441e-10 3.64017e-10 1.8363e-15 1.78203e-15
        </DataArray>
        <DataArray type="Float32" Name="X^w_nanoAu" NumberOfComponents="1" format="ascii">
          1.79336e-18 1.79372e-18 1.79351e-18 1.79372e-18 1.7935e-18 1.79352e-18 1.79354e-18 1.79362e-18 1.79372e-18 1.79359e-18 1.79353e-18 1.79363e-18
          1.79359e-18 1.79364e-18 1.7936e-18 1.7935e-18 1.79344e-18 1.79356e-18 1.79496e-18 1.84083e-18 3.14703e-18 4.03885e-17 1.1022e-15 3.13714e-14
          8.8418e-13 1.12561e-12 1.50037e-12 2.03549e-12 6.84838e-18 6.42585e-18
        </DataArray>
        <DataArray type="Float32" Name="X^w_cyanide" NumberOfComponents="1" format="ascii">
          5.07058e-06 5.07058e-06 5.07058e-06 5.07058e-06 5.07058e-06 5.07058e-06 5.07058e-06 5.07057e-06 5.07057e-06 5.07056e-06 5.07055e-06 5.07054e-06
          5.07052e-06 5.07049e-06 5.07046e-06 5.07041e-06 5.07034e-06 5.07025e-06 5.07013e-06 5.06995e-06 5.06971e-06 5.06936e-06 5.06884e-06 5.06807e-06
          5.06733e-06 6.437e-06 8.57271e-06 1.22384e-05 1.94637e-05 1.92383e-05
        </DataArray>
        <DataArray type="Float32" Name="X^w_citrate" NumberOfComponents="1" format="ascii">
          0.000141796 0.000141796 0.000141796 0.000141796 0.000141796 0.000141796 0.000141796 0.000141796 0.000141796 0.000141796 0.000141796 0.000141796
          0.000141795 0.000141795 0.000141795 0.000141795 0.000141794 0.000141793 0.000141793 0.000141791 0.000141789 0.000141787 0.000141783 0.000141777
          0.000141769 0.000141754 0.000141727 0.000141662 0.000141452 0.000139813
        </DataArray>
        <DataArray type="Float32" Name="X^w_substrate" NumberOfComponents="1" format="ascii">
          1.29e-11 1.72318e-11 2.3017e-11 3.07429e-11 4.10608e-11 5.48408e-11 7.32464e-11 9.78344e-11 1.3069e-10 1.74612e-10 2.3336e-10 3.12006e-10
          4.1741e-10 5.58904e-10 7.49262e-10 1.00613e-09 1.35413e-09 1.82816e-09 2.47855e-09 3.37957e-09 4.64407e-09 6.44997e-09 9.09122e-09 1.30839e-08
          1.94098e-08 3.01525e-08 5.04842e-08 9.67066e-08 2.46519e-07 1.40185e-06
        </DataArray>
        <DataArray type="Float32" Name="m^w_H2O" NumberOfComponents="1" format="ascii">
          55492.6 55492.6 55492.5 55492.5 55492.5 55492.5 55492.5 55492.5 55492.5 55492.5 55492.5 55492.5
          55492.5 55492.4 55492.4 55492.4 55492.4 55492.4 55492.4 55492.4 55492.4 55492.4 55492.4 55492.4
          55492.3 55492.3 55492.1 55491.9 55491.5 55491.6
        </DataArray>
        <DataArray type="Float32" Name="m^w_Air" NumberOfComponents="1" format="ascii">
          0 0 0 0 0 0 0 0 0 0 0 0
          0 0 0 0 0 0 0 0 0 0 0 0
          0 0 0 0 0 0
        </DataArray>
        <DataArray type="Float32" Name="m^w_AuComplex" NumberOfComponents="1" format="ascii">
          7.16095e-13 7.16247e-13 7.16157e-13 7.16245e-13 7.16153e-13 7.16162e-13 7.16172e-13 7.16199e-13 7.16245e-13 7.16189e-13 7.16165e-13 7.16206e-13
          7.16185e-13 7.16203e-13 7.16185e-13 7.16144e-13 7.16109e-13 7.1613e-13 7.16034e-13 7.16046e-13 7.16094e-13 7.17912e-13 8.34169e-13 1.50443e-10
          3.49432e-07 5.45053e-07 9.36094e-07 1.84781e-06 9.32136e-12 9.04587e-12
        </DataArray>
        <DataArray type="Float32" Name="m^w_nanoAu" NumberOfComponents="1" format="ascii">
          9.10342e-15 9.10525e-15 9.10418e-15 9.10522e-15 9.1041e-15 9.10421e-15 9.10434e-15 9.1047e-15 9.10525e-15 9.10456e-15 9.10429e-15 9.1048e-15
          9.10457e-15 9.1048e-15 9.1046e-15 9.10413e-15 9.1038e-15 9.10439e-15 9.1115e-15 9.34436e-15 1.59748e-14 2.05018e-13 5.59493e-12 1.59247e-10
          4.48824e-09 5.7138e-09 7.61613e-09 1.03325e-08 3.47635e-14 3.26187e-14
        </DataArray>
        <DataArray type="Float32" Name="m^w_cyanide" NumberOfComponents="1" format="ascii">
          0.194844 0.194844 0.194844 0.194844 0.194844 0.194844 0.194844 0.194844 0.194844 0.194843 0.194843 0.194842
          0.194842 0.19484 0.194839 0.194837 0.194835 0.194831 0.194826 0.194819 0.19481 0.194797 0.194777 0.194747
          0.194719 0.24735 0.329417 0.470275 0.747916 0.739254
        </DataArray>
        <DataArray type="Float32" Name="m^w_citrate" NumberOfComponents="1" format="ascii">
          0.749742 0.749742 0.749742 0.749742 0.749742 0.749741 0.749741 0.749741 0.74974 0.74974 0.749739 0.749739
          0.749738 0.749737 0.749735 0.749733 0.74973 0.749727 0.749722 0.749715 0.749705 0.749691 0.749672 0.749642
          0.749594 0.749518 0.749372 0.749033 0.747919 0.739255
        </DataArray>
        <DataArray type="Float32" Name="m^w_substrate" NumberOfComponents="1" format="ascii">
          7.15924e-08 9.56334e-08 1.2774e-07 1.70618e-07 2.2788e-07 3.04356e-07 4.06504e-07 5.42963e-07 7.25307e-07 9.69064e-07 1.29511e-06 1.73157e-06
          2.31654e-06 3.10181e-06 4.15826e-06 5.58381e-06 7.51516e-06 1.0146e-05 1.37555e-05 1.87559e-05 2.57737e-05 3.57961e-05 5.04544e-05 7.2613e-05
          0.00010772 0.00016734 0.000280177 0.000536701 0.00136813 0.00777997
        </DataArray>
        <DataArray type="Float32" Name="process rank" NumberOfComponents="1" format="ascii">
          0 0 0 0 0 0 0 0 0 0 0 0
          0 0 0 0 0 0 0 0 0 0 0 0
          0 0 0 0 0 0
        </DataArray>
      </CellData>
      <Points>
        <DataArray type="Float32" Name="Coordinates" NumberOfComponents="3" format="ascii">
          0 0 0 0.5 0 0 0 0.0333333 0 0.5 0.0333333 0
          0 0.0666667 0 0.5 0.0666667 0 0 0.1 0 0.5 0.1 0
          0 0.133333 0 0.5 0.133333 0 0 0.166667 0 0.5 0.166667 0
          0 0.2 0 0.5 0.2 0 0 0.233333 0 0.5 0.233333 0
          0 0.266667 0 0.5 0.266667 0 0 0.3 0 0.5 0.3 0
          0 0.333333 0 0.5 0.333333 0 0 0.366667 0 0.5 0.366667 0
          0 0.4 0 0.5 0.4 0 0 0.433333 0 0.5 0.433333 0
          0 0.466667 0 0.5 0.466667 0 0 0.5 0 0.5 0.5 0
          0 0.533333 0 0.5 0.533333 0 0 0.566667 0 0.5 0.566667 0
          0 0.6 0 0.5 0.6 0 0 0.633333 0 0.5 0.633333 0
          0 0.666667 0 0.5 0.666667 0 0 0.7 0 0.5 0.7 0
          0 0.733333 0 0.5 0.733333 0 0 0.766667 0 0.5 0.766667 0
          0 0.8 0 0.5 0.8 0 0 0.833333 0 0.5 0.833333 0
          0 0.866667 0 0.5 0.866667 0 0 0.9 0 0.5 0.9 0
          0 0.933333 0 0.5 0.933333 0 0 0.966667 0 0.5 0.966667 0
          0 1 0 0.5 1 0
        </DataArray>
      </Points>
      <Cells>
        <DataArray type="Int32" Name="connectivity" NumberOfComponents="1" format="ascii">
          0 1 3 2 2 3 5 4 4 5 7 6
          6 7 9 8 8 9 11 10 10 11 13 12
          12 13 15 14 14 15 17 16 16 17 19 18
          18 19 21 20 20 21 23 22 22 23 25 24
          24 25 27 26 26 27 29 28 28 29 31 30
          30 31 33 32 32 33 35 34 34 35 37 36
          36 37 39 38 38 39 41 40 40 41 43 42
          42 43 45 44 44 45 47 46 46 47 49 48
          48 49 51 50 50 51 53 52 52 53 55 54
          54 55 57 56 56 57 59 58 58 59 61 60
        </DataArray>
        <DataArray type="Int32" Name="offsets" NumberOfComponents="1" format="ascii">
          4 8 12 16 20 24 28 32 36 40 44 48
          52 56 60 64 68 72 76 80 84 88 92 96
          100 104 108 112 116 120
        </DataArray>
        <DataArray type="UInt8" Name="types" NumberOfComponents="1" format="ascii">
          9 9 9 9 9 9 9 9 9 9 9 9
          9 9 9 9 9 9 9 9 9 9 9 9
          9 9 9 9 9 9
        </DataArray>
      </Cells>
    </Piece>
  </UnstructuredGrid>
</VTKFile>
