<?xml version="1.0"?>
<VTKFile type="UnstructuredGrid" version="0.1" byte_order="LittleEndian">
  <UnstructuredGrid>
    <Piece NumberOfCells="30" NumberOfPoints="62">
      <CellData Scalars="Sg">
        <DataArray type="Float32" Name="Sg" NumberOfComponents="1" format="ascii">
          0 0 0 0 0 0 0 0 0 0 0 0
          0 0 0 0 0 0 0 0 0 0 0 0
          0 0 0 0 0 0
        </DataArray>
        <DataArray type="Float32" Name="Sl" NumberOfComponents="1" format="ascii">
          1 1 1 1 1 1 1 1 1 1 1 1
          1 1 1 1 1 1 1 1 1 1 1 1
          1 1 1 1 1 1
        </DataArray>
        <DataArray type="Float32" Name="pg" NumberOfComponents="1" format="ascii">
          24687.8 24360.9 24034 23707 23380.1 23053.1 22726.2 22399.3 22072.3 21745.4 21418.4 21091.5
          20764.6 20437.6 20110.7 19783.7 19456.8 19129.8 18802.9 18476 18149 17822.1 17495.1 17168.2
          16841.3 16514.3 16187.4 15860.4 15533.5 15209.6
        </DataArray>
        <DataArray type="Float32" Name="pl" NumberOfComponents="1" format="ascii">
          110628 110301 109974 109647 109320 108993 108666 108339 108012 107685 107358 107031
          106704 106377 106050 105723 105396 105070 104743 104416 104089 103762 103435 103108
          102781 102454 102127 101800 101473 101149
        </DataArray>
        <DataArray type="Float32" Name="pc" NumberOfComponents="1" format="ascii">
          -85939.7 -85939.7 -85939.7 -85939.7 -85939.7 -85939.7 -85939.7 -85939.7 -85939.7 -85939.7 -85939.7 -85939.7
          -85939.7 -85939.7 -85939.7 -85939.7 -85939.7 -85939.7 -85939.7 -85939.7 -85939.7 -85939.7 -85939.7 -85939.7
          -85939.7 -85939.7 -85939.7 -85939.7 -85939.7 -85939.7
        </DataArray>
        <DataArray type="Float32" Name="rhoL" NumberOfComponents="1" format="ascii">
          999.855 999.855 999.855 999.855 999.855 999.854 999.854 999.854 999.854 999.854 999.854 999.854
          999.853 999.853 999.853 999.853 999.853 999.853 999.852 999.852 999.852 999.852 999.852 999.852
          999.852 999.851 999.851 999.851 999.851 999.851
        </DataArray>
        <DataArray type="Float32" Name="rhoG" NumberOfComponents="1" format="ascii">
          0.30585 0.3018 0.29775 0.293699 0.289649 0.285598 0.281548 0.277498 0.273447 0.269397 0.265347 0.261296
          0.257246 0.253195 0.249145 0.245095 0.241044 0.236994 0.232944 0.228893 0.224843 0.220793 0.216742 0.212692
          0.208641 0.204591 0.200541 0.19649 0.19244 0.188428
        </DataArray>
        <DataArray type="Float32" Name="mobL" NumberOfComponents="1" format="ascii">
          722.171 722.17 722.17 722.17 722.17 722.17 722.169 722.169 722.169 722.169 722.169 722.169
          722.168 722.168 722.168 722.168 722.168 722.167 722.167 722.167 722.167 722.167 722.166 722.166
          722.166 722.166 722.166 722.166 722.165 722.165
        </DataArray>
        <DataArray type="Float32" Name="mobG" NumberOfComponents="1" format="ascii">
          0 0 0 0 0 0 0 0 0 0 0 0
          0 0 0 0 0 0 0 0 0 0 0 0
          0 0 0 0 0 0
        </DataArray>
        <DataArray type="Float32" Name="porosity" NumberOfComponents="1" format="ascii">
          0.298864 0.298864 0.298864 0.298864 0.298864 0.298863 0.298863 0.298862 0.29886 0.298859 0.298856 0.298853
          0.298849 0.298843 0.298835 0.298824 0.298809 0.298789 0.298762 0.298725 0.298674 0.298602 0.298498 0.298344
          0.297829 0.297405 0.29655 0.294267 0.282796 0.0447572
        </DataArray>
        <DataArray type="Float32" Name="temperature" NumberOfComponents="1" format="ascii">
          281.15 281.15 281.15 281.15 281.15 281.15 281.15 281.15 281.15 281.15 281.15 281.15
          281.15 281.15 281.15 281.15 281.15 281.15 281.15 281.15 281.15 281.15 281.15 281.15
          281.15 281.15 281.15 281.15 281.15 281.15
        </DataArray>
        <DataArray type="Float32" Name="phase presence" NumberOfComponents="1" format="ascii">
          1 1 1 1 1 1 1 1 1 1 1 1
          1 1 1 1 1 1 1 1 1 1 1 1
          1 1 1 1 1 1
        </DataArray>
        <DataArray type="Float32" Name="precipitateVolumeFraction_au" NumberOfComponents="1" format="ascii">
          5.52665e-10 5.52783e-10 5.52714e-10 5.52782e-10 5.52712e-10 5.52718e-10 5.52727e-10 5.52749e-10 5.52786e-10 5.52744e-10 5.52728e-10 5.52762e-10
          5.5275e-10 5.52769e-10 5.52763e-10 5.52741e-10 5.52728e-10 5.52762e-10 5.52713e-10 5.52756e-10 5.52792e-10 5.52801e-10 5.53341e-10 1.29054e-09
          0.000269941 0.000269925 0.0002699 0.000269851 5.52433e-10 5.49374e-10
        </DataArray>
        <DataArray type="Float32" Name="precipitateVolumeFraction_nanoAu" NumberOfComponents="1" format="ascii">
          1.23634e-13 1.23661e-13 1.23645e-13 1.2366e-13 1.23645e-13 1.23646e-13 1.23648e-13 1.23653e-13 1.23661e-13 1.23651e-13 1.23647e-13 1.23655e-13
          1.23652e-13 1.23655e-13 1.23653e-13 1.23647e-13 1.23642e-13 1.23647e-13 1.23633e-13 1.23639e-13 1.23654e-13 1.24035e-13 1.45848e-13 2.60567e-11
          6.0362e-08 7.66835e-08 1.02146e-07 1.45569e-07 4.74382e-13 4.65642e-13
        </DataArray>
        <DataArray type="Float32" Name="precipitateVolumeFraction_d" NumberOfComponents="1" format="ascii">
          0.000567753 0.000567811 0.000567893 0.000568008 0.000568168 0.000568394 0.000568709 0.000569147 0.000569756 0.000570599 0.000571761 0.000573356
          0.000575538 0.000578511 0.000582549 0.000588019 0.000595422 0.000605442 0.00061904 0.000637606 0.000663218 0.00069914 0.000750817 0.000828054
          0.000950366 0.00116256 0.00158999 0.00273158 0.00860222 0.127621
        </DataArray>
        <DataArray type="Float32" Name="precipitateVolumeFraction_p" NumberOfComponents="1" format="ascii">
          0.000567753 0.000567811 0.000567893 0.000568008 0.000568168 0.000568394 0.000568709 0.000569147 0.000569756 0.000570599 0.000571761 0.000573356
          0.000575538 0.000578511 0.000582549 0.000588019 0.000595422 0.000605442 0.00061904 0.000637606 0.000663218 0.00069914 0.000750817 0.000828054
          0.000950366 0.00116256 0.00158999 0.00273158 0.00860222 0.127621
        </DataArray>
        <DataArray type="Float32" Name="K" NumberOfComponents="1" format="ascii">
          9.85488e-11 9.85487e-11 9.85484e-11 9.85482e-11 9.85477e-11 9.85472e-11 9.85464e-11 9.85453e-11 9.85437e-11 9.85416e-11 9.85386e-11 9.85346e-11
          9.8529e-11 9.85215e-11 9.85112e-11 9.84973e-11 9.84785e-11 9.84531e-11 9.84186e-11 9.83715e-11 9.83065e-11 9.82155e-11 9.80846e-11 9.78893e-11
          9.72409e-11 9.67089e-11 9.56444e-11 9.28486e-11 7.97929e-11 1.78317e-13
        </DataArray>
        <DataArray type="Float32" Name="X^w_H2O" NumberOfComponents="1" format="ascii">
          0.999853 0.999853 0.999853 0.999853 0.999853 0.999853 0.999853 0.999853 0.999853 0.999853 0.999853 0.999853
          0.999853 0.999853 0.999853 0.999853 0.999853 0.999853 0.999853 0.999853 0.999853 0.999853 0.999853 0.999853
          0.999853 0.999852 0.99985 0.999846 0.999839 0.99984
        </DataArray>
        <DataArray type="Float32" Name="X^w_Air" NumberOfComponents="1" format="ascii">
          0 0 0 0 0 0 0 0 0 0 0 0
          0 0 0 0 0 0 0 0 0 0 0 0
          0 0 0 0 0 0
        </DataArray>
        <DataArray type="Float32" Name="X^w_AuComplex" NumberOfComponents="1" format="ascii">
          1.41064e-16 1.41094e-16 1.41077e-16 1.41094e-16 1.41076e-16 1.41078e-16 1.4108e-16 1.41085e-16 1.41094e-16 1.41083e-16 1.41079e-16 1.41087e-16
          1.41083e-16 1.41086e-16 1.41082e-16 1.41074e-16 1.41067e-16 1.41071e-16 1.41051e-16 1.41054e-16 1.41063e-16 1.41421e-16 1.64355e-16 2.96618e-14
          6.88337e-11 1.07369e-10 1.84403e-10 3.6402e-10 1.83651e-15 1.78215e-15
        </DataArray>
        <DataArray type="Float32" Name="X^w_nanoAu" NumberOfComponents="1" format="ascii">
          1.79332e-18 1.79368e-18 1.79347e-18 1.79367e-18 1.79345e-18 1.79347e-18 1.7935e-18 1.79357e-18 1.79368e-18 1.79354e-18 1.79349e-18 1.79359e-18
          1.79355e-18 1.79359e-18 1.79355e-18 1.79346e-18 1.79339e-18 1.7935e-18 1.7949e-18 1.84076e-18 3.1468e-18 4.03847e-17 1.10211e-15 3.13698e-14
          8.84144e-13 1.12557e-12 1.50034e-12 2.03553e-12 6.84917e-18 6.42632e-18
        </DataArray>
        <DataArray type="Float32" Name="X^w_cyanide" NumberOfComponents="1" format="ascii">
          5.0705e-06 5.0705e-06 5.0705e-06 5.0705e-06 5.0705e-06 5.0705e-06 5.0705e-06 5.0705e-06 5.07049e-06 5.07048e-06 5.07047e-06 5.07046e-06
          5.07044e-06 5.07041e-06 5.07037e-06 5.07032e-06 5.07025e-06 5.07015e-06 5.07002e-06 5.06983e-06 5.06958e-06 5.06922e-06 5.06869e-06 5.06791e-06
          5.06718e-06 6.43682e-06 8.57256e-06 1.22384e-05 1.94648e-05 1.92389e-05
        </DataArray>
        <DataArray type="Float32" Name="X^w_citrate" NumberOfComponents="1" format="ascii">
          0.000141796 0.000141796 0.000141796 0.000141796 0.000141796 0.000141796 0.000141796 0.000141796 0.000141796 0.000141796 0.000141796 0.000141796
          0.000141795 0.000141795 0.000141795 0.000141794 0.000141794 0.000141793 0.000141792 0.000141791 0.000141789 0.000141786 0.000141782 0.000141777
          0.000141768 0.000141754 0.000141727 0.000141664 0.00014146 0.000139818
        </DataArray>
        <DataArray type="Float32" Name="X^w_substrate" NumberOfComponents="1" format="ascii">
          1.74705e-11 2.30766e-11 3.04801e-11 4.02568e-11 5.31677e-11 7.02185e-11 9.27386e-11 1.22488e-10 1.61797e-10 2.13759e-10 2.82487e-10 3.73466e-10
          4.94039e-10 6.54089e-10 8.67008e-10 1.1511e-09 1.53169e-09 2.04428e-09 2.73967e-09 3.69216e-09 5.01375e-09 6.87973e-09 9.57772e-09 1.36097e-08
          1.99258e-08 3.05346e-08 5.04135e-08 9.52825e-08 2.40894e-07 1.3986e-06
        </DataArray>
        <DataArray type="Float32" Name="m^w_H2O" NumberOfComponents="1" format="ascii">
          55492.6 55492.6 55492.5 55492.5 55492.5 55492.5 55492.5 55492.5 55492.5 55492.5 55492.5 55492.5
          55492.5 55492.4 55492.4 55492.4 55492.4 55492.4 55492.4 55492.4 55492.4 55492.4 55492.4 55492.4
          55492.3 55492.3 55492.1 55491.9 55491.5 55491.6
        </DataArray>
        <DataArray type="Float32" Name="m^w_Air" NumberOfComponents="1" format="ascii">
          0 0 0 0 0 0 0 0 0 0 0 0
          0 0 0 0 0 0 0 0 0 0 0 0
          0 0 0 0 0 0
        </DataArray>
        <DataArray type="Float32" Name="m^w_AuComplex" NumberOfComponents="1" format="ascii">
          7.16068e-13 7.16221e-13 7.16131e-13 7.16219e-13 7.16128e-13 7.16136e-13 7.16146e-13 7.16174e-13 7.1622e-13 7.16164e-13 7.1614e-13 7.16181e-13
          7.16159e-13 7.16177e-13 7.16158e-13 7.16115e-13 7.1608e-13 7.16099e-13 7.16001e-13 7.16011e-13 7.16057e-13 7.17874e-13 8.3429e-13 1.50568e-10
          3.49411e-07 5.45023e-07 9.3606e-07 1.84782e-06 9.32242e-12 9.0465e-12
        </DataArray>
        <DataArray type="Float32" Name="m^w_nanoAu" NumberOfComponents="1" format="ascii">
          9.1032e-15 9.10503e-15 9.10396e-15 9.105e-15 9.10388e-15 9.10399e-15 9.10413e-15 9.10449e-15 9.10503e-15 9.10434e-15 9.10408e-15 9.10458e-15
          9.10435e-15 9.10458e-15 9.10437e-15 9.10389e-15 9.10354e-15 9.10412e-15 9.11122e-15 9.34402e-15 1.59737e-14 2.04999e-13 5.59451e-12 1.59238e-10
          4.48806e-09 5.7136e-09 7.61599e-09 1.03327e-08 3.47675e-14 3.2621e-14
        </DataArray>
        <DataArray type="Float32" Name="m^w_cyanide" NumberOfComponents="1" format="ascii">
          0.194841 0.194841 0.194841 0.194841 0.194841 0.194841 0.194841 0.194841 0.194841 0.19484 0.19484 0.194839
          0.194838 0.194837 0.194836 0.194834 0.194831 0.194827 0.194822 0.194815 0.194805 0.194791 0.194771 0.194741
          0.194713 0.247343 0.329411 0.470277 0.747958 0.739278
        </DataArray>
        <DataArray type="Float32" Name="m^w_citrate" NumberOfComponents="1" format="ascii">
          0.749742 0.749742 0.749742 0.749742 0.749741 0.749741 0.749741 0.749741 0.74974 0.74974 0.749739 0.749738
          0.749737 0.749736 0.749734 0.749732 0.749729 0.749725 0.74972 0.749712 0.749702 0.749688 0.749668 0.749638
          0.74959 0.749516 0.749372 0.749044 0.747961 0.73928
        </DataArray>
        <DataArray type="Float32" Name="m^w_substrate" NumberOfComponents="1" format="ascii">
          9.6958e-08 1.28071e-07 1.69159e-07 2.23418e-07 2.95071e-07 3.89699e-07 5.14682e-07 6.79784e-07 8.97942e-07 1.18632e-06 1.56775e-06 2.07266e-06
          2.74182e-06 3.63007e-06 4.81173e-06 6.3884e-06 8.50057e-06 1.13454e-05 1.52046e-05 2.04907e-05 2.78253e-05 3.81811e-05 5.31544e-05 7.55311e-05
          0.000110584 0.000169461 0.000279785 0.000528798 0.00133691 0.00776193
        </DataArray>
        <DataArray type="Float32" Name="process rank" NumberOfComponents="1" format="ascii">
          0 0 0 0 0 0 0 0 0 0 0 0
          0 0 0 0 0 0 0 0 0 0 0 0
          0 0 0 0 0 0
        </DataArray>
      </CellData>
      <Points>
        <DataArray type="Float32" Name="Coordinates" NumberOfComponents="3" format="ascii">
          0 0 0 0.5 0 0 0 0.0333333 0 0.5 0.0333333 0
          0 0.0666667 0 0.5 0.0666667 0 0 0.1 0 0.5 0.1 0
          0 0.133333 0 0.5 0.133333 0 0 0.166667 0 0.5 0.166667 0
          0 0.2 0 0.5 0.2 0 0 0.233333 0 0.5 0.233333 0
          0 0.266667 0 0.5 0.266667 0 0 0.3 0 0.5 0.3 0
          0 0.333333 0 0.5 0.333333 0 0 0.366667 0 0.5 0.366667 0
          0 0.4 0 0.5 0.4 0 0 0.433333 0 0.5 0.433333 0
          0 0.466667 0 0.5 0.466667 0 0 0.5 0 0.5 0.5 0
          0 0.533333 0 0.5 0.533333 0 0 0.566667 0 0.5 0.566667 0
          0 0.6 0 0.5 0.6 0 0 0.633333 0 0.5 0.633333 0
          0 0.666667 0 0.5 0.666667 0 0 0.7 0 0.5 0.7 0
          0 0.733333 0 0.5 0.733333 0 0 0.766667 0 0.5 0.766667 0
          0 0.8 0 0.5 0.8 0 0 0.833333 0 0.5 0.833333 0
          0 0.866667 0 0.5 0.866667 0 0 0.9 0 0.5 0.9 0
          0 0.933333 0 0.5 0.933333 0 0 0.966667 0 0.5 0.966667 0
          0 1 0 0.5 1 0
        </DataArray>
      </Points>
      <Cells>
        <DataArray type="Int32" Name="connectivity" NumberOfComponents="1" format="ascii">
          0 1 3 2 2 3 5 4 4 5 7 6
          6 7 9 8 8 9 11 10 10 11 13 12
          12 13 15 14 14 15 17 16 16 17 19 18
          18 19 21 20 20 21 23 22 22 23 25 24
          24 25 27 26 26 27 29 28 28 29 31 30
          30 31 33 32 32 33 35 34 34 35 37 36
          36 37 39 38 38 39 41 40 40 41 43 42
          42 43 45 44 44 45 47 46 46 47 49 48
          48 49 51 50 50 51 53 52 52 53 55 54
          54 55 57 56 56 57 59 58 58 59 61 60
        </DataArray>
        <DataArray type="Int32" Name="offsets" NumberOfComponents="1" format="ascii">
          4 8 12 16 20 24 28 32 36 40 44 48
          52 56 60 64 68 72 76 80 84 88 92 96
          100 104 108 112 116 120
        </DataArray>
        <DataArray type="UInt8" Name="types" NumberOfComponents="1" format="ascii">
          9 9 9 9 9 9 9 9 9 9 9 9
          9 9 9 9 9 9 9 9 9 9 9 9
          9 9 9 9 9 9
        </DataArray>
      </Cells>
    </Piece>
  </UnstructuredGrid>
</VTKFile>
