<?xml version="1.0"?>
<VTKFile type="UnstructuredGrid" version="0.1" byte_order="LittleEndian">
  <UnstructuredGrid>
    <Piece NumberOfCells="30" NumberOfPoints="62">
      <CellData Scalars="Sg">
        <DataArray type="Float32" Name="Sg" NumberOfComponents="1" format="ascii">
          0 0 0 0 0 0 0 0 0 0 0 0
          0 0 0 0 0 0 0 0 0 0 0 0
          0 0 0 0 0 0
        </DataArray>
        <DataArray type="Float32" Name="Sl" NumberOfComponents="1" format="ascii">
          1 1 1 1 1 1 1 1 1 1 1 1
          1 1 1 1 1 1 1 1 1 1 1 1
          1 1 1 1 1 1
        </DataArray>
        <DataArray type="Float32" Name="pg" NumberOfComponents="1" format="ascii">
          24687.8 24360.9 24034 23707 23380.1 23053.1 22726.2 22399.3 22072.3 21745.4 21418.4 21091.5
          20764.6 20437.6 20110.7 19783.7 19456.8 19129.8 18802.9 18476 18149 17822.1 17495.1 17168.2
          16841.3 16514.3 16187.4 15860.4 15533.5 15208.2
        </DataArray>
        <DataArray type="Float32" Name="pl" NumberOfComponents="1" format="ascii">
          110628 110301 109974 109647 109320 108993 108666 108339 108012 107685 107358 107031
          106704 106377 106050 105723 105396 105070 104743 104416 104089 103762 103435 103108
          102781 102454 102127 101800 101473 101148
        </DataArray>
        <DataArray type="Float32" Name="pc" NumberOfComponents="1" format="ascii">
          -85939.7 -85939.7 -85939.7 -85939.7 -85939.7 -85939.7 -85939.7 -85939.7 -85939.7 -85939.7 -85939.7 -85939.7
          -85939.7 -85939.7 -85939.7 -85939.7 -85939.7 -85939.7 -85939.7 -85939.7 -85939.7 -85939.7 -85939.7 -85939.7
          -85939.7 -85939.7 -85939.7 -85939.7 -85939.7 -85939.7
        </DataArray>
        <DataArray type="Float32" Name="rhoL" NumberOfComponents="1" format="ascii">
          999.855 999.855 999.855 999.855 999.855 999.854 999.854 999.854 999.854 999.854 999.854 999.854
          999.853 999.853 999.853 999.853 999.853 999.853 999.852 999.852 999.852 999.852 999.852 999.852
          999.852 999.851 999.851 999.851 999.851 999.851
        </DataArray>
        <DataArray type="Float32" Name="rhoG" NumberOfComponents="1" format="ascii">
          0.30585 0.3018 0.29775 0.293699 0.289649 0.285598 0.281548 0.277498 0.273447 0.269397 0.265347 0.261296
          0.257246 0.253195 0.249145 0.245095 0.241044 0.236994 0.232944 0.228893 0.224843 0.220793 0.216742 0.212692
          0.208641 0.204591 0.200541 0.19649 0.19244 0.18841
        </DataArray>
        <DataArray type="Float32" Name="mobL" NumberOfComponents="1" format="ascii">
          722.171 722.17 722.17 722.17 722.17 722.17 722.169 722.169 722.169 722.169 722.169 722.169
          722.168 722.168 722.168 722.168 722.168 722.167 722.167 722.167 722.167 722.167 722.166 722.166
          722.166 722.166 722.166 722.166 722.165 722.165
        </DataArray>
        <DataArray type="Float32" Name="mobG" NumberOfComponents="1" format="ascii">
          0 0 0 0 0 0 0 0 0 0 0 0
          0 0 0 0 0 0 0 0 0 0 0 0
          0 0 0 0 0 0
        </DataArray>
        <DataArray type="Float32" Name="porosity" NumberOfComponents="1" format="ascii">
          0.298745 0.298745 0.298745 0.298745 0.298744 0.298744 0.298743 0.298742 0.298741 0.298739 0.298736 0.298733
          0.298728 0.298722 0.298713 0.298701 0.298685 0.298664 0.298634 0.298594 0.298539 0.298462 0.298352 0.298188
          0.297661 0.297221 0.296353 0.29413 0.283989 0.054611
        </DataArray>
        <DataArray type="Float32" Name="temperature" NumberOfComponents="1" format="ascii">
          281.15 281.15 281.15 281.15 281.15 281.15 281.15 281.15 281.15 281.15 281.15 281.15
          281.15 281.15 281.15 281.15 281.15 281.15 281.15 281.15 281.15 281.15 281.15 281.15
          281.15 281.15 281.15 281.15 281.15 281.15
        </DataArray>
        <DataArray type="Float32" Name="phase presence" NumberOfComponents="1" format="ascii">
          1 1 1 1 1 1 1 1 1 1 1 1
          1 1 1 1 1 1 1 1 1 1 1 1
          1 1 1 1 1 1
        </DataArray>
        <DataArray type="Float32" Name="precipitateVolumeFraction_au" NumberOfComponents="1" format="ascii">
          5.5265e-10 5.52757e-10 5.52801e-10 5.52729e-10 5.52767e-10 5.5279e-10 5.52808e-10 5.52718e-10 5.52753e-10 5.52773e-10 5.52779e-10 5.52777e-10
          5.52751e-10 5.52801e-10 5.52737e-10 5.52724e-10 5.52771e-10 5.52784e-10 5.52752e-10 5.52786e-10 5.52734e-10 5.52753e-10 5.52881e-10 1.01939e-09
          0.00026994 0.000269924 0.0002699 0.000269853 5.52273e-10 5.50987e-10
        </DataArray>
        <DataArray type="Float32" Name="precipitateVolumeFraction_nanoAu" NumberOfComponents="1" format="ascii">
          1.23662e-13 1.23686e-13 1.23696e-13 1.23679e-13 1.23688e-13 1.23693e-13 1.23696e-13 1.23676e-13 1.23683e-13 1.23687e-13 1.23688e-13 1.23687e-13
          1.23681e-13 1.23691e-13 1.23676e-13 1.23672e-13 1.23681e-13 1.23681e-13 1.23671e-13 1.23674e-13 1.23657e-13 1.23669e-13 1.35571e-13 2.57911e-11
          6.03727e-08 7.66949e-08 1.02155e-07 1.45567e-07 4.74121e-13 4.66714e-13
        </DataArray>
        <DataArray type="Float32" Name="precipitateVolumeFraction_d" NumberOfComponents="1" format="ascii">
          0.000627459 0.000627521 0.000627609 0.000627732 0.000627905 0.000628147 0.000628487 0.00062896 0.000629618 0.000630529 0.000631786 0.000633512
          0.000635874 0.000639092 0.000643464 0.000649384 0.000657391 0.000668218 0.000682894 0.000702895 0.000730423 0.00076891 0.000824041 0.000905949
          0.00103455 0.00125473 0.00168858 0.00279991 0.0080057 0.122694
        </DataArray>
        <DataArray type="Float32" Name="precipitateVolumeFraction_p" NumberOfComponents="1" format="ascii">
          0.000627459 0.000627521 0.000627609 0.000627732 0.000627905 0.000628147 0.000628487 0.00062896 0.000629618 0.000630529 0.000631786 0.000633512
          0.000635874 0.000639092 0.000643464 0.000649384 0.000657391 0.000668218 0.000682894 0.000702895 0.000730423 0.00076891 0.000824041 0.000905949
          0.00103455 0.00125473 0.00168858 0.00279991 0.0080057 0.122694
        </DataArray>
        <DataArray type="Float32" Name="K" NumberOfComponents="1" format="ascii">
          9.83972e-11 9.8397e-11 9.83968e-11 9.83965e-11 9.83961e-11 9.83955e-11 9.83946e-11 9.83934e-11 9.83917e-11 9.83894e-11 9.83862e-11 9.83818e-11
          9.83759e-11 9.83677e-11 9.83566e-11 9.83416e-11 9.83213e-11 9.82938e-11 9.82566e-11 9.82059e-11 9.81362e-11 9.80388e-11 9.78994e-11 9.76926e-11
          9.70296e-11 9.64785e-11 9.54003e-11 9.26834e-11 8.10765e-11 3.30714e-13
        </DataArray>
        <DataArray type="Float32" Name="X^w_H2O" NumberOfComponents="1" format="ascii">
          0.999853 0.999853 0.999853 0.999853 0.999853 0.999853 0.999853 0.999853 0.999853 0.999853 0.999853 0.999853
          0.999853 0.999853 0.999853 0.999853 0.999853 0.999853 0.999853 0.999853 0.999853 0.999853 0.999853 0.999853
          0.999853 0.999852 0.99985 0.999846 0.999839 0.99984
        </DataArray>
        <DataArray type="Float32" Name="X^w_Air" NumberOfComponents="1" format="ascii">
          0 0 0 0 0 0 0 0 0 0 0 0
          0 0 0 0 0 0 0 0 0 0 0 0
          0 0 0 0 0 0
        </DataArray>
        <DataArray type="Float32" Name="X^w_AuComplex" NumberOfComponents="1" format="ascii">
          1.41115e-16 1.41142e-16 1.41153e-16 1.41134e-16 1.41144e-16 1.41149e-16 1.41153e-16 1.4113e-16 1.41138e-16 1.41143e-16 1.41143e-16 1.41142e-16
          1.41134e-16 1.41145e-16 1.41127e-16 1.41121e-16 1.41129e-16 1.41128e-16 1.41113e-16 1.41113e-16 1.41087e-16 1.4109e-16 1.54464e-16 2.94016e-14
          6.88541e-11 1.07396e-10 1.84432e-10 3.64004e-10 1.83507e-15 1.78532e-15
        </DataArray>
        <DataArray type="Float32" Name="X^w_nanoAu" NumberOfComponents="1" format="ascii">
          5.38592e-19 5.38696e-19 5.38737e-19 5.38666e-19 5.38702e-19 5.38724e-19 5.38739e-19 5.38651e-19 5.38683e-19 5.38701e-19 5.38705e-19 5.387e-19
          5.38672e-19 5.38715e-19 5.38648e-19 5.38629e-19 5.38665e-19 5.38665e-19 5.38618e-19 5.38666e-19 5.42271e-19 8.8381e-19 3.25157e-17 2.95772e-15
          2.63672e-13 3.35148e-13 4.46654e-13 6.26516e-13 2.05871e-18 1.98158e-18
        </DataArray>
        <DataArray type="Float32" Name="X^w_cyanide" NumberOfComponents="1" format="ascii">
          5.07139e-06 5.07139e-06 5.07138e-06 5.07137e-06 5.07137e-06 5.07136e-06 5.07135e-06 5.07135e-06 5.07134e-06 5.07132e-06 5.07131e-06 5.07129e-06
          5.07127e-06 5.07124e-06 5.0712e-06 5.07115e-06 5.07108e-06 5.07099e-06 5.07086e-06 5.07069e-06 5.07044e-06 5.07008e-06 5.06955e-06 5.06873e-06
          5.06792e-06 6.43762e-06 8.57319e-06 1.22381e-05 1.94599e-05 1.92279e-05
        </DataArray>
        <DataArray type="Float32" Name="X^w_citrate" NumberOfComponents="1" format="ascii">
          0.000141796 0.000141796 0.000141796 0.000141796 0.000141796 0.000141796 0.000141796 0.000141796 0.000141796 0.000141796 0.000141796 0.000141796
          0.000141796 0.000141795 0.000141795 0.000141795 0.000141794 0.000141794 0.000141793 0.000141792 0.00014179 0.000141787 0.000141783 0.000141777
          0.000141768 0.000141753 0.000141723 0.000141653 0.000141424 0.000139738
        </DataArray>
        <DataArray type="Float32" Name="X^w_substrate" NumberOfComponents="1" format="ascii">
          9.37205e-12 1.26936e-11 1.71912e-11 2.32813e-11 3.15275e-11 4.26939e-11 5.78158e-11 7.82978e-11 1.06047e-10 1.43658e-10 1.94663e-10 2.63891e-10
          3.57962e-10 4.85997e-10 6.60645e-10 8.99591e-10 1.22783e-09 1.6812e-09 2.31194e-09 3.19803e-09 4.45914e-09 6.2857e-09 8.99504e-09 1.31486e-08
          1.9821e-08 3.13029e-08 5.32876e-08 1.03636e-07 2.65915e-07 1.45474e-06
        </DataArray>
        <DataArray type="Float32" Name="m^w_H2O" NumberOfComponents="1" format="ascii">
          55492.6 55492.6 55492.5 55492.5 55492.5 55492.5 55492.5 55492.5 55492.5 55492.5 55492.5 55492.5
          55492.5 55492.4 55492.4 55492.4 55492.4 55492.4 55492.4 55492.4 55492.4 55492.4 55492.4 55492.4
          55492.3 55492.3 55492.1 55491.9 55491.5 55491.6
        </DataArray>
        <DataArray type="Float32" Name="m^w_Air" NumberOfComponents="1" format="ascii">
          0 0 0 0 0 0 0 0 0 0 0 0
          0 0 0 0 0 0 0 0 0 0 0 0
          0 0 0 0 0 0
        </DataArray>
        <DataArray type="Float32" Name="m^w_AuComplex" NumberOfComponents="1" format="ascii">
          7.16327e-13 7.16464e-13 7.16519e-13 7.16423e-13 7.1647e-13 7.16499e-13 7.16519e-13 7.16399e-13 7.16441e-13 7.16464e-13 7.16468e-13 7.1646e-13
          7.16421e-13 7.16477e-13 7.16384e-13 7.16353e-13 7.16396e-13 7.16389e-13 7.16314e-13 7.16311e-13 7.1618e-13 7.16195e-13 7.84085e-13 1.49247e-10
          3.49514e-07 5.4516e-07 9.36205e-07 1.84774e-06 9.31509e-12 9.06255e-12
        </DataArray>
        <DataArray type="Float32" Name="m^w_nanoAu" NumberOfComponents="1" format="ascii">
          2.73399e-15 2.73452e-15 2.73472e-15 2.73436e-15 2.73455e-15 2.73466e-15 2.73473e-15 2.73428e-15 2.73445e-15 2.73454e-15 2.73456e-15 2.73453e-15
          2.73439e-15 2.73461e-15 2.73427e-15 2.73417e-15 2.73435e-15 2.73436e-15 2.73411e-15 2.73436e-15 2.75266e-15 4.48637e-15 1.65055e-13 1.50139e-11
          1.33844e-09 1.70126e-09 2.26729e-09 3.18029e-09 1.04503e-14 1.00588e-14
        </DataArray>
        <DataArray type="Float32" Name="m^w_cyanide" NumberOfComponents="1" format="ascii">
          0.194875 0.194875 0.194875 0.194875 0.194874 0.194874 0.194874 0.194873 0.194873 0.194872 0.194872 0.194871
          0.19487 0.194869 0.194868 0.194866 0.194863 0.194859 0.194855 0.194848 0.194838 0.194824 0.194804 0.194773
          0.194741 0.247374 0.329436 0.470263 0.74777 0.738857
        </DataArray>
        <DataArray type="Float32" Name="m^w_citrate" NumberOfComponents="1" format="ascii">
          0.749742 0.749742 0.749742 0.749742 0.749742 0.749741 0.749741 0.749741 0.749741 0.74974 0.74974 0.749739
          0.749738 0.749737 0.749736 0.749734 0.749731 0.749728 0.749723 0.749716 0.749707 0.749693 0.749672 0.749641
          0.749591 0.74951 0.749351 0.748981 0.747773 0.738859
        </DataArray>
        <DataArray type="Float32" Name="m^w_substrate" NumberOfComponents="1" format="ascii">
          5.20132e-08 7.04471e-08 9.54081e-08 1.29207e-07 1.74972e-07 2.36943e-07 3.20867e-07 4.34538e-07 5.88542e-07 7.97273e-07 1.08034e-06 1.46454e-06
          1.98662e-06 2.69719e-06 3.66645e-06 4.99256e-06 6.81423e-06 9.3303e-06 1.28308e-05 1.77484e-05 2.47473e-05 3.48844e-05 4.99207e-05 7.29719e-05
          0.000110002 0.000173725 0.000295735 0.000575156 0.00147577 0.00807349
        </DataArray>
        <DataArray type="Float32" Name="process rank" NumberOfComponents="1" format="ascii">
          0 0 0 0 0 0 0 0 0 0 0 0
          0 0 0 0 0 0 0 0 0 0 0 0
          0 0 0 0 0 0
        </DataArray>
      </CellData>
      <Points>
        <DataArray type="Float32" Name="Coordinates" NumberOfComponents="3" format="ascii">
          0 0 0 0.5 0 0 0 0.0333333 0 0.5 0.0333333 0
          0 0.0666667 0 0.5 0.0666667 0 0 0.1 0 0.5 0.1 0
          0 0.133333 0 0.5 0.133333 0 0 0.166667 0 0.5 0.166667 0
          0 0.2 0 0.5 0.2 0 0 0.233333 0 0.5 0.233333 0
          0 0.266667 0 0.5 0.266667 0 0 0.3 0 0.5 0.3 0
          0 0.333333 0 0.5 0.333333 0 0 0.366667 0 0.5 0.366667 0
          0 0.4 0 0.5 0.4 0 0 0.433333 0 0.5 0.433333 0
          0 0.466667 0 0.5 0.466667 0 0 0.5 0 0.5 0.5 0
          0 0.533333 0 0.5 0.533333 0 0 0.566667 0 0.5 0.566667 0
          0 0.6 0 0.5 0.6 0 0 0.633333 0 0.5 0.633333 0
          0 0.666667 0 0.5 0.666667 0 0 0.7 0 0.5 0.7 0
          0 0.733333 0 0.5 0.733333 0 0 0.766667 0 0.5 0.766667 0
          0 0.8 0 0.5 0.8 0 0 0.833333 0 0.5 0.833333 0
          0 0.866667 0 0.5 0.866667 0 0 0.9 0 0.5 0.9 0
          0 0.933333 0 0.5 0.933333 0 0 0.966667 0 0.5 0.966667 0
          0 1 0 0.5 1 0
        </DataArray>
      </Points>
      <Cells>
        <DataArray type="Int32" Name="connectivity" NumberOfComponents="1" format="ascii">
          0 1 3 2 2 3 5 4 4 5 7 6
          6 7 9 8 8 9 11 10 10 11 13 12
          12 13 15 14 14 15 17 16 16 17 19 18
          18 19 21 20 20 21 23 22 22 23 25 24
          24 25 27 26 26 27 29 28 28 29 31 30
          30 31 33 32 32 33 35 34 34 35 37 36
          36 37 39 38 38 39 41 40 40 41 43 42
          42 43 45 44 44 45 47 46 46 47 49 48
          48 49 51 50 50 51 53 52 52 53 55 54
          54 55 57 56 56 57 59 58 58 59 61 60
        </DataArray>
        <DataArray type="Int32" Name="offsets" NumberOfComponents="1" format="ascii">
          4 8 12 16 20 24 28 32 36 40 44 48
          52 56 60 64 68 72 76 80 84 88 92 96
          100 104 108 112 116 120
        </DataArray>
        <DataArray type="UInt8" Name="types" NumberOfComponents="1" format="ascii">
          9 9 9 9 9 9 9 9 9 9 9 9
          9 9 9 9 9 9 9 9 9 9 9 9
          9 9 9 9 9 9
        </DataArray>
      </Cells>
    </Piece>
  </UnstructuredGrid>
</VTKFile>
