<?xml version="1.0"?>
<VTKFile type="UnstructuredGrid" version="0.1" byte_order="LittleEndian">
  <UnstructuredGrid>
    <Piece NumberOfCells="30" NumberOfPoints="62">
      <CellData Scalars="Sg">
        <DataArray type="Float32" Name="Sg" NumberOfComponents="1" format="ascii">
          0 0 0 0 0 0 0 0 0 0 0 0
          0 0 0 0 0 0 0 0 0 0 0 0
          0 0 0 0 0 0
        </DataArray>
        <DataArray type="Float32" Name="Sl" NumberOfComponents="1" format="ascii">
          1 1 1 1 1 1 1 1 1 1 1 1
          1 1 1 1 1 1 1 1 1 1 1 1
          1 1 1 1 1 1
        </DataArray>
        <DataArray type="Float32" Name="pg" NumberOfComponents="1" format="ascii">
          24687.8 24360.9 24034 23707 23380.1 23053.1 22726.2 22399.3 22072.3 21745.4 21418.4 21091.5
          20764.6 20437.6 20110.7 19783.7 19456.8 19129.8 18802.9 18476 18149 17822.1 17495.1 17168.2
          16841.3 16514.3 16187.4 15860.4 15533.5 15208.6
        </DataArray>
        <DataArray type="Float32" Name="pl" NumberOfComponents="1" format="ascii">
          110628 110301 109974 109647 109320 108993 108666 108339 108012 107685 107358 107031
          106704 106377 106050 105723 105396 105070 104743 104416 104089 103762 103435 103108
          102781 102454 102127 101800 101473 101148
        </DataArray>
        <DataArray type="Float32" Name="pc" NumberOfComponents="1" format="ascii">
          -85939.7 -85939.7 -85939.7 -85939.7 -85939.7 -85939.7 -85939.7 -85939.7 -85939.7 -85939.7 -85939.7 -85939.7
          -85939.7 -85939.7 -85939.7 -85939.7 -85939.7 -85939.7 -85939.7 -85939.7 -85939.7 -85939.7 -85939.7 -85939.7
          -85939.7 -85939.7 -85939.7 -85939.7 -85939.7 -85939.7
        </DataArray>
        <DataArray type="Float32" Name="rhoL" NumberOfComponents="1" format="ascii">
          999.855 999.855 999.855 999.855 999.855 999.854 999.854 999.854 999.854 999.854 999.854 999.854
          999.853 999.853 999.853 999.853 999.853 999.853 999.852 999.852 999.852 999.852 999.852 999.852
          999.852 999.851 999.851 999.851 999.851 999.851
        </DataArray>
        <DataArray type="Float32" Name="rhoG" NumberOfComponents="1" format="ascii">
          0.30585 0.3018 0.29775 0.293699 0.289649 0.285598 0.281548 0.277498 0.273447 0.269397 0.265347 0.261296
          0.257246 0.253195 0.249145 0.245095 0.241044 0.236994 0.232944 0.228893 0.224843 0.220793 0.216742 0.212692
          0.208641 0.204591 0.200541 0.19649 0.19244 0.188414
        </DataArray>
        <DataArray type="Float32" Name="mobL" NumberOfComponents="1" format="ascii">
          722.171 722.17 722.17 722.17 722.17 722.17 722.169 722.169 722.169 722.169 722.169 722.169
          722.168 722.168 722.168 722.168 722.168 722.167 722.167 722.167 722.167 722.167 722.166 722.166
          722.166 722.166 722.166 722.166 722.165 722.165
        </DataArray>
        <DataArray type="Float32" Name="mobG" NumberOfComponents="1" format="ascii">
          0 0 0 0 0 0 0 0 0 0 0 0
          0 0 0 0 0 0 0 0 0 0 0 0
          0 0 0 0 0 0
        </DataArray>
        <DataArray type="Float32" Name="porosity" NumberOfComponents="1" format="ascii">
          0.298838 0.298838 0.298838 0.298838 0.298837 0.298837 0.298836 0.298835 0.298834 0.298832 0.29883 0.298827
          0.298822 0.298816 0.298808 0.298797 0.298782 0.298761 0.298734 0.298696 0.298644 0.298571 0.298466 0.29831
          0.297793 0.297366 0.296511 0.294255 0.283232 0.0514912
        </DataArray>
        <DataArray type="Float32" Name="temperature" NumberOfComponents="1" format="ascii">
          281.15 281.15 281.15 281.15 281.15 281.15 281.15 281.15 281.15 281.15 281.15 281.15
          281.15 281.15 281.15 281.15 281.15 281.15 281.15 281.15 281.15 281.15 281.15 281.15
          281.15 281.15 281.15 281.15 281.15 281.15
        </DataArray>
        <DataArray type="Float32" Name="phase presence" NumberOfComponents="1" format="ascii">
          1 1 1 1 1 1 1 1 1 1 1 1
          1 1 1 1 1 1 1 1 1 1 1 1
          1 1 1 1 1 1
        </DataArray>
        <DataArray type="Float32" Name="precipitateVolumeFraction_au" NumberOfComponents="1" format="ascii">
          5.5265e-10 5.52757e-10 5.52801e-10 5.52729e-10 5.52767e-10 5.5279e-10 5.52808e-10 5.52718e-10 5.52753e-10 5.52773e-10 5.52779e-10 5.52777e-10
          5.52751e-10 5.52801e-10 5.52737e-10 5.52724e-10 5.52771e-10 5.52784e-10 5.52752e-10 5.52786e-10 5.52734e-10 5.52753e-10 5.52964e-10 1.19603e-09
          0.000269941 0.000269925 0.0002699 0.000269852 5.52273e-10 5.50983e-10
        </DataArray>
        <DataArray type="Float32" Name="precipitateVolumeFraction_nanoAu" NumberOfComponents="1" format="ascii">
          1.23639e-13 1.23663e-13 1.23673e-13 1.23657e-13 1.23665e-13 1.23671e-13 1.23675e-13 1.23654e-13 1.23662e-13 1.23666e-13 1.23667e-13 1.23666e-13
          1.2366e-13 1.23671e-13 1.23655e-13 1.23651e-13 1.2366e-13 1.23661e-13 1.2365e-13 1.23653e-13 1.23635e-13 1.23647e-13 1.35575e-13 2.58191e-11
          6.03645e-08 7.66858e-08 1.02147e-07 1.45565e-07 4.74189e-13 4.66825e-13
        </DataArray>
        <DataArray type="Float32" Name="precipitateVolumeFraction_d" NumberOfComponents="1" format="ascii">
          0.000580989 0.000581048 0.000581131 0.000581247 0.000581411 0.00058164 0.00058196 0.000582406 0.000583025 0.000583883 0.000585065 0.000586688
          0.000588908 0.000591934 0.000596043 0.00060161 0.000609142 0.000619333 0.000633161 0.00065203 0.000678043 0.000714496 0.000766877 0.000845038
          0.000968521 0.00118197 0.0016093 0.00273726 0.00838382 0.124254
        </DataArray>
        <DataArray type="Float32" Name="precipitateVolumeFraction_p" NumberOfComponents="1" format="ascii">
          0.000580989 0.000581048 0.000581131 0.000581247 0.000581411 0.00058164 0.00058196 0.000582406 0.000583025 0.000583883 0.000585065 0.000586688
          0.000588908 0.000591934 0.000596043 0.00060161 0.000609142 0.000619333 0.000633161 0.00065203 0.000678043 0.000714496 0.000766877 0.000845038
          0.000968521 0.00118197 0.0016093 0.00273726 0.00838382 0.124254
        </DataArray>
        <DataArray type="Float32" Name="K" NumberOfComponents="1" format="ascii">
          9.85152e-11 9.8515e-11 9.85148e-11 9.85145e-11 9.85141e-11 9.85135e-11 9.85127e-11 9.85116e-11 9.851e-11 9.85078e-11 9.85048e-11 9.85007e-11
          9.84951e-11 9.84874e-11 9.84769e-11 9.84628e-11 9.84437e-11 9.84178e-11 9.83827e-11 9.83349e-11 9.82689e-11 9.81766e-11 9.8044e-11 9.78464e-11
          9.71953e-11 9.66603e-11 9.55966e-11 9.28348e-11 8.02609e-11 2.7539e-13
        </DataArray>
        <DataArray type="Float32" Name="X^w_H2O" NumberOfComponents="1" format="ascii">
          0.999853 0.999853 0.999853 0.999853 0.999853 0.999853 0.999853 0.999853 0.999853 0.999853 0.999853 0.999853
          0.999853 0.999853 0.999853 0.999853 0.999853 0.999853 0.999853 0.999853 0.999853 0.999853 0.999853 0.999853
          0.999853 0.999852 0.99985 0.999846 0.999839 0.99984
        </DataArray>
        <DataArray type="Float32" Name="X^w_Air" NumberOfComponents="1" format="ascii">
          0 0 0 0 0 0 0 0 0 0 0 0
          0 0 0 0 0 0 0 0 0 0 0 0
          0 0 0 0 0 0
        </DataArray>
        <DataArray type="Float32" Name="X^w_AuComplex" NumberOfComponents="1" format="ascii">
          1.41078e-16 1.41105e-16 1.41116e-16 1.41098e-16 1.41108e-16 1.41113e-16 1.41118e-16 1.41095e-16 1.41103e-16 1.41108e-16 1.41109e-16 1.41108e-16
          1.411e-16 1.41111e-16 1.41093e-16 1.41087e-16 1.41095e-16 1.41094e-16 1.41078e-16 1.41077e-16 1.41051e-16 1.41054e-16 1.54456e-16 2.94313e-14
          6.88388e-11 1.07375e-10 1.84406e-10 3.63999e-10 1.83556e-15 1.78604e-15
        </DataArray>
        <DataArray type="Float32" Name="X^w_nanoAu" NumberOfComponents="1" format="ascii">
          5.38494e-19 5.38597e-19 5.38639e-19 5.38569e-19 5.38606e-19 5.38629e-19 5.38644e-19 5.38557e-19 5.3859e-19 5.38608e-19 5.38613e-19 5.38608e-19
          5.38581e-19 5.38624e-19 5.38557e-19 5.38538e-19 5.38573e-19 5.38573e-19 5.38525e-19 5.38571e-19 5.42173e-19 8.83561e-19 3.25052e-17 2.9571e-15
          2.63634e-13 3.35107e-13 4.46622e-13 6.26533e-13 2.05927e-18 1.98242e-18
        </DataArray>
        <DataArray type="Float32" Name="X^w_cyanide" NumberOfComponents="1" format="ascii">
          5.07083e-06 5.07083e-06 5.07083e-06 5.07083e-06 5.07083e-06 5.07083e-06 5.07083e-06 5.07082e-06 5.07082e-06 5.07081e-06 5.0708e-06 5.07078e-06
          5.07076e-06 5.07073e-06 5.07069e-06 5.07064e-06 5.07057e-06 5.07047e-06 5.07034e-06 5.07015e-06 5.06989e-06 5.06952e-06 5.06898e-06 5.06816e-06
          5.06737e-06 6.43701e-06 8.57263e-06 1.2238e-05 1.94625e-05 1.92315e-05
        </DataArray>
        <DataArray type="Float32" Name="X^w_citrate" NumberOfComponents="1" format="ascii">
          0.000141796 0.000141796 0.000141796 0.000141796 0.000141796 0.000141796 0.000141796 0.000141796 0.000141796 0.000141796 0.000141796 0.000141796
          0.000141795 0.000141795 0.000141795 0.000141794 0.000141794 0.000141793 0.000141792 0.000141791 0.000141789 0.000141786 0.000141782 0.000141776
          0.000141767 0.000141752 0.000141724 0.000141658 0.000141443 0.000139764
        </DataArray>
        <DataArray type="Float32" Name="X^w_substrate" NumberOfComponents="1" format="ascii">
          1.56213e-11 2.07526e-11 2.75679e-11 3.66194e-11 4.8641e-11 6.46081e-11 8.58174e-11 1.13995e-10 1.51439e-10 2.01219e-10 2.67435e-10 3.55586e-10
          4.73077e-10 6.29922e-10 8.39762e-10 1.12134e-09 1.5007e-09 2.01454e-09 2.7156e-09 3.68131e-09 5.0289e-09 6.94241e-09 9.72484e-09 1.39063e-08
          2.04924e-08 3.1611e-08 5.25335e-08 9.98546e-08 2.52759e-07 1.43648e-06
        </DataArray>
        <DataArray type="Float32" Name="m^w_H2O" NumberOfComponents="1" format="ascii">
          55492.6 55492.6 55492.5 55492.5 55492.5 55492.5 55492.5 55492.5 55492.5 55492.5 55492.5 55492.5
          55492.5 55492.4 55492.4 55492.4 55492.4 55492.4 55492.4 55492.4 55492.4 55492.4 55492.4 55492.4
          55492.3 55492.3 55492.1 55491.9 55491.5 55491.6
        </DataArray>
        <DataArray type="Float32" Name="m^w_Air" NumberOfComponents="1" format="ascii">
          0 0 0 0 0 0 0 0 0 0 0 0
          0 0 0 0 0 0 0 0 0 0 0 0
          0 0 0 0 0 0
        </DataArray>
        <DataArray type="Float32" Name="m^w_AuComplex" NumberOfComponents="1" format="ascii">
          7.16136e-13 7.16275e-13 7.16332e-13 7.16238e-13 7.16287e-13 7.16317e-13 7.16339e-13 7.16221e-13 7.16264e-13 7.16289e-13 7.16294e-13 7.16287e-13
          7.16248e-13 7.16305e-13 7.16211e-13 7.1618e-13 7.16222e-13 7.16214e-13 7.16138e-13 7.16133e-13 7.15998e-13 7.16012e-13 7.84043e-13 1.49398e-10
          3.49437e-07 5.45052e-07 9.36074e-07 1.84772e-06 9.31757e-12 9.06625e-12
        </DataArray>
        <DataArray type="Float32" Name="m^w_nanoAu" NumberOfComponents="1" format="ascii">
          2.73349e-15 2.73402e-15 2.73423e-15 2.73387e-15 2.73406e-15 2.73417e-15 2.73425e-15 2.73381e-15 2.73398e-15 2.73407e-15 2.73409e-15 2.73407e-15
          2.73393e-15 2.73415e-15 2.73381e-15 2.73371e-15 2.73389e-15 2.73389e-15 2.73364e-15 2.73388e-15 2.75216e-15 4.4851e-15 1.65002e-13 1.50107e-11
          1.33825e-09 1.70106e-09 2.26712e-09 3.18038e-09 1.04532e-14 1.00631e-14
        </DataArray>
        <DataArray type="Float32" Name="m^w_cyanide" NumberOfComponents="1" format="ascii">
          0.194854 0.194854 0.194854 0.194854 0.194854 0.194854 0.194853 0.194853 0.194853 0.194853 0.194852 0.194852
          0.194851 0.19485 0.194848 0.194846 0.194843 0.19484 0.194834 0.194827 0.194817 0.194803 0.194782 0.194751
          0.19472 0.24735 0.329414 0.470262 0.747869 0.738994
        </DataArray>
        <DataArray type="Float32" Name="m^w_citrate" NumberOfComponents="1" format="ascii">
          0.749742 0.749742 0.749742 0.749742 0.749741 0.749741 0.749741 0.749741 0.74974 0.74974 0.749739 0.749738
          0.749737 0.749736 0.749734 0.749732 0.749729 0.749725 0.74972 0.749713 0.749702 0.749688 0.749667 0.749635
          0.749586 0.749507 0.749357 0.749009 0.747872 0.738996
        </DataArray>
        <DataArray type="Float32" Name="m^w_substrate" NumberOfComponents="1" format="ascii">
          8.66951e-08 1.15173e-07 1.52997e-07 2.03231e-07 2.69949e-07 3.58563e-07 4.76271e-07 6.3265e-07 8.4046e-07 1.11673e-06 1.48421e-06 1.97344e-06
          2.62549e-06 3.49595e-06 4.66052e-06 6.22322e-06 8.32857e-06 1.11803e-05 1.5071e-05 2.04306e-05 2.79094e-05 3.8529e-05 5.39709e-05 7.71774e-05
          0.000113729 0.000175435 0.00029155 0.000554172 0.00140276 0.00797217
        </DataArray>
        <DataArray type="Float32" Name="process rank" NumberOfComponents="1" format="ascii">
          0 0 0 0 0 0 0 0 0 0 0 0
          0 0 0 0 0 0 0 0 0 0 0 0
          0 0 0 0 0 0
        </DataArray>
      </CellData>
      <Points>
        <DataArray type="Float32" Name="Coordinates" NumberOfComponents="3" format="ascii">
          0 0 0 0.5 0 0 0 0.0333333 0 0.5 0.0333333 0
          0 0.0666667 0 0.5 0.0666667 0 0 0.1 0 0.5 0.1 0
          0 0.133333 0 0.5 0.133333 0 0 0.166667 0 0.5 0.166667 0
          0 0.2 0 0.5 0.2 0 0 0.233333 0 0.5 0.233333 0
          0 0.266667 0 0.5 0.266667 0 0 0.3 0 0.5 0.3 0
          0 0.333333 0 0.5 0.333333 0 0 0.366667 0 0.5 0.366667 0
          0 0.4 0 0.5 0.4 0 0 0.433333 0 0.5 0.433333 0
          0 0.466667 0 0.5 0.466667 0 0 0.5 0 0.5 0.5 0
          0 0.533333 0 0.5 0.533333 0 0 0.566667 0 0.5 0.566667 0
          0 0.6 0 0.5 0.6 0 0 0.633333 0 0.5 0.633333 0
          0 0.666667 0 0.5 0.666667 0 0 0.7 0 0.5 0.7 0
          0 0.733333 0 0.5 0.733333 0 0 0.766667 0 0.5 0.766667 0
          0 0.8 0 0.5 0.8 0 0 0.833333 0 0.5 0.833333 0
          0 0.866667 0 0.5 0.866667 0 0 0.9 0 0.5 0.9 0
          0 0.933333 0 0.5 0.933333 0 0 0.966667 0 0.5 0.966667 0
          0 1 0 0.5 1 0
        </DataArray>
      </Points>
      <Cells>
        <DataArray type="Int32" Name="connectivity" NumberOfComponents="1" format="ascii">
          0 1 3 2 2 3 5 4 4 5 7 6
          6 7 9 8 8 9 11 10 10 11 13 12
          12 13 15 14 14 15 17 16 16 17 19 18
          18 19 21 20 20 21 23 22 22 23 25 24
          24 25 27 26 26 27 29 28 28 29 31 30
          30 31 33 32 32 33 35 34 34 35 37 36
          36 37 39 38 38 39 41 40 40 41 43 42
          42 43 45 44 44 45 47 46 46 47 49 48
          48 49 51 50 50 51 53 52 52 53 55 54
          54 55 57 56 56 57 59 58 58 59 61 60
        </DataArray>
        <DataArray type="Int32" Name="offsets" NumberOfComponents="1" format="ascii">
          4 8 12 16 20 24 28 32 36 40 44 48
          52 56 60 64 68 72 76 80 84 88 92 96
          100 104 108 112 116 120
        </DataArray>
        <DataArray type="UInt8" Name="types" NumberOfComponents="1" format="ascii">
          9 9 9 9 9 9 9 9 9 9 9 9
          9 9 9 9 9 9 9 9 9 9 9 9
          9 9 9 9 9 9
        </DataArray>
      </Cells>
    </Piece>
  </UnstructuredGrid>
</VTKFile>
