<?xml version="1.0"?>
<VTKFile type="UnstructuredGrid" version="0.1" byte_order="LittleEndian">
  <UnstructuredGrid>
    <Piece NumberOfCells="30" NumberOfPoints="62">
      <CellData Scalars="Sg">
        <DataArray type="Float32" Name="Sg" NumberOfComponents="1" format="ascii">
          0 0 0 0 0 0 0 0 0 0 0 0
          0 0 0 0 0 0 0 0 0 0 0 0
          0 0 0 0 0 0
        </DataArray>
        <DataArray type="Float32" Name="Sl" NumberOfComponents="1" format="ascii">
          1 1 1 1 1 1 1 1 1 1 1 1
          1 1 1 1 1 1 1 1 1 1 1 1
          1 1 1 1 1 1
        </DataArray>
        <DataArray type="Float32" Name="pg" NumberOfComponents="1" format="ascii">
          24687.8 24360.9 24034 23707 23380.1 23053.1 22726.2 22399.3 22072.3 21745.4 21418.4 21091.5
          20764.6 20437.6 20110.7 19783.7 19456.8 19129.9 18802.9 18476 18149 17822.1 17495.2 17168.2
          16841.3 16514.3 16187.4 15860.5 15533.5 15206.6
        </DataArray>
        <DataArray type="Float32" Name="pl" NumberOfComponents="1" format="ascii">
          110628 110301 109974 109647 109320 108993 108666 108339 108012 107685 107358 107031
          106704 106377 106050 105723 105396 105070 104743 104416 104089 103762 103435 103108
          102781 102454 102127 101800 101473 101146
        </DataArray>
        <DataArray type="Float32" Name="pc" NumberOfComponents="1" format="ascii">
          -85939.7 -85939.7 -85939.7 -85939.7 -85939.7 -85939.7 -85939.7 -85939.7 -85939.7 -85939.7 -85939.7 -85939.7
          -85939.7 -85939.7 -85939.7 -85939.7 -85939.7 -85939.7 -85939.7 -85939.7 -85939.7 -85939.7 -85939.7 -85939.7
          -85939.7 -85939.7 -85939.7 -85939.7 -85939.7 -85939.7
        </DataArray>
        <DataArray type="Float32" Name="rhoL" NumberOfComponents="1" format="ascii">
          999.855 999.855 999.855 999.855 999.855 999.854 999.854 999.854 999.854 999.854 999.854 999.854
          999.853 999.853 999.853 999.853 999.853 999.853 999.852 999.852 999.852 999.852 999.852 999.852
          999.852 999.851 999.851 999.851 999.851 999.851
        </DataArray>
        <DataArray type="Float32" Name="rhoG" NumberOfComponents="1" format="ascii">
          0.30585 0.3018 0.29775 0.293699 0.289649 0.285599 0.281548 0.277498 0.273447 0.269397 0.265347 0.261296
          0.257246 0.253196 0.249145 0.245095 0.241044 0.236994 0.232944 0.228893 0.224843 0.220793 0.216742 0.212692
          0.208642 0.204591 0.200541 0.196491 0.19244 0.18839
        </DataArray>
        <DataArray type="Float32" Name="mobL" NumberOfComponents="1" format="ascii">
          722.171 722.17 722.17 722.17 722.17 722.17 722.169 722.169 722.169 722.169 722.169 722.169
          722.168 722.168 722.168 722.168 722.168 722.167 722.167 722.167 722.167 722.167 722.166 722.166
          722.166 722.166 722.166 722.166 722.165 722.165
        </DataArray>
        <DataArray type="Float32" Name="mobG" NumberOfComponents="1" format="ascii">
          0 0 0 0 0 0 0 0 0 0 0 0
          0 0 0 0 0 0 0 0 0 0 0 0
          0 0 0 0 0 0
        </DataArray>
        <DataArray type="Float32" Name="porosity" NumberOfComponents="1" format="ascii">
          0.297804 0.297757 0.297707 0.297652 0.297592 0.297527 0.297455 0.297377 0.297291 0.297195 0.297089 0.296971
          0.296839 0.296689 0.296518 0.296323 0.296098 0.295833 0.295521 0.295145 0.294685 0.294109 0.293371 0.292392
          0.290768 0.288785 0.285643 0.280037 0.268168 0.230226
        </DataArray>
        <DataArray type="Float32" Name="temperature" NumberOfComponents="1" format="ascii">
          281.15 281.15 281.15 281.15 281.15 281.15 281.15 281.15 281.15 281.15 281.15 281.15
          281.15 281.15 281.15 281.15 281.15 281.15 281.15 281.15 281.15 281.15 281.15 281.15
          281.15 281.15 281.15 281.15 281.15 281.15
        </DataArray>
        <DataArray type="Float32" Name="phase presence" NumberOfComponents="1" format="ascii">
          1 1 1 1 1 1 1 1 1 1 1 1
          1 1 1 1 1 1 1 1 1 1 1 1
          1 1 1 1 1 1
        </DataArray>
        <DataArray type="Float32" Name="precipitateVolumeFraction_au" NumberOfComponents="1" format="ascii">
          5.52465e-10 5.52567e-10 5.52574e-10 5.52563e-10 5.52557e-10 5.52538e-10 5.52601e-10 5.52551e-10 5.52577e-10 5.52595e-10 5.52567e-10 5.52582e-10
          5.526e-10 5.52601e-10 5.52598e-10 5.52571e-10 5.52607e-10 5.52554e-10 5.52578e-10 5.5264e-10 5.52614e-10 5.5259e-10 5.52646e-10 6.84543e-10
          0.000269935 0.000269922 0.000269902 0.000269873 5.52285e-10 5.51959e-10
        </DataArray>
        <DataArray type="Float32" Name="precipitateVolumeFraction_nanoAu" NumberOfComponents="1" format="ascii">
          3.03205e-13 3.10446e-13 3.08909e-13 3.06393e-13 3.04147e-13 3.0171e-13 3.01622e-13 2.98486e-13 2.97112e-13 2.95395e-13 2.9297e-13 2.911e-13
          2.89143e-13 2.86915e-13 2.84613e-13 2.821e-13 2.79741e-13 2.76845e-13 2.73998e-13 2.70911e-13 2.6721e-13 2.62998e-13 2.72416e-13 2.99357e-11
          6.51053e-08 7.90806e-08 9.86845e-08 1.27092e-07 4.59158e-13 3.77555e-13
        </DataArray>
        <DataArray type="Float32" Name="precipitateVolumeFraction_d" NumberOfComponents="1" format="ascii">
          0.00109803 0.00112138 0.00114667 0.00117413 0.001204 0.0012366 0.00127228 0.00131144 0.00135458 0.00140229 0.00145528 0.0015144
          0.00158074 0.00165563 0.00174076 0.00183834 0.00195123 0.00208326 0.00223964 0.00242765 0.00265773 0.00294535 0.00331446 0.00380391
          0.00448103 0.00547242 0.00704353 0.00984629 0.015916 0.034887
        </DataArray>
        <DataArray type="Float32" Name="precipitateVolumeFraction_p" NumberOfComponents="1" format="ascii">
          0.00109803 0.00112138 0.00114667 0.00117413 0.001204 0.0012366 0.00127228 0.00131144 0.00135458 0.00140229 0.00145528 0.0015144
          0.00158074 0.00165563 0.00174076 0.00183834 0.00195123 0.00208326 0.00223964 0.00242765 0.00265773 0.00294535 0.00331446 0.00380391
          0.00448103 0.00547242 0.00704353 0.00984629 0.015916 0.034887
        </DataArray>
        <DataArray type="Float32" Name="K" NumberOfComponents="1" format="ascii">
          9.72091e-11 9.71504e-11 9.70869e-11 9.70181e-11 9.69432e-11 9.68615e-11 9.67721e-11 9.66742e-11 9.65663e-11 9.64472e-11 9.6315e-11 9.61677e-11
          9.60026e-11 9.58165e-11 9.56054e-11 9.53638e-11 9.50849e-11 9.47597e-11 9.43756e-11 9.39155e-11 9.3355e-11 9.26582e-11 9.17702e-11 9.06034e-11
          8.86942e-11 8.64083e-11 8.28843e-11 7.68884e-11 6.53477e-11 3.7374e-11
        </DataArray>
        <DataArray type="Float32" Name="X^w_H2O" NumberOfComponents="1" format="ascii">
          0.999852 0.999852 0.999852 0.999852 0.999852 0.999852 0.999852 0.999852 0.999852 0.999852 0.999852 0.999852
          0.999852 0.999853 0.999853 0.999853 0.999853 0.999853 0.999853 0.999853 0.999854 0.999854 0.999854 0.999855
          0.999855 0.999854 0.999853 0.999852 0.99985 0.99986
        </DataArray>
        <DataArray type="Float32" Name="X^w_Air" NumberOfComponents="1" format="ascii">
          2.17316e-29 3.81569e-31 6.57855e-33 1.114e-34 1.85376e-36 3.02547e-38 0 0 0 0 0 0
          0 0 0 0 0 0 0 0 0 0 0 0
          0 0 0 0 0 0
        </DataArray>
        <DataArray type="Float32" Name="X^w_AuComplex" NumberOfComponents="1" format="ascii">
          4.29205e-16 4.35979e-16 4.31252e-16 4.25306e-16 4.19764e-16 4.14022e-16 4.11299e-16 4.04728e-16 4.00398e-16 3.95635e-16 3.89982e-16 3.84994e-16
          3.79857e-16 3.74327e-16 3.68622e-16 3.62547e-16 3.56501e-16 3.49609e-16 3.42504e-16 3.34755e-16 3.25808e-16 3.15619e-16 3.2163e-16 3.6664e-14
          7.74399e-11 1.13266e-10 1.7622e-10 2.95921e-10 1.45207e-15 9.68008e-16
        </DataArray>
        <DataArray type="Float32" Name="X^w_nanoAu" NumberOfComponents="1" format="ascii">
          8.24805e-19 8.44047e-19 8.39538e-19 8.32368e-19 8.259e-19 8.18935e-19 8.18214e-19 8.09276e-19 8.05039e-19 7.99818e-19 7.92649e-19 7.86909e-19
          7.80859e-19 7.73994e-19 7.66827e-19 7.58976e-19 7.51377e-19 7.42163e-19 7.32848e-19 7.22597e-19 7.10725e-19 7.54386e-19 9.17137e-18 1.23456e-15
          1.68842e-13 2.02293e-13 2.4708e-13 3.04007e-13 1.02221e-18 6.71551e-19
        </DataArray>
        <DataArray type="Float32" Name="X^w_cyanide" NumberOfComponents="1" format="ascii">
          6.93584e-06 6.89225e-06 6.84908e-06 6.80626e-06 6.76368e-06 6.72123e-06 6.6788e-06 6.63624e-06 6.5934e-06 6.55008e-06 6.50606e-06 6.46108e-06
          6.41481e-06 6.36687e-06 6.31675e-06 6.26384e-06 6.20734e-06 6.14619e-06 6.07899e-06 6.00379e-06 5.91786e-06 5.81723e-06 5.69584e-06 5.54414e-06
          5.34667e-06 6.61032e-06 8.45039e-06 1.12779e-05 1.58769e-05 1.2742e-05
        </DataArray>
        <DataArray type="Float32" Name="X^w_citrate" NumberOfComponents="1" format="ascii">
          0.00014062 0.000140571 0.000140519 0.000140462 0.000140401 0.000140334 0.000140261 0.000140181 0.000140093 0.000139996 0.000139888 0.000139767
          0.000139632 0.00013948 0.000139307 0.000139109 0.00013888 0.000138612 0.000138296 0.000137918 0.000137457 0.000136885 0.000136158 0.000135206
          0.000133914 0.000132071 0.000129259 0.000124543 0.000115385 9.26023e-05
        </DataArray>
        <DataArray type="Float32" Name="X^w_substrate" NumberOfComponents="1" format="ascii">
          8.30226e-07 8.64453e-07 9.01383e-07 9.41333e-07 9.84673e-07 1.03183e-06 1.08332e-06 1.13973e-06 1.20177e-06 1.2703e-06 1.34635e-06 1.43116e-06
          1.52629e-06 1.63367e-06 1.7557e-06 1.89549e-06 2.05706e-06 2.2457e-06 2.46856e-06 2.73549e-06 3.06043e-06 3.46375e-06 3.97633e-06 4.64719e-06
          5.55862e-06 6.85906e-06 8.84221e-06 1.21689e-05 1.86274e-05 3.46923e-05
        </DataArray>
        <DataArray type="Float32" Name="m^w_H2O" NumberOfComponents="1" format="ascii">
          55492.5 55492.5 55492.5 55492.5 55492.5 55492.4 55492.4 55492.4 55492.4 55492.4 55492.4 55492.4
          55492.4 55492.4 55492.4 55492.4 55492.4 55492.4 55492.4 55492.4 55492.4 55492.4 55492.4 55492.4
          55492.5 55492.4 55492.3 55492.3 55492.1 55492.7
        </DataArray>
        <DataArray type="Float32" Name="m^w_Air" NumberOfComponents="1" format="ascii">
          7.50293e-25 1.31738e-26 2.27127e-28 3.84612e-30 6.40017e-32 1.04455e-33 1.67213e-35 2.62517e-37 0 0 0 0
          0 0 0 0 0 0 0 0 0 0 0 0
          0 0 0 0 0 0
        </DataArray>
        <DataArray type="Float32" Name="m^w_AuComplex" NumberOfComponents="1" format="ascii">
          2.17872e-12 2.21311e-12 2.18911e-12 2.15893e-12 2.13079e-12 2.10165e-12 2.08783e-12 2.05447e-12 2.03249e-12 2.00831e-12 1.97962e-12 1.95429e-12
          1.92822e-12 1.90015e-12 1.87119e-12 1.84035e-12 1.80966e-12 1.77467e-12 1.73861e-12 1.69927e-12 1.65385e-12 1.60213e-12 1.63265e-12 1.86113e-10
          3.93098e-07 5.74958e-07 8.94521e-07 1.50214e-06 7.37092e-12 4.91376e-12
        </DataArray>
        <DataArray type="Float32" Name="m^w_nanoAu" NumberOfComponents="1" format="ascii">
          4.18686e-15 4.28454e-15 4.26165e-15 4.22525e-15 4.19242e-15 4.15706e-15 4.1534e-15 4.10803e-15 4.08652e-15 4.06001e-15 4.02362e-15 3.99448e-15
          3.96377e-15 3.92892e-15 3.89255e-15 3.85269e-15 3.81411e-15 3.76734e-15 3.72006e-15 3.66802e-15 3.60776e-15 3.82939e-15 4.65554e-14 6.26682e-12
          8.57068e-10 1.02687e-09 1.25422e-09 1.54319e-09 5.18889e-15 3.4089e-15
        </DataArray>
        <DataArray type="Float32" Name="m^w_cyanide" NumberOfComponents="1" format="ascii">
          0.266519 0.264844 0.263186 0.26154 0.259904 0.258273 0.256642 0.255007 0.25336 0.251696 0.250004 0.248276
          0.246498 0.244655 0.24273 0.240696 0.238525 0.236175 0.233593 0.230703 0.227402 0.223535 0.21887 0.213041
          0.205453 0.25401 0.324717 0.433369 0.610089 0.489629
        </DataArray>
        <DataArray type="Float32" Name="m^w_citrate" NumberOfComponents="1" format="ascii">
          0.743523 0.743266 0.742989 0.742689 0.742364 0.74201 0.741624 0.741201 0.740735 0.740221 0.739651 0.739015
          0.738301 0.737496 0.736581 0.735532 0.734321 0.732906 0.731234 0.729233 0.726796 0.723772 0.719928 0.714897
          0.708063 0.698317 0.683452 0.658513 0.610091 0.48963
        </DataArray>
        <DataArray type="Float32" Name="m^w_substrate" NumberOfComponents="1" format="ascii">
          0.0046076 0.00479756 0.00500251 0.00522422 0.00546475 0.00572648 0.00601221 0.00632527 0.0066696 0.00704992 0.00747196 0.00794267
          0.00847064 0.00906653 0.00974379 0.0105196 0.0114163 0.0124632 0.0137 0.0151814 0.0169848 0.0192231 0.0220678 0.0257909
          0.0308492 0.0380664 0.0490725 0.0675349 0.103378 0.192535
        </DataArray>
        <DataArray type="Float32" Name="process rank" NumberOfComponents="1" format="ascii">
          0 0 0 0 0 0 0 0 0 0 0 0
          0 0 0 0 0 0 0 0 0 0 0 0
          0 0 0 0 0 0
        </DataArray>
      </CellData>
      <Points>
        <DataArray type="Float32" Name="Coordinates" NumberOfComponents="3" format="ascii">
          0 0 0 0.5 0 0 0 0.0333333 0 0.5 0.0333333 0
          0 0.0666667 0 0.5 0.0666667 0 0 0.1 0 0.5 0.1 0
          0 0.133333 0 0.5 0.133333 0 0 0.166667 0 0.5 0.166667 0
          0 0.2 0 0.5 0.2 0 0 0.233333 0 0.5 0.233333 0
          0 0.266667 0 0.5 0.266667 0 0 0.3 0 0.5 0.3 0
          0 0.333333 0 0.5 0.333333 0 0 0.366667 0 0.5 0.366667 0
          0 0.4 0 0.5 0.4 0 0 0.433333 0 0.5 0.433333 0
          0 0.466667 0 0.5 0.466667 0 0 0.5 0 0.5 0.5 0
          0 0.533333 0 0.5 0.533333 0 0 0.566667 0 0.5 0.566667 0
          0 0.6 0 0.5 0.6 0 0 0.633333 0 0.5 0.633333 0
          0 0.666667 0 0.5 0.666667 0 0 0.7 0 0.5 0.7 0
          0 0.733333 0 0.5 0.733333 0 0 0.766667 0 0.5 0.766667 0
          0 0.8 0 0.5 0.8 0 0 0.833333 0 0.5 0.833333 0
          0 0.866667 0 0.5 0.866667 0 0 0.9 0 0.5 0.9 0
          0 0.933333 0 0.5 0.933333 0 0 0.966667 0 0.5 0.966667 0
          0 1 0 0.5 1 0
        </DataArray>
      </Points>
      <Cells>
        <DataArray type="Int32" Name="connectivity" NumberOfComponents="1" format="ascii">
          0 1 3 2 2 3 5 4 4 5 7 6
          6 7 9 8 8 9 11 10 10 11 13 12
          12 13 15 14 14 15 17 16 16 17 19 18
          18 19 21 20 20 21 23 22 22 23 25 24
          24 25 27 26 26 27 29 28 28 29 31 30
          30 31 33 32 32 33 35 34 34 35 37 36
          36 37 39 38 38 39 41 40 40 41 43 42
          42 43 45 44 44 45 47 46 46 47 49 48
          48 49 51 50 50 51 53 52 52 53 55 54
          54 55 57 56 56 57 59 58 58 59 61 60
        </DataArray>
        <DataArray type="Int32" Name="offsets" NumberOfComponents="1" format="ascii">
          4 8 12 16 20 24 28 32 36 40 44 48
          52 56 60 64 68 72 76 80 84 88 92 96
          100 104 108 112 116 120
        </DataArray>
        <DataArray type="UInt8" Name="types" NumberOfComponents="1" format="ascii">
          9 9 9 9 9 9 9 9 9 9 9 9
          9 9 9 9 9 9 9 9 9 9 9 9
          9 9 9 9 9 9
        </DataArray>
      </Cells>
    </Piece>
  </UnstructuredGrid>
</VTKFile>
