<?xml version="1.0"?>
<VTKFile type="UnstructuredGrid" version="0.1" byte_order="LittleEndian">
  <UnstructuredGrid>
    <Piece NumberOfCells="30" NumberOfPoints="62">
      <CellData Scalars="Sg">
        <DataArray type="Float32" Name="Sg" NumberOfComponents="1" format="ascii">
          0.0948318 0.0948114 0.094791 0.0947705 0.0947499 0.0947292 0.0947085 0.0946877 0.0946668 0.0946459 0.0946245 0.0946014
          0.0945709 0.0945079 0.0943053 0.0935063 0.0901887 0.0766048 0.0281398 0 0 0 0 0
          0 0 0 0 0 0
        </DataArray>
        <DataArray type="Float32" Name="Sl" NumberOfComponents="1" format="ascii">
          0.905168 0.905189 0.905209 0.90523 0.90525 0.905271 0.905292 0.905312 0.905333 0.905354 0.905376 0.905399
          0.905429 0.905492 0.905695 0.906494 0.909811 0.923395 0.97186 1 1 1 1 1
          1 1 1 1 1 1
        </DataArray>
        <DataArray type="Float32" Name="pg" NumberOfComponents="1" format="ascii">
          51853.9 51521.1 51188.3 50855.5 50522.7 50189.8 49856.9 49524 49191.1 48858.2 48525.1 48191.5
          47855.9 47510.9 47125.9 46570.1 45292.8 41074.5 26864 18476 18149 17822.1 17495.1 17168.2
          16841.3 16514.3 16187.4 15860.4 15533.5 15206.6
        </DataArray>
        <DataArray type="Float32" Name="pl" NumberOfComponents="1" format="ascii">
          110628 110301 109974 109647 109320 108993 108666 108339 108012 107685 107358 107031
          106704 106377 106050 105723 105396 105070 104743 104416 104089 103762 103435 103108
          102781 102454 102127 101800 101473 101146
        </DataArray>
        <DataArray type="Float32" Name="pc" NumberOfComponents="1" format="ascii">
          -58773.6 -58779.5 -58785.3 -58791.2 -58797.1 -58803 -58809 -58814.9 -58820.9 -58826.9 -58833 -58839.6
          -58848.4 -58866.4 -58924.5 -59153.3 -60103.7 -63995 -77878.6 -85939.7 -85939.7 -85939.7 -85939.7 -85939.7
          -85939.7 -85939.7 -85939.7 -85939.7 -85939.7 -85939.7
        </DataArray>
        <DataArray type="Float32" Name="rhoL" NumberOfComponents="1" format="ascii">
          999.855 999.855 999.855 999.855 999.855 999.854 999.854 999.854 999.854 999.854 999.854 999.854
          999.853 999.853 999.853 999.853 999.853 999.853 999.852 999.852 999.852 999.852 999.852 999.852
          999.852 999.851 999.851 999.851 999.851 999.851
        </DataArray>
        <DataArray type="Float32" Name="rhoG" NumberOfComponents="1" format="ascii">
          0.642402 0.63828 0.634157 0.630034 0.62591 0.621786 0.617662 0.613538 0.609414 0.605289 0.601163 0.597031
          0.592872 0.588598 0.583829 0.576943 0.561118 0.50886 0.33281 0.228893 0.224843 0.220792 0.216742 0.212692
          0.208641 0.204591 0.200541 0.19649 0.19244 0.18839
        </DataArray>
        <DataArray type="Float32" Name="mobL" NumberOfComponents="1" format="ascii">
          722.171 722.17 722.17 722.17 722.17 722.17 722.169 722.169 722.169 722.169 722.169 722.169
          722.168 722.168 722.168 722.168 722.168 722.167 722.167 722.167 722.167 722.167 722.166 722.166
          722.166 722.166 722.166 722.166 722.165 722.165
        </DataArray>
        <DataArray type="Float32" Name="mobG" NumberOfComponents="1" format="ascii">
          0 0 0 0 0 0 0 0 0 0 0 0
          0 0 0 0 0 0 0 0 0 0 0 0
          0 0 0 0 0 0
        </DataArray>
        <DataArray type="Float32" Name="porosity" NumberOfComponents="1" format="ascii">
          0.298869 0.298861 0.298853 0.298845 0.298835 0.298826 0.298815 0.298804 0.298792 0.29878 0.298766 0.298752
          0.298736 0.298719 0.298701 0.298682 0.298661 0.298639 0.298614 0.298588 0.29856 0.29853 0.298497 0.298462
          0.298154 0.298112 0.298066 0.298016 0.29823 0.298167
        </DataArray>
        <DataArray type="Float32" Name="temperature" NumberOfComponents="1" format="ascii">
          281.15 281.15 281.15 281.15 281.15 281.15 281.15 281.15 281.15 281.15 281.15 281.15
          281.15 281.15 281.15 281.15 281.15 281.15 281.15 281.15 281.15 281.15 281.15 281.15
          281.15 281.15 281.15 281.15 281.15 281.15
        </DataArray>
        <DataArray type="Float32" Name="phase presence" NumberOfComponents="1" format="ascii">
          3 3 3 3 3 3 3 3 3 3 3 3
          3 3 3 3 3 3 3 1 1 1 1 1
          1 1 1 1 1 1
        </DataArray>
        <DataArray type="Float32" Name="precipitateVolumeFraction_au" NumberOfComponents="1" format="ascii">
          5.06747e-10 5.06745e-10 5.06747e-10 5.06749e-10 5.06751e-10 5.06753e-10 5.06755e-10 5.06758e-10 5.0676e-10 5.06762e-10 5.06765e-10 5.06768e-10
          5.06771e-10 5.06774e-10 5.06778e-10 5.06781e-10 5.06785e-10 5.06789e-10 5.06794e-10 5.06804e-10 5.06804e-10 5.06799e-10 5.06801e-10 5.09254e-10
          0.00026998 0.000269981 0.000269984 0.000269987 5.06736e-10 5.06367e-10
        </DataArray>
        <DataArray type="Float32" Name="precipitateVolumeFraction_nanoAu" NumberOfComponents="1" format="ascii">
          4.61345e-11 4.61323e-11 4.61305e-11 4.61282e-11 4.61264e-11 4.6124e-11 4.61216e-11 4.6119e-11 4.61162e-11 4.61136e-11 4.61108e-11 4.61075e-11
          4.6104e-11 4.61008e-11 4.60973e-11 4.60934e-11 4.60897e-11 4.60845e-11 4.60845e-11 4.61078e-11 4.60781e-11 4.60544e-11 4.60511e-11 4.92441e-11
          2.09589e-08 1.91045e-08 1.67754e-08 1.38895e-08 4.60141e-11 4.59764e-11
        </DataArray>
        <DataArray type="Float32" Name="precipitateVolumeFraction_d" NumberOfComponents="1" format="ascii">
          0.000565713 0.000569454 0.000573446 0.000577707 0.000582256 0.000587113 0.000592301 0.000597846 0.000603775 0.000610118 0.000616909 0.000624185
          0.000631988 0.000640363 0.000649363 0.000659045 0.000669474 0.000680719 0.00069285 0.000705909 0.000719919 0.000734987 0.000751253 0.000768879
          0.000788053 0.000808998 0.000831964 0.000857248 0.000885203 0.000916246
        </DataArray>
        <DataArray type="Float32" Name="precipitateVolumeFraction_p" NumberOfComponents="1" format="ascii">
          0.000565713 0.000569454 0.000573446 0.000577707 0.000582256 0.000587113 0.000592301 0.000597846 0.000603775 0.000610118 0.000616909 0.000624185
          0.000631988 0.000640363 0.000649363 0.000659045 0.000669474 0.000680719 0.00069285 0.000705909 0.000719919 0.000734987 0.000751253 0.000768879
          0.000788053 0.000808998 0.000831964 0.000857248 0.000885203 0.000916246
        </DataArray>
        <DataArray type="Float32" Name="K" NumberOfComponents="1" format="ascii">
          9.8554e-11 9.85445e-11 9.85343e-11 9.85235e-11 9.8512e-11 9.84996e-11 9.84864e-11 9.84724e-11 9.84573e-11 9.84412e-11 9.8424e-11 9.84055e-11
          9.83857e-11 9.83645e-11 9.83416e-11 9.83171e-11 9.82906e-11 9.82621e-11 9.82314e-11 9.81983e-11 9.81628e-11 9.81247e-11 9.80835e-11 9.80389e-11
          9.76495e-11 9.75967e-11 9.75388e-11 9.74751e-11 9.7745e-11 9.76667e-11
        </DataArray>
        <DataArray type="Float32" Name="X^w_H2O" NumberOfComponents="1" format="ascii">
          0.999853 0.999854 0.999855 0.999855 0.999856 0.999856 0.999857 0.999857 0.999858 0.999859 0.99986 0.99986
          0.999861 0.999862 0.999863 0.999864 0.999865 0.999867 0.999873 0.999882 0.999883 0.999884 0.999886 0.999887
          0.999888 0.99989 0.999891 0.999893 0.999895 0.999897
        </DataArray>
        <DataArray type="Float32" Name="X^w_Air" NumberOfComponents="1" format="ascii">
          1.5741e-05 1.56379e-05 1.55347e-05 1.54316e-05 1.53284e-05 1.52252e-05 1.5122e-05 1.50189e-05 1.49157e-05 1.48125e-05 1.47092e-05 1.46058e-05
          1.45018e-05 1.43949e-05 1.42755e-05 1.41032e-05 1.37073e-05 1.23997e-05 7.99476e-06 3.68438e-07 4.82632e-09 6.19244e-11 7.80895e-13 9.57269e-15
          1.12934e-16 1.31335e-18 1.46014e-20 1.51209e-22 1.37589e-24 7.99909e-27
        </DataArray>
        <DataArray type="Float32" Name="X^w_AuComplex" NumberOfComponents="1" format="ascii">
          8.35877e-14 8.2135e-14 8.1347e-14 7.8936e-14 7.61516e-14 7.69998e-14 7.43344e-14 7.19985e-14 7.25239e-14 7.0381e-14 6.89873e-14 6.57336e-14
          6.43317e-14 6.24087e-14 5.97573e-14 5.63706e-14 5.61035e-14 5.19943e-14 5.14145e-15 4.53742e-14 4.20309e-14 3.8442e-14 3.45888e-14 3.37304e-14
          1.81083e-11 1.58997e-11 1.31791e-11 1.0011e-11 1.40068e-14 7.37167e-15
        </DataArray>
        <DataArray type="Float32" Name="X^w_nanoAu" NumberOfComponents="1" format="ascii">
          -1.59327e-16 8.15435e-16 2.7354e-17 4.37627e-17 -3.13229e-16 5.35024e-16 -9.16685e-16 -8.25197e-16 -2.99839e-16 -1.52605e-17 -1.95294e-16 -1.02153e-15
          3.92625e-18 5.08395e-16 2.8445e-16 -6.74909e-16 2.71727e-16 1.01742e-15 -4.46218e-14 3.89387e-17 3.66987e-17 3.42924e-17 3.22562e-17 1.10869e-16
          1.17407e-14 9.31464e-15 6.84488e-15 4.43803e-15 1.03432e-17 5.42369e-18
        </DataArray>
        <DataArray type="Float32" Name="X^w_cyanide" NumberOfComponents="1" format="ascii">
          9.51624e-06 9.38051e-06 9.23827e-06 9.08907e-06 8.93242e-06 8.7678e-06 8.59462e-06 8.41226e-06 8.22002e-06 8.01714e-06 7.80276e-06 7.57595e-06
          7.33567e-06 7.08077e-06 6.80998e-06 6.52194e-06 6.21527e-06 5.88891e-06 5.54359e-06 5.18548e-06 4.80649e-06 4.39835e-06 3.95775e-06 3.48103e-06
          2.96395e-06 2.76143e-06 2.47916e-06 2.09949e-06 1.60404e-06 8.44913e-07
        </DataArray>
        <DataArray type="Float32" Name="X^w_citrate" NumberOfComponents="1" format="ascii">
          7.20944e-05 7.12074e-05 7.02784e-05 6.93046e-05 6.82825e-05 6.72086e-05 6.60788e-05 6.48888e-05 6.36337e-05 6.23084e-05 6.09067e-05 5.94223e-05
          5.78477e-05 5.61749e-05 5.43949e-05 5.24982e-05 5.04751e-05 4.83185e-05 4.60362e-05 4.36807e-05 4.11969e-05 3.8514e-05 3.56081e-05 3.24531e-05
          2.90182e-05 2.52672e-05 2.11585e-05 1.66426e-05 1.16604e-05 6.14144e-06
        </DataArray>
        <DataArray type="Float32" Name="X^w_substrate" NumberOfComponents="1" format="ascii">
          4.91517e-05 4.97772e-05 5.04322e-05 5.11189e-05 5.18396e-05 5.25969e-05 5.33936e-05 5.42327e-05 5.51177e-05 5.60523e-05 5.70407e-05 5.80874e-05
          5.91977e-05 6.03773e-05 6.16324e-05 6.29699e-05 6.43965e-05 6.59173e-05 6.75271e-05 6.91889e-05 7.09404e-05 7.28322e-05 7.48812e-05 7.7106e-05
          7.9528e-05 8.21731e-05 8.50703e-05 8.82546e-05 9.17678e-05 9.56594e-05
        </DataArray>
        <DataArray type="Float32" Name="m^w_H2O" NumberOfComponents="1" format="ascii">
          55492.6 55492.6 55492.6 55492.6 55492.7 55492.7 55492.7 55492.7 55492.8 55492.8 55492.8 55492.9
          55492.9 55492.9 55493 55493 55493.1 55493.2 55493.5 55494 55494 55494.1 55494.2 55494.2
          55494.3 55494.4 55494.4 55494.5 55494.6 55494.8
        </DataArray>
        <DataArray type="Float32" Name="m^w_Air" NumberOfComponents="1" format="ascii">
          0.543465 0.539904 0.536342 0.53278 0.529218 0.525656 0.522094 0.518531 0.514968 0.511405 0.507841 0.504271
          0.500679 0.496987 0.492867 0.486919 0.473249 0.428105 0.276022 0.0127204 0.00016663 2.13796e-06 2.69606e-08 3.305e-10
          3.89908e-12 4.53438e-14 5.04117e-16 5.22052e-18 4.7503e-20 2.76171e-22
        </DataArray>
        <DataArray type="Float32" Name="m^w_AuComplex" NumberOfComponents="1" format="ascii">
          4.24306e-10 4.16932e-10 4.12932e-10 4.00693e-10 3.86559e-10 3.90865e-10 3.77335e-10 3.65477e-10 3.68144e-10 3.57266e-10 3.50191e-10 3.33675e-10
          3.26559e-10 3.16797e-10 3.03338e-10 2.86146e-10 2.84791e-10 2.63932e-10 2.60989e-11 2.30327e-10 2.13356e-10 1.95138e-10 1.75579e-10 1.71221e-10
          9.19209e-08 8.07093e-08 6.68992e-08 5.08175e-08 7.11008e-11 3.74198e-11
        </DataArray>
        <DataArray type="Float32" Name="m^w_nanoAu" NumberOfComponents="1" format="ascii">
          -8.08774e-13 4.13929e-12 1.38854e-13 2.22147e-13 -1.59e-12 2.71588e-12 -4.65325e-12 -4.18884e-12 -1.52204e-12 -7.7465e-14 -9.91345e-13 -5.18546e-12
          1.99303e-14 2.5807e-12 1.44392e-12 -3.42595e-12 1.37933e-12 5.16461e-12 -2.26508e-10 1.97659e-13 1.86289e-13 1.74074e-13 1.63738e-13 5.6279e-13
          5.95978e-11 4.72826e-11 3.47457e-11 2.25281e-11 5.25036e-14 2.75315e-14
        </DataArray>
        <DataArray type="Float32" Name="m^w_cyanide" NumberOfComponents="1" format="ascii">
          0.365675 0.360459 0.354994 0.34926 0.343241 0.336915 0.33026 0.323253 0.315866 0.308069 0.299832 0.291116
          0.281883 0.272088 0.261683 0.250614 0.23883 0.226289 0.21302 0.199259 0.184696 0.169012 0.152082 0.133763
          0.113893 0.106111 0.0952647 0.0806753 0.0616371 0.0324668
        </DataArray>
        <DataArray type="Float32" Name="m^w_citrate" NumberOfComponents="1" format="ascii">
          0.381197 0.376507 0.371595 0.366446 0.361041 0.355363 0.349389 0.343097 0.336461 0.329453 0.322042 0.314193
          0.305867 0.297022 0.287611 0.277582 0.266885 0.255482 0.243414 0.23096 0.217826 0.203641 0.188276 0.171594
          0.153433 0.133599 0.111874 0.0879969 0.0616537 0.0324725
        </DataArray>
        <DataArray type="Float32" Name="m^w_substrate" NumberOfComponents="1" format="ascii">
          0.272783 0.276254 0.279889 0.283701 0.2877 0.291903 0.296324 0.300981 0.305893 0.31108 0.316565 0.322374
          0.328536 0.335082 0.342048 0.349471 0.357388 0.365828 0.374762 0.383985 0.393705 0.404204 0.415576 0.427922
          0.441364 0.456044 0.472123 0.489795 0.509292 0.53089
        </DataArray>
        <DataArray type="Float32" Name="process rank" NumberOfComponents="1" format="ascii">
          0 0 0 0 0 0 0 0 0 0 0 0
          0 0 0 0 0 0 0 0 0 0 0 0
          0 0 0 0 0 0
        </DataArray>
      </CellData>
      <Points>
        <DataArray type="Float32" Name="Coordinates" NumberOfComponents="3" format="ascii">
          0 0 0 0.5 0 0 0 0.0333333 0 0.5 0.0333333 0
          0 0.0666667 0 0.5 0.0666667 0 0 0.1 0 0.5 0.1 0
          0 0.133333 0 0.5 0.133333 0 0 0.166667 0 0.5 0.166667 0
          0 0.2 0 0.5 0.2 0 0 0.233333 0 0.5 0.233333 0
          0 0.266667 0 0.5 0.266667 0 0 0.3 0 0.5 0.3 0
          0 0.333333 0 0.5 0.333333 0 0 0.366667 0 0.5 0.366667 0
          0 0.4 0 0.5 0.4 0 0 0.433333 0 0.5 0.433333 0
          0 0.466667 0 0.5 0.466667 0 0 0.5 0 0.5 0.5 0
          0 0.533333 0 0.5 0.533333 0 0 0.566667 0 0.5 0.566667 0
          0 0.6 0 0.5 0.6 0 0 0.633333 0 0.5 0.633333 0
          0 0.666667 0 0.5 0.666667 0 0 0.7 0 0.5 0.7 0
          0 0.733333 0 0.5 0.733333 0 0 0.766667 0 0.5 0.766667 0
          0 0.8 0 0.5 0.8 0 0 0.833333 0 0.5 0.833333 0
          0 0.866667 0 0.5 0.866667 0 0 0.9 0 0.5 0.9 0
          0 0.933333 0 0.5 0.933333 0 0 0.966667 0 0.5 0.966667 0
          0 1 0 0.5 1 0
        </DataArray>
      </Points>
      <Cells>
        <DataArray type="Int32" Name="connectivity" NumberOfComponents="1" format="ascii">
          0 1 3 2 2 3 5 4 4 5 7 6
          6 7 9 8 8 9 11 10 10 11 13 12
          12 13 15 14 14 15 17 16 16 17 19 18
          18 19 21 20 20 21 23 22 22 23 25 24
          24 25 27 26 26 27 29 28 28 29 31 30
          30 31 33 32 32 33 35 34 34 35 37 36
          36 37 39 38 38 39 41 40 40 41 43 42
          42 43 45 44 44 45 47 46 46 47 49 48
          48 49 51 50 50 51 53 52 52 53 55 54
          54 55 57 56 56 57 59 58 58 59 61 60
        </DataArray>
        <DataArray type="Int32" Name="offsets" NumberOfComponents="1" format="ascii">
          4 8 12 16 20 24 28 32 36 40 44 48
          52 56 60 64 68 72 76 80 84 88 92 96
          100 104 108 112 116 120
        </DataArray>
        <DataArray type="UInt8" Name="types" NumberOfComponents="1" format="ascii">
          9 9 9 9 9 9 9 9 9 9 9 9
          9 9 9 9 9 9 9 9 9 9 9 9
          9 9 9 9 9 9
        </DataArray>
      </Cells>
    </Piece>
  </UnstructuredGrid>
</VTKFile>
