<?xml version="1.0"?>
<VTKFile type="UnstructuredGrid" version="0.1" byte_order="LittleEndian">
  <UnstructuredGrid>
    <Piece NumberOfCells="30" NumberOfPoints="62">
      <CellData Scalars="Sg">
        <DataArray type="Float32" Name="Sg" NumberOfComponents="1" format="ascii">
          0 0 0 0 0 0 0 0 0 0 0 0
          0 0 0 0 0 0 0 0 0 0 0 0
          0 0 0 0 0 0
        </DataArray>
        <DataArray type="Float32" Name="Sl" NumberOfComponents="1" format="ascii">
          1 1 1 1 1 1 1 1 1 1 1 1
          1 1 1 1 1 1 1 1 1 1 1 1
          1 1 1 1 1 1
        </DataArray>
        <DataArray type="Float32" Name="pg" NumberOfComponents="1" format="ascii">
          24687.8 24360.9 24034 23707 23380.1 23053.1 22726.2 22399.3 22072.3 21745.4 21418.4 21091.5
          20764.6 20437.6 20110.7 19783.7 19456.8 19129.8 18802.9 18476 18149 17822.1 17495.1 17168.2
          16841.3 16514.3 16187.4 15860.4 15533.5 15209.5
        </DataArray>
        <DataArray type="Float32" Name="pl" NumberOfComponents="1" format="ascii">
          110628 110301 109974 109647 109320 108993 108666 108339 108012 107685 107358 107031
          106704 106377 106050 105723 105396 105070 104743 104416 104089 103762 103435 103108
          102781 102454 102127 101800 101473 101149
        </DataArray>
        <DataArray type="Float32" Name="pc" NumberOfComponents="1" format="ascii">
          -85939.7 -85939.7 -85939.7 -85939.7 -85939.7 -85939.7 -85939.7 -85939.7 -85939.7 -85939.7 -85939.7 -85939.7
          -85939.7 -85939.7 -85939.7 -85939.7 -85939.7 -85939.7 -85939.7 -85939.7 -85939.7 -85939.7 -85939.7 -85939.7
          -85939.7 -85939.7 -85939.7 -85939.7 -85939.7 -85939.7
        </DataArray>
        <DataArray type="Float32" Name="rhoL" NumberOfComponents="1" format="ascii">
          999.855 999.855 999.855 999.855 999.855 999.854 999.854 999.854 999.854 999.854 999.854 999.854
          999.853 999.853 999.853 999.853 999.853 999.853 999.852 999.852 999.852 999.852 999.852 999.852
          999.852 999.851 999.851 999.851 999.851 999.851
        </DataArray>
        <DataArray type="Float32" Name="rhoG" NumberOfComponents="1" format="ascii">
          0.30585 0.3018 0.29775 0.293699 0.289649 0.285598 0.281548 0.277498 0.273447 0.269397 0.265347 0.261296
          0.257246 0.253195 0.249145 0.245095 0.241044 0.236994 0.232944 0.228893 0.224843 0.220793 0.216742 0.212692
          0.208641 0.204591 0.200541 0.19649 0.19244 0.188426
        </DataArray>
        <DataArray type="Float32" Name="mobL" NumberOfComponents="1" format="ascii">
          722.171 722.17 722.17 722.17 722.17 722.17 722.169 722.169 722.169 722.169 722.169 722.169
          722.168 722.168 722.168 722.168 722.168 722.167 722.167 722.167 722.167 722.167 722.166 722.166
          722.166 722.166 722.166 722.166 722.165 722.165
        </DataArray>
        <DataArray type="Float32" Name="mobG" NumberOfComponents="1" format="ascii">
          0 0 0 0 0 0 0 0 0 0 0 0
          0 0 0 0 0 0 0 0 0 0 0 0
          0 0 0 0 0 0
        </DataArray>
        <DataArray type="Float32" Name="porosity" NumberOfComponents="1" format="ascii">
          0.2988 0.2988 0.2988 0.2988 0.2988 0.298799 0.298798 0.298798 0.298796 0.298795 0.298792 0.298789
          0.298784 0.298778 0.29877 0.298758 0.298743 0.298722 0.298693 0.298655 0.298602 0.298527 0.29842 0.29826
          0.297738 0.297304 0.29644 0.294177 0.283312 0.0455716
        </DataArray>
        <DataArray type="Float32" Name="temperature" NumberOfComponents="1" format="ascii">
          281.15 281.15 281.15 281.15 281.15 281.15 281.15 281.15 281.15 281.15 281.15 281.15
          281.15 281.15 281.15 281.15 281.15 281.15 281.15 281.15 281.15 281.15 281.15 281.15
          281.15 281.15 281.15 281.15 281.15 281.15
        </DataArray>
        <DataArray type="Float32" Name="phase presence" NumberOfComponents="1" format="ascii">
          1 1 1 1 1 1 1 1 1 1 1 1
          1 1 1 1 1 1 1 1 1 1 1 1
          1 1 1 1 1 1
        </DataArray>
        <DataArray type="Float32" Name="precipitateVolumeFraction_au" NumberOfComponents="1" format="ascii">
          5.52644e-10 5.52526e-10 5.52759e-10 5.52699e-10 5.52739e-10 5.52738e-10 5.52719e-10 5.5275e-10 5.52728e-10 5.52806e-10 5.52747e-10 5.52779e-10
          5.5271e-10 5.5275e-10 5.52762e-10 5.52747e-10 5.52781e-10 5.52784e-10 5.52774e-10 5.52697e-10 5.52712e-10 5.52715e-10 5.53036e-10 1.15199e-09
          0.000269941 0.000269925 0.0002699 0.000269852 5.52231e-10 5.51179e-10
        </DataArray>
        <DataArray type="Float32" Name="precipitateVolumeFraction_nanoAu" NumberOfComponents="1" format="ascii">
          1.23634e-13 1.23608e-13 1.2366e-13 1.23646e-13 1.23655e-13 1.23655e-13 1.2365e-13 1.23657e-13 1.23652e-13 1.2367e-13 1.23656e-13 1.23663e-13
          1.23647e-13 1.23655e-13 1.23657e-13 1.23652e-13 1.23658e-13 1.23657e-13 1.23652e-13 1.2363e-13 1.23628e-13 1.23636e-13 1.35586e-13 2.58099e-11
          6.03647e-08 7.66866e-08 1.02149e-07 1.45569e-07 4.74175e-13 4.67146e-13
        </DataArray>
        <DataArray type="Float32" Name="precipitateVolumeFraction_d" NumberOfComponents="1" format="ascii">
          0.000599767 0.000599827 0.000599912 0.000600031 0.000600198 0.000600432 0.000600759 0.000601216 0.00060185 0.000602728 0.00060394 0.000605604
          0.00060788 0.000610982 0.000615196 0.000620906 0.000628629 0.000639079 0.000653255 0.000672591 0.000699236 0.00073655 0.000790118 0.000869943
          0.00099582 0.00121278 0.00164513 0.00277662 0.00834401 0.127214
        </DataArray>
        <DataArray type="Float32" Name="precipitateVolumeFraction_p" NumberOfComponents="1" format="ascii">
          0.000599767 0.000599827 0.000599912 0.000600031 0.000600198 0.000600432 0.000600759 0.000601216 0.00060185 0.000602728 0.00060394 0.000605604
          0.00060788 0.000610982 0.000615196 0.000620906 0.000628629 0.000639079 0.000653255 0.000672591 0.000699236 0.00073655 0.000790118 0.000869943
          0.00099582 0.00121278 0.00164513 0.00277662 0.00834401 0.127214
        </DataArray>
        <DataArray type="Float32" Name="K" NumberOfComponents="1" format="ascii">
          9.84675e-11 9.84673e-11 9.84671e-11 9.84668e-11 9.84664e-11 9.84658e-11 9.8465e-11 9.84638e-11 9.84622e-11 9.846e-11 9.84569e-11 9.84527e-11
          9.84469e-11 9.8439e-11 9.84283e-11 9.84138e-11 9.83942e-11 9.83677e-11 9.83318e-11 9.82827e-11 9.82152e-11 9.81207e-11 9.79852e-11 9.77835e-11
          9.71267e-11 9.65833e-11 9.55078e-11 9.27397e-11 8.03465e-11 1.8855e-13
        </DataArray>
        <DataArray type="Float32" Name="X^w_H2O" NumberOfComponents="1" format="ascii">
          0.999853 0.999853 0.999853 0.999853 0.999853 0.999853 0.999853 0.999853 0.999853 0.999853 0.999853 0.999853
          0.999853 0.999853 0.999853 0.999853 0.999853 0.999853 0.999853 0.999853 0.999853 0.999853 0.999853 0.999853
          0.999853 0.999852 0.99985 0.999846 0.999839 0.99984
        </DataArray>
        <DataArray type="Float32" Name="X^w_Air" NumberOfComponents="1" format="ascii">
          0 0 0 0 0 0 0 0 0 0 0 0
          0 0 0 0 0 0 0 0 0 0 0 0
          0 0 0 0 0 0
        </DataArray>
        <DataArray type="Float32" Name="X^w_AuComplex" NumberOfComponents="1" format="ascii">
          1.41065e-16 1.41035e-16 1.41095e-16 1.41079e-16 1.4109e-16 1.41089e-16 1.41084e-16 1.41092e-16 1.41086e-16 1.41106e-16 1.4109e-16 1.41097e-16
          1.41079e-16 1.41087e-16 1.41089e-16 1.41082e-16 1.41088e-16 1.41084e-16 1.41075e-16 1.41046e-16 1.41038e-16 1.41037e-16 1.54465e-16 2.94201e-14
          6.88381e-11 1.07375e-10 1.84407e-10 3.64004e-10 1.83538e-15 1.78476e-15
        </DataArray>
        <DataArray type="Float32" Name="X^w_nanoAu" NumberOfComponents="1" format="ascii">
          5.38468e-19 5.38357e-19 5.3858e-19 5.38522e-19 5.38561e-19 5.38559e-19 5.3854e-19 5.3857e-19 5.38548e-19 5.38622e-19 5.38564e-19 5.38592e-19
          5.38523e-19 5.38558e-19 5.38565e-19 5.38544e-19 5.38568e-19 5.38558e-19 5.38532e-19 5.38474e-19 5.42142e-19 8.83539e-19 3.25065e-17 2.95716e-15
          2.63638e-13 3.35115e-13 4.46638e-13 6.26567e-13 2.05934e-18 1.98445e-18
        </DataArray>
        <DataArray type="Float32" Name="X^w_cyanide" NumberOfComponents="1" format="ascii">
          5.07062e-06 5.07062e-06 5.07062e-06 5.07062e-06 5.07062e-06 5.07062e-06 5.07062e-06 5.07061e-06 5.07061e-06 5.0706e-06 5.07059e-06 5.07058e-06
          5.07056e-06 5.07053e-06 5.0705e-06 5.07045e-06 5.07038e-06 5.07029e-06 5.07017e-06 5.07e-06 5.06975e-06 5.0694e-06 5.06889e-06 5.06812e-06
          5.06737e-06 6.43705e-06 8.57275e-06 1.22384e-05 1.94634e-05 1.9238e-05
        </DataArray>
        <DataArray type="Float32" Name="X^w_citrate" NumberOfComponents="1" format="ascii">
          0.000141796 0.000141796 0.000141796 0.000141796 0.000141796 0.000141796 0.000141796 0.000141796 0.000141796 0.000141796 0.000141796 0.000141796
          0.000141795 0.000141795 0.000141795 0.000141795 0.000141794 0.000141794 0.000141793 0.000141791 0.00014179 0.000141787 0.000141783 0.000141778
          0.000141769 0.000141754 0.000141727 0.000141662 0.00014145 0.000139812
        </DataArray>
        <DataArray type="Float32" Name="X^w_substrate" NumberOfComponents="1" format="ascii">
          1.21352e-11 1.62473e-11 2.17517e-11 2.91195e-11 3.89817e-11 5.21832e-11 6.98565e-11 9.35204e-11 1.25214e-10 1.67679e-10 2.24608e-10 3.00994e-10
          4.03603e-10 5.41662e-10 7.27826e-10 9.79608e-10 1.32151e-09 1.78831e-09 2.43025e-09 3.32163e-09 4.57554e-09 6.3705e-09 9.00191e-09 1.29891e-08
          1.9321e-08 3.00981e-08 5.05367e-08 9.70703e-08 2.47846e-07 1.40307e-06
        </DataArray>
        <DataArray type="Float32" Name="m^w_H2O" NumberOfComponents="1" format="ascii">
          55492.6 55492.6 55492.5 55492.5 55492.5 55492.5 55492.5 55492.5 55492.5 55492.5 55492.5 55492.5
          55492.5 55492.4 55492.4 55492.4 55492.4 55492.4 55492.4 55492.4 55492.4 55492.4 55492.4 55492.4
          55492.3 55492.3 55492.1 55491.9 55491.5 55491.6
        </DataArray>
        <DataArray type="Float32" Name="m^w_Air" NumberOfComponents="1" format="ascii">
          0 0 0 0 0 0 0 0 0 0 0 0
          0 0 0 0 0 0 0 0 0 0 0 0
          0 0 0 0 0 0
        </DataArray>
        <DataArray type="Float32" Name="m^w_AuComplex" NumberOfComponents="1" format="ascii">
          7.16074e-13 7.15922e-13 7.16222e-13 7.16144e-13 7.16196e-13 7.16194e-13 7.16167e-13 7.16207e-13 7.16177e-13 7.16276e-13 7.16196e-13 7.16234e-13
          7.1614e-13 7.16184e-13 7.16191e-13 7.16158e-13 7.16184e-13 7.16165e-13 7.16119e-13 7.15974e-13 7.1593e-13 7.15929e-13 7.84088e-13 1.49341e-10
          3.49433e-07 5.45052e-07 9.36081e-07 1.84774e-06 9.31668e-12 9.05973e-12
        </DataArray>
        <DataArray type="Float32" Name="m^w_nanoAu" NumberOfComponents="1" format="ascii">
          2.73336e-15 2.7328e-15 2.73393e-15 2.73363e-15 2.73383e-15 2.73382e-15 2.73372e-15 2.73387e-15 2.73376e-15 2.73414e-15 2.73384e-15 2.73398e-15
          2.73364e-15 2.73381e-15 2.73385e-15 2.73374e-15 2.73386e-15 2.73381e-15 2.73368e-15 2.73338e-15 2.752e-15 4.48499e-15 1.65008e-13 1.5011e-11
          1.33827e-09 1.7011e-09 2.26721e-09 3.18055e-09 1.04535e-14 1.00734e-14
        </DataArray>
        <DataArray type="Float32" Name="m^w_cyanide" NumberOfComponents="1" format="ascii">
          0.194846 0.194846 0.194846 0.194846 0.194846 0.194846 0.194845 0.194845 0.194845 0.194845 0.194844 0.194844
          0.194843 0.194842 0.194841 0.194839 0.194836 0.194833 0.194828 0.194821 0.194812 0.194798 0.194779 0.194749
          0.19472 0.247352 0.329419 0.470274 0.747906 0.739245
        </DataArray>
        <DataArray type="Float32" Name="m^w_citrate" NumberOfComponents="1" format="ascii">
          0.749742 0.749742 0.749742 0.749742 0.749742 0.749741 0.749741 0.749741 0.74974 0.74974 0.749739 0.749739
          0.749738 0.749737 0.749735 0.749733 0.749731 0.749727 0.749722 0.749715 0.749706 0.749692 0.749672 0.749642
          0.749595 0.749519 0.749372 0.74903 0.747909 0.739246
        </DataArray>
        <DataArray type="Float32" Name="m^w_substrate" NumberOfComponents="1" format="ascii">
          6.73479e-08 9.01698e-08 1.20718e-07 1.61608e-07 2.16341e-07 2.89607e-07 3.8769e-07 5.1902e-07 6.94913e-07 9.30584e-07 1.24653e-06 1.67046e-06
          2.23992e-06 3.00612e-06 4.03929e-06 5.43663e-06 7.33412e-06 9.92475e-06 1.34874e-05 1.84344e-05 2.53933e-05 3.5355e-05 4.99588e-05 7.20867e-05
          0.000107227 0.000167038 0.000280469 0.00053872 0.00137549 0.00778676
        </DataArray>
        <DataArray type="Float32" Name="process rank" NumberOfComponents="1" format="ascii">
          0 0 0 0 0 0 0 0 0 0 0 0
          0 0 0 0 0 0 0 0 0 0 0 0
          0 0 0 0 0 0
        </DataArray>
      </CellData>
      <Points>
        <DataArray type="Float32" Name="Coordinates" NumberOfComponents="3" format="ascii">
          0 0 0 0.5 0 0 0 0.0333333 0 0.5 0.0333333 0
          0 0.0666667 0 0.5 0.0666667 0 0 0.1 0 0.5 0.1 0
          0 0.133333 0 0.5 0.133333 0 0 0.166667 0 0.5 0.166667 0
          0 0.2 0 0.5 0.2 0 0 0.233333 0 0.5 0.233333 0
          0 0.266667 0 0.5 0.266667 0 0 0.3 0 0.5 0.3 0
          0 0.333333 0 0.5 0.333333 0 0 0.366667 0 0.5 0.366667 0
          0 0.4 0 0.5 0.4 0 0 0.433333 0 0.5 0.433333 0
          0 0.466667 0 0.5 0.466667 0 0 0.5 0 0.5 0.5 0
          0 0.533333 0 0.5 0.533333 0 0 0.566667 0 0.5 0.566667 0
          0 0.6 0 0.5 0.6 0 0 0.633333 0 0.5 0.633333 0
          0 0.666667 0 0.5 0.666667 0 0 0.7 0 0.5 0.7 0
          0 0.733333 0 0.5 0.733333 0 0 0.766667 0 0.5 0.766667 0
          0 0.8 0 0.5 0.8 0 0 0.833333 0 0.5 0.833333 0
          0 0.866667 0 0.5 0.866667 0 0 0.9 0 0.5 0.9 0
          0 0.933333 0 0.5 0.933333 0 0 0.966667 0 0.5 0.966667 0
          0 1 0 0.5 1 0
        </DataArray>
      </Points>
      <Cells>
        <DataArray type="Int32" Name="connectivity" NumberOfComponents="1" format="ascii">
          0 1 3 2 2 3 5 4 4 5 7 6
          6 7 9 8 8 9 11 10 10 11 13 12
          12 13 15 14 14 15 17 16 16 17 19 18
          18 19 21 20 20 21 23 22 22 23 25 24
          24 25 27 26 26 27 29 28 28 29 31 30
          30 31 33 32 32 33 35 34 34 35 37 36
          36 37 39 38 38 39 41 40 40 41 43 42
          42 43 45 44 44 45 47 46 46 47 49 48
          48 49 51 50 50 51 53 52 52 53 55 54
          54 55 57 56 56 57 59 58 58 59 61 60
        </DataArray>
        <DataArray type="Int32" Name="offsets" NumberOfComponents="1" format="ascii">
          4 8 12 16 20 24 28 32 36 40 44 48
          52 56 60 64 68 72 76 80 84 88 92 96
          100 104 108 112 116 120
        </DataArray>
        <DataArray type="UInt8" Name="types" NumberOfComponents="1" format="ascii">
          9 9 9 9 9 9 9 9 9 9 9 9
          9 9 9 9 9 9 9 9 9 9 9 9
          9 9 9 9 9 9
        </DataArray>
      </Cells>
    </Piece>
  </UnstructuredGrid>
</VTKFile>
