<?xml version="1.0"?>
<VTKFile type="UnstructuredGrid" version="0.1" byte_order="LittleEndian">
  <UnstructuredGrid>
    <Piece NumberOfCells="30" NumberOfPoints="62">
      <CellData Scalars="Sg">
        <DataArray type="Float32" Name="Sg" NumberOfComponents="1" format="ascii">
          0 0 0 0 0 0 0 0 0 0 0 0
          0 0 0 0 0 0 0 0 0 0 0 0
          0 0 0 0 0 0
        </DataArray>
        <DataArray type="Float32" Name="Sl" NumberOfComponents="1" format="ascii">
          1 1 1 1 1 1 1 1 1 1 1 1
          1 1 1 1 1 1 1 1 1 1 1 1
          1 1 1 1 1 1
        </DataArray>
        <DataArray type="Float32" Name="pg" NumberOfComponents="1" format="ascii">
          24687.8 24360.9 24034 23707 23380.1 23053.1 22726.2 22399.3 22072.3 21745.4 21418.4 21091.5
          20764.6 20437.6 20110.7 19783.7 19456.8 19129.8 18802.9 18476 18149 17822.1 17495.1 17168.2
          16841.3 16514.3 16187.4 15860.4 15533.5 15209.4
        </DataArray>
        <DataArray type="Float32" Name="pl" NumberOfComponents="1" format="ascii">
          110628 110301 109974 109647 109320 108993 108666 108339 108012 107685 107358 107031
          106704 106377 106050 105723 105396 105070 104743 104416 104089 103762 103435 103108
          102781 102454 102127 101800 101473 101149
        </DataArray>
        <DataArray type="Float32" Name="pc" NumberOfComponents="1" format="ascii">
          -85939.7 -85939.7 -85939.7 -85939.7 -85939.7 -85939.7 -85939.7 -85939.7 -85939.7 -85939.7 -85939.7 -85939.7
          -85939.7 -85939.7 -85939.7 -85939.7 -85939.7 -85939.7 -85939.7 -85939.7 -85939.7 -85939.7 -85939.7 -85939.7
          -85939.7 -85939.7 -85939.7 -85939.7 -85939.7 -85939.7
        </DataArray>
        <DataArray type="Float32" Name="rhoL" NumberOfComponents="1" format="ascii">
          999.855 999.855 999.855 999.855 999.855 999.854 999.854 999.854 999.854 999.854 999.854 999.854
          999.853 999.853 999.853 999.853 999.853 999.853 999.852 999.852 999.852 999.852 999.852 999.852
          999.852 999.851 999.851 999.851 999.851 999.851
        </DataArray>
        <DataArray type="Float32" Name="rhoG" NumberOfComponents="1" format="ascii">
          0.30585 0.3018 0.29775 0.293699 0.289649 0.285598 0.281548 0.277498 0.273447 0.269397 0.265347 0.261296
          0.257246 0.253195 0.249145 0.245095 0.241044 0.236994 0.232944 0.228893 0.224843 0.220793 0.216742 0.212692
          0.208641 0.204591 0.200541 0.19649 0.19244 0.188425
        </DataArray>
        <DataArray type="Float32" Name="mobL" NumberOfComponents="1" format="ascii">
          722.171 722.17 722.17 722.17 722.17 722.17 722.169 722.169 722.169 722.169 722.169 722.169
          722.168 722.168 722.168 722.168 722.168 722.167 722.167 722.167 722.167 722.167 722.166 722.166
          722.166 722.166 722.166 722.166 722.165 722.165
        </DataArray>
        <DataArray type="Float32" Name="mobG" NumberOfComponents="1" format="ascii">
          0 0 0 0 0 0 0 0 0 0 0 0
          0 0 0 0 0 0 0 0 0 0 0 0
          0 0 0 0 0 0
        </DataArray>
        <DataArray type="Float32" Name="porosity" NumberOfComponents="1" format="ascii">
          0.298789 0.298789 0.298789 0.298789 0.298789 0.298788 0.298787 0.298787 0.298785 0.298783 0.298781 0.298778
          0.298773 0.298767 0.298758 0.298747 0.298731 0.29871 0.298682 0.298643 0.298589 0.298514 0.298406 0.298246
          0.297723 0.297287 0.296421 0.294162 0.283405 0.0458503
        </DataArray>
        <DataArray type="Float32" Name="temperature" NumberOfComponents="1" format="ascii">
          281.15 281.15 281.15 281.15 281.15 281.15 281.15 281.15 281.15 281.15 281.15 281.15
          281.15 281.15 281.15 281.15 281.15 281.15 281.15 281.15 281.15 281.15 281.15 281.15
          281.15 281.15 281.15 281.15 281.15 281.15
        </DataArray>
        <DataArray type="Float32" Name="phase presence" NumberOfComponents="1" format="ascii">
          1 1 1 1 1 1 1 1 1 1 1 1
          1 1 1 1 1 1 1 1 1 1 1 1
          1 1 1 1 1 1
        </DataArray>
        <DataArray type="Float32" Name="precipitateVolumeFraction_au" NumberOfComponents="1" format="ascii">
          5.52709e-10 5.52793e-10 5.52825e-10 5.52756e-10 5.52807e-10 5.52752e-10 5.52774e-10 5.52788e-10 5.52819e-10 5.52795e-10 5.52765e-10 5.52728e-10
          5.52793e-10 5.5278e-10 5.52793e-10 5.52776e-10 5.52764e-10 5.52798e-10 5.52758e-10 5.52708e-10 5.52761e-10 5.5282e-10 5.53027e-10 1.18951e-09
          0.000269953 0.000269942 0.000269927 0.0002699 5.52508e-10 5.51465e-10
        </DataArray>
        <DataArray type="Float32" Name="precipitateVolumeFraction_nanoAu" NumberOfComponents="1" format="ascii">
          9.84109e-14 9.84259e-14 9.84315e-14 9.84191e-14 9.84281e-14 9.84183e-14 9.84221e-14 9.84246e-14 9.843e-14 9.84256e-14 9.842e-14 9.84132e-14
          9.84244e-14 9.84217e-14 9.84236e-14 9.84198e-14 9.84167e-14 9.84214e-14 9.84124e-14 9.84012e-14 9.84071e-14 9.84201e-14 1.04867e-13 1.70383e-11
          4.80492e-08 5.88062e-08 7.4355e-08 9.82414e-08 2.84083e-13 2.80022e-13
        </DataArray>
        <DataArray type="Float32" Name="precipitateVolumeFraction_d" NumberOfComponents="1" format="ascii">
          0.000605286 0.000605346 0.000605431 0.000605551 0.000605719 0.000605955 0.000606284 0.000606744 0.000607383 0.000608268 0.000609488 0.000611164
          0.000613457 0.000616582 0.000620827 0.000626579 0.000634358 0.000644884 0.000659159 0.00067863 0.000705455 0.00074301 0.000796903 0.000877173
          0.00100366 0.00122142 0.00165453 0.00278398 0.00829751 0.127075
        </DataArray>
        <DataArray type="Float32" Name="precipitateVolumeFraction_p" NumberOfComponents="1" format="ascii">
          0.000605286 0.000605346 0.000605431 0.000605551 0.000605719 0.000605955 0.000606284 0.000606744 0.000607383 0.000608268 0.000609488 0.000611164
          0.000613457 0.000616582 0.000620827 0.000626579 0.000634358 0.000644884 0.000659159 0.00067863 0.000705455 0.00074301 0.000796903 0.000877173
          0.00100366 0.00122142 0.00165453 0.00278398 0.00829751 0.127075
        </DataArray>
        <DataArray type="Float32" Name="K" NumberOfComponents="1" format="ascii">
          9.84535e-11 9.84533e-11 9.84531e-11 9.84528e-11 9.84524e-11 9.84518e-11 9.84509e-11 9.84498e-11 9.84482e-11 9.84459e-11 9.84428e-11 9.84386e-11
          9.84327e-11 9.84248e-11 9.8414e-11 9.83994e-11 9.83797e-11 9.8353e-11 9.83168e-11 9.82674e-11 9.81995e-11 9.81044e-11 9.7968e-11 9.77652e-11
          9.71071e-11 9.65617e-11 9.54846e-11 9.27219e-11 8.04465e-11 1.92144e-13
        </DataArray>
        <DataArray type="Float32" Name="X^w_H2O" NumberOfComponents="1" format="ascii">
          0.999851 0.999851 0.999851 0.999851 0.999851 0.999851 0.999851 0.999851 0.999851 0.999851 0.999851 0.999851
          0.999851 0.999851 0.999851 0.999851 0.999851 0.999851 0.999851 0.999851 0.999851 0.999851 0.999851 0.999851
          0.999851 0.99985 0.999848 0.999844 0.999839 0.99984
        </DataArray>
        <DataArray type="Float32" Name="X^w_Air" NumberOfComponents="1" format="ascii">
          0 0 0 0 0 0 0 0 0 0 0 0
          0 0 0 0 0 0 0 0 0 0 0 0
          0 0 0 0 0 0
        </DataArray>
        <DataArray type="Float32" Name="X^w_AuComplex" NumberOfComponents="1" format="ascii">
          1.55255e-16 1.55279e-16 1.55288e-16 1.55268e-16 1.55282e-16 1.55267e-16 1.55273e-16 1.55277e-16 1.55285e-16 1.55278e-16 1.55269e-16 1.55258e-16
          1.55275e-16 1.5527e-16 1.55273e-16 1.55266e-16 1.5526e-16 1.55265e-16 1.55249e-16 1.55228e-16 1.55233e-16 1.55245e-16 1.65253e-16 2.68589e-14
          7.57733e-11 1.09557e-10 1.6926e-10 2.86317e-10 1.1338e-15 1.10527e-15
        </DataArray>
        <DataArray type="Float32" Name="X^w_nanoAu" NumberOfComponents="1" format="ascii">
          4.2862e-19 4.28684e-19 4.28708e-19 4.28655e-19 4.28693e-19 4.28651e-19 4.28668e-19 4.28678e-19 4.28702e-19 4.28682e-19 4.28657e-19 4.28628e-19
          4.28676e-19 4.28664e-19 4.28671e-19 4.28653e-19 4.28639e-19 4.28657e-19 4.28615e-19 4.28595e-19 4.31527e-19 7.01296e-19 2.56868e-17 2.33764e-15
          2.09747e-13 2.5679e-13 3.24756e-13 4.22856e-13 1.23376e-18 1.18952e-18
        </DataArray>
        <DataArray type="Float32" Name="X^w_cyanide" NumberOfComponents="1" format="ascii">
          6.7396e-06 6.7396e-06 6.7396e-06 6.7396e-06 6.7396e-06 6.73959e-06 6.73959e-06 6.73958e-06 6.73958e-06 6.73957e-06 6.73956e-06 6.73955e-06
          6.73953e-06 6.7395e-06 6.73946e-06 6.73942e-06 6.73935e-06 6.73926e-06 6.73914e-06 6.73897e-06 6.73872e-06 6.73838e-06 6.73786e-06 6.73709e-06
          6.73628e-06 8.24412e-06 1.04232e-05 1.37869e-05 1.94632e-05 1.92377e-05
        </DataArray>
        <DataArray type="Float32" Name="X^w_citrate" NumberOfComponents="1" format="ascii">
          0.000141798 0.000141798 0.000141798 0.000141798 0.000141798 0.000141798 0.000141798 0.000141798 0.000141798 0.000141798 0.000141798 0.000141797
          0.000141797 0.000141797 0.000141797 0.000141796 0.000141796 0.000141795 0.000141794 0.000141793 0.000141791 0.000141789 0.000141785 0.00014178
          0.000141771 0.000141756 0.000141728 0.000141662 0.000141448 0.000139809
        </DataArray>
        <DataArray type="Float32" Name="X^w_substrate" NumberOfComponents="1" format="ascii">
          1.14156e-11 1.53192e-11 2.05564e-11 2.75827e-11 3.70095e-11 4.96572e-11 6.66283e-11 8.94042e-11 1.19979e-10 1.61038e-10 2.16211e-10 2.90411e-10
          3.90313e-10 5.2504e-10 7.0713e-10 9.53972e-10 1.28994e-09 1.74971e-09 2.38346e-09 3.26552e-09 4.50922e-09 6.29378e-09 8.91615e-09 1.2899e-08
          1.92389e-08 3.00543e-08 5.06076e-08 9.74713e-08 2.49267e-07 1.40461e-06
        </DataArray>
        <DataArray type="Float32" Name="m^w_H2O" NumberOfComponents="1" format="ascii">
          55492.5 55492.5 55492.4 55492.4 55492.4 55492.4 55492.4 55492.4 55492.4 55492.4 55492.4 55492.4
          55492.4 55492.4 55492.3 55492.3 55492.3 55492.3 55492.3 55492.3 55492.3 55492.3 55492.3 55492.3
          55492.3 55492.2 55492 55491.8 55491.5 55491.6
        </DataArray>
        <DataArray type="Float32" Name="m^w_Air" NumberOfComponents="1" format="ascii">
          0 0 0 0 0 0 0 0 0 0 0 0
          0 0 0 0 0 0 0 0 0 0 0 0
          0 0 0 0 0 0
        </DataArray>
        <DataArray type="Float32" Name="m^w_AuComplex" NumberOfComponents="1" format="ascii">
          7.88104e-13 7.88223e-13 7.88268e-13 7.88169e-13 7.8824e-13 7.88161e-13 7.88192e-13 7.88211e-13 7.88254e-13 7.88217e-13 7.88171e-13 7.88116e-13
          7.88204e-13 7.88179e-13 7.88191e-13 7.88156e-13 7.88125e-13 7.88153e-13 7.8807e-13 7.87963e-13 7.87988e-13 7.8805e-13 8.38849e-13 1.3634e-10
          3.84637e-07 5.56128e-07 8.5919e-07 1.45339e-06 5.75536e-12 5.61052e-12
        </DataArray>
        <DataArray type="Float32" Name="m^w_nanoAu" NumberOfComponents="1" format="ascii">
          2.17575e-15 2.17608e-15 2.1762e-15 2.17593e-15 2.17612e-15 2.17591e-15 2.17599e-15 2.17605e-15 2.17616e-15 2.17606e-15 2.17594e-15 2.17579e-15
          2.17603e-15 2.17597e-15 2.17601e-15 2.17592e-15 2.17584e-15 2.17593e-15 2.17572e-15 2.17562e-15 2.1905e-15 3.55989e-15 1.3039e-13 1.18662e-11
          1.06471e-09 1.30351e-09 1.64851e-09 2.14649e-09 6.26275e-15 6.03822e-15
        </DataArray>
        <DataArray type="Float32" Name="m^w_cyanide" NumberOfComponents="1" format="ascii">
          0.258979 0.258979 0.258979 0.258978 0.258978 0.258978 0.258978 0.258978 0.258978 0.258977 0.258977 0.258976
          0.258975 0.258974 0.258973 0.258971 0.258968 0.258965 0.25896 0.258954 0.258944 0.258931 0.258911 0.258881
          0.25885 0.316791 0.400526 0.529778 0.747896 0.739234
        </DataArray>
        <DataArray type="Float32" Name="m^w_citrate" NumberOfComponents="1" format="ascii">
          0.749752 0.749752 0.749751 0.749751 0.749751 0.749751 0.749751 0.74975 0.74975 0.749749 0.749749 0.749748
          0.749747 0.749746 0.749745 0.749743 0.74974 0.749737 0.749732 0.749725 0.749716 0.749702 0.749682 0.749652
          0.749605 0.749527 0.749377 0.749031 0.747898 0.739235
        </DataArray>
        <DataArray type="Float32" Name="m^w_substrate" NumberOfComponents="1" format="ascii">
          6.33546e-08 8.50188e-08 1.14084e-07 1.53079e-07 2.05396e-07 2.75588e-07 3.69774e-07 4.96176e-07 6.65859e-07 8.93732e-07 1.19993e-06 1.61172e-06
          2.16616e-06 2.91387e-06 3.92444e-06 5.29436e-06 7.15894e-06 9.71055e-06 1.32277e-05 1.8123e-05 2.50253e-05 3.49292e-05 4.94828e-05 7.1587e-05
          0.000106772 0.000166795 0.000280862 0.000540946 0.00138338 0.0077953
        </DataArray>
        <DataArray type="Float32" Name="process rank" NumberOfComponents="1" format="ascii">
          0 0 0 0 0 0 0 0 0 0 0 0
          0 0 0 0 0 0 0 0 0 0 0 0
          0 0 0 0 0 0
        </DataArray>
      </CellData>
      <Points>
        <DataArray type="Float32" Name="Coordinates" NumberOfComponents="3" format="ascii">
          0 0 0 0.5 0 0 0 0.0333333 0 0.5 0.0333333 0
          0 0.0666667 0 0.5 0.0666667 0 0 0.1 0 0.5 0.1 0
          0 0.133333 0 0.5 0.133333 0 0 0.166667 0 0.5 0.166667 0
          0 0.2 0 0.5 0.2 0 0 0.233333 0 0.5 0.233333 0
          0 0.266667 0 0.5 0.266667 0 0 0.3 0 0.5 0.3 0
          0 0.333333 0 0.5 0.333333 0 0 0.366667 0 0.5 0.366667 0
          0 0.4 0 0.5 0.4 0 0 0.433333 0 0.5 0.433333 0
          0 0.466667 0 0.5 0.466667 0 0 0.5 0 0.5 0.5 0
          0 0.533333 0 0.5 0.533333 0 0 0.566667 0 0.5 0.566667 0
          0 0.6 0 0.5 0.6 0 0 0.633333 0 0.5 0.633333 0
          0 0.666667 0 0.5 0.666667 0 0 0.7 0 0.5 0.7 0
          0 0.733333 0 0.5 0.733333 0 0 0.766667 0 0.5 0.766667 0
          0 0.8 0 0.5 0.8 0 0 0.833333 0 0.5 0.833333 0
          0 0.866667 0 0.5 0.866667 0 0 0.9 0 0.5 0.9 0
          0 0.933333 0 0.5 0.933333 0 0 0.966667 0 0.5 0.966667 0
          0 1 0 0.5 1 0
        </DataArray>
      </Points>
      <Cells>
        <DataArray type="Int32" Name="connectivity" NumberOfComponents="1" format="ascii">
          0 1 3 2 2 3 5 4 4 5 7 6
          6 7 9 8 8 9 11 10 10 11 13 12
          12 13 15 14 14 15 17 16 16 17 19 18
          18 19 21 20 20 21 23 22 22 23 25 24
          24 25 27 26 26 27 29 28 28 29 31 30
          30 31 33 32 32 33 35 34 34 35 37 36
          36 37 39 38 38 39 41 40 40 41 43 42
          42 43 45 44 44 45 47 46 46 47 49 48
          48 49 51 50 50 51 53 52 52 53 55 54
          54 55 57 56 56 57 59 58 58 59 61 60
        </DataArray>
        <DataArray type="Int32" Name="offsets" NumberOfComponents="1" format="ascii">
          4 8 12 16 20 24 28 32 36 40 44 48
          52 56 60 64 68 72 76 80 84 88 92 96
          100 104 108 112 116 120
        </DataArray>
        <DataArray type="UInt8" Name="types" NumberOfComponents="1" format="ascii">
          9 9 9 9 9 9 9 9 9 9 9 9
          9 9 9 9 9 9 9 9 9 9 9 9
          9 9 9 9 9 9
        </DataArray>
      </Cells>
    </Piece>
  </UnstructuredGrid>
</VTKFile>
