<?xml version="1.0"?>
<VTKFile type="UnstructuredGrid" version="0.1" byte_order="LittleEndian">
  <UnstructuredGrid>
    <Piece NumberOfCells="30" NumberOfPoints="62">
      <CellData Scalars="Sg">
        <DataArray type="Float32" Name="Sg" NumberOfComponents="1" format="ascii">
          0.0886222 0.0883607 0.08732 0.0826986 0.0626872 0 0 0 0 0 0 0
          0 0 0 0 0 0 0 0 0 0 0 0
          0 0 0 0 0 0
        </DataArray>
        <DataArray type="Float32" Name="Sl" NumberOfComponents="1" format="ascii">
          0.911378 0.911639 0.91268 0.917301 0.937313 1 1 1 1 1 1 1
          1 1 1 1 1 1 1 1 1 1 1 1
          1 1 1 1 1 1
        </DataArray>
        <DataArray type="Float32" Name="pg" NumberOfComponents="1" format="ascii">
          50075.1 49673.2 49048.1 47397.3 41337.8 23053.1 22726.2 22399.3 22072.3 21745.4 21418.4 21091.5
          20764.6 20437.6 20110.7 19783.7 19456.8 19129.9 18802.9 18476 18149 17822.1 17495.1 17168.2
          16841.3 16514.3 16187.4 15860.4 15533.5 15206.6
        </DataArray>
        <DataArray type="Float32" Name="pl" NumberOfComponents="1" format="ascii">
          110628 110301 109974 109647 109320 108993 108666 108339 108012 107685 107358 107031
          106704 106377 106050 105723 105396 105070 104743 104416 104089 103762 103435 103108
          102781 102454 102127 101800 101473 101146
        </DataArray>
        <DataArray type="Float32" Name="pc" NumberOfComponents="1" format="ascii">
          -60552.5 -60627.4 -60925.5 -62249.4 -67982 -85939.7 -85939.7 -85939.7 -85939.7 -85939.7 -85939.7 -85939.7
          -85939.7 -85939.7 -85939.7 -85939.7 -85939.7 -85939.7 -85939.7 -85939.7 -85939.7 -85939.7 -85939.7 -85939.7
          -85939.7 -85939.7 -85939.7 -85939.7 -85939.7 -85939.7
        </DataArray>
        <DataArray type="Float32" Name="rhoL" NumberOfComponents="1" format="ascii">
          999.855 999.855 999.855 999.855 999.855 999.854 999.854 999.854 999.854 999.854 999.854 999.854
          999.853 999.853 999.853 999.853 999.853 999.853 999.852 999.852 999.852 999.852 999.852 999.852
          999.852 999.851 999.851 999.851 999.851 999.851
        </DataArray>
        <DataArray type="Float32" Name="rhoG" NumberOfComponents="1" format="ascii">
          0.620365 0.615387 0.607643 0.587191 0.512122 0.285598 0.281548 0.277498 0.273447 0.269397 0.265347 0.261296
          0.257246 0.253195 0.249145 0.245095 0.241044 0.236994 0.232944 0.228893 0.224843 0.220793 0.216742 0.212692
          0.208641 0.204591 0.200541 0.19649 0.19244 0.18839
        </DataArray>
        <DataArray type="Float32" Name="mobL" NumberOfComponents="1" format="ascii">
          722.171 722.17 722.17 722.17 722.17 722.17 722.169 722.169 722.169 722.169 722.169 722.169
          722.168 722.168 722.168 722.168 722.168 722.167 722.167 722.167 722.167 722.167 722.166 722.166
          722.166 722.166 722.166 722.166 722.165 722.165
        </DataArray>
        <DataArray type="Float32" Name="mobG" NumberOfComponents="1" format="ascii">
          0 0 0 0 0 0 0 0 0 0 0 0
          0 0 0 0 0 0 0 0 0 0 0 0
          0 0 0 0 0 0
        </DataArray>
        <DataArray type="Float32" Name="porosity" NumberOfComponents="1" format="ascii">
          0.298531 0.298531 0.298531 0.29853 0.29853 0.298529 0.298529 0.298528 0.298526 0.298524 0.298521 0.298517
          0.298512 0.298504 0.298494 0.298481 0.298463 0.298438 0.298405 0.29836 0.298298 0.298213 0.298092 0.297914
          0.29737 0.296915 0.296063 0.294083 0.287009 0.168682
        </DataArray>
        <DataArray type="Float32" Name="temperature" NumberOfComponents="1" format="ascii">
          281.15 281.15 281.15 281.15 281.15 281.15 281.15 281.15 281.15 281.15 281.15 281.15
          281.15 281.15 281.15 281.15 281.15 281.15 281.15 281.15 281.15 281.15 281.15 281.15
          281.15 281.15 281.15 281.15 281.15 281.15
        </DataArray>
        <DataArray type="Float32" Name="phase presence" NumberOfComponents="1" format="ascii">
          3 3 3 3 3 1 1 1 1 1 1 1
          1 1 1 1 1 1 1 1 1 1 1 1
          1 1 1 1 1 1
        </DataArray>
        <DataArray type="Float32" Name="precipitateVolumeFraction_au" NumberOfComponents="1" format="ascii">
          5.52663e-10 5.52659e-10 5.52658e-10 5.52659e-10 5.52659e-10 5.52658e-10 5.52656e-10 5.52663e-10 5.52685e-10 5.52671e-10 5.52647e-10 5.52615e-10
          5.52671e-10 5.52659e-10 5.52672e-10 5.52656e-10 5.52644e-10 5.52677e-10 5.52638e-10 5.52589e-10 5.52641e-10 5.52699e-10 5.52712e-10 6.78248e-10
          0.000269952 0.000269942 0.000269926 0.000269902 5.52391e-10 5.51359e-10
        </DataArray>
        <DataArray type="Float32" Name="precipitateVolumeFraction_nanoAu" NumberOfComponents="1" format="ascii">
          2.1889e-13 2.18987e-13 2.19177e-13 2.18963e-13 2.18762e-13 1.93414e-13 2.16062e-13 2.2341e-13 2.33235e-13 2.2214e-13 2.16223e-13 2.11207e-13
          2.20172e-13 2.18719e-13 2.19499e-13 2.1848e-13 2.18209e-13 2.18961e-13 2.18237e-13 2.17734e-13 2.1833e-13 2.18652e-13 2.24943e-13 1.72529e-11
          4.82076e-08 5.89639e-08 7.44729e-08 9.81877e-08 4.01793e-13 3.93195e-13
        </DataArray>
        <DataArray type="Float32" Name="precipitateVolumeFraction_d" NumberOfComponents="1" format="ascii">
          0.000734532 0.000734602 0.000734702 0.000734842 0.000735039 0.000735316 0.000735704 0.000736244 0.000736996 0.000738038 0.000739474 0.000741447
          0.000744144 0.000747816 0.000752798 0.000759536 0.000768631 0.000780898 0.000797472 0.000819967 0.000850759 0.000893504 0.00095415 0.00104306
          0.00117997 0.00140749 0.00183369 0.00282357 0.0064953 0.0656589
        </DataArray>
        <DataArray type="Float32" Name="precipitateVolumeFraction_p" NumberOfComponents="1" format="ascii">
          0.000734532 0.000734602 0.000734702 0.000734842 0.000735039 0.000735316 0.000735704 0.000736244 0.000736996 0.000738038 0.000739474 0.000741447
          0.000744144 0.000747816 0.000752798 0.000759536 0.000768631 0.000780898 0.000797472 0.000819967 0.000850759 0.000893504 0.00095415 0.00104306
          0.00117997 0.00140749 0.00183369 0.00282357 0.0064953 0.0656589
        </DataArray>
        <DataArray type="Float32" Name="K" NumberOfComponents="1" format="ascii">
          9.81258e-11 9.81256e-11 9.81254e-11 9.8125e-11 9.81245e-11 9.81238e-11 9.81229e-11 9.81215e-11 9.81196e-11 9.81169e-11 9.81133e-11 9.81083e-11
          9.81015e-11 9.80922e-11 9.80796e-11 9.80625e-11 9.80395e-11 9.80085e-11 9.79666e-11 9.79097e-11 9.78319e-11 9.7724e-11 9.75711e-11 9.73473e-11
          9.66653e-11 9.60977e-11 9.50419e-11 9.26262e-11 8.44021e-11 1.26039e-11
        </DataArray>
        <DataArray type="Float32" Name="X^w_H2O" NumberOfComponents="1" format="ascii">
          0.999836 0.999836 0.999837 0.999837 0.999839 0.999846 0.999851 0.999851 0.999851 0.999851 0.999851 0.999851
          0.999851 0.999851 0.999851 0.999851 0.999851 0.999851 0.999851 0.999851 0.999851 0.999851 0.999851 0.999851
          0.999851 0.99985 0.999848 0.999844 0.999839 0.99984
        </DataArray>
        <DataArray type="Float32" Name="X^w_Air" NumberOfComponents="1" format="ascii">
          1.51894e-05 1.50648e-05 1.4871e-05 1.43593e-05 1.2481e-05 5.74899e-06 9.5888e-08 1.57054e-09 2.52913e-11 4.00638e-13 6.22567e-15 9.48976e-17
          1.4233e-18 2.09229e-20 3.02263e-22 4.27571e-24 5.93235e-26 8.07438e-28 1.0748e-29 1.3976e-31 1.77215e-33 2.18113e-35 2.57872e-37 0
          0 0 0 0 0 0
        </DataArray>
        <DataArray type="Float32" Name="X^w_AuComplex" NumberOfComponents="1" format="ascii">
          -3.76227e-16 2.18106e-16 1.25902e-15 4.854e-16 3.25076e-16 -7.45422e-17 3.06842e-16 3.16263e-16 3.2886e-16 3.14611e-16 3.07007e-16 3.00559e-16
          3.12054e-16 3.10177e-16 3.11167e-16 3.09846e-16 3.09483e-16 3.10432e-16 3.09483e-16 3.08812e-16 3.09548e-16 3.09924e-16 3.19722e-16 2.72164e-14
          7.61818e-11 1.10044e-10 1.69723e-10 2.8613e-10 1.56299e-15 1.49811e-15
        </DataArray>
        <DataArray type="Float32" Name="X^w_nanoAu" NumberOfComponents="1" format="ascii">
          -3.76227e-16 1.43181e-15 4.53176e-17 4.854e-16 -8.88629e-16 -5.44134e-14 9.41777e-19 9.73912e-19 1.01575e-18 9.67634e-19 9.41894e-19 9.20682e-19
          9.59266e-19 9.53036e-19 9.56349e-19 9.51941e-19 9.50802e-19 9.54002e-19 9.5085e-19 9.48726e-19 9.54248e-19 1.22894e-18 2.64627e-17 2.35342e-15
          2.10396e-13 2.57388e-13 3.25053e-13 4.22045e-13 1.73904e-18 1.64825e-18
        </DataArray>
        <DataArray type="Float32" Name="X^w_cyanide" NumberOfComponents="1" format="ascii">
          6.76669e-06 6.7665e-06 6.7663e-06 6.7661e-06 6.76591e-06 6.76576e-06 6.76558e-06 6.76536e-06 6.76514e-06 6.76491e-06 6.76468e-06 6.76445e-06
          6.76421e-06 6.76396e-06 6.76369e-06 6.76341e-06 6.76309e-06 6.76274e-06 6.76231e-06 6.7618e-06 6.76114e-06 6.76025e-06 6.75899e-06 6.75712e-06
          6.75457e-06 8.2622e-06 1.04374e-05 1.37847e-05 1.93964e-05 1.89816e-05
        </DataArray>
        <DataArray type="Float32" Name="X^w_citrate" NumberOfComponents="1" format="ascii">
          0.000141796 0.000141796 0.000141796 0.000141796 0.000141796 0.000141797 0.000141798 0.000141798 0.000141798 0.000141798 0.000141798 0.000141797
          0.000141797 0.000141797 0.000141797 0.000141796 0.000141795 0.000141794 0.000141793 0.000141791 0.000141787 0.000141782 0.000141775 0.000141763
          0.000141742 0.000141707 0.000141637 0.000141473 0.000140963 0.000137948
        </DataArray>
        <DataArray type="Float32" Name="X^w_substrate" NumberOfComponents="1" format="ascii">
          7.63175e-12 1.07517e-11 1.51399e-11 2.13037e-11 2.98437e-11 4.10998e-11 5.93483e-11 8.31483e-11 1.16526e-10 1.63351e-10 2.29087e-10 3.21461e-10
          4.51435e-10 6.34637e-10 8.93481e-10 1.26037e-09 1.78264e-09 2.53035e-09 3.60895e-09 5.18062e-09 7.50161e-09 1.09911e-08 1.63654e-08 2.49206e-08
          3.91824e-08 6.45946e-08 1.14673e-07 2.30777e-07 5.91385e-07 2.71731e-06
        </DataArray>
        <DataArray type="Float32" Name="m^w_H2O" NumberOfComponents="1" format="ascii">
          55491.6 55491.6 55491.6 55491.6 55491.7 55492.1 55492.4 55492.4 55492.4 55492.4 55492.4 55492.4
          55492.4 55492.4 55492.3 55492.3 55492.3 55492.3 55492.3 55492.3 55492.3 55492.3 55492.3 55492.3
          55492.3 55492.2 55492 55491.8 55491.5 55491.6
        </DataArray>
        <DataArray type="Float32" Name="m^w_Air" NumberOfComponents="1" format="ascii">
          0.524418 0.520118 0.513428 0.495761 0.430913 0.198486 0.00331057 5.42236e-05 8.73191e-07 1.38322e-08 2.14943e-10 3.27637e-12
          4.91398e-14 7.22369e-16 1.04357e-17 1.4762e-19 2.04816e-21 2.7877e-23 3.71077e-25 4.82526e-27 6.11839e-29 7.5304e-31 8.90309e-33 9.92745e-35
          1.00493e-36 0 0 0 0 0
        </DataArray>
        <DataArray type="Float32" Name="m^w_AuComplex" NumberOfComponents="1" format="ascii">
          -1.90979e-12 1.10714e-12 6.39102e-12 2.46398e-12 1.65014e-12 -3.78389e-13 1.55759e-12 1.60541e-12 1.66935e-12 1.59702e-12 1.55842e-12 1.52569e-12
          1.58404e-12 1.57451e-12 1.57953e-12 1.57283e-12 1.57099e-12 1.57581e-12 1.57099e-12 1.56758e-12 1.57132e-12 1.57322e-12 1.62296e-12 1.38155e-10
          3.86711e-07 5.58602e-07 8.61539e-07 1.45244e-06 7.93397e-12 7.60467e-12
        </DataArray>
        <DataArray type="Float32" Name="m^w_nanoAu" NumberOfComponents="1" format="ascii">
          -1.90979e-12 7.26812e-12 2.3004e-13 2.46398e-12 -4.51084e-12 -2.76212e-10 4.78063e-15 4.94375e-15 5.15612e-15 4.91188e-15 4.78122e-15 4.67354e-15
          4.8694e-15 4.83777e-15 4.85459e-15 4.83221e-15 4.82643e-15 4.84267e-15 4.82667e-15 4.81589e-15 4.84392e-15 6.23832e-15 1.34329e-13 1.19463e-11
          1.068e-09 1.30654e-09 1.65002e-09 2.14237e-09 8.82765e-15 8.36676e-15
        </DataArray>
        <DataArray type="Float32" Name="m^w_cyanide" NumberOfComponents="1" format="ascii">
          0.26002 0.260012 0.260004 0.259997 0.25999 0.259984 0.259977 0.259968 0.25996 0.259951 0.259942 0.259933
          0.259924 0.259914 0.259904 0.259893 0.259881 0.259867 0.259851 0.259831 0.259805 0.259771 0.259723 0.259651
          0.259553 0.317486 0.40107 0.529692 0.74533 0.72939
        </DataArray>
        <DataArray type="Float32" Name="m^w_citrate" NumberOfComponents="1" format="ascii">
          0.74974 0.74974 0.74974 0.74974 0.749742 0.749747 0.749751 0.74975 0.74975 0.74975 0.749749 0.749748
          0.749747 0.749746 0.749743 0.749741 0.749737 0.749731 0.749723 0.749711 0.749693 0.749667 0.749627 0.749562
          0.749455 0.749268 0.748897 0.748031 0.745333 0.729392
        </DataArray>
        <DataArray type="Float32" Name="m^w_substrate" NumberOfComponents="1" format="ascii">
          4.23548e-08 5.96702e-08 8.40236e-08 1.18232e-07 1.65627e-07 2.28096e-07 3.29372e-07 4.61458e-07 6.46696e-07 9.06567e-07 1.27139e-06 1.78405e-06
          2.50538e-06 3.52211e-06 4.95865e-06 6.99482e-06 9.89333e-06 1.4043e-05 2.0029e-05 2.87514e-05 4.16325e-05 6.09984e-05 9.08249e-05 0.000138304
          0.000217454 0.000358487 0.000636412 0.00128076 0.00328207 0.0150805
        </DataArray>
        <DataArray type="Float32" Name="process rank" NumberOfComponents="1" format="ascii">
          0 0 0 0 0 0 0 0 0 0 0 0
          0 0 0 0 0 0 0 0 0 0 0 0
          0 0 0 0 0 0
        </DataArray>
      </CellData>
      <Points>
        <DataArray type="Float32" Name="Coordinates" NumberOfComponents="3" format="ascii">
          0 0 0 0.5 0 0 0 0.0333333 0 0.5 0.0333333 0
          0 0.0666667 0 0.5 0.0666667 0 0 0.1 0 0.5 0.1 0
          0 0.133333 0 0.5 0.133333 0 0 0.166667 0 0.5 0.166667 0
          0 0.2 0 0.5 0.2 0 0 0.233333 0 0.5 0.233333 0
          0 0.266667 0 0.5 0.266667 0 0 0.3 0 0.5 0.3 0
          0 0.333333 0 0.5 0.333333 0 0 0.366667 0 0.5 0.366667 0
          0 0.4 0 0.5 0.4 0 0 0.433333 0 0.5 0.433333 0
          0 0.466667 0 0.5 0.466667 0 0 0.5 0 0.5 0.5 0
          0 0.533333 0 0.5 0.533333 0 0 0.566667 0 0.5 0.566667 0
          0 0.6 0 0.5 0.6 0 0 0.633333 0 0.5 0.633333 0
          0 0.666667 0 0.5 0.666667 0 0 0.7 0 0.5 0.7 0
          0 0.733333 0 0.5 0.733333 0 0 0.766667 0 0.5 0.766667 0
          0 0.8 0 0.5 0.8 0 0 0.833333 0 0.5 0.833333 0
          0 0.866667 0 0.5 0.866667 0 0 0.9 0 0.5 0.9 0
          0 0.933333 0 0.5 0.933333 0 0 0.966667 0 0.5 0.966667 0
          0 1 0 0.5 1 0
        </DataArray>
      </Points>
      <Cells>
        <DataArray type="Int32" Name="connectivity" NumberOfComponents="1" format="ascii">
          0 1 3 2 2 3 5 4 4 5 7 6
          6 7 9 8 8 9 11 10 10 11 13 12
          12 13 15 14 14 15 17 16 16 17 19 18
          18 19 21 20 20 21 23 22 22 23 25 24
          24 25 27 26 26 27 29 28 28 29 31 30
          30 31 33 32 32 33 35 34 34 35 37 36
          36 37 39 38 38 39 41 40 40 41 43 42
          42 43 45 44 44 45 47 46 46 47 49 48
          48 49 51 50 50 51 53 52 52 53 55 54
          54 55 57 56 56 57 59 58 58 59 61 60
        </DataArray>
        <DataArray type="Int32" Name="offsets" NumberOfComponents="1" format="ascii">
          4 8 12 16 20 24 28 32 36 40 44 48
          52 56 60 64 68 72 76 80 84 88 92 96
          100 104 108 112 116 120
        </DataArray>
        <DataArray type="UInt8" Name="types" NumberOfComponents="1" format="ascii">
          9 9 9 9 9 9 9 9 9 9 9 9
          9 9 9 9 9 9 9 9 9 9 9 9
          9 9 9 9 9 9
        </DataArray>
      </Cells>
    </Piece>
  </UnstructuredGrid>
</VTKFile>
