<?xml version="1.0"?>
<VTKFile type="UnstructuredGrid" version="0.1" byte_order="LittleEndian">
  <UnstructuredGrid>
    <Piece NumberOfCells="30" NumberOfPoints="62">
      <CellData Scalars="Sg">
        <DataArray type="Float32" Name="Sg" NumberOfComponents="1" format="ascii">
          0 0 0 0 0 0 0 0 0 0 0 0
          0 0 0 0 0 0 0 0 0 0 0 0
          0 0 0 0 0 0
        </DataArray>
        <DataArray type="Float32" Name="Sl" NumberOfComponents="1" format="ascii">
          1 1 1 1 1 1 1 1 1 1 1 1
          1 1 1 1 1 1 1 1 1 1 1 1
          1 1 1 1 1 1
        </DataArray>
        <DataArray type="Float32" Name="pg" NumberOfComponents="1" format="ascii">
          24687.8 24360.9 24034 23707 23380.1 23053.1 22726.2 22399.3 22072.3 21745.4 21418.4 21091.5
          20764.6 20437.6 20110.7 19783.7 19456.8 19129.8 18802.9 18476 18149 17822.1 17495.1 17168.2
          16841.3 16514.3 16187.4 15860.4 15533.5 15209.6
        </DataArray>
        <DataArray type="Float32" Name="pl" NumberOfComponents="1" format="ascii">
          110628 110301 109974 109647 109320 108993 108666 108339 108012 107685 107358 107031
          106704 106377 106050 105723 105396 105070 104743 104416 104089 103762 103435 103108
          102781 102454 102127 101800 101473 101149
        </DataArray>
        <DataArray type="Float32" Name="pc" NumberOfComponents="1" format="ascii">
          -85939.7 -85939.7 -85939.7 -85939.7 -85939.7 -85939.7 -85939.7 -85939.7 -85939.7 -85939.7 -85939.7 -85939.7
          -85939.7 -85939.7 -85939.7 -85939.7 -85939.7 -85939.7 -85939.7 -85939.7 -85939.7 -85939.7 -85939.7 -85939.7
          -85939.7 -85939.7 -85939.7 -85939.7 -85939.7 -85939.7
        </DataArray>
        <DataArray type="Float32" Name="rhoL" NumberOfComponents="1" format="ascii">
          999.855 999.855 999.855 999.855 999.855 999.854 999.854 999.854 999.854 999.854 999.854 999.854
          999.853 999.853 999.853 999.853 999.853 999.853 999.852 999.852 999.852 999.852 999.852 999.852
          999.852 999.851 999.851 999.851 999.851 999.851
        </DataArray>
        <DataArray type="Float32" Name="rhoG" NumberOfComponents="1" format="ascii">
          0.30585 0.3018 0.29775 0.293699 0.289649 0.285598 0.281548 0.277498 0.273447 0.269397 0.265347 0.261296
          0.257246 0.253195 0.249145 0.245095 0.241044 0.236994 0.232944 0.228893 0.224843 0.220793 0.216742 0.212692
          0.208641 0.204591 0.200541 0.19649 0.19244 0.188427
        </DataArray>
        <DataArray type="Float32" Name="mobL" NumberOfComponents="1" format="ascii">
          722.171 722.17 722.17 722.17 722.17 722.17 722.169 722.169 722.169 722.169 722.169 722.169
          722.168 722.168 722.168 722.168 722.168 722.167 722.167 722.167 722.167 722.167 722.166 722.166
          722.166 722.166 722.166 722.166 722.165 722.165
        </DataArray>
        <DataArray type="Float32" Name="mobG" NumberOfComponents="1" format="ascii">
          0 0 0 0 0 0 0 0 0 0 0 0
          0 0 0 0 0 0 0 0 0 0 0 0
          0 0 0 0 0 0
        </DataArray>
        <DataArray type="Float32" Name="porosity" NumberOfComponents="1" format="ascii">
          0.298844 0.298843 0.298843 0.298843 0.298843 0.298842 0.298842 0.298841 0.29884 0.298838 0.298835 0.298832
          0.298828 0.298822 0.298814 0.298802 0.298787 0.298767 0.29874 0.298702 0.29865 0.298577 0.298473 0.298317
          0.2978 0.297372 0.296514 0.294237 0.28296 0.0449183
        </DataArray>
        <DataArray type="Float32" Name="temperature" NumberOfComponents="1" format="ascii">
          281.15 281.15 281.15 281.15 281.15 281.15 281.15 281.15 281.15 281.15 281.15 281.15
          281.15 281.15 281.15 281.15 281.15 281.15 281.15 281.15 281.15 281.15 281.15 281.15
          281.15 281.15 281.15 281.15 281.15 281.15
        </DataArray>
        <DataArray type="Float32" Name="phase presence" NumberOfComponents="1" format="ascii">
          1 1 1 1 1 1 1 1 1 1 1 1
          1 1 1 1 1 1 1 1 1 1 1 1
          1 1 1 1 1 1
        </DataArray>
        <DataArray type="Float32" Name="precipitateVolumeFraction_au" NumberOfComponents="1" format="ascii">
          2.60974e-10 2.61019e-10 2.6102e-10 2.61025e-10 2.6104e-10 2.61032e-10 2.61018e-10 2.6102e-10 2.61017e-10 2.61029e-10 2.61027e-10 2.61038e-10
          2.61041e-10 2.6104e-10 2.61034e-10 2.61039e-10 2.61025e-10 2.61009e-10 2.61038e-10 2.61034e-10 2.60997e-10 2.61033e-10 2.61061e-10 3.46983e-10
          0.000269809 0.000269711 0.000269489 0.00026881 2.58148e-10 2.54098e-10
        </DataArray>
        <DataArray type="Float32" Name="precipitateVolumeFraction_nanoAu" NumberOfComponents="1" format="ascii">
          2.91752e-10 2.91822e-10 2.91822e-10 2.91829e-10 2.9185e-10 2.91837e-10 2.91816e-10 2.91819e-10 2.91813e-10 2.9183e-10 2.91826e-10 2.9184e-10
          2.91843e-10 2.91842e-10 2.91833e-10 2.91838e-10 2.9182e-10 2.91798e-10 2.91835e-10 2.91829e-10 2.91782e-10 2.91827e-10 2.91956e-10 4.65156e-10
          1.91368e-07 2.9084e-07 5.17661e-07 1.18313e-06 2.9404e-10 2.83736e-10
        </DataArray>
        <DataArray type="Float32" Name="precipitateVolumeFraction_d" NumberOfComponents="1" format="ascii">
          0.000578219 0.000578278 0.00057836 0.000578476 0.000578639 0.000578867 0.000579186 0.00057963 0.000580248 0.000581102 0.00058228 0.000583897
          0.000586109 0.000589123 0.000593218 0.000598766 0.000606272 0.000616432 0.000630217 0.000649034 0.000674982 0.000711357 0.000763652 0.000841737
          0.000965222 0.001179 0.00160812 0.00274672 0.00851985 0.127541
        </DataArray>
        <DataArray type="Float32" Name="precipitateVolumeFraction_p" NumberOfComponents="1" format="ascii">
          0.000578219 0.000578278 0.00057836 0.000578476 0.000578639 0.000578867 0.000579186 0.00057963 0.000580248 0.000581102 0.00058228 0.000583897
          0.000586109 0.000589123 0.000593218 0.000598766 0.000606272 0.000616432 0.000630217 0.000649034 0.000674982 0.000711357 0.000763652 0.000841737
          0.000965222 0.001179 0.00160812 0.00274672 0.00851985 0.127541
        </DataArray>
        <DataArray type="Float32" Name="K" NumberOfComponents="1" format="ascii">
          9.85222e-11 9.85221e-11 9.85219e-11 9.85216e-11 9.85211e-11 9.85206e-11 9.85198e-11 9.85186e-11 9.85171e-11 9.85149e-11 9.85119e-11 9.85078e-11
          9.85022e-11 9.84945e-11 9.84841e-11 9.847e-11 9.8451e-11 9.84252e-11 9.83902e-11 9.83425e-11 9.82767e-11 9.81845e-11 9.80521e-11 9.78547e-11
          9.72036e-11 9.66678e-11 9.55995e-11 9.2812e-11 7.99691e-11 1.80311e-13
        </DataArray>
        <DataArray type="Float32" Name="X^w_H2O" NumberOfComponents="1" format="ascii">
          0.999858 0.999858 0.999858 0.999858 0.999858 0.999858 0.999858 0.999858 0.999858 0.999858 0.999858 0.999858
          0.999858 0.999858 0.999858 0.999858 0.999858 0.999858 0.999858 0.999858 0.999858 0.999858 0.999858 0.999858
          0.999858 0.999858 0.999857 0.999855 0.999839 0.99984
        </DataArray>
        <DataArray type="Float32" Name="X^w_Air" NumberOfComponents="1" format="ascii">
          0 0 0 0 0 0 0 0 0 0 0 0
          0 0 0 0 0 0 0 0 0 0 0 0
          0 0 0 0 0 0
        </DataArray>
        <DataArray type="Float32" Name="X^w_AuComplex" NumberOfComponents="1" format="ascii">
          1.7313e-14 1.73282e-14 1.73393e-14 1.73507e-14 1.73631e-14 1.73733e-14 1.73831e-14 1.73941e-14 1.74047e-14 1.74165e-14 1.74269e-14 1.74381e-14
          1.74484e-14 1.74581e-14 1.74668e-14 1.74756e-14 1.74819e-14 1.74867e-14 1.74931e-14 1.74942e-14 1.74889e-14 1.74831e-14 1.74742e-14 2.85869e-14
          1.20734e-11 3.16631e-11 1.18346e-10 7.99064e-10 1.08332e-12 1.03399e-12
        </DataArray>
        <DataArray type="Float32" Name="X^w_nanoAu" NumberOfComponents="1" format="ascii">
          1.2704e-15 1.2707e-15 1.2707e-15 1.27073e-15 1.27082e-15 1.27076e-15 1.27067e-15 1.27068e-15 1.27066e-15 1.27073e-15 1.27071e-15 1.27077e-15
          1.27078e-15 1.27078e-15 1.27074e-15 1.27075e-15 1.27067e-15 1.27057e-15 1.27072e-15 1.27068e-15 1.27048e-15 1.27178e-15 1.3767e-15 1.10482e-14
          8.37904e-13 1.27704e-12 2.28371e-12 5.09187e-12 1.27681e-15 1.20537e-15
        </DataArray>
        <DataArray type="Float32" Name="X^w_cyanide" NumberOfComponents="1" format="ascii">
          3.12819e-07 3.13019e-07 3.13219e-07 3.13418e-07 3.13618e-07 3.13817e-07 3.14016e-07 3.14214e-07 3.1441e-07 3.14605e-07 3.14797e-07 3.14985e-07
          3.15168e-07 3.15344e-07 3.1551e-07 3.15663e-07 3.15798e-07 3.15908e-07 3.15984e-07 3.1601e-07 3.15964e-07 3.15813e-07 3.15499e-07 3.14924e-07
          3.14105e-07 5.52469e-07 1.17917e-06 3.52728e-06 1.94222e-05 1.92181e-05
        </DataArray>
        <DataArray type="Float32" Name="X^w_citrate" NumberOfComponents="1" format="ascii">
          0.000141763 0.000141762 0.000141762 0.000141762 0.000141762 0.000141762 0.000141762 0.000141762 0.000141762 0.000141762 0.000141762 0.000141762
          0.000141762 0.000141762 0.000141761 0.000141761 0.00014176 0.00014176 0.000141759 0.000141757 0.000141755 0.000141753 0.000141749 0.000141743
          0.000141734 0.000141723 0.0001417 0.000141645 0.000141457 0.000139817
        </DataArray>
        <DataArray type="Float32" Name="X^w_substrate" NumberOfComponents="1" format="ascii">
          1.54837e-11 2.05435e-11 2.72551e-11 3.61578e-11 4.79668e-11 6.36318e-11 8.44138e-11 1.11989e-10 1.48588e-10 1.97183e-10 2.61743e-10 3.47585e-10
          4.61858e-10 6.1422e-10 8.17814e-10 1.09068e-09 1.45785e-09 1.9546e-09 2.6315e-09 3.56285e-09 4.86094e-09 6.70204e-09 9.37615e-09 1.33906e-08
          1.97074e-08 3.03637e-08 5.04105e-08 9.57877e-08 2.42978e-07 1.39948e-06
        </DataArray>
        <DataArray type="Float32" Name="m^w_H2O" NumberOfComponents="1" format="ascii">
          55492.8 55492.8 55492.8 55492.8 55492.8 55492.8 55492.8 55492.8 55492.8 55492.7 55492.7 55492.7
          55492.7 55492.7 55492.7 55492.7 55492.7 55492.7 55492.7 55492.7 55492.6 55492.6 55492.6 55492.6
          55492.6 55492.6 55492.5 55492.4 55491.5 55491.6
        </DataArray>
        <DataArray type="Float32" Name="m^w_Air" NumberOfComponents="1" format="ascii">
          0 0 0 0 0 0 0 0 0 0 0 0
          0 0 0 0 0 0 0 0 0 0 0 0
          0 0 0 0 0 0
        </DataArray>
        <DataArray type="Float32" Name="m^w_AuComplex" NumberOfComponents="1" format="ascii">
          8.7884e-11 8.79611e-11 8.80173e-11 8.80754e-11 8.81379e-11 8.819e-11 8.82394e-11 8.82957e-11 8.83494e-11 8.84092e-11 8.84617e-11 8.85189e-11
          8.85712e-11 8.86202e-11 8.86643e-11 8.87088e-11 8.87411e-11 8.87656e-11 8.8798e-11 8.88034e-11 8.87763e-11 8.87473e-11 8.8702e-11 1.45112e-10
          6.12866e-08 1.60727e-07 6.00744e-07 4.05617e-06 5.49913e-09 5.24867e-09
        </DataArray>
        <DataArray type="Float32" Name="m^w_nanoAu" NumberOfComponents="1" format="ascii">
          6.44877e-12 6.45029e-12 6.4503e-12 6.45045e-12 6.45091e-12 6.45062e-12 6.45015e-12 6.4502e-12 6.45009e-12 6.45046e-12 6.45036e-12 6.45066e-12
          6.45072e-12 6.45067e-12 6.45047e-12 6.45056e-12 6.45012e-12 6.44963e-12 6.45039e-12 6.45019e-12 6.44915e-12 6.45575e-12 6.98835e-12 5.60826e-11
          4.25333e-09 6.48247e-09 1.15925e-08 2.58471e-08 6.48131e-12 6.11864e-12
        </DataArray>
        <DataArray type="Float32" Name="m^w_cyanide" NumberOfComponents="1" format="ascii">
          0.0120205 0.0120282 0.0120359 0.0120435 0.0120512 0.0120589 0.0120665 0.0120741 0.0120816 0.0120891 0.0120965 0.0121037
          0.0121107 0.0121175 0.0121239 0.0121298 0.012135 0.0121392 0.0121421 0.0121431 0.0121413 0.0121355 0.0121235 0.0121013
          0.0120699 0.0212293 0.045311 0.13554 0.746322 0.738481
        </DataArray>
        <DataArray type="Float32" Name="m^w_citrate" NumberOfComponents="1" format="ascii">
          0.749565 0.749565 0.749565 0.749564 0.749564 0.749564 0.749564 0.749563 0.749563 0.749562 0.749562 0.749561
          0.74956 0.749558 0.749557 0.749555 0.749552 0.749548 0.749543 0.749535 0.749525 0.749512 0.749491 0.749461
          0.749414 0.749353 0.749231 0.748941 0.747945 0.739273
        </DataArray>
        <DataArray type="Float32" Name="m^w_substrate" NumberOfComponents="1" format="ascii">
          8.59319e-08 1.14013e-07 1.51261e-07 2.00669e-07 2.66207e-07 3.53145e-07 4.68481e-07 6.21518e-07 8.24635e-07 1.09433e-06 1.45262e-06 1.92903e-06
          2.56322e-06 3.4088e-06 4.53871e-06 6.05305e-06 8.09079e-06 1.08476e-05 1.46043e-05 1.97731e-05 2.69773e-05 3.7195e-05 5.20357e-05 7.4315e-05
          0.000109372 0.000168512 0.000279768 0.000531602 0.00134848 0.00776683
        </DataArray>
        <DataArray type="Float32" Name="process rank" NumberOfComponents="1" format="ascii">
          0 0 0 0 0 0 0 0 0 0 0 0
          0 0 0 0 0 0 0 0 0 0 0 0
          0 0 0 0 0 0
        </DataArray>
      </CellData>
      <Points>
        <DataArray type="Float32" Name="Coordinates" NumberOfComponents="3" format="ascii">
          0 0 0 0.5 0 0 0 0.0333333 0 0.5 0.0333333 0
          0 0.0666667 0 0.5 0.0666667 0 0 0.1 0 0.5 0.1 0
          0 0.133333 0 0.5 0.133333 0 0 0.166667 0 0.5 0.166667 0
          0 0.2 0 0.5 0.2 0 0 0.233333 0 0.5 0.233333 0
          0 0.266667 0 0.5 0.266667 0 0 0.3 0 0.5 0.3 0
          0 0.333333 0 0.5 0.333333 0 0 0.366667 0 0.5 0.366667 0
          0 0.4 0 0.5 0.4 0 0 0.433333 0 0.5 0.433333 0
          0 0.466667 0 0.5 0.466667 0 0 0.5 0 0.5 0.5 0
          0 0.533333 0 0.5 0.533333 0 0 0.566667 0 0.5 0.566667 0
          0 0.6 0 0.5 0.6 0 0 0.633333 0 0.5 0.633333 0
          0 0.666667 0 0.5 0.666667 0 0 0.7 0 0.5 0.7 0
          0 0.733333 0 0.5 0.733333 0 0 0.766667 0 0.5 0.766667 0
          0 0.8 0 0.5 0.8 0 0 0.833333 0 0.5 0.833333 0
          0 0.866667 0 0.5 0.866667 0 0 0.9 0 0.5 0.9 0
          0 0.933333 0 0.5 0.933333 0 0 0.966667 0 0.5 0.966667 0
          0 1 0 0.5 1 0
        </DataArray>
      </Points>
      <Cells>
        <DataArray type="Int32" Name="connectivity" NumberOfComponents="1" format="ascii">
          0 1 3 2 2 3 5 4 4 5 7 6
          6 7 9 8 8 9 11 10 10 11 13 12
          12 13 15 14 14 15 17 16 16 17 19 18
          18 19 21 20 20 21 23 22 22 23 25 24
          24 25 27 26 26 27 29 28 28 29 31 30
          30 31 33 32 32 33 35 34 34 35 37 36
          36 37 39 38 38 39 41 40 40 41 43 42
          42 43 45 44 44 45 47 46 46 47 49 48
          48 49 51 50 50 51 53 52 52 53 55 54
          54 55 57 56 56 57 59 58 58 59 61 60
        </DataArray>
        <DataArray type="Int32" Name="offsets" NumberOfComponents="1" format="ascii">
          4 8 12 16 20 24 28 32 36 40 44 48
          52 56 60 64 68 72 76 80 84 88 92 96
          100 104 108 112 116 120
        </DataArray>
        <DataArray type="UInt8" Name="types" NumberOfComponents="1" format="ascii">
          9 9 9 9 9 9 9 9 9 9 9 9
          9 9 9 9 9 9 9 9 9 9 9 9
          9 9 9 9 9 9
        </DataArray>
      </Cells>
    </Piece>
  </UnstructuredGrid>
</VTKFile>
