<?xml version="1.0"?>
<VTKFile type="UnstructuredGrid" version="0.1" byte_order="LittleEndian">
  <UnstructuredGrid>
    <Piece NumberOfCells="30" NumberOfPoints="62">
      <CellData Scalars="Sg">
        <DataArray type="Float32" Name="Sg" NumberOfComponents="1" format="ascii">
          0.0987922 0.0987861 0.0987801 0.0987739 0.0987677 0.0987615 0.0987553 0.0987491 0.0987429 0.0987367 0.0987307 0.0987248
          0.098719 0.0987136 0.0987087 0.0987043 0.0987007 0.0986982 0.0986972 0.0986978 0.0986993 0.0986936 0.0986326 0.0982702
          0.0964708 0.08854 0.0580651 0 0 0
        </DataArray>
        <DataArray type="Float32" Name="Sl" NumberOfComponents="1" format="ascii">
          0.901208 0.901214 0.90122 0.901226 0.901232 0.901238 0.901245 0.901251 0.901257 0.901263 0.901269 0.901275
          0.901281 0.901286 0.901291 0.901296 0.901299 0.901302 0.901303 0.901302 0.901301 0.901306 0.901367 0.90173
          0.903529 0.91146 0.941935 1 1 1
        </DataArray>
        <DataArray type="Float32" Name="pg" NumberOfComponents="1" format="ascii">
          52988.4 52659.7 52331.1 52002.4 51673.6 51344.9 51016.2 50687.5 50358.8 50030.1 49701.4 49372.7
          49044.2 48715.7 48387.3 48059.1 47731.1 47403.5 47076.3 46749.5 46423 46094.4 45750 45319.2
          44476.8 41878 32821.1 15860.4 15533.5 15206.6
        </DataArray>
        <DataArray type="Float32" Name="pl" NumberOfComponents="1" format="ascii">
          110628 110301 109974 109647 109320 108993 108666 108339 108012 107685 107358 107031
          106704 106377 106050 105723 105396 105070 104743 104416 104089 103762 103435 103108
          102781 102454 102127 101800 101473 101146
        </DataArray>
        <DataArray type="Float32" Name="pc" NumberOfComponents="1" format="ascii">
          -57639.1 -57640.8 -57642.6 -57644.4 -57646.1 -57647.9 -57649.7 -57651.5 -57653.2 -57655 -57656.7 -57658.4
          -57660.1 -57661.6 -57663 -57664.3 -57665.3 -57666 -57666.3 -57666.1 -57665.7 -57667.4 -57684.8 -57788.6
          -58304.1 -60576 -69306 -85939.7 -85939.7 -85939.7
        </DataArray>
        <DataArray type="Float32" Name="rhoL" NumberOfComponents="1" format="ascii">
          999.855 999.855 999.855 999.855 999.855 999.854 999.854 999.854 999.854 999.854 999.854 999.854
          999.853 999.853 999.853 999.853 999.853 999.853 999.852 999.852 999.852 999.852 999.852 999.852
          999.852 999.851 999.851 999.851 999.851 999.851
        </DataArray>
        <DataArray type="Float32" Name="rhoG" NumberOfComponents="1" format="ascii">
          0.656458 0.652386 0.648314 0.644242 0.640169 0.636097 0.632025 0.627952 0.62388 0.619807 0.615736 0.611664
          0.607593 0.603524 0.599456 0.59539 0.591327 0.587268 0.583214 0.579166 0.575121 0.57105 0.566783 0.561447
          0.55101 0.518814 0.40661 0.19649 0.19244 0.18839
        </DataArray>
        <DataArray type="Float32" Name="mobL" NumberOfComponents="1" format="ascii">
          722.171 722.17 722.17 722.17 722.17 722.17 722.169 722.169 722.169 722.169 722.169 722.169
          722.168 722.168 722.168 722.168 722.168 722.167 722.167 722.167 722.167 722.167 722.166 722.166
          722.166 722.166 722.166 722.166 722.165 722.165
        </DataArray>
        <DataArray type="Float32" Name="mobG" NumberOfComponents="1" format="ascii">
          0 0 0 0 0 0 0 0 0 0 0 0
          0 0 0 0 0 0 0 0 0 0 0 0
          0 0 0 0 0 0
        </DataArray>
        <DataArray type="Float32" Name="porosity" NumberOfComponents="1" format="ascii">
          0.298479 0.298479 0.298478 0.298478 0.298478 0.298478 0.298478 0.298477 0.298476 0.298475 0.298473 0.29847
          0.298466 0.298461 0.298453 0.298442 0.298428 0.298408 0.298382 0.298346 0.298298 0.298234 0.298146 0.298024
          0.297582 0.297331 0.296949 0.296339 0.29558 0.293685
        </DataArray>
        <DataArray type="Float32" Name="temperature" NumberOfComponents="1" format="ascii">
          281.15 281.15 281.15 281.15 281.15 281.15 281.15 281.15 281.15 281.15 281.15 281.15
          281.15 281.15 281.15 281.15 281.15 281.15 281.15 281.15 281.15 281.15 281.15 281.15
          281.15 281.15 281.15 281.15 281.15 281.15
        </DataArray>
        <DataArray type="Float32" Name="phase presence" NumberOfComponents="1" format="ascii">
          3 3 3 3 3 3 3 3 3 3 3 3
          3 3 3 3 3 3 3 3 3 3 3 3
          3 3 3 1 1 1
        </DataArray>
        <DataArray type="Float32" Name="precipitateVolumeFraction_au" NumberOfComponents="1" format="ascii">
          9.771e-12 9.77092e-12 9.77092e-12 9.77093e-12 9.77092e-12 9.77092e-12 9.77093e-12 9.77093e-12 9.77093e-12 9.77094e-12 9.77095e-12 9.77096e-12
          9.77098e-12 9.771e-12 9.77102e-12 9.77106e-12 9.77109e-12 9.77114e-12 9.7712e-12 9.77127e-12 9.77135e-12 9.77145e-12 9.77158e-12 9.84476e-12
          0.000269939 0.000269938 0.000269938 0.00026994 9.77089e-12 9.75882e-12
        </DataArray>
        <DataArray type="Float32" Name="precipitateVolumeFraction_nanoAu" NumberOfComponents="1" format="ascii">
          5.43086e-10 5.43081e-10 5.43081e-10 5.43081e-10 5.43081e-10 5.43081e-10 5.43081e-10 5.43081e-10 5.4308e-10 5.4308e-10 5.43081e-10 5.4308e-10
          5.4308e-10 5.4308e-10 5.43079e-10 5.43079e-10 5.43078e-10 5.43078e-10 5.43077e-10 5.43076e-10 5.43075e-10 5.43073e-10 5.43075e-10 5.57868e-10
          6.10883e-08 6.20881e-08 6.22964e-08 6.07283e-08 5.42966e-10 5.42237e-10
        </DataArray>
        <DataArray type="Float32" Name="precipitateVolumeFraction_d" NumberOfComponents="1" format="ascii">
          0.000760714 0.000760735 0.000760767 0.000760819 0.000760901 0.000761029 0.000761226 0.000761524 0.000761971 0.000762633 0.000763597 0.000764985
          0.000766958 0.000769731 0.000773583 0.000778883 0.000786113 0.000795908 0.000809114 0.000826872 0.000850764 0.000883046 0.000927051 0.000987916
          0.00107397 0.00119961 0.0013905 0.00169537 0.00221019 0.00315764
        </DataArray>
        <DataArray type="Float32" Name="precipitateVolumeFraction_p" NumberOfComponents="1" format="ascii">
          0.000760714 0.000760735 0.000760767 0.000760819 0.000760901 0.000761029 0.000761226 0.000761524 0.000761971 0.000762633 0.000763597 0.000764985
          0.000766958 0.000769731 0.000773583 0.000778883 0.000786113 0.000795908 0.000809114 0.000826872 0.000850764 0.000883046 0.000927051 0.000987916
          0.00107397 0.00119961 0.0013905 0.00169537 0.00221019 0.00315764
        </DataArray>
        <DataArray type="Float32" Name="K" NumberOfComponents="1" format="ascii">
          9.80596e-11 9.80595e-11 9.80594e-11 9.80593e-11 9.80591e-11 9.80588e-11 9.80583e-11 9.80575e-11 9.80564e-11 9.80547e-11 9.80523e-11 9.80487e-11
          9.80438e-11 9.80367e-11 9.8027e-11 9.80136e-11 9.79953e-11 9.79705e-11 9.79372e-11 9.78923e-11 9.78319e-11 9.77504e-11 9.76394e-11 9.7486e-11
          9.69307e-11 9.66162e-11 9.614e-11 9.53835e-11 9.44478e-11 9.21466e-11
        </DataArray>
        <DataArray type="Float32" Name="X^w_H2O" NumberOfComponents="1" format="ascii">
          0.999824 0.999824 0.999824 0.999824 0.999824 0.999825 0.999825 0.999825 0.999825 0.999825 0.999826 0.999826
          0.999827 0.999827 0.999828 0.999828 0.999829 0.99983 0.999831 0.999832 0.999833 0.999834 0.999835 0.999837
          0.999839 0.999839 0.999841 0.99985 0.999855 0.999868
        </DataArray>
        <DataArray type="Float32" Name="X^w_Air" NumberOfComponents="1" format="ascii">
          1.60924e-05 1.59905e-05 1.58886e-05 1.57867e-05 1.56848e-05 1.55829e-05 1.5481e-05 1.53791e-05 1.52772e-05 1.51754e-05 1.50735e-05 1.49716e-05
          1.48698e-05 1.47679e-05 1.46662e-05 1.45644e-05 1.44628e-05 1.43612e-05 1.42598e-05 1.41585e-05 1.40573e-05 1.39555e-05 1.38487e-05 1.37152e-05
          1.34541e-05 1.26485e-05 9.84111e-06 2.10105e-06 2.01604e-08 1.44704e-10
        </DataArray>
        <DataArray type="Float32" Name="X^w_AuComplex" NumberOfComponents="1" format="ascii">
          1.93258e-12 1.93115e-12 1.92837e-12 1.92351e-12 1.91847e-12 1.91291e-12 1.90467e-12 1.89468e-12 1.88008e-12 1.86275e-12 1.84146e-12 1.81645e-12
          1.78393e-12 1.7482e-12 1.70528e-12 1.65659e-12 1.5984e-12 1.53307e-12 1.45992e-12 1.38028e-12 1.29545e-12 1.2038e-12 1.10605e-12 1.03853e-12
          1.19803e-10 1.39467e-10 1.61066e-10 1.79464e-10 1.48196e-12 1.05267e-12
        </DataArray>
        <DataArray type="Float32" Name="X^w_nanoAu" NumberOfComponents="1" format="ascii">
          2.79677e-15 2.58476e-15 2.23209e-15 2.22759e-15 3.24852e-15 2.54661e-15 1.58592e-15 1.30928e-15 1.27394e-15 2.14392e-15 2.70551e-15 3.17756e-15
          2.21707e-15 2.90274e-15 2.4549e-15 2.31532e-15 2.38012e-15 2.59302e-15 1.05041e-15 2.72892e-15 2.85328e-15 1.02091e-15 2.79669e-15 4.45507e-15
          2.48505e-13 2.48638e-13 2.55204e-13 2.19093e-13 1.74275e-15 1.22669e-15
        </DataArray>
        <DataArray type="Float32" Name="X^w_cyanide" NumberOfComponents="1" format="ascii">
          1.87613e-05 1.87423e-05 1.87159e-05 1.868e-05 1.8632e-05 1.85687e-05 1.84865e-05 1.83814e-05 1.82487e-05 1.80833e-05 1.78797e-05 1.76319e-05
          1.73335e-05 1.69783e-05 1.65603e-05 1.6074e-05 1.55158e-05 1.48838e-05 1.41786e-05 1.34038e-05 1.25656e-05 1.16722e-05 1.07325e-05 9.75283e-06
          8.73103e-06 1.00254e-05 1.15444e-05 1.31455e-05 1.43889e-05 1.0235e-05
        </DataArray>
        <DataArray type="Float32" Name="X^w_citrate" NumberOfComponents="1" format="ascii">
          0.000140011 0.000140008 0.000140004 0.000139997 0.000139988 0.000139975 0.000139957 0.000139933 0.000139901 0.000139859 0.000139806 0.000139739
          0.000139655 0.000139551 0.000139425 0.000139271 0.000139082 0.000138851 0.000138564 0.000138202 0.000137736 0.00013712 0.000136281 0.000135099
          0.000133364 0.000130692 0.000126357 0.000118919 0.000104898 7.4522e-05
        </DataArray>
        <DataArray type="Float32" Name="X^w_substrate" NumberOfComponents="1" format="ascii">
          1.27967e-06 1.28148e-06 1.2842e-06 1.28822e-06 1.29404e-06 1.30231e-06 1.31385e-06 1.32962e-06 1.35078e-06 1.37865e-06 1.41471e-06 1.46062e-06
          1.51825e-06 1.58975e-06 1.67768e-06 1.78535e-06 1.9172e-06 2.0795e-06 2.28136e-06 2.53632e-06 2.86497e-06 3.29928e-06 3.89051e-06 4.72386e-06
          5.94723e-06 7.83114e-06 1.08888e-05 1.6135e-05 2.60223e-05 4.74414e-05
        </DataArray>
        <DataArray type="Float32" Name="m^w_H2O" NumberOfComponents="1" format="ascii">
          55490.9 55490.9 55490.9 55490.9 55490.9 55490.9 55490.9 55490.9 55490.9 55490.9 55491 55491
          55491 55491 55491 55491 55491.1 55491.1 55491.2 55491.2 55491.3 55491.3 55491.4 55491.4
          55491.5 55491.5 55491.7 55492.1 55492.4 55493.1
        </DataArray>
        <DataArray type="Float32" Name="m^w_Air" NumberOfComponents="1" format="ascii">
          0.555595 0.552078 0.54856 0.545042 0.541524 0.538006 0.534488 0.53097 0.527452 0.523934 0.520417 0.5169
          0.513384 0.509868 0.506354 0.502842 0.499332 0.495825 0.492323 0.488827 0.485332 0.481816 0.47813 0.473521
          0.464506 0.436693 0.339767 0.0725392 0.000696042 4.99596e-06
        </DataArray>
        <DataArray type="Float32" Name="m^w_AuComplex" NumberOfComponents="1" format="ascii">
          9.81012e-09 9.80288e-09 9.78877e-09 9.7641e-09 9.73847e-09 9.71027e-09 9.66842e-09 9.61773e-09 9.54362e-09 9.45562e-09 9.34757e-09 9.22059e-09
          9.05553e-09 8.87418e-09 8.65628e-09 8.40913e-09 8.11373e-09 7.78212e-09 7.4108e-09 7.00654e-09 6.5759e-09 6.11069e-09 5.61451e-09 5.27176e-09
          6.08142e-07 7.07956e-07 8.17595e-07 9.10989e-07 7.52268e-09 5.34353e-09
        </DataArray>
        <DataArray type="Float32" Name="m^w_nanoAu" NumberOfComponents="1" format="ascii">
          1.41969e-11 1.31207e-11 1.13305e-11 1.13076e-11 1.64901e-11 1.2927e-11 8.05043e-12 6.64613e-12 6.46676e-12 1.08829e-11 1.37336e-11 1.61298e-11
          1.12542e-11 1.47348e-11 1.24615e-11 1.1753e-11 1.20819e-11 1.31626e-11 5.33208e-12 1.38525e-11 1.44837e-11 5.18233e-12 1.41965e-11 2.26147e-11
          1.26145e-09 1.26213e-09 1.29546e-09 1.11215e-09 8.84646e-12 6.22685e-12
        </DataArray>
        <DataArray type="Float32" Name="m^w_cyanide" NumberOfComponents="1" format="ascii">
          0.72093 0.720198 0.719185 0.717806 0.71596 0.713527 0.710369 0.706329 0.70123 0.694876 0.687053 0.677529
          0.666065 0.652416 0.63635 0.617666 0.596216 0.571929 0.544831 0.515058 0.482849 0.448521 0.41241 0.374765
          0.335501 0.385237 0.443607 0.505131 0.552911 0.393294
        </DataArray>
        <DataArray type="Float32" Name="m^w_citrate" NumberOfComponents="1" format="ascii">
          0.740305 0.740289 0.740266 0.740231 0.740182 0.740113 0.740019 0.739891 0.739722 0.739502 0.739219 0.738863
          0.738419 0.737872 0.737203 0.736388 0.735392 0.73417 0.732653 0.730738 0.728272 0.725013 0.720578 0.714328
          0.705153 0.69103 0.668107 0.628776 0.554641 0.394031
        </DataArray>
        <DataArray type="Float32" Name="m^w_substrate" NumberOfComponents="1" format="ascii">
          0.00710196 0.007112 0.00712709 0.00714938 0.00718168 0.00722759 0.0072916 0.00737913 0.00749656 0.00765122 0.00785135 0.00810617
          0.00842602 0.00882278 0.0093108 0.00990835 0.0106401 0.0115408 0.0126611 0.0140761 0.0159 0.0183104 0.0215915 0.0262165
          0.0330059 0.0434612 0.0604306 0.089546 0.144419 0.26329
        </DataArray>
        <DataArray type="Float32" Name="process rank" NumberOfComponents="1" format="ascii">
          0 0 0 0 0 0 0 0 0 0 0 0
          0 0 0 0 0 0 0 0 0 0 0 0
          0 0 0 0 0 0
        </DataArray>
      </CellData>
      <Points>
        <DataArray type="Float32" Name="Coordinates" NumberOfComponents="3" format="ascii">
          0 0 0 0.5 0 0 0 0.0333333 0 0.5 0.0333333 0
          0 0.0666667 0 0.5 0.0666667 0 0 0.1 0 0.5 0.1 0
          0 0.133333 0 0.5 0.133333 0 0 0.166667 0 0.5 0.166667 0
          0 0.2 0 0.5 0.2 0 0 0.233333 0 0.5 0.233333 0
          0 0.266667 0 0.5 0.266667 0 0 0.3 0 0.5 0.3 0
          0 0.333333 0 0.5 0.333333 0 0 0.366667 0 0.5 0.366667 0
          0 0.4 0 0.5 0.4 0 0 0.433333 0 0.5 0.433333 0
          0 0.466667 0 0.5 0.466667 0 0 0.5 0 0.5 0.5 0
          0 0.533333 0 0.5 0.533333 0 0 0.566667 0 0.5 0.566667 0
          0 0.6 0 0.5 0.6 0 0 0.633333 0 0.5 0.633333 0
          0 0.666667 0 0.5 0.666667 0 0 0.7 0 0.5 0.7 0
          0 0.733333 0 0.5 0.733333 0 0 0.766667 0 0.5 0.766667 0
          0 0.8 0 0.5 0.8 0 0 0.833333 0 0.5 0.833333 0
          0 0.866667 0 0.5 0.866667 0 0 0.9 0 0.5 0.9 0
          0 0.933333 0 0.5 0.933333 0 0 0.966667 0 0.5 0.966667 0
          0 1 0 0.5 1 0
        </DataArray>
      </Points>
      <Cells>
        <DataArray type="Int32" Name="connectivity" NumberOfComponents="1" format="ascii">
          0 1 3 2 2 3 5 4 4 5 7 6
          6 7 9 8 8 9 11 10 10 11 13 12
          12 13 15 14 14 15 17 16 16 17 19 18
          18 19 21 20 20 21 23 22 22 23 25 24
          24 25 27 26 26 27 29 28 28 29 31 30
          30 31 33 32 32 33 35 34 34 35 37 36
          36 37 39 38 38 39 41 40 40 41 43 42
          42 43 45 44 44 45 47 46 46 47 49 48
          48 49 51 50 50 51 53 52 52 53 55 54
          54 55 57 56 56 57 59 58 58 59 61 60
        </DataArray>
        <DataArray type="Int32" Name="offsets" NumberOfComponents="1" format="ascii">
          4 8 12 16 20 24 28 32 36 40 44 48
          52 56 60 64 68 72 76 80 84 88 92 96
          100 104 108 112 116 120
        </DataArray>
        <DataArray type="UInt8" Name="types" NumberOfComponents="1" format="ascii">
          9 9 9 9 9 9 9 9 9 9 9 9
          9 9 9 9 9 9 9 9 9 9 9 9
          9 9 9 9 9 9
        </DataArray>
      </Cells>
    </Piece>
  </UnstructuredGrid>
</VTKFile>
