<?xml version="1.0"?>
<VTKFile type="UnstructuredGrid" version="0.1" byte_order="LittleEndian">
  <UnstructuredGrid>
    <Piece NumberOfCells="30" NumberOfPoints="62">
      <CellData Scalars="Sg">
        <DataArray type="Float32" Name="Sg" NumberOfComponents="1" format="ascii">
          0 0 0 0 0 0 0 0 0 0 0 0
          0 0 0 0 0 0 0 0 0 0 0 0
          0 0 0 0 0 0
        </DataArray>
        <DataArray type="Float32" Name="Sl" NumberOfComponents="1" format="ascii">
          1 1 1 1 1 1 1 1 1 1 1 1
          1 1 1 1 1 1 1 1 1 1 1 1
          1 1 1 1 1 1
        </DataArray>
        <DataArray type="Float32" Name="pg" NumberOfComponents="1" format="ascii">
          24687.8 24360.9 24034 23707 23380.1 23053.1 22726.2 22399.3 22072.3 21745.4 21418.4 21091.5
          20764.6 20437.6 20110.7 19783.7 19456.8 19129.8 18802.9 18476 18149 17822.1 17495.1 17168.2
          16841.3 16514.3 16187.4 15860.4 15533.5 15209.1
        </DataArray>
        <DataArray type="Float32" Name="pl" NumberOfComponents="1" format="ascii">
          110628 110301 109974 109647 109320 108993 108666 108339 108012 107685 107358 107031
          106704 106377 106050 105723 105396 105070 104743 104416 104089 103762 103435 103108
          102781 102454 102127 101800 101473 101149
        </DataArray>
        <DataArray type="Float32" Name="pc" NumberOfComponents="1" format="ascii">
          -85939.7 -85939.7 -85939.7 -85939.7 -85939.7 -85939.7 -85939.7 -85939.7 -85939.7 -85939.7 -85939.7 -85939.7
          -85939.7 -85939.7 -85939.7 -85939.7 -85939.7 -85939.7 -85939.7 -85939.7 -85939.7 -85939.7 -85939.7 -85939.7
          -85939.7 -85939.7 -85939.7 -85939.7 -85939.7 -85939.7
        </DataArray>
        <DataArray type="Float32" Name="rhoL" NumberOfComponents="1" format="ascii">
          999.855 999.855 999.855 999.855 999.855 999.854 999.854 999.854 999.854 999.854 999.854 999.854
          999.853 999.853 999.853 999.853 999.853 999.853 999.852 999.852 999.852 999.852 999.852 999.852
          999.852 999.851 999.851 999.851 999.851 999.851
        </DataArray>
        <DataArray type="Float32" Name="rhoG" NumberOfComponents="1" format="ascii">
          0.30585 0.3018 0.29775 0.293699 0.289649 0.285598 0.281548 0.277498 0.273447 0.269397 0.265347 0.261296
          0.257246 0.253195 0.249145 0.245095 0.241044 0.236994 0.232944 0.228893 0.224843 0.220793 0.216742 0.212692
          0.208641 0.204591 0.200541 0.19649 0.19244 0.188421
        </DataArray>
        <DataArray type="Float32" Name="mobL" NumberOfComponents="1" format="ascii">
          722.171 722.17 722.17 722.17 722.17 722.17 722.169 722.169 722.169 722.169 722.169 722.169
          722.168 722.168 722.168 722.168 722.168 722.167 722.167 722.167 722.167 722.167 722.166 722.166
          722.166 722.166 722.166 722.166 722.165 722.165
        </DataArray>
        <DataArray type="Float32" Name="mobG" NumberOfComponents="1" format="ascii">
          0 0 0 0 0 0 0 0 0 0 0 0
          0 0 0 0 0 0 0 0 0 0 0 0
          0 0 0 0 0 0
        </DataArray>
        <DataArray type="Float32" Name="porosity" NumberOfComponents="1" format="ascii">
          0.298744 0.298744 0.298744 0.298744 0.298743 0.298743 0.298742 0.298741 0.29874 0.298738 0.298736 0.298732
          0.298727 0.298721 0.298712 0.2987 0.298684 0.298663 0.298633 0.298593 0.298538 0.298461 0.298351 0.298186
          0.297659 0.297217 0.296345 0.294105 0.283801 0.0478747
        </DataArray>
        <DataArray type="Float32" Name="temperature" NumberOfComponents="1" format="ascii">
          281.15 281.15 281.15 281.15 281.15 281.15 281.15 281.15 281.15 281.15 281.15 281.15
          281.15 281.15 281.15 281.15 281.15 281.15 281.15 281.15 281.15 281.15 281.15 281.15
          281.15 281.15 281.15 281.15 281.15 281.15
        </DataArray>
        <DataArray type="Float32" Name="phase presence" NumberOfComponents="1" format="ascii">
          1 1 1 1 1 1 1 1 1 1 1 1
          1 1 1 1 1 1 1 1 1 1 1 1
          1 1 1 1 1 1
        </DataArray>
        <DataArray type="Float32" Name="precipitateVolumeFraction_au" NumberOfComponents="1" format="ascii">
          2.0333e-10 2.03361e-10 2.03362e-10 2.03366e-10 2.03376e-10 2.03371e-10 2.03361e-10 2.03363e-10 2.03361e-10 2.0337e-10 2.03368e-10 2.03376e-10
          2.03379e-10 2.03379e-10 2.03374e-10 2.03378e-10 2.03368e-10 2.03356e-10 2.03378e-10 2.03375e-10 2.03347e-10 2.03374e-10 2.03383e-10 2.5876e-10
          0.000269805 0.000269713 0.000269513 0.000268948 2.01701e-10 1.99357e-10
        </DataArray>
        <DataArray type="Float32" Name="precipitateVolumeFraction_nanoAu" NumberOfComponents="1" format="ascii">
          3.49396e-10 3.4948e-10 3.4948e-10 3.49488e-10 3.49514e-10 3.49498e-10 3.49473e-10 3.49476e-10 3.49469e-10 3.4949e-10 3.49484e-10 3.49501e-10
          3.49505e-10 3.49503e-10 3.49493e-10 3.49499e-10 3.49477e-10 3.49451e-10 3.49496e-10 3.49488e-10 3.49432e-10 3.49485e-10 3.49573e-10 5.13906e-10
          1.95512e-07 2.88647e-07 4.91291e-07 1.04719e-06 3.50622e-10 3.41749e-10
        </DataArray>
        <DataArray type="Float32" Name="precipitateVolumeFraction_d" NumberOfComponents="1" format="ascii">
          0.000627903 0.000627966 0.000628053 0.000628176 0.000628349 0.000628591 0.000628931 0.000629404 0.000630062 0.000630973 0.00063223 0.000633957
          0.00063632 0.00063954 0.000643914 0.000649839 0.000657852 0.000668688 0.000683379 0.000703403 0.000730966 0.000769511 0.000824738 0.000906819
          0.00103575 0.00125669 0.00169266 0.00281265 0.00809948 0.126063
        </DataArray>
        <DataArray type="Float32" Name="precipitateVolumeFraction_p" NumberOfComponents="1" format="ascii">
          0.000627903 0.000627966 0.000628053 0.000628176 0.000628349 0.000628591 0.000628931 0.000629404 0.000630062 0.000630973 0.00063223 0.000633957
          0.00063632 0.00063954 0.000643914 0.000649839 0.000657852 0.000668688 0.000683379 0.000703403 0.000730966 0.000769511 0.000824738 0.000906819
          0.00103575 0.00125669 0.00169266 0.00281265 0.00809948 0.126063
        </DataArray>
        <DataArray type="Float32" Name="K" NumberOfComponents="1" format="ascii">
          9.83961e-11 9.83959e-11 9.83957e-11 9.83954e-11 9.83949e-11 9.83943e-11 9.83935e-11 9.83923e-11 9.83906e-11 9.83883e-11 9.83851e-11 9.83807e-11
          9.83747e-11 9.83666e-11 9.83555e-11 9.83404e-11 9.83201e-11 9.82926e-11 9.82554e-11 9.82047e-11 9.81348e-11 9.80373e-11 9.78977e-11 9.76904e-11
          9.70265e-11 9.64736e-11 9.53902e-11 9.26526e-11 8.08736e-11 2.19666e-13
        </DataArray>
        <DataArray type="Float32" Name="X^w_H2O" NumberOfComponents="1" format="ascii">
          0.999858 0.999858 0.999858 0.999858 0.999858 0.999858 0.999858 0.999858 0.999858 0.999858 0.999858 0.999858
          0.999858 0.999858 0.999858 0.999858 0.999858 0.999858 0.999858 0.999858 0.999858 0.999858 0.999858 0.999858
          0.999858 0.999858 0.999857 0.999854 0.999839 0.99984
        </DataArray>
        <DataArray type="Float32" Name="X^w_Air" NumberOfComponents="1" format="ascii">
          0 0 0 0 0 0 0 0 0 0 0 0
          0 0 0 0 0 0 0 0 0 0 0 0
          0 0 0 0 0 0
        </DataArray>
        <DataArray type="Float32" Name="X^w_AuComplex" NumberOfComponents="1" format="ascii">
          2.36834e-14 2.36954e-14 2.37017e-14 2.37087e-14 2.37169e-14 2.37224e-14 2.37272e-14 2.3734e-14 2.37402e-14 2.37481e-14 2.37542e-14 2.37616e-14
          2.37679e-14 2.37736e-14 2.37781e-14 2.3783e-14 2.3785e-14 2.37853e-14 2.37882e-14 2.37844e-14 2.37728e-14 2.37616e-14 2.37427e-14 3.57633e-14
          1.39819e-11 3.5989e-11 1.28235e-10 7.80631e-10 1.29105e-12 1.2449e-12
        </DataArray>
        <DataArray type="Float32" Name="X^w_nanoAu" NumberOfComponents="1" format="ascii">
          1.52144e-15 1.5218e-15 1.5218e-15 1.52183e-15 1.52194e-15 1.52187e-15 1.52176e-15 1.52178e-15 1.52175e-15 1.52184e-15 1.52181e-15 1.52189e-15
          1.5219e-15 1.52189e-15 1.52184e-15 1.52186e-15 1.52176e-15 1.52165e-15 1.52183e-15 1.52178e-15 1.52154e-15 1.52288e-15 1.62926e-15 1.14509e-14
          8.55661e-13 1.26633e-12 2.16388e-12 4.50672e-12 1.52247e-15 1.45158e-15
        </DataArray>
        <DataArray type="Float32" Name="X^w_cyanide" NumberOfComponents="1" format="ascii">
          3.57328e-07 3.57422e-07 3.57518e-07 3.57615e-07 3.57713e-07 3.57812e-07 3.57911e-07 3.5801e-07 3.58109e-07 3.58208e-07 3.58305e-07 3.584e-07
          3.58492e-07 3.58578e-07 3.58657e-07 3.58725e-07 3.58778e-07 3.58808e-07 3.58806e-07 3.58758e-07 3.5864e-07 3.58417e-07 3.5803e-07 3.57373e-07
          3.56466e-07 6.32548e-07 1.3448e-06 3.88848e-06 1.94112e-05 1.92107e-05
        </DataArray>
        <DataArray type="Float32" Name="X^w_citrate" NumberOfComponents="1" format="ascii">
          0.000141766 0.000141766 0.000141766 0.000141766 0.000141766 0.000141766 0.000141766 0.000141766 0.000141766 0.000141765 0.000141765 0.000141765
          0.000141765 0.000141765 0.000141765 0.000141764 0.000141764 0.000141763 0.000141762 0.000141761 0.000141759 0.000141757 0.000141753 0.000141748
          0.000141738 0.000141727 0.000141702 0.000141642 0.000141438 0.000139793
        </DataArray>
        <DataArray type="Float32" Name="X^w_substrate" NumberOfComponents="1" format="ascii">
          8.95586e-12 1.2131e-11 1.64308e-11 2.22536e-11 3.01388e-11 4.08176e-11 5.52809e-11 7.48734e-11 1.01421e-10 1.37407e-10 1.86217e-10 2.52474e-10
          3.4252e-10 4.65096e-10 6.32322e-10 8.61151e-10 1.17554e-09 1.60986e-09 2.2142e-09 3.06337e-09 4.27218e-09 6.02338e-09 8.62162e-09 1.26061e-08
          1.90094e-08 3.00343e-08 5.11621e-08 9.96214e-08 2.56335e-07 1.41588e-06
        </DataArray>
        <DataArray type="Float32" Name="m^w_H2O" NumberOfComponents="1" format="ascii">
          55492.8 55492.8 55492.8 55492.8 55492.8 55492.8 55492.8 55492.8 55492.8 55492.7 55492.7 55492.7
          55492.7 55492.7 55492.7 55492.7 55492.7 55492.7 55492.7 55492.7 55492.6 55492.6 55492.6 55492.6
          55492.6 55492.6 55492.5 55492.4 55491.5 55491.6
        </DataArray>
        <DataArray type="Float32" Name="m^w_Air" NumberOfComponents="1" format="ascii">
          0 0 0 0 0 0 0 0 0 0 0 0
          0 0 0 0 0 0 0 0 0 0 0 0
          0 0 0 0 0 0
        </DataArray>
        <DataArray type="Float32" Name="m^w_AuComplex" NumberOfComponents="1" format="ascii">
          1.20221e-10 1.20282e-10 1.20314e-10 1.2035e-10 1.20391e-10 1.20419e-10 1.20444e-10 1.20478e-10 1.20509e-10 1.20549e-10 1.2058e-10 1.20618e-10
          1.2065e-10 1.20679e-10 1.20702e-10 1.20727e-10 1.20737e-10 1.20738e-10 1.20753e-10 1.20734e-10 1.20675e-10 1.20618e-10 1.20522e-10 1.8154e-10
          7.09745e-08 1.82686e-07 6.50941e-07 3.96261e-06 6.55356e-09 6.31933e-09
        </DataArray>
        <DataArray type="Float32" Name="m^w_nanoAu" NumberOfComponents="1" format="ascii">
          7.72309e-12 7.72491e-12 7.72492e-12 7.7251e-12 7.72565e-12 7.7253e-12 7.72474e-12 7.7248e-12 7.72466e-12 7.72511e-12 7.72499e-12 7.72535e-12
          7.72542e-12 7.72537e-12 7.72513e-12 7.72524e-12 7.72471e-12 7.72413e-12 7.72505e-12 7.72481e-12 7.72356e-12 7.73041e-12 8.27037e-12 5.81268e-11
          4.34347e-09 6.42812e-09 1.09842e-08 2.28768e-08 7.72827e-12 7.36844e-12
        </DataArray>
        <DataArray type="Float32" Name="m^w_cyanide" NumberOfComponents="1" format="ascii">
          0.0137308 0.0137345 0.0137381 0.0137419 0.0137456 0.0137494 0.0137532 0.013757 0.0137608 0.0137646 0.0137683 0.013772
          0.0137755 0.0137788 0.0137819 0.0137845 0.0137865 0.0137877 0.0137876 0.0137857 0.0137812 0.0137726 0.0137578 0.0137325
          0.0136977 0.0243064 0.0516757 0.14942 0.745901 0.738196
        </DataArray>
        <DataArray type="Float32" Name="m^w_citrate" NumberOfComponents="1" format="ascii">
          0.749582 0.749582 0.749582 0.749582 0.749582 0.749581 0.749581 0.749581 0.74958 0.74958 0.749579 0.749578
          0.749578 0.749576 0.749575 0.749573 0.74957 0.749567 0.749562 0.749556 0.749546 0.749533 0.749513 0.749483
          0.749435 0.749372 0.749242 0.748926 0.747845 0.73915
        </DataArray>
        <DataArray type="Float32" Name="m^w_substrate" NumberOfComponents="1" format="ascii">
          4.97034e-08 6.73246e-08 9.11877e-08 1.23503e-07 1.67265e-07 2.2653e-07 3.06799e-07 4.15533e-07 5.62868e-07 7.62585e-07 1.03347e-06 1.40118e-06
          1.90092e-06 2.58119e-06 3.50927e-06 4.77922e-06 6.52404e-06 8.93439e-06 1.22884e-05 1.70011e-05 2.37098e-05 3.34286e-05 4.78483e-05 6.99611e-05
          0.000105498 0.000166684 0.000283939 0.000552878 0.0014226 0.00785787
        </DataArray>
        <DataArray type="Float32" Name="process rank" NumberOfComponents="1" format="ascii">
          0 0 0 0 0 0 0 0 0 0 0 0
          0 0 0 0 0 0 0 0 0 0 0 0
          0 0 0 0 0 0
        </DataArray>
      </CellData>
      <Points>
        <DataArray type="Float32" Name="Coordinates" NumberOfComponents="3" format="ascii">
          0 0 0 0.5 0 0 0 0.0333333 0 0.5 0.0333333 0
          0 0.0666667 0 0.5 0.0666667 0 0 0.1 0 0.5 0.1 0
          0 0.133333 0 0.5 0.133333 0 0 0.166667 0 0.5 0.166667 0
          0 0.2 0 0.5 0.2 0 0 0.233333 0 0.5 0.233333 0
          0 0.266667 0 0.5 0.266667 0 0 0.3 0 0.5 0.3 0
          0 0.333333 0 0.5 0.333333 0 0 0.366667 0 0.5 0.366667 0
          0 0.4 0 0.5 0.4 0 0 0.433333 0 0.5 0.433333 0
          0 0.466667 0 0.5 0.466667 0 0 0.5 0 0.5 0.5 0
          0 0.533333 0 0.5 0.533333 0 0 0.566667 0 0.5 0.566667 0
          0 0.6 0 0.5 0.6 0 0 0.633333 0 0.5 0.633333 0
          0 0.666667 0 0.5 0.666667 0 0 0.7 0 0.5 0.7 0
          0 0.733333 0 0.5 0.733333 0 0 0.766667 0 0.5 0.766667 0
          0 0.8 0 0.5 0.8 0 0 0.833333 0 0.5 0.833333 0
          0 0.866667 0 0.5 0.866667 0 0 0.9 0 0.5 0.9 0
          0 0.933333 0 0.5 0.933333 0 0 0.966667 0 0.5 0.966667 0
          0 1 0 0.5 1 0
        </DataArray>
      </Points>
      <Cells>
        <DataArray type="Int32" Name="connectivity" NumberOfComponents="1" format="ascii">
          0 1 3 2 2 3 5 4 4 5 7 6
          6 7 9 8 8 9 11 10 10 11 13 12
          12 13 15 14 14 15 17 16 16 17 19 18
          18 19 21 20 20 21 23 22 22 23 25 24
          24 25 27 26 26 27 29 28 28 29 31 30
          30 31 33 32 32 33 35 34 34 35 37 36
          36 37 39 38 38 39 41 40 40 41 43 42
          42 43 45 44 44 45 47 46 46 47 49 48
          48 49 51 50 50 51 53 52 52 53 55 54
          54 55 57 56 56 57 59 58 58 59 61 60
        </DataArray>
        <DataArray type="Int32" Name="offsets" NumberOfComponents="1" format="ascii">
          4 8 12 16 20 24 28 32 36 40 44 48
          52 56 60 64 68 72 76 80 84 88 92 96
          100 104 108 112 116 120
        </DataArray>
        <DataArray type="UInt8" Name="types" NumberOfComponents="1" format="ascii">
          9 9 9 9 9 9 9 9 9 9 9 9
          9 9 9 9 9 9 9 9 9 9 9 9
          9 9 9 9 9 9
        </DataArray>
      </Cells>
    </Piece>
  </UnstructuredGrid>
</VTKFile>
