<?xml version="1.0"?>
<VTKFile type="UnstructuredGrid" version="0.1" byte_order="LittleEndian">
  <UnstructuredGrid>
    <Piece NumberOfCells="30" NumberOfPoints="62">
      <CellData Scalars="Sg">
        <DataArray type="Float32" Name="Sg" NumberOfComponents="1" format="ascii">
          0 0 0 0 0 0 0 0 0 0 0 0
          0 0 0 0 0 0 0 0 0 0 0 0
          0 0 0 0 0 0
        </DataArray>
        <DataArray type="Float32" Name="Sl" NumberOfComponents="1" format="ascii">
          1 1 1 1 1 1 1 1 1 1 1 1
          1 1 1 1 1 1 1 1 1 1 1 1
          1 1 1 1 1 1
        </DataArray>
        <DataArray type="Float32" Name="pg" NumberOfComponents="1" format="ascii">
          24687.8 24360.9 24034 23707 23380.1 23053.1 22726.2 22399.3 22072.3 21745.4 21418.4 21091.5
          20764.6 20437.6 20110.7 19783.7 19456.8 19129.8 18802.9 18476 18149 17822.1 17495.1 17168.2
          16841.3 16514.3 16187.4 15860.4 15533.5 15209.6
        </DataArray>
        <DataArray type="Float32" Name="pl" NumberOfComponents="1" format="ascii">
          110628 110301 109974 109647 109320 108993 108666 108339 108012 107685 107358 107031
          106704 106377 106050 105723 105396 105070 104743 104416 104089 103762 103435 103108
          102781 102454 102127 101800 101473 101149
        </DataArray>
        <DataArray type="Float32" Name="pc" NumberOfComponents="1" format="ascii">
          -85939.7 -85939.7 -85939.7 -85939.7 -85939.7 -85939.7 -85939.7 -85939.7 -85939.7 -85939.7 -85939.7 -85939.7
          -85939.7 -85939.7 -85939.7 -85939.7 -85939.7 -85939.7 -85939.7 -85939.7 -85939.7 -85939.7 -85939.7 -85939.7
          -85939.7 -85939.7 -85939.7 -85939.7 -85939.7 -85939.7
        </DataArray>
        <DataArray type="Float32" Name="rhoL" NumberOfComponents="1" format="ascii">
          999.855 999.855 999.855 999.855 999.855 999.854 999.854 999.854 999.854 999.854 999.854 999.854
          999.853 999.853 999.853 999.853 999.853 999.853 999.852 999.852 999.852 999.852 999.852 999.852
          999.852 999.851 999.851 999.851 999.851 999.851
        </DataArray>
        <DataArray type="Float32" Name="rhoG" NumberOfComponents="1" format="ascii">
          0.30585 0.3018 0.29775 0.293699 0.289649 0.285598 0.281548 0.277498 0.273447 0.269397 0.265347 0.261296
          0.257246 0.253195 0.249145 0.245095 0.241044 0.236994 0.232944 0.228893 0.224843 0.220793 0.216742 0.212692
          0.208641 0.204591 0.200541 0.19649 0.19244 0.188427
        </DataArray>
        <DataArray type="Float32" Name="mobL" NumberOfComponents="1" format="ascii">
          722.171 722.17 722.17 722.17 722.17 722.17 722.169 722.169 722.169 722.169 722.169 722.169
          722.168 722.168 722.168 722.168 722.168 722.167 722.167 722.167 722.167 722.167 722.166 722.166
          722.166 722.166 722.166 722.166 722.165 722.165
        </DataArray>
        <DataArray type="Float32" Name="mobG" NumberOfComponents="1" format="ascii">
          0 0 0 0 0 0 0 0 0 0 0 0
          0 0 0 0 0 0 0 0 0 0 0 0
          0 0 0 0 0 0
        </DataArray>
        <DataArray type="Float32" Name="porosity" NumberOfComponents="1" format="ascii">
          0.298833 0.298833 0.298833 0.298832 0.298832 0.298832 0.298831 0.29883 0.298829 0.298827 0.298825 0.298822
          0.298817 0.298811 0.298803 0.298792 0.298776 0.298756 0.298728 0.29869 0.298638 0.298565 0.29846 0.298303
          0.297784 0.297355 0.296495 0.294222 0.283045 0.0450309
        </DataArray>
        <DataArray type="Float32" Name="temperature" NumberOfComponents="1" format="ascii">
          281.15 281.15 281.15 281.15 281.15 281.15 281.15 281.15 281.15 281.15 281.15 281.15
          281.15 281.15 281.15 281.15 281.15 281.15 281.15 281.15 281.15 281.15 281.15 281.15
          281.15 281.15 281.15 281.15 281.15 281.15
        </DataArray>
        <DataArray type="Float32" Name="phase presence" NumberOfComponents="1" format="ascii">
          1 1 1 1 1 1 1 1 1 1 1 1
          1 1 1 1 1 1 1 1 1 1 1 1
          1 1 1 1 1 1
        </DataArray>
        <DataArray type="Float32" Name="precipitateVolumeFraction_au" NumberOfComponents="1" format="ascii">
          2.5507e-10 2.55114e-10 2.55115e-10 2.5512e-10 2.55134e-10 2.55127e-10 2.55113e-10 2.55115e-10 2.55112e-10 2.55124e-10 2.55122e-10 2.55133e-10
          2.55135e-10 2.55135e-10 2.55129e-10 2.55134e-10 2.5512e-10 2.55105e-10 2.55133e-10 2.55129e-10 2.55093e-10 2.55128e-10 2.55154e-10 3.37612e-10
          0.000269809 0.000269711 0.00026949 0.000268823 2.52386e-10 2.48537e-10
        </DataArray>
        <DataArray type="Float32" Name="precipitateVolumeFraction_nanoAu" NumberOfComponents="1" format="ascii">
          2.97656e-10 2.97727e-10 2.97727e-10 2.97734e-10 2.97756e-10 2.97743e-10 2.97721e-10 2.97723e-10 2.97718e-10 2.97735e-10 2.97731e-10 2.97745e-10
          2.97748e-10 2.97747e-10 2.97738e-10 2.97743e-10 2.97724e-10 2.97703e-10 2.9774e-10 2.97734e-10 2.97686e-10 2.97732e-10 2.97856e-10 4.70388e-10
          1.91957e-07 2.90932e-07 5.1562e-07 1.17068e-06 2.99817e-10 2.89632e-10
        </DataArray>
        <DataArray type="Float32" Name="precipitateVolumeFraction_d" NumberOfComponents="1" format="ascii">
          0.000583528 0.000583588 0.00058367 0.000583787 0.000583951 0.00058418 0.000584501 0.000584949 0.00058557 0.00058643 0.000587616 0.000589244
          0.000591472 0.000594508 0.000598632 0.000604219 0.000611779 0.000622009 0.00063589 0.000654834 0.000680953 0.00071756 0.000770168 0.000848682
          0.00097276 0.00118733 0.00161728 0.00275425 0.00847733 0.127485
        </DataArray>
        <DataArray type="Float32" Name="precipitateVolumeFraction_p" NumberOfComponents="1" format="ascii">
          0.000583528 0.000583588 0.00058367 0.000583787 0.000583951 0.00058418 0.000584501 0.000584949 0.00058557 0.00058643 0.000587616 0.000589244
          0.000591472 0.000594508 0.000598632 0.000604219 0.000611779 0.000622009 0.00063589 0.000654834 0.000680953 0.00071756 0.000770168 0.000848682
          0.00097276 0.00118733 0.00161728 0.00275425 0.00847733 0.127485
        </DataArray>
        <DataArray type="Float32" Name="K" NumberOfComponents="1" format="ascii">
          9.85087e-11 9.85086e-11 9.85084e-11 9.85081e-11 9.85077e-11 9.85071e-11 9.85063e-11 9.85051e-11 9.85035e-11 9.85014e-11 9.84983e-11 9.84942e-11
          9.84886e-11 9.84808e-11 9.84704e-11 9.84562e-11 9.8437e-11 9.8411e-11 9.83758e-11 9.83278e-11 9.82615e-11 9.81688e-11 9.80356e-11 9.78372e-11
          9.71846e-11 9.66469e-11 9.55768e-11 9.27938e-11 8.00603e-11 1.81713e-13
        </DataArray>
        <DataArray type="Float32" Name="X^w_H2O" NumberOfComponents="1" format="ascii">
          0.999858 0.999858 0.999858 0.999858 0.999858 0.999858 0.999858 0.999858 0.999858 0.999858 0.999858 0.999858
          0.999858 0.999858 0.999858 0.999858 0.999858 0.999858 0.999858 0.999858 0.999858 0.999858 0.999858 0.999858
          0.999858 0.999858 0.999857 0.999855 0.999839 0.99984
        </DataArray>
        <DataArray type="Float32" Name="X^w_Air" NumberOfComponents="1" format="ascii">
          0 0 0 0 0 0 0 0 0 0 0 0
          0 0 0 0 0 0 0 0 0 0 0 0
          0 0 0 0 0 0
        </DataArray>
        <DataArray type="Float32" Name="X^w_AuComplex" NumberOfComponents="1" format="ascii">
          1.78405e-14 1.78558e-14 1.78668e-14 1.78782e-14 1.78906e-14 1.79008e-14 1.79104e-14 1.79215e-14 1.7932e-14 1.79438e-14 1.79542e-14 1.79654e-14
          1.79758e-14 1.79854e-14 1.79941e-14 1.80028e-14 1.80092e-14 1.80139e-14 1.80203e-14 1.80213e-14 1.80157e-14 1.80098e-14 1.80003e-14 2.91825e-14
          1.22263e-11 3.20214e-11 1.19206e-10 7.9751e-10 1.10455e-12 1.05544e-12
        </DataArray>
        <DataArray type="Float32" Name="X^w_nanoAu" NumberOfComponents="1" format="ascii">
          1.29611e-15 1.29641e-15 1.29641e-15 1.29644e-15 1.29654e-15 1.29648e-15 1.29639e-15 1.2964e-15 1.29637e-15 1.29645e-15 1.29643e-15 1.29649e-15
          1.2965e-15 1.29649e-15 1.29645e-15 1.29647e-15 1.29638e-15 1.29628e-15 1.29644e-15 1.2964e-15 1.29619e-15 1.29749e-15 1.40266e-15 1.10983e-14
          8.40448e-13 1.27734e-12 2.27434e-12 5.0383e-12 1.3019e-15 1.23041e-15
        </DataArray>
        <DataArray type="Float32" Name="X^w_cyanide" NumberOfComponents="1" format="ascii">
          3.15958e-07 3.16153e-07 3.16348e-07 3.16543e-07 3.16738e-07 3.16932e-07 3.17127e-07 3.1732e-07 3.17512e-07 3.17703e-07 3.1789e-07 3.18074e-07
          3.18254e-07 3.18426e-07 3.18589e-07 3.18739e-07 3.18871e-07 3.18979e-07 3.19051e-07 3.19075e-07 3.19028e-07 3.18875e-07 3.1856e-07 3.17982e-07
          3.1716e-07 5.58551e-07 1.19235e-06 3.5575e-06 1.94211e-05 1.92176e-05
        </DataArray>
        <DataArray type="Float32" Name="X^w_citrate" NumberOfComponents="1" format="ascii">
          0.000141763 0.000141763 0.000141763 0.000141763 0.000141763 0.000141763 0.000141763 0.000141763 0.000141763 0.000141762 0.000141762 0.000141762
          0.000141762 0.000141762 0.000141762 0.000141761 0.000141761 0.00014176 0.000141759 0.000141758 0.000141756 0.000141753 0.000141749 0.000141744
          0.000141735 0.000141723 0.0001417 0.000141645 0.000141455 0.000139816
        </DataArray>
        <DataArray type="Float32" Name="X^w_substrate" NumberOfComponents="1" format="ascii">
          1.45719e-11 1.93772e-11 2.57656e-11 3.42585e-11 4.55493e-11 6.05605e-11 8.052e-11 1.07063e-10 1.42372e-10 1.89358e-10 2.51922e-10 3.35297e-10
          4.46534e-10 5.95182e-10 7.94259e-10 1.06167e-09 1.42232e-09 1.91134e-09 2.57923e-09 3.50026e-09 4.7869e-09 6.61593e-09 9.27861e-09 1.32851e-08
          1.96037e-08 3.02864e-08 5.04231e-08 9.60695e-08 2.44096e-07 1.4001e-06
        </DataArray>
        <DataArray type="Float32" Name="m^w_H2O" NumberOfComponents="1" format="ascii">
          55492.8 55492.8 55492.8 55492.8 55492.8 55492.8 55492.8 55492.8 55492.8 55492.7 55492.7 55492.7
          55492.7 55492.7 55492.7 55492.7 55492.7 55492.7 55492.7 55492.7 55492.6 55492.6 55492.6 55492.6
          55492.6 55492.6 55492.5 55492.4 55491.5 55491.6
        </DataArray>
        <DataArray type="Float32" Name="m^w_Air" NumberOfComponents="1" format="ascii">
          0 0 0 0 0 0 0 0 0 0 0 0
          0 0 0 0 0 0 0 0 0 0 0 0
          0 0 0 0 0 0
        </DataArray>
        <DataArray type="Float32" Name="m^w_AuComplex" NumberOfComponents="1" format="ascii">
          9.05617e-11 9.06392e-11 9.06952e-11 9.07532e-11 9.08157e-11 9.08675e-11 9.09165e-11 9.09727e-11 9.10261e-11 9.1086e-11 9.11385e-11 9.11957e-11
          9.1248e-11 9.12969e-11 9.13409e-11 9.13855e-11 9.14175e-11 9.14416e-11 9.14742e-11 9.1479e-11 9.14508e-11 9.14209e-11 9.13724e-11 1.48135e-10
          6.20628e-08 1.62546e-07 6.05111e-07 4.04829e-06 5.60686e-09 5.35758e-09
        </DataArray>
        <DataArray type="Float32" Name="m^w_nanoAu" NumberOfComponents="1" format="ascii">
          6.57927e-12 6.58082e-12 6.58083e-12 6.58098e-12 6.58145e-12 6.58116e-12 6.58068e-12 6.58073e-12 6.58061e-12 6.58099e-12 6.58089e-12 6.5812e-12
          6.58126e-12 6.58121e-12 6.58101e-12 6.58109e-12 6.58065e-12 6.58015e-12 6.58093e-12 6.58072e-12 6.57966e-12 6.58629e-12 7.12012e-12 5.63366e-11
          4.26625e-09 6.48399e-09 1.15449e-08 2.55752e-08 6.60866e-12 6.24574e-12
        </DataArray>
        <DataArray type="Float32" Name="m^w_cyanide" NumberOfComponents="1" format="ascii">
          0.0121411 0.0121486 0.0121561 0.0121636 0.0121711 0.0121786 0.012186 0.0121935 0.0122008 0.0122082 0.0122154 0.0122224
          0.0122293 0.0122359 0.0122422 0.012248 0.012253 0.0122572 0.01226 0.0122609 0.0122591 0.0122532 0.0122411 0.0122189
          0.0121873 0.021463 0.0458174 0.136701 0.746281 0.73846
        </DataArray>
        <DataArray type="Float32" Name="m^w_citrate" NumberOfComponents="1" format="ascii">
          0.749566 0.749566 0.749566 0.749566 0.749566 0.749565 0.749565 0.749565 0.749564 0.749564 0.749563 0.749562
          0.749561 0.74956 0.749558 0.749556 0.749553 0.74955 0.749544 0.749537 0.749527 0.749514 0.749493 0.749463
          0.749416 0.749355 0.749232 0.74894 0.747937 0.739268
        </DataArray>
        <DataArray type="Float32" Name="m^w_substrate" NumberOfComponents="1" format="ascii">
          8.08715e-08 1.0754e-07 1.42994e-07 1.90128e-07 2.5279e-07 3.361e-07 4.46871e-07 5.94181e-07 7.90136e-07 1.0509e-06 1.39812e-06 1.86083e-06
          2.47818e-06 3.30314e-06 4.40799e-06 5.89207e-06 7.8936e-06 1.06076e-05 1.43142e-05 1.94257e-05 2.65663e-05 3.67171e-05 5.14944e-05 7.37294e-05
          0.000108796 0.000168083 0.000279838 0.000533166 0.00135468 0.00777025
        </DataArray>
        <DataArray type="Float32" Name="process rank" NumberOfComponents="1" format="ascii">
          0 0 0 0 0 0 0 0 0 0 0 0
          0 0 0 0 0 0 0 0 0 0 0 0
          0 0 0 0 0 0
        </DataArray>
      </CellData>
      <Points>
        <DataArray type="Float32" Name="Coordinates" NumberOfComponents="3" format="ascii">
          0 0 0 0.5 0 0 0 0.0333333 0 0.5 0.0333333 0
          0 0.0666667 0 0.5 0.0666667 0 0 0.1 0 0.5 0.1 0
          0 0.133333 0 0.5 0.133333 0 0 0.166667 0 0.5 0.166667 0
          0 0.2 0 0.5 0.2 0 0 0.233333 0 0.5 0.233333 0
          0 0.266667 0 0.5 0.266667 0 0 0.3 0 0.5 0.3 0
          0 0.333333 0 0.5 0.333333 0 0 0.366667 0 0.5 0.366667 0
          0 0.4 0 0.5 0.4 0 0 0.433333 0 0.5 0.433333 0
          0 0.466667 0 0.5 0.466667 0 0 0.5 0 0.5 0.5 0
          0 0.533333 0 0.5 0.533333 0 0 0.566667 0 0.5 0.566667 0
          0 0.6 0 0.5 0.6 0 0 0.633333 0 0.5 0.633333 0
          0 0.666667 0 0.5 0.666667 0 0 0.7 0 0.5 0.7 0
          0 0.733333 0 0.5 0.733333 0 0 0.766667 0 0.5 0.766667 0
          0 0.8 0 0.5 0.8 0 0 0.833333 0 0.5 0.833333 0
          0 0.866667 0 0.5 0.866667 0 0 0.9 0 0.5 0.9 0
          0 0.933333 0 0.5 0.933333 0 0 0.966667 0 0.5 0.966667 0
          0 1 0 0.5 1 0
        </DataArray>
      </Points>
      <Cells>
        <DataArray type="Int32" Name="connectivity" NumberOfComponents="1" format="ascii">
          0 1 3 2 2 3 5 4 4 5 7 6
          6 7 9 8 8 9 11 10 10 11 13 12
          12 13 15 14 14 15 17 16 16 17 19 18
          18 19 21 20 20 21 23 22 22 23 25 24
          24 25 27 26 26 27 29 28 28 29 31 30
          30 31 33 32 32 33 35 34 34 35 37 36
          36 37 39 38 38 39 41 40 40 41 43 42
          42 43 45 44 44 45 47 46 46 47 49 48
          48 49 51 50 50 51 53 52 52 53 55 54
          54 55 57 56 56 57 59 58 58 59 61 60
        </DataArray>
        <DataArray type="Int32" Name="offsets" NumberOfComponents="1" format="ascii">
          4 8 12 16 20 24 28 32 36 40 44 48
          52 56 60 64 68 72 76 80 84 88 92 96
          100 104 108 112 116 120
        </DataArray>
        <DataArray type="UInt8" Name="types" NumberOfComponents="1" format="ascii">
          9 9 9 9 9 9 9 9 9 9 9 9
          9 9 9 9 9 9 9 9 9 9 9 9
          9 9 9 9 9 9
        </DataArray>
      </Cells>
    </Piece>
  </UnstructuredGrid>
</VTKFile>
