<?xml version="1.0"?>
<VTKFile type="UnstructuredGrid" version="0.1" byte_order="LittleEndian">
  <UnstructuredGrid>
    <Piece NumberOfCells="30" NumberOfPoints="62">
      <CellData Scalars="Sg">
        <DataArray type="Float32" Name="Sg" NumberOfComponents="1" format="ascii">
          0 0 0 0 0 0 0 0 0 0 0 0
          0 0 0 0 0 0 0 0 0 0 0 0
          0 0 0 0 0 0
        </DataArray>
        <DataArray type="Float32" Name="Sl" NumberOfComponents="1" format="ascii">
          1 1 1 1 1 1 1 1 1 1 1 1
          1 1 1 1 1 1 1 1 1 1 1 1
          1 1 1 1 1 1
        </DataArray>
        <DataArray type="Float32" Name="pg" NumberOfComponents="1" format="ascii">
          24687.8 24360.9 24034 23707 23380.1 23053.1 22726.2 22399.3 22072.3 21745.4 21418.4 21091.5
          20764.6 20437.6 20110.7 19783.7 19456.8 19129.8 18802.9 18476 18149 17822.1 17495.1 17168.2
          16841.3 16514.3 16187.4 15860.4 15533.5 19188
        </DataArray>
        <DataArray type="Float32" Name="pl" NumberOfComponents="1" format="ascii">
          110628 110301 109974 109647 109320 108993 108666 108339 108012 107685 107358 107031
          106704 106377 106050 105723 105396 105070 104743 104416 104089 103762 103435 103108
          102781 102454 102127 101800 101473 105128
        </DataArray>
        <DataArray type="Float32" Name="pc" NumberOfComponents="1" format="ascii">
          -85939.7 -85939.7 -85939.7 -85939.7 -85939.7 -85939.7 -85939.7 -85939.7 -85939.7 -85939.7 -85939.7 -85939.7
          -85939.7 -85939.7 -85939.7 -85939.7 -85939.7 -85939.7 -85939.7 -85939.7 -85939.7 -85939.7 -85939.7 -85939.7
          -85939.7 -85939.7 -85939.7 -85939.7 -85939.7 -85939.7
        </DataArray>
        <DataArray type="Float32" Name="rhoL" NumberOfComponents="1" format="ascii">
          999.855 999.855 999.855 999.855 999.855 999.854 999.854 999.854 999.854 999.854 999.854 999.854
          999.853 999.853 999.853 999.853 999.853 999.853 999.852 999.852 999.852 999.852 999.852 999.852
          999.852 999.851 999.851 999.851 999.851 999.853
        </DataArray>
        <DataArray type="Float32" Name="rhoG" NumberOfComponents="1" format="ascii">
          0.30585 0.3018 0.29775 0.293699 0.289649 0.285598 0.281548 0.277498 0.273447 0.269397 0.265347 0.261296
          0.257246 0.253195 0.249145 0.245095 0.241044 0.236994 0.232944 0.228893 0.224843 0.220793 0.216742 0.212692
          0.208641 0.204591 0.200541 0.19649 0.19244 0.237714
        </DataArray>
        <DataArray type="Float32" Name="mobL" NumberOfComponents="1" format="ascii">
          722.171 722.17 722.17 722.17 722.17 722.17 722.169 722.169 722.169 722.169 722.169 722.169
          722.168 722.168 722.168 722.168 722.168 722.167 722.167 722.167 722.167 722.167 722.166 722.166
          722.166 722.166 722.166 722.166 722.165 722.167
        </DataArray>
        <DataArray type="Float32" Name="mobG" NumberOfComponents="1" format="ascii">
          0 0 0 0 0 0 0 0 0 0 0 0
          0 0 0 0 0 0 0 0 0 0 0 0
          0 0 0 0 0 0
        </DataArray>
        <DataArray type="Float32" Name="porosity" NumberOfComponents="1" format="ascii">
          0.298766 0.298765 0.298765 0.298765 0.298765 0.298764 0.298763 0.298763 0.298761 0.298759 0.298757 0.298754
          0.298749 0.298743 0.298734 0.298722 0.298706 0.298685 0.298656 0.298616 0.298561 0.298485 0.298375 0.298211
          0.297681 0.297234 0.296339 0.293979 0.282334 0.00422471
        </DataArray>
        <DataArray type="Float32" Name="temperature" NumberOfComponents="1" format="ascii">
          281.15 281.15 281.15 281.15 281.15 281.15 281.15 281.15 281.15 281.15 281.15 281.15
          281.15 281.15 281.15 281.15 281.15 281.15 281.15 281.15 281.15 281.15 281.15 281.15
          281.15 281.15 281.15 281.15 281.15 281.15
        </DataArray>
        <DataArray type="Float32" Name="phase presence" NumberOfComponents="1" format="ascii">
          1 1 1 1 1 1 1 1 1 1 1 1
          1 1 1 1 1 1 1 1 1 1 1 1
          1 1 1 1 1 1
        </DataArray>
        <DataArray type="Float32" Name="precipitateVolumeFraction_au" NumberOfComponents="1" format="ascii">
          5.52527e-10 5.52772e-10 5.52769e-10 5.52703e-10 5.52781e-10 5.52752e-10 5.52766e-10 5.52725e-10 5.52776e-10 5.52756e-10 5.52742e-10 5.52814e-10
          5.52769e-10 5.52798e-10 5.52707e-10 5.52757e-10 5.52721e-10 5.52782e-10 5.52769e-10 5.52722e-10 5.52747e-10 5.52774e-10 5.53106e-10 1.26257e-09
          0.000269941 0.000269925 0.0002699 0.000269851 5.52279e-10 5.5126e-10
        </DataArray>
        <DataArray type="Float32" Name="precipitateVolumeFraction_nanoAu" NumberOfComponents="1" format="ascii">
          1.23572e-13 1.23627e-13 1.23626e-13 1.23611e-13 1.23629e-13 1.23622e-13 1.23625e-13 1.23616e-13 1.23627e-13 1.23623e-13 1.23619e-13 1.23635e-13
          1.23625e-13 1.23631e-13 1.2361e-13 1.2362e-13 1.23611e-13 1.23623e-13 1.23618e-13 1.23604e-13 1.23605e-13 1.23621e-13 1.35582e-13 2.58289e-11
          6.03574e-08 7.66808e-08 1.02149e-07 1.45589e-07 4.74433e-13 4.68147e-13
        </DataArray>
        <DataArray type="Float32" Name="precipitateVolumeFraction_d" NumberOfComponents="1" format="ascii">
          0.000617251 0.000617312 0.000617398 0.000617519 0.000617689 0.000617928 0.000618261 0.000618727 0.000619375 0.000620273 0.000621511 0.000623213
          0.000625543 0.000628719 0.000633036 0.000638887 0.000646804 0.000657521 0.000672063 0.000691907 0.000719261 0.000757584 0.00081263 0.000894719
          0.00102431 0.00124807 0.0016955 0.00287572 0.00883286 0.147888
        </DataArray>
        <DataArray type="Float32" Name="precipitateVolumeFraction_p" NumberOfComponents="1" format="ascii">
          0.000617251 0.000617312 0.000617398 0.000617519 0.000617689 0.000617928 0.000618261 0.000618727 0.000619375 0.000620273 0.000621511 0.000623213
          0.000625543 0.000628719 0.000633036 0.000638887 0.000646804 0.000657521 0.000672063 0.000691907 0.000719261 0.000757584 0.00081263 0.000894719
          0.00102431 0.00124807 0.0016955 0.00287572 0.00883286 0.147888
        </DataArray>
        <DataArray type="Float32" Name="K" NumberOfComponents="1" format="ascii">
          9.84231e-11 9.8423e-11 9.84227e-11 9.84224e-11 9.8422e-11 9.84214e-11 9.84205e-11 9.84194e-11 9.84177e-11 9.84154e-11 9.84123e-11 9.8408e-11
          9.84021e-11 9.8394e-11 9.83831e-11 9.83682e-11 9.83481e-11 9.83209e-11 9.82841e-11 9.82338e-11 9.81645e-11 9.80675e-11 9.79283e-11 9.7721e-11
          9.70552e-11 9.64952e-11 9.53832e-11 9.25004e-11 7.9301e-11 1.38007e-16
        </DataArray>
        <DataArray type="Float32" Name="X^w_H2O" NumberOfComponents="1" format="ascii">
          0.999853 0.999853 0.999853 0.999853 0.999853 0.999853 0.999853 0.999853 0.999853 0.999853 0.999853 0.999853
          0.999853 0.999853 0.999853 0.999853 0.999853 0.999853 0.999853 0.999853 0.999853 0.999853 0.999853 0.999853
          0.999853 0.999852 0.99985 0.999846 0.999839 0.999839
        </DataArray>
        <DataArray type="Float32" Name="X^w_Air" NumberOfComponents="1" format="ascii">
          0 0 0 0 0 0 0 0 0 0 0 0
          0 0 0 0 0 0 0 0 0 0 0 0
          0 0 0 0 0 0
        </DataArray>
        <DataArray type="Float32" Name="X^w_AuComplex" NumberOfComponents="1" format="ascii">
          1.40962e-16 1.41025e-16 1.41024e-16 1.41007e-16 1.41027e-16 1.41019e-16 1.41023e-16 1.41012e-16 1.41025e-16 1.41019e-16 1.41016e-16 1.41034e-16
          1.41021e-16 1.41028e-16 1.41003e-16 1.41014e-16 1.41002e-16 1.41015e-16 1.41007e-16 1.40988e-16 1.40985e-16 1.40995e-16 1.54436e-16 2.9438e-14
          6.88238e-11 1.07362e-10 1.84412e-10 3.64116e-10 1.83737e-15 1.79496e-15
        </DataArray>
        <DataArray type="Float32" Name="X^w_nanoAu" NumberOfComponents="1" format="ascii">
          5.38202e-19 5.38438e-19 5.38434e-19 5.38371e-19 5.38445e-19 5.38418e-19 5.3843e-19 5.38391e-19 5.38439e-19 5.38419e-19 5.38405e-19 5.38473e-19
          5.38427e-19 5.38452e-19 5.38362e-19 5.38405e-19 5.38364e-19 5.38413e-19 5.38389e-19 5.38366e-19 5.42051e-19 8.83464e-19 3.25049e-17 2.95702e-15
          2.63618e-13 3.35113e-13 4.46688e-13 6.26774e-13 2.06144e-18 1.99266e-18
        </DataArray>
        <DataArray type="Float32" Name="X^w_cyanide" NumberOfComponents="1" format="ascii">
          5.06917e-06 5.06917e-06 5.06917e-06 5.06917e-06 5.06917e-06 5.06917e-06 5.06917e-06 5.06917e-06 5.06916e-06 5.06916e-06 5.06915e-06 5.06914e-06
          5.06913e-06 5.06911e-06 5.06909e-06 5.06905e-06 5.069e-06 5.06894e-06 5.06884e-06 5.06871e-06 5.06853e-06 5.06826e-06 5.06786e-06 5.06726e-06
          5.06677e-06 6.43658e-06 8.57278e-06 1.22401e-05 1.94721e-05 1.92763e-05
        </DataArray>
        <DataArray type="Float32" Name="X^w_citrate" NumberOfComponents="1" format="ascii">
          0.000141796 0.000141796 0.000141796 0.000141796 0.000141796 0.000141796 0.000141796 0.000141796 0.000141796 0.000141796 0.000141796 0.000141796
          0.000141796 0.000141796 0.000141795 0.000141795 0.000141795 0.000141794 0.000141794 0.000141793 0.000141791 0.000141789 0.000141786 0.000141782
          0.000141775 0.000141764 0.000141741 0.000141689 0.000141513 0.00014009
        </DataArray>
        <DataArray type="Float32" Name="X^w_substrate" NumberOfComponents="1" format="ascii">
          7.89364e-12 1.06399e-11 1.43409e-11 1.93289e-11 2.60514e-11 3.51122e-11 4.73261e-11 6.37934e-11 8.60017e-11 1.15965e-10 1.56416e-10 2.11073e-10
          2.85011e-10 3.85197e-10 5.21251e-10 7.06576e-10 9.60044e-10 1.30861e-09 1.79147e-09 2.46692e-09 3.42423e-09 4.80517e-09 6.84568e-09 9.96298e-09
          1.49567e-08 2.35367e-08 3.9984e-08 7.79302e-08 2.03321e-07 1.20699e-06
        </DataArray>
        <DataArray type="Float32" Name="m^w_H2O" NumberOfComponents="1" format="ascii">
          55492.6 55492.6 55492.5 55492.5 55492.5 55492.5 55492.5 55492.5 55492.5 55492.5 55492.5 55492.5
          55492.5 55492.4 55492.4 55492.4 55492.4 55492.4 55492.4 55492.4 55492.4 55492.4 55492.4 55492.4
          55492.3 55492.3 55492.1 55491.9 55491.5 55491.6
        </DataArray>
        <DataArray type="Float32" Name="m^w_Air" NumberOfComponents="1" format="ascii">
          0 0 0 0 0 0 0 0 0 0 0 0
          0 0 0 0 0 0 0 0 0 0 0 0
          0 0 0 0 0 0
        </DataArray>
        <DataArray type="Float32" Name="m^w_AuComplex" NumberOfComponents="1" format="ascii">
          7.15548e-13 7.15866e-13 7.15862e-13 7.15776e-13 7.15876e-13 7.15839e-13 7.15856e-13 7.15802e-13 7.15867e-13 7.15839e-13 7.15819e-13 7.1591e-13
          7.15847e-13 7.1588e-13 7.15756e-13 7.15811e-13 7.15752e-13 7.15813e-13 7.15773e-13 7.15678e-13 7.15662e-13 7.15712e-13 7.8394e-13 1.49432e-10
          3.49361e-07 5.44985e-07 9.36106e-07 1.84831e-06 9.32677e-12 9.11152e-12
        </DataArray>
        <DataArray type="Float32" Name="m^w_nanoAu" NumberOfComponents="1" format="ascii">
          2.73201e-15 2.73321e-15 2.73319e-15 2.73287e-15 2.73324e-15 2.7331e-15 2.73317e-15 2.73297e-15 2.73321e-15 2.73311e-15 2.73304e-15 2.73338e-15
          2.73315e-15 2.73327e-15 2.73281e-15 2.73303e-15 2.73283e-15 2.73308e-15 2.73295e-15 2.73283e-15 2.75154e-15 4.48461e-15 1.65e-13 1.50103e-11
          1.33817e-09 1.70109e-09 2.26746e-09 3.1816e-09 1.04642e-14 1.01151e-14
        </DataArray>
        <DataArray type="Float32" Name="m^w_cyanide" NumberOfComponents="1" format="ascii">
          0.19479 0.19479 0.19479 0.19479 0.19479 0.19479 0.19479 0.19479 0.19479 0.194789 0.194789 0.194789
          0.194788 0.194787 0.194786 0.194785 0.194783 0.194781 0.194777 0.194772 0.194765 0.194754 0.194739 0.194716
          0.194697 0.247334 0.32942 0.470341 0.74824 0.740717
        </DataArray>
        <DataArray type="Float32" Name="m^w_citrate" NumberOfComponents="1" format="ascii">
          0.749742 0.749742 0.749742 0.749742 0.749742 0.749741 0.749741 0.749741 0.749741 0.74974 0.74974 0.749739
          0.749739 0.749738 0.749737 0.749735 0.749733 0.749731 0.749727 0.749722 0.749714 0.749704 0.749688 0.749665
          0.749627 0.749568 0.749451 0.749174 0.748243 0.740718
        </DataArray>
        <DataArray type="Float32" Name="m^w_substrate" NumberOfComponents="1" format="ascii">
          4.38082e-08 5.90492e-08 7.95896e-08 1.07272e-07 1.4458e-07 1.94866e-07 2.62651e-07 3.54041e-07 4.77293e-07 6.43585e-07 8.68081e-07 1.17141e-06
          1.58176e-06 2.13777e-06 2.89284e-06 3.92136e-06 5.32806e-06 7.26253e-06 9.9423e-06 1.36909e-05 1.90038e-05 2.66677e-05 3.79921e-05 5.52926e-05
          8.30066e-05 0.000130624 0.000221903 0.000432497 0.00112839 0.00669859
        </DataArray>
        <DataArray type="Float32" Name="process rank" NumberOfComponents="1" format="ascii">
          0 0 0 0 0 0 0 0 0 0 0 0
          0 0 0 0 0 0 0 0 0 0 0 0
          0 0 0 0 0 0
        </DataArray>
      </CellData>
      <Points>
        <DataArray type="Float32" Name="Coordinates" NumberOfComponents="3" format="ascii">
          0 0 0 0.5 0 0 0 0.0333333 0 0.5 0.0333333 0
          0 0.0666667 0 0.5 0.0666667 0 0 0.1 0 0.5 0.1 0
          0 0.133333 0 0.5 0.133333 0 0 0.166667 0 0.5 0.166667 0
          0 0.2 0 0.5 0.2 0 0 0.233333 0 0.5 0.233333 0
          0 0.266667 0 0.5 0.266667 0 0 0.3 0 0.5 0.3 0
          0 0.333333 0 0.5 0.333333 0 0 0.366667 0 0.5 0.366667 0
          0 0.4 0 0.5 0.4 0 0 0.433333 0 0.5 0.433333 0
          0 0.466667 0 0.5 0.466667 0 0 0.5 0 0.5 0.5 0
          0 0.533333 0 0.5 0.533333 0 0 0.566667 0 0.5 0.566667 0
          0 0.6 0 0.5 0.6 0 0 0.633333 0 0.5 0.633333 0
          0 0.666667 0 0.5 0.666667 0 0 0.7 0 0.5 0.7 0
          0 0.733333 0 0.5 0.733333 0 0 0.766667 0 0.5 0.766667 0
          0 0.8 0 0.5 0.8 0 0 0.833333 0 0.5 0.833333 0
          0 0.866667 0 0.5 0.866667 0 0 0.9 0 0.5 0.9 0
          0 0.933333 0 0.5 0.933333 0 0 0.966667 0 0.5 0.966667 0
          0 1 0 0.5 1 0
        </DataArray>
      </Points>
      <Cells>
        <DataArray type="Int32" Name="connectivity" NumberOfComponents="1" format="ascii">
          0 1 3 2 2 3 5 4 4 5 7 6
          6 7 9 8 8 9 11 10 10 11 13 12
          12 13 15 14 14 15 17 16 16 17 19 18
          18 19 21 20 20 21 23 22 22 23 25 24
          24 25 27 26 26 27 29 28 28 29 31 30
          30 31 33 32 32 33 35 34 34 35 37 36
          36 37 39 38 38 39 41 40 40 41 43 42
          42 43 45 44 44 45 47 46 46 47 49 48
          48 49 51 50 50 51 53 52 52 53 55 54
          54 55 57 56 56 57 59 58 58 59 61 60
        </DataArray>
        <DataArray type="Int32" Name="offsets" NumberOfComponents="1" format="ascii">
          4 8 12 16 20 24 28 32 36 40 44 48
          52 56 60 64 68 72 76 80 84 88 92 96
          100 104 108 112 116 120
        </DataArray>
        <DataArray type="UInt8" Name="types" NumberOfComponents="1" format="ascii">
          9 9 9 9 9 9 9 9 9 9 9 9
          9 9 9 9 9 9 9 9 9 9 9 9
          9 9 9 9 9 9
        </DataArray>
      </Cells>
    </Piece>
  </UnstructuredGrid>
</VTKFile>
