<?xml version="1.0"?>
<VTKFile type="UnstructuredGrid" version="0.1" byte_order="LittleEndian">
  <UnstructuredGrid>
    <Piece NumberOfCells="30" NumberOfPoints="62">
      <CellData Scalars="Sg">
        <DataArray type="Float32" Name="Sg" NumberOfComponents="1" format="ascii">
          0 0 0 0 0 0 0 0 0 0 0 0
          0 0 0 0 0 0 0 0 0 0 0 0
          0 0 0 0 0 0
        </DataArray>
        <DataArray type="Float32" Name="Sl" NumberOfComponents="1" format="ascii">
          1 1 1 1 1 1 1 1 1 1 1 1
          1 1 1 1 1 1 1 1 1 1 1 1
          1 1 1 1 1 1
        </DataArray>
        <DataArray type="Float32" Name="pg" NumberOfComponents="1" format="ascii">
          24687.8 24360.9 24034 23707 23380.1 23053.1 22726.2 22399.3 22072.3 21745.4 21418.4 21091.5
          20764.6 20437.6 20110.7 19783.7 19456.8 19129.8 18802.9 18476 18149 17822.1 17495.1 17168.2
          16841.3 16514.3 16187.4 15860.4 15533.5 20921.3
        </DataArray>
        <DataArray type="Float32" Name="pl" NumberOfComponents="1" format="ascii">
          110628 110301 109974 109647 109320 108993 108666 108339 108012 107685 107358 107031
          106704 106377 106050 105723 105396 105070 104743 104416 104089 103762 103435 103108
          102781 102454 102127 101800 101473 106861
        </DataArray>
        <DataArray type="Float32" Name="pc" NumberOfComponents="1" format="ascii">
          -85939.7 -85939.7 -85939.7 -85939.7 -85939.7 -85939.7 -85939.7 -85939.7 -85939.7 -85939.7 -85939.7 -85939.7
          -85939.7 -85939.7 -85939.7 -85939.7 -85939.7 -85939.7 -85939.7 -85939.7 -85939.7 -85939.7 -85939.7 -85939.7
          -85939.7 -85939.7 -85939.7 -85939.7 -85939.7 -85939.7
        </DataArray>
        <DataArray type="Float32" Name="rhoL" NumberOfComponents="1" format="ascii">
          999.855 999.855 999.855 999.855 999.855 999.854 999.854 999.854 999.854 999.854 999.854 999.854
          999.853 999.853 999.853 999.853 999.853 999.853 999.852 999.852 999.852 999.852 999.852 999.852
          999.852 999.851 999.851 999.851 999.851 999.853
        </DataArray>
        <DataArray type="Float32" Name="rhoG" NumberOfComponents="1" format="ascii">
          0.30585 0.3018 0.29775 0.293699 0.289649 0.285598 0.281548 0.277498 0.273447 0.269397 0.265347 0.261296
          0.257246 0.253195 0.249145 0.245095 0.241044 0.236994 0.232944 0.228893 0.224843 0.220793 0.216742 0.212692
          0.208641 0.204591 0.200541 0.19649 0.19244 0.259188
        </DataArray>
        <DataArray type="Float32" Name="mobL" NumberOfComponents="1" format="ascii">
          722.171 722.17 722.17 722.17 722.17 722.17 722.169 722.169 722.169 722.169 722.169 722.169
          722.168 722.168 722.168 722.168 722.168 722.167 722.167 722.167 722.167 722.167 722.166 722.166
          722.166 722.166 722.166 722.166 722.165 722.168
        </DataArray>
        <DataArray type="Float32" Name="mobG" NumberOfComponents="1" format="ascii">
          0 0 0 0 0 0 0 0 0 0 0 0
          0 0 0 0 0 0 0 0 0 0 0 0
          0 0 0 0 0 0
        </DataArray>
        <DataArray type="Float32" Name="porosity" NumberOfComponents="1" format="ascii">
          0.298791 0.298791 0.29879 0.29879 0.29879 0.298789 0.298789 0.298788 0.298787 0.298785 0.298782 0.298779
          0.298774 0.298768 0.29876 0.298748 0.298733 0.298711 0.298683 0.298644 0.29859 0.298514 0.298406 0.298243
          0.297717 0.297273 0.296381 0.294007 0.282059 0.00374639
        </DataArray>
        <DataArray type="Float32" Name="temperature" NumberOfComponents="1" format="ascii">
          281.15 281.15 281.15 281.15 281.15 281.15 281.15 281.15 281.15 281.15 281.15 281.15
          281.15 281.15 281.15 281.15 281.15 281.15 281.15 281.15 281.15 281.15 281.15 281.15
          281.15 281.15 281.15 281.15 281.15 281.15
        </DataArray>
        <DataArray type="Float32" Name="phase presence" NumberOfComponents="1" format="ascii">
          1 1 1 1 1 1 1 1 1 1 1 1
          1 1 1 1 1 1 1 1 1 1 1 1
          1 1 1 1 1 1
        </DataArray>
        <DataArray type="Float32" Name="precipitateVolumeFraction_au" NumberOfComponents="1" format="ascii">
          5.52527e-10 5.52772e-10 5.52769e-10 5.52703e-10 5.52781e-10 5.52752e-10 5.52766e-10 5.52725e-10 5.52776e-10 5.52756e-10 5.52742e-10 5.52814e-10
          5.52769e-10 5.52798e-10 5.52707e-10 5.52757e-10 5.52721e-10 5.52782e-10 5.52769e-10 5.52722e-10 5.52747e-10 5.52774e-10 5.53137e-10 1.32879e-09
          0.000269941 0.000269925 0.0002699 0.000269851 5.52279e-10 5.51258e-10
        </DataArray>
        <DataArray type="Float32" Name="precipitateVolumeFraction_nanoAu" NumberOfComponents="1" format="ascii">
          1.23569e-13 1.23624e-13 1.23624e-13 1.23609e-13 1.23626e-13 1.2362e-13 1.23623e-13 1.23614e-13 1.23625e-13 1.2362e-13 1.23617e-13 1.23633e-13
          1.23622e-13 1.23628e-13 1.23607e-13 1.23618e-13 1.23608e-13 1.2362e-13 1.23615e-13 1.23601e-13 1.23603e-13 1.23619e-13 1.35591e-13 2.58421e-11
          6.03561e-08 7.66794e-08 1.02148e-07 1.4559e-07 4.74448e-13 4.68158e-13
        </DataArray>
        <DataArray type="Float32" Name="precipitateVolumeFraction_d" NumberOfComponents="1" format="ascii">
          0.000604651 0.000604711 0.000604796 0.000604915 0.000605082 0.000605317 0.000605646 0.000606104 0.000606742 0.000607625 0.000608843 0.000610518
          0.000612809 0.000615934 0.00062018 0.000625935 0.000633725 0.000644271 0.000658585 0.000678125 0.000705073 0.000742853 0.000797166 0.000878263
          0.00100651 0.00122857 0.00167462 0.00286151 0.00897041 0.148127
        </DataArray>
        <DataArray type="Float32" Name="precipitateVolumeFraction_p" NumberOfComponents="1" format="ascii">
          0.000604651 0.000604711 0.000604796 0.000604915 0.000605082 0.000605317 0.000605646 0.000606104 0.000606742 0.000607625 0.000608843 0.000610518
          0.000612809 0.000615934 0.00062018 0.000625935 0.000633725 0.000644271 0.000658585 0.000678125 0.000705073 0.000742853 0.000797166 0.000878263
          0.00100651 0.00122857 0.00167462 0.00286151 0.00897041 0.148127
        </DataArray>
        <DataArray type="Float32" Name="K" NumberOfComponents="1" format="ascii">
          9.84551e-11 9.84549e-11 9.84547e-11 9.84544e-11 9.8454e-11 9.84534e-11 9.84526e-11 9.84514e-11 9.84498e-11 9.84475e-11 9.84445e-11 9.84402e-11
          9.84344e-11 9.84265e-11 9.84157e-11 9.84011e-11 9.83813e-11 9.83546e-11 9.83182e-11 9.82687e-11 9.82004e-11 9.81048e-11 9.79673e-11 9.77625e-11
          9.70999e-11 9.65439e-11 9.54348e-11 9.25347e-11 7.90089e-11 9.61457e-17
        </DataArray>
        <DataArray type="Float32" Name="X^w_H2O" NumberOfComponents="1" format="ascii">
          0.999853 0.999853 0.999853 0.999853 0.999853 0.999853 0.999853 0.999853 0.999853 0.999853 0.999853 0.999853
          0.999853 0.999853 0.999853 0.999853 0.999853 0.999853 0.999853 0.999853 0.999853 0.999853 0.999853 0.999853
          0.999853 0.999852 0.99985 0.999846 0.999839 0.999839
        </DataArray>
        <DataArray type="Float32" Name="X^w_Air" NumberOfComponents="1" format="ascii">
          0 0 0 0 0 0 0 0 0 0 0 0
          0 0 0 0 0 0 0 0 0 0 0 0
          0 0 0 0 0 0
        </DataArray>
        <DataArray type="Float32" Name="X^w_AuComplex" NumberOfComponents="1" format="ascii">
          1.40957e-16 1.4102e-16 1.41019e-16 1.41002e-16 1.41022e-16 1.41014e-16 1.41018e-16 1.41007e-16 1.4102e-16 1.41015e-16 1.41011e-16 1.41029e-16
          1.41016e-16 1.41023e-16 1.40998e-16 1.41009e-16 1.40998e-16 1.4101e-16 1.41002e-16 1.40983e-16 1.40979e-16 1.40989e-16 1.54444e-16 2.94526e-14
          6.88214e-11 1.07358e-10 1.84409e-10 3.64117e-10 1.83747e-15 1.79504e-15
        </DataArray>
        <DataArray type="Float32" Name="X^w_nanoAu" NumberOfComponents="1" format="ascii">
          5.3819e-19 5.38426e-19 5.38423e-19 5.3836e-19 5.38434e-19 5.38407e-19 5.38419e-19 5.3838e-19 5.38428e-19 5.38408e-19 5.38394e-19 5.38462e-19
          5.38416e-19 5.38441e-19 5.3835e-19 5.38393e-19 5.38353e-19 5.38402e-19 5.38377e-19 5.38354e-19 5.42038e-19 8.83435e-19 3.25039e-17 2.95697e-15
          2.63612e-13 3.35107e-13 4.46684e-13 6.2678e-13 2.06157e-18 1.99275e-18
        </DataArray>
        <DataArray type="Float32" Name="X^w_cyanide" NumberOfComponents="1" format="ascii">
          5.06908e-06 5.06909e-06 5.06909e-06 5.06909e-06 5.06909e-06 5.06909e-06 5.06909e-06 5.06908e-06 5.06908e-06 5.06908e-06 5.06907e-06 5.06906e-06
          5.06905e-06 5.06903e-06 5.069e-06 5.06897e-06 5.06892e-06 5.06885e-06 5.06875e-06 5.06862e-06 5.06843e-06 5.06816e-06 5.06776e-06 5.06716e-06
          5.06668e-06 6.43648e-06 8.57269e-06 1.22401e-05 1.94727e-05 1.92767e-05
        </DataArray>
        <DataArray type="Float32" Name="X^w_citrate" NumberOfComponents="1" format="ascii">
          0.000141796 0.000141796 0.000141796 0.000141796 0.000141796 0.000141796 0.000141796 0.000141796 0.000141796 0.000141796 0.000141796 0.000141796
          0.000141796 0.000141795 0.000141795 0.000141795 0.000141795 0.000141794 0.000141793 0.000141792 0.000141791 0.000141789 0.000141786 0.000141782
          0.000141775 0.000141764 0.000141742 0.00014169 0.000141517 0.000140092
        </DataArray>
        <DataArray type="Float32" Name="X^w_substrate" NumberOfComponents="1" format="ascii">
          9.05097e-12 1.2136e-11 1.62719e-11 2.18167e-11 2.92506e-11 3.92178e-11 5.25833e-11 7.05088e-11 9.45573e-11 1.26834e-10 1.7018e-10 2.28441e-10
          3.06842e-10 4.1252e-10 5.55279e-10 7.48714e-10 1.01188e-09 1.37188e-09 1.86794e-09 2.55818e-09 3.53123e-09 4.92735e-09 6.97924e-09 1.00972e-08
          1.50654e-08 2.35583e-08 3.97643e-08 7.70393e-08 2.00389e-07 1.20505e-06
        </DataArray>
        <DataArray type="Float32" Name="m^w_H2O" NumberOfComponents="1" format="ascii">
          55492.6 55492.6 55492.5 55492.5 55492.5 55492.5 55492.5 55492.5 55492.5 55492.5 55492.5 55492.5
          55492.5 55492.4 55492.4 55492.4 55492.4 55492.4 55492.4 55492.4 55492.4 55492.4 55492.4 55492.4
          55492.3 55492.3 55492.1 55491.9 55491.5 55491.7
        </DataArray>
        <DataArray type="Float32" Name="m^w_Air" NumberOfComponents="1" format="ascii">
          0 0 0 0 0 0 0 0 0 0 0 0
          0 0 0 0 0 0 0 0 0 0 0 0
          0 0 0 0 0 0
        </DataArray>
        <DataArray type="Float32" Name="m^w_AuComplex" NumberOfComponents="1" format="ascii">
          7.15523e-13 7.15841e-13 7.15837e-13 7.15751e-13 7.15852e-13 7.15814e-13 7.15831e-13 7.15778e-13 7.15843e-13 7.15815e-13 7.15795e-13 7.15887e-13
          7.15824e-13 7.15856e-13 7.15732e-13 7.15787e-13 7.15728e-13 7.15788e-13 7.15747e-13 7.15652e-13 7.15635e-13 7.15685e-13 7.8398e-13 1.49506e-10
          3.49348e-07 5.44968e-07 9.36087e-07 1.84832e-06 9.32731e-12 9.11191e-12
        </DataArray>
        <DataArray type="Float32" Name="m^w_nanoAu" NumberOfComponents="1" format="ascii">
          2.73195e-15 2.73315e-15 2.73313e-15 2.73281e-15 2.73319e-15 2.73305e-15 2.73311e-15 2.73291e-15 2.73316e-15 2.73305e-15 2.73298e-15 2.73333e-15
          2.73309e-15 2.73322e-15 2.73276e-15 2.73298e-15 2.73277e-15 2.73302e-15 2.73289e-15 2.73277e-15 2.75148e-15 4.48446e-15 1.64995e-13 1.501e-11
          1.33814e-09 1.70105e-09 2.26744e-09 3.18164e-09 1.04648e-14 1.01155e-14
        </DataArray>
        <DataArray type="Float32" Name="m^w_cyanide" NumberOfComponents="1" format="ascii">
          0.194787 0.194787 0.194787 0.194787 0.194787 0.194787 0.194787 0.194787 0.194786 0.194786 0.194786 0.194786
          0.194785 0.194784 0.194783 0.194782 0.19478 0.194777 0.194773 0.194768 0.194761 0.194751 0.194735 0.194712
          0.194694 0.24733 0.329416 0.470342 0.748262 0.740732
        </DataArray>
        <DataArray type="Float32" Name="m^w_citrate" NumberOfComponents="1" format="ascii">
          0.749742 0.749742 0.749742 0.749742 0.749742 0.749741 0.749741 0.749741 0.749741 0.74974 0.74974 0.749739
          0.749739 0.749738 0.749737 0.749735 0.749733 0.74973 0.749726 0.749721 0.749713 0.749703 0.749687 0.749664
          0.749627 0.749568 0.749452 0.74918 0.748265 0.740733
        </DataArray>
        <DataArray type="Float32" Name="m^w_substrate" NumberOfComponents="1" format="ascii">
          5.02312e-08 6.73525e-08 9.0306e-08 1.21079e-07 1.62336e-07 2.17652e-07 2.91827e-07 3.91311e-07 5.24775e-07 7.03904e-07 9.44465e-07 1.2678e-06
          1.70292e-06 2.2894e-06 3.08169e-06 4.15522e-06 5.61576e-06 7.61368e-06 1.03667e-05 1.41974e-05 1.95976e-05 2.73458e-05 3.87334e-05 5.60372e-05
          8.36099e-05 0.000130744 0.000220684 0.000427552 0.00111212 0.00668777
        </DataArray>
        <DataArray type="Float32" Name="process rank" NumberOfComponents="1" format="ascii">
          0 0 0 0 0 0 0 0 0 0 0 0
          0 0 0 0 0 0 0 0 0 0 0 0
          0 0 0 0 0 0
        </DataArray>
      </CellData>
      <Points>
        <DataArray type="Float32" Name="Coordinates" NumberOfComponents="3" format="ascii">
          0 0 0 0.5 0 0 0 0.0333333 0 0.5 0.0333333 0
          0 0.0666667 0 0.5 0.0666667 0 0 0.1 0 0.5 0.1 0
          0 0.133333 0 0.5 0.133333 0 0 0.166667 0 0.5 0.166667 0
          0 0.2 0 0.5 0.2 0 0 0.233333 0 0.5 0.233333 0
          0 0.266667 0 0.5 0.266667 0 0 0.3 0 0.5 0.3 0
          0 0.333333 0 0.5 0.333333 0 0 0.366667 0 0.5 0.366667 0
          0 0.4 0 0.5 0.4 0 0 0.433333 0 0.5 0.433333 0
          0 0.466667 0 0.5 0.466667 0 0 0.5 0 0.5 0.5 0
          0 0.533333 0 0.5 0.533333 0 0 0.566667 0 0.5 0.566667 0
          0 0.6 0 0.5 0.6 0 0 0.633333 0 0.5 0.633333 0
          0 0.666667 0 0.5 0.666667 0 0 0.7 0 0.5 0.7 0
          0 0.733333 0 0.5 0.733333 0 0 0.766667 0 0.5 0.766667 0
          0 0.8 0 0.5 0.8 0 0 0.833333 0 0.5 0.833333 0
          0 0.866667 0 0.5 0.866667 0 0 0.9 0 0.5 0.9 0
          0 0.933333 0 0.5 0.933333 0 0 0.966667 0 0.5 0.966667 0
          0 1 0 0.5 1 0
        </DataArray>
      </Points>
      <Cells>
        <DataArray type="Int32" Name="connectivity" NumberOfComponents="1" format="ascii">
          0 1 3 2 2 3 5 4 4 5 7 6
          6 7 9 8 8 9 11 10 10 11 13 12
          12 13 15 14 14 15 17 16 16 17 19 18
          18 19 21 20 20 21 23 22 22 23 25 24
          24 25 27 26 26 27 29 28 28 29 31 30
          30 31 33 32 32 33 35 34 34 35 37 36
          36 37 39 38 38 39 41 40 40 41 43 42
          42 43 45 44 44 45 47 46 46 47 49 48
          48 49 51 50 50 51 53 52 52 53 55 54
          54 55 57 56 56 57 59 58 58 59 61 60
        </DataArray>
        <DataArray type="Int32" Name="offsets" NumberOfComponents="1" format="ascii">
          4 8 12 16 20 24 28 32 36 40 44 48
          52 56 60 64 68 72 76 80 84 88 92 96
          100 104 108 112 116 120
        </DataArray>
        <DataArray type="UInt8" Name="types" NumberOfComponents="1" format="ascii">
          9 9 9 9 9 9 9 9 9 9 9 9
          9 9 9 9 9 9 9 9 9 9 9 9
          9 9 9 9 9 9
        </DataArray>
      </Cells>
    </Piece>
  </UnstructuredGrid>
</VTKFile>
