<?xml version="1.0"?>
<VTKFile type="UnstructuredGrid" version="0.1" byte_order="LittleEndian">
  <UnstructuredGrid>
    <Piece NumberOfCells="30" NumberOfPoints="62">
      <CellData Scalars="Sg">
        <DataArray type="Float32" Name="Sg" NumberOfComponents="1" format="ascii">
          0 0 0 0 0 0 0 0 0 0 0 0
          0 0 0 0 0 0 0 0 0 0 0 0
          0 0 0 0 0 0
        </DataArray>
        <DataArray type="Float32" Name="Sl" NumberOfComponents="1" format="ascii">
          1 1 1 1 1 1 1 1 1 1 1 1
          1 1 1 1 1 1 1 1 1 1 1 1
          1 1 1 1 1 1
        </DataArray>
        <DataArray type="Float32" Name="pg" NumberOfComponents="1" format="ascii">
          24687.8 24360.9 24034 23707 23380.1 23053.1 22726.2 22399.3 22072.3 21745.4 21418.4 21091.5
          20764.6 20437.6 20110.7 19783.7 19456.8 19129.9 18802.9 18476 18149 17822.1 17495.1 17168.2
          16841.3 16514.3 16187.4 15860.4 15533.5 15207.6
        </DataArray>
        <DataArray type="Float32" Name="pl" NumberOfComponents="1" format="ascii">
          110628 110301 109974 109647 109320 108993 108666 108339 108012 107685 107358 107031
          106704 106377 106050 105723 105396 105070 104743 104416 104089 103762 103435 103108
          102781 102454 102127 101800 101473 101147
        </DataArray>
        <DataArray type="Float32" Name="pc" NumberOfComponents="1" format="ascii">
          -85939.7 -85939.7 -85939.7 -85939.7 -85939.7 -85939.7 -85939.7 -85939.7 -85939.7 -85939.7 -85939.7 -85939.7
          -85939.7 -85939.7 -85939.7 -85939.7 -85939.7 -85939.7 -85939.7 -85939.7 -85939.7 -85939.7 -85939.7 -85939.7
          -85939.7 -85939.7 -85939.7 -85939.7 -85939.7 -85939.7
        </DataArray>
        <DataArray type="Float32" Name="rhoL" NumberOfComponents="1" format="ascii">
          999.855 999.855 999.855 999.855 999.855 999.854 999.854 999.854 999.854 999.854 999.854 999.854
          999.853 999.853 999.853 999.853 999.853 999.853 999.852 999.852 999.852 999.852 999.852 999.852
          999.852 999.851 999.851 999.851 999.851 999.851
        </DataArray>
        <DataArray type="Float32" Name="rhoG" NumberOfComponents="1" format="ascii">
          0.30585 0.3018 0.29775 0.293699 0.289649 0.285598 0.281548 0.277498 0.273447 0.269397 0.265347 0.261296
          0.257246 0.253195 0.249145 0.245095 0.241044 0.236994 0.232944 0.228893 0.224843 0.220793 0.216742 0.212692
          0.208641 0.204591 0.200541 0.19649 0.19244 0.188402
        </DataArray>
        <DataArray type="Float32" Name="mobL" NumberOfComponents="1" format="ascii">
          722.171 722.17 722.17 722.17 722.17 722.17 722.169 722.169 722.169 722.169 722.169 722.169
          722.168 722.168 722.168 722.168 722.168 722.167 722.167 722.167 722.167 722.167 722.166 722.166
          722.166 722.166 722.166 722.166 722.165 722.165
        </DataArray>
        <DataArray type="Float32" Name="mobG" NumberOfComponents="1" format="ascii">
          0 0 0 0 0 0 0 0 0 0 0 0
          0 0 0 0 0 0 0 0 0 0 0 0
          0 0 0 0 0 0
        </DataArray>
        <DataArray type="Float32" Name="porosity" NumberOfComponents="1" format="ascii">
          0.298573 0.298573 0.298572 0.298572 0.298572 0.298571 0.29857 0.298569 0.298568 0.298566 0.298563 0.298559
          0.298554 0.298547 0.298537 0.298524 0.298506 0.298482 0.298449 0.298405 0.298344 0.298259 0.298139 0.297961
          0.297414 0.296947 0.296052 0.293869 0.285003 0.0640623
        </DataArray>
        <DataArray type="Float32" Name="temperature" NumberOfComponents="1" format="ascii">
          281.15 281.15 281.15 281.15 281.15 281.15 281.15 281.15 281.15 281.15 281.15 281.15
          281.15 281.15 281.15 281.15 281.15 281.15 281.15 281.15 281.15 281.15 281.15 281.15
          281.15 281.15 281.15 281.15 281.15 281.15
        </DataArray>
        <DataArray type="Float32" Name="phase presence" NumberOfComponents="1" format="ascii">
          1 1 1 1 1 1 1 1 1 1 1 1
          1 1 1 1 1 1 1 1 1 1 1 1
          1 1 1 1 1 1
        </DataArray>
        <DataArray type="Float32" Name="precipitateVolumeFraction_au" NumberOfComponents="1" format="ascii">
          5.5251e-10 5.52752e-10 5.52749e-10 5.52683e-10 5.52761e-10 5.52732e-10 5.52746e-10 5.52705e-10 5.52756e-10 5.52735e-10 5.52722e-10 5.52794e-10
          5.52748e-10 5.52778e-10 5.52687e-10 5.52737e-10 5.52701e-10 5.52762e-10 5.52749e-10 5.52702e-10 5.52727e-10 5.52754e-10 5.52869e-10 7.98395e-10
          0.00026994 0.000269924 0.000269899 0.000269854 5.5226e-10 5.51254e-10
        </DataArray>
        <DataArray type="Float32" Name="precipitateVolumeFraction_nanoAu" NumberOfComponents="1" format="ascii">
          1.40517e-13 1.44097e-13 1.44003e-13 1.43436e-13 1.44039e-13 1.43839e-13 1.43898e-13 1.43713e-13 1.43899e-13 1.43828e-13 1.43792e-13 1.43931e-13
          1.43834e-13 1.43865e-13 1.43743e-13 1.43799e-13 1.43763e-13 1.43807e-13 1.4379e-13 1.43754e-13 1.4376e-13 1.43778e-13 1.55757e-13 2.58837e-11
          6.04539e-08 7.67847e-08 1.02247e-07 1.45627e-07 4.93641e-13 4.8566e-13
        </DataArray>
        <DataArray type="Float32" Name="precipitateVolumeFraction_d" NumberOfComponents="1" format="ascii">
          0.000713641 0.000713709 0.000713806 0.000713942 0.000714134 0.000714403 0.000714781 0.000715307 0.00071604 0.000717055 0.000718456 0.000720381
          0.000723014 0.000726603 0.000731476 0.000738073 0.000746987 0.000759027 0.000775322 0.000797483 0.000827896 0.000870258 0.000930629 0.00101969
          0.00115808 0.00139135 0.00183909 0.00293035 0.00749851 0.117969
        </DataArray>
        <DataArray type="Float32" Name="precipitateVolumeFraction_p" NumberOfComponents="1" format="ascii">
          0.000713641 0.000713709 0.000713806 0.000713942 0.000714134 0.000714403 0.000714781 0.000715307 0.00071604 0.000717055 0.000718456 0.000720381
          0.000723014 0.000726603 0.000731476 0.000738073 0.000746987 0.000759027 0.000775322 0.000797483 0.000827896 0.000870258 0.000930629 0.00101969
          0.00115808 0.00139135 0.00183909 0.00293035 0.00749851 0.117969
        </DataArray>
        <DataArray type="Float32" Name="K" NumberOfComponents="1" format="ascii">
          9.81787e-11 9.81785e-11 9.81783e-11 9.8178e-11 9.81775e-11 9.81768e-11 9.81758e-11 9.81745e-11 9.81726e-11 9.81701e-11 9.81665e-11 9.81617e-11
          9.8155e-11 9.81459e-11 9.81336e-11 9.81169e-11 9.80943e-11 9.80638e-11 9.80226e-11 9.79666e-11 9.78897e-11 9.77827e-11 9.76304e-11 9.74061e-11
          9.67201e-11 9.61379e-11 9.50285e-11 9.23687e-11 8.21811e-11 5.44687e-13
        </DataArray>
        <DataArray type="Float32" Name="X^w_H2O" NumberOfComponents="1" format="ascii">
          0.999853 0.999853 0.999853 0.999853 0.999853 0.999853 0.999853 0.999853 0.999853 0.999853 0.999853 0.999853
          0.999853 0.999853 0.999853 0.999853 0.999853 0.999853 0.999853 0.999853 0.999853 0.999853 0.999853 0.999853
          0.999853 0.999852 0.99985 0.999846 0.999839 0.99984
        </DataArray>
        <DataArray type="Float32" Name="X^w_Air" NumberOfComponents="1" format="ascii">
          0 0 0 0 0 0 0 0 0 0 0 0
          0 0 0 0 0 0 0 0 0 0 0 0
          0 0 0 0 0 0
        </DataArray>
        <DataArray type="Float32" Name="X^w_AuComplex" NumberOfComponents="1" format="ascii">
          1.57534e-16 1.60989e-16 1.60896e-16 1.60345e-16 1.60927e-16 1.60731e-16 1.60786e-16 1.60604e-16 1.60783e-16 1.60712e-16 1.60674e-16 1.60808e-16
          1.60711e-16 1.60739e-16 1.60615e-16 1.60668e-16 1.60628e-16 1.60669e-16 1.60647e-16 1.60603e-16 1.60601e-16 1.60608e-16 1.74076e-16 2.95267e-14
          6.90065e-11 1.07607e-10 1.84717e-10 3.64287e-10 1.90662e-15 1.85336e-15
        </DataArray>
        <DataArray type="Float32" Name="X^w_nanoAu" NumberOfComponents="1" format="ascii">
          6.12203e-19 6.27626e-19 6.27195e-19 6.24782e-19 6.27371e-19 6.2651e-19 6.26755e-19 6.25969e-19 6.26765e-19 6.26459e-19 6.26308e-19 6.26903e-19
          6.26487e-19 6.26613e-19 6.26091e-19 6.26328e-19 6.26172e-19 6.26362e-19 6.26284e-19 6.26164e-19 6.29899e-19 9.73584e-19 3.27504e-17 2.9666e-15
          2.6403e-13 3.35542e-13 4.47047e-13 6.26717e-13 2.14291e-18 2.06081e-18
        </DataArray>
        <DataArray type="Float32" Name="X^w_cyanide" NumberOfComponents="1" format="ascii">
          5.07813e-06 5.07806e-06 5.07799e-06 5.07792e-06 5.07785e-06 5.07778e-06 5.07771e-06 5.07764e-06 5.07757e-06 5.07749e-06 5.07742e-06 5.07735e-06
          5.07727e-06 5.07718e-06 5.07709e-06 5.077e-06 5.07688e-06 5.07675e-06 5.07658e-06 5.07637e-06 5.07609e-06 5.0757e-06 5.07514e-06 5.07428e-06
          5.07339e-06 6.4437e-06 8.57954e-06 1.22429e-05 1.94548e-05 1.92166e-05
        </DataArray>
        <DataArray type="Float32" Name="X^w_citrate" NumberOfComponents="1" format="ascii">
          0.000141796 0.000141796 0.000141796 0.000141796 0.000141796 0.000141796 0.000141796 0.000141796 0.000141796 0.000141796 0.000141796 0.000141796
          0.000141796 0.000141796 0.000141795 0.000141795 0.000141795 0.000141794 0.000141794 0.000141792 0.000141791 0.000141789 0.000141785 0.000141779
          0.000141769 0.000141753 0.00014172 0.000141642 0.000141387 0.000139656
        </DataArray>
        <DataArray type="Float32" Name="X^w_substrate" NumberOfComponents="1" format="ascii">
          3.98879e-12 5.57686e-12 7.79703e-12 1.09009e-11 1.52405e-11 2.13082e-11 2.97933e-11 4.16615e-11 5.82668e-11 8.15101e-11 1.14066e-10 1.59706e-10
          2.23768e-10 3.1384e-10 4.40776e-10 6.2022e-10 8.74959e-10 1.23862e-09 1.76167e-09 2.52152e-09 3.64013e-09 5.31659e-09 7.89057e-09 1.19763e-08
          1.87725e-08 3.08754e-08 5.48013e-08 1.10963e-07 2.92234e-07 1.513e-06
        </DataArray>
        <DataArray type="Float32" Name="m^w_H2O" NumberOfComponents="1" format="ascii">
          55492.6 55492.5 55492.5 55492.5 55492.5 55492.5 55492.5 55492.5 55492.5 55492.5 55492.5 55492.5
          55492.5 55492.4 55492.4 55492.4 55492.4 55492.4 55492.4 55492.4 55492.4 55492.4 55492.4 55492.4
          55492.3 55492.3 55492.1 55491.9 55491.5 55491.6
        </DataArray>
        <DataArray type="Float32" Name="m^w_Air" NumberOfComponents="1" format="ascii">
          0 0 0 0 0 0 0 0 0 0 0 0
          0 0 0 0 0 0 0 0 0 0 0 0
          0 0 0 0 0 0
        </DataArray>
        <DataArray type="Float32" Name="m^w_AuComplex" NumberOfComponents="1" format="ascii">
          7.99669e-13 8.17207e-13 8.16735e-13 8.13942e-13 8.16894e-13 8.15897e-13 8.16175e-13 8.15256e-13 8.1616e-13 8.158e-13 8.15607e-13 8.1629e-13
          8.15795e-13 8.15937e-13 8.1531e-13 8.15576e-13 8.15373e-13 8.15583e-13 8.1547e-13 8.15249e-13 8.15238e-13 8.15273e-13 8.83638e-13 1.49882e-10
          3.50288e-07 5.46232e-07 9.37652e-07 1.84918e-06 9.67829e-12 9.40795e-12
        </DataArray>
        <DataArray type="Float32" Name="m^w_nanoAu" NumberOfComponents="1" format="ascii">
          3.10765e-15 3.18594e-15 3.18375e-15 3.1715e-15 3.18465e-15 3.18028e-15 3.18152e-15 3.17753e-15 3.18157e-15 3.18001e-15 3.17925e-15 3.18227e-15
          3.18016e-15 3.1808e-15 3.17814e-15 3.17935e-15 3.17855e-15 3.17952e-15 3.17912e-15 3.17851e-15 3.19747e-15 4.94207e-15 1.66246e-13 1.50589e-11
          1.34026e-09 1.70326e-09 2.26928e-09 3.18131e-09 1.08778e-14 1.0461e-14
        </DataArray>
        <DataArray type="Float32" Name="m^w_cyanide" NumberOfComponents="1" format="ascii">
          0.195134 0.195132 0.195129 0.195126 0.195123 0.195121 0.195118 0.195115 0.195112 0.19511 0.195107 0.195104
          0.195101 0.195098 0.195094 0.19509 0.195086 0.195081 0.195074 0.195066 0.195055 0.19504 0.195019 0.194986
          0.194951 0.247607 0.329679 0.470448 0.747573 0.738421
        </DataArray>
        <DataArray type="Float32" Name="m^w_citrate" NumberOfComponents="1" format="ascii">
          0.749742 0.749742 0.749742 0.749742 0.749742 0.749742 0.749741 0.749741 0.749741 0.749741 0.74974 0.74974
          0.749739 0.749739 0.749737 0.749736 0.749734 0.749731 0.749727 0.749721 0.749713 0.7497 0.749681 0.74965
          0.749599 0.749513 0.74934 0.748926 0.747576 0.738422
        </DataArray>
        <DataArray type="Float32" Name="m^w_substrate" NumberOfComponents="1" format="ascii">
          2.21371e-08 3.09506e-08 4.32721e-08 6.04981e-08 8.45819e-08 1.18257e-07 1.65347e-07 2.31214e-07 3.23369e-07 4.52366e-07 6.33044e-07 8.86338e-07
          1.24187e-06 1.74175e-06 2.44622e-06 3.4421e-06 4.85585e-06 6.8741e-06 9.77694e-06 1.39939e-05 2.0202e-05 2.9506e-05 4.37911e-05 6.64659e-05
          0.000104184 0.000171352 0.000304136 0.000615824 0.00162184 0.00839681
        </DataArray>
        <DataArray type="Float32" Name="process rank" NumberOfComponents="1" format="ascii">
          0 0 0 0 0 0 0 0 0 0 0 0
          0 0 0 0 0 0 0 0 0 0 0 0
          0 0 0 0 0 0
        </DataArray>
      </CellData>
      <Points>
        <DataArray type="Float32" Name="Coordinates" NumberOfComponents="3" format="ascii">
          0 0 0 0.5 0 0 0 0.0333333 0 0.5 0.0333333 0
          0 0.0666667 0 0.5 0.0666667 0 0 0.1 0 0.5 0.1 0
          0 0.133333 0 0.5 0.133333 0 0 0.166667 0 0.5 0.166667 0
          0 0.2 0 0.5 0.2 0 0 0.233333 0 0.5 0.233333 0
          0 0.266667 0 0.5 0.266667 0 0 0.3 0 0.5 0.3 0
          0 0.333333 0 0.5 0.333333 0 0 0.366667 0 0.5 0.366667 0
          0 0.4 0 0.5 0.4 0 0 0.433333 0 0.5 0.433333 0
          0 0.466667 0 0.5 0.466667 0 0 0.5 0 0.5 0.5 0
          0 0.533333 0 0.5 0.533333 0 0 0.566667 0 0.5 0.566667 0
          0 0.6 0 0.5 0.6 0 0 0.633333 0 0.5 0.633333 0
          0 0.666667 0 0.5 0.666667 0 0 0.7 0 0.5 0.7 0
          0 0.733333 0 0.5 0.733333 0 0 0.766667 0 0.5 0.766667 0
          0 0.8 0 0.5 0.8 0 0 0.833333 0 0.5 0.833333 0
          0 0.866667 0 0.5 0.866667 0 0 0.9 0 0.5 0.9 0
          0 0.933333 0 0.5 0.933333 0 0 0.966667 0 0.5 0.966667 0
          0 1 0 0.5 1 0
        </DataArray>
      </Points>
      <Cells>
        <DataArray type="Int32" Name="connectivity" NumberOfComponents="1" format="ascii">
          0 1 3 2 2 3 5 4 4 5 7 6
          6 7 9 8 8 9 11 10 10 11 13 12
          12 13 15 14 14 15 17 16 16 17 19 18
          18 19 21 20 20 21 23 22 22 23 25 24
          24 25 27 26 26 27 29 28 28 29 31 30
          30 31 33 32 32 33 35 34 34 35 37 36
          36 37 39 38 38 39 41 40 40 41 43 42
          42 43 45 44 44 45 47 46 46 47 49 48
          48 49 51 50 50 51 53 52 52 53 55 54
          54 55 57 56 56 57 59 58 58 59 61 60
        </DataArray>
        <DataArray type="Int32" Name="offsets" NumberOfComponents="1" format="ascii">
          4 8 12 16 20 24 28 32 36 40 44 48
          52 56 60 64 68 72 76 80 84 88 92 96
          100 104 108 112 116 120
        </DataArray>
        <DataArray type="UInt8" Name="types" NumberOfComponents="1" format="ascii">
          9 9 9 9 9 9 9 9 9 9 9 9
          9 9 9 9 9 9 9 9 9 9 9 9
          9 9 9 9 9 9
        </DataArray>
      </Cells>
    </Piece>
  </UnstructuredGrid>
</VTKFile>
