<?xml version="1.0"?>
<VTKFile type="UnstructuredGrid" version="0.1" byte_order="LittleEndian">
  <UnstructuredGrid>
    <Piece NumberOfCells="30" NumberOfPoints="62">
      <CellData Scalars="Sg">
        <DataArray type="Float32" Name="Sg" NumberOfComponents="1" format="ascii">
          0 0 0 0 0 0 0 0 0 0 0 0
          0 0 0 0 0 0 0 0 0 0 0 0
          0 0 0 0 0 0
        </DataArray>
        <DataArray type="Float32" Name="Sl" NumberOfComponents="1" format="ascii">
          1 1 1 1 1 1 1 1 1 1 1 1
          1 1 1 1 1 1 1 1 1 1 1 1
          1 1 1 1 1 1
        </DataArray>
        <DataArray type="Float32" Name="pg" NumberOfComponents="1" format="ascii">
          24687.8 24360.9 24034 23707 23380.1 23053.1 22726.2 22399.3 22072.3 21745.4 21418.4 21091.5
          20764.6 20437.6 20110.7 19783.7 19456.8 19129.8 18802.9 18476 18149 17822.1 17495.1 17168.2
          16841.3 16514.3 16187.4 15860.4 15533.5 15209.6
        </DataArray>
        <DataArray type="Float32" Name="pl" NumberOfComponents="1" format="ascii">
          110628 110301 109974 109647 109320 108993 108666 108339 108012 107685 107358 107031
          106704 106377 106050 105723 105396 105070 104743 104416 104089 103762 103435 103108
          102781 102454 102127 101800 101473 101149
        </DataArray>
        <DataArray type="Float32" Name="pc" NumberOfComponents="1" format="ascii">
          -85939.7 -85939.7 -85939.7 -85939.7 -85939.7 -85939.7 -85939.7 -85939.7 -85939.7 -85939.7 -85939.7 -85939.7
          -85939.7 -85939.7 -85939.7 -85939.7 -85939.7 -85939.7 -85939.7 -85939.7 -85939.7 -85939.7 -85939.7 -85939.7
          -85939.7 -85939.7 -85939.7 -85939.7 -85939.7 -85939.7
        </DataArray>
        <DataArray type="Float32" Name="rhoL" NumberOfComponents="1" format="ascii">
          999.855 999.855 999.855 999.855 999.855 999.854 999.854 999.854 999.854 999.854 999.854 999.854
          999.853 999.853 999.853 999.853 999.853 999.853 999.852 999.852 999.852 999.852 999.852 999.852
          999.852 999.851 999.851 999.851 999.851 999.851
        </DataArray>
        <DataArray type="Float32" Name="rhoG" NumberOfComponents="1" format="ascii">
          0.30585 0.3018 0.29775 0.293699 0.289649 0.285598 0.281548 0.277498 0.273447 0.269397 0.265347 0.261296
          0.257246 0.253195 0.249145 0.245095 0.241044 0.236994 0.232944 0.228893 0.224843 0.220793 0.216742 0.212692
          0.208641 0.204591 0.200541 0.19649 0.19244 0.188427
        </DataArray>
        <DataArray type="Float32" Name="mobL" NumberOfComponents="1" format="ascii">
          722.171 722.17 722.17 722.17 722.17 722.17 722.169 722.169 722.169 722.169 722.169 722.169
          722.168 722.168 722.168 722.168 722.168 722.167 722.167 722.167 722.167 722.167 722.166 722.166
          722.166 722.166 722.166 722.166 722.165 722.165
        </DataArray>
        <DataArray type="Float32" Name="mobG" NumberOfComponents="1" format="ascii">
          0 0 0 0 0 0 0 0 0 0 0 0
          0 0 0 0 0 0 0 0 0 0 0 0
          0 0 0 0 0 0
        </DataArray>
        <DataArray type="Float32" Name="porosity" NumberOfComponents="1" format="ascii">
          0.298833 0.298833 0.298833 0.298832 0.298832 0.298832 0.298831 0.29883 0.298829 0.298827 0.298825 0.298822
          0.298817 0.298811 0.298803 0.298792 0.298776 0.298756 0.298728 0.29869 0.298638 0.298565 0.29846 0.298303
          0.297784 0.297355 0.296495 0.294222 0.283045 0.0450309
        </DataArray>
        <DataArray type="Float32" Name="temperature" NumberOfComponents="1" format="ascii">
          281.15 281.15 281.15 281.15 281.15 281.15 281.15 281.15 281.15 281.15 281.15 281.15
          281.15 281.15 281.15 281.15 281.15 281.15 281.15 281.15 281.15 281.15 281.15 281.15
          281.15 281.15 281.15 281.15 281.15 281.15
        </DataArray>
        <DataArray type="Float32" Name="phase presence" NumberOfComponents="1" format="ascii">
          1 1 1 1 1 1 1 1 1 1 1 1
          1 1 1 1 1 1 1 1 1 1 1 1
          1 1 1 1 1 1
        </DataArray>
        <DataArray type="Float32" Name="precipitateVolumeFraction_au" NumberOfComponents="1" format="ascii">
          5.52614e-10 5.52766e-10 5.52715e-10 5.52751e-10 5.52773e-10 5.52746e-10 5.52722e-10 5.52701e-10 5.52782e-10 5.52795e-10 5.52801e-10 5.52755e-10
          5.52783e-10 5.52757e-10 5.5271e-10 5.52755e-10 5.5273e-10 5.52766e-10 5.52784e-10 5.52753e-10 5.52777e-10 5.52781e-10 5.52956e-10 1.15906e-09
          0.000269941 0.000269925 0.0002699 0.000269852 5.52263e-10 5.51112e-10
        </DataArray>
        <DataArray type="Float32" Name="precipitateVolumeFraction_nanoAu" NumberOfComponents="1" format="ascii">
          1.23626e-13 1.2366e-13 1.23649e-13 1.23657e-13 1.23661e-13 1.23655e-13 1.2365e-13 1.23645e-13 1.23663e-13 1.23666e-13 1.23667e-13 1.23656e-13
          1.23662e-13 1.23656e-13 1.23644e-13 1.23653e-13 1.23646e-13 1.23651e-13 1.23652e-13 1.23641e-13 1.23641e-13 1.23648e-13 1.33733e-13 2.355e-11
          6.03621e-08 7.66823e-08 1.02141e-07 1.45578e-07 4.74224e-13 4.67166e-13
        </DataArray>
        <DataArray type="Float32" Name="precipitateVolumeFraction_d" NumberOfComponents="1" format="ascii">
          0.000583529 0.000583587 0.00058367 0.000583787 0.000583951 0.00058418 0.000584501 0.000584949 0.00058557 0.00058643 0.000587616 0.000589244
          0.000591472 0.000594508 0.000598632 0.000604219 0.000611779 0.000622009 0.00063589 0.000654834 0.000680954 0.00071756 0.000770168 0.000848683
          0.000972761 0.00118733 0.00161728 0.00275424 0.00847733 0.127485
        </DataArray>
        <DataArray type="Float32" Name="precipitateVolumeFraction_p" NumberOfComponents="1" format="ascii">
          0.000583529 0.000583587 0.00058367 0.000583787 0.000583951 0.00058418 0.000584501 0.000584949 0.00058557 0.00058643 0.000587616 0.000589244
          0.000591472 0.000594508 0.000598632 0.000604219 0.000611779 0.000622009 0.00063589 0.000654834 0.000680954 0.00071756 0.000770168 0.000848683
          0.000972761 0.00118733 0.00161728 0.00275424 0.00847733 0.127485
        </DataArray>
        <DataArray type="Float32" Name="K" NumberOfComponents="1" format="ascii">
          9.85087e-11 9.85086e-11 9.85084e-11 9.85081e-11 9.85077e-11 9.85071e-11 9.85063e-11 9.85051e-11 9.85035e-11 9.85014e-11 9.84983e-11 9.84942e-11
          9.84886e-11 9.84808e-11 9.84704e-11 9.84562e-11 9.8437e-11 9.8411e-11 9.83758e-11 9.83278e-11 9.82615e-11 9.81688e-11 9.80356e-11 9.78372e-11
          9.71846e-11 9.66469e-11 9.55768e-11 9.27938e-11 8.00603e-11 1.81713e-13
        </DataArray>
        <DataArray type="Float32" Name="X^w_H2O" NumberOfComponents="1" format="ascii">
          0.999853 0.999853 0.999853 0.999853 0.999853 0.999853 0.999853 0.999853 0.999853 0.999853 0.999853 0.999853
          0.999853 0.999853 0.999853 0.999853 0.999853 0.999853 0.999853 0.999853 0.999853 0.999853 0.999853 0.999853
          0.999853 0.999852 0.99985 0.999846 0.999839 0.99984
        </DataArray>
        <DataArray type="Float32" Name="X^w_Air" NumberOfComponents="1" format="ascii">
          0 0 0 0 0 0 0 0 0 0 0 0
          0 0 0 0 0 0 0 0 0 0 0 0
          0 0 0 0 0 0
        </DataArray>
        <DataArray type="Float32" Name="X^w_AuComplex" NumberOfComponents="1" format="ascii">
          1.28532e-16 1.28567e-16 1.28555e-16 1.28564e-16 1.28569e-16 1.28562e-16 1.28557e-16 1.28552e-16 1.2857e-16 1.28573e-16 1.28574e-16 1.28562e-16
          1.28568e-16 1.28561e-16 1.28548e-16 1.28556e-16 1.28547e-16 1.28551e-16 1.28549e-16 1.28534e-16 1.28528e-16 1.28526e-16 1.38824e-16 2.44593e-14
          6.27227e-11 9.78349e-11 1.6802e-10 3.31709e-10 1.67283e-15 1.62925e-15
        </DataArray>
        <DataArray type="Float32" Name="X^w_nanoAu" NumberOfComponents="1" format="ascii">
          5.38435e-19 5.38581e-19 5.38532e-19 5.38568e-19 5.38588e-19 5.38562e-19 5.38538e-19 5.38518e-19 5.38595e-19 5.38607e-19 5.3861e-19 5.38564e-19
          5.38588e-19 5.38559e-19 5.38509e-19 5.38545e-19 5.38512e-19 5.38535e-19 5.38535e-19 5.38521e-19 5.42183e-19 8.82332e-19 3.23907e-17 2.94723e-15
          2.63626e-13 3.35096e-13 4.46605e-13 6.26612e-13 2.05963e-18 1.9846e-18
        </DataArray>
        <DataArray type="Float32" Name="X^w_cyanide" NumberOfComponents="1" format="ascii">
          5.07061e-06 5.07061e-06 5.07061e-06 5.07061e-06 5.07061e-06 5.07061e-06 5.07061e-06 5.0706e-06 5.0706e-06 5.07059e-06 5.07058e-06 5.07057e-06
          5.07055e-06 5.07052e-06 5.07048e-06 5.07043e-06 5.07036e-06 5.07027e-06 5.07014e-06 5.06997e-06 5.06972e-06 5.06936e-06 5.06884e-06 5.06806e-06
          5.06728e-06 6.43693e-06 8.5726e-06 1.22381e-05 1.94641e-05 1.92386e-05
        </DataArray>
        <DataArray type="Float32" Name="X^w_citrate" NumberOfComponents="1" format="ascii">
          0.000141796 0.000141796 0.000141796 0.000141796 0.000141796 0.000141796 0.000141796 0.000141796 0.000141796 0.000141796 0.000141796 0.000141796
          0.000141795 0.000141795 0.000141795 0.000141795 0.000141794 0.000141793 0.000141792 0.000141791 0.000141789 0.000141787 0.000141783 0.000141777
          0.000141768 0.000141754 0.000141727 0.000141663 0.000141455 0.000139816
        </DataArray>
        <DataArray type="Float32" Name="X^w_substrate" NumberOfComponents="1" format="ascii">
          1.45725e-11 1.93779e-11 2.57665e-11 3.42596e-11 4.55508e-11 6.05624e-11 8.05224e-11 1.07066e-10 1.42376e-10 1.89363e-10 2.51929e-10 3.35305e-10
          4.46544e-10 5.95195e-10 7.94276e-10 1.06169e-09 1.42235e-09 1.91137e-09 2.57927e-09 3.50031e-09 4.78696e-09 6.61601e-09 9.27872e-09 1.32852e-08
          1.96039e-08 3.02866e-08 5.04232e-08 9.60692e-08 2.44096e-07 1.4001e-06
        </DataArray>
        <DataArray type="Float32" Name="m^w_H2O" NumberOfComponents="1" format="ascii">
          55492.6 55492.6 55492.5 55492.5 55492.5 55492.5 55492.5 55492.5 55492.5 55492.5 55492.5 55492.5
          55492.5 55492.4 55492.4 55492.4 55492.4 55492.4 55492.4 55492.4 55492.4 55492.4 55492.4 55492.4
          55492.3 55492.3 55492.1 55491.9 55491.5 55491.6
        </DataArray>
        <DataArray type="Float32" Name="m^w_Air" NumberOfComponents="1" format="ascii">
          0 0 0 0 0 0 0 0 0 0 0 0
          0 0 0 0 0 0 0 0 0 0 0 0
          0 0 0 0 0 0
        </DataArray>
        <DataArray type="Float32" Name="m^w_AuComplex" NumberOfComponents="1" format="ascii">
          6.5245e-13 6.52629e-13 6.5257e-13 6.52613e-13 6.52638e-13 6.52606e-13 6.52576e-13 6.52551e-13 6.52644e-13 6.52658e-13 6.52663e-13 6.52605e-13
          6.52633e-13 6.52596e-13 6.52531e-13 6.52573e-13 6.52527e-13 6.52547e-13 6.52538e-13 6.52459e-13 6.52429e-13 6.52421e-13 7.04691e-13 1.24159e-10
          3.1839e-07 4.96626e-07 8.52899e-07 1.68381e-06 8.49155e-12 8.27031e-12
        </DataArray>
        <DataArray type="Float32" Name="m^w_nanoAu" NumberOfComponents="1" format="ascii">
          2.73319e-15 2.73393e-15 2.73369e-15 2.73387e-15 2.73397e-15 2.73383e-15 2.73371e-15 2.73361e-15 2.734e-15 2.73406e-15 2.73408e-15 2.73385e-15
          2.73397e-15 2.73382e-15 2.73356e-15 2.73375e-15 2.73358e-15 2.73369e-15 2.73369e-15 2.73362e-15 2.75221e-15 4.47886e-15 1.64421e-13 1.49606e-11
          1.33821e-09 1.701e-09 2.26704e-09 3.18078e-09 1.0455e-14 1.00741e-14
        </DataArray>
        <DataArray type="Float32" Name="m^w_cyanide" NumberOfComponents="1" format="ascii">
          0.194845 0.194845 0.194845 0.194845 0.194845 0.194845 0.194845 0.194845 0.194845 0.194844 0.194844 0.194843
          0.194843 0.194841 0.19484 0.194838 0.194835 0.194832 0.194827 0.19482 0.19481 0.194797 0.194777 0.194747
          0.194717 0.247347 0.329413 0.470265 0.747934 0.739267
        </DataArray>
        <DataArray type="Float32" Name="m^w_citrate" NumberOfComponents="1" format="ascii">
          0.749742 0.749742 0.749742 0.749742 0.749742 0.749741 0.749741 0.749741 0.74974 0.74974 0.749739 0.749739
          0.749738 0.749736 0.749735 0.749733 0.74973 0.749726 0.749721 0.749714 0.749704 0.74969 0.74967 0.74964
          0.749593 0.749517 0.749372 0.749038 0.747937 0.739269
        </DataArray>
        <DataArray type="Float32" Name="m^w_substrate" NumberOfComponents="1" format="ascii">
          8.08745e-08 1.07544e-07 1.42999e-07 1.90135e-07 2.52798e-07 3.3611e-07 4.46885e-07 5.94199e-07 7.90158e-07 1.05093e-06 1.39816e-06 1.86088e-06
          2.47823e-06 3.30322e-06 4.40808e-06 5.89219e-06 7.89374e-06 1.06077e-05 1.43144e-05 1.9426e-05 2.65667e-05 3.67175e-05 5.1495e-05 7.37302e-05
          0.000108797 0.000168084 0.000279838 0.000533164 0.00135468 0.00777025
        </DataArray>
        <DataArray type="Float32" Name="process rank" NumberOfComponents="1" format="ascii">
          0 0 0 0 0 0 0 0 0 0 0 0
          0 0 0 0 0 0 0 0 0 0 0 0
          0 0 0 0 0 0
        </DataArray>
      </CellData>
      <Points>
        <DataArray type="Float32" Name="Coordinates" NumberOfComponents="3" format="ascii">
          0 0 0 0.5 0 0 0 0.0333333 0 0.5 0.0333333 0
          0 0.0666667 0 0.5 0.0666667 0 0 0.1 0 0.5 0.1 0
          0 0.133333 0 0.5 0.133333 0 0 0.166667 0 0.5 0.166667 0
          0 0.2 0 0.5 0.2 0 0 0.233333 0 0.5 0.233333 0
          0 0.266667 0 0.5 0.266667 0 0 0.3 0 0.5 0.3 0
          0 0.333333 0 0.5 0.333333 0 0 0.366667 0 0.5 0.366667 0
          0 0.4 0 0.5 0.4 0 0 0.433333 0 0.5 0.433333 0
          0 0.466667 0 0.5 0.466667 0 0 0.5 0 0.5 0.5 0
          0 0.533333 0 0.5 0.533333 0 0 0.566667 0 0.5 0.566667 0
          0 0.6 0 0.5 0.6 0 0 0.633333 0 0.5 0.633333 0
          0 0.666667 0 0.5 0.666667 0 0 0.7 0 0.5 0.7 0
          0 0.733333 0 0.5 0.733333 0 0 0.766667 0 0.5 0.766667 0
          0 0.8 0 0.5 0.8 0 0 0.833333 0 0.5 0.833333 0
          0 0.866667 0 0.5 0.866667 0 0 0.9 0 0.5 0.9 0
          0 0.933333 0 0.5 0.933333 0 0 0.966667 0 0.5 0.966667 0
          0 1 0 0.5 1 0
        </DataArray>
      </Points>
      <Cells>
        <DataArray type="Int32" Name="connectivity" NumberOfComponents="1" format="ascii">
          0 1 3 2 2 3 5 4 4 5 7 6
          6 7 9 8 8 9 11 10 10 11 13 12
          12 13 15 14 14 15 17 16 16 17 19 18
          18 19 21 20 20 21 23 22 22 23 25 24
          24 25 27 26 26 27 29 28 28 29 31 30
          30 31 33 32 32 33 35 34 34 35 37 36
          36 37 39 38 38 39 41 40 40 41 43 42
          42 43 45 44 44 45 47 46 46 47 49 48
          48 49 51 50 50 51 53 52 52 53 55 54
          54 55 57 56 56 57 59 58 58 59 61 60
        </DataArray>
        <DataArray type="Int32" Name="offsets" NumberOfComponents="1" format="ascii">
          4 8 12 16 20 24 28 32 36 40 44 48
          52 56 60 64 68 72 76 80 84 88 92 96
          100 104 108 112 116 120
        </DataArray>
        <DataArray type="UInt8" Name="types" NumberOfComponents="1" format="ascii">
          9 9 9 9 9 9 9 9 9 9 9 9
          9 9 9 9 9 9 9 9 9 9 9 9
          9 9 9 9 9 9
        </DataArray>
      </Cells>
    </Piece>
  </UnstructuredGrid>
</VTKFile>
