<?xml version="1.0"?>
<VTKFile type="UnstructuredGrid" version="0.1" byte_order="LittleEndian">
  <UnstructuredGrid>
    <Piece NumberOfCells="30" NumberOfPoints="62">
      <CellData Scalars="Sg">
        <DataArray type="Float32" Name="Sg" NumberOfComponents="1" format="ascii">
          0 0 0 0 0 0 0 0 0 0 0 0
          0 0 0 0 0 0 0 0 0 0 0 0
          0 0 0 0 0 0
        </DataArray>
        <DataArray type="Float32" Name="Sl" NumberOfComponents="1" format="ascii">
          1 1 1 1 1 1 1 1 1 1 1 1
          1 1 1 1 1 1 1 1 1 1 1 1
          1 1 1 1 1 1
        </DataArray>
        <DataArray type="Float32" Name="pg" NumberOfComponents="1" format="ascii">
          24687.8 24360.9 24034 23707 23380.1 23053.1 22726.2 22399.3 22072.3 21745.4 21418.4 21091.5
          20764.6 20437.6 20110.7 19783.7 19456.8 19129.8 18802.9 18476 18149 17822.1 17495.1 17168.2
          16841.3 16514.3 16187.4 15860.4 15533.5 15209.7
        </DataArray>
        <DataArray type="Float32" Name="pl" NumberOfComponents="1" format="ascii">
          110628 110301 109974 109647 109320 108993 108666 108339 108012 107685 107358 107031
          106704 106377 106050 105723 105396 105070 104743 104416 104089 103762 103435 103108
          102781 102454 102127 101800 101473 101149
        </DataArray>
        <DataArray type="Float32" Name="pc" NumberOfComponents="1" format="ascii">
          -85939.7 -85939.7 -85939.7 -85939.7 -85939.7 -85939.7 -85939.7 -85939.7 -85939.7 -85939.7 -85939.7 -85939.7
          -85939.7 -85939.7 -85939.7 -85939.7 -85939.7 -85939.7 -85939.7 -85939.7 -85939.7 -85939.7 -85939.7 -85939.7
          -85939.7 -85939.7 -85939.7 -85939.7 -85939.7 -85939.7
        </DataArray>
        <DataArray type="Float32" Name="rhoL" NumberOfComponents="1" format="ascii">
          999.855 999.855 999.855 999.855 999.855 999.854 999.854 999.854 999.854 999.854 999.854 999.854
          999.853 999.853 999.853 999.853 999.853 999.853 999.852 999.852 999.852 999.852 999.852 999.852
          999.852 999.851 999.851 999.851 999.851 999.851
        </DataArray>
        <DataArray type="Float32" Name="rhoG" NumberOfComponents="1" format="ascii">
          0.30585 0.3018 0.29775 0.293699 0.289649 0.285598 0.281548 0.277498 0.273447 0.269397 0.265347 0.261296
          0.257246 0.253195 0.249145 0.245095 0.241044 0.236994 0.232944 0.228893 0.224843 0.220793 0.216742 0.212692
          0.208641 0.204591 0.200541 0.19649 0.19244 0.188428
        </DataArray>
        <DataArray type="Float32" Name="mobL" NumberOfComponents="1" format="ascii">
          722.171 722.17 722.17 722.17 722.17 722.17 722.169 722.169 722.169 722.169 722.169 722.169
          722.168 722.168 722.168 722.168 722.168 722.167 722.167 722.167 722.167 722.167 722.166 722.166
          722.166 722.166 722.166 722.166 722.165 722.165
        </DataArray>
        <DataArray type="Float32" Name="mobG" NumberOfComponents="1" format="ascii">
          0 0 0 0 0 0 0 0 0 0 0 0
          0 0 0 0 0 0 0 0 0 0 0 0
          0 0 0 0 0 0
        </DataArray>
        <DataArray type="Float32" Name="porosity" NumberOfComponents="1" format="ascii">
          0.298891 0.298891 0.298891 0.298891 0.29889 0.29889 0.298889 0.298888 0.298887 0.298886 0.298883 0.29888
          0.298876 0.29887 0.298862 0.298851 0.298837 0.298817 0.29879 0.298754 0.298704 0.298633 0.298531 0.298379
          0.297867 0.297447 0.296597 0.294307 0.282591 0.0446319
        </DataArray>
        <DataArray type="Float32" Name="temperature" NumberOfComponents="1" format="ascii">
          281.15 281.15 281.15 281.15 281.15 281.15 281.15 281.15 281.15 281.15 281.15 281.15
          281.15 281.15 281.15 281.15 281.15 281.15 281.15 281.15 281.15 281.15 281.15 281.15
          281.15 281.15 281.15 281.15 281.15 281.15
        </DataArray>
        <DataArray type="Float32" Name="phase presence" NumberOfComponents="1" format="ascii">
          1 1 1 1 1 1 1 1 1 1 1 1
          1 1 1 1 1 1 1 1 1 1 1 1
          1 1 1 1 1 1
        </DataArray>
        <DataArray type="Float32" Name="precipitateVolumeFraction_au" NumberOfComponents="1" format="ascii">
          5.52614e-10 5.52766e-10 5.52715e-10 5.52751e-10 5.52773e-10 5.52746e-10 5.52722e-10 5.52701e-10 5.52782e-10 5.52795e-10 5.52801e-10 5.52755e-10
          5.52783e-10 5.52757e-10 5.5271e-10 5.52755e-10 5.5273e-10 5.52766e-10 5.52784e-10 5.52753e-10 5.52777e-10 5.52781e-10 5.53005e-10 1.27195e-09
          0.000269941 0.000269925 0.0002699 0.000269851 5.52263e-10 5.51109e-10
        </DataArray>
        <DataArray type="Float32" Name="precipitateVolumeFraction_nanoAu" NumberOfComponents="1" format="ascii">
          1.23624e-13 1.23658e-13 1.23647e-13 1.23655e-13 1.2366e-13 1.23654e-13 1.23648e-13 1.23644e-13 1.23661e-13 1.23664e-13 1.23665e-13 1.23655e-13
          1.2366e-13 1.23654e-13 1.23642e-13 1.23651e-13 1.23644e-13 1.23649e-13 1.2365e-13 1.23638e-13 1.23637e-13 1.23645e-13 1.33749e-13 2.35734e-11
          6.03602e-08 7.66802e-08 1.02139e-07 1.45579e-07 4.74252e-13 4.67178e-13
        </DataArray>
        <DataArray type="Float32" Name="precipitateVolumeFraction_d" NumberOfComponents="1" format="ascii">
          0.000554394 0.000554452 0.000554532 0.000554645 0.000554804 0.000555026 0.000555336 0.000555768 0.000556367 0.000557196 0.000558338 0.000559906
          0.000562049 0.00056497 0.000568936 0.00057431 0.000581581 0.000591424 0.000604786 0.000623034 0.000648219 0.000683564 0.000734454 0.000810606
          0.000931412 0.00114155 0.00156672 0.00271174 0.00870464 0.127684
        </DataArray>
        <DataArray type="Float32" Name="precipitateVolumeFraction_p" NumberOfComponents="1" format="ascii">
          0.000554394 0.000554452 0.000554532 0.000554645 0.000554804 0.000555026 0.000555336 0.000555768 0.000556367 0.000557196 0.000558338 0.000559906
          0.000562049 0.00056497 0.000568936 0.00057431 0.000581581 0.000591424 0.000604786 0.000623034 0.000648219 0.000683564 0.000734454 0.000810606
          0.000931412 0.00114155 0.00156672 0.00271174 0.00870464 0.127684
        </DataArray>
        <DataArray type="Float32" Name="K" NumberOfComponents="1" format="ascii">
          9.85827e-11 9.85826e-11 9.85824e-11 9.85821e-11 9.85817e-11 9.85811e-11 9.85804e-11 9.85793e-11 9.85777e-11 9.85756e-11 9.85727e-11 9.85687e-11
          9.85633e-11 9.85559e-11 9.85458e-11 9.85321e-11 9.85137e-11 9.84887e-11 9.84548e-11 9.84084e-11 9.83445e-11 9.82549e-11 9.8126e-11 9.79334e-11
          9.72885e-11 9.67614e-11 9.57021e-11 9.28966e-11 7.95742e-11 1.76777e-13
        </DataArray>
        <DataArray type="Float32" Name="X^w_H2O" NumberOfComponents="1" format="ascii">
          0.999853 0.999853 0.999853 0.999853 0.999853 0.999853 0.999853 0.999853 0.999853 0.999853 0.999853 0.999853
          0.999853 0.999853 0.999853 0.999853 0.999853 0.999853 0.999853 0.999853 0.999853 0.999853 0.999853 0.999853
          0.999853 0.999852 0.99985 0.999846 0.999839 0.99984
        </DataArray>
        <DataArray type="Float32" Name="X^w_Air" NumberOfComponents="1" format="ascii">
          0 0 0 0 0 0 0 0 0 0 0 0
          0 0 0 0 0 0 0 0 0 0 0 0
          0 0 0 0 0 0
        </DataArray>
        <DataArray type="Float32" Name="X^w_AuComplex" NumberOfComponents="1" format="ascii">
          1.28529e-16 1.28565e-16 1.28553e-16 1.28562e-16 1.28567e-16 1.2856e-16 1.28554e-16 1.28549e-16 1.28568e-16 1.28571e-16 1.28571e-16 1.2856e-16
          1.28565e-16 1.28558e-16 1.28545e-16 1.28553e-16 1.28544e-16 1.28547e-16 1.28545e-16 1.28529e-16 1.28523e-16 1.28521e-16 1.38837e-16 2.4483e-14
          6.27194e-11 9.78302e-11 1.68015e-10 3.31712e-10 1.67302e-15 1.62932e-15
        </DataArray>
        <DataArray type="Float32" Name="X^w_nanoAu" NumberOfComponents="1" format="ascii">
          5.38428e-19 5.38574e-19 5.38525e-19 5.38561e-19 5.38581e-19 5.38555e-19 5.38531e-19 5.38511e-19 5.38588e-19 5.38599e-19 5.38603e-19 5.38557e-19
          5.3858e-19 5.38551e-19 5.385e-19 5.38536e-19 5.38502e-19 5.38523e-19 5.38522e-19 5.38507e-19 5.42168e-19 8.82299e-19 3.23898e-17 2.94718e-15
          2.63616e-13 3.35085e-13 4.46597e-13 6.26623e-13 2.05987e-18 1.98469e-18
        </DataArray>
        <DataArray type="Float32" Name="X^w_cyanide" NumberOfComponents="1" format="ascii">
          5.07057e-06 5.07057e-06 5.07057e-06 5.07057e-06 5.07057e-06 5.07057e-06 5.07057e-06 5.07057e-06 5.07056e-06 5.07055e-06 5.07054e-06 5.07053e-06
          5.0705e-06 5.07047e-06 5.07043e-06 5.07038e-06 5.0703e-06 5.0702e-06 5.07006e-06 5.06987e-06 5.06961e-06 5.06925e-06 5.06872e-06 5.06793e-06
          5.06715e-06 6.43677e-06 8.57246e-06 1.22382e-05 1.94653e-05 1.9239e-05
        </DataArray>
        <DataArray type="Float32" Name="X^w_citrate" NumberOfComponents="1" format="ascii">
          0.000141796 0.000141796 0.000141796 0.000141796 0.000141796 0.000141796 0.000141796 0.000141796 0.000141796 0.000141796 0.000141796 0.000141795
          0.000141795 0.000141795 0.000141795 0.000141794 0.000141794 0.000141793 0.000141792 0.000141791 0.000141789 0.000141786 0.000141782 0.000141776
          0.000141767 0.000141753 0.000141727 0.000141665 0.000141463 0.000139819
        </DataArray>
        <DataArray type="Float32" Name="X^w_substrate" NumberOfComponents="1" format="ascii">
          2.04164e-11 2.68145e-11 3.52155e-11 4.62465e-11 6.07309e-11 7.97509e-11 1.04729e-10 1.37538e-10 1.80643e-10 2.37299e-10 3.1181e-10 4.09884e-10
          5.39121e-10 7.09697e-10 9.35327e-10 1.23467e-09 1.6334e-09 2.16736e-09 2.8876e-09 3.86846e-09 5.2216e-09 7.12109e-09 9.85166e-09 1.39088e-08
          2.02279e-08 3.07832e-08 5.04623e-08 9.47184e-08 2.38419e-07 1.39791e-06
        </DataArray>
        <DataArray type="Float32" Name="m^w_H2O" NumberOfComponents="1" format="ascii">
          55492.6 55492.6 55492.5 55492.5 55492.5 55492.5 55492.5 55492.5 55492.5 55492.5 55492.5 55492.5
          55492.5 55492.4 55492.4 55492.4 55492.4 55492.4 55492.4 55492.4 55492.4 55492.4 55492.4 55492.4
          55492.3 55492.3 55492.1 55491.9 55491.5 55491.6
        </DataArray>
        <DataArray type="Float32" Name="m^w_Air" NumberOfComponents="1" format="ascii">
          0 0 0 0 0 0 0 0 0 0 0 0
          0 0 0 0 0 0 0 0 0 0 0 0
          0 0 0 0 0 0
        </DataArray>
        <DataArray type="Float32" Name="m^w_AuComplex" NumberOfComponents="1" format="ascii">
          6.52438e-13 6.52618e-13 6.52558e-13 6.52601e-13 6.52626e-13 6.52594e-13 6.52565e-13 6.52539e-13 6.52633e-13 6.52647e-13 6.52651e-13 6.52593e-13
          6.5262e-13 6.52583e-13 6.52517e-13 6.52557e-13 6.52509e-13 6.52528e-13 6.52517e-13 6.52435e-13 6.52402e-13 6.52392e-13 7.0476e-13 1.2428e-10
          3.18374e-07 4.96602e-07 8.52872e-07 1.68382e-06 8.49251e-12 8.27068e-12
        </DataArray>
        <DataArray type="Float32" Name="m^w_nanoAu" NumberOfComponents="1" format="ascii">
          2.73316e-15 2.7339e-15 2.73365e-15 2.73383e-15 2.73393e-15 2.7338e-15 2.73368e-15 2.73357e-15 2.73396e-15 2.73402e-15 2.73404e-15 2.73381e-15
          2.73393e-15 2.73378e-15 2.73352e-15 2.7337e-15 2.73353e-15 2.73363e-15 2.73363e-15 2.73355e-15 2.75213e-15 4.47869e-15 1.64416e-13 1.49604e-11
          1.33816e-09 1.70095e-09 2.267e-09 3.18084e-09 1.04562e-14 1.00746e-14
        </DataArray>
        <DataArray type="Float32" Name="m^w_cyanide" NumberOfComponents="1" format="ascii">
          0.194844 0.194844 0.194844 0.194844 0.194844 0.194844 0.194844 0.194844 0.194843 0.194843 0.194842 0.194842
          0.194841 0.19484 0.194838 0.194836 0.194833 0.194829 0.194824 0.194817 0.194806 0.194792 0.194772 0.194742
          0.194712 0.247341 0.329407 0.470268 0.747977 0.739284
        </DataArray>
        <DataArray type="Float32" Name="m^w_citrate" NumberOfComponents="1" format="ascii">
          0.749742 0.749742 0.749742 0.749742 0.749741 0.749741 0.749741 0.74974 0.74974 0.74974 0.749739 0.749738
          0.749737 0.749735 0.749734 0.749731 0.749728 0.749724 0.749719 0.749711 0.749701 0.749686 0.749666 0.749635
          0.749588 0.749514 0.749372 0.749048 0.747979 0.739285
        </DataArray>
        <DataArray type="Float32" Name="m^w_substrate" NumberOfComponents="1" format="ascii">
          1.13307e-07 1.48815e-07 1.9544e-07 2.5666e-07 3.37045e-07 4.42603e-07 5.81227e-07 7.63308e-07 1.00253e-06 1.31697e-06 1.73049e-06 2.27478e-06
          2.99202e-06 3.93868e-06 5.19089e-06 6.85217e-06 9.06503e-06 1.20284e-05 1.60256e-05 2.14692e-05 2.89788e-05 3.95206e-05 5.46747e-05 7.71909e-05
          0.000112261 0.00017084 0.000280055 0.000525668 0.00132318 0.00775812
        </DataArray>
        <DataArray type="Float32" Name="process rank" NumberOfComponents="1" format="ascii">
          0 0 0 0 0 0 0 0 0 0 0 0
          0 0 0 0 0 0 0 0 0 0 0 0
          0 0 0 0 0 0
        </DataArray>
      </CellData>
      <Points>
        <DataArray type="Float32" Name="Coordinates" NumberOfComponents="3" format="ascii">
          0 0 0 0.5 0 0 0 0.0333333 0 0.5 0.0333333 0
          0 0.0666667 0 0.5 0.0666667 0 0 0.1 0 0.5 0.1 0
          0 0.133333 0 0.5 0.133333 0 0 0.166667 0 0.5 0.166667 0
          0 0.2 0 0.5 0.2 0 0 0.233333 0 0.5 0.233333 0
          0 0.266667 0 0.5 0.266667 0 0 0.3 0 0.5 0.3 0
          0 0.333333 0 0.5 0.333333 0 0 0.366667 0 0.5 0.366667 0
          0 0.4 0 0.5 0.4 0 0 0.433333 0 0.5 0.433333 0
          0 0.466667 0 0.5 0.466667 0 0 0.5 0 0.5 0.5 0
          0 0.533333 0 0.5 0.533333 0 0 0.566667 0 0.5 0.566667 0
          0 0.6 0 0.5 0.6 0 0 0.633333 0 0.5 0.633333 0
          0 0.666667 0 0.5 0.666667 0 0 0.7 0 0.5 0.7 0
          0 0.733333 0 0.5 0.733333 0 0 0.766667 0 0.5 0.766667 0
          0 0.8 0 0.5 0.8 0 0 0.833333 0 0.5 0.833333 0
          0 0.866667 0 0.5 0.866667 0 0 0.9 0 0.5 0.9 0
          0 0.933333 0 0.5 0.933333 0 0 0.966667 0 0.5 0.966667 0
          0 1 0 0.5 1 0
        </DataArray>
      </Points>
      <Cells>
        <DataArray type="Int32" Name="connectivity" NumberOfComponents="1" format="ascii">
          0 1 3 2 2 3 5 4 4 5 7 6
          6 7 9 8 8 9 11 10 10 11 13 12
          12 13 15 14 14 15 17 16 16 17 19 18
          18 19 21 20 20 21 23 22 22 23 25 24
          24 25 27 26 26 27 29 28 28 29 31 30
          30 31 33 32 32 33 35 34 34 35 37 36
          36 37 39 38 38 39 41 40 40 41 43 42
          42 43 45 44 44 45 47 46 46 47 49 48
          48 49 51 50 50 51 53 52 52 53 55 54
          54 55 57 56 56 57 59 58 58 59 61 60
        </DataArray>
        <DataArray type="Int32" Name="offsets" NumberOfComponents="1" format="ascii">
          4 8 12 16 20 24 28 32 36 40 44 48
          52 56 60 64 68 72 76 80 84 88 92 96
          100 104 108 112 116 120
        </DataArray>
        <DataArray type="UInt8" Name="types" NumberOfComponents="1" format="ascii">
          9 9 9 9 9 9 9 9 9 9 9 9
          9 9 9 9 9 9 9 9 9 9 9 9
          9 9 9 9 9 9
        </DataArray>
      </Cells>
    </Piece>
  </UnstructuredGrid>
</VTKFile>
