<?xml version="1.0"?>
<VTKFile type="UnstructuredGrid" version="0.1" byte_order="LittleEndian">
  <UnstructuredGrid>
    <Piece NumberOfCells="30" NumberOfPoints="62">
      <CellData Scalars="Sg">
        <DataArray type="Float32" Name="Sg" NumberOfComponents="1" format="ascii">
          0 0 0 0 0 0 0 0 0 0 0 0
          0 0 0 0 0 0 0 0 0 0 0 0
          0 0 0 0 0 0
        </DataArray>
        <DataArray type="Float32" Name="Sl" NumberOfComponents="1" format="ascii">
          1 1 1 1 1 1 1 1 1 1 1 1
          1 1 1 1 1 1 1 1 1 1 1 1
          1 1 1 1 1 1
        </DataArray>
        <DataArray type="Float32" Name="pg" NumberOfComponents="1" format="ascii">
          24687.8 24360.9 24034 23707 23380.1 23053.1 22726.2 22399.3 22072.3 21745.4 21418.4 21091.5
          20764.6 20437.6 20110.7 19783.7 19456.8 19129.9 18802.9 18476 18149 17822.1 17495.1 17168.2
          16841.3 16514.3 16187.4 15860.4 15533.5 15206.7
        </DataArray>
        <DataArray type="Float32" Name="pl" NumberOfComponents="1" format="ascii">
          110628 110301 109974 109647 109320 108993 108666 108339 108012 107685 107358 107031
          106704 106377 106050 105723 105396 105070 104743 104416 104089 103762 103435 103108
          102781 102454 102127 101800 101473 101146
        </DataArray>
        <DataArray type="Float32" Name="pc" NumberOfComponents="1" format="ascii">
          -85939.7 -85939.7 -85939.7 -85939.7 -85939.7 -85939.7 -85939.7 -85939.7 -85939.7 -85939.7 -85939.7 -85939.7
          -85939.7 -85939.7 -85939.7 -85939.7 -85939.7 -85939.7 -85939.7 -85939.7 -85939.7 -85939.7 -85939.7 -85939.7
          -85939.7 -85939.7 -85939.7 -85939.7 -85939.7 -85939.7
        </DataArray>
        <DataArray type="Float32" Name="rhoL" NumberOfComponents="1" format="ascii">
          999.855 999.855 999.855 999.855 999.855 999.854 999.854 999.854 999.854 999.854 999.854 999.854
          999.853 999.853 999.853 999.853 999.853 999.853 999.852 999.852 999.852 999.852 999.852 999.852
          999.852 999.851 999.851 999.851 999.851 999.851
        </DataArray>
        <DataArray type="Float32" Name="rhoG" NumberOfComponents="1" format="ascii">
          0.30585 0.3018 0.29775 0.293699 0.289649 0.285598 0.281548 0.277498 0.273447 0.269397 0.265347 0.261296
          0.257246 0.253195 0.249145 0.245095 0.241044 0.236994 0.232944 0.228893 0.224843 0.220793 0.216742 0.212692
          0.208641 0.204591 0.200541 0.19649 0.19244 0.188392
        </DataArray>
        <DataArray type="Float32" Name="mobL" NumberOfComponents="1" format="ascii">
          722.171 722.17 722.17 722.17 722.17 722.17 722.169 722.169 722.169 722.169 722.169 722.169
          722.168 722.168 722.168 722.168 722.168 722.167 722.167 722.167 722.167 722.167 722.166 722.166
          722.166 722.166 722.166 722.166 722.165 722.165
        </DataArray>
        <DataArray type="Float32" Name="mobG" NumberOfComponents="1" format="ascii">
          0 0 0 0 0 0 0 0 0 0 0 0
          0 0 0 0 0 0 0 0 0 0 0 0
          0 0 0 0 0 0
        </DataArray>
        <DataArray type="Float32" Name="porosity" NumberOfComponents="1" format="ascii">
          0.298571 0.298571 0.298571 0.298571 0.29857 0.29857 0.298569 0.298568 0.298566 0.298564 0.298562 0.298558
          0.298552 0.298545 0.298535 0.298522 0.298504 0.29848 0.298448 0.298404 0.298343 0.298259 0.298139 0.297962
          0.297419 0.29696 0.296088 0.294002 0.285944 0.115745
        </DataArray>
        <DataArray type="Float32" Name="temperature" NumberOfComponents="1" format="ascii">
          281.15 281.15 281.15 281.15 281.15 281.15 281.15 281.15 281.15 281.15 281.15 281.15
          281.15 281.15 281.15 281.15 281.15 281.15 281.15 281.15 281.15 281.15 281.15 281.15
          281.15 281.15 281.15 281.15 281.15 281.15
        </DataArray>
        <DataArray type="Float32" Name="phase presence" NumberOfComponents="1" format="ascii">
          1 1 1 1 1 1 1 1 1 1 1 1
          1 1 1 1 1 1 1 1 1 1 1 1
          1 1 1 1 1 1
        </DataArray>
        <DataArray type="Float32" Name="precipitateVolumeFraction_au" NumberOfComponents="1" format="ascii">
          5.52376e-10 5.525e-10 5.52456e-10 5.52487e-10 5.52507e-10 5.52483e-10 5.5246e-10 5.5244e-10 5.52516e-10 5.5253e-10 5.52536e-10 5.52491e-10
          5.52518e-10 5.52493e-10 5.52446e-10 5.52491e-10 5.52466e-10 5.52502e-10 5.5252e-10 5.52489e-10 5.52513e-10 5.52517e-10 5.52501e-10 7.1531e-10
          0.00026994 0.000269924 0.000269899 0.000269854 5.52003e-10 5.50868e-10
        </DataArray>
        <DataArray type="Float32" Name="precipitateVolumeFraction_nanoAu" NumberOfComponents="1" format="ascii">
          3.61383e-13 3.89375e-13 3.82664e-13 3.87655e-13 3.89507e-13 3.87259e-13 3.85781e-13 3.85047e-13 3.88826e-13 3.88954e-13 3.88961e-13 3.87603e-13
          3.88119e-13 3.8757e-13 3.86894e-13 3.87486e-13 3.87229e-13 3.87513e-13 3.87573e-13 3.87367e-13 3.87438e-13 3.87419e-13 3.97325e-13 2.39123e-11
          6.05036e-08 7.68393e-08 1.02288e-07 1.45595e-07 7.3479e-13 7.2249e-13
        </DataArray>
        <DataArray type="Float32" Name="precipitateVolumeFraction_d" NumberOfComponents="1" format="ascii">
          0.000714397 0.000714466 0.000714563 0.0007147 0.000714893 0.000715164 0.000715542 0.000716071 0.000716806 0.000717824 0.000719228 0.000721157
          0.000723795 0.000727388 0.000732265 0.000738863 0.000747774 0.000759803 0.00077607 0.000798176 0.000828483 0.000870643 0.000930625 0.0010189
          0.00115563 0.00138486 0.00182085 0.00286406 0.00702784 0.0921274
        </DataArray>
        <DataArray type="Float32" Name="precipitateVolumeFraction_p" NumberOfComponents="1" format="ascii">
          0.000714397 0.000714466 0.000714563 0.0007147 0.000714893 0.000715164 0.000715542 0.000716071 0.000716806 0.000717824 0.000719228 0.000721157
          0.000723795 0.000727388 0.000732265 0.000738863 0.000747774 0.000759803 0.00077607 0.000798176 0.000828483 0.000870643 0.000930625 0.0010189
          0.00115563 0.00138486 0.00182085 0.00286406 0.00702784 0.0921274
        </DataArray>
        <DataArray type="Float32" Name="K" NumberOfComponents="1" format="ascii">
          9.81768e-11 9.81766e-11 9.81764e-11 9.8176e-11 9.81756e-11 9.81749e-11 9.81739e-11 9.81726e-11 9.81707e-11 9.81681e-11 9.81646e-11 9.81597e-11
          9.8153e-11 9.81439e-11 9.81316e-11 9.81149e-11 9.80923e-11 9.80619e-11 9.80207e-11 9.79648e-11 9.78882e-11 9.77817e-11 9.76304e-11 9.7408e-11
          9.67262e-11 9.61541e-11 9.50736e-11 9.25285e-11 8.32171e-11 3.59904e-12
        </DataArray>
        <DataArray type="Float32" Name="X^w_H2O" NumberOfComponents="1" format="ascii">
          0.999853 0.999853 0.999853 0.999853 0.999853 0.999853 0.999853 0.999853 0.999853 0.999853 0.999853 0.999853
          0.999853 0.999853 0.999853 0.999853 0.999853 0.999853 0.999853 0.999853 0.999853 0.999853 0.999853 0.999853
          0.999853 0.999852 0.99985 0.999846 0.999839 0.99984
        </DataArray>
        <DataArray type="Float32" Name="X^w_Air" NumberOfComponents="1" format="ascii">
          2.50668e-21 4.48261e-23 7.88322e-25 1.36165e-26 2.3135e-28 3.86748e-30 6.35314e-32 1.02571e-33 1.62804e-35 2.5387e-37 0 0
          0 0 0 0 0 0 0 0 0 0 0 0
          0 0 0 0 0 0
        </DataArray>
        <DataArray type="Float32" Name="X^w_AuComplex" NumberOfComponents="1" format="ascii">
          3.37696e-16 3.62285e-16 3.56384e-16 3.60764e-16 3.62387e-16 3.60406e-16 3.59102e-16 3.58452e-16 3.61768e-16 3.61875e-16 3.61876e-16 3.60675e-16
          3.61122e-16 3.60632e-16 3.60029e-16 3.60541e-16 3.60304e-16 3.60542e-16 3.6058e-16 3.60377e-16 3.60414e-16 3.6036e-16 3.70479e-16 2.48223e-14
          6.29556e-11 9.8154e-11 1.68414e-10 3.31827e-10 2.54556e-15 2.46465e-15
        </DataArray>
        <DataArray type="Float32" Name="X^w_nanoAu" NumberOfComponents="1" format="ascii">
          1.57574e-18 1.69608e-18 1.66739e-18 1.68898e-18 1.69686e-18 1.6871e-18 1.6807e-18 1.67771e-18 1.694e-18 1.69455e-18 1.69452e-18 1.68869e-18
          1.69088e-18 1.68848e-18 1.6856e-18 1.68813e-18 1.68703e-18 1.68825e-18 1.68849e-18 1.68762e-18 1.69162e-18 2.03469e-18 3.37552e-17 2.96172e-15
          2.64228e-13 3.35739e-13 4.47128e-13 6.26317e-13 3.18678e-18 3.05273e-18
        </DataArray>
        <DataArray type="Float32" Name="X^w_cyanide" NumberOfComponents="1" format="ascii">
          5.0825e-06 5.08243e-06 5.08237e-06 5.0823e-06 5.08223e-06 5.08216e-06 5.08209e-06 5.08201e-06 5.08194e-06 5.08186e-06 5.08177e-06 5.08168e-06
          5.08159e-06 5.08149e-06 5.08138e-06 5.08125e-06 5.0811e-06 5.08093e-06 5.0807e-06 5.08042e-06 5.08004e-06 5.0795e-06 5.07872e-06 5.07754e-06
          5.07607e-06 6.44642e-06 8.58158e-06 1.22412e-05 1.94347e-05 1.91338e-05
        </DataArray>
        <DataArray type="Float32" Name="X^w_citrate" NumberOfComponents="1" format="ascii">
          0.000141796 0.000141796 0.000141796 0.000141796 0.000141796 0.000141796 0.000141796 0.000141796 0.000141796 0.000141796 0.000141796 0.000141796
          0.000141796 0.000141795 0.000141795 0.000141795 0.000141794 0.000141794 0.000141793 0.000141791 0.000141789 0.000141786 0.00014178 0.000141772
          0.000141759 0.000141736 0.000141691 0.000141584 0.000141242 0.000139054
        </DataArray>
        <DataArray type="Float32" Name="X^w_substrate" NumberOfComponents="1" format="ascii">
          5.66743e-12 7.91684e-12 1.10587e-11 1.54473e-11 2.15775e-11 3.01411e-11 4.21055e-11 5.88248e-11 8.21959e-11 1.14879e-10 1.60615e-10 2.24673e-10
          3.14502e-10 4.40685e-10 6.18343e-10 8.69256e-10 1.22512e-09 1.73266e-09 2.46195e-09 3.52038e-09 5.07699e-09 7.40736e-09 1.09811e-08 1.66458e-08
          2.60516e-08 4.2758e-08 7.56435e-08 1.5221e-07 3.94742e-07 1.93714e-06
        </DataArray>
        <DataArray type="Float32" Name="m^w_H2O" NumberOfComponents="1" format="ascii">
          55492.6 55492.5 55492.5 55492.5 55492.5 55492.5 55492.5 55492.5 55492.5 55492.5 55492.5 55492.5
          55492.5 55492.4 55492.4 55492.4 55492.4 55492.4 55492.4 55492.4 55492.4 55492.4 55492.4 55492.4
          55492.3 55492.3 55492.1 55491.9 55491.5 55491.6
        </DataArray>
        <DataArray type="Float32" Name="m^w_Air" NumberOfComponents="1" format="ascii">
          8.65442e-17 1.54764e-18 2.72171e-20 4.70113e-22 7.98743e-24 1.33526e-25 2.19344e-27 3.5413e-29 5.62086e-31 8.76495e-33 1.34144e-34 2.01606e-36
          2.97605e-38 0 0 0 0 0 0 0 0 0 0 0
          0 0 0 0 0 0
        </DataArray>
        <DataArray type="Float32" Name="m^w_AuComplex" NumberOfComponents="1" format="ascii">
          1.7142e-12 1.83902e-12 1.80907e-12 1.8313e-12 1.83954e-12 1.82948e-12 1.82286e-12 1.81956e-12 1.8364e-12 1.83694e-12 1.83694e-12 1.83085e-12
          1.83312e-12 1.83063e-12 1.82757e-12 1.83017e-12 1.82897e-12 1.83017e-12 1.83036e-12 1.82934e-12 1.82952e-12 1.82925e-12 1.88061e-12 1.26002e-10
          3.19573e-07 4.98245e-07 8.54898e-07 1.68441e-06 1.29217e-11 1.2511e-11
        </DataArray>
        <DataArray type="Float32" Name="m^w_nanoAu" NumberOfComponents="1" format="ascii">
          7.99872e-15 8.60959e-15 8.46395e-15 8.57357e-15 8.61356e-15 8.56401e-15 8.53151e-15 8.51635e-15 8.59906e-15 8.60185e-15 8.60168e-15 8.57207e-15
          8.58322e-15 8.57104e-15 8.55638e-15 8.56924e-15 8.56366e-15 8.56983e-15 8.57105e-15 8.56666e-15 8.58692e-15 1.03284e-14 1.71347e-13 1.50342e-11
          1.34126e-09 1.70427e-09 2.26969e-09 3.17929e-09 1.61766e-14 1.54961e-14
        </DataArray>
        <DataArray type="Float32" Name="m^w_cyanide" NumberOfComponents="1" format="ascii">
          0.195302 0.1953 0.195297 0.195294 0.195292 0.195289 0.195286 0.195283 0.19528 0.195277 0.195274 0.195271
          0.195267 0.195263 0.195259 0.195254 0.195248 0.195241 0.195233 0.195222 0.195207 0.195186 0.195156 0.195111
          0.195055 0.247712 0.329758 0.470382 0.746803 0.735239
        </DataArray>
        <DataArray type="Float32" Name="m^w_citrate" NumberOfComponents="1" format="ascii">
          0.749742 0.749742 0.749742 0.749742 0.749742 0.749742 0.749741 0.749741 0.749741 0.74974 0.74974 0.749739
          0.749739 0.749738 0.749736 0.749734 0.749731 0.749727 0.749722 0.749714 0.749702 0.749684 0.749657 0.749615
          0.749544 0.749424 0.749183 0.748617 0.746807 0.735242
        </DataArray>
        <DataArray type="Float32" Name="m^w_substrate" NumberOfComponents="1" format="ascii">
          3.14532e-08 4.3937e-08 6.1374e-08 8.57298e-08 1.19751e-07 1.67277e-07 2.33678e-07 3.26467e-07 4.56172e-07 6.37559e-07 8.91385e-07 1.24689e-06
          1.74543e-06 2.44572e-06 3.43169e-06 4.8242e-06 6.79916e-06 9.6159e-06 1.36634e-05 1.95374e-05 2.81763e-05 4.11093e-05 6.09429e-05 9.2381e-05
          0.000144581 0.000237298 0.000419806 0.000844733 0.00219074 0.0107507
        </DataArray>
        <DataArray type="Float32" Name="process rank" NumberOfComponents="1" format="ascii">
          0 0 0 0 0 0 0 0 0 0 0 0
          0 0 0 0 0 0 0 0 0 0 0 0
          0 0 0 0 0 0
        </DataArray>
      </CellData>
      <Points>
        <DataArray type="Float32" Name="Coordinates" NumberOfComponents="3" format="ascii">
          0 0 0 0.5 0 0 0 0.0333333 0 0.5 0.0333333 0
          0 0.0666667 0 0.5 0.0666667 0 0 0.1 0 0.5 0.1 0
          0 0.133333 0 0.5 0.133333 0 0 0.166667 0 0.5 0.166667 0
          0 0.2 0 0.5 0.2 0 0 0.233333 0 0.5 0.233333 0
          0 0.266667 0 0.5 0.266667 0 0 0.3 0 0.5 0.3 0
          0 0.333333 0 0.5 0.333333 0 0 0.366667 0 0.5 0.366667 0
          0 0.4 0 0.5 0.4 0 0 0.433333 0 0.5 0.433333 0
          0 0.466667 0 0.5 0.466667 0 0 0.5 0 0.5 0.5 0
          0 0.533333 0 0.5 0.533333 0 0 0.566667 0 0.5 0.566667 0
          0 0.6 0 0.5 0.6 0 0 0.633333 0 0.5 0.633333 0
          0 0.666667 0 0.5 0.666667 0 0 0.7 0 0.5 0.7 0
          0 0.733333 0 0.5 0.733333 0 0 0.766667 0 0.5 0.766667 0
          0 0.8 0 0.5 0.8 0 0 0.833333 0 0.5 0.833333 0
          0 0.866667 0 0.5 0.866667 0 0 0.9 0 0.5 0.9 0
          0 0.933333 0 0.5 0.933333 0 0 0.966667 0 0.5 0.966667 0
          0 1 0 0.5 1 0
        </DataArray>
      </Points>
      <Cells>
        <DataArray type="Int32" Name="connectivity" NumberOfComponents="1" format="ascii">
          0 1 3 2 2 3 5 4 4 5 7 6
          6 7 9 8 8 9 11 10 10 11 13 12
          12 13 15 14 14 15 17 16 16 17 19 18
          18 19 21 20 20 21 23 22 22 23 25 24
          24 25 27 26 26 27 29 28 28 29 31 30
          30 31 33 32 32 33 35 34 34 35 37 36
          36 37 39 38 38 39 41 40 40 41 43 42
          42 43 45 44 44 45 47 46 46 47 49 48
          48 49 51 50 50 51 53 52 52 53 55 54
          54 55 57 56 56 57 59 58 58 59 61 60
        </DataArray>
        <DataArray type="Int32" Name="offsets" NumberOfComponents="1" format="ascii">
          4 8 12 16 20 24 28 32 36 40 44 48
          52 56 60 64 68 72 76 80 84 88 92 96
          100 104 108 112 116 120
        </DataArray>
        <DataArray type="UInt8" Name="types" NumberOfComponents="1" format="ascii">
          9 9 9 9 9 9 9 9 9 9 9 9
          9 9 9 9 9 9 9 9 9 9 9 9
          9 9 9 9 9 9
        </DataArray>
      </Cells>
    </Piece>
  </UnstructuredGrid>
</VTKFile>
