<?xml version="1.0"?>
<VTKFile type="UnstructuredGrid" version="0.1" byte_order="LittleEndian">
  <UnstructuredGrid>
    <Piece NumberOfCells="30" NumberOfPoints="62">
      <CellData Scalars="Sg">
        <DataArray type="Float32" Name="Sg" NumberOfComponents="1" format="ascii">
          0.0886223 0.0883607 0.0873201 0.0826988 0.0626883 0 0 0 0 0 0 0
          0 0 0 0 0 0 0 0 0 0 0 0
          0 0 0 0 0 0
        </DataArray>
        <DataArray type="Float32" Name="Sl" NumberOfComponents="1" format="ascii">
          0.911378 0.911639 0.91268 0.917301 0.937312 1 1 1 1 1 1 1
          1 1 1 1 1 1 1 1 1 1 1 1
          1 1 1 1 1 1
        </DataArray>
        <DataArray type="Float32" Name="pg" NumberOfComponents="1" format="ascii">
          50075.1 49673.2 49048.2 47397.4 41338.1 23053.1 22726.2 22399.3 22072.3 21745.4 21418.4 21091.5
          20764.6 20437.6 20110.7 19783.7 19456.8 19129.9 18802.9 18476 18149 17822.1 17495.1 17168.2
          16841.3 16514.3 16187.4 15860.4 15533.5 15206.6
        </DataArray>
        <DataArray type="Float32" Name="pl" NumberOfComponents="1" format="ascii">
          110628 110301 109974 109647 109320 108993 108666 108339 108012 107685 107358 107031
          106704 106377 106050 105723 105396 105070 104743 104416 104089 103762 103435 103108
          102781 102454 102127 101800 101473 101146
        </DataArray>
        <DataArray type="Float32" Name="pc" NumberOfComponents="1" format="ascii">
          -60552.4 -60627.4 -60925.5 -62249.3 -67981.6 -85939.7 -85939.7 -85939.7 -85939.7 -85939.7 -85939.7 -85939.7
          -85939.7 -85939.7 -85939.7 -85939.7 -85939.7 -85939.7 -85939.7 -85939.7 -85939.7 -85939.7 -85939.7 -85939.7
          -85939.7 -85939.7 -85939.7 -85939.7 -85939.7 -85939.7
        </DataArray>
        <DataArray type="Float32" Name="rhoL" NumberOfComponents="1" format="ascii">
          999.855 999.855 999.855 999.855 999.855 999.854 999.854 999.854 999.854 999.854 999.854 999.854
          999.853 999.853 999.853 999.853 999.853 999.853 999.852 999.852 999.852 999.852 999.852 999.852
          999.852 999.851 999.851 999.851 999.851 999.851
        </DataArray>
        <DataArray type="Float32" Name="rhoG" NumberOfComponents="1" format="ascii">
          0.620365 0.615387 0.607643 0.587192 0.512126 0.285598 0.281548 0.277498 0.273447 0.269397 0.265347 0.261296
          0.257246 0.253195 0.249145 0.245095 0.241044 0.236994 0.232944 0.228893 0.224843 0.220793 0.216742 0.212692
          0.208641 0.204591 0.200541 0.19649 0.19244 0.18839
        </DataArray>
        <DataArray type="Float32" Name="mobL" NumberOfComponents="1" format="ascii">
          722.171 722.17 722.17 722.17 722.17 722.17 722.169 722.169 722.169 722.169 722.169 722.169
          722.168 722.168 722.168 722.168 722.168 722.167 722.167 722.167 722.167 722.167 722.166 722.166
          722.166 722.166 722.166 722.166 722.165 722.165
        </DataArray>
        <DataArray type="Float32" Name="mobG" NumberOfComponents="1" format="ascii">
          0 0 0 0 0 0 0 0 0 0 0 0
          0 0 0 0 0 0 0 0 0 0 0 0
          0 0 0 0 0 0
        </DataArray>
        <DataArray type="Float32" Name="porosity" NumberOfComponents="1" format="ascii">
          0.298531 0.298531 0.298531 0.29853 0.29853 0.298529 0.298529 0.298528 0.298526 0.298524 0.298521 0.298517
          0.298512 0.298504 0.298494 0.298481 0.298463 0.298438 0.298405 0.29836 0.298298 0.298213 0.298092 0.297914
          0.29737 0.296915 0.296063 0.294083 0.287009 0.168682
        </DataArray>
        <DataArray type="Float32" Name="temperature" NumberOfComponents="1" format="ascii">
          281.15 281.15 281.15 281.15 281.15 281.15 281.15 281.15 281.15 281.15 281.15 281.15
          281.15 281.15 281.15 281.15 281.15 281.15 281.15 281.15 281.15 281.15 281.15 281.15
          281.15 281.15 281.15 281.15 281.15 281.15
        </DataArray>
        <DataArray type="Float32" Name="phase presence" NumberOfComponents="1" format="ascii">
          3 3 3 3 3 1 1 1 1 1 1 1
          1 1 1 1 1 1 1 1 1 1 1 1
          1 1 1 1 1 1
        </DataArray>
        <DataArray type="Float32" Name="precipitateVolumeFraction_au" NumberOfComponents="1" format="ascii">
          5.49269e-10 5.49265e-10 5.49266e-10 5.49266e-10 5.49266e-10 5.49266e-10 5.49261e-10 5.4925e-10 5.49281e-10 5.49293e-10 5.49299e-10 5.49271e-10
          5.49292e-10 5.49273e-10 5.49234e-10 5.49272e-10 5.4925e-10 5.49282e-10 5.493e-10 5.49271e-10 5.49294e-10 5.49298e-10 5.49259e-10 6.50867e-10
          0.00026994 0.000269923 0.000269898 0.000269855 5.48803e-10 5.47697e-10
        </DataArray>
        <DataArray type="Float32" Name="precipitateVolumeFraction_nanoAu" NumberOfComponents="1" format="ascii">
          3.61023e-12 3.60994e-12 3.60955e-12 3.60921e-12 3.60896e-12 3.60349e-12 3.58423e-12 3.57455e-12 3.62432e-12 3.62598e-12 3.62608e-12 3.60825e-12
          3.61502e-12 3.60786e-12 3.59907e-12 3.6068e-12 3.60351e-12 3.60721e-12 3.60802e-12 3.60546e-12 3.60645e-12 3.60617e-12 3.61318e-12 2.7475e-11
          6.08165e-08 7.71897e-08 1.02545e-07 1.45218e-07 3.93472e-12 3.89861e-12
        </DataArray>
        <DataArray type="Float32" Name="precipitateVolumeFraction_d" NumberOfComponents="1" format="ascii">
          0.000734532 0.000734602 0.000734702 0.000734842 0.000735039 0.000735316 0.000735704 0.000736244 0.000736996 0.000738038 0.000739474 0.000741447
          0.000744144 0.000747816 0.000752798 0.000759536 0.000768631 0.000780898 0.000797472 0.000819967 0.000850759 0.000893504 0.00095415 0.00104306
          0.00117997 0.00140749 0.00183369 0.00282357 0.0064953 0.0656589
        </DataArray>
        <DataArray type="Float32" Name="precipitateVolumeFraction_p" NumberOfComponents="1" format="ascii">
          0.000734532 0.000734602 0.000734702 0.000734842 0.000735039 0.000735316 0.000735704 0.000736244 0.000736996 0.000738038 0.000739474 0.000741447
          0.000744144 0.000747816 0.000752798 0.000759536 0.000768631 0.000780898 0.000797472 0.000819967 0.000850759 0.000893504 0.00095415 0.00104306
          0.00117997 0.00140749 0.00183369 0.00282357 0.0064953 0.0656589
        </DataArray>
        <DataArray type="Float32" Name="K" NumberOfComponents="1" format="ascii">
          9.81258e-11 9.81256e-11 9.81254e-11 9.8125e-11 9.81245e-11 9.81238e-11 9.81229e-11 9.81215e-11 9.81196e-11 9.81169e-11 9.81133e-11 9.81083e-11
          9.81015e-11 9.80922e-11 9.80796e-11 9.80625e-11 9.80395e-11 9.80085e-11 9.79666e-11 9.79097e-11 9.78319e-11 9.7724e-11 9.75711e-11 9.73473e-11
          9.66653e-11 9.60977e-11 9.50419e-11 9.26262e-11 8.44021e-11 1.26039e-11
        </DataArray>
        <DataArray type="Float32" Name="X^w_H2O" NumberOfComponents="1" format="ascii">
          0.999838 0.999838 0.999838 0.999839 0.999841 0.999847 0.999853 0.999853 0.999853 0.999853 0.999853 0.999853
          0.999853 0.999853 0.999853 0.999853 0.999853 0.999853 0.999853 0.999853 0.999853 0.999853 0.999853 0.999853
          0.999853 0.999852 0.99985 0.999846 0.999839 0.99984
        </DataArray>
        <DataArray type="Float32" Name="X^w_Air" NumberOfComponents="1" format="ascii">
          1.51894e-05 1.50648e-05 1.48711e-05 1.43594e-05 1.24812e-05 5.7497e-06 9.58999e-08 1.57074e-09 2.52942e-11 4.00685e-13 6.22644e-15 9.49095e-17
          1.42347e-18 2.09255e-20 3.02301e-22 4.27625e-24 5.93311e-26 8.07543e-28 1.07494e-29 1.39779e-31 1.77238e-33 2.18141e-35 2.57906e-37 0
          0 0 0 0 0 0
        </DataArray>
        <DataArray type="Float32" Name="X^w_AuComplex" NumberOfComponents="1" format="ascii">
          2.05872e-15 4.10259e-15 2.12546e-15 1.44807e-15 3.62195e-15 3.2786e-15 3.16867e-15 3.16024e-15 3.20405e-15 3.20559e-15 3.20576e-15 3.19017e-15
          3.19619e-15 3.18996e-15 3.18229e-15 3.18912e-15 3.18625e-15 3.18948e-15 3.19014e-15 3.18777e-15 3.18843e-15 3.18783e-15 3.19488e-15 2.79781e-14
          6.32448e-11 9.86082e-11 1.68953e-10 3.3122e-10 1.32677e-14 1.28629e-14
        </DataArray>
        <DataArray type="Float32" Name="X^w_nanoAu" NumberOfComponents="1" format="ascii">
          -3.68689e-16 4.61473e-16 -3.01944e-16 -9.79338e-16 1.19454e-15 1.34042e-14 1.5617e-17 1.55776e-17 1.57922e-17 1.57993e-17 1.57989e-17 1.57224e-17
          1.57512e-17 1.57199e-17 1.56823e-17 1.57154e-17 1.57013e-17 1.57172e-17 1.57204e-17 1.57092e-17 1.57168e-17 1.60612e-17 4.80136e-17 2.995e-15
          2.65558e-13 3.37188e-13 4.48042e-13 6.24194e-13 1.70353e-17 1.63443e-17
        </DataArray>
        <DataArray type="Float32" Name="X^w_cyanide" NumberOfComponents="1" format="ascii">
          5.08153e-06 5.0816e-06 5.08169e-06 5.08179e-06 5.08191e-06 5.08205e-06 5.0822e-06 5.08233e-06 5.08245e-06 5.08258e-06 5.08271e-06 5.08283e-06
          5.08295e-06 5.08305e-06 5.08313e-06 5.0832e-06 5.08322e-06 5.0832e-06 5.08311e-06 5.08292e-06 5.08258e-06 5.08201e-06 5.08106e-06 5.07949e-06
          5.07725e-06 6.45059e-06 8.58955e-06 1.22482e-05 1.93959e-05 1.89813e-05
        </DataArray>
        <DataArray type="Float32" Name="X^w_citrate" NumberOfComponents="1" format="ascii">
          0.000141794 0.000141794 0.000141794 0.000141794 0.000141794 0.000141795 0.000141796 0.000141796 0.000141796 0.000141796 0.000141796 0.000141796
          0.000141795 0.000141795 0.000141795 0.000141794 0.000141794 0.000141792 0.000141791 0.000141789 0.000141785 0.00014178 0.000141773 0.000141761
          0.000141741 0.000141705 0.000141636 0.000141472 0.000140963 0.000137948
        </DataArray>
        <DataArray type="Float32" Name="X^w_substrate" NumberOfComponents="1" format="ascii">
          7.59512e-12 1.07353e-11 1.52029e-11 2.15855e-11 3.06838e-11 4.32835e-11 5.93414e-11 8.31474e-11 1.16525e-10 1.63349e-10 2.29085e-10 3.21458e-10
          4.51431e-10 6.34632e-10 8.93475e-10 1.26036e-09 1.78263e-09 2.53034e-09 3.60894e-09 5.18059e-09 7.50158e-09 1.09911e-08 1.63654e-08 2.49206e-08
          3.91823e-08 6.45946e-08 1.14673e-07 2.30777e-07 5.91385e-07 2.71731e-06
        </DataArray>
        <DataArray type="Float32" Name="m^w_H2O" NumberOfComponents="1" format="ascii">
          55491.7 55491.7 55491.7 55491.7 55491.8 55492.2 55492.5 55492.5 55492.5 55492.5 55492.5 55492.5
          55492.5 55492.4 55492.4 55492.4 55492.4 55492.4 55492.4 55492.4 55492.4 55492.4 55492.4 55492.4
          55492.3 55492.3 55492.1 55491.9 55491.5 55491.6
        </DataArray>
        <DataArray type="Float32" Name="m^w_Air" NumberOfComponents="1" format="ascii">
          0.524419 0.520118 0.513429 0.495762 0.430916 0.19851 0.00331098 5.42303e-05 8.73291e-07 1.38338e-08 2.1497e-10 3.27678e-12
          4.91459e-14 7.22461e-16 1.0437e-17 1.47639e-19 2.04842e-21 2.78807e-23 3.71125e-25 4.82589e-27 6.11919e-29 7.53139e-31 8.90427e-33 9.92877e-35
          1.00506e-36 0 0 0 0 0
        </DataArray>
        <DataArray type="Float32" Name="m^w_AuComplex" NumberOfComponents="1" format="ascii">
          1.04504e-11 2.08255e-11 1.07892e-11 7.35067e-12 1.83857e-11 1.66427e-11 1.60847e-11 1.6042e-11 1.62643e-11 1.62721e-11 1.6273e-11 1.61938e-11
          1.62244e-11 1.61928e-11 1.61538e-11 1.61885e-11 1.61739e-11 1.61903e-11 1.61937e-11 1.61817e-11 1.6185e-11 1.61819e-11 1.62177e-11 1.42021e-10
          3.21041e-07 5.00551e-07 8.5763e-07 1.68132e-06 6.73491e-11 6.52943e-11
        </DataArray>
        <DataArray type="Float32" Name="m^w_nanoAu" NumberOfComponents="1" format="ascii">
          -1.87153e-12 2.34252e-12 -1.53272e-12 -4.9713e-12 6.06368e-12 6.80422e-11 7.92745e-14 7.90746e-14 8.01639e-14 8.02001e-14 8.01982e-14 7.98095e-14
          7.99558e-14 7.97968e-14 7.96062e-14 7.97743e-14 7.97027e-14 7.97831e-14 7.97995e-14 7.97426e-14 7.97813e-14 8.15295e-14 2.43725e-13 1.52031e-11
          1.34802e-09 1.71162e-09 2.27433e-09 3.16851e-09 8.64741e-14 8.29664e-14
        </DataArray>
        <DataArray type="Float32" Name="m^w_cyanide" NumberOfComponents="1" format="ascii">
          0.195265 0.195268 0.195271 0.195275 0.195279 0.195285 0.195291 0.195295 0.1953 0.195305 0.19531 0.195315
          0.195319 0.195323 0.195326 0.195329 0.19533 0.195329 0.195325 0.195318 0.195305 0.195283 0.195246 0.195186
          0.1951 0.247872 0.330064 0.470652 0.74531 0.72938
        </DataArray>
        <DataArray type="Float32" Name="m^w_citrate" NumberOfComponents="1" format="ascii">
          0.749731 0.749731 0.749731 0.749731 0.749732 0.749737 0.749741 0.749741 0.749741 0.74974 0.74974 0.749739
          0.749738 0.749736 0.749734 0.749731 0.749727 0.749721 0.749713 0.749701 0.749684 0.749658 0.749617 0.749553
          0.749446 0.74926 0.748891 0.748028 0.745333 0.729392
        </DataArray>
        <DataArray type="Float32" Name="m^w_substrate" NumberOfComponents="1" format="ascii">
          4.21516e-08 5.9579e-08 8.43731e-08 1.19795e-07 1.70289e-07 2.40215e-07 3.29334e-07 4.61453e-07 6.4669e-07 9.06558e-07 1.27138e-06 1.78403e-06
          2.50536e-06 3.52208e-06 4.95861e-06 6.99478e-06 9.89327e-06 1.40429e-05 2.00289e-05 2.87513e-05 4.16323e-05 6.09981e-05 9.08247e-05 0.000138304
          0.000217454 0.000358487 0.000636412 0.00128076 0.00328207 0.0150805
        </DataArray>
        <DataArray type="Float32" Name="process rank" NumberOfComponents="1" format="ascii">
          0 0 0 0 0 0 0 0 0 0 0 0
          0 0 0 0 0 0 0 0 0 0 0 0
          0 0 0 0 0 0
        </DataArray>
      </CellData>
      <Points>
        <DataArray type="Float32" Name="Coordinates" NumberOfComponents="3" format="ascii">
          0 0 0 0.5 0 0 0 0.0333333 0 0.5 0.0333333 0
          0 0.0666667 0 0.5 0.0666667 0 0 0.1 0 0.5 0.1 0
          0 0.133333 0 0.5 0.133333 0 0 0.166667 0 0.5 0.166667 0
          0 0.2 0 0.5 0.2 0 0 0.233333 0 0.5 0.233333 0
          0 0.266667 0 0.5 0.266667 0 0 0.3 0 0.5 0.3 0
          0 0.333333 0 0.5 0.333333 0 0 0.366667 0 0.5 0.366667 0
          0 0.4 0 0.5 0.4 0 0 0.433333 0 0.5 0.433333 0
          0 0.466667 0 0.5 0.466667 0 0 0.5 0 0.5 0.5 0
          0 0.533333 0 0.5 0.533333 0 0 0.566667 0 0.5 0.566667 0
          0 0.6 0 0.5 0.6 0 0 0.633333 0 0.5 0.633333 0
          0 0.666667 0 0.5 0.666667 0 0 0.7 0 0.5 0.7 0
          0 0.733333 0 0.5 0.733333 0 0 0.766667 0 0.5 0.766667 0
          0 0.8 0 0.5 0.8 0 0 0.833333 0 0.5 0.833333 0
          0 0.866667 0 0.5 0.866667 0 0 0.9 0 0.5 0.9 0
          0 0.933333 0 0.5 0.933333 0 0 0.966667 0 0.5 0.966667 0
          0 1 0 0.5 1 0
        </DataArray>
      </Points>
      <Cells>
        <DataArray type="Int32" Name="connectivity" NumberOfComponents="1" format="ascii">
          0 1 3 2 2 3 5 4 4 5 7 6
          6 7 9 8 8 9 11 10 10 11 13 12
          12 13 15 14 14 15 17 16 16 17 19 18
          18 19 21 20 20 21 23 22 22 23 25 24
          24 25 27 26 26 27 29 28 28 29 31 30
          30 31 33 32 32 33 35 34 34 35 37 36
          36 37 39 38 38 39 41 40 40 41 43 42
          42 43 45 44 44 45 47 46 46 47 49 48
          48 49 51 50 50 51 53 52 52 53 55 54
          54 55 57 56 56 57 59 58 58 59 61 60
        </DataArray>
        <DataArray type="Int32" Name="offsets" NumberOfComponents="1" format="ascii">
          4 8 12 16 20 24 28 32 36 40 44 48
          52 56 60 64 68 72 76 80 84 88 92 96
          100 104 108 112 116 120
        </DataArray>
        <DataArray type="UInt8" Name="types" NumberOfComponents="1" format="ascii">
          9 9 9 9 9 9 9 9 9 9 9 9
          9 9 9 9 9 9 9 9 9 9 9 9
          9 9 9 9 9 9
        </DataArray>
      </Cells>
    </Piece>
  </UnstructuredGrid>
</VTKFile>
