<?xml version="1.0"?>
<VTKFile type="UnstructuredGrid" version="0.1" byte_order="LittleEndian">
  <UnstructuredGrid>
    <Piece NumberOfCells="30" NumberOfPoints="62">
      <CellData Scalars="Sg">
        <DataArray type="Float32" Name="Sg" NumberOfComponents="1" format="ascii">
          0 0 0 0 0 0 0 0 0 0 0 0
          0 0 0 0 0 0 0 0 0 0 0 0
          0 0 0 0 0 0
        </DataArray>
        <DataArray type="Float32" Name="Sl" NumberOfComponents="1" format="ascii">
          1 1 1 1 1 1 1 1 1 1 1 1
          1 1 1 1 1 1 1 1 1 1 1 1
          1 1 1 1 1 1
        </DataArray>
        <DataArray type="Float32" Name="pg" NumberOfComponents="1" format="ascii">
          24687.8 24360.9 24034 23707 23380.1 23053.1 22726.2 22399.3 22072.3 21745.4 21418.4 21091.5
          20764.6 20437.6 20110.7 19783.7 19456.8 19129.8 18802.9 18476 18149 17822.1 17495.1 17168.2
          16841.3 16514.3 16187.4 15860.4 15533.5 15209.7
        </DataArray>
        <DataArray type="Float32" Name="pl" NumberOfComponents="1" format="ascii">
          110628 110301 109974 109647 109320 108993 108666 108339 108012 107685 107358 107031
          106704 106377 106050 105723 105396 105070 104743 104416 104089 103762 103435 103108
          102781 102454 102127 101800 101473 101149
        </DataArray>
        <DataArray type="Float32" Name="pc" NumberOfComponents="1" format="ascii">
          -85939.7 -85939.7 -85939.7 -85939.7 -85939.7 -85939.7 -85939.7 -85939.7 -85939.7 -85939.7 -85939.7 -85939.7
          -85939.7 -85939.7 -85939.7 -85939.7 -85939.7 -85939.7 -85939.7 -85939.7 -85939.7 -85939.7 -85939.7 -85939.7
          -85939.7 -85939.7 -85939.7 -85939.7 -85939.7 -85939.7
        </DataArray>
        <DataArray type="Float32" Name="rhoL" NumberOfComponents="1" format="ascii">
          999.855 999.855 999.855 999.855 999.855 999.854 999.854 999.854 999.854 999.854 999.854 999.854
          999.853 999.853 999.853 999.853 999.853 999.853 999.852 999.852 999.852 999.852 999.852 999.852
          999.852 999.851 999.851 999.851 999.851 999.851
        </DataArray>
        <DataArray type="Float32" Name="rhoG" NumberOfComponents="1" format="ascii">
          0.30585 0.3018 0.29775 0.293699 0.289649 0.285598 0.281548 0.277498 0.273447 0.269397 0.265347 0.261296
          0.257246 0.253195 0.249145 0.245095 0.241044 0.236994 0.232944 0.228893 0.224843 0.220793 0.216742 0.212692
          0.208641 0.204591 0.200541 0.19649 0.19244 0.188428
        </DataArray>
        <DataArray type="Float32" Name="mobL" NumberOfComponents="1" format="ascii">
          722.171 722.17 722.17 722.17 722.17 722.17 722.169 722.169 722.169 722.169 722.169 722.169
          722.168 722.168 722.168 722.168 722.168 722.167 722.167 722.167 722.167 722.167 722.166 722.166
          722.166 722.166 722.166 722.166 722.165 722.165
        </DataArray>
        <DataArray type="Float32" Name="mobG" NumberOfComponents="1" format="ascii">
          0 0 0 0 0 0 0 0 0 0 0 0
          0 0 0 0 0 0 0 0 0 0 0 0
          0 0 0 0 0 0
        </DataArray>
        <DataArray type="Float32" Name="porosity" NumberOfComponents="1" format="ascii">
          0.298875 0.298875 0.298875 0.298874 0.298874 0.298874 0.298873 0.298872 0.298871 0.298869 0.298867 0.298864
          0.298859 0.298853 0.298845 0.298835 0.29882 0.2988 0.298773 0.298736 0.298685 0.298614 0.298511 0.298357
          0.297844 0.297421 0.296568 0.294282 0.282716 0.0447003
        </DataArray>
        <DataArray type="Float32" Name="temperature" NumberOfComponents="1" format="ascii">
          281.15 281.15 281.15 281.15 281.15 281.15 281.15 281.15 281.15 281.15 281.15 281.15
          281.15 281.15 281.15 281.15 281.15 281.15 281.15 281.15 281.15 281.15 281.15 281.15
          281.15 281.15 281.15 281.15 281.15 281.15
        </DataArray>
        <DataArray type="Float32" Name="phase presence" NumberOfComponents="1" format="ascii">
          1 1 1 1 1 1 1 1 1 1 1 1
          1 1 1 1 1 1 1 1 1 1 1 1
          1 1 1 1 1 1
        </DataArray>
        <DataArray type="Float32" Name="precipitateVolumeFraction_au" NumberOfComponents="1" format="ascii">
          5.53783e-10 5.52809e-10 5.52745e-10 5.52762e-10 5.52759e-10 5.52714e-10 5.52732e-10 5.52692e-10 5.52789e-10 5.52752e-10 5.52744e-10 5.52777e-10
          5.52766e-10 5.52755e-10 5.52774e-10 5.52775e-10 5.5276e-10 5.52761e-10 5.52764e-10 5.528e-10 5.52758e-10 5.52777e-10 5.5308e-10 1.30647e-09
          0.000269941 0.000269925 0.0002699 0.000269851 5.52257e-10 5.51242e-10
        </DataArray>
        <DataArray type="Float32" Name="precipitateVolumeFraction_nanoAu" NumberOfComponents="1" format="ascii">
          1.23884e-13 1.23666e-13 1.23652e-13 1.23656e-13 1.23655e-13 1.23645e-13 1.23649e-13 1.2364e-13 1.23662e-13 1.23653e-13 1.23651e-13 1.23658e-13
          1.23655e-13 1.23652e-13 1.23655e-13 1.23654e-13 1.23649e-13 1.23647e-13 1.23644e-13 1.23648e-13 1.23632e-13 1.23644e-13 1.35601e-13 2.5841e-11
          6.03616e-08 7.66831e-08 1.02146e-07 1.4557e-07 4.74238e-13 4.6723e-13
        </DataArray>
        <DataArray type="Float32" Name="precipitateVolumeFraction_d" NumberOfComponents="1" format="ascii">
          0.000562595 0.000562653 0.000562734 0.000562848 0.000563008 0.000563232 0.000563545 0.000563981 0.000564587 0.000565424 0.000566578 0.000568163
          0.000570329 0.000573282 0.000577292 0.000582725 0.000590077 0.000600028 0.000613535 0.000631978 0.000657424 0.000693123 0.000744497 0.000821315
          0.000943047 0.00115445 0.00158102 0.00272399 0.00864212 0.12765
        </DataArray>
        <DataArray type="Float32" Name="precipitateVolumeFraction_p" NumberOfComponents="1" format="ascii">
          0.000562595 0.000562653 0.000562734 0.000562848 0.000563008 0.000563232 0.000563545 0.000563981 0.000564587 0.000565424 0.000566578 0.000568163
          0.000570329 0.000573282 0.000577292 0.000582725 0.000590077 0.000600028 0.000613535 0.000631978 0.000657424 0.000693123 0.000744497 0.000821315
          0.000943047 0.00115445 0.00158102 0.00272399 0.00864212 0.12765
        </DataArray>
        <DataArray type="Float32" Name="K" NumberOfComponents="1" format="ascii">
          9.85619e-11 9.85618e-11 9.85616e-11 9.85613e-11 9.85609e-11 9.85603e-11 9.85595e-11 9.85584e-11 9.85569e-11 9.85547e-11 9.85518e-11 9.85478e-11
          9.85423e-11 9.85348e-11 9.85246e-11 9.85108e-11 9.84921e-11 9.84668e-11 9.84325e-11 9.83857e-11 9.83212e-11 9.82307e-11 9.81006e-11 9.79063e-11
          9.72593e-11 9.67292e-11 9.56667e-11 9.28669e-11 7.97076e-11 1.77616e-13
        </DataArray>
        <DataArray type="Float32" Name="X^w_H2O" NumberOfComponents="1" format="ascii">
          0.999853 0.999853 0.999853 0.999853 0.999853 0.999853 0.999853 0.999853 0.999853 0.999853 0.999853 0.999853
          0.999853 0.999853 0.999853 0.999853 0.999853 0.999853 0.999853 0.999853 0.999853 0.999853 0.999853 0.999853
          0.999853 0.999852 0.99985 0.999846 0.999839 0.99984
        </DataArray>
        <DataArray type="Float32" Name="X^w_Air" NumberOfComponents="1" format="ascii">
          0 0 0 0 0 0 0 0 0 0 0 0
          0 0 0 0 0 0 0 0 0 0 0 0
          0 0 0 0 0 0
        </DataArray>
        <DataArray type="Float32" Name="X^w_AuComplex" NumberOfComponents="1" format="ascii">
          1.41349e-16 1.41101e-16 1.41085e-16 1.41089e-16 1.41088e-16 1.41077e-16 1.41081e-16 1.41071e-16 1.41095e-16 1.41085e-16 1.41083e-16 1.4109e-16
          1.41086e-16 1.41082e-16 1.41085e-16 1.41082e-16 1.41075e-16 1.4107e-16 1.41064e-16 1.41064e-16 1.4104e-16 1.41043e-16 1.54478e-16 2.94549e-14
          6.8833e-11 1.07368e-10 1.84402e-10 3.64021e-10 1.83597e-15 1.78823e-15
        </DataArray>
        <DataArray type="Float32" Name="X^w_nanoAu" NumberOfComponents="1" format="ascii">
          5.39548e-19 5.38609e-19 5.38548e-19 5.38563e-19 5.38561e-19 5.38517e-19 5.38534e-19 5.38495e-19 5.38588e-19 5.3855e-19 5.38542e-19 5.38571e-19
          5.38557e-19 5.38543e-19 5.38556e-19 5.38549e-19 5.38526e-19 5.38513e-19 5.38498e-19 5.38548e-19 5.42158e-19 8.83532e-19 3.25041e-17 2.95703e-15
          2.63623e-13 3.35098e-13 4.46626e-13 6.26581e-13 2.05978e-18 1.9849e-18
        </DataArray>
        <DataArray type="Float32" Name="X^w_cyanide" NumberOfComponents="1" format="ascii">
          5.0705e-06 5.0705e-06 5.0705e-06 5.0705e-06 5.0705e-06 5.0705e-06 5.0705e-06 5.0705e-06 5.07049e-06 5.07048e-06 5.07047e-06 5.07046e-06
          5.07044e-06 5.07041e-06 5.07037e-06 5.07031e-06 5.07024e-06 5.07014e-06 5.07001e-06 5.06982e-06 5.06957e-06 5.0692e-06 5.06868e-06 5.06789e-06
          5.06715e-06 6.43679e-06 8.57253e-06 1.22384e-05 1.9465e-05 1.9239e-05
        </DataArray>
        <DataArray type="Float32" Name="X^w_citrate" NumberOfComponents="1" format="ascii">
          0.000141796 0.000141796 0.000141796 0.000141796 0.000141796 0.000141796 0.000141796 0.000141796 0.000141796 0.000141796 0.000141796 0.000141796
          0.000141795 0.000141795 0.000141795 0.000141794 0.000141794 0.000141793 0.000141792 0.000141791 0.000141789 0.000141786 0.000141782 0.000141777
          0.000141768 0.000141754 0.000141727 0.000141665 0.000141461 0.000139818
        </DataArray>
        <DataArray type="Float32" Name="X^w_substrate" NumberOfComponents="1" format="ascii">
          1.85497e-11 2.44484e-11 3.22209e-11 4.24626e-11 5.59578e-11 7.3741e-11 9.7177e-11 1.28068e-10 1.68796e-10 2.22517e-10 2.93414e-10 3.87059e-10
          5.10892e-10 6.7491e-10 8.92628e-10 1.18249e-09 1.56994e-09 2.09064e-09 2.79545e-09 3.75872e-09 5.0923e-09 6.97099e-09 9.68131e-09 1.37227e-08
          2.00395e-08 3.06268e-08 5.04269e-08 9.5055e-08 2.39916e-07 1.39829e-06
        </DataArray>
        <DataArray type="Float32" Name="m^w_H2O" NumberOfComponents="1" format="ascii">
          55492.6 55492.6 55492.5 55492.5 55492.5 55492.5 55492.5 55492.5 55492.5 55492.5 55492.5 55492.5
          55492.5 55492.4 55492.4 55492.4 55492.4 55492.4 55492.4 55492.4 55492.4 55492.4 55492.4 55492.4
          55492.3 55492.3 55492.1 55491.9 55491.5 55491.6
        </DataArray>
        <DataArray type="Float32" Name="m^w_Air" NumberOfComponents="1" format="ascii">
          0 0 0 0 0 0 0 0 0 0 0 0
          0 0 0 0 0 0 0 0 0 0 0 0
          0 0 0 0 0 0
        </DataArray>
        <DataArray type="Float32" Name="m^w_AuComplex" NumberOfComponents="1" format="ascii">
          7.17515e-13 7.16254e-13 7.16171e-13 7.16193e-13 7.16189e-13 7.1613e-13 7.16153e-13 7.161e-13 7.16224e-13 7.16174e-13 7.16161e-13 7.16199e-13
          7.16179e-13 7.16158e-13 7.16171e-13 7.16158e-13 7.16121e-13 7.16096e-13 7.16064e-13 7.16063e-13 7.15942e-13 7.15957e-13 7.84156e-13 1.49518e-10
          3.49408e-07 5.45017e-07 9.36053e-07 1.84783e-06 9.31969e-12 9.07736e-12
        </DataArray>
        <DataArray type="Float32" Name="m^w_nanoAu" NumberOfComponents="1" format="ascii">
          2.73884e-15 2.73408e-15 2.73376e-15 2.73384e-15 2.73383e-15 2.73361e-15 2.73369e-15 2.7335e-15 2.73396e-15 2.73378e-15 2.73373e-15 2.73388e-15
          2.73381e-15 2.73374e-15 2.7338e-15 2.73377e-15 2.73365e-15 2.73358e-15 2.73351e-15 2.73376e-15 2.75209e-15 4.48495e-15 1.64996e-13 1.50104e-11
          1.33819e-09 1.70101e-09 2.26714e-09 3.18063e-09 1.04558e-14 1.00757e-14
        </DataArray>
        <DataArray type="Float32" Name="m^w_cyanide" NumberOfComponents="1" format="ascii">
          0.194841 0.194841 0.194841 0.194841 0.194841 0.194841 0.194841 0.194841 0.194841 0.19484 0.19484 0.194839
          0.194838 0.194837 0.194836 0.194834 0.194831 0.194827 0.194822 0.194815 0.194805 0.194791 0.19477 0.19474
          0.194712 0.247342 0.32941 0.470277 0.747965 0.739281
        </DataArray>
        <DataArray type="Float32" Name="m^w_citrate" NumberOfComponents="1" format="ascii">
          0.749742 0.749742 0.749742 0.749742 0.749741 0.749741 0.749741 0.749741 0.74974 0.74974 0.749739 0.749738
          0.749737 0.749736 0.749734 0.749732 0.749729 0.749725 0.749719 0.749712 0.749702 0.749688 0.749667 0.749637
          0.749589 0.749515 0.749372 0.749045 0.747968 0.739282
        </DataArray>
        <DataArray type="Float32" Name="m^w_substrate" NumberOfComponents="1" format="ascii">
          1.02947e-07 1.35684e-07 1.7882e-07 2.35659e-07 3.10555e-07 4.09249e-07 5.39314e-07 7.10754e-07 9.36789e-07 1.23492e-06 1.62839e-06 2.1481e-06
          2.83536e-06 3.74562e-06 4.95391e-06 6.56257e-06 8.71286e-06 1.16026e-05 1.55142e-05 2.08601e-05 2.82612e-05 3.86876e-05 5.37293e-05 7.6158e-05
          0.000111215 0.000169972 0.000279859 0.000527536 0.00133149 0.0077602
        </DataArray>
        <DataArray type="Float32" Name="process rank" NumberOfComponents="1" format="ascii">
          0 0 0 0 0 0 0 0 0 0 0 0
          0 0 0 0 0 0 0 0 0 0 0 0
          0 0 0 0 0 0
        </DataArray>
      </CellData>
      <Points>
        <DataArray type="Float32" Name="Coordinates" NumberOfComponents="3" format="ascii">
          0 0 0 0.5 0 0 0 0.0333333 0 0.5 0.0333333 0
          0 0.0666667 0 0.5 0.0666667 0 0 0.1 0 0.5 0.1 0
          0 0.133333 0 0.5 0.133333 0 0 0.166667 0 0.5 0.166667 0
          0 0.2 0 0.5 0.2 0 0 0.233333 0 0.5 0.233333 0
          0 0.266667 0 0.5 0.266667 0 0 0.3 0 0.5 0.3 0
          0 0.333333 0 0.5 0.333333 0 0 0.366667 0 0.5 0.366667 0
          0 0.4 0 0.5 0.4 0 0 0.433333 0 0.5 0.433333 0
          0 0.466667 0 0.5 0.466667 0 0 0.5 0 0.5 0.5 0
          0 0.533333 0 0.5 0.533333 0 0 0.566667 0 0.5 0.566667 0
          0 0.6 0 0.5 0.6 0 0 0.633333 0 0.5 0.633333 0
          0 0.666667 0 0.5 0.666667 0 0 0.7 0 0.5 0.7 0
          0 0.733333 0 0.5 0.733333 0 0 0.766667 0 0.5 0.766667 0
          0 0.8 0 0.5 0.8 0 0 0.833333 0 0.5 0.833333 0
          0 0.866667 0 0.5 0.866667 0 0 0.9 0 0.5 0.9 0
          0 0.933333 0 0.5 0.933333 0 0 0.966667 0 0.5 0.966667 0
          0 1 0 0.5 1 0
        </DataArray>
      </Points>
      <Cells>
        <DataArray type="Int32" Name="connectivity" NumberOfComponents="1" format="ascii">
          0 1 3 2 2 3 5 4 4 5 7 6
          6 7 9 8 8 9 11 10 10 11 13 12
          12 13 15 14 14 15 17 16 16 17 19 18
          18 19 21 20 20 21 23 22 22 23 25 24
          24 25 27 26 26 27 29 28 28 29 31 30
          30 31 33 32 32 33 35 34 34 35 37 36
          36 37 39 38 38 39 41 40 40 41 43 42
          42 43 45 44 44 45 47 46 46 47 49 48
          48 49 51 50 50 51 53 52 52 53 55 54
          54 55 57 56 56 57 59 58 58 59 61 60
        </DataArray>
        <DataArray type="Int32" Name="offsets" NumberOfComponents="1" format="ascii">
          4 8 12 16 20 24 28 32 36 40 44 48
          52 56 60 64 68 72 76 80 84 88 92 96
          100 104 108 112 116 120
        </DataArray>
        <DataArray type="UInt8" Name="types" NumberOfComponents="1" format="ascii">
          9 9 9 9 9 9 9 9 9 9 9 9
          9 9 9 9 9 9 9 9 9 9 9 9
          9 9 9 9 9 9
        </DataArray>
      </Cells>
    </Piece>
  </UnstructuredGrid>
</VTKFile>
