<?xml version="1.0"?>
<VTKFile type="UnstructuredGrid" version="0.1" byte_order="LittleEndian">
  <UnstructuredGrid>
    <Piece NumberOfCells="30" NumberOfPoints="62">
      <CellData Scalars="Sg">
        <DataArray type="Float32" Name="Sg" NumberOfComponents="1" format="ascii">
          0 0 0 0 0 0 0 0 0 0 0 0
          0 0 0 0 0 0 0 0 0 0 0 0
          0 0 0 0 0 0
        </DataArray>
        <DataArray type="Float32" Name="Sl" NumberOfComponents="1" format="ascii">
          1 1 1 1 1 1 1 1 1 1 1 1
          1 1 1 1 1 1 1 1 1 1 1 1
          1 1 1 1 1 1
        </DataArray>
        <DataArray type="Float32" Name="pg" NumberOfComponents="1" format="ascii">
          24687.8 24360.9 24034 23707 23380.1 23053.1 22726.2 22399.3 22072.3 21745.4 21418.4 21091.5
          20764.6 20437.6 20110.7 19783.7 19456.8 19129.8 18802.9 18476 18149 17822.1 17495.1 17168.2
          16841.3 16514.3 16187.4 15860.4 15533.5 15209.4
        </DataArray>
        <DataArray type="Float32" Name="pl" NumberOfComponents="1" format="ascii">
          110628 110301 109974 109647 109320 108993 108666 108339 108012 107685 107358 107031
          106704 106377 106050 105723 105396 105070 104743 104416 104089 103762 103435 103108
          102781 102454 102127 101800 101473 101149
        </DataArray>
        <DataArray type="Float32" Name="pc" NumberOfComponents="1" format="ascii">
          -85939.7 -85939.7 -85939.7 -85939.7 -85939.7 -85939.7 -85939.7 -85939.7 -85939.7 -85939.7 -85939.7 -85939.7
          -85939.7 -85939.7 -85939.7 -85939.7 -85939.7 -85939.7 -85939.7 -85939.7 -85939.7 -85939.7 -85939.7 -85939.7
          -85939.7 -85939.7 -85939.7 -85939.7 -85939.7 -85939.7
        </DataArray>
        <DataArray type="Float32" Name="rhoL" NumberOfComponents="1" format="ascii">
          999.855 999.855 999.855 999.855 999.855 999.854 999.854 999.854 999.854 999.854 999.854 999.854
          999.853 999.853 999.853 999.853 999.853 999.853 999.852 999.852 999.852 999.852 999.852 999.852
          999.852 999.851 999.851 999.851 999.851 999.851
        </DataArray>
        <DataArray type="Float32" Name="rhoG" NumberOfComponents="1" format="ascii">
          0.30585 0.3018 0.29775 0.293699 0.289649 0.285598 0.281548 0.277498 0.273447 0.269397 0.265347 0.261296
          0.257246 0.253195 0.249145 0.245095 0.241044 0.236994 0.232944 0.228893 0.224843 0.220793 0.216742 0.212692
          0.208641 0.204591 0.200541 0.19649 0.19244 0.188424
        </DataArray>
        <DataArray type="Float32" Name="mobL" NumberOfComponents="1" format="ascii">
          722.171 722.17 722.17 722.17 722.17 722.17 722.169 722.169 722.169 722.169 722.169 722.169
          722.168 722.168 722.168 722.168 722.168 722.167 722.167 722.167 722.167 722.167 722.166 722.166
          722.166 722.166 722.166 722.166 722.165 722.165
        </DataArray>
        <DataArray type="Float32" Name="mobG" NumberOfComponents="1" format="ascii">
          0 0 0 0 0 0 0 0 0 0 0 0
          0 0 0 0 0 0 0 0 0 0 0 0
          0 0 0 0 0 0
        </DataArray>
        <DataArray type="Float32" Name="porosity" NumberOfComponents="1" format="ascii">
          0.298778 0.298778 0.298778 0.298778 0.298777 0.298777 0.298776 0.298775 0.298774 0.298772 0.29877 0.298766
          0.298762 0.298756 0.298747 0.298735 0.29872 0.298699 0.29867 0.298631 0.298577 0.298501 0.298392 0.298231
          0.297707 0.29727 0.296402 0.294147 0.2835 0.0461999
        </DataArray>
        <DataArray type="Float32" Name="temperature" NumberOfComponents="1" format="ascii">
          281.15 281.15 281.15 281.15 281.15 281.15 281.15 281.15 281.15 281.15 281.15 281.15
          281.15 281.15 281.15 281.15 281.15 281.15 281.15 281.15 281.15 281.15 281.15 281.15
          281.15 281.15 281.15 281.15 281.15 281.15
        </DataArray>
        <DataArray type="Float32" Name="phase presence" NumberOfComponents="1" format="ascii">
          1 1 1 1 1 1 1 1 1 1 1 1
          1 1 1 1 1 1 1 1 1 1 1 1
          1 1 1 1 1 1
        </DataArray>
        <DataArray type="Float32" Name="precipitateVolumeFraction_au" NumberOfComponents="1" format="ascii">
          5.52613e-10 5.52523e-10 5.52767e-10 5.52736e-10 5.52762e-10 5.52768e-10 5.52755e-10 5.52754e-10 5.52761e-10 5.52781e-10 5.52738e-10 5.52578e-10
          5.52764e-10 5.52525e-10 5.52793e-10 5.52718e-10 5.52739e-10 5.52729e-10 5.52783e-10 5.52718e-10 5.52718e-10 5.52785e-10 5.52995e-10 1.10781e-09
          0.000269941 0.000269924 0.0002699 0.000269852 5.52284e-10 5.51037e-10
        </DataArray>
        <DataArray type="Float32" Name="precipitateVolumeFraction_nanoAu" NumberOfComponents="1" format="ascii">
          1.23631e-13 1.23611e-13 1.23665e-13 1.23658e-13 1.23664e-13 1.23665e-13 1.23662e-13 1.23662e-13 1.23663e-13 1.23667e-13 1.23658e-13 1.23621e-13
          1.23662e-13 1.23608e-13 1.23667e-13 1.23649e-13 1.23653e-13 1.23648e-13 1.23657e-13 1.23638e-13 1.23633e-13 1.23656e-13 1.35579e-13 2.58027e-11
          6.03664e-08 7.66885e-08 1.0215e-07 1.45569e-07 4.74205e-13 4.67003e-13
        </DataArray>
        <DataArray type="Float32" Name="precipitateVolumeFraction_d" NumberOfComponents="1" format="ascii">
          0.000610858 0.000610919 0.000611005 0.000611125 0.000611294 0.000611532 0.000611864 0.000612327 0.00061297 0.000613861 0.000615091 0.000616779
          0.000619089 0.000622238 0.000626514 0.000632308 0.000640144 0.000650746 0.000665124 0.00068473 0.000711737 0.000749535 0.000803758 0.000884475
          0.00101157 0.00123013 0.00166399 0.00279128 0.00824989 0.1269
        </DataArray>
        <DataArray type="Float32" Name="precipitateVolumeFraction_p" NumberOfComponents="1" format="ascii">
          0.000610858 0.000610919 0.000611005 0.000611125 0.000611294 0.000611532 0.000611864 0.000612327 0.00061297 0.000613861 0.000615091 0.000616779
          0.000619089 0.000622238 0.000626514 0.000632308 0.000640144 0.000650746 0.000665124 0.00068473 0.000711737 0.000749535 0.000803758 0.000884475
          0.00101157 0.00123013 0.00166399 0.00279128 0.00824989 0.1269
        </DataArray>
        <DataArray type="Float32" Name="K" NumberOfComponents="1" format="ascii">
          9.84393e-11 9.84392e-11 9.8439e-11 9.84387e-11 9.84382e-11 9.84376e-11 9.84368e-11 9.84356e-11 9.8434e-11 9.84317e-11 9.84286e-11 9.84243e-11
          9.84184e-11 9.84105e-11 9.83996e-11 9.83849e-11 9.8365e-11 9.83381e-11 9.83017e-11 9.8252e-11 9.81835e-11 9.80878e-11 9.79507e-11 9.77468e-11
          9.70872e-11 9.654e-11 9.54611e-11 9.27042e-11 8.0549e-11 1.96716e-13
        </DataArray>
        <DataArray type="Float32" Name="X^w_H2O" NumberOfComponents="1" format="ascii">
          0.999853 0.999853 0.999853 0.999853 0.999853 0.999853 0.999853 0.999853 0.999853 0.999853 0.999853 0.999853
          0.999853 0.999853 0.999853 0.999853 0.999853 0.999853 0.999853 0.999853 0.999853 0.999853 0.999853 0.999853
          0.999853 0.999852 0.99985 0.999846 0.999839 0.99984
        </DataArray>
        <DataArray type="Float32" Name="X^w_Air" NumberOfComponents="1" format="ascii">
          0 0 0 0 0 0 0 0 0 0 0 0
          0 0 0 0 0 0 0 0 0 0 0 0
          0 0 0 0 0 0
        </DataArray>
        <DataArray type="Float32" Name="X^w_AuComplex" NumberOfComponents="1" format="ascii">
          1.41066e-16 1.41043e-16 1.41105e-16 1.41097e-16 1.41103e-16 1.41105e-16 1.41101e-16 1.411e-16 1.41102e-16 1.41107e-16 1.41095e-16 1.41054e-16
          1.411e-16 1.41038e-16 1.41104e-16 1.41083e-16 1.41085e-16 1.41078e-16 1.41085e-16 1.4106e-16 1.41048e-16 1.41063e-16 1.54461e-16 2.94128e-14
          6.88423e-11 1.07381e-10 1.84417e-10 3.6402e-10 1.83568e-15 1.78766e-15
        </DataArray>
        <DataArray type="Float32" Name="X^w_nanoAu" NumberOfComponents="1" format="ascii">
          5.38455e-19 5.38371e-19 5.38605e-19 5.38575e-19 5.38599e-19 5.38605e-19 5.38591e-19 5.38589e-19 5.38595e-19 5.38613e-19 5.38569e-19 5.38414e-19
          5.38588e-19 5.38357e-19 5.38609e-19 5.38531e-19 5.38543e-19 5.38522e-19 5.38556e-19 5.38511e-19 5.42166e-19 8.83652e-19 3.25085e-17 2.95728e-15
          2.63646e-13 3.35124e-13 4.46645e-13 6.26563e-13 2.0594e-18 1.98378e-18
        </DataArray>
        <DataArray type="Float32" Name="X^w_cyanide" NumberOfComponents="1" format="ascii">
          5.07074e-06 5.07074e-06 5.07073e-06 5.07073e-06 5.07073e-06 5.07073e-06 5.07072e-06 5.07072e-06 5.07071e-06 5.0707e-06 5.07069e-06 5.07068e-06
          5.07066e-06 5.07063e-06 5.0706e-06 5.07055e-06 5.07049e-06 5.0704e-06 5.07028e-06 5.07011e-06 5.06987e-06 5.06952e-06 5.06901e-06 5.06823e-06
          5.06749e-06 6.43718e-06 8.57287e-06 1.22384e-05 1.94628e-05 1.92373e-05
        </DataArray>
        <DataArray type="Float32" Name="X^w_citrate" NumberOfComponents="1" format="ascii">
          0.000141796 0.000141796 0.000141796 0.000141796 0.000141796 0.000141796 0.000141796 0.000141796 0.000141796 0.000141796 0.000141796 0.000141796
          0.000141796 0.000141795 0.000141795 0.000141795 0.000141794 0.000141794 0.000141793 0.000141792 0.00014179 0.000141787 0.000141784 0.000141778
          0.000141769 0.000141754 0.000141726 0.000141661 0.000141446 0.000139807
        </DataArray>
        <DataArray type="Float32" Name="X^w_substrate" NumberOfComponents="1" format="ascii">
          1.07392e-11 1.44449e-11 1.94282e-11 2.61293e-11 3.51405e-11 4.72589e-11 6.35572e-11 8.54811e-11 1.1498e-10 1.54687e-10 2.08167e-10 2.80255e-10
          3.77541e-10 5.09043e-10 6.87188e-10 9.29245e-10 1.25947e-09 1.71243e-09 2.33826e-09 3.21136e-09 4.44534e-09 6.22016e-09 8.83443e-09 1.28145e-08
          1.91649e-08 3.0023e-08 5.07005e-08 9.79167e-08 2.50801e-07 1.40654e-06
        </DataArray>
        <DataArray type="Float32" Name="m^w_H2O" NumberOfComponents="1" format="ascii">
          55492.6 55492.6 55492.5 55492.5 55492.5 55492.5 55492.5 55492.5 55492.5 55492.5 55492.5 55492.5
          55492.5 55492.4 55492.4 55492.4 55492.4 55492.4 55492.4 55492.4 55492.4 55492.4 55492.4 55492.4
          55492.3 55492.3 55492.1 55491.9 55491.5 55491.6
        </DataArray>
        <DataArray type="Float32" Name="m^w_Air" NumberOfComponents="1" format="ascii">
          0 0 0 0 0 0 0 0 0 0 0 0
          0 0 0 0 0 0 0 0 0 0 0 0
          0 0 0 0 0 0
        </DataArray>
        <DataArray type="Float32" Name="m^w_AuComplex" NumberOfComponents="1" format="ascii">
          7.16075e-13 7.15959e-13 7.16274e-13 7.16233e-13 7.16265e-13 7.16273e-13 7.16254e-13 7.16251e-13 7.16258e-13 7.16281e-13 7.16223e-13 7.16012e-13
          7.16247e-13 7.15931e-13 7.16268e-13 7.16159e-13 7.16169e-13 7.16133e-13 7.1617e-13 7.16042e-13 7.1598e-13 7.16061e-13 7.84069e-13 1.49304e-10
          3.49455e-07 5.45084e-07 9.36132e-07 1.84782e-06 9.31822e-12 9.07443e-12
        </DataArray>
        <DataArray type="Float32" Name="m^w_nanoAu" NumberOfComponents="1" format="ascii">
          2.73329e-15 2.73287e-15 2.73405e-15 2.7339e-15 2.73403e-15 2.73405e-15 2.73398e-15 2.73397e-15 2.734e-15 2.73409e-15 2.73387e-15 2.73308e-15
          2.73396e-15 2.73279e-15 2.73407e-15 2.73367e-15 2.73373e-15 2.73363e-15 2.7338e-15 2.73357e-15 2.75213e-15 4.48556e-15 1.65019e-13 1.50116e-11
          1.33831e-09 1.70114e-09 2.26724e-09 3.18053e-09 1.04538e-14 1.007e-14
        </DataArray>
        <DataArray type="Float32" Name="m^w_cyanide" NumberOfComponents="1" format="ascii">
          0.19485 0.19485 0.19485 0.19485 0.19485 0.19485 0.19485 0.194849 0.194849 0.194849 0.194848 0.194848
          0.194847 0.194846 0.194845 0.194843 0.19484 0.194837 0.194832 0.194825 0.194816 0.194803 0.194783 0.194753
          0.194725 0.247357 0.329423 0.470274 0.747884 0.739219
        </DataArray>
        <DataArray type="Float32" Name="m^w_citrate" NumberOfComponents="1" format="ascii">
          0.749742 0.749742 0.749742 0.749742 0.749742 0.749741 0.749741 0.749741 0.749741 0.74974 0.74974 0.749739
          0.749738 0.749737 0.749736 0.749734 0.749731 0.749727 0.749723 0.749716 0.749707 0.749693 0.749673 0.749644
          0.749596 0.749519 0.74937 0.749024 0.747887 0.73922
        </DataArray>
        <DataArray type="Float32" Name="m^w_substrate" NumberOfComponents="1" format="ascii">
          5.96007e-08 8.01666e-08 1.07823e-07 1.45013e-07 1.95023e-07 2.62278e-07 3.52731e-07 4.74404e-07 6.38117e-07 8.58485e-07 1.15529e-06 1.55536e-06
          2.09528e-06 2.82509e-06 3.81376e-06 5.15713e-06 6.98982e-06 9.50367e-06 1.29769e-05 1.78224e-05 2.46708e-05 3.45206e-05 4.90293e-05 7.11178e-05
          0.000106361 0.000166622 0.000281377 0.000543418 0.00139189 0.00780603
        </DataArray>
        <DataArray type="Float32" Name="process rank" NumberOfComponents="1" format="ascii">
          0 0 0 0 0 0 0 0 0 0 0 0
          0 0 0 0 0 0 0 0 0 0 0 0
          0 0 0 0 0 0
        </DataArray>
      </CellData>
      <Points>
        <DataArray type="Float32" Name="Coordinates" NumberOfComponents="3" format="ascii">
          0 0 0 0.5 0 0 0 0.0333333 0 0.5 0.0333333 0
          0 0.0666667 0 0.5 0.0666667 0 0 0.1 0 0.5 0.1 0
          0 0.133333 0 0.5 0.133333 0 0 0.166667 0 0.5 0.166667 0
          0 0.2 0 0.5 0.2 0 0 0.233333 0 0.5 0.233333 0
          0 0.266667 0 0.5 0.266667 0 0 0.3 0 0.5 0.3 0
          0 0.333333 0 0.5 0.333333 0 0 0.366667 0 0.5 0.366667 0
          0 0.4 0 0.5 0.4 0 0 0.433333 0 0.5 0.433333 0
          0 0.466667 0 0.5 0.466667 0 0 0.5 0 0.5 0.5 0
          0 0.533333 0 0.5 0.533333 0 0 0.566667 0 0.5 0.566667 0
          0 0.6 0 0.5 0.6 0 0 0.633333 0 0.5 0.633333 0
          0 0.666667 0 0.5 0.666667 0 0 0.7 0 0.5 0.7 0
          0 0.733333 0 0.5 0.733333 0 0 0.766667 0 0.5 0.766667 0
          0 0.8 0 0.5 0.8 0 0 0.833333 0 0.5 0.833333 0
          0 0.866667 0 0.5 0.866667 0 0 0.9 0 0.5 0.9 0
          0 0.933333 0 0.5 0.933333 0 0 0.966667 0 0.5 0.966667 0
          0 1 0 0.5 1 0
        </DataArray>
      </Points>
      <Cells>
        <DataArray type="Int32" Name="connectivity" NumberOfComponents="1" format="ascii">
          0 1 3 2 2 3 5 4 4 5 7 6
          6 7 9 8 8 9 11 10 10 11 13 12
          12 13 15 14 14 15 17 16 16 17 19 18
          18 19 21 20 20 21 23 22 22 23 25 24
          24 25 27 26 26 27 29 28 28 29 31 30
          30 31 33 32 32 33 35 34 34 35 37 36
          36 37 39 38 38 39 41 40 40 41 43 42
          42 43 45 44 44 45 47 46 46 47 49 48
          48 49 51 50 50 51 53 52 52 53 55 54
          54 55 57 56 56 57 59 58 58 59 61 60
        </DataArray>
        <DataArray type="Int32" Name="offsets" NumberOfComponents="1" format="ascii">
          4 8 12 16 20 24 28 32 36 40 44 48
          52 56 60 64 68 72 76 80 84 88 92 96
          100 104 108 112 116 120
        </DataArray>
        <DataArray type="UInt8" Name="types" NumberOfComponents="1" format="ascii">
          9 9 9 9 9 9 9 9 9 9 9 9
          9 9 9 9 9 9 9 9 9 9 9 9
          9 9 9 9 9 9
        </DataArray>
      </Cells>
    </Piece>
  </UnstructuredGrid>
</VTKFile>
